"Repository","https://github.com/sapcc/elektra.git"
"Precision mean (RT)","0.16666666666666669"
"Precision median (RT)","0.0"
"Precision standard deviation (RT)","0.2886751345948129"
"Recall mean (RT)","0.04166666666666667"
"Recall median (RT)","0.0"
"Recall standard deviation (RT)","0.07216878364870323"
"F2 mean (RT)","0.04901960784313726"
"F2 median (RT)","0.0"
"F2 standard deviation (RT)","0.08490445135141556"
"Correlation #Test-Precision","-0.87"
"Correlation #Test-Recall","-0.87"
"Task","Dates","#Devs","#Commits","Hashes","#Gherkin_Tests","#Sted_defs","#TestI","#TaskI","TestI","TaskI","Precision","Recall","Rails","#visit_call","Lost_visit_call","#Views_TestI","#Code_View_Analysis","Code_View_Analysis","Methods_Unknown_Type","Renamed_Files","Deleted_Files","NotFound_Views","#NotFound_Views","Timestamp","Has_Merge","#FP","#FN","FP","FN","#Hits","Hits","f2"
"656","[09-10-2015]","2","2","[a8a67a09a1be72cbf1cfb350facefb31d820ae14, 10300e175aa73517d5d793200dc05f6223137be1]","5","8","2","1","[app/controllers/dashboard/pages_controller.rb, app/controllers/pages_controller.rb]","[app/controllers/dashboard/networks_controller.rb]","0.0","0.0","4.2.0","9","[]","0","5","[app/controllers/dashboard/pages_controller.rb, app/controllers/pages_controller.rb, app/views/pages/_breadcrumb.html.haml, app/views/pages/landing.html.haml, app/views/pages/start.html.haml]","[fill_in, click_on, page, driver, status_code, eq, monsoon_openstack_auth, monsoon_openstack_auth, eq, page, have_selector, current_url, path, have_content]","","[]","[/monsooncc_test/credentials, /monsooncc_test/projects, /monsooncc_test/test_admin_sandbox/instances, /monsooncc_test/test_admin_sandbox/networks, domain_start, logout, new_session, sessions]","8","3 minutes, 56.754 seconds","true","2","1","[app/controllers/dashboard/pages_controller.rb, app/controllers/pages_controller.rb]","[app/controllers/dashboard/networks_controller.rb]","0","[]","0"
"683","[15-06-2015, 16-06-2015]","2","10","[b7c8ed15edc3db311e79a1c2f5c2b50661d27272, d84215e2f3a01132b74349fedab727dd00f1d5ed, f8545e1eb24af867415ba6eabde5c079a87873a0, 10c0d508561c43343ced6662a1d4601056f100fe, f7e738041aa28f045fe9b3d57fb40de93b40b56a, 71eeddd64963c9ae17511cc2336a1d14bae6210e, 1b5e0345f14caeeae54286c039e1cb45b02989ad, 5f6354b43d039141bca5078d384e72df5b79ee3d, d5d7ae9c76196df57074876ea9141fe0492fc120, 2975637f5098f01bfdbceb409f2f212e5d0a530f]","3","4","1","0","[app/controllers/services_controller.rb]","[]","0.0","0.0","4.2.0","2","[]","0","2","[app/controllers/services_controller.rb, app/views/services/index.html.haml]","[page, have_content]","","[]","[credentials, images, instances, volumes]","4","1 minutes, 28.430 seconds","false","1","0","[app/controllers/services_controller.rb]","[]","0","[]","0"
"669","[02-10-2015]","1","2","[24f53852d9f80bc58e461c075be4b57643183a23, b75234f8f37fd542aedd417ad9e54e5df81a8c4a]","1","0","2","8","[app/controllers/dashboard/pages_controller.rb, app/controllers/pages_controller.rb]","[app/controllers/dashboard/credentials_controller.rb, app/controllers/dashboard/instances_controller.rb, app/controllers/dashboard/os_images_controller.rb, app/controllers/dashboard/pages_controller.rb, app/controllers/dashboard/projects_controller.rb, app/controllers/dashboard/users_controller.rb, app/controllers/dashboard/volumes_controller.rb, app/controllers/dashboard_controller.rb]","0.5","0.125","4.2.0","3","[]","0","5","[app/controllers/dashboard/pages_controller.rb, app/controllers/pages_controller.rb, app/views/pages/_breadcrumb.html.haml, app/views/pages/landing.html.haml, app/views/pages/start.html.haml]","[monsoon_openstack_auth, monsoon_openstack_auth, eq, page, have_selector, current_url, path]","","[app/controllers/authenticated_user/credentials_controller.rb, app/controllers/authenticated_user/instances_controller.rb, app/controllers/authenticated_user/os_images_controller.rb, app/controllers/authenticated_user/pages_controller.rb, app/controllers/authenticated_user/projects_controller.rb, app/controllers/authenticated_user/users_controller.rb, app/controllers/authenticated_user/volumes_controller.rb, app/controllers/authenticated_user_controller.rb, app/controllers/services_controller.rb, app/helpers/authenticated_user/credentials_helper.rb, app/helpers/authenticated_user/instances_helper.rb, app/helpers/authenticated_user/os_images_helper.rb, app/helpers/authenticated_user/users_helper.rb, app/helpers/authenticated_user/volumes_helper.rb, app/helpers/authenticated_user_helper.rb, app/views/authenticated_user/credentials/_form.html.haml, app/views/authenticated_user/credentials/_item.html.haml, app/views/authenticated_user/credentials/edit.html.haml, app/views/authenticated_user/credentials/index.html.haml, app/views/authenticated_user/credentials/new.html.haml, app/views/authenticated_user/error.html.haml, app/views/authenticated_user/forbidden.html.haml, app/views/authenticated_user/instances/_intro.html.haml, app/views/authenticated_user/instances/_item.html.haml, app/views/authenticated_user/instances/edit.html.haml, app/views/authenticated_user/instances/index.html.haml, app/views/authenticated_user/instances/new.html.haml, app/views/authenticated_user/instances/show.html.haml, app/views/authenticated_user/os_images/edit.html.haml, app/views/authenticated_user/os_images/index.html.haml, app/views/authenticated_user/os_images/new.html.haml, app/views/authenticated_user/projects/_form.html.haml, app/views/authenticated_user/projects/edit.html.haml, app/views/authenticated_user/projects/index.html.haml, app/views/authenticated_user/projects/new.html.haml, app/views/authenticated_user/projects/show.html.haml, app/views/authenticated_user/users/new.html.haml, app/views/authenticated_user/volumes/edit.html.haml, app/views/authenticated_user/volumes/index.html.haml, app/views/authenticated_user/volumes/new.html.haml, app/views/services/_breadcrumb.html.haml, app/views/services/index.html.haml]","[domain_start, logout, new_session, sessions]","4","2 minutes, 24.269 seconds","false","1","7","[app/controllers/pages_controller.rb]","[app/controllers/dashboard/credentials_controller.rb, app/controllers/dashboard/instances_controller.rb, app/controllers/dashboard/os_images_controller.rb, app/controllers/dashboard/projects_controller.rb, app/controllers/dashboard/users_controller.rb, app/controllers/dashboard/volumes_controller.rb, app/controllers/dashboard_controller.rb]","1","[app/controllers/dashboard/pages_controller.rb]","0.14705882352941177"
