"Repository","https://github.com/sharetribe/sharetribe.git"
"Tasks with empty IReal","0"
"Tasks with no-empty IReal","13"
"Tasks with relevant AST error","0"
"Tasks with AST error of Gherkin files","0"
"Tasks with AST error of StepDef files","0"
"Tasks with AST error of production files","0"
"Tasks with AST error of unit test files","0"
"Tasks with step match error","13"
"Tasks without required gems","0"
"Tasks with changed stepdef","7"
"Tasks with changed Gherkin","13"
"Tasks with implemented Gherkin scenarios","7"
"All invalid tasks","13"
"All valid tasks (Gherkin scenario, no empty IReal, no error)","0"
"Valid tasks, but empty ITest","0"
"Valid tasks, no empty ITest, but zero precision-recall","0"
"Valid tasks, no empty ITest, no zero precision-recall","0"
"Project","Task","Date","#Days","#Commits","Commit_Message","#Devs","#Gherkin_Tests","#Impl_Gherkin_Tests","#StepDef","#Impl_StepDef","Methods_Unknown_Type","#Step_Call","Step_Match_Errors","#Step_Match_Error","AST_Errors","#AST_Errors","Gherkin_AST_Errors","#Gherkin_AST_Errors","Steps_AST_Errors","#Steps_AST_Errors","Renamed_Files","Deleted_Files","NotFound_Views","#Views","#TestI","#TaskI","TestI","TaskI","Precision","Recall","Hashes","Timestamp","Rails","Gems","#Visit_Call","Lost_visit_call","#Views_ITest","#Code_View_Analysis","Code_View_Analysis","Has_Merge","F2","#Multiple_Step_Matches","Multiple_Step_Matches","#Generic_Step_Keyword","Generic_Step_Keyword"
"sharetribe","1366","[16-10-2015, 19-10-2015, 21-10-2015]","6","10","[Add correct Flowdock invitation link to README.md, Clarify copy when unsubscribe link has expired , wti pull , wti pull , Merge pull request #1499 from sharetribe/bingxie-delete-a-comment  Admin and comment author can delete a comment, Finetune copy, remove chinese change from commit , Delete a comment , wti pull , Merge pull request #1498 from sharetribe/fix-pagenegative-bug  Check page param for being > 0 to avoid data validation crash, Check page param for not being negative ]","3","1","0","0","0","[]","0","[path:features/listings/user_comments_a_listing.feature, size:1]","1","","0","","0","","0","","[]","","0","0","3","[]","[app/controllers/comments_controller.rb, app/controllers/homepage_controller.rb, app/views/listings/_comment.haml]","0.0","0.0","[6b47d47cd4be8eaba102d67813d72acb8def311c, 1a27ebfe8fad2a4393eae44f0f088ae11baa6986, 559776f2d9f7bb85cf9a0d1259f5ba4d6674ad98, 350a8fb0a30c8d32adf025601428c4a50c9f4a53, c9e1606a3efd958e26f0fae2d1072ca4cbfac514, 2dc45451ca79f93d93b1fe274d767a170b9c6147, 01490d75c7e0e33a765c433e91e6a68fe4798bdb, ed8bf86ffb1fc200847b8ba2bf3f0d963127ae8d, 4f9d2a71321834bf74d6603a69b8a70e021301c8, c53fe25b27340e90bbb6c8544b6fd4e3bef36ff6]","0.509 seconds","3.2.21","[cucumber-rails, rspec-rails, coveralls, factory_girl]","0","[]","0","0","[]","true","0.0","0","","0",""
"sharetribe","1431","[10-08-2015]","1","4","[changed tests since copy texts changed , changed preauthorized action message , paid <sum> => payment authorized: <sum> , changed other party to be author + conversation is actually transaction ]","1","5","4","1","1","[find_shape, create_listing, nil?, click, fill_in, click_button, community_id, id, inject, to_i, days, year, month, day, page, execute_script, start_with, and_return, at_least, times, set, page, have_content, update_attributes, click_link, choose, current_path, have_content, id, work_off, raise, work_off, raise, be_nil, open_email, unread_emails_for, subject, username, login_as, data, update, update_attribute, first_or_create!, reload, to_i, shapes, each, have_selector, within, within]","3","[path:features/conversations/preauthorization.feature, size:1]","1","","0","","0","","0","","[]","[listing, login, new_listing, person_transaction]","4","49","2","[app/controllers/admin/listing_shapes_controller.rb, app/controllers/homepage_controller.rb, app/helpers/rest_helper.rb, app/models/category.rb, app/models/category_listing_shape.rb, app/models/community.rb, app/models/listing.rb, app/models/person.rb, app/models/transaction.rb, app/models/transaction_process.rb, app/services/braintree_api.rb, app/services/braintree_service/escrow_release_helper.rb, app/services/email_service/api/api.rb, app/services/email_service/store/address.rb, app/services/feature_flag_service/api/api.rb, app/services/feature_flag_service/store.rb, app/services/listing_service/api/api.rb, app/services/listing_service/api/shapes.rb, app/services/listing_service/store/category.rb, app/services/listing_service/store/listing.rb, app/services/listing_service/store/shape.rb, app/services/marketplace_service/community.rb, app/services/marketplace_service/listing.rb, app/services/marketplace_service/person.rb, app/services/marketplace_service/transaction.rb, app/services/paypal_service/api/api.rb, app/services/paypal_service/api/minimum_commissions.rb, app/services/paypal_service/api/payments.rb, app/services/paypal_service/api/worker.rb, app/services/paypal_service/store/paypal_account.rb, app/services/transaction_service/api/api.rb, app/services/transaction_service/data_types/transaction.rb, app/services/transaction_service/store/transaction.rb, app/services/transaction_service/store/transaction_process.rb, app/services/transaction_service/transaction.rb, app/services/transaction_type_creator.rb, app/services/translation_service/api/api.rb, app/services/translation_service/api/translations.rb, app/views/homepage/_custom_filters.haml, app/views/homepage/_filters.haml, app/views/homepage/_grid_item.haml, app/views/homepage/_list_item.haml, app/views/homepage/_location_bar.haml, app/views/homepage/_map.haml, app/views/homepage/_price_filter.haml, app/views/homepage/_search_bar.haml, app/views/homepage/index.haml, app/views/layouts/_grid_item_listing_image.haml, lib/np_guid/uuidtools.rb]","[app/helpers/transaction_helper.rb, app/view_utils/transaction_view_utils.rb]","0.0","0.0","[10842c700432ced6bf7769b070502625ebd28a23, 96117b4093750ce80d4625b6d7b807b0f9db921a, 97a934b2558e7b9da9ff7b90547650d729cd7f62, 7d53c721b6bcfbf0683029cebf5d4452a3b8c746]","4.221 seconds","3.2.21","[cucumber-rails, rspec-rails, coveralls, factory_girl]","9","[{path=sharetribe_sharetribe/features/step_definitions/conversation_steps.rb, line=-1}]","10","11","[app/controllers/homepage_controller.rb, app/views/homepage/_custom_filters.haml, app/views/homepage/_filters.haml, app/views/homepage/_grid_item.haml, app/views/homepage/_list_item.haml, app/views/homepage/_location_bar.haml, app/views/homepage/_map.haml, app/views/homepage/_price_filter.haml, app/views/homepage/_search_bar.haml, app/views/homepage/index.haml, app/views/layouts/_grid_item_listing_image.haml]","false","0.0","2","[path:features/conversations/booking_transaction_process.feature, text:author ""owner"" should be notified about the request from starter ""booker""], [path:features/conversations/booking_transaction_process.feature, text:author ""owner"" and starter ""booker"" should be notified about automatic confirmation]","0",""
"sharetribe","1439","[06-08-2015]","1","6","[get_sender returns now hash with only one key, formatted , Add test for nil sender name , Return existing address_api instance , EmailService , Update schema , Use marketplace sender emails table data ]","1","1","0","1","1","[id]","0","[path:features/communities/update_mails.feature, size:1]","1","","0","","0","","0","","[]","","0","10","6","[app/services/email_service.rb, app/services/email_service/api/addresses.rb, app/services/email_service/api/api.rb, app/services/feature_flag_service/api/api.rb, app/services/listing_service/api/api.rb, app/services/paypal_service/api/api.rb, app/services/paypal_service/api/payments.rb, app/services/transaction_service/api/api.rb, app/services/translation_service/api/api.rb, app/services/translation_service/api/translations.rb]","[app/models/community.rb, app/services/email_service/api/addresses.rb, app/services/email_service/api/api.rb, app/services/email_service/email_service_injector.rb, app/services/email_service/store/address.rb, app/utils/mail_utils.rb]","0.2","0.3333333333","[62bd3c2849511064b3e7ab6bf87bb944a3b61f2b, b891aebb853260f954cf42a8ee2bce4a5548b662, 4992a770b0f8419aeb993e4b393922fccf9e4456, 43fe845e8662015d7f0d0c4a89cf2fae5ee90c1b, d68eb620ce9690290715834ce54ce30219415526, d3be208be074c826b0ac9899053f18596ffe4e43]","0.458 seconds","3.2.21","[cucumber-rails, rspec-rails, coveralls, factory_girl]","0","[]","0","0","[]","false","0.2941176470380623","1","[path:features/communities/update_mails.feature, text:I should have 0 emails]","0",""
"sharetribe","1468","[12-06-2015]","1","11","[WTI pull , Merge pull request #1289 from sharetribe/currency-validation  Currency parsing and validation fixes., Currency parsing and validation fixes. * parse 0.5 as 0.50 instead of 0.05 * reject values with fractional separator without decimal part, such as 2. and 39. * accept values without integer part, .99 is parsed as 0.99 , WTI pull , Merge pull request #1288 from sharetribe/delete-marketplace  Allow trial marketplace admins to delete their marketplace, Fix bug, hard coded test string , We may not have community , [skip ci] Improve copy texts , Can delete marketplace , Only trial marketplaces can be deleted , Marketplace delete ]","3","1","0","0","0","[]","0","[path:features/payments/seller_creates_braintree_invoice.feature, size:1]","1","","0","","0","","0","","[]","","0","0","5","[]","[app/controllers/admin/communities_controller.rb, app/controllers/application_controller.rb, app/models/community.rb, app/utils/money_util.rb, app/views/admin/communities/settings.haml]","0.0","0.0","[9185abb73be6a7d5df747b2897803d2ce31fba78, 879b7ac55c0018843fc984feca730427749399fb, 34c2faa651119d4ac2a6ed4ccfcd2285fd8dfb12, 43e615549e95d6ca45351cd7bded0335ad22f1c6, 507236c374374559786d354fae7a25c57337833b, 675631a5139ed1c76a6d55344ac01ad9e55c0de1, cd54e3916609d4154980aa62b8e4b36d9512238e, 14dba3dd10bb7863847fa0dc39c9b9a441fa74a5, 4176dfaf0265f30a908529c6c8a449c9f1d6670d, 302c94b58e38301c660ed3cdc2c449df0226dcea, 0234e17ac68db73654f2e62de0e1d616cccf2115]","0.366 seconds","3.2.21","[cucumber-rails, rspec-rails, coveralls, factory_girl]","0","[]","0","0","[]","true","0.0","0","","0",""
"sharetribe","1535","[04-05-2015, 05-05-2015, 06-05-2015]","3","20","[Merge pull request #1190 from sharetribe/edit-listing-type  Allow category and listing shape edit, Translated error text , Remove unused code , Use validator , Listing Form validator , Fix cucumber specs , Clear also shipping price , Handle subcategories , Push history state when selecting listing type and category , Remove price if the listing doesn't have one , Fix JSHint , Maybe fix units , JavaScript fixes and improvements , Edit category and type should be now possible , Move listing form JavaScript code to own file , [WIP not working] Edit form content , Move the XHR part to own method , Remove unused @community_category , Remove dup: Both new and edit listing use the same form content partial , Remove hidden fields and move them to controller ]","1","18","15","5","5","[username, hashes, save!, update_attributes, id, consent, update_attribute, set_default_preferences, save, each, login_as, update_all, name, find, find_shape, create_listing, click, click, months, from_now, page, have_content, community_id, inject, day, month, year, select, click_button, click_link, fill_in, check, has_content?, page, have_content, has_content?, have_no_content, has_no_content?, have_no_content, has_no_content?, be_visible, all, eql, each, within, category_custom_fields, options, each_with_index, custom_field, id, update_attribute, inject, wait_until_index_finished]","4","[path:features/listings/user_creates_a_new_listing.feature, size:1], [path:features/listings/user_edits_his_own_listing.feature, size:2]","3","","0","","0","","0","","[]","[edit_listing, new_listing]","2","38","6","[app/controllers/admin/listing_shapes_controller.rb, app/controllers/homepage_controller.rb, app/helpers/rest_helper.rb, app/models/category.rb, app/models/community.rb, app/models/community_membership.rb, app/models/custom_field.rb, app/models/custom_field_name.rb, app/models/custom_field_option_title.rb, app/models/email.rb, app/models/payment_gateway.rb, app/models/payment_gateways/braintree_payment_gateway.rb, app/models/person.rb, app/services/feature_flag_service/api/api.rb, app/services/feature_flag_service/store.rb, app/services/listing_service/api/api.rb, app/services/listing_service/store/category.rb, app/services/marketplace_service/community.rb, app/services/marketplace_service/person.rb, app/services/paypal_service/api/api.rb, app/services/paypal_service/api/minimum_commissions.rb, app/services/transaction_service/api/api.rb, app/services/transaction_service/store/transaction.rb, app/services/translation_service/api/api.rb, app/services/translation_service/api/translations.rb, app/utils/entity_utils.rb, app/utils/form_utils.rb, app/view_utils/listing_shape_templates.rb, app/views/homepage/_custom_filters.haml, app/views/homepage/_filters.haml, app/views/homepage/_grid_item.haml, app/views/homepage/_list_item.haml, app/views/homepage/_map.haml, app/views/homepage/_price_filter.haml, app/views/homepage/_search_bar.haml, app/views/homepage/index.haml, app/views/layouts/_grid_item_listing_image.haml, lib/np_guid/uuidtools.rb]","[app/controllers/listings_controller.rb, app/view_utils/listing_form_view_utils.rb, app/views/listings/edit.haml, app/views/listings/form/_form_content.haml, app/views/listings/form/_javascripts.haml, app/views/listings/new.haml]","0.0","0.0","[1012512f89668718246f80f7c07b8cd9aaf235e8, cae682771ad7228dbf85ffc4686fd5207f745752, d2f59fe6c3a379f48768d4ede95035fc86aa1ab1, f36a13018900ceb760b5be1725d1c67f3c1ad37d, aab2f6eaf158f4e79121bde85b59f27eb14b739c, 20d8ee3a3bd0833a557e8689c81d4acec1decb6b, eeb0eced6769516a52c7d878d111e7ec94b6a5d4, 8daabf2d2568fd499d75bf9768b6116e6f80029b, 3d0220e136a6573ef15917d5d4452c7abbae74f4, b9c0883dc7a54fe975cd55601cd5da7c8dd6df61, 4421bf47692c470b0d9bc1c48886e7e3f9dce3aa, 296d98e928bcac0edc2fbdd180550c37a8f2b238, f0f6608b933a2b73dafa0f0d0ba5cf866e2bc2ef, 8b148c8a4335b3514f81e3f8c5632047d1f57388, 91e527a84ca5b89ff00424206cbd49b762f2b1bc, c03b4f83588aa705aa3e53952ddb5b233adf0e93, 4bffe0b02400168ef286a3c977c1060d01712d46, f613a3a43d8cbe3b6b887d131ccddfbb6cdc8335, 17c2555dd8f21192cd82574d5344805aea59f799, 5821edc8d7bf261ecf9bcef1dbde94a9da3191a7]","4.158 seconds","3.2.21","[cucumber-rails, rspec-rails, coveralls, factory_girl]","4","[]","9","10","[app/controllers/homepage_controller.rb, app/views/homepage/_custom_filters.haml, app/views/homepage/_filters.haml, app/views/homepage/_grid_item.haml, app/views/homepage/_list_item.haml, app/views/homepage/_map.haml, app/views/homepage/_price_filter.haml, app/views/homepage/_search_bar.haml, app/views/homepage/index.haml, app/views/layouts/_grid_item_listing_image.haml]","true","0.0","0","","0",""
"sharetribe","1566","[09-04-2015]","1","21","[wti pull , Merge pull request #1109 from sharetribe/units-ui  Units ui (1/2), use 'get' instead of deprecated 'query' , print deprecation warning to stderr on development , fix: braintree preauthorized accept for bookin didn't work as expected. , fix: unit_type with nil value should not be localized , is_numeric? , quantity placeholder was not localized , ui-review: added missing colon , don't show price-break-down when there's no total or price_per , handling total value in free flow + localized_unit_type , postpay per unit_type , added test for basic info with unit_type and quantity 'night' was missing from cucumber steps , remove sum_or_price and booking partials , use break down partial in transaction view , added quantity to accept preauthorization view , add quantity to braintree preauthorized view , add quantity to transaction view , add quantity for paypal initiated controller + send correct info to paypal , add quantity to paypal initiated view , add quantity input for listi [TOO_LONG]","1","6","5","4","4","[find_shape, create_listing, nil?, click, fill_in, click_button, community_id, id, inject, to_i, days, year, month, day, page, execute_script, id, post, start_with, and_return, at_least, times, first_name, last_name, email, phone, address_street_address, address_postal_code, address_locality, address_region, date_of_birth, day, routing_number, account_number, person_id, set, page, have_content, update_attributes, click_link, find, choose, current_path, be_truthy, given_name, have_content, id, work_off, raise, work_off, raise, be_nil, open_email, unread_emails_for, subject, username, login_as, data, update, update_attribute, reload, to_i, shapes, each, has_content?, within, have_selector, within, select]","4","[path:features/conversations/preauthorization.feature, size:1]","1","","0","","0","","0","","[app/views/transactions/details/_booking.html.erb, app/views/transactions/details/_sum_or_price.html.erb]","[listing, login, new_listing, person_transaction]","4","45","19","[app/controllers/homepage_controller.rb, app/helpers/rest_helper.rb, app/models/category.rb, app/models/category_listing_shape.rb, app/models/community.rb, app/models/custom_field.rb, app/models/listing.rb, app/models/person.rb, app/models/transaction.rb, app/models/transaction_process.rb, app/services/braintree_api.rb, app/services/braintree_service/escrow_release_helper.rb, app/services/listing_service/api/api.rb, app/services/listing_service/api/shapes.rb, app/services/listing_service/store/category.rb, app/services/listing_service/store/shape.rb, app/services/listing_visibility_guard.rb, app/services/marketplace_service/community.rb, app/services/marketplace_service/listing.rb, app/services/marketplace_service/person.rb, app/services/marketplace_service/transaction.rb, app/services/paypal_service/api/api.rb, app/services/paypal_service/api/minimum_commissions.rb, app/services/paypal_service/api/payments.rb, app/services/paypal_service/api/worker.rb, app/services/paypal_service/store/paypal_account.rb, app/services/s3_uploader.rb, app/services/transaction_service/api/api.rb, app/services/transaction_service/data_types/transaction.rb, app/services/transaction_service/store/transaction.rb, app/services/transaction_service/store/transaction_process.rb, app/services/transaction_service/transaction.rb, app/services/transaction_type_creator.rb, app/services/translation_service/api/api.rb, app/services/translation_service/api/translations.rb, app/views/homepage/_custom_filters.haml, app/views/homepage/_filters.haml, app/views/homepage/_grid_item.haml, app/views/homepage/_list_item.haml, app/views/homepage/_map.haml, app/views/homepage/_price_filter.haml, app/views/homepage/_search_bar.haml, app/views/homepage/index.haml, app/views/layouts/_grid_item_listing_image.haml, lib/np_guid/uuidtools.rb]","[app/controllers/accept_preauthorized_conversations_controller.rb, app/controllers/listings_controller.rb, app/controllers/preauthorize_transactions_controller.rb, app/controllers/transactions_controller.rb, app/helpers/listings_helper.rb, app/services/marketplace_service/listing.rb, app/services/transaction_service/data_types/transaction.rb, app/services/transaction_service/gateway/paypal_adapter.rb, app/services/transaction_service/transaction.rb, app/utils/string_utils.rb, app/views/accept_preauthorized_conversations/accept.haml, app/views/conversations/_details.haml, app/views/listing_conversations/initiate.haml, app/views/listing_conversations/preauthorize.haml, app/views/listings/_listing_actions.haml, app/views/listings/show.haml, app/views/transactions/_details.haml, app/views/transactions/_price_break_down.haml, app/views/transactions/show.haml]","0.0666666667","0.1578947368","[e46c89cad9cbb4b6690c2e3444d8217ab709d734, ab0aedc1d25224ee2687effe42f8cf2b0c2ce1f7, 2c16894e7281fb623b372f237af5db07bdda186f, 43302cca9500bc1555d4038c4c89cb29aad5f8dd, cce8735439d9499127ee25f89ef1a5d968e2f3f6, 377f8e1db7164acb0efb86e5432e7a733f80b1fa, e6d9142d851e2cdedc19f025f196b4b8ed9197f6, 72a908bafdd301f446444e8bbae2ec31ad764106, dc1cc4116a56547b3c739ec6036ca3b86c85505a, e488bd67e7525692a9feff2987e3810b09dda336, a6ad3b08f9c008629839f51cfe850b1d5117f0ea, a26de0fe66df791b2bdaf437ab241ae9dd4e0a3e, bdd6619d0b0b3368c1503ae981c67dba78bba310, bebd5cef2af0a2da71a445ba7f38caa63ded350f, 6862c0680ce4f99dadf539bd3bf9f2c71177755b, e3b3e0834530b3bbeae60814d64eb80246dbc8e5, b81b9addd46390fdd6b3b4242d1531678843fe56, 9c678834a9f584fe80e7ea3023222acaa6118377, 1aa9bb4f2ebce7a7f0cb62d349aa2d3d518ff102, aa101a65ac4c9e92faf737421bdb5522a94b996a, bc59f0ffd6d4de10af15d687ec592d1b346b189f]","5.083 seconds","3.2.21","[cucumber-rails, rspec-rails, coveralls, factory_girl]","11","[{path=sharetribe_sharetribe/features/step_definitions/conversation_steps.rb, line=-1}, {path=sharetribe_sharetribe/features/step_definitions/web_steps.rb, line=-1}]","9","10","[app/controllers/homepage_controller.rb, app/views/homepage/_custom_filters.haml, app/views/homepage/_filters.haml, app/views/homepage/_grid_item.haml, app/views/homepage/_list_item.haml, app/views/homepage/_map.haml, app/views/homepage/_price_filter.haml, app/views/homepage/_search_bar.haml, app/views/homepage/index.haml, app/views/layouts/_grid_item_listing_image.haml]","true","0.12396694215104842","2","[path:features/conversations/booking_transaction_process.feature, text:author ""owner"" should be notified about the request from starter ""booker""], [path:features/conversations/booking_transaction_process.feature, text:author ""owner"" and starter ""booker"" should be notified about automatic confirmation]","0",""
"sharetribe","1747","[15-11-2014]","1","9","[Translations , Merge pull request #781 from sharetribe/confirmation_pending_page  New confirmation pending page, Update user_joins_invite_only_community.feature , Fixed cucumber tests , New confirmation pending page , new translations [skip ci] , Merge pull request #785 from sharetribe/pending-bug-fix  Fix Paypal bug in inbox, add translation that was missing from fi.yml , Fix cases when we get unknown penging_ext reason from Paypal ]","2","5","5","0","0","[username, hashes, save!, update_attributes, id, consent, update_attribute, set_default_preferences, save, each, generate_random_username, fill_in, page, username, have_no_content, has_no_content?, id, be_nil, confirmed_at, login_as, update_all, name, find, within, consent, present?, invitation, code, present?, usages_left, click_button, click_link, Integer, sleep, check, have_content, has_content?, find_field, tag_name, text, assert_match, unread_emails_for, parse_email_count, mailbox_for, subject, select, open_email, visit_in_email, click_first_link_in_email, is_organization, be_true, fill_in, check, within]","12","[path:features/step_definitions/email_steps.rb, size:1]","1","","0","","0","","0","","[]","[/en/signup, /en/signup?code=, new_listing]","3","25","2","[app/controllers/dashboard_controller.rb, app/controllers/homepage_controller.rb, app/jobs/notify_followers_job.rb, app/mailers/mail_view_test_data.rb, app/models/community.rb, app/models/community_membership.rb, app/models/email.rb, app/models/invitation.rb, app/models/person.rb, app/models/transaction.rb, app/services/marketplace_service/community.rb, app/services/marketplace_service/person.rb, app/utils/form_utils.rb, app/views/dashboard/_contact_request_form.haml, app/views/dashboard/index.haml, app/views/homepage/_custom_filters.haml, app/views/homepage/_filters.haml, app/views/homepage/_grid_item.haml, app/views/homepage/_list_item.haml, app/views/homepage/_map.haml, app/views/homepage/_price_filter.haml, app/views/homepage/_search_bar.haml, app/views/homepage/index.haml, app/views/layouts/_grid_item_listing_image.haml, lib/np_guid/uuidtools.rb]","[app/helpers/transaction_helper.rb, app/views/sessions/_confirmation_form.haml]","0.0","0.0","[ecc1d334f100631fe574084fc2452387f632a0ac, a9e52205967e6b1aee249f902edb90c8db9472de, d1c90e9df6848c7d3b709889150388503dc5c9c0, 9ed420eae951e9dbfd2248fddae9bc66f83bcd44, d52a47be21170e2e8af66ea9e312b7a3f46383bd, 0469f54e2967281e7e04d2aaed1a82282819ac2e, 94b99e73441e40325bfae8fdfd14831de52c03cf, 868f9053bb082003919ae3f674e575fc7a429c63, 2afb8352ba71bfd731c9e2796bb981ef9bed4c9f]","4.258 seconds","3.2.19","[cucumber-rails, rspec-rails, coveralls, factory_girl]","4","[]","11","13","[app/controllers/dashboard_controller.rb, app/controllers/homepage_controller.rb, app/views/dashboard/_contact_request_form.haml, app/views/dashboard/index.haml, app/views/homepage/_custom_filters.haml, app/views/homepage/_filters.haml, app/views/homepage/_grid_item.haml, app/views/homepage/_list_item.haml, app/views/homepage/_map.haml, app/views/homepage/_price_filter.haml, app/views/homepage/_search_bar.haml, app/views/homepage/index.haml, app/views/layouts/_grid_item_listing_image.haml]","true","0.0","9","[path:features/communities/user_joins_another_community.feature, text:""random@example.com"" should have 2 emails], [path:features/communities/user_joins_another_community.feature, text:""other.email@example.com"" should have 2 emails], [path:features/invitations/user_joins_invite_only_community.feature, text:I should have 2 emails], [path:features/invitations/user_joins_invite_only_community.feature, text:Most recently created user should be member of ""test"" community with its latest consent accepted with invitation code ""GH1JX8""], [path:features/invitations/user_joins_invite_only_community.feature, text:Invitation with code ""GH1JX8"" should have 0 usages_left], [path:features/organizations/user_joins_to_organizations_only_marketplace.feature, text:there should be an organization account ""company""], [path:features/people/user_creates_a_new_account.feature, text:I should have 2 emails], [path:features/people/user_creates_a_new_account.feature, text:Most recently created user should be member of ""test"" community with its latest consent accepted], [path:/home/local/CIN/tabr/phd_study2_tentativa7/new_sample/task_analysis/part11/spg_repos/sharetribe_sharetribe/features/step_definitions/email_steps.rb, text:I should have 2 emails]","0",""
"sharetribe","1752","[14-11-2014]","1","2","[Add day selector , Change rental defaults to be per day ]","1","1","0","2","2","[click_button, to_i, days, year, month, day, page, execute_script]","0","[path:features/conversations/user_requests_an_item_in_item_offer.feature, size:1]","1","","0","","0","","0","","[]","[listing]","1","2","2","[app/models/listing.rb, app/services/marketplace_service/listing.rb]","[app/models/transaction_type.rb, app/models/transaction_types/rent.rb]","0.0","0.0","[120ac5fb884d326e6f70ae1653ecfccd66b24a41, f26b5e0629f03a79011bf571878bda8b15593783]","0.728 seconds","3.2.19","[cucumber-rails, rspec-rails, coveralls, factory_girl]","1","[]","0","0","[]","false","0.0","0","","0",""
"sharetribe","1774","[04-11-2014]","1","19","[Injector returns instance , Min commission instance , Doc update: Transaction service create does not take min comms. param , Remove roundings from cucumber tests , Minimum price is 0 if it's null , Fix JS lint , Remove roundings also from specs , Fixed bugs related to minimum price, translations , Remove roundings, show minimum commission to user , h3 -> label , Disable Rails field_with_error wrapper , Finalize translations , Finalize UI , Front-end validation , Commission validation , parse_str_to_money to parse money strings , Save to database , Txn fee and min price UI , Save minimum commission to transaction ]","2","2","0","0","0","[]","0","[path:features/payments/checkout_payment.feature, size:1], [path:features/payments/seller_creates_braintree_invoice.feature, size:1]","2","","0","","0","","0","","[app/controllers/admin/paypal_accounts_controller.rb, app/services/payment_math.rb, app/services/paypal_service/minimum_commission_injector.rb, app/services/paypal_service/minimum_commissions.rb, app/views/admin/paypal_accounts/index.haml, app/views/admin/paypal_accounts/new.haml, app/views/admin/paypal_accounts/show.haml]","","0","0","16","[]","[app/controllers/admin/paypal_preferences_controller.rb, app/controllers/listings_controller.rb, app/helpers/application_helper.rb, app/models/community.rb, app/models/payment.rb, app/services/paypal_service/api/api.rb, app/services/paypal_service/api/minimum_commissions.rb, app/services/paypal_service/paypal_service_injector.rb, app/services/transaction_service/transaction.rb, app/utils/money_util.rb, app/views/admin/paypal_preferences/index.haml, app/views/listings/edit.haml, app/views/listings/form/_form_content.haml, app/views/listings/form/_javascripts.haml, app/views/listings/form/_price.haml, app/views/paypal_accounts/_ask_paypal_permissions.haml]","0.0","0.0","[dfae266779b7fecc309592d56962d5e14fb6615c, 902236343f589e155aabe878ea7aea6007b8cf2d, 229814baf0f09b350f41637dd530d2997d235cf7, 839e025c05453c799d20c12aeb32c78df33dd0ac, 1f6d1e24d4ee996b6707a7fe6a8379e335cc0840, be85be2427dcccb914d712896c9e0deee6accf6f, c74f163f9b58e555d4a8bdf592e14c4f3ecfa0ae, 28772b8b6de8d4c8ec6e72d3d7db74d0d06010cc, 4cccebff700ddf51cdb4b485966f1635fd9d02cf, f16bab05c5da88880e875a6a781c2b1bf0393906, 91afe8b369445a103b9e3db7c8635dd334e744d6, 5f1c3f19caf5ec02d781c60b0295a2a3197faeb5, 5539241d1ccc0506917458b13b20b56a02521ae4, dee793ad97a8bed4f65c6c275d04f4a8428a5d69, dc4543226231b0575e6f1d340dafc29beb726c92, c9659faaa6e0bb6452b115fe8ee347ae924c52a6, 1bf4d3ec9cda931c5dec70f9ab5d6a17efcf5c0b, 970e397f989d214c043e89a637ac37a020321012, cee79361a2a660f0877abd48bf3ae37d19b3ef68]","0.464 seconds","3.2.19","[cucumber-rails, rspec-rails, coveralls, factory_girl]","0","[]","0","0","[]","false","0.0","0","","0",""
"sharetribe","1806","[21-10-2014, 23-10-2014]","3","8","[Fixed tests, added missing mobile view , Separated ""integrations"" into ""social media"" and ""analytics"" , Fix tests, add new navi to all admin pages , Copy text fixes , Admin navigation link order improved , More user/member copy text updates , Changed ""members"" to ""users"" in a few places , Allow anyone to edit custom head script ]","1","4","3","0","0","[click, fill_in, current_path, within, username, hashes, save!, update_attributes, id, consent, update_attribute, set_default_preferences, save, each, login_as, update_all, name, find]","2","[path:features/admin/admin_edits_welcome_email.feature, size:1]","1","","0","","0","","0","","[app/views/admin/communities/integrations.haml]","[analytics_admin_community, social_media_admin_community]","2","10","28","[app/controllers/dashboard_controller.rb, app/models/community.rb, app/models/community_membership.rb, app/models/email.rb, app/models/person.rb, app/services/marketplace_service/community.rb, app/services/marketplace_service/person.rb, app/utils/form_utils.rb, app/views/dashboard/_contact_request_form.haml, app/views/dashboard/index.haml]","[app/controllers/admin/communities_controller.rb, app/controllers/admin/community_transactions_controller.rb, app/helpers/application_helper.rb, app/models/community.rb, app/views/admin/_left_hand_navigation.haml, app/views/admin/categories/edit.haml, app/views/admin/categories/index.haml, app/views/admin/categories/new.haml, app/views/admin/categories/remove.haml, app/views/admin/communities/analytics.haml, app/views/admin/communities/braintree_payment_gateway.haml, app/views/admin/communities/edit_look_and_feel.haml, app/views/admin/communities/edit_text_instructions.haml, app/views/admin/communities/edit_welcome_email.haml, app/views/admin/communities/menu_links.haml, app/views/admin/communities/settings.haml, app/views/admin/communities/social_media.haml, app/views/admin/community_customizations/edit_details.haml, app/views/admin/community_memberships/index.haml, app/views/admin/community_transactions/index.haml, app/views/admin/custom_fields/edit.haml, app/views/admin/custom_fields/edit_location.haml, app/views/admin/custom_fields/edit_price.haml, app/views/admin/custom_fields/index.haml, app/views/admin/custom_fields/new.haml, app/views/admin/emails/new.haml, app/views/admin/paypal_accounts/new.haml, app/views/admin/paypal_accounts/show.haml]","0.1","0.0357142857","[064d5f226fcf7b4c8349f1172f978060ab47e76d, 3a704dd041a0b5ab24674dc91f54721a4551d371, 6623c2821c3ffe5e4019e18872905cb29667005a, 590eb68f4dcabaf79751daefe3a857cd7ea08ae4, 9d0bca28f0d08b22b58bdb2711c739cb389f4ba5, ac01cccf52980500347d050afd31cc2c327891e7, 8f936c3828ebeaa62d676a1e388ceedfdcaef65f, 9c4b7a017b01a386fa6f1f249b38475b1277282e]","0.962 seconds","3.2.19","[cucumber-rails, rspec-rails, coveralls, factory_girl]","4","[{path=sharetribe_sharetribe/features/step_definitions/web_steps.rb, line=-1}]","2","3","[app/controllers/dashboard_controller.rb, app/views/dashboard/_contact_request_form.haml, app/views/dashboard/index.haml]","false","0.04098360654232733","1","[path:features/admin/admin_edits_welcome_email.feature, text:I should not have editor open]","0",""
"sharetribe","1923","[18-08-2014]","1","54","[structure.sql , Timecop return , Better validation error message , Don't use modules for organizing helpers  - It just doesn't work... , Final refactoring , semicolon , More refactoring , Status refactoring , missing semicolon , some kind of merge error , Translate From/To , Change names , Change ID from Cucumber step def , Improve booking URL , Remove duplicated migration , Fix syntax error , Update structure SQL , Static deliver_listing icon , Move datepicker CSS to partials , Split price_quantity method , Remove locale files  - They are moved to YML files , Use forked version of bootstrap datepicker , Validate booking from params , Use datepicker locales , Rename week start locale key , refactoring price quantity function. -> listing_helper , fixes for locale files , Add 1 extra day to Timecop , added quantity_unit as function for listing , Fix tests  - Booking button is not a link anymore - Conversation status changes , Test email sending in Cucumber scenario , Don't send reminde [TOO_LONG]","3","8","5","14","14","[username, hashes, save!, update_attributes, id, consent, update_attribute, set_default_preferences, save, each, login_as, update_all, name, find, fill_in, click_button, click_link, domain, categories, collect, create!, transaction_types, select, destroy!, destroy_all, create, to_i, days, community_id, inject, merge, page, click, month, day, year, page, have_content, has_content?, have_no_content, has_no_content?, within, and_return, at_least, times, set, choose, current_path, have_content, id, work_off, work_off, be_nil, open_email, unread_emails_for, subject, find, have_selector, within]","6","[path:features/conversations/person_transaction_process.feature, size:1], [path:features/conversations/user_requests_an_item_in_item_offer.feature, size:1]","2","","0","","0","","0","","[app/views/listings/_message_links.haml, app/views/person_mailer/booking_transaction_automatically_confirmed.html.haml, app/views/person_mailer/transaction_automatically_confirmed.html.haml]","[listing, login, new_listing, single_conversation]","4","26","27","[app/controllers/dashboard_controller.rb, app/controllers/homepage_controller.rb, app/models/category.rb, app/models/community.rb, app/models/community_membership.rb, app/models/conversation.rb, app/models/email.rb, app/models/listing.rb, app/models/person.rb, app/models/transaction_type.rb, app/models/translation_cache.rb, app/services/braintree_api.rb, app/services/braintree_service.rb, app/views/dashboard/_contact_request_form.haml, app/views/dashboard/index.haml, app/views/homepage/_custom_filters.haml, app/views/homepage/_filters.haml, app/views/homepage/_grid_item.haml, app/views/homepage/_list_item.haml, app/views/homepage/_map.haml, app/views/homepage/_price_filter.haml, app/views/homepage/_search_bar.haml, app/views/homepage/index.haml, app/views/layouts/_grid_item_listing_image.haml, lib/np_guid/uuidtools.rb, lib/routes/community_domain.rb]","[app/controllers/listing_conversations_controller.rb, app/helpers/conversations_helper.rb, app/helpers/listing_conversation_helper.rb, app/helpers/listings_helper.rb, app/jobs/automatic_booking_confirmation_job.rb, app/jobs/transaction_preauthorized_reminder_job.rb, app/mailers/mail_preview.rb, app/mailers/person_mailer.rb, app/models/booking.rb, app/models/listing.rb, app/models/listing_conversation.rb, app/models/transaction_type.rb, app/services/confirm_conversation.rb, app/state_machines/transaction_process.rb, app/views/conversations/_details.haml, app/views/conversations/_status.haml, app/views/conversations/_status_link.haml, app/views/conversations/_status_text.haml, app/views/conversations/show.haml, app/views/layouts/_grid_item_listing_image.haml, app/views/listing_conversations/preauthorize.haml, app/views/listings/_listing_actions.haml, app/views/listings/form/_price.haml, app/views/listings/show.haml, app/views/person_mailer/automatic_confirmation/_automatically_confirmed_footer.html.haml, app/views/person_mailer/automatic_confirmation/booking_transaction_automatically_confirmed.html.haml, app/views/person_mailer/automatic_confirmation/transaction_automatically_confirmed.html.haml]","0.1153846154","0.1111111111","[bec8b30472b116aa0c9e76e8aec23af3469e5baa, 6adce0ec8c3d7b32be9e946add08d29fc7e3e0fa, 8d23ca48754064ac76658b13e775f209923a0257, aadc7b6c951aa9c5325ed45fe52c69381d7e773d, bc1e551a77206e0c19ffe377a72d4de75088cec9, e4b15396560c9abc3f744015a8bf4e391868ae26, 62812cbb15b1538f9232e1df10e2eb7fbe6ba9b7, 127c6229787ee3ffde007433f3c82f55aeaf9eb4, 9564484afc01236aa6e666484408f6003f42c11d, 7c659055ea62d2f393ecc559a1d1da9963e86b8c, a470126f13d060cc65b39f4463d6d2309d296d14, 445dd8eaefcacc73846d66a8d75ec2c23657e63b, 410a99bc2c0481f26ed1f2e4328504dfeb5d44e7, 8f83a9a9332b4f8f46f3d1bc55f1da16246ad989, b4fbcb75712efa813d19860b97672bd51d763fc9, 7fee66085121608a4a0d4454b4320084527d8141, 74402c3f103e0580a0b16d3572874630a5b784fb, 7ddf61a38ba1a785ffd77d401553fecfcacb1659, 504420e0d834a356a200581b11aa981c0d3bc86a, 0dcbf8a3592c81e239e63e675dab8371302638f2, 0fb76ac6585353a3712bdfed01c299957109c532, 3bcbd5c472e75a6592a7ff1cb1c9290d459db722, 39ef3ea93753934e7f9cdca69d51ce47f86be3bb, 94df67e5eb5be01ecc26da94c0aaf0d52a709582, 8b1e460883bbd41fd7a1c05aa4e37b7142aae215, 0d89c1d79b9c8041773c04ce11e5401d48b445e5, 8b736b32a4ad87002e777a767fe1249d00df7ef5, 6b3b8dea7cfaec9221e45ff2103ea70fa6a4595b, c663d541823588f526e62c9f8a2e70940aaeb73d, a144938df1d8db8b8a732939e81d7b5c70f836ca, f6be92045f71dda5e5f84c55633eda316f235fcf, 9d47ad2383774487425008e6659e924537c342d0, c0beb10e9da05b9e3f9b5d4accbd7b700e44ec6c, eeffc72cfb1a2d34bb059dfccb9c1f437410f128, 57277227a56e33266848a35a195236a6850ec33e, d53fdfb7b3a35c753c1c462b18b89510b5c3dc37, 44c4fd0f6e237f242d7eb2598d02e87a4139c202, 79ead4ef0742c469f44d6fa1b9ae33f027dd3b55, 8b5991f4d6b4ce8a61a32f47f397e040707f70af, cf6287d9c4bbf309e00dc9b65a4ec58ba78b7889, 63d330c25d0b664238bb95e9ac619b8bcc4de8cd, 9a7b476da891c92cc5e8a09a88675e9dc2e892be, 7cc43edfe2b6b9b08d5267bff0db3ccf56a039a4, f30e77e86ae41d574482493374da334e4125319f, b5edbc0105830d2bed96130601b2399fc70df187, 0bfe06ad6caa98b5ce6485ed2832efd590b76ac1, 2ae7d0c55e94287dad3ba62d7bcaf8fe7d53bddb, 861789ace18d9a9e8bfa895acf0f9bff9ebbfda2, f55649bbdb9b14ae60d038b02c57144c26dd4cb3, 507db86443222112402675a0d055a8236e0e090a, 6e25fa972cab8312158e1b3072b62f43f1293f04, c2ba6ecc60f9b35a1ce4615d6304acb76d755ba7, 98e64fad67eac4f01f435168416cafe34776b651, da95311d6920f1fa300c0b34d25f5a1acaf71cd9]","3.277 seconds","3.2.19","[cucumber-rails, rspec-rails, coveralls, factory_girl]","8","[{path=sharetribe_sharetribe/features/step_definitions/conversation_steps.rb, line=-1}]","11","13","[app/controllers/dashboard_controller.rb, app/controllers/homepage_controller.rb, app/views/dashboard/_contact_request_form.haml, app/views/dashboard/index.haml, app/views/homepage/_custom_filters.haml, app/views/homepage/_filters.haml, app/views/homepage/_grid_item.haml, app/views/homepage/_list_item.haml, app/views/homepage/_map.haml, app/views/homepage/_price_filter.haml, app/views/homepage/_search_bar.haml, app/views/homepage/index.haml, app/views/layouts/_grid_item_listing_image.haml]","false","0.1119402985013366","2","[path:features/conversations/booking_transaction_process.feature, text:author ""owner"" should be notified about the request from starter ""booker""], [path:features/conversations/booking_transaction_process.feature, text:author ""owner"" and starter ""booker"" should be notified about automatic confirmation]","0",""
"sharetribe","1940","[10-06-2014, 11-06-2014, 18-06-2014]","9","9","[Add translations. , Revert some changes. , Rollback the changes to allow admin to read conversations. , Remove link to conversation. , Add rights for admin to access conversations. , Add some links to transaction elements. , New layout for transactions and correct titles. , Basic view for transactions. , Basic outline for transaction tests. ]","1","1","0","0","0","[]","0","[path:features/admin/statistics_and_info/admin_views_transactions.feature, size:2]","2","","0","","0","","0","","[]","","0","0","5","[]","[app/controllers/admin/communities_controller.rb, app/controllers/conversations_controller.rb, app/helpers/application_helper.rb, app/models/conversation.rb, app/views/admin/communities/transactions.haml]","0.0","0.0","[b826325b4baafa0992c980df2f499c698a4e76b5, 1868212d52564008c1d4b279a2f418e8c6bb4fba, 3793c296e9a61fbf372bd17a0dbf749379b6bf08, cfe64ade0ce056a971aeb82a7ca576756df268e0, bff13c41f0891a0d7277062e1279f06965ee58b9, dc3e3f4c863d4ed429c14c5f46066b526a0e8f49, 64a00b4f5338901e64672f8258d9b681b4a39c48, b1c318517ebc2cc797232b64ec81cbf4183eb26b, 1b6cb68cca1e0023a4692b4630d9867c525b3d5d]","0.270 seconds","3.2.17","[cucumber-rails, rspec-rails, coveralls, factory_girl]","0","[]","0","0","[]","false","0.0","0","","0",""
"sharetribe","1948","[23-07-2014, 25-07-2014]","3","32","[PhantomJS dialog confirmation improvement , feature: when banning a person, check that his/hers listings are closed , Fix rspec , Fix broken unsubscribe link , Remove unused hidden classes , Add a note about cached translations , Require CSS by folders, not individually , A word of warning , Add transaction types section , Use table/column names instead of Rails models. , Add ignore_unused configs , i18n-tasks , Submit for settlement , Improve preauthorize emails , Fix duplicate confirmation message , Indent When and Then steps with 1 space, And with 2 spaces , Clean BraintreeAPI.transaction_sale , Move h2 styling away from .page-content , Old community creation view code cleanup , Marketplace customization options doc , Less margin after details header , removed one inverse_of which seemd to cause loop in rails callbacks , Remove duplicated Braintree code , ParamsConstraints , Add tests for missing payment details with preauth , Login helper cleanup , Automatic confirmation for prea [TOO_LONG]","2","10","8","20","20","[click, page, have_content, click_link, page, have_content, community_id, id, inject, merge, click_button, click_link, has_content?, have_no_content, has_no_content?, page, execute_script, within, id, find, username, username, hashes, save!, update_attributes, consent, update_attribute, set_default_preferences, save, each, login_as, update_all, name, find, capture_model, capture_predicate, model!, gsub, send, emails, domain, transaction_types, to_i, visit_in_email, open_email_for, mailbox_for, last_email_address, confirmed_notification_email_addresses, and_return, at_least, times, set, payment_gateway, current_path, work_off, driver, browser, switch_to, alert, within, have_selector]","10","[path:features/conversations/preauthorization.feature, size:1], [path:features/conversations/user_gives_feedback_from_transaction.feature, size:1]","2","","0","","0","","0","","[app/views/admin/communities/manage_members.haml, app/views/communities/_email_confirmation_pending.haml, app/views/communities/_new_tribe_form.haml, app/views/communities/_new_tribe_form_wrapper.haml, app/views/communities/_signup_form.haml, app/views/communities/show.haml, app/views/dashboard/_notifications.haml, app/views/dashboard/faq.haml, app/views/dashboard/login.haml, app/views/dashboard/pricing.haml, app/views/people/_help_texts_old.haml]","[admin_community_community_memberships, new_listing, new_user_feedback, send_confirmation_person_email]","4","44","33","[app/controllers/accept_conversations_controller.rb, app/controllers/accept_preauthorized_conversations_controller.rb, app/controllers/admin/categories_controller.rb, app/controllers/admin/custom_fields_controller.rb, app/controllers/dashboard_controller.rb, app/controllers/emails_controller.rb, app/controllers/followers_controller.rb, app/controllers/homepage_controller.rb, app/controllers/listing_images_controller.rb, app/controllers/mercury/images_controller.rb, app/controllers/people_controller.rb, app/controllers/sessions_controller.rb, app/controllers/terms_controller.rb, app/jobs/notify_followers_job.rb, app/mailers/community_mailer.rb, app/models/braintree_payment.rb, app/models/category.rb, app/models/checkout_payment.rb, app/models/community.rb, app/models/community_membership.rb, app/models/conversation.rb, app/models/email.rb, app/models/listing.rb, app/models/listing_conversation.rb, app/models/payment.rb, app/models/person.rb, app/models/transaction_type.rb, app/services/braintree_api.rb, app/services/braintree_service.rb, app/views/dashboard/_contact_request_form.haml, app/views/dashboard/index.haml, app/views/homepage/_custom_filters.haml, app/views/homepage/_filters.haml, app/views/homepage/_grid_item.haml, app/views/homepage/_list_item.haml, app/views/homepage/_map.haml, app/views/homepage/_price_filter.haml, app/views/homepage/_search_bar.haml, app/views/homepage/index.haml, app/views/layouts/_grid_item_listing_image.haml, app/views/layouts/_left_hand_navigation.haml, app/views/settings/account.haml, lib/np_guid/uuidtools.rb, lib/routes/community_domain.rb]","[app/controllers/accept_preauthorized_conversations_controller.rb, app/controllers/admin/communities_controller.rb, app/controllers/admin/community_memberships_controller.rb, app/controllers/braintree_payments_controller.rb, app/controllers/community_memberships_controller.rb, app/controllers/listing_conversations_controller.rb, app/controllers/people_controller.rb, app/controllers/settings_controller.rb, app/helpers/application_helper.rb, app/helpers/listings_helper.rb, app/helpers/settings_helper.rb, app/jobs/automatic_confirmation_job.rb, app/models/community.rb, app/models/community_membership.rb, app/models/conversation.rb, app/models/listing_image.rb, app/models/person.rb, app/services/braintree_api.rb, app/services/braintree_sale_service.rb, app/services/confirm_conversation.rb, app/services/params_constraints.rb, app/services/util.rb, app/state_machines/transaction_process.rb, app/views/accept_preauthorized_conversations/accept.haml, app/views/admin/community_memberships/index.haml, app/views/communities/index.haml, app/views/communities/new.haml, app/views/confirm_conversations/confirm.haml, app/views/design/design.haml, app/views/homepage/index.haml, app/views/listing_conversations/preauthorize.haml, app/views/transaction_mailer/transaction_preauthorized.haml, app/views/transaction_mailer/transaction_preauthorized_reminder.haml]","0.1818181818","0.2424242424","[adf1fd66127cfc40b90243c379795569e24b17ae, a773632240a7c7e6973785545d518fbb633ed29f, 938027f7f4c169419a550f288236f5f033f7e406, c424e329795d8f0f62220fdf34a28a3650f9d750, 77791edb1649cc49656ae95611968676558eb0fb, 70b5a7fd7114fafa9aeaf1da79fb2f685dc88be6, 230acf9d70ef18ee18c6a731df423cd1bbd8a864, 893b947ce493bbc84e3b906f81cc8b5f0d27a004, 1ed5ef4101667e02ab5ddeb27633e9ac9f9b480b, da95e43399285e4dc87241c0bd7b1710611ad8b7, fe0048b67f3bd59eeb3a75a8a1562a323d565962, e65ae44ace49c65704c1ccdece2f9835ad397faa, 142bbe6865b1f9e71bdd1ed0011fafc6cc502547, 9646a95b360a9ef9086a334f16f608116c4ebafd, 1a8da8345fd76ce9b6a53cd60095b386c0dd8049, 8e2aded294d88c2e2fd7873076e52fe084d0ca6f, c374f01317c9ac2a25711d3fe8986f61a5318ffe, f4c975e252b9a1b83682d49350e4dc413fb57152, 64691411f841a10dc8010802e5b74104eff7bb37, c269691a237bf00e50f32fd12afa414dde6c6f7f, e9eab0196dedcf7e1d9fd257edc72a38e936dbda, 6b1a9d3cd6efcca05a26dc3499c80bd8bfca82f6, 5dc0a28c5e20778c0cb05b54e26846fe241c916a, e4712f14b99c6117bca239cdb01a3b2708a58d70, d12869720d7e995be30dfe64f4d5e8076e49b4c7, 5002b509db65c05f456a8d5460cf3fe5fe5aeaf2, 1abab32e925a8011b55dd2361469adcb38f9ebc6, f6c75d9e6149f6c591cee616340d8c5ac145c29d, b02d1733ae0f05baf7e5a1c7618bf00629d0e8f0, c52ed2e83e01009e3509b17c75dd7bdf91736edd, 95db7b4be3220062faaba28ca26f36581fdee71b, 5a4ddf68674cb0862089ed76ec5657e8a2bd7d34]","4.600 seconds","3.2.19","[cucumber-rails, rspec-rails, coveralls, factory_girl]","9","[{path=sharetribe_sharetribe/features/step_definitions/conversation_steps.rb, line=-1}]","13","15","[app/controllers/dashboard_controller.rb, app/controllers/homepage_controller.rb, app/views/dashboard/_contact_request_form.haml, app/views/dashboard/index.haml, app/views/homepage/_custom_filters.haml, app/views/homepage/_filters.haml, app/views/homepage/_grid_item.haml, app/views/homepage/_list_item.haml, app/views/homepage/_map.haml, app/views/homepage/_price_filter.haml, app/views/homepage/_search_bar.haml, app/views/homepage/index.haml, app/views/layouts/_grid_item_listing_image.haml, app/views/layouts/_left_hand_navigation.haml, app/views/settings/account.haml]","false","0.22727272725","4","[path:features/admin/manage_members/admin_lists_members.feature, text:""kassi_testperson1"" should be banned from this community], [path:features/settings/user_changes_email_address.feature, text:I should not be able to remove email ""sharetribe2@example.com""], [path:features/settings/user_changes_email_address.feature, text:I should not be able to remove email ""sharetribe@gmail.com""], [path:features/settings/user_changes_email_address.feature, text:I should not have email ""sharetribe@example.com""]","0",""
