"Repository","https://github.com/sharetribe/sharetribe.git"
"Precision mean (RT)","0.0429916645"
"Precision median (RT)","0.01219512195"
"Precision standard deviation (RT)","0.05711037169465148"
"Recall mean (RT)","0.15234765235"
"Recall median (RT)","0.04545454545"
"Recall standard deviation (RT)","0.2838139605019467"
"F2 mean (RT)","0.06531615769900823"
"F2 median (RT)","0.0352112675900615"
"F2 standard deviation (RT)","0.07544088615988274"
"Correlation #Test-Precision","0.53"
"Correlation #Test-Recall","0.5"
"Task","Dates","#Devs","#Commits","Hashes","#Gherkin_Tests","#Sted_defs","#TestI","#TaskI","TestI","TaskI","Precision","Recall","Rails","#visit_call","Lost_visit_call","#Views_TestI","#Code_View_Analysis","Code_View_Analysis","Methods_Unknown_Type","Renamed_Files","Deleted_Files","NotFound_Views","#NotFound_Views","Timestamp","Has_Merge","#FP","#FN","FP","FN","#Hits","Hits","f2"
"1322","[19-11-2015, 20-11-2015]","2","5","[c0f786b8bfe01ee43453b7d6bab84ef39c9788e5, e31d55fe44ef2a535965547d5cad7f2fd40e72f5, d82ee4660e9b118720e86e05f6dffce604238e84, 26676a58da5b1184a29030e61d2fc533787343eb, ebfcd3b1e12fd4b52ad4360c9ade63298a2bf289]","12","1","59","22","[app/controllers/admin/listing_shapes_controller.rb, app/controllers/homepage_controller.rb, app/helpers/rest_helper.rb, app/jobs/notify_followers_job.rb, app/mailers/mail_view_test_data.rb, app/models/braintree_payment.rb, app/models/category.rb, app/models/checkout_payment.rb, app/models/community.rb, app/models/community_membership.rb, app/models/conversation.rb, app/models/email.rb, app/models/listing.rb, app/models/message.rb, app/models/payment.rb, app/models/payment_gateway.rb, app/models/payment_gateways/braintree_payment_gateway.rb, app/models/payment_gateways/checkout.rb, app/models/person.rb, app/models/transaction.rb, app/models/transaction_process.rb, app/services/braintree_service/escrow_release_helper.rb, app/services/email_service/api/api.rb, app/services/feature_flag_service/api/api.rb, app/services/feature_flag_service/store.rb, app/services/listing_index_service/api/api.rb, app/services/listing_service/api/api.rb, app/services/listing_service/api/listings.rb, app/services/listing_service/api/shapes.rb, app/services/listing_service/store/category.rb, app/services/listing_service/store/listing.rb, app/services/marketplace_service/community.rb, app/services/marketplace_service/conversation.rb, app/services/marketplace_service/listing.rb, app/services/marketplace_service/person.rb, app/services/marketplace_service/transaction.rb, app/services/paypal_service/api/api.rb, app/services/paypal_service/api/minimum_commissions.rb, app/services/plan_service/api/api.rb, app/services/transaction_service/api/api.rb, app/services/transaction_service/data_types/transaction.rb, app/services/transaction_service/store/transaction.rb, app/services/transaction_service/store/transaction_process.rb, app/services/transaction_service/transaction.rb, app/services/translation_service/api/api.rb, app/services/translation_service/api/translations.rb, app/utils/form_utils.rb, app/view_utils/listing_shape_templates.rb, app/views/homepage/_custom_filters.haml, app/views/homepage/_filters.haml, app/views/homepage/_grid_item.haml, app/views/homepage/_list_item.haml, app/views/homepage/_location_bar.haml, app/views/homepage/_map.haml, app/views/homepage/_price_filter.haml, app/views/homepage/_search_bar.haml, app/views/homepage/index.haml, app/views/layouts/_grid_item_listing_image.haml, lib/np_guid/uuidtools.rb]","[app/controllers/admin/categories_controller.rb, app/controllers/admin/community_customizations_controller.rb, app/controllers/admin/listing_shapes_controller.rb, app/controllers/braintree_accounts_controller.rb, app/controllers/braintree_payments_controller.rb, app/controllers/listings_controller.rb, app/controllers/transactions_controller.rb, app/models/community.rb, app/services/braintree_service/escrow_release_helper.rb, app/services/email_service/api/addresses.rb, app/services/listing_service/api/listings.rb, app/services/listing_service/api/shapes.rb, app/services/marketplace_service/listing.rb, app/services/payment_registration_guard.rb, app/services/paypal_service/store/paypal_account.rb, app/services/plan_service/api/plans.rb, app/utils/entity_utils.rb, app/utils/time_utils.rb, app/view_utils/shape_service.rb, app/views/devise/mailer/unlock_instructions.html.erb, app/views/devise/sessions/new.html.erb, app/views/devise/shared/_links.erb]","0.1016949153","0.2727272727","3.2.21","10","[]","10","11","[app/controllers/homepage_controller.rb, app/views/homepage/_custom_filters.haml, app/views/homepage/_filters.haml, app/views/homepage/_grid_item.haml, app/views/homepage/_list_item.haml, app/views/homepage/_location_bar.haml, app/views/homepage/_map.haml, app/views/homepage/_price_filter.haml, app/views/homepage/_search_bar.haml, app/views/homepage/index.haml, app/views/layouts/_grid_item_listing_image.haml]","[username, fill_in, click_button, hashes, save!, update_attributes, id, consent, update_attribute, set_default_preferences, save, each, login_as, update_all, name, find, fill_in, click_button, click_link, page, have_content, has_content?, have_no_content, has_no_content?, within, click, have_css, has_css?, page, driver, execute_script, within_frame, to_i, shapes, payment_gateway, id, build, at_least, times, and_return, find_shape, create_listing, nil?, community_id, inject]","","[]","[edit_text_instructions_admin_community, listing, login, new_listing, new_person_message_feedback, person_inbox]","6","5.621 seconds","false","53","16","[app/controllers/homepage_controller.rb, app/helpers/rest_helper.rb, app/jobs/notify_followers_job.rb, app/mailers/mail_view_test_data.rb, app/models/braintree_payment.rb, app/models/category.rb, app/models/checkout_payment.rb, app/models/community_membership.rb, app/models/conversation.rb, app/models/email.rb, app/models/listing.rb, app/models/message.rb, app/models/payment.rb, app/models/payment_gateway.rb, app/models/payment_gateways/braintree_payment_gateway.rb, app/models/payment_gateways/checkout.rb, app/models/person.rb, app/models/transaction.rb, app/models/transaction_process.rb, app/services/email_service/api/api.rb, app/services/feature_flag_service/api/api.rb, app/services/feature_flag_service/store.rb, app/services/listing_index_service/api/api.rb, app/services/listing_service/api/api.rb, app/services/listing_service/store/category.rb, app/services/listing_service/store/listing.rb, app/services/marketplace_service/community.rb, app/services/marketplace_service/conversation.rb, app/services/marketplace_service/person.rb, app/services/marketplace_service/transaction.rb, app/services/paypal_service/api/api.rb, app/services/paypal_service/api/minimum_commissions.rb, app/services/plan_service/api/api.rb, app/services/transaction_service/api/api.rb, app/services/transaction_service/data_types/transaction.rb, app/services/transaction_service/store/transaction.rb, app/services/transaction_service/store/transaction_process.rb, app/services/transaction_service/transaction.rb, app/services/translation_service/api/api.rb, app/services/translation_service/api/translations.rb, app/utils/form_utils.rb, app/view_utils/listing_shape_templates.rb, app/views/homepage/_custom_filters.haml, app/views/homepage/_filters.haml, app/views/homepage/_grid_item.haml, app/views/homepage/_list_item.haml, app/views/homepage/_location_bar.haml, app/views/homepage/_map.haml, app/views/homepage/_price_filter.haml, app/views/homepage/_search_bar.haml, app/views/homepage/index.haml, app/views/layouts/_grid_item_listing_image.haml, lib/np_guid/uuidtools.rb]","[app/controllers/admin/categories_controller.rb, app/controllers/admin/community_customizations_controller.rb, app/controllers/braintree_accounts_controller.rb, app/controllers/braintree_payments_controller.rb, app/controllers/listings_controller.rb, app/controllers/transactions_controller.rb, app/services/email_service/api/addresses.rb, app/services/payment_registration_guard.rb, app/services/paypal_service/store/paypal_account.rb, app/services/plan_service/api/plans.rb, app/utils/entity_utils.rb, app/utils/time_utils.rb, app/view_utils/shape_service.rb, app/views/devise/mailer/unlock_instructions.html.erb, app/views/devise/sessions/new.html.erb, app/views/devise/shared/_links.erb]","6","[app/controllers/admin/listing_shapes_controller.rb, app/models/community.rb, app/services/braintree_service/escrow_release_helper.rb, app/services/listing_service/api/listings.rb, app/services/listing_service/api/shapes.rb, app/services/marketplace_service/listing.rb]","0.20408163267770374"
"1832","[15-10-2014, 16-10-2014]","1","4","[ae2d86621288ccebc0961566e64bd6793062fa13, ba63357954cc0e69251926d2dd7f5082aaf05dd2, 3fd68404362a6e1186528db213b271e3db2261a0, b7369f71284c016f0f90682ff943a495aff05b7e]","8","0","27","11","[app/controllers/dashboard_controller.rb, app/controllers/homepage_controller.rb, app/models/category.rb, app/models/community.rb, app/models/community_membership.rb, app/models/custom_field.rb, app/models/custom_field_name.rb, app/models/custom_field_option_title.rb, app/models/payment_gateway.rb, app/models/payment_gateways/braintree_payment_gateway.rb, app/models/person.rb, app/models/transaction_type.rb, app/models/translation_cache.rb, app/services/marketplace_service/community.rb, app/services/marketplace_service/person.rb, app/views/dashboard/_contact_request_form.haml, app/views/dashboard/index.haml, app/views/homepage/_custom_filters.haml, app/views/homepage/_filters.haml, app/views/homepage/_grid_item.haml, app/views/homepage/_list_item.haml, app/views/homepage/_map.haml, app/views/homepage/_price_filter.haml, app/views/homepage/_search_bar.haml, app/views/homepage/index.haml, app/views/layouts/_grid_item_listing_image.haml, lib/np_guid/uuidtools.rb]","[app/controllers/admin/categories_controller.rb, app/controllers/admin/custom_fields_controller.rb, app/controllers/superadmin/communities_controller.rb, app/helpers/application_helper.rb, app/models/community.rb, app/views/admin/communities/edit_look_and_feel.haml, app/views/infos/_terms_content.haml, app/views/infos/about.haml, app/views/infos/how_to_use.haml, app/views/infos/privacy.haml, app/views/layouts/_mercury_editable_page.haml]","0.037037037","0.0909090909","3.2.19","9","[{path=sharetribe_sharetribe/features/step_definitions/web_steps.rb, line=-1}]","11","13","[app/controllers/dashboard_controller.rb, app/controllers/homepage_controller.rb, app/views/dashboard/_contact_request_form.haml, app/views/dashboard/index.haml, app/views/homepage/_custom_filters.haml, app/views/homepage/_filters.haml, app/views/homepage/_grid_item.haml, app/views/homepage/_list_item.haml, app/views/homepage/_map.haml, app/views/homepage/_price_filter.haml, app/views/homepage/_search_bar.haml, app/views/homepage/index.haml, app/views/layouts/_grid_item_listing_image.haml]","[username, id, update_attribute, login_as, click_button, click_link, fill_in, check, page, have_content, has_content?, have_no_content, has_no_content?, be_visible, all, eql, each, current_path, within, find, click, current_path, start_with?, become_true, have_selector, page, driver, native, send_keys, within_frame, tr, categories, collect, hashes, create!, transaction_types, select, destroy!, each, category_custom_fields, build, options, save!, custom_field, id, select, update_attribute, community_id, inject, inject, wait_until_index_finished, find]","","[]","[admin_categories, new_listing, privacy_infos, terms_infos]","4","2.832 seconds","true","26","10","[app/controllers/dashboard_controller.rb, app/controllers/homepage_controller.rb, app/models/category.rb, app/models/community_membership.rb, app/models/custom_field.rb, app/models/custom_field_name.rb, app/models/custom_field_option_title.rb, app/models/payment_gateway.rb, app/models/payment_gateways/braintree_payment_gateway.rb, app/models/person.rb, app/models/transaction_type.rb, app/models/translation_cache.rb, app/services/marketplace_service/community.rb, app/services/marketplace_service/person.rb, app/views/dashboard/_contact_request_form.haml, app/views/dashboard/index.haml, app/views/homepage/_custom_filters.haml, app/views/homepage/_filters.haml, app/views/homepage/_grid_item.haml, app/views/homepage/_list_item.haml, app/views/homepage/_map.haml, app/views/homepage/_price_filter.haml, app/views/homepage/_search_bar.haml, app/views/homepage/index.haml, app/views/layouts/_grid_item_listing_image.haml, lib/np_guid/uuidtools.rb]","[app/controllers/admin/categories_controller.rb, app/controllers/admin/custom_fields_controller.rb, app/controllers/superadmin/communities_controller.rb, app/helpers/application_helper.rb, app/views/admin/communities/edit_look_and_feel.haml, app/views/infos/_terms_content.haml, app/views/infos/about.haml, app/views/infos/how_to_use.haml, app/views/infos/privacy.haml, app/views/layouts/_mercury_editable_page.haml]","1","[app/models/community.rb]","0.070422535180123"
"1938","[04-08-2014, 05-08-2014, 06-08-2014, 07-08-2014]","2","20","[2053c63b976e5fcee347f2edd45ca10a34d65289, b5acac79ef0f22c0f8e5b05223e3d065c1e101ed, 4728618714bfd032854eebce501c0fb67b8f4049, eecbee3e023f6103cf0dd1d56c595e37108fc9f1, 34e472a9404d2128fb5feaf610cf0719e99cdf31, d86e32915dee80061759da01f5211dc976062648, 172d0e9098550e27749565684712272a958e5042, 92aab3f5e2a9f7fbe32bb2b1e2831d68f0382acb, 48abef599ef83a8c5e0da267185c96db80637831, 1da04d680fefbf43a0ce062b6bc1eabde68da222, 1de4fcd806c70a01d6a63c3b0dad8ace5f7d15e5, e9b010397f6f6914a9fd57eac077a8b4a6794f66, 36a2704cef7ec6e8aae591984271983d3f209e6f, a62460c95f863c9c2b9e5c1229e754eb5f2be1da, 039899a4e5d9ac6ce1bac7230b43b84d10fb8649, 0a1f34165dfc7ebcde1baf11de07975564cdd68f, 0997c5bd2073451625fff3b0aacbd38268e840f0, d8526af4780f550ef30b786130092ac2fc5ef0de, 8958ba5e0fce9429c50afc2a5118fd57a7215248, 77517e9c7fd08234b4c466e2181b723fb6e1d142]","4","7","9","7","[app/controllers/dashboard_controller.rb, app/models/community.rb, app/models/community_membership.rb, app/models/conversation.rb, app/models/email.rb, app/models/person.rb, app/views/dashboard/_contact_request_form.haml, app/views/dashboard/index.haml, lib/np_guid/uuidtools.rb]","[app/controllers/admin/communities_controller.rb, app/controllers/admin/community_memberships_controller.rb, app/controllers/admin/community_transactions_controller.rb, app/helpers/application_helper.rb, app/models/conversation.rb, app/views/admin/community_memberships/index.haml, app/views/admin/community_transactions/index.haml]","0.1111111111","0.1428571429","3.2.19","2","[]","2","3","[app/controllers/dashboard_controller.rb, app/views/dashboard/_contact_request_form.haml, app/views/dashboard/index.haml]","[hashes, save!, each, page, all, length, eq, click_link, text, find_index, sort, eql, gsub, eval, merge, gsub, username, update_attributes, id, consent, update_attribute, set_default_preferences, save, login_as, update_all, name, find]","","[app/views/admin/communities/transactions.haml]","[admin_community_transactions]","1","1.121 seconds","false","8","6","[app/controllers/dashboard_controller.rb, app/models/community.rb, app/models/community_membership.rb, app/models/email.rb, app/models/person.rb, app/views/dashboard/_contact_request_form.haml, app/views/dashboard/index.haml, lib/np_guid/uuidtools.rb]","[app/controllers/admin/communities_controller.rb, app/controllers/admin/community_memberships_controller.rb, app/controllers/admin/community_transactions_controller.rb, app/helpers/application_helper.rb, app/views/admin/community_memberships/index.haml, app/views/admin/community_transactions/index.haml]","1","[app/models/conversation.rb]","0.1351351351625274"
"1409","[20-08-2015, 21-08-2015, 24-08-2015]","2","16","[819c0254da74813c56b496b56d488b062d0a41f6, 60a0fa5d5e73bd2d074eb71b92f11c79ee0588da, 249d4e8ddae89233e57b6125d49c2c2d3b285abf, ed08e52e6e6d84225acdfa231d2dfd703145f2fc, dd3d7bc1a0eaceebc398ec368eabc988ccfcdfc3, 4ebc6b44f23593d1edc487a126ff4355d1e8b328, 50931fd66c5ac745ebe508dc6779711213eb1870, e3b5741ae4e4239599c6369a5acd23977611503f, 63bab834cf210f6809ee9bfc12f9ecfbf8f19d5e, f3c70617d80d3c7594a836e2f2ce17ef6d45b91b, 24fdedb99916b0e557f71f1019e82168a6401605, bfb05d71f779f0fd5a2244017922e070dc6c4b5f, 223911e2c359079da55ca7ea2f5c2c38fac9990b, ea773039def720a946aadf31a7841507ddd3c055, dda5b25550d95cdbab735e4e4c3b25af4386a92c, 0ab9a59c419e0b7d5c5197cfd0793267e99ca8b5]","2","1","40","13","[app/controllers/admin/listing_shapes_controller.rb, app/controllers/homepage_controller.rb, app/helpers/rest_helper.rb, app/models/category.rb, app/models/community.rb, app/models/community_membership.rb, app/models/email.rb, app/models/listing.rb, app/models/person.rb, app/models/transaction_process.rb, app/services/email_service/api/api.rb, app/services/feature_flag_service/api/api.rb, app/services/feature_flag_service/store.rb, app/services/listing_service/api/api.rb, app/services/listing_service/api/listings.rb, app/services/listing_service/api/shapes.rb, app/services/listing_service/store/category.rb, app/services/listing_service/store/listing.rb, app/services/marketplace_service/community.rb, app/services/marketplace_service/listing.rb, app/services/marketplace_service/person.rb, app/services/paypal_service/api/api.rb, app/services/paypal_service/api/minimum_commissions.rb, app/services/plan_service/api/api.rb, app/services/transaction_service/api/api.rb, app/services/transaction_service/store/transaction.rb, app/services/transaction_service/store/transaction_process.rb, app/services/translation_service/api/api.rb, app/services/translation_service/api/translations.rb, app/utils/form_utils.rb, app/views/homepage/_custom_filters.haml, app/views/homepage/_filters.haml, app/views/homepage/_grid_item.haml, app/views/homepage/_list_item.haml, app/views/homepage/_location_bar.haml, app/views/homepage/_map.haml, app/views/homepage/_price_filter.haml, app/views/homepage/_search_bar.haml, app/views/homepage/index.haml, app/views/layouts/_grid_item_listing_image.haml]","[app/controllers/homepage_controller.rb, app/controllers/listings_controller.rb, app/helpers/listings_helper.rb, app/helpers/people_helper.rb, app/indices/listing_index.rb, app/mailers/person_mailer.rb, app/models/community.rb, app/models/feedback.rb, app/models/listing.rb, app/services/listing_visibility_guard.rb, app/views/listings/form/_form_content.haml, app/views/listings/show.haml, app/views/person_mailer/new_feedback.html.haml]","0.075","0.2307692308","3.2.21","3","[]","10","11","[app/controllers/homepage_controller.rb, app/views/homepage/_custom_filters.haml, app/views/homepage/_filters.haml, app/views/homepage/_grid_item.haml, app/views/homepage/_list_item.haml, app/views/homepage/_location_bar.haml, app/views/homepage/_map.haml, app/views/homepage/_price_filter.haml, app/views/homepage/_search_bar.haml, app/views/homepage/index.haml, app/views/layouts/_grid_item_listing_image.haml]","[hashes, save!, update_attributes, id, consent, update_attribute, set_default_preferences, save, each, update_all, name, find, find_shape, create_listing, community_id, inject, page, have_content, has_content?, have_no_content, has_no_content?, within, to_i, shapes]","","[app/views/listings/form/_privacy.haml]","[listing, new_listing]","2","2.721 seconds","true","37","10","[app/controllers/admin/listing_shapes_controller.rb, app/helpers/rest_helper.rb, app/models/category.rb, app/models/community_membership.rb, app/models/email.rb, app/models/person.rb, app/models/transaction_process.rb, app/services/email_service/api/api.rb, app/services/feature_flag_service/api/api.rb, app/services/feature_flag_service/store.rb, app/services/listing_service/api/api.rb, app/services/listing_service/api/listings.rb, app/services/listing_service/api/shapes.rb, app/services/listing_service/store/category.rb, app/services/listing_service/store/listing.rb, app/services/marketplace_service/community.rb, app/services/marketplace_service/listing.rb, app/services/marketplace_service/person.rb, app/services/paypal_service/api/api.rb, app/services/paypal_service/api/minimum_commissions.rb, app/services/plan_service/api/api.rb, app/services/transaction_service/api/api.rb, app/services/transaction_service/store/transaction.rb, app/services/transaction_service/store/transaction_process.rb, app/services/translation_service/api/api.rb, app/services/translation_service/api/translations.rb, app/utils/form_utils.rb, app/views/homepage/_custom_filters.haml, app/views/homepage/_filters.haml, app/views/homepage/_grid_item.haml, app/views/homepage/_list_item.haml, app/views/homepage/_location_bar.haml, app/views/homepage/_map.haml, app/views/homepage/_price_filter.haml, app/views/homepage/_search_bar.haml, app/views/homepage/index.haml, app/views/layouts/_grid_item_listing_image.haml]","[app/controllers/listings_controller.rb, app/helpers/listings_helper.rb, app/helpers/people_helper.rb, app/indices/listing_index.rb, app/mailers/person_mailer.rb, app/models/feedback.rb, app/services/listing_visibility_guard.rb, app/views/listings/form/_form_content.haml, app/views/listings/show.haml, app/views/person_mailer/new_feedback.html.haml]","3","[app/controllers/homepage_controller.rb, app/models/community.rb, app/models/listing.rb]","0.16304347827315688"
"1931","[12-08-2014]","1","4","[cecfd4f945273ad1d3de06901876eb34267a2628, 4be299de1a00e668ff63d4b0f7e6a7ac48bb7af3, 34f06502ddbfd70ec8d4a1f131524d21500e8837, 5aae844eb6dd50424e746c6bf003c84fc9540358]","2","0","9","2","[app/controllers/dashboard_controller.rb, app/models/community.rb, app/models/community_membership.rb, app/models/conversation.rb, app/models/email.rb, app/models/person.rb, app/views/dashboard/_contact_request_form.haml, app/views/dashboard/index.haml, lib/np_guid/uuidtools.rb]","[app/helpers/application_helper.rb, app/views/admin/community_transactions/index.haml]","0.0","0.0","3.2.19","2","[]","2","3","[app/controllers/dashboard_controller.rb, app/views/dashboard/_contact_request_form.haml, app/views/dashboard/index.haml]","[hashes, save!, each, page, all, length, eq, click, sort, eql, gsub, eval, Maybe, select, or_else, merge, page, all, text, starts_with?, find, text, starts_with?, find_index, gsub, username, update_attributes, id, consent, update_attribute, set_default_preferences, save, login_as, update_all, name, find]","","[]","[admin_community_transactions]","1","1.301 seconds","false","9","2","[app/controllers/dashboard_controller.rb, app/models/community.rb, app/models/community_membership.rb, app/models/conversation.rb, app/models/email.rb, app/models/person.rb, app/views/dashboard/_contact_request_form.haml, app/views/dashboard/index.haml, lib/np_guid/uuidtools.rb]","[app/helpers/application_helper.rb, app/views/admin/community_transactions/index.haml]","0","[]","0.0"
"1367","[22-10-2015]","1","2","[ca48a035d7a23676386105be6189857ccb0ecbec, 8ad1f244b3ac5efb87fb862e82c7e3f91d681c2f]","1","2","49","1","[app/controllers/admin/listing_shapes_controller.rb, app/controllers/homepage_controller.rb, app/helpers/rest_helper.rb, app/models/category.rb, app/models/community.rb, app/models/community_membership.rb, app/models/conversation.rb, app/models/email.rb, app/models/listing.rb, app/models/message.rb, app/models/payment_gateway.rb, app/models/person.rb, app/models/transaction.rb, app/models/transaction_process.rb, app/services/email_service/api/api.rb, app/services/feature_flag_service/api/api.rb, app/services/feature_flag_service/store.rb, app/services/listing_index_service/api/api.rb, app/services/listing_service/api/api.rb, app/services/listing_service/api/listings.rb, app/services/listing_service/store/category.rb, app/services/listing_service/store/listing.rb, app/services/marketplace_service/community.rb, app/services/marketplace_service/conversation.rb, app/services/marketplace_service/listing.rb, app/services/marketplace_service/person.rb, app/services/marketplace_service/transaction.rb, app/services/paypal_service/api/api.rb, app/services/paypal_service/api/minimum_commissions.rb, app/services/paypal_service/api/payments.rb, app/services/plan_service/api/api.rb, app/services/transaction_service/api/api.rb, app/services/transaction_service/data_types/transaction.rb, app/services/transaction_service/store/transaction.rb, app/services/transaction_service/store/transaction_process.rb, app/services/transaction_service/transaction.rb, app/services/translation_service/api/api.rb, app/services/translation_service/api/translations.rb, app/utils/form_utils.rb, app/views/homepage/_custom_filters.haml, app/views/homepage/_filters.haml, app/views/homepage/_grid_item.haml, app/views/homepage/_list_item.haml, app/views/homepage/_location_bar.haml, app/views/homepage/_map.haml, app/views/homepage/_price_filter.haml, app/views/homepage/_search_bar.haml, app/views/homepage/index.haml, app/views/layouts/_grid_item_listing_image.haml]","[app/views/inboxes/_inbox_row.haml]","0.0","0.0","3.2.21","3","[{path=sharetribe_sharetribe/features/step_definitions/web_steps.rb, line=-1}]","10","11","[app/controllers/homepage_controller.rb, app/views/homepage/_custom_filters.haml, app/views/homepage/_filters.haml, app/views/homepage/_grid_item.haml, app/views/homepage/_list_item.haml, app/views/homepage/_location_bar.haml, app/views/homepage/_map.haml, app/views/homepage/_price_filter.haml, app/views/homepage/_search_bar.haml, app/views/homepage/index.haml, app/views/layouts/_grid_item_listing_image.haml]","[find_shape, create_listing, find_shape, create_listing, community_id, id, inject, username, hashes, save!, update_attributes, id, consent, update_attribute, set_default_preferences, save, each, login_as, update_all, name, find, build, click_link, page, have_content, has_content?, have_no_content, has_no_content?, current_path, within, click_link, click_link, page, have_content, has_content?, page, have_content, has_content?, within, click, within, have_selector]","","[]","[new_listing, person_inbox]","2","3.775 seconds","false","49","1","[app/controllers/admin/listing_shapes_controller.rb, app/controllers/homepage_controller.rb, app/helpers/rest_helper.rb, app/models/category.rb, app/models/community.rb, app/models/community_membership.rb, app/models/conversation.rb, app/models/email.rb, app/models/listing.rb, app/models/message.rb, app/models/payment_gateway.rb, app/models/person.rb, app/models/transaction.rb, app/models/transaction_process.rb, app/services/email_service/api/api.rb, app/services/feature_flag_service/api/api.rb, app/services/feature_flag_service/store.rb, app/services/listing_index_service/api/api.rb, app/services/listing_service/api/api.rb, app/services/listing_service/api/listings.rb, app/services/listing_service/store/category.rb, app/services/listing_service/store/listing.rb, app/services/marketplace_service/community.rb, app/services/marketplace_service/conversation.rb, app/services/marketplace_service/listing.rb, app/services/marketplace_service/person.rb, app/services/marketplace_service/transaction.rb, app/services/paypal_service/api/api.rb, app/services/paypal_service/api/minimum_commissions.rb, app/services/paypal_service/api/payments.rb, app/services/plan_service/api/api.rb, app/services/transaction_service/api/api.rb, app/services/transaction_service/data_types/transaction.rb, app/services/transaction_service/store/transaction.rb, app/services/transaction_service/store/transaction_process.rb, app/services/transaction_service/transaction.rb, app/services/translation_service/api/api.rb, app/services/translation_service/api/translations.rb, app/utils/form_utils.rb, app/views/homepage/_custom_filters.haml, app/views/homepage/_filters.haml, app/views/homepage/_grid_item.haml, app/views/homepage/_list_item.haml, app/views/homepage/_location_bar.haml, app/views/homepage/_map.haml, app/views/homepage/_price_filter.haml, app/views/homepage/_search_bar.haml, app/views/homepage/index.haml, app/views/layouts/_grid_item_listing_image.haml]","[app/views/inboxes/_inbox_row.haml]","0","[]","0.0"
"1474","[10-06-2015]","1","2","[66a04daef8a46f1c43df04f990f3f8ed63a44e4c, 6396aa17fd1afbf04b4d3210d8b6adb1ac267efa]","1","0","38","1","[app/controllers/admin/listing_shapes_controller.rb, app/controllers/homepage_controller.rb, app/helpers/rest_helper.rb, app/models/category.rb, app/models/category_listing_shape.rb, app/models/community.rb, app/models/community_membership.rb, app/models/email.rb, app/models/listing_shape.rb, app/models/person.rb, app/models/transaction_process.rb, app/models/translation_cache.rb, app/services/feature_flag_service/api/api.rb, app/services/feature_flag_service/store.rb, app/services/listing_service/api/api.rb, app/services/listing_service/api/listings.rb, app/services/listing_service/store/category.rb, app/services/listing_service/store/listing.rb, app/services/marketplace_service/community.rb, app/services/marketplace_service/person.rb, app/services/paypal_service/api/api.rb, app/services/paypal_service/api/minimum_commissions.rb, app/services/paypal_service/api/payments.rb, app/services/transaction_service/api/api.rb, app/services/transaction_service/store/transaction.rb, app/services/transaction_service/store/transaction_process.rb, app/services/translation_service/api/api.rb, app/services/translation_service/api/translations.rb, app/utils/form_utils.rb, app/views/homepage/_custom_filters.haml, app/views/homepage/_filters.haml, app/views/homepage/_grid_item.haml, app/views/homepage/_list_item.haml, app/views/homepage/_map.haml, app/views/homepage/_price_filter.haml, app/views/homepage/_search_bar.haml, app/views/homepage/index.haml, app/views/layouts/_grid_item_listing_image.haml]","[app/views/listings/show.haml]","0.0","0.0","3.2.21","2","[]","9","10","[app/controllers/homepage_controller.rb, app/views/homepage/_custom_filters.haml, app/views/homepage/_filters.haml, app/views/homepage/_grid_item.haml, app/views/homepage/_list_item.haml, app/views/homepage/_map.haml, app/views/homepage/_price_filter.haml, app/views/homepage/_search_bar.haml, app/views/homepage/index.haml, app/views/layouts/_grid_item_listing_image.haml]","[username, hashes, save!, update_attributes, id, consent, update_attribute, set_default_preferences, save, each, login_as, update_all, name, find, fill_in, click_button, click_link, collect, create!, select, destroy!, destroy_all, reload, find_shape, create_listing, community_id, inject, page, have_content, has_content?, have_no_content, has_no_content?, within, click]","","[]","[login, new_listing]","2","2.398 seconds","false","38","1","[app/controllers/admin/listing_shapes_controller.rb, app/controllers/homepage_controller.rb, app/helpers/rest_helper.rb, app/models/category.rb, app/models/category_listing_shape.rb, app/models/community.rb, app/models/community_membership.rb, app/models/email.rb, app/models/listing_shape.rb, app/models/person.rb, app/models/transaction_process.rb, app/models/translation_cache.rb, app/services/feature_flag_service/api/api.rb, app/services/feature_flag_service/store.rb, app/services/listing_service/api/api.rb, app/services/listing_service/api/listings.rb, app/services/listing_service/store/category.rb, app/services/listing_service/store/listing.rb, app/services/marketplace_service/community.rb, app/services/marketplace_service/person.rb, app/services/paypal_service/api/api.rb, app/services/paypal_service/api/minimum_commissions.rb, app/services/paypal_service/api/payments.rb, app/services/transaction_service/api/api.rb, app/services/transaction_service/store/transaction.rb, app/services/transaction_service/store/transaction_process.rb, app/services/translation_service/api/api.rb, app/services/translation_service/api/translations.rb, app/utils/form_utils.rb, app/views/homepage/_custom_filters.haml, app/views/homepage/_filters.haml, app/views/homepage/_grid_item.haml, app/views/homepage/_list_item.haml, app/views/homepage/_map.haml, app/views/homepage/_price_filter.haml, app/views/homepage/_search_bar.haml, app/views/homepage/index.haml, app/views/layouts/_grid_item_listing_image.haml]","[app/views/listings/show.haml]","0","[]","0.0"
"1554","[15-04-2015]","1","4","[ae4a059e57bf9a04ec7de49e21441777a0abcd84, 64a996a9138fc1bcf345493c34b9e90f183cf841, 79cf9947978edb6abc306c54cb7519fc120a3834, c18db1b2b57bb896172ceadd0359174b386e7cfb]","1","3","41","1","[app/controllers/homepage_controller.rb, app/helpers/rest_helper.rb, app/models/category.rb, app/models/category_listing_shape.rb, app/models/community.rb, app/models/listing.rb, app/models/listing_shape.rb, app/models/person.rb, app/models/transaction.rb, app/models/transaction_process.rb, app/services/braintree_api.rb, app/services/braintree_service/escrow_release_helper.rb, app/services/listing_service/api/api.rb, app/services/listing_service/api/shapes.rb, app/services/listing_service/store/category.rb, app/services/listing_service/store/shape.rb, app/services/marketplace_service/community.rb, app/services/marketplace_service/listing.rb, app/services/marketplace_service/person.rb, app/services/marketplace_service/transaction.rb, app/services/paypal_service/api/api.rb, app/services/paypal_service/api/minimum_commissions.rb, app/services/paypal_service/api/payments.rb, app/services/transaction_service/api/api.rb, app/services/transaction_service/data_types/transaction.rb, app/services/transaction_service/store/transaction.rb, app/services/transaction_service/store/transaction_process.rb, app/services/transaction_service/transaction.rb, app/services/transaction_type_creator.rb, app/services/translation_service/api/api.rb, app/services/translation_service/api/translations.rb, app/views/homepage/_custom_filters.haml, app/views/homepage/_filters.haml, app/views/homepage/_grid_item.haml, app/views/homepage/_list_item.haml, app/views/homepage/_map.haml, app/views/homepage/_price_filter.haml, app/views/homepage/_search_bar.haml, app/views/homepage/index.haml, app/views/layouts/_grid_item_listing_image.haml, lib/np_guid/uuidtools.rb]","[app/models/transaction.rb]","0.0243902439","1.0","3.2.21","5","[]","9","10","[app/controllers/homepage_controller.rb, app/views/homepage/_custom_filters.haml, app/views/homepage/_filters.haml, app/views/homepage/_grid_item.haml, app/views/homepage/_list_item.haml, app/views/homepage/_map.haml, app/views/homepage/_price_filter.haml, app/views/homepage/_search_bar.haml, app/views/homepage/index.haml, app/views/layouts/_grid_item_listing_image.haml]","[find_shape, create_listing, nil?, fill_in, click, community_id, id, inject, username, login_as, click_button, click_link, start_with, and_return, at_least, times, set, page, have_content, update_attributes, choose, id, destroy_all, hashes, reload, data, update_attribute, to_i, shapes, each, have_selector, within, within]","","[]","[login, new_listing, person_transaction]","3","2.509 seconds","true","40","0","[app/controllers/homepage_controller.rb, app/helpers/rest_helper.rb, app/models/category.rb, app/models/category_listing_shape.rb, app/models/community.rb, app/models/listing.rb, app/models/listing_shape.rb, app/models/person.rb, app/models/transaction_process.rb, app/services/braintree_api.rb, app/services/braintree_service/escrow_release_helper.rb, app/services/listing_service/api/api.rb, app/services/listing_service/api/shapes.rb, app/services/listing_service/store/category.rb, app/services/listing_service/store/shape.rb, app/services/marketplace_service/community.rb, app/services/marketplace_service/listing.rb, app/services/marketplace_service/person.rb, app/services/marketplace_service/transaction.rb, app/services/paypal_service/api/api.rb, app/services/paypal_service/api/minimum_commissions.rb, app/services/paypal_service/api/payments.rb, app/services/transaction_service/api/api.rb, app/services/transaction_service/data_types/transaction.rb, app/services/transaction_service/store/transaction.rb, app/services/transaction_service/store/transaction_process.rb, app/services/transaction_service/transaction.rb, app/services/transaction_type_creator.rb, app/services/translation_service/api/api.rb, app/services/translation_service/api/translations.rb, app/views/homepage/_custom_filters.haml, app/views/homepage/_filters.haml, app/views/homepage/_grid_item.haml, app/views/homepage/_list_item.haml, app/views/homepage/_map.haml, app/views/homepage/_price_filter.haml, app/views/homepage/_search_bar.haml, app/views/homepage/index.haml, app/views/layouts/_grid_item_listing_image.haml, lib/np_guid/uuidtools.rb]","[]","1","[app/models/transaction.rb]","0.11111111110098765"
"1772","[06-11-2014, 07-11-2014]","1","2","[4e26be33aca8985a9f77137b318262b9d0e5b38f, 632471e0990824435e161f26754d1af984dfd135]","1","0","8","4","[app/controllers/dashboard_controller.rb, app/models/community.rb, app/models/community_membership.rb, app/models/person.rb, app/services/marketplace_service/community.rb, app/services/marketplace_service/person.rb, app/views/dashboard/_contact_request_form.haml, app/views/dashboard/index.haml]","[app/controllers/admin/communities_controller.rb, app/helpers/application_helper.rb, app/views/admin/_left_hand_navigation.haml, app/views/admin/communities/getting_started.haml]","0.0","0.0","3.2.19","2","[]","2","3","[app/controllers/dashboard_controller.rb, app/views/dashboard/_contact_request_form.haml, app/views/dashboard/index.haml]","[username, id, update_attribute, login_as, page, have_content, has_content?, within]","","[]","[getting_started_admin_community]","1","0.835 seconds","false","8","4","[app/controllers/dashboard_controller.rb, app/models/community.rb, app/models/community_membership.rb, app/models/person.rb, app/services/marketplace_service/community.rb, app/services/marketplace_service/person.rb, app/views/dashboard/_contact_request_form.haml, app/views/dashboard/index.haml]","[app/controllers/admin/communities_controller.rb, app/helpers/application_helper.rb, app/views/admin/_left_hand_navigation.haml, app/views/admin/communities/getting_started.haml]","0","[]","0.0"
"1910","[19-08-2014, 20-08-2014, 21-08-2014, 22-08-2014]","2","27","[6185e072aea5bc9d0a9a7f499c91e6b9861cb609, f1182ec759a91305b7db6bc7f886196273b2ecff, cdca42626082d36b0c2fe210d4ba5e3dba6e1a8b, 96c0c66984fc8e9eaa603691daa6eda3d9d69aa1, 3de307439d58e09aed71a21b0b64f31a4b486f38, eb659c4dbb4cc265caf242b516ecb857f56d0c31, faa073d19b06ae9e2a800e29bc9a8b210faa366b, 2a19ec0a326556abeda823e6f5d49ddbf75b3c5c, 3402fa108542fcb1f16f992f95e0d7307ce4928a, f7709e5b7f0bb9a1ef9768bc3c2e8638995e46e8, 7e1367eda4e98ff34cde3327ef8afbe155f1b843, 5d4fcfc77fa478742729ecdfd76dafc66f5793a4, def2fe1ece1614432b5aea9345108a2d673a2f04, 9f204e876276e3c1b3ea74281bd3f51c3289273c, 733216b4e0353301b880d12a6098d06838c74f14, 15d432c9f69bb127f21410f3fa91e7595e2cd646, 37b47a280ddb952647cc27ba431083f7ab1d13ab, f3aec9b2024093f986d211dbd0a706e04875619b, 8aa46f0260feb43916d6a9cc596e88b194b85ae3, 1ae26727d8f1354aebf1fc547750dee81b137e45, 352b361b9cbace4a3443b578cd8452fd4a8b5582, d908ab691eb6133b9aa78e5dbaa36d2175a34620, 25904d5d07ea95aaa6031ebf7737fe846d3c8f18, 1df6da9150746dd23f616d562702b8e1ae606fc1, 60305edd422f55af68bfab417f3e7ca686bcf406, 7c609c223b6e1839b60361c5ee582b72d33c4a9d, 97c43a663c33062e3452ee4ddb2214cda1a45376]","1","0","6","11","[app/controllers/dashboard_controller.rb, app/models/community.rb, app/models/community_membership.rb, app/models/person.rb, app/views/dashboard/_contact_request_form.haml, app/views/dashboard/index.haml]","[app/controllers/admin/community_customizations_controller.rb, app/controllers/listing_conversations_controller.rb, app/helpers/communities_helper.rb, app/models/community.rb, app/models/community_customization.rb, app/models/listing_conversation.rb, app/views/admin/community_customizations/_locale_input_fields.haml, app/views/admin/community_customizations/_locale_input_textarea.haml, app/views/admin/community_customizations/edit_details.haml, app/views/listing_conversations/_transaction_agreement_checkbox.haml, app/views/listing_conversations/preauthorize.haml]","0.1666666667","0.0909090909","3.2.19","2","[]","2","3","[app/controllers/dashboard_controller.rb, app/views/dashboard/_contact_request_form.haml, app/views/dashboard/index.haml]","[click, click_link, fill_in, page, have_content, has_content?, within, username, id, update_attribute, login_as]","","[app/views/listing_conversations/_agreement_lightbox.haml]","[edit_details_admin_community]","1","0.515 seconds","false","5","10","[app/controllers/dashboard_controller.rb, app/models/community_membership.rb, app/models/person.rb, app/views/dashboard/_contact_request_form.haml, app/views/dashboard/index.haml]","[app/controllers/admin/community_customizations_controller.rb, app/controllers/listing_conversations_controller.rb, app/helpers/communities_helper.rb, app/models/community_customization.rb, app/models/listing_conversation.rb, app/views/admin/community_customizations/_locale_input_fields.haml, app/views/admin/community_customizations/_locale_input_textarea.haml, app/views/admin/community_customizations/edit_details.haml, app/views/listing_conversations/_transaction_agreement_checkbox.haml, app/views/listing_conversations/preauthorize.haml]","1","[app/models/community.rb]","0.0999999999936"
"1917","[20-08-2014]","1","3","[b976bb3a6a43be46e082bdd1daf073c5c8869519, cbe7cdbb8a0f10180b6dd14215ef14122c833f91, 6b7f5c52a9295a5552eccb230b01a0c9cfbe48c0]","1","0","10","2","[app/controllers/dashboard_controller.rb, app/models/community.rb, app/models/community_membership.rb, app/models/conversation.rb, app/models/email.rb, app/models/person.rb, app/views/dashboard/_contact_request_form.haml, app/views/dashboard/index.haml, lib/np_guid/uuidtools.rb, lib/routes/community_domain.rb]","[app/controllers/admin/community_transactions_controller.rb, app/views/admin/community_transactions/index.haml]","0.0","0.0","3.2.19","2","[]","2","3","[app/controllers/dashboard_controller.rb, app/views/dashboard/_contact_request_form.haml, app/views/dashboard/index.haml]","[hashes, save!, each, page, all, length, eq, gsub, eval, Maybe, select, or_else, merge, username, update_attributes, id, consent, update_attribute, set_default_preferences, save, login_as, update_all, name, find, domain, to_i]","","[]","[admin_community_transactions]","1","1.163 seconds","true","10","2","[app/controllers/dashboard_controller.rb, app/models/community.rb, app/models/community_membership.rb, app/models/conversation.rb, app/models/email.rb, app/models/person.rb, app/views/dashboard/_contact_request_form.haml, app/views/dashboard/index.haml, lib/np_guid/uuidtools.rb, lib/routes/community_domain.rb]","[app/controllers/admin/community_transactions_controller.rb, app/views/admin/community_transactions/index.haml]","0","[]","0.0"
"1947","[25-07-2014]","1","3","[2c5740bae51b5dd43b60027ef8534c19ebcd57e4, 7bf5f401642fbadcf5c4c2ea2d1528ef6295c232, 79cc7ef0fd340bcd98ffcd820bdf8e5f79c10bee]","1","5","8","1","[app/controllers/dashboard_controller.rb, app/mailers/community_mailer.rb, app/models/category.rb, app/models/listing.rb, app/models/person.rb, app/models/transaction_type.rb, app/views/dashboard/_contact_request_form.haml, app/views/dashboard/index.haml]","[app/controllers/settings_controller.rb]","0.0","0.0","3.2.19","1","[]","2","3","[app/controllers/dashboard_controller.rb, app/views/dashboard/_contact_request_form.haml, app/views/dashboard/index.haml]","[visit_in_email, page, have_content, merge, open_email_for, mailbox_for, last_email_address, confirmed_notification_email_addresses, login_as, community_id, id, inject]","","[]","","0","0.903 seconds","true","8","1","[app/controllers/dashboard_controller.rb, app/mailers/community_mailer.rb, app/models/category.rb, app/models/listing.rb, app/models/person.rb, app/models/transaction_type.rb, app/views/dashboard/_contact_request_form.haml, app/views/dashboard/index.haml]","[app/controllers/settings_controller.rb]","0","[]","0.0"
