"Repository","https://github.com/rapidftr/RapidFTR.git"
"Tasks with empty IReal","0"
"Tasks with no-empty IReal","3"
"Tasks with relevant AST error","3"
"Tasks with AST error of Gherkin files","0"
"Tasks with AST error of StepDef files","0"
"Tasks with AST error of production files","3"
"Tasks with AST error of unit test files","0"
"Tasks with step match error","0"
"Tasks without required gems","0"
"Tasks with changed stepdef","1"
"Tasks with changed Gherkin","3"
"Tasks with implemented Gherkin scenarios","3"
"All invalid tasks","3"
"All valid tasks (Gherkin scenario, no empty IReal, no error)","0"
"Valid tasks, but empty ITest","0"
"Valid tasks, no empty ITest, but zero precision-recall","0"
"Valid tasks, no empty ITest, no zero precision-recall","0"
"Project","Task","Date","#Days","#Commits","Commit_Message","#Devs","#Gherkin_Tests","#Impl_Gherkin_Tests","#StepDef","#Impl_StepDef","Methods_Unknown_Type","#Step_Call","Step_Match_Errors","#Step_Match_Error","AST_Errors","#AST_Errors","Gherkin_AST_Errors","#Gherkin_AST_Errors","Steps_AST_Errors","#Steps_AST_Errors","Renamed_Files","Deleted_Files","NotFound_Views","#Views","#TestI","#TaskI","TestI","TaskI","Precision","Recall","Hashes","Timestamp","Rails","Gems","#Visit_Call","Lost_visit_call","#Views_ITest","#Code_View_Analysis","Code_View_Analysis","Has_Merge","F2","#Multiple_Step_Matches","Multiple_Step_Matches","#Generic_Step_Keyword","Generic_Step_Keyword"
"rapidftr","1116","[18-05-2011]","1","1","[#622: rikesh - implement advanced search by created by field ]","1","1","1","0","0","[hashes, reverse_merge!, delete, uploadable_photo, create!, each, click_button, fill_in, current_url, select, compact, assert_equal, reverse_merge!, new_create_custom_fields, raise, url_for]","0","","0","[[path:app/controllers/sessions_controller.rb, msgs:[unexpected tASSOC]]]","1","","0","","0","","[]","[feature, new_add_suggested_field_to_form_section, new_assign_unique_id_to_a_child, new_create_custom_field]","4","62","4","[app/controllers/admin_controller.rb, app/controllers/child_ids_controller.rb, app/controllers/child_media_controller.rb, app/controllers/children_controller.rb, app/controllers/fields_controller.rb, app/controllers/form_section_controller.rb, app/controllers/histories_controller.rb, app/controllers/sessions_controller.rb, app/controllers/users_controller.rb, app/models/child.rb, app/models/field.rb, app/models/form_section.rb, app/models/session.rb, app/models/summary.rb, app/models/user.rb, app/views/admin/index.html.erb, app/views/children/_audio_player.html.erb, app/views/children/_audio_upload_box.html.erb, app/views/children/_check_box.html.erb, app/views/children/_date_field.html.erb, app/views/children/_form_section.html.erb, app/views/children/_form_section_info.html.erb, app/views/children/_numeric_field.html.erb, app/views/children/_photo_upload_box.html.erb, app/views/children/_picture.html.erb, app/views/children/_radio_button.html.erb, app/views/children/_repeatable_text_field.html.erb, app/views/children/_search_results.html.erb, app/views/children/_select_box.html.erb, app/views/children/_show_child_toolbar.erb, app/views/children/_show_form_section.html.erb, app/views/children/_summary_row.html.erb, app/views/children/_tabs.html.erb, app/views/children/_text_field.html.erb, app/views/children/_textarea.html.erb, app/views/children/edit.html.erb, app/views/children/edit_photo.html.erb, app/views/children/index.html.erb, app/views/children/new.html.erb, app/views/children/search.html.erb, app/views/children/show.html.erb, app/views/fields/_basic_form.html.erb, app/views/fields/_common.html.erb, app/views/fields/_multiple_choice_form.html.erb, app/views/fields/_suggested_field.html.erb, app/views/fields/choose.html.erb, app/views/fields/edit.html.erb, app/views/fields/new.html.erb, app/views/form_section/index.html.erb, app/views/form_section/new.html.erb, app/views/histories/_audio_history_change.html.erb, app/views/histories/_history_change.html.erb, app/views/histories/_photo_history_change.html.erb, app/views/histories/show.html.erb, app/views/sessions/new.html.erb, app/views/sessions/show.html.erb, app/views/users/_devices.html.erb, app/views/users/_edittable_user.html.erb, app/views/users/_mobile_login_history.html.erb, app/views/users/edit.html.erb, app/views/users/index.html.erb, app/views/users/new.html.erb]","[app/controllers/advanced_search_controller.rb, app/models/child.rb, app/models/search_criteria.rb, app/views/advanced_search/index.html.erb]","0.0161290323","0.25","[7c46f3a6bbdbf5e3b442896c0c84302eb55818ac]","3.399 seconds","2.3.11","[cucumber-rails, rspec-rails]","1","[]","47","56","[app/controllers/admin_controller.rb, app/controllers/child_ids_controller.rb, app/controllers/child_media_controller.rb, app/controllers/children_controller.rb, app/controllers/fields_controller.rb, app/controllers/form_section_controller.rb, app/controllers/histories_controller.rb, app/controllers/sessions_controller.rb, app/controllers/users_controller.rb, app/views/admin/index.html.erb, app/views/children/_audio_player.html.erb, app/views/children/_audio_upload_box.html.erb, app/views/children/_check_box.html.erb, app/views/children/_date_field.html.erb, app/views/children/_form_section.html.erb, app/views/children/_form_section_info.html.erb, app/views/children/_numeric_field.html.erb, app/views/children/_photo_upload_box.html.erb, app/views/children/_picture.html.erb, app/views/children/_radio_button.html.erb, app/views/children/_repeatable_text_field.html.erb, app/views/children/_search_results.html.erb, app/views/children/_select_box.html.erb, app/views/children/_show_child_toolbar.erb, app/views/children/_show_form_section.html.erb, app/views/children/_summary_row.html.erb, app/views/children/_tabs.html.erb, app/views/children/_text_field.html.erb, app/views/children/_textarea.html.erb, app/views/children/edit.html.erb, app/views/children/edit_photo.html.erb, app/views/children/index.html.erb, app/views/children/new.html.erb, app/views/children/search.html.erb, app/views/children/show.html.erb, app/views/fields/_basic_form.html.erb, app/views/fields/_common.html.erb, app/views/fields/_multiple_choice_form.html.erb, app/views/fields/_suggested_field.html.erb, app/views/fields/choose.html.erb, app/views/fields/edit.html.erb, app/views/fields/new.html.erb, app/views/form_section/index.html.erb, app/views/form_section/new.html.erb, app/views/histories/_audio_history_change.html.erb, app/views/histories/_history_change.html.erb, app/views/histories/_photo_history_change.html.erb, app/views/histories/show.html.erb, app/views/sessions/new.html.erb, app/views/sessions/show.html.erb, app/views/users/_devices.html.erb, app/views/users/_edittable_user.html.erb, app/views/users/_mobile_login_history.html.erb, app/views/users/edit.html.erb, app/views/users/index.html.erb, app/views/users/new.html.erb]","false","0.06410256423504274","0","","0",""
"rapidftr","1142","[05-04-2011]","1","1","[#655: Show search/advanced search/child listing links on appropriate page ]","1","3","3","0","0","[response_body, have_selector, reverse_merge!, new_create_custom_fields, raise, url_for]","0","","0","[[path:app/controllers/sessions_controller.rb, msgs:[unexpected tASSOC]]]","1","","0","","0","","[app/views/children/_search_sidebar.html.erb]","[feature, new_add_suggested_field_to_form_section, new_assign_unique_id_to_a_child, new_create_custom_field]","4","62","4","[app/controllers/admin_controller.rb, app/controllers/child_ids_controller.rb, app/controllers/child_media_controller.rb, app/controllers/children_controller.rb, app/controllers/fields_controller.rb, app/controllers/form_section_controller.rb, app/controllers/histories_controller.rb, app/controllers/sessions_controller.rb, app/controllers/users_controller.rb, app/models/child.rb, app/models/field.rb, app/models/form_section.rb, app/models/session.rb, app/models/summary.rb, app/models/user.rb, app/views/admin/index.html.erb, app/views/children/_audio_player.html.erb, app/views/children/_audio_upload_box.html.erb, app/views/children/_check_box.html.erb, app/views/children/_date_field.html.erb, app/views/children/_form_section.html.erb, app/views/children/_form_section_info.html.erb, app/views/children/_numeric_field.html.erb, app/views/children/_photo_upload_box.html.erb, app/views/children/_picture.html.erb, app/views/children/_radio_button.html.erb, app/views/children/_repeatable_text_field.html.erb, app/views/children/_search_results.html.erb, app/views/children/_select_box.html.erb, app/views/children/_show_child_toolbar.erb, app/views/children/_show_form_section.html.erb, app/views/children/_summary_row.html.erb, app/views/children/_tabs.html.erb, app/views/children/_text_field.html.erb, app/views/children/_textarea.html.erb, app/views/children/edit.html.erb, app/views/children/edit_photo.html.erb, app/views/children/index.html.erb, app/views/children/new.html.erb, app/views/children/search.html.erb, app/views/children/show.html.erb, app/views/fields/_basic_form.html.erb, app/views/fields/_common.html.erb, app/views/fields/_multiple_choice_form.html.erb, app/views/fields/_suggested_field.html.erb, app/views/fields/choose.html.erb, app/views/fields/edit.html.erb, app/views/fields/new.html.erb, app/views/form_section/index.html.erb, app/views/form_section/new.html.erb, app/views/histories/_audio_history_change.html.erb, app/views/histories/_history_change.html.erb, app/views/histories/_photo_history_change.html.erb, app/views/histories/show.html.erb, app/views/sessions/new.html.erb, app/views/sessions/show.html.erb, app/views/users/_devices.html.erb, app/views/users/_edittable_user.html.erb, app/views/users/_mobile_login_history.html.erb, app/views/users/edit.html.erb, app/views/users/index.html.erb, app/views/users/new.html.erb]","[app/controllers/advanced_search_controller.rb, app/controllers/children_controller.rb, app/helpers/application_helper.rb, app/views/shared/_sidebar_links.html.erb]","0.0161290323","0.25","[38a6bd587e4757ce04beb3406192298681931062]","3.189 seconds","2.3.11","[cucumber-rails, rspec-rails]","3","[]","47","56","[app/controllers/admin_controller.rb, app/controllers/child_ids_controller.rb, app/controllers/child_media_controller.rb, app/controllers/children_controller.rb, app/controllers/fields_controller.rb, app/controllers/form_section_controller.rb, app/controllers/histories_controller.rb, app/controllers/sessions_controller.rb, app/controllers/users_controller.rb, app/views/admin/index.html.erb, app/views/children/_audio_player.html.erb, app/views/children/_audio_upload_box.html.erb, app/views/children/_check_box.html.erb, app/views/children/_date_field.html.erb, app/views/children/_form_section.html.erb, app/views/children/_form_section_info.html.erb, app/views/children/_numeric_field.html.erb, app/views/children/_photo_upload_box.html.erb, app/views/children/_picture.html.erb, app/views/children/_radio_button.html.erb, app/views/children/_repeatable_text_field.html.erb, app/views/children/_search_results.html.erb, app/views/children/_select_box.html.erb, app/views/children/_show_child_toolbar.erb, app/views/children/_show_form_section.html.erb, app/views/children/_summary_row.html.erb, app/views/children/_tabs.html.erb, app/views/children/_text_field.html.erb, app/views/children/_textarea.html.erb, app/views/children/edit.html.erb, app/views/children/edit_photo.html.erb, app/views/children/index.html.erb, app/views/children/new.html.erb, app/views/children/search.html.erb, app/views/children/show.html.erb, app/views/fields/_basic_form.html.erb, app/views/fields/_common.html.erb, app/views/fields/_multiple_choice_form.html.erb, app/views/fields/_suggested_field.html.erb, app/views/fields/choose.html.erb, app/views/fields/edit.html.erb, app/views/fields/new.html.erb, app/views/form_section/index.html.erb, app/views/form_section/new.html.erb, app/views/histories/_audio_history_change.html.erb, app/views/histories/_history_change.html.erb, app/views/histories/_photo_history_change.html.erb, app/views/histories/show.html.erb, app/views/sessions/new.html.erb, app/views/sessions/show.html.erb, app/views/users/_devices.html.erb, app/views/users/_edittable_user.html.erb, app/views/users/_mobile_login_history.html.erb, app/views/users/edit.html.erb, app/views/users/index.html.erb, app/views/users/new.html.erb]","false","0.06410256423504274","0","","0",""
"rapidftr","1145","[31-03-2011]","1","2","[Removing accidental add of bunk file , Updates for 630, including necessary test changes to address verbiage changes ]","1","8","8","1","1","[click_button, click_link, fill_in, fill_in, check, uncheck, response, contain, assert_contain, field_with_id, be_checked, checked?, url_for, each, hashes, gsub, reverse_merge!, to_i, be_nil, fields, save!, dehumanize, body, Hpricot, form_section_row_for, be_nil, enabled_icon, inner_html, css, include, form_field_for, raw, each]","0","","0","[[path:app/controllers/sessions_controller.rb, msgs:[unexpected tASSOC]]]","1","","0","","0","","[]","","0","55","5","[app/controllers/admin_controller.rb, app/controllers/child_media_controller.rb, app/controllers/children_controller.rb, app/controllers/fields_controller.rb, app/controllers/form_section_controller.rb, app/controllers/histories_controller.rb, app/controllers/users_controller.rb, app/models/field.rb, app/models/form_section.rb, app/models/user.rb, app/views/admin/index.html.erb, app/views/children/_audio_player.html.erb, app/views/children/_audio_upload_box.html.erb, app/views/children/_check_box.html.erb, app/views/children/_date_field.html.erb, app/views/children/_form_section.html.erb, app/views/children/_form_section_info.html.erb, app/views/children/_numeric_field.html.erb, app/views/children/_photo_upload_box.html.erb, app/views/children/_picture.html.erb, app/views/children/_radio_button.html.erb, app/views/children/_repeatable_text_field.html.erb, app/views/children/_search_results.html.erb, app/views/children/_search_sidebar.html.erb, app/views/children/_select_box.html.erb, app/views/children/_show_child_toolbar.erb, app/views/children/_show_form_section.html.erb, app/views/children/_summary_row.html.erb, app/views/children/_tabs.html.erb, app/views/children/_text_field.html.erb, app/views/children/_textarea.html.erb, app/views/children/edit.html.erb, app/views/children/edit_photo.html.erb, app/views/children/index.html.erb, app/views/children/new.html.erb, app/views/children/search.html.erb, app/views/children/show.html.erb, app/views/fields/_basic_form.html.erb, app/views/fields/_common.html.erb, app/views/fields/_multiple_choice_form.html.erb, app/views/fields/_suggested_field.html.erb, app/views/fields/choose.html.erb, app/views/fields/edit.html.erb, app/views/fields/new.html.erb, app/views/form_section/index.html.erb, app/views/histories/_audio_history_change.html.erb, app/views/histories/_history_change.html.erb, app/views/histories/_photo_history_change.html.erb, app/views/histories/show.html.erb, app/views/users/_devices.html.erb, app/views/users/_edittable_user.html.erb, app/views/users/_mobile_login_history.html.erb, app/views/users/edit.html.erb, app/views/users/index.html.erb, app/views/users/new.html.erb]","[app/controllers/fields_controller.rb, app/views/form_section/_delete_button.html.erb, app/views/form_section/_direction_button.html.erb, app/views/form_section/edit.html.erb, app/views/form_section/index.html.erb]","0.0363636364","0.4","[2cde81937868c7ed77c1f0f9d208145ecd7d00c5, eaadfbe2c2d61bbd817310a57cd10d4668541d17]","1.341 seconds","2.3.11","[cucumber-rails, rspec-rails]","4","[]","45","52","[app/controllers/admin_controller.rb, app/controllers/child_media_controller.rb, app/controllers/children_controller.rb, app/controllers/fields_controller.rb, app/controllers/form_section_controller.rb, app/controllers/histories_controller.rb, app/controllers/users_controller.rb, app/views/admin/index.html.erb, app/views/children/_audio_player.html.erb, app/views/children/_audio_upload_box.html.erb, app/views/children/_check_box.html.erb, app/views/children/_date_field.html.erb, app/views/children/_form_section.html.erb, app/views/children/_form_section_info.html.erb, app/views/children/_numeric_field.html.erb, app/views/children/_photo_upload_box.html.erb, app/views/children/_picture.html.erb, app/views/children/_radio_button.html.erb, app/views/children/_repeatable_text_field.html.erb, app/views/children/_search_results.html.erb, app/views/children/_search_sidebar.html.erb, app/views/children/_select_box.html.erb, app/views/children/_show_child_toolbar.erb, app/views/children/_show_form_section.html.erb, app/views/children/_summary_row.html.erb, app/views/children/_tabs.html.erb, app/views/children/_text_field.html.erb, app/views/children/_textarea.html.erb, app/views/children/edit.html.erb, app/views/children/edit_photo.html.erb, app/views/children/index.html.erb, app/views/children/new.html.erb, app/views/children/search.html.erb, app/views/children/show.html.erb, app/views/fields/_basic_form.html.erb, app/views/fields/_common.html.erb, app/views/fields/_multiple_choice_form.html.erb, app/views/fields/_suggested_field.html.erb, app/views/fields/choose.html.erb, app/views/fields/edit.html.erb, app/views/fields/new.html.erb, app/views/form_section/index.html.erb, app/views/histories/_audio_history_change.html.erb, app/views/histories/_history_change.html.erb, app/views/histories/_photo_history_change.html.erb, app/views/histories/show.html.erb, app/views/users/_devices.html.erb, app/views/users/_edittable_user.html.erb, app/views/users/_mobile_login_history.html.erb, app/views/users/edit.html.erb, app/views/users/index.html.erb, app/views/users/new.html.erb]","false","0.13333333343111112","0","","0",""
