"Repository","https://github.com/dchbx/enroll.git"
"TASK","HASH","RUBY","RAILS","COVERAGE","TESTS"
"6139","882091a05dade506cd31f48b146addc697ee0446","","4.2.0","","features/integration/employee_sign_up.feature(7)"
"6146","52d088dbd912e3a5309d096a3ce5dcbf8cc12e6e","","4.2.0","","features/employers/create_employer.feature(14)"
"6174","dac97cdd852da381158dcc9f275181b7932ee987","","4.2.0","","features/employers/create_employer.feature(7);features/employers/create_employer.feature(14)"
"6201","507421b71753d6458245053241405e122b9002ba","","4.2.0","","features/employers/create_employer.feature(14)"
"6222","67e2914726cd3c0cf0034cf3601d8a7e8149f467","","4.2.0","","features/employers/create_employer.feature(14)"
"6240","a8eb3a60ddfe498000af793ab987ebd4c6144242","","4.2.0","","features/integration/home.feature(3);features/integration/plan_filter.feature(4)"
"6594","66be1d75be59fc2e4c1b48e447145f1d2dfb6a8e","","4.2.0","","features/users/sign_in.feature(6);features/users/sign_in.feature(12);features/users/sign_in.feature(20);features/users/sign_in.feature(27);features/users/sign_up.feature(6);features/users/sign_up.feature(10);features/users/sign_up.feature(14);features/users/sign_up.feature(18);features/users/sign_up.feature(22)"
