"Repository","https://github.com/alphagov/e-petitions.git"
"Tasks with empty IReal","0"
"Tasks with no-empty IReal","25"
"Tasks with relevant AST error","0"
"Tasks with AST error of Gherkin files","0"
"Tasks with AST error of StepDef files","0"
"Tasks with AST error of production files","0"
"Tasks with AST error of unit test files","0"
"Tasks with step match error","0"
"Tasks without required gems","0"
"Tasks with changed stepdef","21"
"Tasks with changed Gherkin","25"
"Tasks with implemented Gherkin scenarios","25"
"All invalid tasks","0"
"All valid tasks (Gherkin scenario, no empty IReal, no error)","25"
"Valid tasks, but empty ITest","0"
"Valid tasks, no empty ITest, but zero precision-recall","7"
"Valid tasks, no empty ITest, no zero precision-recall","18"
"Project","Task","Date","#Days","#Commits","Commit_Message","#Devs","#Gherkin_Tests","#Impl_Gherkin_Tests","#StepDef","#Impl_StepDef","Methods_Unknown_Type","#Step_Call","Step_Match_Errors","#Step_Match_Error","AST_Errors","#AST_Errors","Gherkin_AST_Errors","#Gherkin_AST_Errors","Steps_AST_Errors","#Steps_AST_Errors","Renamed_Files","Deleted_Files","NotFound_Views","#Views","#TestI","#TaskI","TestI","TaskI","Precision","Recall","Hashes","Timestamp","Rails","Gems","#Visit_Call","Lost_visit_call","#Views_ITest","#Code_View_Analysis","Code_View_Analysis","Has_Merge","F2","#Multiple_Step_Matches","Multiple_Step_Matches","#Generic_Step_Keyword","Generic_Step_Keyword"
"e-petitions","345","[16-06-2015]","1","4","[Remove should syntax from controller spec , Add rspec tests for new selectable scope , Change controller to get all selectable states , Add cucumber steps to view rejected petitions  Added a class to the table data tag for petition titles, so that I could test it more succinctly ie. test results that should be there and should NOT be there with one line. ]","1","1","1","1","1","[capture_model, capture_fields, create_model, click_link, select, click_button, page, all, raw, flatten, match_array, email, fill_in, click_button, email, password]","1","","0","","0","","0","","0","","[]","","0","2","3","[app/controllers/admin/user_sessions_controller.rb, app/views/admin/user_sessions/new.html.erb]","[app/controllers/admin/petitions_controller.rb, app/models/petition.rb, app/views/admin/petitions/index.html.erb]","0.0","0.0","[488c1da77b24c8a5722d77f6053f06f8852b186b, a2d0941efb2e985d8ccb0bbc0404a9829ad607d7, 62eec27963496e60a4e1e4b78eaa47d8e66bd273, 8bba467a5f4b72e9751bcc9765e0614a7d35dc18]","0.182 seconds","4.2.1","[cucumber-rails, rspec-rails, factory_girl]","1","[]","1","2","[app/controllers/admin/user_sessions_controller.rb, app/views/admin/user_sessions/new.html.erb]","false","0.0","0","","0",""
"e-petitions","349","[16-06-2015]","1","2","[Extracting additional partial from the petition show page for better code readability , Cleaning rejected petition view by removing redundant info and also add new styling - removed: the signature count, confirmation email section, references to 10k and 100k sections, created by section ]","1","1","1","3","3","[nil?, page, have_content, have_css, to_not, strftime, squish, within, blank?, have_xpath, not_to]","0","","0","","0","","0","","0","","[app/views/petitions/_rejected_petition.html.erb]","[new_petition_signature]","1","21","3","[app/controllers/admin/petitions_controller.rb, app/controllers/archived/petitions_controller.rb, app/controllers/petitions_controller.rb, app/controllers/static_pages_controller.rb, app/models/archived_petition.rb, app/models/petition.rb, app/models/staged/base/petition.rb, app/models/staged/petition_creator/petition.rb, app/views/archived/petitions/show.html.erb, app/views/petitions/_action_help.html.erb, app/views/petitions/_petition_show.html.erb, app/views/petitions/_rejected_petition_show.html.erb, app/views/petitions/check.html.erb, app/views/petitions/check_results.html.erb, app/views/petitions/new.html.erb, app/views/petitions/show.html.erb, app/views/search/_results_for_pre_create_petition.html.erb, app/views/shared/_about_petitions.html.erb, app/views/shared/_notification.html.erb, app/views/shared/_share_petition.html.erb, app/views/static_pages/help.html.erb]","[app/views/petitions/_petition_show.html.erb, app/views/petitions/_rejected_petition_show.html.erb, app/views/petitions/show.html.erb]","0.1428571429","1.0","[5cf9616d949dc933d3855293cfd3984683a08542, 55bbef3a754181b8f9b919c8443cd5abd1e18b4e]","0.275 seconds","4.2.1","[cucumber-rails, rspec-rails, factory_girl]","2","[]","13","17","[app/controllers/admin/petitions_controller.rb, app/controllers/archived/petitions_controller.rb, app/controllers/petitions_controller.rb, app/controllers/static_pages_controller.rb, app/views/archived/petitions/show.html.erb, app/views/petitions/_action_help.html.erb, app/views/petitions/_petition_show.html.erb, app/views/petitions/_rejected_petition_show.html.erb, app/views/petitions/check.html.erb, app/views/petitions/check_results.html.erb, app/views/petitions/new.html.erb, app/views/petitions/show.html.erb, app/views/search/_results_for_pre_create_petition.html.erb, app/views/shared/_about_petitions.html.erb, app/views/shared/_notification.html.erb, app/views/shared/_share_petition.html.erb, app/views/static_pages/help.html.erb]","false","0.4545454546322314","0","","0",""
"e-petitions","351","[17-06-2015]","1","6","[Pull site defaults from environment variables  To make the site easier to deploy to staging and preview environments that have been freshly built pull the site defaults from the enviroment variables. , Provide a default host for the production environment , Embed environment name into application name  We need to deploy to different applications for different environments. , Add smtp settings to production environment  Add the config block for the smtp settings with the relevant secrets pulled from the ENV hash. , Move faker gem to global bundler group  We need to create dummy data in the staging and preview environments so move the faker gem out into the global group to allow use to run the `rake data:generate` task in a production-like environment. , Merge AppConfig and SystemSetting into Site model  Rather than have two places to configure things it makes sense to combine these into a single place. This Site model can also serve some additional purposes such as holding timestamp f [TOO_LONG]","1","2","2","12","12","[update!, page, driver, options, page, status_code, eq, sponsors, build, times, supporting_sponsors_count, sponsors, where, not, count, open_last_email_for, subject, title, default_part_body, include, not_to, signatures, be_present, be_sponsor, unread_emails_for, read_emails_for, sponsor_token, fill_in, select, check, within, click_button, stub_constituency_from_file, stub_no_constituencies, click_on, open_email, click_first_link_in_email]","6","","0","","0","","0","","0","","[app/lib/app_config.rb, app/models/system_setting.rb]","[new_petition_signature]","1","30","11","[app/controllers/admin/petitions_controller.rb, app/controllers/archived/petitions_controller.rb, app/controllers/petitions_controller.rb, app/controllers/sponsors_controller.rb, app/controllers/static_pages_controller.rb, app/models/concerns/browseable.rb, app/models/petition.rb, app/models/site.rb, app/models/sponsor.rb, app/models/staged/base/petition.rb, app/models/staged/petition_creator/petition.rb, app/views/local_petitions/_search.html.erb, app/views/petitions/_action_help.html.erb, app/views/petitions/_trending_petition.html.erb, app/views/petitions/check.html.erb, app/views/petitions/check_results.html.erb, app/views/petitions/index.html.erb, app/views/petitions/new.html.erb, app/views/petitions/show.html.erb, app/views/search/_filter_nav.html.erb, app/views/search/_result_list_footer.html.erb, app/views/search/_results.html.erb, app/views/search/_results_for_pre_create_petition.html.erb, app/views/search/_results_table.html.erb, app/views/shared/_about_petitions.html.erb, app/views/shared/_notification.html.erb, app/views/shared/_share_petition.html.erb, app/views/sponsors/show.html.erb, app/views/static_pages/help.html.erb, app/views/static_pages/home.html.erb]","[app/controllers/application_controller.rb, app/mailers/admin_mailer.rb, app/mailers/application_mailer.rb, app/mailers/sponsor_mailer.rb, app/models/petition.rb, app/models/site.rb, app/views/petition_mailer/gather_sponsors_for_petition.html.erb, app/views/petitions/check.html.erb, app/views/petitions/thank_you.html.erb, lib/health_check.rb, lib/package_builder.rb]","0.1","0.2727272727","[741bfa74937b25daa6944c80e33960d2a0018581, 4c525e8579dc7e138492c3c78636f186cd92408d, 7d82c4f935d03cea864be08c1da2bc63b031c2fc, d18d16c643e7565c251ed9c3a575b8dbb27a8144, d10637fbf3a5cf8e7029fe63d25a7b45f9588617, 132bb1e41afe7bffa5017476325b4657d4c3e081]","0.372 seconds","4.2.1","[cucumber-rails, rspec-rails, factory_girl]","2","[]","19","24","[app/controllers/admin/petitions_controller.rb, app/controllers/archived/petitions_controller.rb, app/controllers/petitions_controller.rb, app/controllers/sponsors_controller.rb, app/controllers/static_pages_controller.rb, app/views/local_petitions/_search.html.erb, app/views/petitions/_action_help.html.erb, app/views/petitions/_trending_petition.html.erb, app/views/petitions/check.html.erb, app/views/petitions/check_results.html.erb, app/views/petitions/index.html.erb, app/views/petitions/new.html.erb, app/views/petitions/show.html.erb, app/views/search/_filter_nav.html.erb, app/views/search/_result_list_footer.html.erb, app/views/search/_results.html.erb, app/views/search/_results_for_pre_create_petition.html.erb, app/views/search/_results_table.html.erb, app/views/shared/_about_petitions.html.erb, app/views/shared/_notification.html.erb, app/views/shared/_share_petition.html.erb, app/views/sponsors/show.html.erb, app/views/static_pages/help.html.erb, app/views/static_pages/home.html.erb]","false","0.20270270269065016","0","","0",""
"e-petitions","354","[16-06-2015]","1","5","[Merge pull request #136 from alphagov/petitions-with-government-response-listview  Petitions with government response listview, Change with_response logic to require response_summary  Petition with_response facet and scope now require that also the response summary is filled in  government_response_at field is stamped only when both fields are filled. , Add callback for stamping parliament_response_at , Add a listview for petitions with a response , Add parliament_response_at timestamp to petitions ]","2","1","1","1","1","[ago, from_now, to_i, days, click_link, within, page, all, raw, flatten, eq, capture_model, model!]","0","","0","","0","","0","","0","","[]","[new_petition_signature]","1","22","1","[app/controllers/admin/petitions_controller.rb, app/controllers/archived/petitions_controller.rb, app/controllers/petitions_controller.rb, app/controllers/static_pages_controller.rb, app/views/local_petitions/_search.html.erb, app/views/petitions/_action_help.html.erb, app/views/petitions/_trending_petition.html.erb, app/views/petitions/check.html.erb, app/views/petitions/check_results.html.erb, app/views/petitions/index.html.erb, app/views/petitions/new.html.erb, app/views/petitions/show.html.erb, app/views/search/_filter_nav.html.erb, app/views/search/_result_list_footer.html.erb, app/views/search/_results.html.erb, app/views/search/_results_for_pre_create_petition.html.erb, app/views/search/_results_table.html.erb, app/views/shared/_about_petitions.html.erb, app/views/shared/_notification.html.erb, app/views/shared/_share_petition.html.erb, app/views/static_pages/help.html.erb, app/views/static_pages/home.html.erb]","[app/models/petition.rb]","0.0","0.0","[01c117e51519ddf4d927bd28e4bac9d24ce7ea94, 9f1fc6da3b6def550f5ddcac3cb85d0d1d6ff7fc, ba5f44b74096d38603f59e1aaa44332441c0f7fd, 89416819c8f18c2c68282f70de596d598411ed07, ef207d66b280b14a317d38cbb892b65c38a59853]","0.277 seconds","4.2.1","[cucumber-rails, rspec-rails, factory_girl]","1","[]","18","22","[app/controllers/admin/petitions_controller.rb, app/controllers/archived/petitions_controller.rb, app/controllers/petitions_controller.rb, app/controllers/static_pages_controller.rb, app/views/local_petitions/_search.html.erb, app/views/petitions/_action_help.html.erb, app/views/petitions/_trending_petition.html.erb, app/views/petitions/check.html.erb, app/views/petitions/check_results.html.erb, app/views/petitions/index.html.erb, app/views/petitions/new.html.erb, app/views/petitions/show.html.erb, app/views/search/_filter_nav.html.erb, app/views/search/_result_list_footer.html.erb, app/views/search/_results.html.erb, app/views/search/_results_for_pre_create_petition.html.erb, app/views/search/_results_table.html.erb, app/views/shared/_about_petitions.html.erb, app/views/shared/_notification.html.erb, app/views/shared/_share_petition.html.erb, app/views/static_pages/help.html.erb, app/views/static_pages/home.html.erb]","true","0.0","1","[path:features/suzie_views_all_petitions.feature, text:the markup should be valid]","0",""
"e-petitions","355","[16-06-2015]","1","1","[Change the sequence of the creating petition's steps: after the create petition page we go to a preview petition and then to sign your petition page ]","1","3","3","0","0","[page, execute_script, page, have_text, to_not, find, click, click_button, click_button, click_button, fill_in, fill_in, have_content, find_field, tag_name, text, within, have_field, notify_by_email?, be_truthy, capture_model, capture_fields, create_model, model!, eq, have_css, fill_in, select, check, blank?, page, have_title, have_no_title, have_content, have_no_content, gsub, have_xpath, raise, stub_request, to_return]","6","","0","","0","","0","","0","","[]","","0","7","3","[app/controllers/admin/petitions_controller.rb, app/controllers/archived/petitions_controller.rb, app/controllers/petitions_controller.rb, app/lib/constituency_api.rb, app/models/signature.rb, app/models/staged/base/signature.rb, app/views/petitions/new.html.erb]","[app/models/staged/petition_creator/replay_petition.rb, app/models/staged/petition_creator/stages.rb, app/views/petitions/create/_petition_details_ui.html.erb]","0.0","0.0","[aa2b741c9802e6a4490d63eb861b8f9d82623322]","0.210 seconds","4.2.1","[cucumber-rails, rspec-rails, factory_girl]","1","[]","1","4","[app/controllers/admin/petitions_controller.rb, app/controllers/archived/petitions_controller.rb, app/controllers/petitions_controller.rb, app/views/petitions/new.html.erb]","false","0.0","6","[path:features/charlie_creates_a_petition.feature, text:the markup should be valid], [path:features/charlie_creates_a_petition.feature, text:a petition should exist with title: ""The wombats of wimbledon rock."", state: ""pending""], [path:features/charlie_creates_a_petition.feature, text:there should be a ""pending"" signature with email ""womboid@wimbledon.com"" and name ""Womboid Wibbledon""], [path:features/charlie_creates_a_petition.feature, text:""womboid@wimbledon.com"" should be emailed a link for gathering support from sponsors], [path:features/charlie_creates_a_petition.feature, text:there should be a ""pending"" signature with email ""womboid@wimbledon.com"" and name ""Mr. Wibbledon""], [path:/home/local/CIN/tabr/phd_study2_tentativa7/new_sample/task_analysis/part1/spg_repos/alphagov_e-petitions/features/step_definitions/petition_steps.rb, text:I should be connected to the server via an ssl connection]","0",""
"e-petitions","356","[15-06-2015, 16-06-2015]","2","31","[Merge pull request #139 from alphagov/add_government_summary_response  Add government summary response, Update views for response summary , Update admin petition controller  Updated to add new response summary attribute and strong parameters. , Add validations for response_summary , Add migration to add response_summary , Remove should from petition rspec file  http://betterspecs.org/#should , Add rspec tests for response_summary , Add feature tests for response summary , Merge pull request #128 from alphagov/popular-in-your-constituency  Popular in your constituency, Show the MP for the constituency on local petitions page , Fix constituency API to work when no mps are in the response , Add a ""no petitions"" message  For when the constituency can be found but no-one has signed anything (or nothing is published yet). , Use Petition.popular_in_constituency and render view , Extend feature to be reference ordering by support  We have to:  1. update all the signature counts after signing [TOO_LONG]","3","9","9","18","18","[click_button, click_link, fill_in, check, page, have_content, page, have_content, have_xpath, have_no_content, within, blank?, have_title, have_no_title, find_field, raw, within, gsub, raise, in_time_zone, travel_to, capture_model, capture_fields, create_model, capture_model, model!, eq, signatures, email_requested_at, be, in_time_zone, find, click, ago, from_now, nil?, present?, id, mp, start_date, stub_constituency, raise, times, click_on, signatures, validated, count, id, where, have_text, have_selector, not_to, stub_broken_api, all, text, Integer, sort, mp, have_link, have_css, response_summary, stub_constituency_from_file, stub_no_constituencies, signatures, be_present, be_sponsor, email, fill_in, click_button, email, password, click_link, select, within, sponsor_token, open_email, click_first_link_in_email]","15","","0","","0","","0","","0","","[]","[new_petition_signature]","1","39","17","[app/controllers/admin/petitions_controller.rb, app/controllers/admin/user_sessions_controller.rb, app/controllers/archived/petitions_controller.rb, app/controllers/petitions_controller.rb, app/controllers/sponsors_controller.rb, app/controllers/static_pages_controller.rb, app/lib/constituency_api.rb, app/models/admin_user.rb, app/models/archived_petition.rb, app/models/concerns/browseable.rb, app/models/petition.rb, app/models/signature.rb, app/models/sponsor.rb, app/models/staged/base/petition.rb, app/models/staged/petition_creator/petition.rb, app/models/staged/petition_creator/stages.rb, app/models/staged/petition_signer/stages.rb, app/views/admin/user_sessions/new.html.erb, app/views/archived/petitions/show.html.erb, app/views/local_petitions/_search.html.erb, app/views/petitions/_action_help.html.erb, app/views/petitions/_trending_petition.html.erb, app/views/petitions/check.html.erb, app/views/petitions/check_results.html.erb, app/views/petitions/index.html.erb, app/views/petitions/new.html.erb, app/views/petitions/show.html.erb, app/views/search/_filter_nav.html.erb, app/views/search/_result_list_footer.html.erb, app/views/search/_results.html.erb, app/views/search/_results_for_pre_create_petition.html.erb, app/views/search/_results_table.html.erb, app/views/shared/_about_petitions.html.erb, app/views/shared/_notification.html.erb, app/views/shared/_share_petition.html.erb, app/views/sponsors/show.html.erb, app/views/static_pages/help.html.erb, app/views/static_pages/home.html.erb, lib/health_check.rb]","[app/controllers/admin/petitions_controller.rb, app/controllers/local_petitions_controller.rb, app/controllers/petitions_controller.rb, app/controllers/signatures_controller.rb, app/controllers/sponsors_controller.rb, app/lib/constituency_api.rb, app/models/constituency_petition_journal.rb, app/models/petition.rb, app/models/signature.rb, app/views/admin/petitions/edit_response.html.erb, app/views/local_petitions/_search.html.erb, app/views/local_petitions/constituency_lookup_failed.html.erb, app/views/local_petitions/index.html.erb, app/views/local_petitions/no_postcode_provided.html.erb, app/views/petitions/show.html.erb, app/views/static_pages/home.html.erb, lib/postcode_sanitizer.rb]","0.2307692308","0.5294117647","[cd56b2b5d11c4cf5d59ef66aec94385325ab24d4, 1f9f7ed3d33f1299b5d9aa91a385b46966b1eaa3, dc887bdc7c3df0572e7b0248a3f92babf1aa6fe4, 0bce26aec2da651b8d1a5e383a0e832d4d5f6c53, 9a0f23f0a3a49bea2e59df13f497e421fa529740, 258694cf644b01b68568deb724ed9f7da9187e95, b1dcbdbd7867e590ddbf5c9ab8f18aa2674041e8, 9a12fb6f865750f15c171bd56f915ac26cfee27f, 7b8badfdfd934b5a562466c0b73b31c888c9788f, b2efd9eb09ee9e0a4365467b90f858263f56ae7d, 55935d3cd709cf4c05df67683e24fc74f1fce894, 5266fc1e99d88571f880a1feac80fa69d24a6a8d, 5c13417cbfa43b845ca76bb46f0fbbcda9f67d7d, 5d75710c01503cdca8aa63587d6a15f4c8a87589, 028310d1df96e946409beca75dd0065aaaeeeeea, 496a4bad7e69e415c9e42387397e4a17ac75c869, f161bea93e6c1635027e4e62a56f1ffa50e3e40b, 9cb96cfa7e1bbb13a8b4304fb39cd752d4bc1764, 34445202620fd9190acf25df45d4d8426c87b970, 1ec3a6332fbd3b776c64145276f4376e2eb8931a, 3beb5c6a68e9252758a5c3734406a1b9000b5bfa, 26cf1760eab64c5d0a665b71b73b1c7bd8ed3fea, 48999d03ff4e15ba0a3e5cfc5e55d96e17b51084, 404a646d68118773750ef4b5dfeed91e487518de, 3b62718e00d932f60a073ac7256a38e48f1eed8a, 2c70ed8028d893dcce06641dd605cd0bfc14c95b, 5e5704a0cc9ddb37622f0e2c9c1c07b85e34aabf, 24b3cf5b0b319a21c0b090951ceeb98c0b1c81e8, f003930d3d415c549befe76bb59c5d8332ef2d33, d27c4f3a3731d3b5827edae3e193013a51ea02a5, a33b193ca18b1b1895100d94cfba8faf7de0b839]","2.743 seconds","4.2.1","[cucumber-rails, rspec-rails, factory_girl]","12","[]","21","27","[app/controllers/admin/petitions_controller.rb, app/controllers/admin/user_sessions_controller.rb, app/controllers/archived/petitions_controller.rb, app/controllers/petitions_controller.rb, app/controllers/sponsors_controller.rb, app/controllers/static_pages_controller.rb, app/views/admin/user_sessions/new.html.erb, app/views/archived/petitions/show.html.erb, app/views/local_petitions/_search.html.erb, app/views/petitions/_action_help.html.erb, app/views/petitions/_trending_petition.html.erb, app/views/petitions/check.html.erb, app/views/petitions/check_results.html.erb, app/views/petitions/index.html.erb, app/views/petitions/new.html.erb, app/views/petitions/show.html.erb, app/views/search/_filter_nav.html.erb, app/views/search/_result_list_footer.html.erb, app/views/search/_results.html.erb, app/views/search/_results_for_pre_create_petition.html.erb, app/views/search/_results_table.html.erb, app/views/shared/_about_petitions.html.erb, app/views/shared/_notification.html.erb, app/views/shared/_share_petition.html.erb, app/views/sponsors/show.html.erb, app/views/static_pages/help.html.erb, app/views/static_pages/home.html.erb]","true","0.4205607476810202","9","[path:features/admin/threshold.feature, text:I should be on the admin all petitions page], [path:features/admin/threshold.feature, text:the petition with title: ""Petition 1"" should have requested an email after ""2010-12-03 01:00:00""], [path:features/admin/threshold.feature, text:the response summary to ""Petition 1"" should be publicly viewable on the petition page], [path:features/admin/threshold.feature, text:the response to ""Petition 1"" should be publicly viewable on the petition page], [path:features/freya_searches_for_petitions_by_constituency.feature, text:I should be on the local petitions results page], [path:features/freya_searches_for_petitions_by_constituency.feature, text:the markup should be valid], [path:features/freya_searches_for_petitions_by_constituency.feature, text:the petitions I see should be ordered by my fellow constituents level of support], [path:features/suzie_searches_by_free_text.feature, text:I should be on the search results page], [path:features/suzie_searches_by_free_text.feature, text:the markup should be valid]","0",""
"e-petitions","357","[15-06-2015]","1","4","[Remove should from signature controller specs  http://betterspecs.org/#should , Add rspec tests for signed action , Changed signed signature lookup to use token  ...instead of id. Added a redirect to verify in case the signature is not validated yet. , Update cucumber specs for revalidating bug ]","1","1","1","2","2","[from_now, page, have_text, have_content, capture_model, capture_predicate, model!, gsub, send, fill_in, select, check, page, have_content, within, click_button, gsub, stub_request, to_return, have_field, click_on, sponsor_token, unread_emails_for, eq, open_last_email_for, creator_signature, title, description, capture_model, model!, capture_predicate, send, not_to, open_email, click_first_link_in_email, current_email, have_subject, default_part_body, include]","5","","0","","0","","0","","0","","[]","","0","10","1","[app/controllers/sponsors_controller.rb, app/lib/app_config.rb, app/lib/constituency_api.rb, app/models/admin_user.rb, app/models/petition.rb, app/models/staged/base/petition.rb, app/models/staged/petition_creator/petition.rb, app/models/staged/petition_creator/stages.rb, app/models/staged/petition_signer/stages.rb, app/views/sponsors/show.html.erb]","[app/controllers/signatures_controller.rb]","0.0","0.0","[edad9024d450b4348c6d36dd83477e1695a05a21, 03257b557060ba3b308ad0edba1a55a0e6d05084, d3880ae892e873011b9eb484ef5113c569510689, 7e2d0f72463476fea0683cc72225ad68a3432163]","0.153 seconds","4.2.1","[cucumber-rails, rspec-rails, factory_girl]","1","[]","1","2","[app/controllers/sponsors_controller.rb, app/views/sponsors/show.html.erb]","false","0.0","4","[path:features/laura_signs_charlies_petition_as_a_sponsor.feature, text:I should have fully signed the petition as a sponsor], [path:/home/local/CIN/tabr/phd_study2_tentativa7/new_sample/task_analysis/part1/spg_repos/alphagov_e-petitions/features/step_definitions/sponsor_steps.rb, text:I should be connected to the server via an ssl connection], [path:/home/local/CIN/tabr/phd_study2_tentativa7/new_sample/task_analysis/part1/spg_repos/alphagov_e-petitions/features/step_definitions/sponsor_steps.rb, text:I should not have signed the petition as a sponsor], [path:/home/local/CIN/tabr/phd_study2_tentativa7/new_sample/task_analysis/part1/spg_repos/alphagov_e-petitions/features/step_definitions/sponsor_steps.rb, text:I should have a pending signature on the petition as a sponsor]","0",""
"e-petitions","359","[15-06-2015]","1","14","[Merge pull request #135 from alphagov/style-create-petition  Style create petition, Change wording of step from title to heading , Create petition: Create partial for action help text , Create petition: Add input back buttons to preserve form data , Create petition: Change sign your petition submit button to 'Sign this petition'. Remove back , Manage params[:move] consistently across ""staged"" controllers  In order:  1. if 'move:next' is present, set it to 'next' 2. if 'move:back' is present, (but move:next isn't) set it to 'back' 3. use 'move' value if present 4. after that if it's not 'next' or 'back' default it to 'next' (only forwards!)  We also change from using ``<button name=""move"" value=""<next-or-back>"">`` to ``<input type=""submit"" name=""move:<next-or-back>""/>``.  This allows us to work around 2 bugs in IE6 and IE7:  a) they submit the value of all buttons, not just the one clicked b) for the value of the param value they use the ``innerHTML`` of the ``<button>`` element not t [TOO_LONG]","4","5","5","7","7","[from_now, fill_in, click_button, click_link_or_button, page, have_content, have_css, have_field, page, execute_script, have_text, to_not, find, click, click_button, click_button, click_link, fill_in, find_field, tag_name, text, within, capture_model, capture_fields, create_model, model!, eq, notify_by_email?, be_truthy, fill_in, select, check, within, blank?, page, have_title, have_no_title, have_content, have_no_content, gsub, have_xpath, raise, stub_request, to_return]","6","","0","","0","","0","","0","","[app/views/petitions/_pre_creation_search_form.html.erb]","[new_petition_signature]","1","27","23","[app/controllers/admin/petitions_controller.rb, app/controllers/archived/petitions_controller.rb, app/controllers/petitions_controller.rb, app/controllers/static_pages_controller.rb, app/lib/constituency_api.rb, app/models/petition.rb, app/models/signature.rb, app/models/staged/base/petition.rb, app/models/staged/base/signature.rb, app/models/staged/petition_creator/petition.rb, app/views/petitions/_action_help.html.erb, app/views/petitions/_trending_petition.html.erb, app/views/petitions/check.html.erb, app/views/petitions/check_results.html.erb, app/views/petitions/index.html.erb, app/views/petitions/new.html.erb, app/views/petitions/show.html.erb, app/views/search/_filter_nav.html.erb, app/views/search/_result_list_footer.html.erb, app/views/search/_results.html.erb, app/views/search/_results_for_pre_create_petition.html.erb, app/views/search/_results_table.html.erb, app/views/shared/_about_petitions.html.erb, app/views/shared/_notification.html.erb, app/views/shared/_share_petition.html.erb, app/views/static_pages/help.html.erb, app/views/static_pages/home.html.erb]","[app/controllers/concerns/managing_move_parameter.rb, app/controllers/petitions_controller.rb, app/controllers/signatures_controller.rb, app/controllers/sponsors_controller.rb, app/helpers/petition_helper.rb, app/helpers/signature_helper.rb, app/models/staged/validations/petition_details.rb, app/views/petitions/_action_help.html.erb, app/views/petitions/check.html.erb, app/views/petitions/check_results.html.erb, app/views/petitions/create/_error_summary.html.erb, app/views/petitions/create/_petition_details_ui.html.erb, app/views/petitions/create/_replay_email_ui.html.erb, app/views/petitions/create/_replay_petition_ui.html.erb, app/views/petitions/create/_your_details_ui.html.erb, app/views/petitions/new.html.erb, app/views/petitions/thank_you.html.erb, app/views/search/_results_for_pre_create_petition.html.erb, app/views/signatures/_email.html.erb, app/views/signatures/_form.html.erb, app/views/signatures/create/_replay_email_ui.html.erb, app/views/signatures/create/_signer_ui.html.erb, app/views/static_pages/home.html.erb]","0.2592592593","0.3043478261","[c87f0396a2b2ac97f8dff85f84752da347918f69, f204adc95a6ee03d69eaee0bf5c9a3983caa19b7, a238515a6398f82e391706ae210d774ec68144a6, a754d9f8810bbb991b7abfc4b9ee3e3bfec438b0, 11378c1b8e0b448f687aca84eea0e98d3b62cf35, c0cedaf5c6a78cba477230d3a819e85c8f6465c7, ab95116e7020a6dc4f89bd656c703f974267f2a1, ff81d9d5ed4ce3553bc1beb84448a4cde908599f, 1ff71cf842922aa412cfd7e3597078451e8b9664, 6b11d5d76164b3147a2c9d974405699d1501becd, 1152d36606b1a9600a25fca10def44b61edaf49c, db33af4d5f23f93a9b6cb28df30739365b19a03e, 661e6e7c80b174a9c7e622c10bf8cad809251ee6, fa82fae095ae1729ec7f38b096316c50ac548004]","0.711 seconds","4.2.1","[cucumber-rails, rspec-rails, factory_girl]","2","[]","17","21","[app/controllers/admin/petitions_controller.rb, app/controllers/archived/petitions_controller.rb, app/controllers/petitions_controller.rb, app/controllers/static_pages_controller.rb, app/views/petitions/_action_help.html.erb, app/views/petitions/_trending_petition.html.erb, app/views/petitions/check.html.erb, app/views/petitions/check_results.html.erb, app/views/petitions/index.html.erb, app/views/petitions/new.html.erb, app/views/petitions/show.html.erb, app/views/search/_filter_nav.html.erb, app/views/search/_result_list_footer.html.erb, app/views/search/_results.html.erb, app/views/search/_results_for_pre_create_petition.html.erb, app/views/search/_results_table.html.erb, app/views/shared/_about_petitions.html.erb, app/views/shared/_notification.html.erb, app/views/shared/_share_petition.html.erb, app/views/static_pages/help.html.erb, app/views/static_pages/home.html.erb]","true","0.29411764707905513","8","[path:features/charlie_creates_a_petition.feature, text:I should be asked to search for a new petition], [path:features/charlie_creates_a_petition.feature, text:I should be on the new petition page], [path:features/charlie_creates_a_petition.feature, text:the markup should be valid], [path:features/charlie_creates_a_petition.feature, text:a petition should exist with title: ""The wombats of wimbledon rock."", state: ""pending""], [path:features/charlie_creates_a_petition.feature, text:there should be a ""pending"" signature with email ""womboid@wimbledon.com"" and name ""Womboid Wibbledon""], [path:features/charlie_creates_a_petition.feature, text:""womboid@wimbledon.com"" should be emailed a link for gathering support from sponsors], [path:features/charlie_creates_a_petition.feature, text:there should be a ""pending"" signature with email ""womboid@wimbledon.com"" and name ""Mr. Wibbledon""], [path:/home/local/CIN/tabr/phd_study2_tentativa7/new_sample/task_analysis/part1/spg_repos/alphagov_e-petitions/features/step_definitions/petition_steps.rb, text:I should be connected to the server via an ssl connection]","0",""
"e-petitions","361","[11-06-2015]","1","26","[Use hash args to reorder over reverse_order  Using the hash arguments to reorder is slightly more performant as it doesn't involve creating another instance of ActiveRecord::Relation. , Prefer constants over string literals  Using constants prevents string object allocations every time a proc or block is evaluated or a method is called so we prefer to use them. , Use and attribute selector instead of an id selector  The use of an id selector to check for the presence of the input makes the test brittle to design changes - by using an attribute selector we make the test focus on the functional aspect of the layout. , Make the Browseable::Facets class less confusing  The term facet was being overloaded in the class so make it more obvious what each thing is doing and make the delegations to the klass more explicit by using the declarative delegate helper. , Remove search instance from facets class  The search instance isn't used inside the facets class so just pass the klass in (which  [TOO_LONG]","1","1","1","1","1","[capture_model, capture_fields, create_model, capture_plural_factory, create_models_from_table, capture_model, model!, eq, click_button, click_link, fill_in, within, page, to_i, have_xpath, have_css]","0","","0","","0","","0","","0","","[app/decorators/petition_search.rb]","[new_petition_signature]","1","14","17","[app/controllers/admin/petitions_controller.rb, app/controllers/archived/petitions_controller.rb, app/controllers/petitions_controller.rb, app/controllers/static_pages_controller.rb, app/views/archived/petitions/index.html.erb, app/views/petitions/_pre_creation_search_form.html.erb, app/views/petitions/check.html.erb, app/views/petitions/check_results.html.erb, app/views/petitions/new.html.erb, app/views/petitions/show.html.erb, app/views/search/_results_for_pre_create_petition.html.erb, app/views/shared/_about_petitions.html.erb, app/views/shared/_share_petition.html.erb, app/views/static_pages/help.html.erb]","[app/controllers/application_controller.rb, app/controllers/petitions_controller.rb, app/controllers/search_controller.rb, app/helpers/search_helper.rb, app/models/archived_petition.rb, app/models/concerns/browseable.rb, app/models/petition.rb, app/views/petitions/_pre_creation_search_form.html.erb, app/views/petitions/check_results.html.erb, app/views/petitions/index.html.erb, app/views/search/_filter_nav.html.erb, app/views/search/_result_list_footer.html.erb, app/views/search/_results.html.erb, app/views/search/_results_for_pre_create_petition.html.erb, app/views/search/_results_table.html.erb, app/views/search/search.html.erb, lib/health_check.rb]","0.2857142857","0.2352941176","[2d8a142db989829b3de7b7a33fd25dd2546075a5, 5b26e9c8b28a4f3b6349252b475b5a86929ae766, d2d505498f670d4cb824859c4b7b3b680fe975fc, 320b3d4fe608832ce2f0c94671c8ca801f4cca7e, 7feaed6107e823c7668f57252a5d43ea7a696058, e52c6a1921620c9cff7ad2acb32b483d86571c23, 44a7c4297afa7d3a63f5cc28fda0724f3e26fdca, cbb968d7d0f3396d5aae35683b379e8665674856, 53057bbc64b0b42b09624acbba2dfe9c6bd59ce0, 8aab9ba5ac92ddc9126aceb5cec575870ce45633, 1389fc8ca2e6068d363c4136039637721e9d39f5, 8ba4926b5b6535eb3173a3b86cab975152d14fd5, 46c6d688d3b1a0cba5faf56f60ccaca20337e089, 01fa3fcc7585be23799f3590247f3168e1c35d9f, bb85791e005727933abd42bcc0133df87ecdb50f, 10ff209df4258ea0e125da13ee90c8c7d9d047d6, c58b88894b7b82bf1e7e76d0ce92539ed63fde1a, a89c59c8a81bc5822a6a0703ff2d5d321c410575, da10e67b90bc918640fa73d9c37c20e29e1de4e2, 4ffdd8c1bfb5a9ad92ef7f7a847c7b1c245b8d94, 067fb3b6b841fa2046937a69b7935f84277f115b, ad03ec11f24d2894aeefa25477541e5689c81d04, 7b364575871f07826fff9e486145cb9c2deea9b6, caab4a6388710f0e239d7fa8790f76b95dde67c0, 02627f966fbdfe12c640eeafd82a5f26c0f7c5a0, 9b6e334473338b64067788f11692a92cdaa6f7fa]","0.230 seconds","4.2.1","[cucumber-rails, rspec-rails, factory_girl]","1","[]","10","14","[app/controllers/admin/petitions_controller.rb, app/controllers/archived/petitions_controller.rb, app/controllers/petitions_controller.rb, app/controllers/static_pages_controller.rb, app/views/archived/petitions/index.html.erb, app/views/petitions/_pre_creation_search_form.html.erb, app/views/petitions/check.html.erb, app/views/petitions/check_results.html.erb, app/views/petitions/new.html.erb, app/views/petitions/show.html.erb, app/views/search/_results_for_pre_create_petition.html.erb, app/views/shared/_about_petitions.html.erb, app/views/shared/_share_petition.html.erb, app/views/static_pages/help.html.erb]","false","0.243902438981856","2","[path:features/joe_searches_for_an_archived_petition.feature, text:51 archived petitions exist with title: ""International development spending""], [path:features/joe_searches_for_an_archived_petition.feature, text:I should be on the archived petitions search results page]","0",""
"e-petitions","365","[11-06-2015]","1","1","[Update rejected petitions list view  * Changed default sort ordering * Disabled showing signature count * Updated view to match new designs ]","1","3","3","0","0","[update_attribute, nil?, click_link, page, have_css, capture_model, model!, eq, all, raw, flatten, within]","0","","0","","0","","0","","0","","[]","[new_petition_signature]","1","23","2","[app/controllers/admin/petitions_controller.rb, app/controllers/archived/petitions_controller.rb, app/controllers/petitions_controller.rb, app/controllers/static_pages_controller.rb, app/models/petition.rb, app/models/staged/base/petition.rb, app/models/staged/petition_creator/petition.rb, app/views/petitions/_pre_creation_search_form.html.erb, app/views/petitions/_trending_petition.html.erb, app/views/petitions/check.html.erb, app/views/petitions/check_results.html.erb, app/views/petitions/index.html.erb, app/views/petitions/new.html.erb, app/views/petitions/show.html.erb, app/views/search/_filter_nav.html.erb, app/views/search/_result_list_footer.html.erb, app/views/search/_results.html.erb, app/views/search/_results_for_pre_create_petition.html.erb, app/views/search/_results_table.html.erb, app/views/shared/_about_petitions.html.erb, app/views/shared/_share_petition.html.erb, app/views/static_pages/help.html.erb, app/views/static_pages/home.html.erb]","[app/controllers/petitions_controller.rb, app/views/search/_results_table.html.erb]","0.0869565217","1.0","[a03210b09910a51e7fb714ca3210e209bc2b5f89]","0.437 seconds","4.2.1","[cucumber-rails, rspec-rails, factory_girl]","1","[]","16","20","[app/controllers/admin/petitions_controller.rb, app/controllers/archived/petitions_controller.rb, app/controllers/petitions_controller.rb, app/controllers/static_pages_controller.rb, app/views/petitions/_pre_creation_search_form.html.erb, app/views/petitions/_trending_petition.html.erb, app/views/petitions/check.html.erb, app/views/petitions/check_results.html.erb, app/views/petitions/index.html.erb, app/views/petitions/new.html.erb, app/views/petitions/show.html.erb, app/views/search/_filter_nav.html.erb, app/views/search/_result_list_footer.html.erb, app/views/search/_results.html.erb, app/views/search/_results_for_pre_create_petition.html.erb, app/views/search/_results_table.html.erb, app/views/shared/_about_petitions.html.erb, app/views/shared/_share_petition.html.erb, app/views/static_pages/help.html.erb, app/views/static_pages/home.html.erb]","false","0.32258064505359","4","[path:features/suzie_views_all_petitions.feature, text:the markup should be valid], [path:features/suzie_views_all_petitions.feature, text:a petition ""Free the wombles"" exists with a signature count of 500], [path:features/suzie_views_all_petitions.feature, text:a petition ""Force supermarkets to give unsold food to charities"" exists with a signature count of 500000], [path:features/suzie_views_all_petitions.feature, text:a petition ""Make every monday bank holiday"" exists with a signature count of 1000]","0",""
"e-petitions","371","[09-06-2015, 10-06-2015]","2","3","[Adding radio buttons on todo list page for filtering through petitions awaiting moderation and collecting sponsors Admin will be also able to edit the petitions that are in collecting sponsors states (pending and validated) , Add new states for petitions we want to include in todo list page , Change features to describe new scope for admin todo list page: Admin will be able to filter petitions that might got 'stuck' in collecting sponsors state for too long ]","1","3","3","3","3","[click_link, click_link, within, find, all, text, diff!, page, to_i, have_xpath, capture_model, capture_fields, create_model, capture_model, model!, eq, signatures, sponsors, build, times, choose, click_button, email, fill_in, click_button, email, password]","1","","0","","0","","0","","0","","[]","","0","6","6","[app/controllers/admin/user_sessions_controller.rb, app/lib/app_config.rb, app/models/petition.rb, app/models/staged/base/petition.rb, app/models/staged/petition_creator/petition.rb, app/views/admin/user_sessions/new.html.erb]","[app/controllers/admin/petitions_controller.rb, app/controllers/admin/todolist_controller.rb, app/models/concerns/state.rb, app/models/petition.rb, app/views/admin/petitions/_petition_details.html.erb, app/views/admin/todolist/index.html.erb]","0.1666666667","0.1666666667","[e83ad6e3557d5650db468135ab43a1d4e7fc515a, 59d7592ab6a59c92fc66ee58a84c474f847718b5, adb0e3c2a6234a7edd80f44ae821d05a6fc7660c]","0.310 seconds","4.2.1","[cucumber-rails, rspec-rails, factory_girl]","2","[]","1","2","[app/controllers/admin/user_sessions_controller.rb, app/views/admin/user_sessions/new.html.erb]","false","0.1666666667","0","","0",""
"e-petitions","375","[10-06-2015]","1","13","[Merge pull request #114 from alphagov/add_mp_url_to_constituency_info  Add MP info and URL to constituency info for signed signature, Refactor Error in Constituency API , Add MP info to signature signed page , Add mp parsing to constituency API  Rebased from master , Refactor rspec and cucumber tests  Moved XML responses out of rspec files to separate fixtures. Added test cases for Constituency MPs. , Add feature tests , Merge pull request #113 from alphagov/style-list-petitions  Style open petitions list view, Change petition lists nav to use ul html element , Change petition listview to be ordered by signature count , Change petitions per page in list view to 50 , Add custom pagination , Add new icons for pagination , Style open petitions list view ]","4","16","16","9","9","[click_link, click_button, page, have_title, have_content, gsub, stub_request, to_return, have_field, fill_in, click_on, unread_emails_for, parse_email_count, eq, from_now, signatures, times, update_attribute, have_css, have_text, mp, to_not, capture_model, capture_fields, create_model, capture_plural_factory, create_models_from_table, capture_model, model!, eq, capture_model, capture_predicate, model!, gsub, send, click_link, have_xpath, have_no_content, within, blank?, page, have_title, have_no_title, have_content, have_no_content, blank?, have_no_title, raw, each, all, flatten, to_i, have_xpath, raise, raise, utc, open_email, click_first_link_in_email, select, check]","6","","0","","0","","0","","0","","[app/views/search/_result_list_header.html.erb, app/views/search/_result_tabs.html.erb]","[new_petition_signature]","1","34","14","[app/controllers/admin/petitions_controller.rb, app/controllers/archived/petitions_controller.rb, app/controllers/petitions_controller.rb, app/controllers/search_controller.rb, app/controllers/static_pages_controller.rb, app/lib/app_config.rb, app/lib/constituency_api.rb, app/models/admin_user.rb, app/models/petition.rb, app/models/signature.rb, app/models/staged/base/petition.rb, app/models/staged/base/signature.rb, app/models/staged/petition_creator/petition.rb, app/models/staged/petition_creator/stages.rb, app/models/staged/petition_signer/stages.rb, app/views/archived/petitions/index.html.erb, app/views/petitions/_pre_creation_search_form.html.erb, app/views/petitions/_trending_petition.html.erb, app/views/petitions/check.html.erb, app/views/petitions/check_results.html.erb, app/views/petitions/index.html.erb, app/views/petitions/new.html.erb, app/views/petitions/show.html.erb, app/views/search/_filter_nav.html.erb, app/views/search/_result_list_footer.html.erb, app/views/search/_results.html.erb, app/views/search/_results_for_pre_create_petition.html.erb, app/views/search/_results_table.html.erb, app/views/search/search.html.erb, app/views/shared/_about_petitions.html.erb, app/views/shared/_share_petition.html.erb, app/views/static_pages/help.html.erb, app/views/static_pages/home.html.erb, lib/health_check.rb]","[app/controllers/petitions_controller.rb, app/decorators/petition_search.rb, app/helpers/application_helper.rb, app/helpers/search_helper.rb, app/lib/constituency_api.rb, app/models/signature.rb, app/views/archived/petitions/search.html.erb, app/views/petitions/index.html.erb, app/views/search/_filter_nav.html.erb, app/views/search/_result_list_footer.html.erb, app/views/search/_results.html.erb, app/views/search/_results_table.html.erb, app/views/search/search.html.erb, app/views/signatures/signed.html.erb]","0.2647058824","0.6428571429","[7ac844627c74312345145548393e1a01a062fe85, fbad565844139f59baaa9f1de9cc6c07fa20e013, 8f90740c30a83b8986d47f24612b9069fad63d55, 7773c3625183f9ed2bf89e44db1ea5589257cb2d, e96eabbad191e0a8f8802cb524e3a8c2024fa9fd, 492a4e8dd07cead0b795220f2fe68d6ef071d165, 353a37c6513b3739990bdebd91465ecf2e2b7ecd, 8908a9d227bb8a34f12c7437c3d05f382d71feea, 4cc82f58ab019e47537428c272169772fd88d573, f50041ad4e96680be01e4814b002577389d07531, 3dc8d8cfb504bf3b38a802d22cb210855aefbdb2, f388e9728554f5317e85c61f4a65dca95060628b, c1b947bf932c48878c18edf316fb98b38c5e8341]","1.086 seconds","4.2.1","[cucumber-rails, rspec-rails, factory_girl]","13","[]","18","23","[app/controllers/admin/petitions_controller.rb, app/controllers/archived/petitions_controller.rb, app/controllers/petitions_controller.rb, app/controllers/search_controller.rb, app/controllers/static_pages_controller.rb, app/views/archived/petitions/index.html.erb, app/views/petitions/_pre_creation_search_form.html.erb, app/views/petitions/_trending_petition.html.erb, app/views/petitions/check.html.erb, app/views/petitions/check_results.html.erb, app/views/petitions/index.html.erb, app/views/petitions/new.html.erb, app/views/petitions/show.html.erb, app/views/search/_filter_nav.html.erb, app/views/search/_result_list_footer.html.erb, app/views/search/_results.html.erb, app/views/search/_results_for_pre_create_petition.html.erb, app/views/search/_results_table.html.erb, app/views/search/search.html.erb, app/views/shared/_about_petitions.html.erb, app/views/shared/_share_petition.html.erb, app/views/static_pages/help.html.erb, app/views/static_pages/home.html.erb]","true","0.500000000054321","8","[path:features/suzie_signs_a_petition.feature, text:I should have signed the petition], [path:features/suzie_signs_a_petition.feature, text:I should be connected to the server via an ssl connection], [path:features/joe_searches_for_an_archived_petition.feature, text:I should be on the archived petitions search results page], [path:features/joe_searches_for_an_archived_petition.feature, text:the markup should be valid], [path:features/joe_searches_for_an_archived_petition.feature, text:21 archived petitions exist with title: ""International development spending""], [path:features/suzie_searches_by_free_text.feature, text:I should be on the search results page], [path:features/suzie_searches_by_free_text.feature, text:the markup should be valid], [path:features/suzie_searches_by_free_text.feature, text:51 open petitions exist with title: ""International development spending""]","0",""
"e-petitions","379","[09-06-2015, 10-06-2015]","2","2","[Hide icons from ARIA compliant browsers  Ensure that the icons are not read by accessible screen readers , Add sharing buttons for Email and Whatsapp  Adds the additional sharing buttons for Email and Whatsapp. Icon width was set to 19px so that the labels line up.  https://www.pivotaltracker.com/story/show/95724426 ]","1","1","1","1","1","[from_now, page, have_content, have_css, strftime, squish, petition_url, have_link, within, title, raise, blank?, have_title, have_no_title, have_no_content, gsub, have_xpath]","0","","0","","0","","0","","0","","[]","[new_petition_signature]","1","21","1","[app/controllers/admin/petitions_controller.rb, app/controllers/archived/petitions_controller.rb, app/controllers/petitions_controller.rb, app/controllers/static_pages_controller.rb, app/models/admin_user.rb, app/models/archived_petition.rb, app/models/petition.rb, app/models/staged/base/petition.rb, app/models/staged/petition_creator/petition.rb, app/models/staged/petition_creator/stages.rb, app/models/staged/petition_signer/stages.rb, app/views/archived/petitions/show.html.erb, app/views/petitions/_pre_creation_search_form.html.erb, app/views/petitions/check.html.erb, app/views/petitions/check_results.html.erb, app/views/petitions/new.html.erb, app/views/petitions/show.html.erb, app/views/search/_results_for_pre_create_petition.html.erb, app/views/shared/_about_petitions.html.erb, app/views/shared/_share_petition.html.erb, app/views/static_pages/help.html.erb]","[app/views/shared/_share_petition.html.erb]","0.0476190476","1.0","[0e4412423004e153e7ac0285795d6c987d084de2, 163e45733c2bb00ffe5a420146577510c10c8ee1]","0.577 seconds","4.2.1","[cucumber-rails, rspec-rails, factory_girl]","2","[]","10","14","[app/controllers/admin/petitions_controller.rb, app/controllers/archived/petitions_controller.rb, app/controllers/petitions_controller.rb, app/controllers/static_pages_controller.rb, app/views/archived/petitions/show.html.erb, app/views/petitions/_pre_creation_search_form.html.erb, app/views/petitions/check.html.erb, app/views/petitions/check_results.html.erb, app/views/petitions/new.html.erb, app/views/petitions/show.html.erb, app/views/search/_results_for_pre_create_petition.html.erb, app/views/shared/_about_petitions.html.erb, app/views/shared/_share_petition.html.erb, app/views/static_pages/help.html.erb]","false","0.1999999999328","0","","0",""
"e-petitions","380","[09-06-2015]","1","4","[Updated sponsor test for redirect to petition view page, Update sponsor redirect to open petition step definition, Changing test for sponsor redirect for open petitions, Changed sponsor redirect to show rather than sign post moderation]","1","1","1","1","1","[from_now, current_path, eq, sponsor_token, capture_model, model!]","0","","0","","0","","0","","0","","[]","[new_petition_signature]","1","17","1","[app/controllers/admin/petitions_controller.rb, app/controllers/archived/petitions_controller.rb, app/controllers/petitions_controller.rb, app/controllers/sponsors_controller.rb, app/controllers/static_pages_controller.rb, app/models/petition.rb, app/models/staged/base/petition.rb, app/models/staged/petition_creator/petition.rb, app/views/petitions/_pre_creation_search_form.html.erb, app/views/petitions/check.html.erb, app/views/petitions/check_results.html.erb, app/views/petitions/new.html.erb, app/views/petitions/show.html.erb, app/views/search/_results_for_pre_create_petition.html.erb, app/views/shared/_about_petitions.html.erb, app/views/sponsors/show.html.erb, app/views/static_pages/help.html.erb]","[app/controllers/sponsors_controller.rb]","0.0588235294","1.0","[44d9e637a57d0061f3d0b6809c1249dc1bcb2955, 5746df50045f74126cad294d3203c5a9f00daeaf, 2c482fd09f31e1392d5609cc6bdfd6fcb267b35b, 42feea6a61960ed058048dc8accf4d127cff42df]","0.210 seconds","4.2.1","[cucumber-rails, rspec-rails, factory_girl]","1","[]","9","14","[app/controllers/admin/petitions_controller.rb, app/controllers/archived/petitions_controller.rb, app/controllers/petitions_controller.rb, app/controllers/sponsors_controller.rb, app/controllers/static_pages_controller.rb, app/views/petitions/_pre_creation_search_form.html.erb, app/views/petitions/check.html.erb, app/views/petitions/check_results.html.erb, app/views/petitions/new.html.erb, app/views/petitions/show.html.erb, app/views/search/_results_for_pre_create_petition.html.erb, app/views/shared/_about_petitions.html.erb, app/views/sponsors/show.html.erb, app/views/static_pages/help.html.erb]","false","0.23809523805668933","1","[path:features/laura_signs_charlies_petition_as_a_sponsor.feature, text:I should be connected to the server via an ssl connection]","0",""
"e-petitions","381","[08-06-2015, 09-06-2015]","2","2","[Merge pull request #108 from alphagov/add-cookie-banner  Add cookie information message, Add cookie information message  When a user visits a site for the first time show them a message about cookies and link to the cookies section on the help page. On any subsequent page views the cookie message is hidden by the presence of a cookie called `seen_cookie_message` being set to `yes`.  This follows the pattern establised on GOV.UK and in the govuk_template gem[1] but the implementation is slightly different in that we're not using JavaScript to determine whether to show the message or not and we're also setting the expiry date on the cookie that stores whether the user has seen the message or not to 1 year and not the standard 28 days.  We may need to revisit this when we look at performance and caching.  [1]: https://github.com/alphagov/govuk_template [2]: https://www.pivotaltracker.com/story/show/95857040 ]","2","3","3","3","3","[page, have_text, not_to, to_i, send, travel]","0","","0","","0","","0","","0","","[]","[new_petition_signature]","1","20","2","[app/controllers/admin/petitions_controller.rb, app/controllers/archived/petitions_controller.rb, app/controllers/petitions_controller.rb, app/controllers/static_pages_controller.rb, app/views/petitions/_pre_creation_search_form.html.erb, app/views/petitions/_trending_petition.html.erb, app/views/petitions/check.html.erb, app/views/petitions/check_results.html.erb, app/views/petitions/index.html.erb, app/views/petitions/new.html.erb, app/views/petitions/show.html.erb, app/views/search/_result_list_footer.html.erb, app/views/search/_result_list_header.html.erb, app/views/search/_result_tabs.html.erb, app/views/search/_results.html.erb, app/views/search/_results_for_pre_create_petition.html.erb, app/views/search/_results_table.html.erb, app/views/shared/_about_petitions.html.erb, app/views/static_pages/help.html.erb, app/views/static_pages/home.html.erb]","[app/controllers/application_controller.rb, app/views/layouts/application.html.erb]","0.0","0.0","[a3f655ba732fcd3ef4b185d461e99a0c4ba09f00, b25bf3e808edc4bfc42be902b46efb7dd3c45040]","0.297 seconds","4.2.1","[cucumber-rails, rspec-rails, factory_girl]","2","[]","16","20","[app/controllers/admin/petitions_controller.rb, app/controllers/archived/petitions_controller.rb, app/controllers/petitions_controller.rb, app/controllers/static_pages_controller.rb, app/views/petitions/_pre_creation_search_form.html.erb, app/views/petitions/_trending_petition.html.erb, app/views/petitions/check.html.erb, app/views/petitions/check_results.html.erb, app/views/petitions/index.html.erb, app/views/petitions/new.html.erb, app/views/petitions/show.html.erb, app/views/search/_result_list_footer.html.erb, app/views/search/_result_list_header.html.erb, app/views/search/_result_tabs.html.erb, app/views/search/_results.html.erb, app/views/search/_results_for_pre_create_petition.html.erb, app/views/search/_results_table.html.erb, app/views/shared/_about_petitions.html.erb, app/views/static_pages/help.html.erb, app/views/static_pages/home.html.erb]","true","0.0","0","","0",""
"e-petitions","390","[03-06-2015, 04-06-2015]","2","5","[We also want to stop collecting sponsors after reaching its max amount on petitions that hasn't got any validated emails , Fix routes after rebasing against master , Redirect potential sponsors to the petition in moderation page after the petition has reached max amount of sponsors: We want to limit amount of sponsors to 20 (validated emails or not), so we don't collect unecessary data. The current workflow for getting sponsors is to share the sponsor petition link, so we'd might end up with 20k signatures for petition that would never be published , Don't send an email to the petition creator about a new sponsor if the petition is already in moderation , Sponsor can't sign the petition that is already opened (published), rejected, closed or hidden We want different behaviours for all of these scenarios ]","1","8","8","7","7","[from_now, ago, current_path, eq, page, status_code, eq, sponsor_token, capture_model, model!]","0","","0","","0","","0","","0","","[]","[moderation_info_petition, new_petition_signature, sign_petition_signatures]","3","26","5","[app/controllers/admin/petitions_controller.rb, app/controllers/archived/petitions_controller.rb, app/controllers/petitions_controller.rb, app/controllers/sponsors_controller.rb, app/controllers/static_pages_controller.rb, app/lib/app_config.rb, app/models/petition.rb, app/models/staged/base/petition.rb, app/models/staged/petition_creator/petition.rb, app/views/petitions/_pre_creation_search_form.html.erb, app/views/petitions/_trending_petition.html.erb, app/views/petitions/check.html.erb, app/views/petitions/check_results.html.erb, app/views/petitions/index.html.erb, app/views/petitions/new.html.erb, app/views/petitions/show.html.erb, app/views/search/_result_list_footer.html.erb, app/views/search/_result_list_header.html.erb, app/views/search/_result_tabs.html.erb, app/views/search/_results.html.erb, app/views/search/_results_for_pre_create_petition.html.erb, app/views/search/_results_table.html.erb, app/views/sponsors/show.html.erb, app/views/static_pages/help.html.erb, app/views/static_pages/home.html.erb, app/views/static_pages/how_it_works.html.erb]","[app/controllers/petitions_controller.rb, app/controllers/signatures_controller.rb, app/controllers/sponsors_controller.rb, app/models/petition.rb, app/views/petitions/moderation_info.html.erb]","0.1153846154","0.6","[b59fa9988e0a67ba6f9dcc400a3a5d38944789e9, d381c094934cfef165db3451f43096f36e607873, 426c61a16b2db7d441c2bc35ae354fb76cf23915, abc5d4bd5f63e73f9c6f0db5ec2128df5982946a, 26a8db5294c4568e012bb8086ad274f1ad3a1016]","0.453 seconds","4.2.1","[cucumber-rails, rspec-rails, factory_girl]","1","[]","17","22","[app/controllers/admin/petitions_controller.rb, app/controllers/archived/petitions_controller.rb, app/controllers/petitions_controller.rb, app/controllers/sponsors_controller.rb, app/controllers/static_pages_controller.rb, app/views/petitions/_pre_creation_search_form.html.erb, app/views/petitions/_trending_petition.html.erb, app/views/petitions/check.html.erb, app/views/petitions/check_results.html.erb, app/views/petitions/index.html.erb, app/views/petitions/new.html.erb, app/views/petitions/show.html.erb, app/views/search/_result_list_footer.html.erb, app/views/search/_result_list_header.html.erb, app/views/search/_result_tabs.html.erb, app/views/search/_results.html.erb, app/views/search/_results_for_pre_create_petition.html.erb, app/views/search/_results_table.html.erb, app/views/sponsors/show.html.erb, app/views/static_pages/help.html.erb, app/views/static_pages/home.html.erb, app/views/static_pages/how_it_works.html.erb]","false","0.32608695654631376","2","[path:features/laura_signs_charlies_petition_as_a_sponsor.feature, text:I should be connected to the server via an ssl connection], [path:features/laura_signs_charlies_petition_as_a_sponsor.feature, text:the markup should be valid]","0",""
"e-petitions","391","[02-06-2015, 03-06-2015]","2","4","[Refactor signature controller verify method , Clean up sending email verification code to creator , Refactor signature verification , Remove validation email sent to petition creator ]","2","2","2","3","3","[page, have_text, reload, eq, creator_signature, click_button, click_button, within, have_content, have_field, notify_by_email?, be_truthy, capture_model, capture_fields, create_model, model!, from_now, signatures, be_present, be_sponsor, fill_in, fill_in, select, check, blank?, page, have_title, have_no_title, have_content, have_no_content, gsub, have_xpath, raise, stub_request, to_return, click_on, sponsor_token, open_email, click_first_link_in_email]","5","","0","","0","","0","","0","","[app/views/petition_mailer/email_confirmation_for_creator.html.erb]","","0","14","5","[app/controllers/admin/petitions_controller.rb, app/controllers/archived/petitions_controller.rb, app/controllers/petitions_controller.rb, app/controllers/sponsors_controller.rb, app/decorators/petition_search.rb, app/lib/constituency_api.rb, app/models/petition.rb, app/models/signature.rb, app/models/sponsor.rb, app/models/staged/base/petition.rb, app/models/staged/base/signature.rb, app/models/staged/petition_creator/petition.rb, app/views/petitions/new.html.erb, app/views/sponsors/show.html.erb]","[app/controllers/petitions_controller.rb, app/controllers/signatures_controller.rb, app/mailers/petition_mailer.rb, app/models/petition.rb, app/models/signature.rb]","0.2142857143","0.6","[148f3029943e949f6b865720b652b9132f62bc5f, da91b43909c846568b08c45b8b867c7b0c98f39e, 80f959e1400fc86f84d7ff4e99fd264d51d0940c, 7f05699726d4170d51190949204227e78615ecc6]","0.212 seconds","4.2.1","[cucumber-rails, rspec-rails, factory_girl]","2","[]","2","6","[app/controllers/admin/petitions_controller.rb, app/controllers/archived/petitions_controller.rb, app/controllers/petitions_controller.rb, app/controllers/sponsors_controller.rb, app/views/petitions/new.html.erb, app/views/sponsors/show.html.erb]","false","0.44117647060034604","3","[path:features/charlie_creates_a_petition.feature, text:the e-petition should be validated], [path:features/charlie_creates_a_petition.feature, text:the e-petition creator signature should be validated], [path:/home/local/CIN/tabr/phd_study2_tentativa7/new_sample/task_analysis/part1/spg_repos/alphagov_e-petitions/features/step_definitions/petition_steps.rb, text:I should be connected to the server via an ssl connection]","0",""
"e-petitions","392","[04-06-2015]","1","2","[Merge pull request #98 from alphagov/fix_constituency_api_timeout_error  Add error catching for Faraday errors, Add error catching for Faraday errors  Added error catching for other Faraday errors other than timeout. Also removed the constituency info from the petition creation replay stage. ]","2","1","1","0","0","[click_button, click_button, within, notify_by_email?, be_truthy, capture_model, capture_fields, create_model, model!, eq, fill_in, select, check, page, have_content, blank?, page, have_title, have_no_title, have_content, have_no_content, gsub, have_xpath, raise, open_email, click_first_link_in_email, stub_request, to_return]","5","","0","","0","","0","","0","","[]","","0","7","2","[app/controllers/admin/petitions_controller.rb, app/controllers/archived/petitions_controller.rb, app/controllers/petitions_controller.rb, app/lib/constituency_api.rb, app/models/signature.rb, app/models/staged/base/signature.rb, app/views/petitions/new.html.erb]","[app/lib/constituency_api.rb, app/views/petitions/create/_replay_petition_ui.html.erb]","0.1428571429","0.5","[0a8abd446e9cefc96f3d7af6ce95d185792898cd, ad5a7e1d588582c3c7af6c6512a9f643aa7550be]","0.164 seconds","4.2.1","[cucumber-rails, rspec-rails, factory_girl]","1","[]","1","4","[app/controllers/admin/petitions_controller.rb, app/controllers/archived/petitions_controller.rb, app/controllers/petitions_controller.rb, app/views/petitions/new.html.erb]","true","0.33333333338000004","8","[path:features/charlie_creates_a_petition.feature, text:the markup should be valid], [path:features/charlie_creates_a_petition.feature, text:a petition should exist with title: ""The wombats of wimbledon rock."", state: ""pending""], [path:features/charlie_creates_a_petition.feature, text:there should be a ""pending"" signature with email ""womboid@wimbledon.com"" and name ""Womboid Wibbledon""], [path:features/charlie_creates_a_petition.feature, text:""womboid@wimbledon.com"" should be asked to confirm their email address], [path:features/charlie_creates_a_petition.feature, text:""womboid@wimbledon.com"" should be emailed a link for gathering support from sponsors], [path:features/charlie_creates_a_petition.feature, text:a petition should exist with title: ""The wombats of wimbledon rock."", state: ""validated""], [path:features/charlie_creates_a_petition.feature, text:there should be a ""validated"" signature with email ""womboid@wimbledon.com"" and name ""Womboid Wibbledon""], [path:/home/local/CIN/tabr/phd_study2_tentativa7/new_sample/task_analysis/part1/spg_repos/alphagov_e-petitions/features/step_definitions/petition_steps.rb, text:I should be connected to the server via an ssl connection]","0",""
"e-petitions","394","[04-06-2015]","1","4","[Merge pull request #95 from alphagov/style-home-page  Set up JS, ie stylesheets and style home page, Style the home page , Add ie stylesheets , Remove old js. Add borrowed gov_uk js. Set up js in asset pipeline ]","1","2","2","3","3","[from_now, fill_in, click_button, within, click_link_or_button, page, have_css, have_content, page, execute_script, click_link, fill_in, capture_model, model!, eq, to_not]","0","","0","","0","","0","","0","","[]","[new_petition_signature]","1","24","7","[app/controllers/admin/petitions_controller.rb, app/controllers/archived/petitions_controller.rb, app/controllers/petitions_controller.rb, app/controllers/static_pages_controller.rb, app/models/petition.rb, app/models/staged/base/petition.rb, app/models/staged/petition_creator/petition.rb, app/views/petitions/_pre_creation_search_form.html.erb, app/views/petitions/_trending_petition.html.erb, app/views/petitions/check.html.erb, app/views/petitions/check_results.html.erb, app/views/petitions/index.html.erb, app/views/petitions/new.html.erb, app/views/petitions/show.html.erb, app/views/search/_result_list_footer.html.erb, app/views/search/_result_list_header.html.erb, app/views/search/_result_tabs.html.erb, app/views/search/_results.html.erb, app/views/search/_results_for_pre_create_petition.html.erb, app/views/search/_results_table.html.erb, app/views/shared/_about_petitions.html.erb, app/views/static_pages/help.html.erb, app/views/static_pages/home.html.erb, app/views/static_pages/how_it_works.html.erb]","[app/views/layouts/application.html.erb, app/views/petitions/_trending_petition.html.erb, app/views/petitions/show.html.erb, app/views/shared/_about_petitions.html.erb, app/views/shared/_header.html.erb, app/views/static_pages/home.html.erb, app/views/static_pages/how_it_works.html.erb]","0.2083333333","0.7142857143","[3b23e761e3eb40fe744afce003e04632caeb9bba, 046f5e6716c729f9125d5b0afb275b4771ca4f63, 0fd2edfe027fbcaf5389055075a85b7fe38ead5f, 417f1dfa10c247742ed1d861dffe4afd250a40bc]","0.331 seconds","4.2.1","[cucumber-rails, rspec-rails, factory_girl]","1","[]","17","21","[app/controllers/admin/petitions_controller.rb, app/controllers/archived/petitions_controller.rb, app/controllers/petitions_controller.rb, app/controllers/static_pages_controller.rb, app/views/petitions/_pre_creation_search_form.html.erb, app/views/petitions/_trending_petition.html.erb, app/views/petitions/check.html.erb, app/views/petitions/check_results.html.erb, app/views/petitions/index.html.erb, app/views/petitions/new.html.erb, app/views/petitions/show.html.erb, app/views/search/_result_list_footer.html.erb, app/views/search/_result_list_header.html.erb, app/views/search/_result_tabs.html.erb, app/views/search/_results.html.erb, app/views/search/_results_for_pre_create_petition.html.erb, app/views/search/_results_table.html.erb, app/views/shared/_about_petitions.html.erb, app/views/static_pages/help.html.erb, app/views/static_pages/home.html.erb, app/views/static_pages/how_it_works.html.erb]","true","0.4807692307389053","3","[path:features/charlie_creates_a_petition.feature, text:I should be asked to search for a new petition], [path:features/charlie_creates_a_petition.feature, text:I should be on the new petition page], [path:features/charlie_creates_a_petition.feature, text:the markup should be valid]","0",""
"e-petitions","404","[01-06-2015, 02-06-2015]","2","13","[Merge pull request #83 from alphagov/archive-cucumber-fix  Quick change to archive show markup to allow petition steps to pass, Quick change to archive show markup to allow petition steps to pass. More to be done later , Merge pull request #79 from alphagov/switch_to_activejob  Switch to ActiveJob, Refactor threshold response job , Refactor project to use ActiveJob interface , Merge pull request #82 from alphagov/ph-remove-copyright  Removing duplicate crown copyright link from footer, Removing duplicate crown copyright link from footer, Merge pull request #77 from alphagov/archived-petitions  Implement archived e-petitions, Force Sunspot to commit changes to Solr  Since the index updates can be time consuming, Sunspot waits until the end of the request to send those updates. This means we need to force the index updates to be committed so that the tests will pass with a fresh copy of the database as it is when running on the CI server. , Add archived petitions controller and views   [TOO_LONG]","4","8","8","10","10","[click_button, click_link, fill_in, page, have_content, page, have_content, have_xpath, within, capture_model, capture_fields, create_model, capture_plural_factory, create_models_from_table, capture_model, model!, eq, capture_predicate, gsub, send, blank?, have_title, have_no_title, have_no_content, raw, each, to_i, have_xpath, within, raise, current_path, have_css, strftime, squish, not_to, click_button, click_link, fill_in, check, within, email, email, password]","2","","0","","0","","0","","0","","[]","","0","33","9","[app/controllers/admin/petitions_controller.rb, app/controllers/admin/user_sessions_controller.rb, app/controllers/archived/petitions_controller.rb, app/controllers/petitions_controller.rb, app/controllers/signatures_controller.rb, app/controllers/static_pages_controller.rb, app/models/admin_user.rb, app/models/archived_petition.rb, app/models/petition.rb, app/models/staged/base/petition.rb, app/models/staged/petition_creator/petition.rb, app/models/staged/petition_creator/stages.rb, app/models/staged/petition_signer/stages.rb, app/views/admin/user_sessions/new.html.erb, app/views/archived/petitions/index.html.erb, app/views/archived/petitions/show.html.erb, app/views/petitions/_pre_creation_search_form.html.erb, app/views/petitions/_trending_petition.html.erb, app/views/petitions/check.html.erb, app/views/petitions/check_results.html.erb, app/views/petitions/index.html.erb, app/views/petitions/new.html.erb, app/views/petitions/show.html.erb, app/views/search/_result_list_footer.html.erb, app/views/search/_result_list_header.html.erb, app/views/search/_result_tabs.html.erb, app/views/search/_results.html.erb, app/views/search/_results_for_pre_create_petition.html.erb, app/views/search/_results_table.html.erb, app/views/signatures/new.html.erb, app/views/static_pages/help.html.erb, app/views/static_pages/home.html.erb, app/views/static_pages/how_it_works.html.erb]","[app/controllers/admin/petitions_controller.rb, app/controllers/archived/petitions_controller.rb, app/controllers/petitions_controller.rb, app/jobs/email_threshold_response_job.rb, app/models/archived_petition.rb, app/views/archived/petitions/index.html.erb, app/views/archived/petitions/search.html.erb, app/views/archived/petitions/show.html.erb, app/views/shared/_footer.html.erb]","0.1818181818","0.6666666667","[11fd0be971675cb1eeda3d622d710abfa26aacd7, 5828b4805dbf3a9798c37cd80d69aff23d52e60e, d30c6dd5450fbe01685871672522b0e2126ed90e, ef08d810a4324e055f1a5821652c46c12fcac434, 98e0ad4e5720729e3218eb8413fbe85d87739178, 140b8363978e6fa2e765e4b9ab3147b7197d01eb, d0f046fd514e65bd3574cc8da1bcee94e734f1a4, 734fa4e9e8be7ce26c2a01bb6b7466041950847a, 964e888ca504784b391416f28bcd22fe8d5de0d5, 70c7ffcc7efcc8cde049a1a95f4ae28b56717a60, 6b98a3f108298097e16beec099a3a9715f22948f, 38933a56081f89577c8fa88b5b9893fa53e1df1c, 845617dac348a1e108711ea133d660fb6b55c991]","1.252 seconds","4.2.1","[cucumber-rails, rspec-rails, factory_girl]","6","[]","20","26","[app/controllers/admin/petitions_controller.rb, app/controllers/admin/user_sessions_controller.rb, app/controllers/archived/petitions_controller.rb, app/controllers/petitions_controller.rb, app/controllers/signatures_controller.rb, app/controllers/static_pages_controller.rb, app/views/admin/user_sessions/new.html.erb, app/views/archived/petitions/index.html.erb, app/views/archived/petitions/show.html.erb, app/views/petitions/_pre_creation_search_form.html.erb, app/views/petitions/_trending_petition.html.erb, app/views/petitions/check.html.erb, app/views/petitions/check_results.html.erb, app/views/petitions/index.html.erb, app/views/petitions/new.html.erb, app/views/petitions/show.html.erb, app/views/search/_result_list_footer.html.erb, app/views/search/_result_list_header.html.erb, app/views/search/_result_tabs.html.erb, app/views/search/_results.html.erb, app/views/search/_results_for_pre_create_petition.html.erb, app/views/search/_results_table.html.erb, app/views/signatures/new.html.erb, app/views/static_pages/help.html.erb, app/views/static_pages/home.html.erb, app/views/static_pages/how_it_works.html.erb]","true","0.43478260868620033","5","[path:features/joe_searches_for_an_archived_petition.feature, text:I should be on the archived petitions search results page], [path:features/joe_searches_for_an_archived_petition.feature, text:the search results table should have the caption /Archived e-petitions/], [path:features/joe_searches_for_an_archived_petition.feature, text:the markup should be valid], [path:features/joe_searches_for_an_archived_petition.feature, text:21 archived petitions exist with title: ""International development spending""], [path:features/joe_views_an_archived_petition.feature, text:I should be redirected to the archived url]","0",""
"e-petitions","405","[01-06-2015]","1","3","[Refactor tests to reduce overlap  The signature model #constituency tests were testing largely the same functionality as the constituency lib #constituencies tests. So have stubbed out the called method to test only the responsibility of , Refactor controller to use before_filter , Add constituency info to signature signed page  For the constituency info to appear on the signed page, I had to enable member routes for the signed signature to access the signature's postcode. Eager to hear alternative approaches of how to achieve this! ]","1","2","2","1","1","[blank?, page, have_title, have_no_title, have_content, have_no_content, within, gsub, have_xpath, raise, capture_model, model!, eq, capture_model, capture_predicate, model!, gsub, send, click_button, page, have_title, click_link, have_css, stub_request, to_return, have_content, have_field, fill_in, click_on, unread_emails_for, parse_email_count, eq, from_now, have_text, to_not, open_email, click_first_link_in_email, select, check]","5","","0","","0","","0","","0","","[]","[new_petition_signature]","1","4","3","[app/lib/constituency_api.rb, app/models/petition.rb, app/models/staged/base/petition.rb, app/models/staged/petition_creator/petition.rb]","[app/controllers/signatures_controller.rb, app/views/signatures/new.html.erb, app/views/signatures/signed.html.erb]","0.0","0.0","[146be21d4d0ba08872a22af8e5e26d8b466fdd82, b72bd1a9e7d4288aaebe7e3f4f735a69785ea739, 1099c74c74f3b97aff27b0eb4911f2c97b37785a]","0.153 seconds","4.2.1","[cucumber-rails, rspec-rails, factory_girl]","1","[]","0","0","[]","false","0.0","3","[path:features/suzie_signs_a_petition.feature, text:the markup should be valid], [path:features/suzie_signs_a_petition.feature, text:I should be connected to the server via an ssl connection], [path:features/suzie_signs_a_petition.feature, text:I should have signed the petition]","0",""
"e-petitions","406","[29-05-2015]","1","21","[Merge pull request #74 from alphagov/ph-combine-footer-pages  Merge accessibility, privacy, cookies with T&Cs, Adding anchor link for T&Cs on new help page , Adding anchor link for T&Cs on new help page , Adding ids to h1s for anchoring , Removing cookies view as it is merged into Help , Removing privacy view as it is merged into Help , Removing accessibility view as it is merged into Help , Combining content from accessibility, privacy, cookies into help , Update help.html.erb , Removing redundant pages from cache list in controller , Updating tests for static after removal of privacy, accessibility etc , Updating page help page title to Help using the Petition Parliament service , Update and rename terms_and_conditions.html.erb to help.html.erb , Remove tests referring to static pages being removed , Updating paths helpers to remove static pages being merged into Help page , Removing redundant routes and adding help page route , Update the how it works page with new help page path  [TOO_LONG]","1","1","1","0","0","[click_link, within, capture_model, model!, eq, blank?, page, have_title, have_no_title, have_content, have_no_content, within, gsub, have_xpath, raise]","0","","0","","0","","0","","0","","[app/views/static_pages/accessibility.html.erb, app/views/static_pages/cookies.html.erb, app/views/static_pages/privacy_policy.html.erb, app/views/static_pages/terms_and_conditions.html.erb]","","0","21","6","[app/controllers/admin/petitions_controller.rb, app/controllers/petitions_controller.rb, app/controllers/signatures_controller.rb, app/controllers/static_pages_controller.rb, app/views/petitions/_pre_creation_search_form.html.erb, app/views/petitions/_trending_petition.html.erb, app/views/petitions/check.html.erb, app/views/petitions/check_results.html.erb, app/views/petitions/index.html.erb, app/views/petitions/new.html.erb, app/views/petitions/show.html.erb, app/views/search/_result_list_footer.html.erb, app/views/search/_result_list_header.html.erb, app/views/search/_result_tabs.html.erb, app/views/search/_results.html.erb, app/views/search/_results_for_pre_create_petition.html.erb, app/views/search/_results_table.html.erb, app/views/signatures/new.html.erb, app/views/static_pages/help.html.erb, app/views/static_pages/home.html.erb, app/views/static_pages/how_it_works.html.erb]","[app/controllers/static_pages_controller.rb, app/views/layouts/application.html.erb, app/views/petitions/create/_replay_petition_ui.html.erb, app/views/signatures/create/_signer_ui.html.erb, app/views/static_pages/help.html.erb, app/views/static_pages/how_it_works.html.erb]","0.1428571429","0.5","[41d74368a6a621c4e652c8fdeae91f3ef4386d38, 329dfe662d34e64850b0a2b2fb8d3c4ebeb7ea81, 67dedcb256444ed9881250940fab37c19de8215c, a9843de6ab11b9978e7ef005c08d5a6d8cd5b46d, eb79e19ca1c661e3c856e468eb8c3ea72e7d73d3, 8108bc300c31c63f6a4914d5d1b1143cf69c6b4e, b77e5e66562355772c0eceadc8fbc902e37d253f, 55d13d2a5417b280a2e7d0613b15e2d93c4f953a, 9699a208bdb9a827835ed6726b2f1ecbacfbf1db, 99f7d429cbc34d2e414b4f7a831d9b6240bccd52, 990a0fbc4e03927df4a023d690c821cefa976537, b50af414f179405f376bdec403259b66e04ed833, 5280f00010b6b8674ef87c832e19ad3c1073100d, b8226496388dd99aab09cf4f47291b15e4afb767, e5e174e598ce87bc0c27468bd305aeb5be9d4d07, 94e34623e19680c74364c0481c925124e1a06998, 7eff69ac976e113856fcb3f3ebf5ec12789ff608, 2bc228a7957a6cb1a2e855d6b90ee1e8c7371a5e, f2de1f7fa4254449cf1e068984ff22e2e07802e5, fdb4283632113454be70e262389c945f7130fe8f, fb4dcb1c3934a3337e123c27207921abae32e54f]","0.463 seconds","4.2.1","[cucumber-rails, rspec-rails, factory_girl]","1","[]","17","21","[app/controllers/admin/petitions_controller.rb, app/controllers/petitions_controller.rb, app/controllers/signatures_controller.rb, app/controllers/static_pages_controller.rb, app/views/petitions/_pre_creation_search_form.html.erb, app/views/petitions/_trending_petition.html.erb, app/views/petitions/check.html.erb, app/views/petitions/check_results.html.erb, app/views/petitions/index.html.erb, app/views/petitions/new.html.erb, app/views/petitions/show.html.erb, app/views/search/_result_list_footer.html.erb, app/views/search/_result_list_header.html.erb, app/views/search/_result_tabs.html.erb, app/views/search/_results.html.erb, app/views/search/_results_for_pre_create_petition.html.erb, app/views/search/_results_table.html.erb, app/views/signatures/new.html.erb, app/views/static_pages/help.html.erb, app/views/static_pages/home.html.erb, app/views/static_pages/how_it_works.html.erb]","true","0.33333333338000004","1","[path:features/user_sees_static_stuff.feature, text:I should be on the help page]","0",""
"e-petitions","407","[29-05-2015]","1","9","[Refactor ApiClass to use private methods  The 'private' class methods were not really private before. Have added more detailed error logging and refactored cucumber feature about petition creation. Have moved the webmock rspec requirement to rails_helper so its available to all specs. , Refactor ConstituencyApi class into module , Refactor cucumber tests to hide stubs from scenarios , Enable webmock to allow_localhost in test config  Previously only allowed local_host access for rspec and cucumber, but need it in test since the spec:javascripts task would fail without it. , Refactor of Constituency API to use class methods , Change to Faraday and Webmock , Refactor Constituency Api , Create Constituency Api with tests and vcr gem , Add constituency to petition replay view ]","1","3","3","7","7","[page, execute_script, fill_in, page, have_text, to_not, click_button, click_button, click_button, fill_in, fill_in, have_content, within, gsub, stub_request, to_return, notify_by_email?, be_truthy, capture_model, capture_fields, create_model, model!, eq, unread_emails_for, parse_email_count, have_xpath, select, check, have_content, blank?, page, have_title, have_no_title, have_content, have_no_content, gsub, have_xpath, raise, open_email, click_first_link_in_email]","9","","0","","0","","0","","0","","[]","","0","5","4","[app/controllers/admin/petitions_controller.rb, app/controllers/petitions_controller.rb, app/models/signature.rb, app/models/staged/base/signature.rb, app/views/petitions/new.html.erb]","[app/lib/constituency_api.rb, app/models/signature.rb, app/models/staged/base/creator_signature.rb, app/views/petitions/create/_replay_petition_ui.html.erb]","0.2","0.25","[88a516ef02863d660824ef7be77c4ee2797fc586, 7a5f2ed1a1c04f362fff741cbbb638bc3b437b19, 5304fd6810c46cbde7cc0e28f363c3523ca63103, 0207b1db391b59cfe17ea1311d3882f57925524d, 3f61f9dcffc1e972168b7af2d50f0e5a2a6b547d, 81296743ab04513539467a86c6c04ed70e280e64, c091fa30f8c662681afe9e14a9f5e316139f931b, a4ab0c0d74bafca091d0f9ce6912e4269cee2c7b, 3b5ec3ec49521d83bf90035a50bd96a93d5df294]","0.214 seconds","4.2.1","[cucumber-rails, rspec-rails, factory_girl]","1","[]","1","3","[app/controllers/admin/petitions_controller.rb, app/controllers/petitions_controller.rb, app/views/petitions/new.html.erb]","false","0.23809523809523808","7","[path:features/charlie_creates_a_petition.feature, text:the markup should be valid], [path:features/charlie_creates_a_petition.feature, text:a petition should exist with title: ""The wombats of wimbledon rock."", state: ""pending""], [path:features/charlie_creates_a_petition.feature, text:there should be a ""pending"" signature with email ""womboid@wimbledon.com"" and name ""Womboid Wibbledon""], [path:features/charlie_creates_a_petition.feature, text:a petition should exist with title: ""The wombats of wimbledon rock."", state: ""validated""], [path:features/charlie_creates_a_petition.feature, text:there should be a ""validated"" signature with email ""womboid@wimbledon.com"" and name ""Womboid Wibbledon""], [path:features/charlie_creates_a_petition.feature, text:there should be a ""pending"" signature with email ""womboid@wimbledon.com"" and name ""Mr. Wibbledon""], [path:/home/local/CIN/tabr/phd_study2_tentativa7/new_sample/task_analysis/part1/spg_repos/alphagov_e-petitions/features/step_definitions/petition_steps.rb, text:I should be connected to the server via an ssl connection]","0",""
"e-petitions","411","[27-05-2015]","1","9","[Merge pull request #61 from alphagov/unsubscribing_emails  Unsubscribing emails, Always render a view from #unsubscribe  Always render a view instead of plain text response. , Indentation fixes , Remove 'and return' from a controller action , Add integration test for email unsubscription  Adds only a test case for basic case / successfull unsubscription. Controller specs contain more thorough tests and adding those test cases as integration tests would probably be test duplication. , Add unsubscribe links to threshold emails , Add unsubscription controller functionality , Generate unsubscribe token  Refactors also a bad signature test case that was testing internal implementation , Add unsubscription token to signatures  I decided not to index this token and use signature id to fetch the signature from db before checking if token matches. ]","1","1","1","6","6","[capture_model, capture_predicate, model!, gsub, send, email, unread_emails_for, eq, open_email, unsubscribe_token, unsubscribe_signature_url, current_email, default_part_body, include, email, open_email, visit_in_email, page, have_content, reload, notify_by_email, be_falsey, from_now, payload_object, click_button, click_link, fill_in, check, within, email, email, password]","2","","0","","0","","0","","0","","[app/views/signatures/unsubscribe.html.erb]","","0","6","6","[app/controllers/admin/user_sessions_controller.rb, app/jobs/email_threshold_response_job.rb, app/models/petition.rb, app/models/staged/base/petition.rb, app/models/staged/petition_creator/petition.rb, app/views/admin/user_sessions/new.html.erb]","[app/controllers/signatures_controller.rb, app/models/signature.rb, app/views/petition_mailer/notify_signer_of_threshold_response.html.erb, app/views/signatures/unsubscribe/already_unsubscribed.html.erb, app/views/signatures/unsubscribe/failed_to_unsubscribe.html.erb, app/views/signatures/unsubscribe/successfully_unsubscribed.html.erb]","0.0","0.0","[f7b89f92757f3e8f20ae3c7538622747f52de8ce, d428b9ebf2055cfd724159e3fd186b2fc60e231c, 45bf8e31408a8c6bda47266fc58359b71381f5cd, 424b3e380209ebd8ed305b37df5ef611e00e2178, 816e1aa8c7a65e133f5cc0c4c033a50e8346056b, 1698b6bce4d1034ddbfe9cf7dc14def871cdffd6, 1e267cab8a0d322c97a4392e8240d4510b885c02, 43ea4850484182f70eec5102285f87a5ec558bc6, edebb98bc98e6de5ef1dcb47da5e983678cac8cb]","0.146 seconds","4.2.1","[cucumber-rails, rspec-rails, factory_girl]","1","[]","1","2","[app/controllers/admin/user_sessions_controller.rb, app/views/admin/user_sessions/new.html.erb]","true","0.0","1","[path:features/suzie_unsubscribes_from_petition_updates.feature, text:Suzie should have received a petition response email with an unsubscription link]","0",""
"e-petitions","419","[21-05-2015]","1","2","[Merge pull request #51 from alphagov/fix_bug_validation_link_shows_raw_html  Fix bug of displaying raw html code as text for repeating signature v…, Fix bug of displaying raw html code as text for repeating signature verification ]","2","1","1","2","2","[page, have_text, page, have_content, from_now, present?, have_css, capture_model, capture_predicate, model!, gsub, send, unread_emails_for, parse_email_count, eq, open_email, current_email, default_part_body, include, click_first_link_in_email, within, blank?, have_title, have_no_title, have_no_content, have_xpath, raise, click_button, click_link, fill_in, select, check]","3","","0","","0","","0","","0","","[]","","0","13","2","[app/controllers/admin/petitions_controller.rb, app/controllers/petitions_controller.rb, app/controllers/signatures_controller.rb, app/controllers/static_pages_controller.rb, app/models/department.rb, app/models/petition.rb, app/models/staged/base/petition.rb, app/models/staged/petition.rb, app/views/petitions/show.html.erb, app/views/signatures/_email.html.erb, app/views/signatures/_form.html.erb, app/views/signatures/new.html.erb, app/views/static_pages/terms_and_conditions.html.erb]","[app/controllers/signatures_controller.rb, app/views/shared/_messages.html.erb]","0.0769230769","0.5","[0afc1845983b5bb3a21ea67c262cf18d031a54f0, a41b923c16d11abf439d6be740777a84c18ebdba]","0.580 seconds","4.2.1","[cucumber-rails, rspec-rails, factory_girl]","1","[]","5","9","[app/controllers/admin/petitions_controller.rb, app/controllers/petitions_controller.rb, app/controllers/signatures_controller.rb, app/controllers/static_pages_controller.rb, app/views/petitions/show.html.erb, app/views/signatures/_email.html.erb, app/views/signatures/_form.html.erb, app/views/signatures/new.html.erb, app/views/static_pages/terms_and_conditions.html.erb]","true","0.2380952380510204","3","[path:features/suzie_signs_a_petition.feature, text:I should have signed the petition], [path:/home/local/CIN/tabr/phd_study2_tentativa7/new_sample/task_analysis/part1/spg_repos/alphagov_e-petitions/features/step_definitions/signature_steps.rb, text:the markup should be valid], [path:/home/local/CIN/tabr/phd_study2_tentativa7/new_sample/task_analysis/part1/spg_repos/alphagov_e-petitions/features/step_definitions/signature_steps.rb, text:I should be connected to the server via an ssl connection]","0",""
