"Repository","https://github.com/alphagov/whitehall.git"
"TASK","HASH","RUBY","RAILS","COVERAGE","TESTS"
"2310","94aef61aa92f81b3820102e82423ee01c3944c8a","","3.2.18","simplecov","features/organisations.feature(32);features/organisations.feature(37);features/topical_events.feature(56);features/topical_events.feature(61);features/topics.feature(78);features/topics.feature(83);features/world-locations.feature(33);features/world-locations.feature(38)"
"2312","157d51909c92e838bed47b066ea4ce8150f9312a","","3.2.18","simplecov","features/topical_events.feature(70)"
"2324","af119a104ab0300775dc4f9d64a140d633b1f59f","","3.2.18","simplecov","features/sitewide_settings.feature(3);features/sitewide_settings.feature(8);features/sitewide_settings.feature(13);features/sitewide_settings.feature(18)"
"2326","c5c0ec6dd033a2724fa533b5c399dd896449d18b","","3.2.18","simplecov","features/world-location-news.feature(48)"
"2332","e14d6d3a32f898d9f53ca8fea91e9cc74d398f25","","3.2.18","simplecov","features/worldwide-organisations.feature(21)"
"2340","b6a8bd91a884806a64f1d1d73260c507c0b36a0c","","3.2.17","simplecov","features/unpublishing-published-documents.feature(40)"
"2341","90399b54a49abb0488ee280ef533e6051f9b27dc","","3.2.17","simplecov","features/organisations.feature(212)"
"2342","10b9badf510180921f553b244e48317859edc8fe","","3.2.17","simplecov","features/filtering_featured_documents_on_a_topic.feature(7);features/filtering_featured_documents_on_a_topic.feature(11);features/filtering_featured_documents_on_a_topic.feature(15);features/filtering_featured_documents_on_a_topic.feature(19)"
"2360","3e9ac8678b0beed9f216e39c10c4c20dc3f1969a","","3.2.17","simplecov","features/corporate-information-pages.feature(3);features/corporate-information-pages.feature(12);features/corporate-information-pages.feature(20);features/worldwide-organisations.feature(82);features/worldwide-organisations.feature(115)"
"2374","2c00982c2dfc8999f2d116a0e2b8ce5ef8706cc2","","3.2.17","simplecov","features/executive-office-promotional-features.feature(11)"
"2378","0afaaaa8001bbb1b20d32f894ddc9ac1f2eea2ff","","3.2.17","simplecov","features/organisations.feature(72)"
"2387","50b9076fccf2c1c79a490b5f1e9affcabd522fbb","","3.2.17","simplecov","features/admin-highlight-words-to-avoid.feature(4)"
"2397","91ac9bb60fe27c287fbe9e7a1b4fd7dfaef9e7db","","3.2.17","simplecov","features/policy-groups.feature(23);features/policy-groups.feature(31);features/policy-groups.feature(41);features/policy-groups.feature(46);features/policy-groups.feature(50)"
"2402","1de17b786ab730f833e20de73dbac2e9323fed93","","3.2.17","simplecov","features/force-publishing-an-import.feature(28)"
"2407","c120b06ba6ab404b99d66c185597095790434c69","","3.2.17","simplecov","features/viewing-statistics-announcements.feature(18)"
"2408","d6932c1d5dc62d2bc804ecfd59305a2abd660348","","3.2.17","simplecov","features/admin-announce-statistical-releases.feature(7);features/admin-announce-statistical-releases.feature(12);features/admin-announce-statistical-releases.feature(20);features/admin-announce-statistical-releases.feature(27)"
"2431","a99289e9774f48684b257f3c5a73bf468b32fe38","","3.2.17","simplecov","features/specialist-sectors.feature(14)"
"2440","2acc4da9c7acece2ead7b39cd26bed11e8eeb0ef","","3.2.17","simplecov","features/viewing-statistics-announcements.feature(3);features/viewing-statistics-announcements.feature(12);features/viewing-statistics-announcements.feature(18)"
"2441","7e3dabecbc76a81fd655690c55e74c8c137331c6","","3.2.17","simplecov","features/admin-announce-statistical-releases.feature(7);features/admin-announce-statistical-releases.feature(12);features/admin-announce-statistical-releases.feature(20)"
"2442","400f110b3ca7080db960dea3d19218927f17b7a3","","3.2.17","simplecov","features/admin-highlight-words-to-avoid.feature(4)"
"2494","da727b304772890b142f046c8c85275748511f2b","","3.2.17","simplecov","features/latest-documents.feature(7);features/latest-documents.feature(13)"
"2495","8a21c8e441f2762e134fb80b561dfb49084adba8","","3.2.17","simplecov","features/detailed-guides.feature(3)"
"2497","fda9b2a500a50303f92202da8d7a72d868127a56","","3.2.17","simplecov","features/organisations.feature(200);features/organisations.feature(206)"
"2504","be9378ecc2affdf43387a8ea07fc7f41746b4bb7","","3.2.17","simplecov","features/topical_events.feature(48);features/topical_events.feature(56)"
"2509","94a665c971695cc6958ef1ad6914641e8c67cdc2","","3.2.17","simplecov","features/importing-new-editions.feature(194)"
"2525","68494900068208c353296e58eb8afc93c07c967e","","3.2.16","simplecov","features/specialist-sectors.feature(7)"
"2531","02379ca418201ab891016ddf493e94ed7dc71ef0","","3.2.16","simplecov","features/edition-attachments.feature(49)"
"2538","98ab3b634cc92da185bce1aa4e87bec049a15478","","3.2.16","simplecov","features/edition-attachments.feature(49)"
"2558","5b2ad9eb35071b054ff7c4bb2dd227938216a8ed","","3.2.16","simplecov","features/email-signup-for-organisations.feature(8);features/email-signup-for-world-locations.feature(8);features/email-signup-for-policies.feature(9);features/email-signup-for-topical-events.feature(8);features/email-signup-for-topics.feature(8);features/email-signup-for-documents.feature(6);features/email-signup-for-documents.feature(14);features/email-signup-for-documents.feature(24);features/email-signup-for-documents.feature(32);features/email-signup-for-people-and-roles.feature(9);features/email-signup-for-people-and-roles.feature(20);features/email-curation-queue.feature(16);features/email-curation-queue.feature(24)"
