"Repository","https://github.com/twers/re-education.git"
"TASK","HASH","RUBY","RAILS","COVERAGE","TESTS"
"50","75b897edd7e87da317868842e14189b2193a1a22","","3.2.2","simplecov","features/lesson.feature(6)"
