"Repository","https://github.com/alphagov/e-petitions.git"
"Precision mean (RT)","0.23141537607272727"
"Precision median (RT)","0.1428571429"
"Precision standard deviation (RT)","0.16131589885444314"
"Recall mean (RT)","0.43665223665454544"
"Recall median (RT)","0.2222222222"
"Recall standard deviation (RT)","0.40055419817642834"
"F2 mean (RT)","0.32535505012615834"
"F2 median (RT)","0.24096385539759038"
"F2 standard deviation (RT)","0.28153745623193505"
"Correlation #Test-Precision","0.05"
"Correlation #Test-Recall","0.53"
"Task","Dates","#Devs","#Commits","Hashes","#Gherkin_Tests","#Sted_defs","#TestI","#TaskI","TestI","TaskI","Precision","Recall","Rails","#visit_call","Lost_visit_call","#Views_TestI","#Code_View_Analysis","Code_View_Analysis","Methods_Unknown_Type","Renamed_Files","Deleted_Files","NotFound_Views","#NotFound_Views","Timestamp","Has_Merge","#FP","#FN","FP","FN","#Hits","Hits","f2"
"420","[21-05-2015]","1","8","[5343e6751f954b166594e42d6a317a03bb51713c, 53820ea5d49b3fc3960948430ad8f95d28465a77, 71a42cd6aaa38a19fb1b276ce1d93bcab0489961, 67e2ac3f26e950d5efb01edec97b26114075056f, 1a074e1547736a491557bd5b474707a1a876b08c, c8ad98daa9a8ce4309853acf4d0b0e04af8b1988, 20ececddf5260a75db9636b7438fc9112e8b7a16, a66e2cb8aec26588f07c4f3cbe510cfaabe3980a]","21","15","40","7","[app/controllers/admin/petitions_controller.rb, app/controllers/admin/searches_controller.rb, app/controllers/admin/user_sessions_controller.rb, app/controllers/petitions_controller.rb, app/controllers/search_controller.rb, app/controllers/signatures_controller.rb, app/controllers/static_pages_controller.rb, app/models/admin_user.rb, app/models/petition.rb, app/models/staged/base/petition.rb, app/models/staged/petition.rb, app/models/staged_petition_creator.rb, app/views/admin/petitions/_internal_response.html.erb, app/views/admin/petitions/_petition_details.html.erb, app/views/admin/petitions/_published_petition_details.html.erb, app/views/admin/petitions/_reject.html.erb, app/views/admin/petitions/edit.html.erb, app/views/admin/petitions/edit_response.html.erb, app/views/admin/petitions/index.html.erb, app/views/admin/searches/new.html.erb, app/views/admin/user_sessions/new.html.erb, app/views/petitions/_pre_creation_search_form.html.erb, app/views/petitions/_trending_petition.html.erb, app/views/petitions/check.html.erb, app/views/petitions/check_results.html.erb, app/views/petitions/index.html.erb, app/views/petitions/new.html.erb, app/views/petitions/show.html.erb, app/views/search/_result_list_footer.html.erb, app/views/search/_result_list_header.html.erb, app/views/search/_result_tabs.html.erb, app/views/search/_results.html.erb, app/views/search/_results_table.html.erb, app/views/search/search.html.erb, app/views/signatures/_email.html.erb, app/views/signatures/_form.html.erb, app/views/signatures/new.html.erb, app/views/static_pages/home.html.erb, app/views/static_pages/how_it_works.html.erb, app/views/static_pages/terms_and_conditions.html.erb]","[app/controllers/admin/petitions_controller.rb, app/controllers/admin/reports_controller.rb, app/controllers/application_controller.rb, app/controllers/petitions_controller.rb, app/models/petition.rb, app/views/admin/reports/index.html.erb, app/views/search/_results_table.html.erb]","0.1","0.5714285714","4.2.1","12","[]","28","35","[app/controllers/admin/petitions_controller.rb, app/controllers/admin/searches_controller.rb, app/controllers/admin/user_sessions_controller.rb, app/controllers/petitions_controller.rb, app/controllers/search_controller.rb, app/controllers/signatures_controller.rb, app/controllers/static_pages_controller.rb, app/views/admin/petitions/_internal_response.html.erb, app/views/admin/petitions/_petition_details.html.erb, app/views/admin/petitions/_published_petition_details.html.erb, app/views/admin/petitions/_reject.html.erb, app/views/admin/petitions/edit.html.erb, app/views/admin/petitions/edit_response.html.erb, app/views/admin/petitions/index.html.erb, app/views/admin/searches/new.html.erb, app/views/admin/user_sessions/new.html.erb, app/views/petitions/_pre_creation_search_form.html.erb, app/views/petitions/_trending_petition.html.erb, app/views/petitions/check.html.erb, app/views/petitions/check_results.html.erb, app/views/petitions/index.html.erb, app/views/petitions/new.html.erb, app/views/petitions/show.html.erb, app/views/search/_result_list_footer.html.erb, app/views/search/_result_list_header.html.erb, app/views/search/_result_tabs.html.erb, app/views/search/_results.html.erb, app/views/search/_results_table.html.erb, app/views/search/search.html.erb, app/views/signatures/_email.html.erb, app/views/signatures/_form.html.erb, app/views/signatures/new.html.erb, app/views/static_pages/home.html.erb, app/views/static_pages/how_it_works.html.erb, app/views/static_pages/terms_and_conditions.html.erb]","[from_now, ago, nil?, nil?, click_link, fill_in, click_button, within, click_link_or_button, page, have_content, have_css, select, email, gsub, petition_url, email, gsub, petition_url, have_link, not_to, have_no_css, capture_model, capture_fields, create_model, capture_model, model!, eq, capture_model, model!, send, have_no_content, times, page, have_xpath, raise, blank?, have_title, have_no_title, have_xpath, within, raise, unread_emails_for, parse_email_count, eq, open_email, current_email, default_part_body, include, email, fill_in, click_button, email, password]","","[app/controllers/departments_controller.rb, app/decorators/department_petition_search.rb, app/models/department.rb, app/models/department_assignment.rb, app/views/departments/index.html.erb, app/views/departments/info.html.erb, app/views/departments/show.html.erb]","","0","1.705 seconds","false","36","3","[app/controllers/admin/searches_controller.rb, app/controllers/admin/user_sessions_controller.rb, app/controllers/search_controller.rb, app/controllers/signatures_controller.rb, app/controllers/static_pages_controller.rb, app/models/admin_user.rb, app/models/staged/base/petition.rb, app/models/staged/petition.rb, app/models/staged_petition_creator.rb, app/views/admin/petitions/_internal_response.html.erb, app/views/admin/petitions/_petition_details.html.erb, app/views/admin/petitions/_published_petition_details.html.erb, app/views/admin/petitions/_reject.html.erb, app/views/admin/petitions/edit.html.erb, app/views/admin/petitions/edit_response.html.erb, app/views/admin/petitions/index.html.erb, app/views/admin/searches/new.html.erb, app/views/admin/user_sessions/new.html.erb, app/views/petitions/_pre_creation_search_form.html.erb, app/views/petitions/_trending_petition.html.erb, app/views/petitions/check.html.erb, app/views/petitions/check_results.html.erb, app/views/petitions/index.html.erb, app/views/petitions/new.html.erb, app/views/petitions/show.html.erb, app/views/search/_result_list_footer.html.erb, app/views/search/_result_list_header.html.erb, app/views/search/_result_tabs.html.erb, app/views/search/_results.html.erb, app/views/search/search.html.erb, app/views/signatures/_email.html.erb, app/views/signatures/_form.html.erb, app/views/signatures/new.html.erb, app/views/static_pages/home.html.erb, app/views/static_pages/how_it_works.html.erb, app/views/static_pages/terms_and_conditions.html.erb]","[app/controllers/admin/reports_controller.rb, app/controllers/application_controller.rb, app/views/admin/reports/index.html.erb]","4","[app/controllers/admin/petitions_controller.rb, app/controllers/petitions_controller.rb, app/models/petition.rb, app/views/search/_results_table.html.erb]","0.29411764705276816"
"428","[15-05-2015, 18-05-2015]","1","21","[6bc9374d306abc0ef12864976a8c0323a2519dfd, bd9f7af1fd4bd60ac6deac183b3e0bee933f6782, 7491f5fabb10e967be0c53766193a500dae3431a, 15b36ddccc7f4177d38f30a789ccb5e2bda98bcf, 63967cd2747c637f804903672300771e7223832a, 851d0a7d45ecf71e997668bb6ab37bd338ce8e30, c44a0d5554236a580368f2128a1f82405e1db8a7, 3236b6fd57efb2b726aabee9f0881fde1b80334a, 835e37f7ab875f7023ef6d5c03f5a990929b62e0, 97da00eddf9889f72fc459c42f8e426e8d95bbbf, 579c56664e9cc43328725754fb09be03d98565f4, e99a8c8d41ac7b91ee8a59cc5734f4aeb98a33c6, 009b6094955d5001aea3dbf086ed2c7317cd2830, 541a5f695aa944750ddd55ef5b2043bd2599c131, 6bcb5b153988826d86de40807bfe74005b8ecdbd, 897d916b41f2a8e1d464055fa5df610d3dd33276, ad473659d7acddfe8b46a73cc04273fa0fbbd25b, 4d112d6359f639d5ac7b6bd10aca104d50dceb3b, 7a0af5e864ba37a8e47c9763cd0309db3c45543b, b5bde472b9d4ad0c40ea283ec6d7b23c2d907823, a5e22bec86706dff4d27b32cb123feef5e9d53c2]","14","11","34","20","[app/controllers/admin/petitions_controller.rb, app/controllers/admin/searches_controller.rb, app/controllers/admin/user_sessions_controller.rb, app/controllers/petitions_controller.rb, app/controllers/search_controller.rb, app/controllers/signatures_controller.rb, app/models/admin_user.rb, app/models/department.rb, app/models/petition.rb, app/models/signature.rb, app/models/staged/base/petition.rb, app/models/staged/petition.rb, app/models/staged_petition_creator.rb, app/views/admin/petitions/_internal_response.html.erb, app/views/admin/petitions/_petition_details.html.erb, app/views/admin/petitions/_published_petition_details.html.erb, app/views/admin/petitions/_reject.html.erb, app/views/admin/petitions/edit.html.erb, app/views/admin/petitions/edit_internal_response.html.erb, app/views/admin/petitions/edit_response.html.erb, app/views/admin/petitions/index.html.erb, app/views/admin/searches/new.html.erb, app/views/admin/user_sessions/new.html.erb, app/views/petitions/new.html.erb, app/views/petitions/show.html.erb, app/views/search/_result_list_footer.html.erb, app/views/search/_result_list_header.html.erb, app/views/search/_result_tabs.html.erb, app/views/search/_results.html.erb, app/views/search/_results_table.html.erb, app/views/search/search.html.erb, app/views/signatures/_form.html.erb, app/views/signatures/_terms_and_conditions.html.erb, app/views/signatures/new.html.erb]","[app/controllers/admin/admin_users_controller.rb, app/controllers/admin/petitions_controller.rb, app/controllers/admin/profile_controller.rb, app/controllers/admin/reports_controller.rb, app/decorators/department_petition_search.rb, app/decorators/petition_search.rb, app/helpers/admin_helper.rb, app/helpers/form_helper.rb, app/lib/email_reminder.rb, app/models/admin_user.rb, app/models/petition.rb, app/models/staged/sponsors.rb, app/models/staged/validations/petition_details.rb, app/models/staged/validations/sponsor_details.rb, app/views/admin/admin_users/_form.html.erb, app/views/admin/petitions/edit.html.erb, app/views/petitions/create/_petition_details_hidden.html.erb, app/views/petitions/create/_petition_details_ui.html.erb, app/views/petitions/create/_submit_ui.html.erb, app/views/static_pages/home.html.erb]","0.1176470588","0.2","4.2.1","10","[]","21","27","[app/controllers/admin/petitions_controller.rb, app/controllers/admin/searches_controller.rb, app/controllers/admin/user_sessions_controller.rb, app/controllers/petitions_controller.rb, app/controllers/search_controller.rb, app/controllers/signatures_controller.rb, app/views/admin/petitions/_internal_response.html.erb, app/views/admin/petitions/_petition_details.html.erb, app/views/admin/petitions/_published_petition_details.html.erb, app/views/admin/petitions/_reject.html.erb, app/views/admin/petitions/edit.html.erb, app/views/admin/petitions/edit_internal_response.html.erb, app/views/admin/petitions/edit_response.html.erb, app/views/admin/petitions/index.html.erb, app/views/admin/searches/new.html.erb, app/views/admin/user_sessions/new.html.erb, app/views/petitions/new.html.erb, app/views/petitions/show.html.erb, app/views/search/_result_list_footer.html.erb, app/views/search/_result_list_header.html.erb, app/views/search/_result_tabs.html.erb, app/views/search/_results.html.erb, app/views/search/_results_table.html.erb, app/views/search/search.html.erb, app/views/signatures/_form.html.erb, app/views/signatures/_terms_and_conditions.html.erb, app/views/signatures/new.html.erb]","[click_button, click_link, fill_in, select, check, page, have_content, within, blank?, have_title, have_no_title, have_no_content, find_field, raw, flatten, be_nil, not_to, all, eq, find, text, diff!, within, gsub, have_xpath, raise, capture_model, capture_fields, create_model, model!, send, capture_predicate, notify_by_email?, be_truthy, from_now, present?, nil?, nil?, unread_emails_for, parse_email_count, have_css, times, each, ago, each, select, click_button, gsub, page, have_xpath, raise, have_link, open_email, current_email, default_part_body, include, click_first_link_in_email, choose, have_content, email, fill_in, click_button, email, password]","","[]","","0","0.911 seconds","true","30","16","[app/controllers/admin/searches_controller.rb, app/controllers/admin/user_sessions_controller.rb, app/controllers/petitions_controller.rb, app/controllers/search_controller.rb, app/controllers/signatures_controller.rb, app/models/department.rb, app/models/signature.rb, app/models/staged/base/petition.rb, app/models/staged/petition.rb, app/models/staged_petition_creator.rb, app/views/admin/petitions/_internal_response.html.erb, app/views/admin/petitions/_petition_details.html.erb, app/views/admin/petitions/_published_petition_details.html.erb, app/views/admin/petitions/_reject.html.erb, app/views/admin/petitions/edit_internal_response.html.erb, app/views/admin/petitions/edit_response.html.erb, app/views/admin/petitions/index.html.erb, app/views/admin/searches/new.html.erb, app/views/admin/user_sessions/new.html.erb, app/views/petitions/new.html.erb, app/views/petitions/show.html.erb, app/views/search/_result_list_footer.html.erb, app/views/search/_result_list_header.html.erb, app/views/search/_result_tabs.html.erb, app/views/search/_results.html.erb, app/views/search/_results_table.html.erb, app/views/search/search.html.erb, app/views/signatures/_form.html.erb, app/views/signatures/_terms_and_conditions.html.erb, app/views/signatures/new.html.erb]","[app/controllers/admin/admin_users_controller.rb, app/controllers/admin/profile_controller.rb, app/controllers/admin/reports_controller.rb, app/decorators/department_petition_search.rb, app/decorators/petition_search.rb, app/helpers/admin_helper.rb, app/helpers/form_helper.rb, app/lib/email_reminder.rb, app/models/staged/sponsors.rb, app/models/staged/validations/petition_details.rb, app/models/staged/validations/sponsor_details.rb, app/views/admin/admin_users/_form.html.erb, app/views/petitions/create/_petition_details_hidden.html.erb, app/views/petitions/create/_petition_details_ui.html.erb, app/views/petitions/create/_submit_ui.html.erb, app/views/static_pages/home.html.erb]","4","[app/controllers/admin/petitions_controller.rb, app/models/admin_user.rb, app/models/petition.rb, app/views/admin/petitions/edit.html.erb]","0.17543859648076332"
"433","[14-05-2015]","2","34","[73e29ebcaef4b377a128f35fc57db9a42f5f6b68, 3e40de3be98f1a9c4810e010d901384d2a773589, d018af46d404b16ac07ee265c36340f83010bdbe, ea65a13f4bb2175275fd9cb0cb1881390ed5f3b2, 49a43525eadd72aef84aba650a681a31e9e2eb03, e3ce52b4898ecbc20117ac8dd3408c1dfd067092, 81cc6d0ee5c99ed122c24b1dc0a04ef95085c16e, 26ffd1771e4e00c4987ba7289860a75ebcee5a3a, a69ce2989c94715a3b5dd8f17581a09353fa4122, 5c21af92b2c6c487a349b8ef87526377e33bad59, 105322415a803801f4027d1afd0f77ef98cf6b5b, 35a7a3ae879ae1bcec19d50d11dc663ee19d4e52, 737e0a4fb7d05273b036e1d4c20fe9969fdef4ef, 3b70d21d73a73a5df1d258f3a464d2aca7f709cb, 3a09b00c5d10d03ff0be9030f611eb7715dd06b2, 458237cb32f0b8500a62bb5e9a9534416aea3f38, 97cfebf046f52d13fbd3ac814eff4c180195a1ca, 4a2f75e99fd0e28d377559d46e571bc94ed6a299, 941aa300a6169cbcd3a77ec89b0a078892971455, f7d3076c11a792251f0345013db187b3952321bf, 346881d6a86a20c216f820885f021e762603b818, ffda497eaca55ab082f78534cb6f41e18296a926, 96acf660fc53d73ed8b48d07773adb9570f5ee38, d5220988e952e0e3e8f26439646f93aba6de494c, 83ecd7ae5a1bf7ee68f21343ddda93edc8f43f77, edbb298714ea10524b0c112fb7945eafebb888d6, 82f8980870c670d7e320209032afbf181861baed, 9672802d8fdde40d720fd4cc8a266f90553cfb21, fe593eda19ac9ded8cdd6a1a10c309ef942e06c2, d4c532317eb3e6e12aad4559e29fa199aec12ba3, c2f5660da7e10b8bd51e028238f8aa88f1976d29, 75f06cf22fd6cb4562c2cc9acb5362274ff965a6, 7af769520da0f5d577c4f0ce016d853d0fb0a347, 7758956473d2b612ca0fbc87072c2bdec8c51d9b]","12","13","22","36","[app/controllers/admin/petitions_controller.rb, app/controllers/admin/searches_controller.rb, app/controllers/admin/user_sessions_controller.rb, app/controllers/petitions_controller.rb, app/lib/app_config.rb, app/models/admin_user.rb, app/models/department.rb, app/models/petition.rb, app/models/signature.rb, app/models/staged/base/petition.rb, app/models/staged/petition.rb, app/models/staged_petition_creator.rb, app/views/admin/petitions/_internal_response.html.erb, app/views/admin/petitions/_petition_details.html.erb, app/views/admin/petitions/_published_petition_details.html.erb, app/views/admin/petitions/_reject.html.erb, app/views/admin/petitions/edit.html.erb, app/views/admin/petitions/edit_internal_response.html.erb, app/views/admin/petitions/edit_response.html.erb, app/views/admin/searches/new.html.erb, app/views/admin/user_sessions/new.html.erb, app/views/petitions/new.html.erb]","[app/controllers/admin/petitions_controller.rb, app/controllers/admin/todolist_controller.rb, app/controllers/petitions_controller.rb, app/controllers/sponsors_controller.rb, app/helpers/petition_helper.rb, app/mailers/application_mailer.rb, app/mailers/feedback_mailer.rb, app/mailers/petition_mailer.rb, app/mailers/sponsor_mailer.rb, app/models/concerns/state.rb, app/models/petition.rb, app/models/signature.rb, app/models/sponsor.rb, app/models/staged/base/creator_signature.rb, app/models/staged/base/petition.rb, app/models/staged/creator.rb, app/models/staged/has_creator_signature.rb, app/models/staged/petition.rb, app/models/staged/sponsors.rb, app/models/staged/submit.rb, app/models/staged/validations/petition_details.rb, app/models/staged/validations/signer_details.rb, app/models/staged/validations/sponsor_details.rb, app/models/staged/validations/terms.rb, app/models/staged_petition_creator.rb, app/views/petitions/create/_petition_details_hidden.html.erb, app/views/petitions/create/_petition_details_ui.html.erb, app/views/petitions/create/_sponsor_details_hidden.html.erb, app/views/petitions/create/_sponsor_details_ui.html.erb, app/views/petitions/create/_submit_hidden.html.erb, app/views/petitions/create/_submit_ui.html.erb, app/views/petitions/create/_your_details_hidden.html.erb, app/views/petitions/create/_your_details_ui.html.erb, app/views/petitions/new.html.erb, app/views/sponsor_mailer/sponsor_signed_email_below_threshold.html.erb, app/views/sponsor_mailer/sponsor_signed_email_on_threshold.html.erb]","0.3636363636","0.2222222222","4.2.1","7","[]","10","14","[app/controllers/admin/petitions_controller.rb, app/controllers/admin/searches_controller.rb, app/controllers/admin/user_sessions_controller.rb, app/controllers/petitions_controller.rb, app/views/admin/petitions/_internal_response.html.erb, app/views/admin/petitions/_petition_details.html.erb, app/views/admin/petitions/_published_petition_details.html.erb, app/views/admin/petitions/_reject.html.erb, app/views/admin/petitions/edit.html.erb, app/views/admin/petitions/edit_internal_response.html.erb, app/views/admin/petitions/edit_response.html.erb, app/views/admin/searches/new.html.erb, app/views/admin/user_sessions/new.html.erb, app/views/petitions/new.html.erb]","[click_button, click_link, click_link, fill_in, select, check, page, have_content, page, have_content, within, have_xpath, blank?, have_title, have_no_title, have_no_content, to_i, within, gsub, raise, capture_model, capture_fields, create_model, model!, eq, notify_by_email?, be_truthy, from_now, execute_script, unread_emails_for, parse_email_count, departments, departments, have_css, where, be_present, email, reload, signature, where, not, count, open_last_email_for, subject, default_part_body, include, not_to, read_emails_for, each, department_assignments, create!, select, open_email, current_email, default_part_body, include, click_first_link_in_email, choose, email, fill_in, click_button, email, password, unread_emails_for, read_emails_for, each]","","[]","","0","2.204 seconds","true","14","28","[app/controllers/admin/searches_controller.rb, app/controllers/admin/user_sessions_controller.rb, app/lib/app_config.rb, app/models/admin_user.rb, app/models/department.rb, app/views/admin/petitions/_internal_response.html.erb, app/views/admin/petitions/_petition_details.html.erb, app/views/admin/petitions/_published_petition_details.html.erb, app/views/admin/petitions/_reject.html.erb, app/views/admin/petitions/edit.html.erb, app/views/admin/petitions/edit_internal_response.html.erb, app/views/admin/petitions/edit_response.html.erb, app/views/admin/searches/new.html.erb, app/views/admin/user_sessions/new.html.erb]","[app/controllers/admin/todolist_controller.rb, app/controllers/sponsors_controller.rb, app/helpers/petition_helper.rb, app/mailers/application_mailer.rb, app/mailers/feedback_mailer.rb, app/mailers/petition_mailer.rb, app/mailers/sponsor_mailer.rb, app/models/concerns/state.rb, app/models/sponsor.rb, app/models/staged/base/creator_signature.rb, app/models/staged/creator.rb, app/models/staged/has_creator_signature.rb, app/models/staged/sponsors.rb, app/models/staged/submit.rb, app/models/staged/validations/petition_details.rb, app/models/staged/validations/signer_details.rb, app/models/staged/validations/sponsor_details.rb, app/models/staged/validations/terms.rb, app/views/petitions/create/_petition_details_hidden.html.erb, app/views/petitions/create/_petition_details_ui.html.erb, app/views/petitions/create/_sponsor_details_hidden.html.erb, app/views/petitions/create/_sponsor_details_ui.html.erb, app/views/petitions/create/_submit_hidden.html.erb, app/views/petitions/create/_submit_ui.html.erb, app/views/petitions/create/_your_details_hidden.html.erb, app/views/petitions/create/_your_details_ui.html.erb, app/views/sponsor_mailer/sponsor_signed_email_below_threshold.html.erb, app/views/sponsor_mailer/sponsor_signed_email_on_threshold.html.erb]","8","[app/controllers/admin/petitions_controller.rb, app/controllers/petitions_controller.rb, app/models/petition.rb, app/models/signature.rb, app/models/staged/base/petition.rb, app/models/staged/petition.rb, app/models/staged_petition_creator.rb, app/views/petitions/new.html.erb]","0.24096385539759038"
"442","[05-05-2015]","1","4","[ea682e61ee46aa74e8c3cdcf82d6e6c525bad2f9, 2727a998081020e70e3f27fa993e26fae5e8a376, 12150f6006a6f758f3874ebec49f96528e09f49b, a64fcd0feaaa2f1bb1cdcca8e6bd94c8dc78efbb]","5","4","12","6","[app/controllers/admin/petitions_controller.rb, app/controllers/petitions_controller.rb, app/controllers/signatures_controller.rb, app/models/department.rb, app/models/petition.rb, app/models/signature.rb, app/views/petitions/new.html.erb, app/views/petitions/show.html.erb, app/views/signatures/_form.html.erb, app/views/signatures/_notify_by_email.html.erb, app/views/signatures/_terms_and_conditions.html.erb, app/views/signatures/new.html.erb]","[app/controllers/petitions_controller.rb, app/controllers/signatures_controller.rb, app/models/signature.rb, app/views/petitions/new.html.erb, app/views/signatures/_form.html.erb, app/views/signatures/new.html.erb]","0.5","1.0","4.2.1","3","[]","6","9","[app/controllers/admin/petitions_controller.rb, app/controllers/petitions_controller.rb, app/controllers/signatures_controller.rb, app/views/petitions/new.html.erb, app/views/petitions/show.html.erb, app/views/signatures/_form.html.erb, app/views/signatures/_notify_by_email.html.erb, app/views/signatures/_terms_and_conditions.html.erb, app/views/signatures/new.html.erb]","[click_button, fill_in, select, check, choose, page, have_content, page, have_content, find_field, tag_name, text, within, have_xpath, blank?, have_title, have_no_title, have_no_content, blank?, have_title, have_no_title, have_no_content, find, eq, be_truthy, include, within, gsub, raise, capture_model, capture_fields, create_model, model!, capture_predicate, send, click_link, click_link, have_css, notify_by_email?, unread_emails_for, parse_email_count, from_now, execute_script, open_email, current_email, default_part_body, include, click_first_link_in_email]","","[app/helpers/captcha_helper.rb, app/models/captcha.rb, app/views/shared/_captcha_widget.html.erb]","","0","0.716 seconds","true","6","0","[app/controllers/admin/petitions_controller.rb, app/models/department.rb, app/models/petition.rb, app/views/petitions/show.html.erb, app/views/signatures/_notify_by_email.html.erb, app/views/signatures/_terms_and_conditions.html.erb]","[]","6","[app/controllers/petitions_controller.rb, app/controllers/signatures_controller.rb, app/models/signature.rb, app/views/petitions/new.html.erb, app/views/signatures/_form.html.erb, app/views/signatures/new.html.erb]","0.8333333333333333"
"430","[14-05-2015]","1","2","[7c42a9687dcd4929f4dcc2365760068e86761e9b, 38fd6e6ef0bb17df71dc76b3b177b89dc341f29a]","3","0","7","7","[app/controllers/admin/petitions_controller.rb, app/controllers/departments_controller.rb, app/controllers/petitions_controller.rb, app/models/department.rb, app/models/signature.rb, app/views/departments/info.html.erb, app/views/petitions/new.html.erb]","[app/controllers/petitions_controller.rb, app/models/petition.rb, app/models/staged/base/petition.rb, app/models/staged/validations/petition_details.rb, app/views/petitions/create/_petition_details_hidden.html.erb, app/views/petitions/create/_petition_details_ui.html.erb, app/views/petitions/create/_submit_ui.html.erb]","0.1428571429","0.1428571429","4.2.1","2","[]","2","5","[app/controllers/admin/petitions_controller.rb, app/controllers/departments_controller.rb, app/controllers/petitions_controller.rb, app/views/departments/info.html.erb, app/views/petitions/new.html.erb]","[click_button, fill_in, select, check, page, have_content, page, have_content, page, have_content, within, have_xpath, blank?, have_title, have_no_title, have_no_content, within, gsub, raise, capture_model, capture_fields, create_model, model!, eq, notify_by_email?, be_truthy, execute_script, unread_emails_for, parse_email_count, open_email, current_email, default_part_body, include, click_first_link_in_email, choose]","","[]","","0","0.233 seconds","false","6","6","[app/controllers/admin/petitions_controller.rb, app/controllers/departments_controller.rb, app/models/department.rb, app/models/signature.rb, app/views/departments/info.html.erb, app/views/petitions/new.html.erb]","[app/models/petition.rb, app/models/staged/base/petition.rb, app/models/staged/validations/petition_details.rb, app/views/petitions/create/_petition_details_hidden.html.erb, app/views/petitions/create/_petition_details_ui.html.erb, app/views/petitions/create/_submit_ui.html.erb]","1","[app/controllers/petitions_controller.rb]","0.14285714289999998"
"438","[12-05-2015]","2","2","[fbe90ea464604b748993285a33daf1d060c43947, 786b17f2f7c97d63c4bea092606761899f51aaed]","3","0","7","1","[app/controllers/admin/petitions_controller.rb, app/controllers/petitions_controller.rb, app/models/petition.rb, app/models/signature.rb, app/views/petitions/new.html.erb, app/views/signatures/_form.html.erb, app/views/signatures/_terms_and_conditions.html.erb]","[app/views/petitions/new.html.erb]","0.1428571429","1.0","4.2.1","1","[]","3","5","[app/controllers/admin/petitions_controller.rb, app/controllers/petitions_controller.rb, app/views/petitions/new.html.erb, app/views/signatures/_form.html.erb, app/views/signatures/_terms_and_conditions.html.erb]","[click_button, fill_in, select, check, choose, page, have_content, page, have_content, find_field, tag_name, text, within, have_xpath, blank?, have_title, have_no_title, have_no_content, find, eq, be_truthy, include, within, gsub, raise, capture_model, capture_fields, create_model, model!, notify_by_email?, execute_script, unread_emails_for, parse_email_count, open_email, current_email, default_part_body, include, click_first_link_in_email]","","[]","","0","0.472 seconds","true","6","0","[app/controllers/admin/petitions_controller.rb, app/controllers/petitions_controller.rb, app/models/petition.rb, app/models/signature.rb, app/views/signatures/_form.html.erb, app/views/signatures/_terms_and_conditions.html.erb]","[]","1","[app/views/petitions/new.html.erb]","0.4545454546322314"
"441","[11-05-2015]","1","7","[3d242eb0db5e057d581d483d0165be307c4085e4, c095d0b9600bd656a8ced18bf0c1ed93968d80b1, f5196c91b2bd1568344f881845b7e5b107164661, 8f951b761e7630361576810d0f1c4b9c664f70e2, 5d59996f09ea908cc52875324e88d504b50ab82d, c2c12e902fe5a736fc3941b3d0ad259b0b24da92, 4bcee53175d693b64a9d6897ebf09e889d9ecd09]","3","0","7","3","[app/controllers/admin/petitions_controller.rb, app/controllers/petitions_controller.rb, app/models/petition.rb, app/models/signature.rb, app/views/petitions/new.html.erb, app/views/signatures/_form.html.erb, app/views/signatures/_terms_and_conditions.html.erb]","[app/controllers/petitions_controller.rb, app/models/petition.rb, app/views/petitions/new.html.erb]","0.4285714286","1.0","4.2.1","1","[]","3","5","[app/controllers/admin/petitions_controller.rb, app/controllers/petitions_controller.rb, app/views/petitions/new.html.erb, app/views/signatures/_form.html.erb, app/views/signatures/_terms_and_conditions.html.erb]","[click_button, fill_in, select, check, choose, page, have_content, page, have_content, find_field, tag_name, text, within, have_xpath, blank?, have_title, have_no_title, have_no_content, find, eq, be_truthy, include, within, gsub, raise, capture_model, capture_fields, create_model, model!, notify_by_email?, execute_script, unread_emails_for, parse_email_count, open_email, current_email, default_part_body, include, click_first_link_in_email]","","[]","","0","0.372 seconds","false","4","0","[app/controllers/admin/petitions_controller.rb, app/models/signature.rb, app/views/signatures/_form.html.erb, app/views/signatures/_terms_and_conditions.html.erb]","[]","3","[app/controllers/petitions_controller.rb, app/models/petition.rb, app/views/petitions/new.html.erb]","0.789473684229917"
"421","[20-05-2015]","1","7","[f0fa82050de747b7ddfeb2c705411f5aa51c272c, 7c4521739c03bad7670f412aa13daf07ebc35d13, e388f6b6de237142d41d30af617418c338582579, f071f760094dc7d8911462b2ef9e7be3105e01c3, 03db360b4c45b89c71dd361dc86a3afe5672e2b0, ab0f001a66607fcaf781eccea07122ce0403da39, f552f6f98fd13cb196a004228d4ace76cc8c0ff4]","2","2","4","18","[app/controllers/admin/petitions_controller.rb, app/controllers/petitions_controller.rb, app/models/signature.rb, app/views/petitions/new.html.erb]","[app/helpers/petition_helper.rb, app/models/concerns/email_encrypter.rb, app/models/sponsor.rb, app/models/staged/base/creator_signature.rb, app/models/staged/creator.rb, app/models/staged/replay_email.rb, app/models/staged/replay_petition.rb, app/models/staged/validations/email.rb, app/models/staged/validations/signer_details.rb, app/models/staged_petition_creator.rb, app/views/petitions/create/_email_hidden.html.erb, app/views/petitions/create/_replay_email_ui.html.erb, app/views/petitions/create/_replay_petition_ui.html.erb, app/views/petitions/create/_your_details_hidden.html.erb, app/views/petitions/new.html.erb, app/views/signatures/_email.html.erb, app/views/signatures/_form.html.erb, app/views/signatures/new.html.erb]","0.25","0.0555555556","4.2.1","1","[]","1","3","[app/controllers/admin/petitions_controller.rb, app/controllers/petitions_controller.rb, app/views/petitions/new.html.erb]","[click_button, click_button, fill_in, fill_in, page, have_content, within, have_xpath, blank?, have_title, have_no_title, have_no_content, within, gsub, raise, capture_model, capture_fields, create_model, model!, eq, notify_by_email?, be_truthy, page, execute_script, unread_emails_for, parse_email_count, have_no_field, open_email, current_email, default_part_body, include, click_first_link_in_email, select, check, have_content]","","[app/models/staged/submit.rb, app/views/petitions/create/_submit_ui.html.erb]","","0","0.318 seconds","false","3","17","[app/controllers/admin/petitions_controller.rb, app/controllers/petitions_controller.rb, app/models/signature.rb]","[app/helpers/petition_helper.rb, app/models/concerns/email_encrypter.rb, app/models/sponsor.rb, app/models/staged/base/creator_signature.rb, app/models/staged/creator.rb, app/models/staged/replay_email.rb, app/models/staged/replay_petition.rb, app/models/staged/validations/email.rb, app/models/staged/validations/signer_details.rb, app/models/staged_petition_creator.rb, app/views/petitions/create/_email_hidden.html.erb, app/views/petitions/create/_replay_email_ui.html.erb, app/views/petitions/create/_replay_petition_ui.html.erb, app/views/petitions/create/_your_details_hidden.html.erb, app/views/signatures/_email.html.erb, app/views/signatures/_form.html.erb, app/views/signatures/new.html.erb]","1","[app/views/petitions/new.html.erb]","0.06578947373407201"
"440","[08-05-2015, 11-05-2015]","1","9","[f748bd6d1ba745dfb9277beeee927d35a142bb90, 59db35e6353ae98abef233ec9d527ae98b623c5c, 0ee98eb5ded386f582311236c83c43e936ebe240, 1db36ae18e2ce268abd1818c20a8b22482b4bd5c, 5c2aea5e958d54adc65837a77da611483b3e6104, a382cca6ea9eadcdd9b4b9e3dd9e0e902f7a2ac8, e2aa04abb914606c376db4258b92b4ba8e53b4dc, 6b7e7494ea3f8a4b7b62b65f09397988c5d4cc5c, 349c0fae58c65db777322fa126d8edc3e2ec324a]","2","5","8","6","[app/controllers/signatures_controller.rb, app/controllers/sponsors_controller.rb, app/models/admin_user.rb, app/models/petition.rb, app/views/signatures/_form.html.erb, app/views/signatures/_notify_by_email.html.erb, app/views/signatures/_terms_and_conditions.html.erb, app/views/sponsors/show.html.erb]","[app/controllers/sponsors_controller.rb, app/models/sponsor.rb, app/views/signatures/_form.html.erb, app/views/sponsor_mailer/new_sponsor_email.html.erb, app/views/sponsors/show.html.erb, app/views/sponsors/thank_you.html.erb]","0.375","0.5","4.2.1","0","[]","4","5","[app/controllers/sponsors_controller.rb, app/views/signatures/_form.html.erb, app/views/signatures/_notify_by_email.html.erb, app/views/signatures/_terms_and_conditions.html.erb, app/views/sponsors/show.html.erb]","[from_now, sponsors, create, notify_sponsors, creator_signature, sponsors, for_email, current_path, perishable_token, eq, page, have_no_field, sponsors, for_email, be_present, signature, petition, eq, not_to, capture_model, model!, capture_predicate, gsub, send, click_button, check, page, have_css, open_email, click_first_link_in_email, fill_in, select, choose, within]","","[]","","0","0.405 seconds","true","5","3","[app/controllers/signatures_controller.rb, app/models/admin_user.rb, app/models/petition.rb, app/views/signatures/_notify_by_email.html.erb, app/views/signatures/_terms_and_conditions.html.erb]","[app/models/sponsor.rb, app/views/sponsor_mailer/new_sponsor_email.html.erb, app/views/sponsors/thank_you.html.erb]","3","[app/controllers/sponsors_controller.rb, app/views/signatures/_form.html.erb, app/views/sponsors/show.html.erb]","0.46875"
"431","[14-05-2015]","1","1","[24c133dc76f3b113ecdc9e77548c5c7bb9711042]","1","3","8","9","[app/controllers/admin/petitions_controller.rb, app/controllers/petitions_controller.rb, app/models/admin_user.rb, app/models/petition.rb, app/models/staged/base/petition.rb, app/models/staged/petition.rb, app/models/staged_petition_creator.rb, app/views/petitions/new.html.erb]","[app/controllers/petitions_controller.rb, app/controllers/signatures_controller.rb, app/controllers/sponsors_controller.rb, app/models/signature.rb, app/models/staged/base/creator_signature.rb, app/models/staged/validations/signer_details.rb, app/views/petitions/create/_your_details_hidden.html.erb, app/views/signatures/_form.html.erb, app/views/signatures/new.html.erb]","0.125","0.1111111111","4.2.1","1","[]","1","3","[app/controllers/admin/petitions_controller.rb, app/controllers/petitions_controller.rb, app/views/petitions/new.html.erb]","[click_button, click_button, fill_in, select, check, page, have_content, page, have_content, within, have_xpath, execute_script, fill_in, capture_model, capture_fields, create_model, model!, eq, where, be_present, email, reload, signature, have_no_field, choose, open_email, click_first_link_in_email]","","[]","","0","0.163 seconds","false","7","8","[app/controllers/admin/petitions_controller.rb, app/models/admin_user.rb, app/models/petition.rb, app/models/staged/base/petition.rb, app/models/staged/petition.rb, app/models/staged_petition_creator.rb, app/views/petitions/new.html.erb]","[app/controllers/signatures_controller.rb, app/controllers/sponsors_controller.rb, app/models/signature.rb, app/models/staged/base/creator_signature.rb, app/models/staged/validations/signer_details.rb, app/views/petitions/create/_your_details_hidden.html.erb, app/views/signatures/_form.html.erb, app/views/signatures/new.html.erb]","1","[app/controllers/petitions_controller.rb]","0.11363636362706611"
"436","[13-05-2015]","1","3","[a9e7096a33177bbf60b76fe2840f9cfc005f0e51, 326326228c610ba3153c44da0c1b812293b3cdb7, fe736318bd91112973f84aea7a8316ae051b9a97]","1","0","3","2","[app/controllers/admin/user_sessions_controller.rb, app/models/petition.rb, app/views/admin/user_sessions/new.html.erb]","[app/views/admin/petitions/_petition_details.html.erb, app/views/admin/petitions/edit.html.erb]","0.0","0.0","4.2.1","2","[]","1","2","[app/controllers/admin/user_sessions_controller.rb, app/views/admin/user_sessions/new.html.erb]","[click_link, page, have_content, within, find_field, raise, utc, capture_model, capture_fields, create_model, signatures, email, fill_in, click_button, email, password]","","[]","","0","0.144 seconds","true","3","2","[app/controllers/admin/user_sessions_controller.rb, app/models/petition.rb, app/views/admin/user_sessions/new.html.erb]","[app/views/admin/petitions/_petition_details.html.erb, app/views/admin/petitions/edit.html.erb]","0","[]","0.0"
