"Repository","https://github.com/EFForg/action-center-platform.git"
"TASK","HASH","RUBY","RAILS","COVERAGE","TESTS"
"101","c2c873d03dc366657f51141ece80b8114777e1af","2.3.1","4.2.6","","features/admin/action_pages/partnerships.feature(9)"
"120","e34f1a9d77fb81c98ba365177a8fc7a8931b0247","2.3.1","4.2.6","","features/admin/action_pages/image_gallery.feature(6);features/admin/action_pages/image_gallery.feature(14);features/admin/action_pages/admin_affiliations.feature(23);features/admin/action_pages/enable_affiliations.feature(11);features/admin/action_pages/select_call_campaign.feature(10)"
"122","6203368ca0f88c93817ea0c4708a04295cbf4263","2.3.1","4.2.6","","features/admin/topics/create_topic_category.feature(9);features/admin/topics/edit_topic_category.feature(11);features/admin/topics/create_topics.feature(10);features/admin/topics/destroy_topics.feature(13)"
"124","63e0b87327e8f8987ea9f2f4c1e075aae0f1061b","2.3.1","4.2.6","","features/admin/topics/create_topic_category.feature(9);features/admin/topics/create_topics.feature(10);features/admin/topics/destroy_topic_categories.feature(10);features/admin/topics/destroy_topic_sets.feature(12);features/admin/topics/destroy_topics.feature(13);features/admin/topics/edit_topic_category.feature(11);features/admin/topics/reorder_topic_sets.feature(16)"
"128","12aa8c03572019eaf742ec587e750a943f89e8c7","2.3.1","4.2.6","","features/admin_action_page/select_call_campaign.feature(10)"
"129","5690b98ad45f14cdf727949203640b0468eb3219","2.3.1","4.2.6","","features/admin/users/make_collaborator.feature(10)"
"134","956f91a56454dd3414ddb99c1eb6cf13c2c2ffdb","2.3.1","4.2.6","","features/admin/users/make_collaborator.feature(10)"
"137","67e54cd1205114b4773db1365f6444c972be6df2","2.3.1","4.2.6","","features/users/reset_password.feature(6)"
"143","0dd2913c54f2ba4333394cfd98e7b830d97ee5dc","2.3.1","4.2.6","","features/action_page/call_tool_mailings_signup.feature(9);features/action_page/call_tool_mailings_signup.feature(13);features/action_page/email_tool_mailings_signup.feature(9);features/action_page/email_tool_mailings_signup.feature(13)"
"147","fa010b744b6fc2e5d6a0c97e23359507c083c54b","2.3.1","4.2.6","","features/users/register.feature(4);features/users/register.feature(13);features/users/register.feature(25);features/users/register.feature(35);features/users/register.feature(46);features/users/change_email.feature(9);features/users/change_email.feature(18);features/users/change_email.feature(26)"
"152","12779739ee7d2e3544f67e8fa1769029fb0a0edd","2.3.1","4.2.6","","features/users/call_action.feature(9)"
"174","9737ae9f7539d1804c7f857f0260316d2bb938f6","2.3.1","4.2.6","","features/action_page/call_tool_mailings_signup.feature(9);features/action_page/call_tool_mailings_signup.feature(14);features/action_page/email_tool_mailings_signup.feature(9);features/action_page/email_tool_mailings_signup.feature(13)"
"175","e841f9b1a9e9d2f7d73a09b569cc50d09090913f","2.3.1","4.2.6","","features/users/call_action_custom_target.feature(8);features/users/call_action.feature(9)"
"176","1abc60efb52e2eca07d29504de167e4af5aa853f","2.3.1","4.2.6","","features/admin/petitions/delete_signatures.feature(10);features/admin/petitions/delete_signatures.feature(16);features/admin/petitions/search_signatures.feature(10);features/admin/petitions/search_signatures.feature(15)"
"200","e767212830a75e652e8ba5b826cc423bc0fb63fd","2.3.1","4.2.6","","features/admin_action_page/admin_affiliations.feature(13);features/admin_action_page/admin_affiliations.feature(23)"
"201","2103b6e4630aea2153f028c4c0f8ab9c386a55c8","2.3.1","4.2.6","","features/action_page/local_petition.feature(8);features/action_page/local_petition.feature(25);features/action_page/local_petition.feature(36);features/action_page/local_petition.feature(42);features/action_page/local_petition.feature(50);features/action_page/petition.feature(7);features/admin_action_page/add_institutions.feature(13);features/admin_action_page/enable_affiliations.feature(11);features/users/achieve_petition_goal.feature(6)"
"204","ca1377bd2847e24a9041e821d3121bb3c9096d44","2.3.1","4.2.6","","features/action_page/local_petition.feature(50)"
"205","bcb1f40d4b0d824107caf3662bd8bd5b1f05f898","2.3.1","4.2.6","","features/action_page/local_petition.feature(36);features/action_page/local_petition.feature(42);features/action_page/petition.feature(7)"
"206","033046edce83229770fbb07b57b34a2752dfa7b1","2.3.1","4.2.6","","features/action_page/affiliation.feature(8);features/action_page/affiliation.feature(25)"
"207","d46e80f27fa23b078f7aae2367447b24d44147a8","2.3.1","4.2.6","","features/action_page/local_petition.feature(8);features/action_page/local_petition.feature(25);features/action_page/local_petition.feature(36);features/action_page/local_petition.feature(41);features/action_page/petition.feature(7);features/users/achieve_petition_goal.feature(6)"
"215","e807884b0f6ba2fc33b97721b2ea996683e419ee","2.3.1","4.2.6","","features/action_page/show_all_signatures.feature(7)"
"221","14b317cbb55a59716ba27ad65899bf09263e9541","2.1.2","4.1.10","","features/users/achieve_petition_goal.feature(6);features/users/promoted_users_lose_password.feature(9)"
"223","094281b88d3d7717317002813606c3c1a9f7fa0a","2.1.2","4.1.10","","features/users/change_email.feature(6)"
