"Repository","https://github.com/cul-it/blacklight-cornell.git"
"Precision mean (RT)","0.1636904761888889"
"Precision median (RT)","0.0"
"Precision standard deviation (RT)","0.33627311346785743"
"Recall mean (RT)","0.07429265330555555"
"Recall median (RT)","0.0"
"Recall standard deviation (RT)","0.14475871144144364"
"F2 mean (RT)","0.06803498558941697"
"F2 median (RT)","0.0"
"F2 standard deviation (RT)","0.12009485531884843"
"Correlation #Test-Precision","-0.31"
"Correlation #Test-Recall","-0.31"
"Task","Dates","#Devs","#Commits","Hashes","#Gherkin_Tests","#Sted_defs","#TestI","#TaskI","TestI","TaskI","Precision","Recall","Rails","#visit_call","Lost_visit_call","#Views_TestI","#Code_View_Analysis","Code_View_Analysis","Methods_Unknown_Type","Renamed_Files","Deleted_Files","NotFound_Views","#NotFound_Views","Timestamp","Has_Merge","#FP","#FN","FP","FN","#Hits","Hits","f2"
"919","[06-04-2015, 07-04-2015]","1","4","[2ae77a49c50a694c6d518e27d81a505c5c08d0b7, 2aed17c213b752e7055495525c2bc938b775f33a, 88b4c62941b1225bc26b035c66614348df3eef68, 8ac4f3025e47bb9fab3cebe683c8d33395d8b3cf]","32","1","1","1","[app/views/catalog/_index_default.html.erb]","[app/helpers/cornell_catalog_helper.rb]","0.0","0.0","4.0","20","[]","1","1","[app/views/catalog/_index_default.html.erb]","[click_button, page, status_code, include, click_link, has_link?, have_content, each, gsub!, fill_in, have_css]","","[]","[abcdefg, databases, digitalcollections]","3","0.184 seconds","false","1","1","[app/views/catalog/_index_default.html.erb]","[app/helpers/cornell_catalog_helper.rb]","0","[]","0.0"
"943","[18-02-2015, 20-02-2015]","1","3","[aacdf7b27ddae5e00acaa233c74c6ae5f80b7f05, eeadc7e453f4ce163441c40675a829117a314f15, eed30f9cc37199640e77e93c6bfabf1940d1c857]","31","5","9","1","[app/controllers/catalog_controller.rb, app/views/catalog/_constraints.html.erb, app/views/catalog/_did_you_mean.html.erb, app/views/catalog/_index_default.html.erb, app/views/catalog/_results_pagination.html.erb, app/views/catalog/_search_form.html.erb, app/views/catalog/_sidebar.html.erb, app/views/catalog/_sort_and_per_page.html.erb, app/views/catalog/index.html.erb]","[lib/blacklight_cornell/cornell_catalog.rb]","0.0","0.0","4.0","17","[]","8","9","[app/controllers/catalog_controller.rb, app/views/catalog/_constraints.html.erb, app/views/catalog/_did_you_mean.html.erb, app/views/catalog/_index_default.html.erb, app/views/catalog/_results_pagination.html.erb, app/views/catalog/_search_form.html.erb, app/views/catalog/_sidebar.html.erb, app/views/catalog/_sort_and_per_page.html.erb, app/views/catalog/index.html.erb]","[click_button, page, status_code, include, url_for, gsub!, fill_in, gsub!, fill_in, all, have_css, within, have_selector, select, click_link, click, has_link?, have_content, each]","","[]","[app/views/catalog/_home.html.erb, app/views/catalog/_paginate_compact.html.erb, app/views/catalog/_per_page_widget.html.erb, app/views/catalog/_sort_widget.html.erb]","4","0.486 seconds","false","9","1","[app/controllers/catalog_controller.rb, app/views/catalog/_constraints.html.erb, app/views/catalog/_did_you_mean.html.erb, app/views/catalog/_index_default.html.erb, app/views/catalog/_results_pagination.html.erb, app/views/catalog/_search_form.html.erb, app/views/catalog/_sidebar.html.erb, app/views/catalog/_sort_and_per_page.html.erb, app/views/catalog/index.html.erb]","[lib/blacklight_cornell/cornell_catalog.rb]","0","[]","0.0"
"912","[08-04-2015, 09-04-2015]","1","5","[3ed23f08ca610dba3b4ec1b11f08cfe1be956051, c4bb6b271b71ad1a9ff283a644e6f4d482bce147, 511b580d770d222cd5c7b8884cc7508bded7e6a7, 61db67adce5701445b44dafc1951916923a457a0, 4b4b8bc3a1de12cd613c110245f890c544239c46]","26","35","4","3","[app/controllers/databases_controller.rb, app/models/user.rb, app/views/catalog/_index_default.html.erb, lib/maybe.rb]","[app/helpers/cornell_params_helper.rb, app/models/record_mailer.rb, lib/maybe.rb]","0.25","0.3333333333","4.0","17","[]","1","1","[app/views/catalog/_index_default.html.erb]","[click_link, page, has_link?, have_content, each, have_css, fill_in, click_button, reset_mailer, unread_emails_for, parse_email_count, mailbox_for, select, open_email, open_email, current_email, have_subject, default_part_body, include, be_delivered_from, have_header, be_multipart, html_part, body, text_part, current_email_attachments, content_type, visit_in_email, click_first_link_in_email, find, set]","","[]","","0","0.276 seconds","false","3","2","[app/controllers/databases_controller.rb, app/models/user.rb, app/views/catalog/_index_default.html.erb]","[app/helpers/cornell_params_helper.rb, app/models/record_mailer.rb]","1","[lib/maybe.rb]","0.3124999999765625"
"937","[17-03-2015]","1","1","[a10f99b2b504868e2f8c3f28abbc5260f321a5e8]","23","0","1","1","[app/views/catalog/_index_default.html.erb]","[app/helpers/cornell_catalog_helper.rb]","0.0","0.0","4.0","14","[]","1","1","[app/views/catalog/_index_default.html.erb]","[click_link, page, has_link?, have_content, each, have_css]","","[]","","0","0.207 seconds","false","1","1","[app/views/catalog/_index_default.html.erb]","[app/helpers/cornell_catalog_helper.rb]","0","[]","0.0"
"951","[06-02-2015]","1","1","[4a61e5b1333d1bc74b8a17320de3f44a2d3533b6]","23","0","9","2","[app/controllers/catalog_controller.rb, app/views/catalog/_constraints.html.erb, app/views/catalog/_did_you_mean.html.erb, app/views/catalog/_index_default.html.erb, app/views/catalog/_results_pagination.html.erb, app/views/catalog/_search_form.html.erb, app/views/catalog/_sidebar.html.erb, app/views/catalog/_sort_and_per_page.html.erb, app/views/catalog/index.html.erb]","[app/helpers/cornell_catalog_helper.rb, lib/maybe.rb]","0.0","0.0","4.0","15","[]","8","9","[app/controllers/catalog_controller.rb, app/views/catalog/_constraints.html.erb, app/views/catalog/_did_you_mean.html.erb, app/views/catalog/_index_default.html.erb, app/views/catalog/_results_pagination.html.erb, app/views/catalog/_search_form.html.erb, app/views/catalog/_sidebar.html.erb, app/views/catalog/_sort_and_per_page.html.erb, app/views/catalog/index.html.erb]","[page, have_content, each, select, have_selector, have_css, click_button, url_for, gsub!, fill_in]","","[]","[app/views/catalog/_home.html.erb, app/views/catalog/_paginate_compact.html.erb, app/views/catalog/_per_page_widget.html.erb, app/views/catalog/_sort_widget.html.erb]","4","0.509 seconds","false","9","2","[app/controllers/catalog_controller.rb, app/views/catalog/_constraints.html.erb, app/views/catalog/_did_you_mean.html.erb, app/views/catalog/_index_default.html.erb, app/views/catalog/_results_pagination.html.erb, app/views/catalog/_search_form.html.erb, app/views/catalog/_sidebar.html.erb, app/views/catalog/_sort_and_per_page.html.erb, app/views/catalog/index.html.erb]","[app/helpers/cornell_catalog_helper.rb, lib/maybe.rb]","0","[]","0.0"
"1015","[07-10-2014, 09-10-2014]","1","3","[f78c1d87809d3ffb21eb6ffaa0a90278e1e21d09, 3a7ae0fc217a47488e17560462af2ccc6955a8f4, 93162ac8d2196cf347a620ab5188af41562eff17]","21","3","12","2","[app/controllers/catalog_controller.rb, app/views/catalog/_constraints.html.erb, app/views/catalog/_did_you_mean.html.erb, app/views/catalog/_expand_advanced_search.html.erb, app/views/catalog/_expand_search.html.erb, app/views/catalog/_facets.html.haml, app/views/catalog/_index_default.html.erb, app/views/catalog/_results_pagination.html.erb, app/views/catalog/_search_form.html.erb, app/views/catalog/_sidebar.html.erb, app/views/catalog/_sort_and_per_page.html.erb, app/views/catalog/index.html.erb]","[app/controllers/backend_controller.rb, app/helpers/cornell_catalog_helper.rb]","0.0","0.0","3.2.18","12","[]","11","12","[app/controllers/catalog_controller.rb, app/views/catalog/_constraints.html.erb, app/views/catalog/_did_you_mean.html.erb, app/views/catalog/_expand_advanced_search.html.erb, app/views/catalog/_expand_search.html.erb, app/views/catalog/_facets.html.haml, app/views/catalog/_index_default.html.erb, app/views/catalog/_results_pagination.html.erb, app/views/catalog/_search_form.html.erb, app/views/catalog/_sidebar.html.erb, app/views/catalog/_sort_and_per_page.html.erb, app/views/catalog/index.html.erb]","[page, have_content, each, click_button, url_for, gsub!, fill_in, gsub!, fill_in, select, have_selector]","","[]","[app/views/catalog/_home.html.erb, app/views/catalog/_paginate_compact.html.erb, app/views/catalog/_per_page_widget.html.erb, app/views/catalog/_sort_widget.html.erb]","4","0.505 seconds","false","12","2","[app/controllers/catalog_controller.rb, app/views/catalog/_constraints.html.erb, app/views/catalog/_did_you_mean.html.erb, app/views/catalog/_expand_advanced_search.html.erb, app/views/catalog/_expand_search.html.erb, app/views/catalog/_facets.html.haml, app/views/catalog/_index_default.html.erb, app/views/catalog/_results_pagination.html.erb, app/views/catalog/_search_form.html.erb, app/views/catalog/_sidebar.html.erb, app/views/catalog/_sort_and_per_page.html.erb, app/views/catalog/index.html.erb]","[app/controllers/backend_controller.rb, app/helpers/cornell_catalog_helper.rb]","0","[]","0.0"
"1460","[18-12-2012]","1","1","[ab18b8f82ba9e61fc65cdf12c732febe1704d19e]","20","39","10","61","[app/controllers/backend_controller.rb, app/controllers/catalog_controller.rb, app/views/backend/holdings.html.haml, app/views/backend/holdings_short.html.haml, app/views/catalog/_constraints.html.erb, app/views/catalog/_did_you_mean.html.erb, app/views/catalog/_facets.html.haml, app/views/catalog/_index_default.html.erb, app/views/catalog/_search_form.html.erb, app/views/catalog/index.html.erb]","[app/controllers/backend_controller.rb, app/controllers/catalog_controller.rb, app/controllers/request_controller.rb, app/helpers/application_helper.rb, app/helpers/display_helper.rb, app/helpers/generic_facets_helper.rb, app/helpers/holdings_helper.rb, app/models/record_mailer.rb, app/views/_user_util_links.html.erb, app/views/backend/_request_ask.html.haml, app/views/backend/_request_bd.html.haml, app/views/backend/_request_hold.html.haml, app/views/backend/_request_ill.html.haml, app/views/backend/_request_l2l.html.haml, app/views/backend/_request_purchase.html.haml, app/views/backend/_request_recall.html.haml, app/views/backend/holdings.html.haml, app/views/backend/holdings_short.html.haml, app/views/backend/request_item.html.haml, app/views/catalog/_change_view.html.haml, app/views/catalog/_constraints.html.erb, app/views/catalog/_constraints_element.html.erb, app/views/catalog/_did_you_mean.html.erb, app/views/catalog/_document.html.erb, app/views/catalog/_document_header.html.erb, app/views/catalog/_document_list.html.erb, app/views/catalog/_email_form.html.erb, app/views/catalog/_facet_call_letter.html.haml, app/views/catalog/_facet_expanded.html.erb, app/views/catalog/_facet_layout.html.erb, app/views/catalog/_facet_limit.html.haml, app/views/catalog/_facet_limit_selected.html.haml, app/views/catalog/_facets.html.haml, app/views/catalog/_footer.html.haml, app/views/catalog/_home_text.html.erb, app/views/catalog/_index_default.html.erb, app/views/catalog/_previous_next_doc.html.erb, app/views/catalog/_search_form.html.erb, app/views/catalog/_show_default.html.erb, app/views/catalog/_show_holdings.html.haml, app/views/catalog/_show_metadata.html.erb, app/views/catalog/_show_tools_links.html.erb, app/views/catalog/_sms_form.html.erb, app/views/catalog/facet.html.haml, app/views/catalog/index.html.erb, app/views/catalog/show.html.erb, app/views/layouts/application.html.erb, app/views/layouts/blacklight.html.erb, app/views/request/callslip.html.haml, app/views/request/hold.html.haml, app/views/request/recall.html.haml, app/views/shared/_footer.html.erb, app/views/shared/_header_navbar.html.erb, app/views/shared/_reqco.html.haml, app/views/shared/_reqdate.html.haml, app/views/shared/_reqpu.html.haml, lib/blacklight/catalog.rb, lib/blacklight/solr/email.rb, lib/blacklight/solr/sms.rb, lib/james_monkeys.rb, lib/voyager_holding.rb]","1.0","0.1639344262","3.2.9","35","[]","8","10","[app/controllers/backend_controller.rb, app/controllers/catalog_controller.rb, app/views/backend/holdings.html.haml, app/views/backend/holdings_short.html.haml, app/views/catalog/_constraints.html.erb, app/views/catalog/_did_you_mean.html.erb, app/views/catalog/_facets.html.haml, app/views/catalog/_index_default.html.erb, app/views/catalog/_search_form.html.erb, app/views/catalog/index.html.erb]","[fill_in, click_button, current_url, path, assert_equal, page, html, send, raise, url_for, have_content, within, downcase!, have_css, click_link, click_link, have_selector, gsub!, gsub!, fill_in, find, to_i, has_selector?, text, all, select, native, has_select?, length]","","[]","[app/views/catalog/_home.html.erb, app/views/catalog/_results_pagination.html.erb, app/views/catalog/_sort_and_per_page.html.erb, catalog, catalog_facet, folder_index]","6","0.881 seconds","true","0","51","[]","[app/controllers/request_controller.rb, app/helpers/application_helper.rb, app/helpers/display_helper.rb, app/helpers/generic_facets_helper.rb, app/helpers/holdings_helper.rb, app/models/record_mailer.rb, app/views/_user_util_links.html.erb, app/views/backend/_request_ask.html.haml, app/views/backend/_request_bd.html.haml, app/views/backend/_request_hold.html.haml, app/views/backend/_request_ill.html.haml, app/views/backend/_request_l2l.html.haml, app/views/backend/_request_purchase.html.haml, app/views/backend/_request_recall.html.haml, app/views/backend/request_item.html.haml, app/views/catalog/_change_view.html.haml, app/views/catalog/_constraints_element.html.erb, app/views/catalog/_document.html.erb, app/views/catalog/_document_header.html.erb, app/views/catalog/_document_list.html.erb, app/views/catalog/_email_form.html.erb, app/views/catalog/_facet_call_letter.html.haml, app/views/catalog/_facet_expanded.html.erb, app/views/catalog/_facet_layout.html.erb, app/views/catalog/_facet_limit.html.haml, app/views/catalog/_facet_limit_selected.html.haml, app/views/catalog/_footer.html.haml, app/views/catalog/_home_text.html.erb, app/views/catalog/_previous_next_doc.html.erb, app/views/catalog/_show_default.html.erb, app/views/catalog/_show_holdings.html.haml, app/views/catalog/_show_metadata.html.erb, app/views/catalog/_show_tools_links.html.erb, app/views/catalog/_sms_form.html.erb, app/views/catalog/facet.html.haml, app/views/catalog/show.html.erb, app/views/layouts/application.html.erb, app/views/layouts/blacklight.html.erb, app/views/request/callslip.html.haml, app/views/request/hold.html.haml, app/views/request/recall.html.haml, app/views/shared/_footer.html.erb, app/views/shared/_header_navbar.html.erb, app/views/shared/_reqco.html.haml, app/views/shared/_reqdate.html.haml, app/views/shared/_reqpu.html.haml, lib/blacklight/catalog.rb, lib/blacklight/solr/email.rb, lib/blacklight/solr/sms.rb, lib/james_monkeys.rb, lib/voyager_holding.rb]","10","[app/controllers/backend_controller.rb, app/controllers/catalog_controller.rb, app/views/backend/holdings.html.haml, app/views/backend/holdings_short.html.haml, app/views/catalog/_constraints.html.erb, app/views/catalog/_did_you_mean.html.erb, app/views/catalog/_facets.html.haml, app/views/catalog/_index_default.html.erb, app/views/catalog/_search_form.html.erb, app/views/catalog/index.html.erb]","0.19685039366674933"
"961","[14-01-2015]","1","1","[c251938ff3e848554f562da18e261cfe93bf5175]","19","1","9","1","[app/controllers/catalog_controller.rb, app/views/catalog/_constraints.html.erb, app/views/catalog/_did_you_mean.html.erb, app/views/catalog/_index_default.html.erb, app/views/catalog/_results_pagination.html.erb, app/views/catalog/_search_form.html.erb, app/views/catalog/_sidebar.html.erb, app/views/catalog/_sort_and_per_page.html.erb, app/views/catalog/index.html.erb]","[app/helpers/cornell_catalog_helper.rb]","0.0","0.0","4.0","16","[]","8","9","[app/controllers/catalog_controller.rb, app/views/catalog/_constraints.html.erb, app/views/catalog/_did_you_mean.html.erb, app/views/catalog/_index_default.html.erb, app/views/catalog/_results_pagination.html.erb, app/views/catalog/_search_form.html.erb, app/views/catalog/_sidebar.html.erb, app/views/catalog/_sort_and_per_page.html.erb, app/views/catalog/index.html.erb]","[page, have_selector, have_content, each, have_css, click_button, url_for, gsub!, fill_in]","","[]","[app/views/catalog/_home.html.erb, app/views/catalog/_paginate_compact.html.erb, app/views/catalog/_per_page_widget.html.erb, app/views/catalog/_sort_widget.html.erb]","4","0.480 seconds","false","9","1","[app/controllers/catalog_controller.rb, app/views/catalog/_constraints.html.erb, app/views/catalog/_did_you_mean.html.erb, app/views/catalog/_index_default.html.erb, app/views/catalog/_results_pagination.html.erb, app/views/catalog/_search_form.html.erb, app/views/catalog/_sidebar.html.erb, app/views/catalog/_sort_and_per_page.html.erb, app/views/catalog/index.html.erb]","[app/helpers/cornell_catalog_helper.rb]","0","[]","0.0"
"929","[11-02-2015, 12-02-2015]","1","2","[2476c008f72c8f7308f9ac4e4429f9759132ed3f, f689a3cad34612cc9abe783934b504a9f08a4bfb]","17","0","1","10","[app/views/catalog/_index_default.html.erb]","[app/controllers/application_controller.rb, app/controllers/catalog_controller.rb, app/controllers/databases_controller.rb, app/helpers/display_helper.rb, app/models/solr_document.rb, app/views/catalog/_expand_search.html.erb, app/views/catalog/_results_pagination.html.erb, app/views/catalog/_search_form.html.erb, app/views/catalog/index.html.erb, app/views/layouts/blacklight.html.erb]","0.0","0.0","4.0","13","[]","1","1","[app/views/catalog/_index_default.html.erb]","[page, have_content, each, have_css]","","[]","","0","0.157 seconds","false","1","10","[app/views/catalog/_index_default.html.erb]","[app/controllers/application_controller.rb, app/controllers/catalog_controller.rb, app/controllers/databases_controller.rb, app/helpers/display_helper.rb, app/models/solr_document.rb, app/views/catalog/_expand_search.html.erb, app/views/catalog/_results_pagination.html.erb, app/views/catalog/_search_form.html.erb, app/views/catalog/index.html.erb, app/views/layouts/blacklight.html.erb]","0","[]","0.0"
"986","[06-11-2014]","1","3","[2394c46f816c3ec727f73fc52987c824bedd39e2, 354b2b46368bddea84a53ee0554545dbc2c561b6, 4021fda231f014938c012a5087e0377fe6e47a10]","16","0","1","2","[app/views/catalog/_index_default.html.erb]","[app/helpers/cornell_catalog_helper.rb, app/views/catalog/_holdings.html.haml]","0.0","0.0","3.2.18","13","[]","1","1","[app/views/catalog/_index_default.html.erb]","[page, have_content, each]","","[]","","0","0.149 seconds","false","1","2","[app/views/catalog/_index_default.html.erb]","[app/helpers/cornell_catalog_helper.rb, app/views/catalog/_holdings.html.haml]","0","[]","0.0"
"992","[03-11-2014]","1","1","[83e04de5b89499852136510c433def5fabc6cce9]","15","0","1","1","[app/views/catalog/_index_default.html.erb]","[app/views/catalog/_holdings.html.haml]","0.0","0.0","3.2.18","13","[]","1","1","[app/views/catalog/_index_default.html.erb]","[page, have_content, each]","","[]","","0","0.147 seconds","false","1","1","[app/views/catalog/_index_default.html.erb]","[app/views/catalog/_holdings.html.haml]","0","[]","0.0"
"1027","[16-09-2014, 18-09-2014, 19-09-2014]","1","3","[9cbce0bee6f32d8f5fe1f10c144f40e2eaa04172, 515ccd5ee59c09c66316bdafb655b0cabdea999f, 53465631607b9e11d0f9a41eb87888a3e5a97464]","13","0","1","1","[app/views/catalog/_index_default.html.erb]","[app/helpers/cornell_catalog_helper.rb]","0.0","0.0","3.2.18","10","[]","1","1","[app/views/catalog/_index_default.html.erb]","[page, have_content, each]","","[]","","0","0.159 seconds","false","1","1","[app/views/catalog/_index_default.html.erb]","[app/helpers/cornell_catalog_helper.rb]","0","[]","0.0"
"1093","[30-06-2014]","1","1","[f37f0fead9c5404e7aab39883e58090ee88e6b5f]","11","1","1","8","[app/views/catalog/_index_default.html.erb]","[app/helpers/cornell_catalog_helper.rb, app/views/catalog/_constraints.html.erb, app/views/catalog/_holdings.html.haml, app/views/catalog/_home_text.html.erb, app/views/catalog/_show_metadata.html.erb, app/views/shared/_footer.html.erb, app/views/shared/_header_navbar.html.erb, lib/blacklight_cornell/cornell_catalog.rb]","0.0","0.0","3.2.18","10","[]","1","1","[app/views/catalog/_index_default.html.erb]","[click_link, page, has_link?, have_content, each]","","[]","","0","0.139 seconds","true","1","8","[app/views/catalog/_index_default.html.erb]","[app/helpers/cornell_catalog_helper.rb, app/views/catalog/_constraints.html.erb, app/views/catalog/_holdings.html.haml, app/views/catalog/_home_text.html.erb, app/views/catalog/_show_metadata.html.erb, app/views/shared/_footer.html.erb, app/views/shared/_header_navbar.html.erb, lib/blacklight_cornell/cornell_catalog.rb]","0","[]","0.0"
"1101","[20-06-2014]","1","4","[83ba01fd222dcfbc6f6d0cff1da619f0c5dadb51, cac4686f96820e0ead39e8e0a97161c625e569db, 12fe59448ddcae7b25e1f2b80485fd23fbb2b9b1, a16fb52054c1c59d746c56a4deb40a026941a5a9]","10","0","1","3","[app/views/catalog/_index_default.html.erb]","[app/helpers/cornell_catalog_helper.rb, app/views/catalog/_holdings.html.haml, app/views/catalog/_show_metadata.html.erb]","0.0","0.0","3.2.13","10","[]","1","1","[app/views/catalog/_index_default.html.erb]","[click_link, page, have_content, each]","","[]","","0","0.121 seconds","false","1","3","[app/views/catalog/_index_default.html.erb]","[app/helpers/cornell_catalog_helper.rb, app/views/catalog/_holdings.html.haml, app/views/catalog/_show_metadata.html.erb]","0","[]","0.0"
"1056","[04-08-2014]","1","2","[b571169a28c30e2d144b0bf7a2b8de83ebdbfd92, 8d9f272c08535447e6d73f35f34209c0eeee0b7a]","6","0","1","1","[app/views/catalog/_index_default.html.erb]","[app/helpers/cornell_catalog_helper.rb]","0.0","0.0","3.2.18","6","[]","1","1","[app/views/catalog/_index_default.html.erb]","[page, have_content, each]","","[]","","0","0.137 seconds","false","1","1","[app/views/catalog/_index_default.html.erb]","[app/helpers/cornell_catalog_helper.rb]","0","[]","0.0"
"1476","[12-12-2012, 13-12-2012, 14-12-2012]","4","25","[866a946429312defae3d954b535fa5be3b0d2a6b, 5e8b437ce04daed1da032e01114abce68d236ab4, 0b16e2636b1e77e8521ba10da677d03cd173d0b7, 169f977d55a0f30ede27902dda77a7e286992268, aea7540cf4bc4da87b273cc2d126138f75dd672e, e83745d9218e9985ad0f7bdfb3075544e2f81fe4, 2d41293b4ffd7c14a7e96fe20004d5dce1862646, 94711756587815934c3b61733022ef2ed558bf34, 7b4681056e400fc6f1f5091753b0571327935a47, 252c217c3f6a82eb9c70074a2995bd364bcdc0c6, d06f798ad7b27646c128947215071585a43e7303, c9c7e86f212759432ceb51aa02e07f4de4942b0d, 354d2667168aac1a49b5de46b8adf56643b6cacf, 00948cc714ade0691c2873e21aae7eedda52cf8f, be7c1768234ee31d86112f792738925af766ec6a, d024274285811f3b2582af17f995e2fbf066fb66, e6f5cdaa5a527e39effa8386f8e5ac9433b58aa7, 2e988dac7e2ad4f20ab25e62745f7a7868e4aa9e, eb40a718b6055df507c14480a0d6debd63709651, 20debc2afcd65082dfaccf16668e2a998181db0a, 8a1061c5e5efeb3c4849b5da057b06d8ff562953, bbd676f821222f6ca9ed29c6d485bb3e41a9ba67, 8a49fde30c09c6c65f78cad62efea594a1c83660, 85ef829572cd13be991d607504969baea5c2b1ba, 1a8077d1fbf89bd55649316bfac4c77a5ec8cf10]","2","16","6","25","[app/controllers/catalog_controller.rb, app/views/catalog/_constraints.html.erb, app/views/catalog/_did_you_mean.html.erb, app/views/catalog/_facets.html.haml, app/views/catalog/_search_form.html.erb, app/views/catalog/index.html.erb]","[app/controllers/catalog_controller.rb, app/helpers/display_helper.rb, app/views/_user_util_links.html.erb, app/views/backend/holdings.html.haml, app/views/catalog/_constraints.html.erb, app/views/catalog/_constraints_element.html.erb, app/views/catalog/_did_you_mean.html.erb, app/views/catalog/_document.html.erb, app/views/catalog/_document_header.html.erb, app/views/catalog/_document_list.html.erb, app/views/catalog/_facet_layout.html.erb, app/views/catalog/_facets.html.haml, app/views/catalog/_home_text.html.erb, app/views/catalog/_index_default.html.erb, app/views/catalog/_previous_next_doc.html.erb, app/views/catalog/_search_form.html.erb, app/views/catalog/_show_default.html.erb, app/views/catalog/_show_holdings.html.haml, app/views/catalog/_show_metadata.html.erb, app/views/catalog/_show_tools_links.html.erb, app/views/catalog/index.html.erb, app/views/catalog/show.html.erb, app/views/layouts/blacklight.html.erb, app/views/shared/_footer.html.erb, app/views/shared/_header_navbar.html.erb]","1.0","0.24","3.2.9","1","[]","5","6","[app/controllers/catalog_controller.rb, app/views/catalog/_constraints.html.erb, app/views/catalog/_did_you_mean.html.erb, app/views/catalog/_facets.html.haml, app/views/catalog/_search_form.html.erb, app/views/catalog/index.html.erb]","[click_button, current_url, path, assert_equal, send, raise, url_for, page, have_selector, native, text, has_select?, have_content, gsub!, fill_in, find, to_i, all, have_css, within, downcase!]","","[]","[app/views/catalog/_home.html.erb, app/views/catalog/_results_pagination.html.erb, app/views/catalog/_sort_and_per_page.html.erb, catalog, catalog_facet, folder_index]","6","0.369 seconds","true","0","19","[]","[app/helpers/display_helper.rb, app/views/_user_util_links.html.erb, app/views/backend/holdings.html.haml, app/views/catalog/_constraints_element.html.erb, app/views/catalog/_document.html.erb, app/views/catalog/_document_header.html.erb, app/views/catalog/_document_list.html.erb, app/views/catalog/_facet_layout.html.erb, app/views/catalog/_home_text.html.erb, app/views/catalog/_index_default.html.erb, app/views/catalog/_previous_next_doc.html.erb, app/views/catalog/_show_default.html.erb, app/views/catalog/_show_holdings.html.haml, app/views/catalog/_show_metadata.html.erb, app/views/catalog/_show_tools_links.html.erb, app/views/catalog/show.html.erb, app/views/layouts/blacklight.html.erb, app/views/shared/_footer.html.erb, app/views/shared/_header_navbar.html.erb]","6","[app/controllers/catalog_controller.rb, app/views/catalog/_constraints.html.erb, app/views/catalog/_did_you_mean.html.erb, app/views/catalog/_facets.html.haml, app/views/catalog/_search_form.html.erb, app/views/catalog/index.html.erb]","0.2830188679245283"
"954","[16-01-2015, 22-01-2015]","1","4","[3d4c0a987af4cc91cf210b6c4c8839f1ae597037, 4710229f5df84e6eadfca298d597c41738256378, a5ab4caf09ccb0ffc9f72adf09cdedf663d9a953, 3267e2c3bb1b0116716275ee2ddb38ec5aa7c6d5]","1","0","8","2","[app/controllers/catalog_controller.rb, app/views/catalog/_constraints.html.erb, app/views/catalog/_did_you_mean.html.erb, app/views/catalog/_results_pagination.html.erb, app/views/catalog/_search_form.html.erb, app/views/catalog/_sidebar.html.erb, app/views/catalog/_sort_and_per_page.html.erb, app/views/catalog/index.html.erb]","[app/controllers/catalog_controller.rb, app/controllers/databases_controller.rb]","0.125","0.5","4.0","1","[]","7","8","[app/controllers/catalog_controller.rb, app/views/catalog/_constraints.html.erb, app/views/catalog/_did_you_mean.html.erb, app/views/catalog/_results_pagination.html.erb, app/views/catalog/_search_form.html.erb, app/views/catalog/_sidebar.html.erb, app/views/catalog/_sort_and_per_page.html.erb, app/views/catalog/index.html.erb]","[click_button, url_for, gsub!, fill_in, page, have_selector, have_content]","","[]","[app/views/catalog/_home.html.erb, app/views/catalog/_paginate_compact.html.erb, app/views/catalog/_per_page_widget.html.erb, app/views/catalog/_sort_widget.html.erb]","4","0.169 seconds","false","7","1","[app/views/catalog/_constraints.html.erb, app/views/catalog/_did_you_mean.html.erb, app/views/catalog/_results_pagination.html.erb, app/views/catalog/_search_form.html.erb, app/views/catalog/_sidebar.html.erb, app/views/catalog/_sort_and_per_page.html.erb, app/views/catalog/index.html.erb]","[app/controllers/databases_controller.rb]","1","[app/controllers/catalog_controller.rb]","0.3125"
"1266","[25-04-2013]","1","1","[569d22050100b418e3ab6eeae7456dceeda8d07a]","1","0","7","40","[app/controllers/catalog_controller.rb, app/views/catalog/_constraints.html.erb, app/views/catalog/_did_you_mean.html.erb, app/views/catalog/_facets.html.haml, app/views/catalog/_results_pagination.html.erb, app/views/catalog/_search_form.html.erb, app/views/catalog/index.html.erb]","[app/controllers/catalog_controller.rb, app/controllers/request_controller.rb, app/helpers/application_helper.rb, app/helpers/blacklight/render_constraints_helper_behavior.rb, app/helpers/display_helper.rb, app/helpers/holdings_helper.rb, app/models/record_mailer.rb, app/views/backend/holdings.html.haml, app/views/bookmarks/_tools.html.erb, app/views/bookmarks/index.html.erb, app/views/catalog/_email_form.html.erb, app/views/catalog/_facets.html.haml, app/views/catalog/_home_text.html.erb, app/views/catalog/_index_default.html.erb, app/views/catalog/_refworks_form.html.erb, app/views/catalog/_search_form.html.erb, app/views/catalog/_show_default.html.erb, app/views/catalog/_show_holdings.html.haml, app/views/catalog/_show_metadata.html.erb, app/views/catalog/index.html.erb, app/views/request/aeon.html.haml, app/views/request/bd.html.haml, app/views/request/callslip.html.haml, app/views/request/hold.html.haml, app/views/request/ill.html.haml, app/views/request/l2l.html.haml, app/views/request/purchase.html.haml, app/views/request/recall.html.haml, app/views/search_history/index.html.erb, app/views/shared/_header_navbar.html.erb, app/views/shared/_reqac.html.haml, app/views/shared/_reqho.html.haml, app/views/shared/_reqho_short.html.haml, app/views/shared/_reqpu.html.haml, app/views/shared/_request_options.html.haml, lib/blacklight/catalog.rb, lib/blacklight/solr_helper.rb, lib/blacklight_advanced_search/catalog_helper_override.rb, lib/blacklight_advanced_search/parsing_nesting_parser.rb, lib/blacklight_advanced_search/render_constraints_override.rb]","0.5714285714","0.1","3.2.11","1","[]","6","7","[app/controllers/catalog_controller.rb, app/views/catalog/_constraints.html.erb, app/views/catalog/_did_you_mean.html.erb, app/views/catalog/_facets.html.haml, app/views/catalog/_results_pagination.html.erb, app/views/catalog/_search_form.html.erb, app/views/catalog/index.html.erb]","[click_button, url_for, gsub!, fill_in, select, page, have_selector]","","[]","[app/views/catalog/_home.html.erb, app/views/catalog/_sort_and_per_page.html.erb]","2","0.545 seconds","true","3","36","[app/views/catalog/_constraints.html.erb, app/views/catalog/_did_you_mean.html.erb, app/views/catalog/_results_pagination.html.erb]","[app/controllers/request_controller.rb, app/helpers/application_helper.rb, app/helpers/blacklight/render_constraints_helper_behavior.rb, app/helpers/display_helper.rb, app/helpers/holdings_helper.rb, app/models/record_mailer.rb, app/views/backend/holdings.html.haml, app/views/bookmarks/_tools.html.erb, app/views/bookmarks/index.html.erb, app/views/catalog/_email_form.html.erb, app/views/catalog/_home_text.html.erb, app/views/catalog/_index_default.html.erb, app/views/catalog/_refworks_form.html.erb, app/views/catalog/_show_default.html.erb, app/views/catalog/_show_holdings.html.haml, app/views/catalog/_show_metadata.html.erb, app/views/request/aeon.html.haml, app/views/request/bd.html.haml, app/views/request/callslip.html.haml, app/views/request/hold.html.haml, app/views/request/ill.html.haml, app/views/request/l2l.html.haml, app/views/request/purchase.html.haml, app/views/request/recall.html.haml, app/views/search_history/index.html.erb, app/views/shared/_header_navbar.html.erb, app/views/shared/_reqac.html.haml, app/views/shared/_reqho.html.haml, app/views/shared/_reqho_short.html.haml, app/views/shared/_reqpu.html.haml, app/views/shared/_request_options.html.haml, lib/blacklight/catalog.rb, lib/blacklight/solr_helper.rb, lib/blacklight_advanced_search/catalog_helper_override.rb, lib/blacklight_advanced_search/parsing_nesting_parser.rb, lib/blacklight_advanced_search/render_constraints_override.rb]","4","[app/controllers/catalog_controller.rb, app/views/catalog/_facets.html.haml, app/views/catalog/_search_form.html.erb, app/views/catalog/index.html.erb]","0.11976047904166516"
