"REPO_URL","TASK_ID","#HASHES","HASHES","#PROD_FILES","#TEST_FILES","LAST"
"https://github.com/otwcode/otwarchive.git","1382","3","[09b8d68cd76405b529d548462348aeffc87fc462, 6d86f2d429e237734cf5f0b3d4cc9c155ddb887e, c9f13ce481e871e67053c193ca35e32107eb049a]","4","1","09b8d68cd76405b529d548462348aeffc87fc462","3e4a97a1c3d2606d1a497d106d5b023220b709e1","328c5c2fcea46435fd3040a4c003ba60692d4bd9"
"https://github.com/otwcode/otwarchive.git","1384","6","[f3d112d434bcc4416e0d848f4fd3d3510fe124d4, 1c4a233d8e467b94befb837772022d73a5a45229, 28bf9d15d92ada1d564fa4403e5eff438b0ddb8d, ebb67e0eaa6e9a7140941452a3616bbbbca6645b, 770c2266c8f7bbf0cc8639fdf64a611564d33318, 0fafc64943e8fb391b17f36cc1d7823f05a7b818]","2","1","f3d112d434bcc4416e0d848f4fd3d3510fe124d4","e76715dd3fe8313e5010f95c7adab98dd72726db","412c24c4c4813d9f3ead054a22c9e5dd338cacd7"
"https://github.com/otwcode/otwarchive.git","1393","1","[45d0abe8e4c45774c8462f54cf09633403d8b132]","4","6","45d0abe8e4c45774c8462f54cf09633403d8b132","328c5c2fcea46435fd3040a4c003ba60692d4bd9","836643a8c2469de80c87016909ee332987dac153"
"https://github.com/otwcode/otwarchive.git","1400","1","[d9d3ea6880859d33e6417da3a4c42e33c028cab7]","3","1","d9d3ea6880859d33e6417da3a4c42e33c028cab7","389ee474cbe1530b0ef8c0879e0cf7b3c693740d","ee8992429ca193927cb865c5ecd9afc7559d0d49"
"https://github.com/otwcode/otwarchive.git","1401","29","[a973359a88f73ebd00c4d972a64f8f4f669f3ebc, d750a969c80bf88c060aaefc3f0df304bbf7bf0c, 91fff676aaf1a98f5731a4960bbe2b0d0dbcdd94, d36aee6609d6564194b76289926572ad02f56ac6, c97c46b3b22b7bcc9e3c1888c7085455f3ae794b, 3b9585c7a72c300476374cfeacd14954315ee775, df9fba0ff67d68e379a6e884704513278ea09c7b, b045c944a16acb480dfea5d41e09701af43a0957, 2acb9bfe6c41ae651936ed7cb22b3603bfc9fdcb, 86345e1c447986d956d6b1ee875d89d5c1507ec6, 43945c4ada6d1f966a923dae399a5d2e8655b66f, 1ad7cf610dc9584c993bd015eb234e986bb100df, 4f7786276e62fb169b2d8ba3ceff53d8f44a628c, 41b0a2c8189187497d3fdcdaffbe1bd4dfb007d1, eb65e1642de640d02d0a88fc7c6735bc01b86dc0, caa9d5a33ad70c186a8247b91c03939a900780e3, aad4d63947460f6f75d474b4f355f638e6242016, eb59f10fd51fb1987f284a1ccb8efcbcbd4ccf5d, 1309b7c78b6f2ffab3629d36df8534d8208f6cae, 411192cf9f328e8f90ee49f9f39b88e1260ab234, 4eaa034e87a2acede7e4f2965e381b66f9527ffc, f152b0cf2b8ad9d893dd976894f3346b2109bd53, 9f020685fe74ffac348667be22d23f5d673503f6, cc96f900dbc2663e9591b70b907ddfe0d740d7c0, efed48c1e5f57a49115f2acdd8fa9bfa0ca8aaf4, a1cdddd1479a1d7166698690753dea58974f5f6f, e3cc6e1d362a605519d720b48b105a85eab35986, a2b107c61b289fe9bfa062b6e55b55412792228f, ee2f38f863fccfae9c09c466c4d4ae5e63a6a819]","6","1","a973359a88f73ebd00c4d972a64f8f4f669f3ebc","50ffed3670edc8824e167b9b979393cdeba7776e","4159604d59425e23904a8da9b52ef83074eb3a77"
"https://github.com/otwcode/otwarchive.git","1408","15","[27dfb4fe95e185606ea050d20a9a5ee7a828da2e, 7621f28cbbd131a0c1de0f5cd39d7148f15b6877, 6399b21c4054f0c12d846b603d7f2f0fd9443e51, 30fd9b9ef6936878c908c460037ed8fe1eb1268d, 3f41267f40f24209f91ec11e1646de485c245f35, 07048f302613312a88a121eedc04f771e8968dff, e1cf73e69a85628115a0f776caa3b68a2f602802, 783898c2b60b2bc3296f20b3dfe64d29eb6c095a, cbb9e1d79c844011d9c5e01ff3351a98f5a0995d, 96469a22e4a969618e93b2314df57260675d3294, 89c6c62b29f7815f1ee136818ef620c320958d6b, cbdc8463b9f00c98d443327486aa6c6178cdb415, b9c6533fd22de72fa60f3889a50d9999dde59ae1, 7aa3ca88f0bfb47f39088cc37dfeeaaae3587e20, 463df5e3f157bda05c5ae91cec4fbf910ece4ee2]","20","3","27dfb4fe95e185606ea050d20a9a5ee7a828da2e","faaac3a63cceab01c5e3105d264c7214869807de","7351705786f5a28f550ba0f6f48bd1e0ff0aac50"
"https://github.com/otwcode/otwarchive.git","1409","15","[0d746164523a5619407c6a0acb947f322c8db007, c9dd93e8f97ec8a6e72ef49088d487f256811098, ede9c06222be23f1d9cf100c95129d64afbdd953, d183c35721413c0f01a2168dc55de5514be9cc58, 84604cf9bb87d8da2c065ae0f2f5bdf7c3141af8, 3ef4a500ab418acf3fd8b24f466788e5800c5e5f, 5efae4c97c0af76cccba7ef9e65eba6652e6f406, a0859f95013ccd07d95f7aab9b7b1c5c40cbf3ba, 67867f15b836b955e97badca35ba1299de11fbe5, 66781eb2d3accb0ace837abae2a55e35185bb9d8, e44cbf099b8490e0374d3ba18cce570f442dafba, da6bf948b64b862aff0ec5cc853e6a7e25dadc83, bd109eeda1097d7f3a20e1f8fd62d7b571d51779, f9cb30a9735f5d0896fdec3fdc735535ef3d8dd8, e8618c893a9710d6ea89b0ae99eb975a8526105f]","20","4","0d746164523a5619407c6a0acb947f322c8db007","faaac3a63cceab01c5e3105d264c7214869807de","d9b881b6cd61ad7c6620e03cbd2477c8ee5b7c9f"
"https://github.com/otwcode/otwarchive.git","1412","5","[ec79d8faec0d21c9b9b2fcc28487186b031dee06, ca78938e5e270165bdef44e4a0065fa9f5c1fcec, 64a073b491fd6c13312ed3f023480cd3562d6c23, cda40d565a2e1bf49af25776b2360f6974c96e0d, 4dd19503a2b42201888cdb708533204f8e3e834d]","4","6","ec79d8faec0d21c9b9b2fcc28487186b031dee06","a6c7851c7804a974127e6076183d7eafb3c7df1a","7a29584625ec919b1ae22514b021362deb41aae6"
"https://github.com/otwcode/otwarchive.git","1418","1","[3ad2bcd79a279b242cffb7eb32706d28742c5262]","1","1","3ad2bcd79a279b242cffb7eb32706d28742c5262","f2deaecb7573daf5e9fa4e22e5fbeb0d84cb6aba","7a8d6a66e7fbbd618bc8555aa977c28b9cd9be4f"
"https://github.com/otwcode/otwarchive.git","1419","4","[a4847d84bca362893bcbcd5d976354fcee9e952d, b5247e7740ede6e7bc29652b43804ae5fadb71c9, 91e136c8faf83213ac31825357460921e3cd0c6a, 5ee5876e524a4d7d9a1b0ed0e0af85a47cfc78b3]","1","1","a4847d84bca362893bcbcd5d976354fcee9e952d","c44cadc3102577edf6a0df7279ebb8be6ef29e20","2b6ab4baaae20353ddb35016b5a6bb10782d9961"
"https://github.com/otwcode/otwarchive.git","1438","4","[3b37bc07f5b6633113ed52217bbb0d967bad6a2b, 6c880f751bea24dc9bc1fd9f1de47b5024ca5271, 720191b2ac7dd417e2a64570eaf30559dc1cbc8e, 3788e51c40590d7a7b62e637039a7b548aa6af85]","3","2","3b37bc07f5b6633113ed52217bbb0d967bad6a2b","ad999f5574ae9cf77c4fe56b5c55e465e979345c","ee90292f610661c97dd783771a9c5491fedff238"
"https://github.com/otwcode/otwarchive.git","1444","1","[9746f1e9882fc0fed2c3700ac87171e68a4eb7c0]","1","1","9746f1e9882fc0fed2c3700ac87171e68a4eb7c0","b7a8eee2162637dafff7a0b501d3d5b3bd513a35","0d69bdfe6dcc127afc68e8d7a633bbc32c3aaad2"
"https://github.com/otwcode/otwarchive.git","1462","1","[320fe184e3d3076add4841e800b86b8a98673dc3]","1","1","320fe184e3d3076add4841e800b86b8a98673dc3","b1e1799a9806dc2d72a710f97eb5714d4b289561","b8c85870ef61f309140201babb289fd8577804c4"
"https://github.com/otwcode/otwarchive.git","1468","1","[979d6c573541310d6dd225b638d87a693a73dca4]","22","10","979d6c573541310d6dd225b638d87a693a73dca4","1ec122ec1c16bf8e90813e56732454ae4ae0615e","eb58e7b8e9c02056980ae9ef6e84c3573e643d91"
"https://github.com/otwcode/otwarchive.git","1469","4","[bbc558918d3d54dcd85a9858ea966cf568a519c2, 995783e90ebcf89337d052625328a9b43e03687f, f9d0949032ee9a301e2c57131a54b9f1091280fd, 277730d361e98b49dc5ac2f25e1e9f6339816379]","2","1","bbc558918d3d54dcd85a9858ea966cf568a519c2","8b998bbde8260a3d91686701ddcc281a08b5a32c","90958ee2c6aa8a0ac916123462379f22febb1d01"
"https://github.com/otwcode/otwarchive.git","1478","2","[d70d87c45dca5226bdc21dd87e6518f08ed85f6b, f6c82a4729ac793be1e18b0335e7ee3118a0f0ca]","4","1","d70d87c45dca5226bdc21dd87e6518f08ed85f6b","6e50a8ca7aca07056c5e649b96d06c21ef13162a","b6c7688677139e49af27225a2e677f2ef9f85489"
"https://github.com/otwcode/otwarchive.git","1481","1","[03bf0e23d36b26c03a7f3c4fd4dd8d82e544f981]","2","1","03bf0e23d36b26c03a7f3c4fd4dd8d82e544f981","aa6922ba25e606ee22f222fdb9dc57f36ee16555","8b46641f7b2da8953250e61c7319ab873b3f846f"
"https://github.com/otwcode/otwarchive.git","1494","1","[75e9af5df45e27053ab4c576666d17c46bde54e0]","3","1","75e9af5df45e27053ab4c576666d17c46bde54e0","3ad5575266d886a4e0fef5d26c33f88cb3cf540b","680418f62cf34818bba013715ec0d6154dd15cda"
"https://github.com/otwcode/otwarchive.git","1499","2","[957c7de0ddb7f71970ee7c5b73905dfc50816a40, 9735e4efd583d201288f58a7a0ad9ff906acc7e8]","3","3","957c7de0ddb7f71970ee7c5b73905dfc50816a40","09badc9e6e46607689d61729549d1726f16ec4b7","6eb3d110451f8d436d3c65a6fba1a80fec7f530f"
"https://github.com/otwcode/otwarchive.git","1501","3","[d759f186f511d7edaa15395acfa128163f79b24e, 6c6d9c1f54c3e6be99a099a9cf2e03c6bd3ed184, 7d586235a1da1398c8e42b720a9197847aa65f06]","2","1","d759f186f511d7edaa15395acfa128163f79b24e","3b43cbb0057964a66ba85d0cf7aab19cdf6f7567","8b46641f7b2da8953250e61c7319ab873b3f846f"
"https://github.com/otwcode/otwarchive.git","1502","6","[35ca8a9db21a38662556520c2dffd3055c696d98, db5015aa5710f92e440914a0705e1f1f86460177, 854ce8dd6eb305c61e11e1a3184b761fc3a5e4b2, fd6da829317ad9b333cfac8b0ee7093702ce288d, f33706d165de42135a6588d87691827931cea16d, 18c1ed7631036b25d95d069f0b1f3f6405f7972f]","1","1","35ca8a9db21a38662556520c2dffd3055c696d98","6eb3d110451f8d436d3c65a6fba1a80fec7f530f","8b46641f7b2da8953250e61c7319ab873b3f846f"
"https://github.com/otwcode/otwarchive.git","1520","3","[10b56b881102fb8851315b3ca240edded835b9f5, 7efa8dac1ef050f8e9df51e547f6e4f0c50469dc, 8c598bffbb1dc55aefe88dd88feb585e5a11bc5b]","2","1","10b56b881102fb8851315b3ca240edded835b9f5","7a8d6a66e7fbbd618bc8555aa977c28b9cd9be4f","63cf9a4fe6c69b49d49f1821f385e5947e90ee62"
"https://github.com/otwcode/otwarchive.git","1524","8","[9ef8cab748ab7ca44b93ed4d3532db13a66ea566, c92e40136fd5397b00851d64d50ec5a5adfb6664, 9c7ba9722acfb1eecf53d98a0e46c8a17f3680cb, d03328adc344d153cf40ec032db4964741dd0b3d, d703982b98bab50e37c10c0c85f2bf30d2b64b7e, 3689d527b51510dcd46703891032651de5ecb340, a98ab6088981b490a46c9b12a54924d2e7f9e9b0, 7c2fc90799e3c4632431d8812c74ca2aa0bd7da3]","5","2","9ef8cab748ab7ca44b93ed4d3532db13a66ea566","c6831130ad737ed28978ae51263db8e75f2144f0","bffea41e23c21a270fc1bb510502ce262c8831ff"
"https://github.com/otwcode/otwarchive.git","1526","2","[e8da1039b6f2b3553f366c2be7619e24e41b3897, 63bb71822b784fdf2711386739f19bd88d2eb75b]","1","1","e8da1039b6f2b3553f366c2be7619e24e41b3897","bffea41e23c21a270fc1bb510502ce262c8831ff","63cf9a4fe6c69b49d49f1821f385e5947e90ee62"
"https://github.com/otwcode/otwarchive.git","1534","4","[f4ecb609a4c61d31beaff929eddcb0ac3cde52db, 7ff8695d57ddf32d17c83b73d2a1a5e0b649d3d9, e2cedcd64091819928313af710ac3ba6782d93f8, 69625a9047fa6eb3f23791dc6c41efe464289270]","1","2","f4ecb609a4c61d31beaff929eddcb0ac3cde52db","c2111b447281d181d9c2a245741340ec96f6e39e","5e9b03accb9aa1c523a54d0f32a7f6c1ee787c6d"
