"Repository","https://github.com/gitlabhq/gitlabhq.git"
"Tasks with empty IReal","0"
"Tasks with no-empty IReal","20"
"Tasks with relevant AST error","0"
"Tasks with AST error of Gherkin files","0"
"Tasks with AST error of StepDef files","0"
"Tasks with AST error of production files","0"
"Tasks with AST error of unit test files","0"
"Tasks with step match error","19"
"Tasks without required gems","0"
"Tasks with changed stepdef","0"
"Tasks with changed Gherkin","20"
"Tasks with implemented Gherkin scenarios","0"
"All invalid tasks","20"
"All valid tasks (Gherkin scenario, no empty IReal, no error)","0"
"Valid tasks, but empty ITest","0"
"Valid tasks, no empty ITest, but zero precision-recall","0"
"Valid tasks, no empty ITest, no zero precision-recall","0"
"Project","Task","Date","#Days","#Commits","Commit_Message","#Devs","#Gherkin_Tests","#Impl_Gherkin_Tests","#StepDef","#Impl_StepDef","Methods_Unknown_Type","#Step_Call","Step_Match_Errors","#Step_Match_Error","AST_Errors","#AST_Errors","Gherkin_AST_Errors","#Gherkin_AST_Errors","Steps_AST_Errors","#Steps_AST_Errors","Renamed_Files","Deleted_Files","NotFound_Views","#Views","#TestI","#TaskI","TestI","TaskI","Precision","Recall","Hashes","Timestamp","Rails","Gems","#Visit_Call","Lost_visit_call","#Views_ITest","#Code_View_Analysis","Code_View_Analysis","Has_Merge","F2","#Multiple_Step_Matches","Multiple_Step_Matches","#Generic_Step_Keyword","Generic_Step_Keyword"
"gitlabhq","20333","[20-06-2016, 21-06-2016]","2","3","[Rename Repo -> Repository , Rename Code -> Repo in feature specs , Rename Code tab to Repo  Closes #18830 ]","1","10","0","0","0","[]","0","[path:features/project/active_tab.feature, size:4], [path:features/project/shortcuts.feature, size:3]","7","","0","","0","","0","","[]","","0","0","1","[]","[app/views/layouts/nav/_project.html.haml]","0.0","0.0","[59fc1816d3df8f9ac27542eac46f93ae85e328ae, 5c9f0896ef3118b4e381e1834073827f42a10feb, 26d2fa0aaa4546ab6d41d08b4f0af66ca5d14ec0]","0.968 seconds","4.2.6","[rspec-rails, simplecov, coveralls, factory_girl]","0","[]","0","0","[]","false","0.0","0","","0",""
"gitlabhq","20416","[17-06-2016]","1","2","[Update CHANGELOG , Ensure Todos counters doesn't count Todos for projects pending delete ]","1","2","0","0","0","[]","0","[path:features/dashboard/todos.feature, size:2]","2","","0","","0","","0","","[]","","0","0","3","[]","[app/controllers/dashboard/todos_controller.rb, app/finders/todos_finder.rb, app/helpers/todos_helper.rb]","0.0","0.0","[16387947341ccf49eeec366725fadf901a20b10e, 2878c990052f78fae3cde21a1d2cd90dd5a85461]","0.891 seconds","4.2.6","[rspec-rails, simplecov, coveralls, factory_girl]","0","[]","0","0","[]","false","0.0","0","","0",""
"gitlabhq","20437","[16-06-2016, 17-06-2016]","2","4","[Merge branch 'feature/project-import' into 'feature/project-export'  Project import functionality  This is a MR for the import functionality of https://gitlab.com/gitlab-org/gitlab-ce/issues/3050, which adds the ability to import single projects.  Branched off https://gitlab.com/gitlab-org/gitlab-ce/merge_requests/3114  - [x] members - DB data   - [x] issues   - [x] issue comments   - [x] merge requests   - [x] merge request diff   - [x] merge request comments   - [x] labels   - [x] milestones   - [x] snippets   - [x] releases   - [x] events   - [x] commit statuses   - [x] CI builds - File system data   - [x] Git repository   - [x] wiki   - [x] uploads   - [ ] ~~CI build traces~~   - [ ] ~~CI build artifacts~~   - [ ] ~~LFS objects~~ - DB configuration   - [x] services   - [x] web hooks   - [x] protected branches   - [x] deploy keys   - [x] CI variables   - [x] CI triggers  See merge request !3142, Merge branch 'feature/project-export-ui-experimental' into 'feature/project-import'  E [TOO_LONG]","2","1","0","0","0","[]","0","[path:features/dashboard/new_project.feature, size:2]","2","","0","","0","","0","","[app/workers/project_import_worker.rb, lib/gitlab/import_export/import_service.rb, lib/gitlab/import_export/project_factory.rb]","","0","0","44","[]","[app/controllers/application_controller.rb, app/controllers/import/gitlab_projects_controller.rb, app/controllers/projects_controller.rb, app/mailers/emails/projects.rb, app/models/application_setting.rb, app/models/commit_status.rb, app/models/concerns/importable.rb, app/models/member.rb, app/models/merge_request.rb, app/models/merge_request_diff.rb, app/models/note.rb, app/models/project.rb, app/services/notification_service.rb, app/services/projects/create_service.rb, app/services/projects/import_export/export_service.rb, app/services/projects/import_service.rb, app/views/import/gitlab_projects/new.html.haml, app/views/notify/project_was_exported_email.html.haml, app/views/notify/project_was_not_exported_email.html.haml, app/views/projects/edit.html.haml, app/views/projects/imports/show.html.haml, app/views/projects/new.html.haml, app/workers/gitlab_remove_project_export_worker.rb, app/workers/project_export_worker.rb, lib/gitlab/current_settings.rb, lib/gitlab/gitlab_import/project_creator.rb, lib/gitlab/import_export.rb, lib/gitlab/import_export/file_importer.rb, lib/gitlab/import_export/importer.rb, lib/gitlab/import_export/members_mapper.rb, lib/gitlab/import_export/project_creator.rb, lib/gitlab/import_export/project_tree_restorer.rb, lib/gitlab/import_export/project_tree_saver.rb, lib/gitlab/import_export/reader.rb, lib/gitlab/import_export/relation_factory.rb, lib/gitlab/import_export/repo_restorer.rb, lib/gitlab/import_export/repo_saver.rb, lib/gitlab/import_export/saver.rb, lib/gitlab/import_export/shared.rb, lib/gitlab/import_export/uploads_restorer.rb, lib/gitlab/import_export/version_checker.rb, lib/gitlab/import_export/version_saver.rb, lib/gitlab/import_export/wiki_repo_saver.rb, lib/gitlab/import_sources.rb]","0.0","0.0","[8891bef26f5e3acc7050d206670bc6fc0ddd66e2, 402b651a552030c90af421ddd2a74f6cbf298413, 2d4556c5d208e9ae805b0467c1c7281ae6a36ebe, bfced6fdb5ef4b567914e0da8d6bf0c97271ed9f]","0.840 seconds","4.2.6","[rspec-rails, simplecov, coveralls, factory_girl]","0","[]","0","0","[]","true","0.0","0","","0",""
"gitlabhq","20471","[13-06-2016, 14-06-2016, 16-06-2016]","4","11","[Revert ""squashed merge and fixed conflicts""  This reverts commit 13e37a3ee5c943525a99481b855d654e97e8597c. , squashed merge and fixed conflicts , fix indents , missed line break , better coverage for Reader , few changes based on MR feedback , fix file.write , fixed deprecation warning , added comments to import export reader class , refactored loads of things due to commits to pipeline change , few more modifications based on comments ]","1","6","0","0","0","[]","0","[path:features/admin/active_tab.feature, size:7]","7","","0","","0","","0","","[app/controllers/concerns/membership_actions.rb, app/controllers/projects/environments_controller.rb, app/controllers/projects/todos_controller.rb, app/helpers/members_helper.rb, app/mailers/emails/groups.rb, app/mailers/emails/members.rb, app/models/concerns/access_requestable.rb, app/models/deployment.rb, app/models/environment.rb, app/services/create_deployment_service.rb, app/views/admin/background_jobs/_head.html.haml, app/views/admin/dashboard/_head.html.haml, app/views/groups/group_members/_group_member.html.haml, app/views/notify/group_access_granted_email.html.haml, app/views/notify/group_invite_accepted_email.html.haml, app/views/notify/group_invite_declined_email.html.haml, app/views/notify/group_member_invited_email.html.haml, app/views/notify/member_access_denied_email.html.haml, app/views/notify/member_access_granted_email.html.haml, app/views/notify/member_access_requested_email.html.haml, app/views/notify/member_invite_accepted_email.html.haml, app/views/notify/member_invite_declined_email.html.haml, app/views/notify/member_invited_email.html.haml, app/views/notify/project_access_granted_email.html.haml, app/views/notify/project_invite_accepted_email.html.haml, app/views/notify/project_invite_declined_email.html.haml, app/views/notify/project_member_invited_email.html.haml, app/views/projects/deployments/_commit.html.haml, app/views/projects/deployments/_deployment.html.haml, app/views/projects/environments/_environment.html.haml, app/views/projects/environments/_form.html.haml, app/views/projects/environments/_header_title.html.haml, app/views/projects/environments/index.html.haml, app/views/projects/environments/new.html.haml, app/views/projects/environments/show.html.haml, app/views/projects/project_members/_project_member.html.haml, app/views/shared/members/_access_request_buttons.html.haml, app/views/shared/members/_member.html.haml, app/views/shared/members/_requests.html.haml, app/workers/expire_build_artifacts_worker.rb, lib/gitlab/backend/shell_env.rb, lib/gitlab/ci/config/node/configurable.rb, lib/gitlab/ci/config/node/entry.rb, lib/gitlab/ci/config/node/factory.rb, lib/gitlab/ci/config/node/global.rb, lib/gitlab/ci/config/node/null.rb, lib/gitlab/ci/config/node/script.rb, lib/gitlab/ci/config/node/validation_helpers.rb, lib/gitlab/gl_id.rb, lib/gitlab/import_export/import_export_reader.rb]","","0","0","164","[]","[app/controllers/autocomplete_controller.rb, app/controllers/groups/group_members_controller.rb, app/controllers/jwt_controller.rb, app/controllers/profiles/notifications_controller.rb, app/controllers/projects/artifacts_controller.rb, app/controllers/projects/builds_controller.rb, app/controllers/projects/commit_controller.rb, app/controllers/projects/git_http_controller.rb, app/controllers/projects/merge_requests_controller.rb, app/controllers/projects/pipelines_controller.rb, app/controllers/projects/project_members_controller.rb, app/controllers/projects/wikis_controller.rb, app/controllers/sessions_controller.rb, app/finders/notes_finder.rb, app/finders/snippets_finder.rb, app/finders/todos_finder.rb, app/helpers/blob_helper.rb, app/helpers/branches_helper.rb, app/helpers/button_helper.rb, app/helpers/ci_status_helper.rb, app/helpers/commits_helper.rb, app/helpers/diff_helper.rb, app/helpers/gitlab_routing_helper.rb, app/helpers/groups_helper.rb, app/helpers/issuables_helper.rb, app/helpers/nav_helper.rb, app/helpers/notifications_helper.rb, app/helpers/projects_helper.rb, app/helpers/time_helper.rb, app/helpers/todos_helper.rb, app/mailers/emails/groups.rb, app/mailers/emails/projects.rb, app/mailers/notify.rb, app/models/ability.rb, app/models/blob.rb, app/models/ci/build.rb, app/models/ci/pipeline.rb, app/models/concerns/awardable.rb, app/models/group.rb, app/models/issue.rb, app/models/member.rb, app/models/members/group_member.rb, app/models/members/project_member.rb, app/models/note.rb, app/models/notification_setting.rb, app/models/project.rb, app/models/project_services/bamboo_service.rb, app/models/project_services/issue_tracker_service.rb, app/models/project_services/teamcity_service.rb, app/models/project_team.rb, app/models/repository.rb, app/models/service.rb, app/models/todo.rb, app/models/user.rb, app/services/ci/create_builds_service.rb, app/services/ci/register_build_service.rb, app/services/git_hooks_service.rb, app/services/notification_service.rb, app/services/todo_service.rb, app/views/admin/background_jobs/show.html.haml, app/views/admin/builds/index.html.haml, app/views/admin/dashboard/index.html.haml, app/views/admin/groups/index.html.haml, app/views/admin/groups/show.html.haml, app/views/admin/health_check/show.html.haml, app/views/admin/logs/show.html.haml, app/views/admin/projects/index.html.haml, app/views/admin/projects/show.html.haml, app/views/admin/users/groups.html.haml, app/views/admin/users/index.html.haml, app/views/admin/users/projects.html.haml, app/views/groups/group_members/_group_member.html.haml, app/views/groups/group_members/index.html.haml, app/views/groups/show.html.haml, app/views/layouts/_collapse_button.html.haml, app/views/layouts/_page.html.haml, app/views/layouts/_search.html.haml, app/views/layouts/admin.html.haml, app/views/layouts/application.html.haml, app/views/layouts/header/_default.html.haml, app/views/layouts/nav/_admin.html.haml, app/views/layouts/nav/_dashboard.html.haml, app/views/layouts/nav/_group_settings.html.haml, app/views/layouts/nav/_project.html.haml, app/views/layouts/nav/_project_settings.html.haml, app/views/notify/group_access_granted_email.html.haml, app/views/notify/group_invite_accepted_email.html.haml, app/views/notify/group_invite_declined_email.html.haml, app/views/notify/group_member_invited_email.html.haml, app/views/notify/project_access_granted_email.html.haml, app/views/notify/project_invite_accepted_email.html.haml, app/views/notify/project_invite_declined_email.html.haml, app/views/notify/project_member_invited_email.html.haml, app/views/profiles/notifications/_group_settings.html.haml, app/views/profiles/notifications/_project_settings.html.haml, app/views/profiles/notifications/show.html.haml, app/views/profiles/two_factor_auths/show.html.haml, app/views/projects/_home_panel.html.haml, app/views/projects/builds/_sidebar.html.haml, app/views/projects/buttons/_notifications.html.haml, app/views/projects/buttons/_star.html.haml, app/views/projects/ci/pipelines/_pipeline.html.haml, app/views/projects/commit/_change.html.haml, app/views/projects/commits/_commit.html.haml, app/views/projects/commits/_commits.html.haml, app/views/projects/commits/_head.html.haml, app/views/projects/commits/show.html.haml, app/views/projects/container_registry/_tag.html.haml, app/views/projects/diffs/_diffs.html.haml, app/views/projects/diffs/_file.html.haml, app/views/projects/issues/_head.html.haml, app/views/projects/issues/_merge_requests.html.haml, app/views/projects/issues/_related_branches.html.haml, app/views/projects/labels/index.html.haml, app/views/projects/merge_requests/show/_commits.html.haml, app/views/projects/merge_requests/widget/_merged.html.haml, app/views/projects/merge_requests/widget/_merged_buttons.haml, app/views/projects/milestones/_form.html.haml, app/views/projects/network/show.html.haml, app/views/projects/new.html.haml, app/views/projects/pipelines/_head.html.haml, app/views/projects/project_members/_group_members.html.haml, app/views/projects/project_members/_new_project_member.html.haml, app/views/projects/project_members/_project_member.html.haml, app/views/projects/project_members/_shared_group_members.html.haml, app/views/projects/project_members/_team.html.haml, app/views/projects/project_members/index.html.haml, app/views/shared/_label_row.html.haml, app/views/shared/_merge_requests.html.haml, app/views/shared/groups/_group.html.haml, app/views/shared/issuable/_form.html.haml, app/views/shared/issuable/_sidebar.html.haml, app/views/shared/milestones/_merge_requests_tab.haml, app/views/u2f/_register.html.haml, app/workers/stuck_ci_builds_worker.rb, lib/api/builds.rb, lib/api/entities.rb, lib/api/project_members.rb, lib/api/session.rb, lib/banzai/pipeline/description_pipeline.rb, lib/banzai/reference_parser/issue_parser.rb, lib/ci/api/builds.rb, lib/ci/api/entities.rb, lib/ci/gitlab_ci_yaml_processor.rb, lib/container_registry/blob.rb, lib/container_registry/client.rb, lib/container_registry/tag.rb, lib/gitlab/auth.rb, lib/gitlab/backend/grack_auth.rb, lib/gitlab/backend/shell_env.rb, lib/gitlab/ci/config.rb, lib/gitlab/database.rb, lib/gitlab/database/migration_helpers.rb, lib/gitlab/import_export.rb, lib/gitlab/import_export/project_tree_saver.rb, lib/gitlab/import_export/reader.rb, lib/gitlab/import_export/repo_saver.rb, lib/gitlab/import_export/version_saver.rb, lib/gitlab/import_export/wiki_repo_saver.rb, lib/gitlab/metrics/instrumentation.rb, lib/gitlab/metrics/rack_middleware.rb, lib/gitlab/metrics/sampler.rb, lib/gitlab/regex.rb, lib/gitlab/workhorse.rb]","0.0","0.0","[452c076a34cc11cc97f4b1c3113e86ce4367e055, 13e37a3ee5c943525a99481b855d654e97e8597c, 9be06bbbb40a64b060fe9042fc84817551dfed08, f6ed7c8ff8313826a08aace346f30facc55a202f, fde90c3e7fe97420e029c1e7c02227d3e8773c7f, 4020b0f55fa7df3a410a11debfd155527b1a79ee, bd5c749f2911e9d843a5bfe7487fdc1566c5dfa6, 86e475101138d2db04d09606123b4f666b03bd39, cc322603945816ed957da7c0efa56e2ef1016569, 069bc264185f35f75c6840e26581e64a1de12d6a, 771f73510937186130be260d11b8dbb273d45907]","0.891 seconds","4.2.6","[rspec-rails, simplecov, coveralls, factory_girl]","0","[]","0","0","[]","false","0.0","0","","0",""
"gitlabhq","20508","[15-06-2016]","1","10","[Fix admin hooks spec  Signed-off-by: Dmitriy Zaporozhets <dmitriy.zaporozhets@gmail.com> , Rearrange order of tabs , Fix admin active tab tests  Signed-off-by: Dmitriy Zaporozhets <dmitriy.zaporozhets@gmail.com> , Nest li elements directly under ul , Move builds tab to admin overview , Add monitoring link with subtabs , Add sub links to overview , Add counter for abuse reports , Remove admin layout-nav counters , Move admin nav to horizontal layout nav ]","2","6","0","0","0","[]","0","[path:features/admin/active_tab.feature, size:7]","7","","0","","0","","0","","[]","","0","0","12","[]","[app/views/admin/background_jobs/_head.html.haml, app/views/admin/background_jobs/show.html.haml, app/views/admin/builds/index.html.haml, app/views/admin/dashboard/_head.html.haml, app/views/admin/dashboard/index.html.haml, app/views/admin/groups/index.html.haml, app/views/admin/health_check/show.html.haml, app/views/admin/logs/show.html.haml, app/views/admin/projects/index.html.haml, app/views/admin/users/index.html.haml, app/views/layouts/admin.html.haml, app/views/layouts/nav/_admin.html.haml]","0.0","0.0","[bcbe9b4de8776dbbaee6e374200de395cae3c61a, 6d10d8251c1acfe59a6fa92e4ff9c780dfbb2a0d, d5efd17d8ae540f2e85b81ae787779c3871d42c4, f1245bde894a04fcc83771281d3051a87c5cdab2, d3b6c18526e72d43cd20db5bb2c69c60320197ce, d1c3f3d87258336b6ad50639d4f63647e95958df, 922a164d60725246ee038d2603d2beed0a82277a, 736ba42b249d8ccd22b455f6cd09ae946bd2d855, 58c8661cd161e10d6dc51300c59850481e61cfd7, 10ae4a8e71e14053beb9f90196c9450838d8a44e]","0.944 seconds","4.2.6","[rspec-rails, simplecov, coveralls, factory_girl]","0","[]","0","0","[]","false","0.0","0","","0",""
"gitlabhq","20617","[10-06-2016]","1","4","[Add CHANGELOG item for labels/milestones navigation change  Signed-off-by: Dmitriy Zaporozhets <dmitriy.zaporozhets@gmail.com> , Render issues link on issues subnav unless you visit merge request controller  Signed-off-by: Dmitriy Zaporozhets <dmitriy.zaporozhets@gmail.com> , Render only issues/mr in subnav depends on context  Signed-off-by: Dmitriy Zaporozhets <dmitriy.zaporozhets@gmail.com> , Move Labels and Milestones as sub tab to Issues/MR  Signed-off-by: Dmitriy Zaporozhets <dmitriy.zaporozhets@gmail.com> ]","1","2","0","0","0","[]","0","[path:features/project/active_tab.feature, size:2]","2","","0","","0","","0","","[app/views/projects/merge_requests/_head.html.haml]","","0","0","6","[]","[app/views/layouts/nav/_project.html.haml, app/views/projects/issues/_head.html.haml, app/views/projects/issues/index.html.haml, app/views/projects/labels/index.html.haml, app/views/projects/merge_requests/index.html.haml, app/views/projects/milestones/index.html.haml]","0.0","0.0","[308bb56781554b9d6436de674ae0291505fd2686, 95f15b14d19203e99cb1e25c8c40edb61bf914e5, d4b2f5d0f3baf4e3644c0e0f71ffb2995fb72a57, 1976a44649edcac40058cf39600e134ec6112408]","0.826 seconds","4.2.6","[rspec-rails, simplecov, coveralls, factory_girl]","0","[]","0","0","[]","false","0.0","0","","0",""
"gitlabhq","20732","[06-06-2016]","1","1","[Remove prev/next buttons on issues and merge requests  The buttons were rarely used and added at least 1 query each on every page load. ]","1","3","0","0","0","[]","0","[path:features/project/issues/issues.feature, size:2], [path:features/project/merge_requests.feature, size:3]","5","","0","","0","","0","","[]","","0","0","2","[]","[app/helpers/issuables_helper.rb, app/views/shared/issuable/_sidebar.html.haml]","0.0","0.0","[535d11302e73fe88702f7c65effc3cd443bf56fc]","0.830 seconds","4.2.6","[rspec-rails, simplecov, coveralls, factory_girl]","0","[]","0","0","[]","false","0.0","0","","0",""
"gitlabhq","20771","[03-06-2016]","1","5","[Merge branch 'dz-code-tab'  See merge request https://gitlab.com/gitlab-org/gitlab-ce/merge_requests/4431 , Update test since branch removal does not render template anymore  Signed-off-by: Dmitriy Zaporozhets <dmitriy.zaporozhets@gmail.com> , Fix more tests with new Code tab  Signed-off-by: Dmitriy Zaporozhets <dmitriy.zaporozhets@gmail.com> , Update tests to match new Code tab logic  Signed-off-by: Dmitriy Zaporozhets <dmitriy.zaporozhets@gmail.com> , Put project Files and Commits tabs under Code tab  Signed-off-by: Dmitriy Zaporozhets <dmitriy.zaporozhets@gmail.com> ]","1","10","0","0","0","[]","0","[path:features/project/active_tab.feature, size:4], [path:features/project/shortcuts.feature, size:3]","7","","0","","0","","0","","[]","","0","0","4","[]","[app/controllers/projects/branches_controller.rb, app/views/layouts/nav/_project.html.haml, app/views/projects/commits/_head.html.haml, app/views/projects/tree/show.html.haml]","0.0","0.0","[3f4ac2ff60c9d83ec65b19070e4d054e12e67dd2, 334cb868213bfc08e83c6d12fbda04ca15fd67f0, db2109b086340a5bf5e049aa16f22a76c0a5aec7, 7cfb445c15bdec0268f0a3800481e9cced973648, 56a17a7701229a35af2cf710261cdeef15a6f8ad]","0.934 seconds","4.2.6","[rspec-rails, simplecov, coveralls, factory_girl]","0","[]","0","0","[]","true","0.0","0","","0",""
"gitlabhq","20775","[09-05-2016, 10-05-2016, 11-05-2016, 12-05-2016, 13-05-2016, 16-05-2016, 17-05-2016, 18-05-2016, 19-05-2016, 03-06-2016]","26","19","[Revert ""Fix merge conflicts - squashed commit""  This reverts commit 3e99123095b26988de67a94b0e7a5207c1ef5ae2. , Fix merge conflicts - squashed commit  # Conflicts: #	app/models/project.rb , updated uploads saver , fix path , uploads export , fixed CI commits on export , updated import export conf , added DB configuration , fix specs , fix version issue , adding versioning to export , some changes based on MR feedback , fixed TODOs left , add author on notes to export - so we can add to a note if project member is not found , fix rubocop warnings , fixing more export problems , fix bad refactor , added better error handling. Also refactored some of the code and fixed a few issues in project_tree_saver , renaming variable ]","1","25","0","0","0","[]","0","[path:features/project/active_tab.feature, size:6], [path:features/project/builds/summary.feature, size:2], [path:features/project/commits/tags.feature, size:4], [path:features/project/project.feature, size:3], [path:features/project/shortcuts.feature, size:3]","18","","0","","0","","0","","[app/controllers/admin/health_check_controller.rb, app/controllers/health_check_controller.rb, app/controllers/jwt_controller.rb, app/controllers/projects/container_registry_controller.rb, app/controllers/projects/pipelines_controller.rb, app/finders/pipelines_finder.rb, app/helpers/javascript_helper.rb, app/models/legacy_diff_note.rb, app/services/auth/container_registry_authentication_service.rb, app/services/ci/create_pipeline_service.rb, app/services/merge_requests/add_todo_when_build_fails_service.rb, app/views/admin/health_check/show.html.haml, app/views/devise/mailer/confirmation_instructions.html.erb, app/views/devise/mailer/confirmation_instructions.html.haml, app/views/layouts/devise_mailer.html.haml, app/views/projects/blob/_header_title.html.haml, app/views/projects/builds/_header_title.html.haml, app/views/projects/ci/commits/_commit.html.haml, app/views/projects/commit/_ci_stage.html.haml, app/views/projects/commits/_header_title.html.haml, app/views/projects/container_registry/_tag.html.haml, app/views/projects/container_registry/index.html.haml, app/views/projects/graphs/_header_title.html.haml, app/views/projects/issues/_header_title.html.haml, app/views/projects/labels/_header_title.html.haml, app/views/projects/merge_requests/_header_title.html.haml, app/views/projects/milestones/_header_title.html.haml, app/views/projects/notes/_commit_discussion.html.haml, app/views/projects/notes/discussions/_active.html.haml, app/views/projects/notes/discussions/_commit.html.haml, app/views/projects/notes/discussions/_diff.html.haml, app/views/projects/notes/discussions/_diff_with_notes.html.haml, app/views/projects/notes/discussions/_notes.html.haml, app/views/projects/notes/discussions/_outdated.html.haml, app/views/projects/pipelines/_head.html.haml, app/views/projects/pipelines/_info.html.haml, app/views/projects/pipelines/index.html.haml, app/views/projects/pipelines/new.html.haml, app/views/projects/pipelines/show.html.haml, app/views/projects/project_members/_header_title.html.haml, app/views/projects/runners/_form.html.haml, app/views/projects/snippets/_header_title.html.haml, app/views/projects/variables/_content.html.haml, app/views/projects/variables/_form.html.haml, app/views/projects/variables/_table.html.haml, app/views/projects/variables/index.html.haml, app/views/projects/wikis/_header_title.html.haml, lib/api/gitignores.rb, lib/api/subscriptions.rb, lib/backup/registry.rb, lib/banzai/filter/inline_diff_filter.rb, lib/banzai/filter/reference_gatherer_filter.rb, lib/banzai/lazy_reference.rb, lib/banzai/pipeline/reference_extraction_pipeline.rb, lib/banzai/reference_parser.rb, lib/banzai/reference_parser/base_parser.rb, lib/banzai/reference_parser/commit_parser.rb, lib/banzai/reference_parser/commit_range_parser.rb, lib/banzai/reference_parser/external_issue_parser.rb, lib/banzai/reference_parser/issue_parser.rb, lib/banzai/reference_parser/label_parser.rb, lib/banzai/reference_parser/merge_request_parser.rb, lib/banzai/reference_parser/milestone_parser.rb, lib/banzai/reference_parser/snippet_parser.rb, lib/banzai/reference_parser/user_parser.rb, lib/container_registry/blob.rb, lib/container_registry/client.rb, lib/container_registry/config.rb, lib/container_registry/registry.rb, lib/container_registry/repository.rb, lib/container_registry/tag.rb, lib/gitlab/database/migration_helpers.rb, lib/gitlab/github_import/branch_formatter.rb, lib/gitlab/gitignore.rb, lib/gitlab/import_url.rb, lib/gitlab/lazy.rb, lib/gitlab/middleware/rails_queue_duration.rb, lib/gitlab/url_sanitizer.rb, lib/json_web_token/rsa_token.rb, lib/json_web_token/token.rb]","","0","0","464","[]","[app/controllers/admin/abuse_reports_controller.rb, app/controllers/admin/application_settings_controller.rb, app/controllers/admin/broadcast_messages_controller.rb, app/controllers/admin/keys_controller.rb, app/controllers/admin/runners_controller.rb, app/controllers/admin/spam_logs_controller.rb, app/controllers/admin/users_controller.rb, app/controllers/application_controller.rb, app/controllers/autocomplete_controller.rb, app/controllers/concerns/creates_commit.rb, app/controllers/concerns/toggle_subscription_action.rb, app/controllers/dashboard/labels_controller.rb, app/controllers/dashboard/projects_controller.rb, app/controllers/dashboard/todos_controller.rb, app/controllers/dashboard_controller.rb, app/controllers/groups/group_members_controller.rb, app/controllers/omniauth_callbacks_controller.rb, app/controllers/profiles/emails_controller.rb, app/controllers/profiles/keys_controller.rb, app/controllers/projects/application_controller.rb, app/controllers/projects/branches_controller.rb, app/controllers/projects/builds_controller.rb, app/controllers/projects/commit_controller.rb, app/controllers/projects/compare_controller.rb, app/controllers/projects/find_file_controller.rb, app/controllers/projects/hooks_controller.rb, app/controllers/projects/imports_controller.rb, app/controllers/projects/merge_requests_controller.rb, app/controllers/projects/milestones_controller.rb, app/controllers/projects/notes_controller.rb, app/controllers/projects/project_members_controller.rb, app/controllers/projects/protected_branches_controller.rb, app/controllers/projects/runners_controller.rb, app/controllers/projects/variables_controller.rb, app/controllers/projects/wikis_controller.rb, app/controllers/projects_controller.rb, app/controllers/registrations_controller.rb, app/controllers/sessions_controller.rb, app/controllers/snippets_controller.rb, app/controllers/users_controller.rb, app/finders/group_projects_finder.rb, app/finders/issuable_finder.rb, app/finders/notes_finder.rb, app/finders/todos_finder.rb, app/helpers/application_helper.rb, app/helpers/application_settings_helper.rb, app/helpers/auth_helper.rb, app/helpers/blob_helper.rb, app/helpers/button_helper.rb, app/helpers/ci_status_helper.rb, app/helpers/commits_helper.rb, app/helpers/diff_helper.rb, app/helpers/emails_helper.rb, app/helpers/events_helper.rb, app/helpers/gitlab_markdown_helper.rb, app/helpers/gitlab_routing_helper.rb, app/helpers/groups_helper.rb, app/helpers/issuables_helper.rb, app/helpers/issues_helper.rb, app/helpers/nav_helper.rb, app/helpers/notes_helper.rb, app/helpers/projects_helper.rb, app/helpers/search_helper.rb, app/helpers/selects_helper.rb, app/helpers/tab_helper.rb, app/helpers/todos_helper.rb, app/mailers/devise_mailer.rb, app/mailers/emails/projects.rb, app/mailers/notify.rb, app/models/ability.rb, app/models/abuse_report.rb, app/models/appearance.rb, app/models/application_setting.rb, app/models/audit_event.rb, app/models/broadcast_message.rb, app/models/ci/build.rb, app/models/ci/commit.rb, app/models/ci/runner.rb, app/models/ci/runner_project.rb, app/models/ci/trigger.rb, app/models/ci/trigger_request.rb, app/models/ci/variable.rb, app/models/commit.rb, app/models/commit_range.rb, app/models/commit_status.rb, app/models/concerns/issuable.rb, app/models/concerns/mentionable.rb, app/models/concerns/participable.rb, app/models/concerns/subscribable.rb, app/models/deploy_key.rb, app/models/deploy_keys_project.rb, app/models/email.rb, app/models/event.rb, app/models/forked_project_link.rb, app/models/generic_commit_status.rb, app/models/group.rb, app/models/hooks/project_hook.rb, app/models/hooks/service_hook.rb, app/models/hooks/system_hook.rb, app/models/hooks/web_hook.rb, app/models/identity.rb, app/models/issue.rb, app/models/key.rb, app/models/label.rb, app/models/label_link.rb, app/models/lfs_object.rb, app/models/lfs_objects_project.rb, app/models/member.rb, app/models/members/group_member.rb, app/models/members/project_member.rb, app/models/merge_request.rb, app/models/merge_request_diff.rb, app/models/milestone.rb, app/models/namespace.rb, app/models/network/graph.rb, app/models/note.rb, app/models/notification_setting.rb, app/models/oauth_access_token.rb, app/models/personal_snippet.rb, app/models/project.rb, app/models/project_group_link.rb, app/models/project_import_data.rb, app/models/project_services/asana_service.rb, app/models/project_services/assembla_service.rb, app/models/project_services/bamboo_service.rb, app/models/project_services/buildkite_service.rb, app/models/project_services/builds_email_service.rb, app/models/project_services/campfire_service.rb, app/models/project_services/ci_service.rb, app/models/project_services/custom_issue_tracker_service.rb, app/models/project_services/drone_ci_service.rb, app/models/project_services/emails_on_push_service.rb, app/models/project_services/external_wiki_service.rb, app/models/project_services/flowdock_service.rb, app/models/project_services/gemnasium_service.rb, app/models/project_services/gitlab_ci_service.rb, app/models/project_services/gitlab_issue_tracker_service.rb, app/models/project_services/hipchat_service.rb, app/models/project_services/irker_service.rb, app/models/project_services/issue_tracker_service.rb, app/models/project_services/jira_service.rb, app/models/project_services/pivotaltracker_service.rb, app/models/project_services/pushover_service.rb, app/models/project_services/redmine_service.rb, app/models/project_services/slack_service.rb, app/models/project_services/slack_service/build_message.rb, app/models/project_services/slack_service/issue_message.rb, app/models/project_services/teamcity_service.rb, app/models/project_snippet.rb, app/models/project_wiki.rb, app/models/protected_branch.rb, app/models/release.rb, app/models/repository.rb, app/models/security_event.rb, app/models/sent_notification.rb, app/models/service.rb, app/models/snippet.rb, app/models/spam_log.rb, app/models/subscription.rb, app/models/todo.rb, app/models/user.rb, app/models/users_star_project.rb, app/services/create_commit_builds_service.rb, app/services/git_push_service.rb, app/services/git_tag_push_service.rb, app/services/issues/update_service.rb, app/services/merge_requests/base_service.rb, app/services/merge_requests/build_service.rb, app/services/merge_requests/create_service.rb, app/services/merge_requests/merge_service.rb, app/services/merge_requests/merge_when_build_succeeds_service.rb, app/services/merge_requests/refresh_service.rb, app/services/merge_requests/update_service.rb, app/services/notes/create_service.rb, app/services/projects/autocomplete_service.rb, app/services/projects/create_service.rb, app/services/projects/destroy_service.rb, app/services/projects/fork_service.rb, app/services/projects/housekeeping_service.rb, app/services/projects/import_export/export_service.rb, app/services/projects/import_service.rb, app/services/projects/transfer_service.rb, app/services/system_hooks_service.rb, app/services/system_note_service.rb, app/services/todo_service.rb, app/services/wiki_pages/base_service.rb, app/views/admin/abuse_reports/_abuse_report.html.haml, app/views/admin/application_settings/_form.html.haml, app/views/admin/builds/index.html.haml, app/views/admin/runners/_runner.html.haml, app/views/admin/runners/show.html.haml, app/views/dashboard/todos/_todo.html.haml, app/views/devise/mailer/confirmation_instructions.html.erb, app/views/devise/sessions/new.html.haml, app/views/devise/sessions/two_factor.html.haml, app/views/devise/shared/_omniauth_box.html.haml, app/views/doorkeeper/authorizations/new.html.haml, app/views/events/_commit.html.haml, app/views/events/event/_common.html.haml, app/views/events/event/_push.html.haml, app/views/groups/_activities.html.haml, app/views/import/gitlab/status.html.haml, app/views/kaminari/gitlab/_first_page.html.haml, app/views/kaminari/gitlab/_gap.html.haml, app/views/kaminari/gitlab/_last_page.html.haml, app/views/kaminari/gitlab/_next_page.html.haml, app/views/kaminari/gitlab/_page.html.haml, app/views/kaminari/gitlab/_paginator.html.haml, app/views/kaminari/gitlab/_prev_page.html.haml, app/views/layouts/_head.html.haml, app/views/layouts/_page.html.haml, app/views/layouts/_search.html.haml, app/views/layouts/header/_default.html.haml, app/views/layouts/nav/_admin.html.haml, app/views/layouts/nav/_dashboard.html.haml, app/views/layouts/nav/_group.html.haml, app/views/layouts/nav/_group_settings.html.haml, app/views/layouts/nav/_profile.html.haml, app/views/layouts/nav/_project.html.haml, app/views/layouts/nav/_project_settings.html.haml, app/views/layouts/notify.html.haml, app/views/layouts/project.html.haml, app/views/layouts/project_settings.html.haml, app/views/notify/_note_message.html.haml, app/views/notify/new_issue_email.html.haml, app/views/notify/new_merge_request_email.html.haml, app/views/notify/note_merge_request_email.html.haml, app/views/notify/repository_push_email.html.haml, app/views/profiles/accounts/show.html.haml, app/views/profiles/preferences/show.html.haml, app/views/projects/_builds_settings.html.haml, app/views/projects/_home_panel.html.haml, app/views/projects/_md_preview.html.haml, app/views/projects/_zen.html.haml, app/views/projects/activity.html.haml, app/views/projects/artifacts/browse.html.haml, app/views/projects/badges/index.html.haml, app/views/projects/blame/show.html.haml, app/views/projects/blob/_editor.html.haml, app/views/projects/blob/_header_title.html.haml, app/views/projects/blob/edit.html.haml, app/views/projects/blob/new.html.haml, app/views/projects/blob/show.html.haml, app/views/projects/branches/index.html.haml, app/views/projects/branches/new.html.haml, app/views/projects/builds/_header_title.html.haml, app/views/projects/builds/index.html.haml, app/views/projects/builds/show.html.haml, app/views/projects/buttons/_dropdown.html.haml, app/views/projects/buttons/_fork.html.haml, app/views/projects/buttons/_notifications.html.haml, app/views/projects/ci/builds/_build.html.haml, app/views/projects/commit/_builds.html.haml, app/views/projects/commit/_ci_commit.html.haml, app/views/projects/commit/_commit_box.html.haml, app/views/projects/commit/builds.html.haml, app/views/projects/commit/show.html.haml, app/views/projects/commits/_commit.html.haml, app/views/projects/commits/_commits.html.haml, app/views/projects/commits/_head.html.haml, app/views/projects/commits/_header_title.html.haml, app/views/projects/commits/show.html.haml, app/views/projects/compare/index.html.haml, app/views/projects/compare/show.html.haml, app/views/projects/deploy_keys/index.html.haml, app/views/projects/diffs/_file.html.haml, app/views/projects/diffs/_line.html.haml, app/views/projects/diffs/_parallel_view.html.haml, app/views/projects/diffs/_text_file.html.haml, app/views/projects/edit.html.haml, app/views/projects/empty.html.haml, app/views/projects/find_file/show.html.haml, app/views/projects/generic_commit_statuses/_generic_commit_status.html.haml, app/views/projects/graphs/_head.html.haml, app/views/projects/graphs/_header_title.html.haml, app/views/projects/graphs/ci.html.haml, app/views/projects/graphs/commits.html.haml, app/views/projects/graphs/languages.html.haml, app/views/projects/graphs/show.html.haml, app/views/projects/hooks/_project_hook.html.haml, app/views/projects/hooks/index.html.haml, app/views/projects/issues/_header_title.html.haml, app/views/projects/issues/_issue.html.haml, app/views/projects/issues/_merge_requests.html.haml, app/views/projects/issues/_related_branches.html.haml, app/views/projects/issues/edit.html.haml, app/views/projects/issues/index.html.haml, app/views/projects/issues/new.html.haml, app/views/projects/issues/show.html.haml, app/views/projects/labels/_header_title.html.haml, app/views/projects/labels/edit.html.haml, app/views/projects/labels/index.html.haml, app/views/projects/labels/new.html.haml, app/views/projects/merge_requests/_header_title.html.haml, app/views/projects/merge_requests/_merge_request.html.haml, app/views/projects/merge_requests/_show.html.haml, app/views/projects/merge_requests/dropdowns/_branch.html.haml, app/views/projects/merge_requests/edit.html.haml, app/views/projects/merge_requests/index.html.haml, app/views/projects/merge_requests/invalid.html.haml, app/views/projects/merge_requests/new.html.haml, app/views/projects/merge_requests/show/_mr_box.html.haml, app/views/projects/merge_requests/widget/_open.html.haml, app/views/projects/merge_requests/widget/_show.html.haml, app/views/projects/merge_requests/widget/open/_accept.html.haml, app/views/projects/merge_requests/widget/open/_merge_when_build_succeeds.html.haml, app/views/projects/merge_requests/widget/open/_not_allowed.html.haml, app/views/projects/milestones/_header_title.html.haml, app/views/projects/milestones/edit.html.haml, app/views/projects/milestones/index.html.haml, app/views/projects/milestones/new.html.haml, app/views/projects/milestones/show.html.haml, app/views/projects/network/show.html.haml, app/views/projects/new.html.haml, app/views/projects/notes/_commit_discussion.html.haml, app/views/projects/notes/_diff_notes_with_reply.html.haml, app/views/projects/notes/_diff_notes_with_reply_parallel.html.haml, app/views/projects/notes/_discussion.html.haml, app/views/projects/notes/_form.html.haml, app/views/projects/notes/_note.html.haml, app/views/projects/notes/_notes.html.haml, app/views/projects/notes/discussions/_active.html.haml, app/views/projects/notes/discussions/_commit.html.haml, app/views/projects/notes/discussions/_diff.html.haml, app/views/projects/notes/discussions/_outdated.html.haml, app/views/projects/project_members/_header_title.html.haml, app/views/projects/project_members/import.html.haml, app/views/projects/project_members/index.html.haml, app/views/projects/protected_branches/_branches_list.html.haml, app/views/projects/releases/edit.html.haml, app/views/projects/repositories/_feed.html.haml, app/views/projects/runners/_runner.html.haml, app/views/projects/runners/_specific_runners.html.haml, app/views/projects/runners/edit.html.haml, app/views/projects/runners/show.html.haml, app/views/projects/services/_form.html.haml, app/views/projects/services/index.html.haml, app/views/projects/show.html.haml, app/views/projects/snippets/_actions.html.haml, app/views/projects/snippets/_header_title.html.haml, app/views/projects/snippets/edit.html.haml, app/views/projects/snippets/index.html.haml, app/views/projects/snippets/new.html.haml, app/views/projects/snippets/show.html.haml, app/views/projects/tags/index.html.haml, app/views/projects/tags/new.html.haml, app/views/projects/tags/show.html.haml, app/views/projects/tree/show.html.haml, app/views/projects/triggers/index.html.haml, app/views/projects/variables/show.html.haml, app/views/projects/wikis/_header_title.html.haml, app/views/projects/wikis/edit.html.haml, app/views/projects/wikis/empty.html.haml, app/views/projects/wikis/git_access.html.haml, app/views/projects/wikis/history.html.haml, app/views/projects/wikis/pages.html.haml, app/views/projects/wikis/show.html.haml, app/views/search/results/_issue.html.haml, app/views/search/results/_merge_request.html.haml, app/views/search/results/_note.html.haml, app/views/shared/_clone_panel.html.haml, app/views/shared/_event_filter.html.haml, app/views/shared/_sort_dropdown.html.haml, app/views/shared/groups/_list.html.haml, app/views/shared/issuable/_filter.html.haml, app/views/shared/issuable/_form.html.haml, app/views/shared/issuable/_search_form.html.haml, app/views/shared/issuable/_sidebar.html.haml, app/views/shared/milestones/_participants_tab.html.haml, app/views/shared/projects/_project.html.haml, app/views/shared/snippets/_header.html.haml, app/views/snippets/_actions.html.haml, app/views/snippets/show.html.haml, app/views/users/calendar.html.haml, app/views/users/calendar_activities.html.haml, app/views/users/show.html.haml, app/workers/emails_on_push_worker.rb, app/workers/project_export_worker.rb, app/workers/repository_fork_worker.rb, app/workers/repository_import_worker.rb, lib/api/api.rb, lib/api/api_guard.rb, lib/api/commit_statuses.rb, lib/api/commits.rb, lib/api/entities.rb, lib/api/groups.rb, lib/api/helpers.rb, lib/api/issues.rb, lib/api/labels.rb, lib/api/licenses.rb, lib/api/merge_requests.rb, lib/api/notes.rb, lib/api/projects.rb, lib/api/runners.rb, lib/api/users.rb, lib/backup/manager.rb, lib/banzai/filter/abstract_reference_filter.rb, lib/banzai/filter/commit_range_reference_filter.rb, lib/banzai/filter/commit_reference_filter.rb, lib/banzai/filter/external_issue_reference_filter.rb, lib/banzai/filter/issue_reference_filter.rb, lib/banzai/filter/label_reference_filter.rb, lib/banzai/filter/merge_request_reference_filter.rb, lib/banzai/filter/milestone_reference_filter.rb, lib/banzai/filter/redactor_filter.rb, lib/banzai/filter/reference_filter.rb, lib/banzai/filter/reference_gatherer_filter.rb, lib/banzai/filter/sanitization_filter.rb, lib/banzai/filter/snippet_reference_filter.rb, lib/banzai/filter/upload_link_filter.rb, lib/banzai/filter/user_reference_filter.rb, lib/banzai/filter/wiki_link_filter.rb, lib/banzai/lazy_reference.rb, lib/banzai/pipeline/gfm_pipeline.rb, lib/banzai/pipeline/reference_extraction_pipeline.rb, lib/banzai/reference_extractor.rb, lib/ci/ansi2html.rb, lib/ci/api/api.rb, lib/ci/api/runners.rb, lib/ci/charts.rb, lib/ci/gitlab_ci_yaml_processor.rb, lib/event_filter.rb, lib/gitlab.rb, lib/gitlab/backend/shell.rb, lib/gitlab/bitbucket_import/client.rb, lib/gitlab/bitbucket_import/project_creator.rb, lib/gitlab/ci/build/artifacts/metadata.rb, lib/gitlab/contributions_calendar.rb, lib/gitlab/current_settings.rb, lib/gitlab/database.rb, lib/gitlab/diff/inline_diff_marker.rb, lib/gitlab/diff/parser.rb, lib/gitlab/email/message/repository_push.rb, lib/gitlab/email/reply_parser.rb, lib/gitlab/fogbugz_import/project_creator.rb, lib/gitlab/github_import/importer.rb, lib/gitlab/github_import/pull_request_formatter.rb, lib/gitlab/gitlab_import/importer.rb, lib/gitlab/google_code_import/project_creator.rb, lib/gitlab/import_export.rb, lib/gitlab/import_export/attributes_finder.rb, lib/gitlab/import_export/command_line_util.rb, lib/gitlab/import_export/error.rb, lib/gitlab/import_export/import_export_reader.rb, lib/gitlab/import_export/project_tree_saver.rb, lib/gitlab/import_export/repo_bundler.rb, lib/gitlab/import_export/saver.rb, lib/gitlab/import_export/shared.rb, lib/gitlab/import_export/uploads_saver.rb, lib/gitlab/import_export/version_saver.rb, lib/gitlab/import_export/wiki_repo_bundler.rb, lib/gitlab/import_url.rb, lib/gitlab/markup_helper.rb, lib/gitlab/metrics/instrumentation.rb, lib/gitlab/metrics/subscribers/rails_cache.rb, lib/gitlab/middleware/go.rb, lib/gitlab/project_search_results.rb, lib/gitlab/redis.rb, lib/gitlab/reference_extractor.rb, lib/gitlab/regex.rb, lib/gitlab/sanitizers/svg.rb, lib/gitlab/sanitizers/svg/whitelist.rb, lib/gitlab/url_builder.rb, lib/gitlab/visibility_level.rb]","0.0","0.0","[721014c92799219d357b1b7c971d4c0b6050ff2a, 3e99123095b26988de67a94b0e7a5207c1ef5ae2, 7df495fb7702f3635d6746cb9b0d79d00eafed80, 816dfcb1c54277ce5e3e3da1a0c1028b4c2cdb3c, 30f4dcd4c906a71db98833075c76eb59922f5b98, a5f04ad48849b94aabeeb7450c6059e76372855c, 301d64b84943f7f91588c330f2d22c172f529d52, bcda64c75c15e2fb1343378a9d07e4659ae4acda, 7733f56d80f84ada4c4fef8cc4a5ab9357af0dc5, 504c186f7139df71dbea596b422d833f32348f46, 5777ad9a1f016f170585949059b08a4eeb7d19a9, f386d7a7b7f67ba8e77ee40ef6a3383d5206d0c1, 2dff04f24a8446216e12d43fab6841f28f3dd406, 8165e52045711958abbb94ee9ea2c00056ccadda, b2b7b38c944436af5257b1b38d612aeb3d2f237e, cffae0d22ee159b78f66eb68cae9df4bcb9e83e5, 49e6fc40b9d23b4081139a3ad141722a6b1f7cfc, a5d59f075a4a9a301ef985eb7cc6cdfdf3e73955, 6a12ff6345e517af9cf07cb61f3a0ea85562f399]","0.749 seconds","4.2.6","[rspec-rails, simplecov, coveralls, factory_girl]","0","[]","0","0","[]","false","0.0","0","","0",""
"gitlabhq","20786","[02-06-2016]","1","3","[Refactor. Add tests. , Invalidate cache on build change , Cache project build count. Closes #18032 ]","1","1","0","0","0","[]","0","[path:features/project/builds/summary.feature, size:2]","2","","0","","0","","0","","[]","","0","0","4","[]","[app/models/ci/build.rb, app/models/project.rb, app/views/layouts/nav/_project.html.haml, app/views/projects/pipelines/_head.html.haml]","0.0","0.0","[2605a0a844f187daeeff1f16920db445f53e2793, 4d9622e7d3e927ad158d26c780fee64c6d8183bc, 2d05de7af8de9a11f5bdfec0dd3f294a0148d023]","0.776 seconds","4.2.6","[rspec-rails, simplecov, coveralls, factory_girl]","0","[]","0","0","[]","false","0.0","0","","0",""
"gitlabhq","20919","[16-05-2016, 17-05-2016, 19-05-2016, 23-05-2016]","8","10","[Change rgba to hex; use sass variables to calculate header height , Redesign sublevel nav links; vertically align project image; fix spacing , Fix alignment of repo buttons , Redesign project page header , Fix dashboard shortcuts  Signed-off-by: Dmitriy Zaporozhets <dmitriy.zaporozhets@gmail.com> , Fix file browsing test  Signed-off-by: Dmitriy Zaporozhets <dmitriy.zaporozhets@gmail.com> , Fix shortcuts tests  Signed-off-by: Dmitriy Zaporozhets <dmitriy.zaporozhets@gmail.com> , Modify tests to match new navigation behaviour for project pages  Signed-off-by: Dmitriy Zaporozhets <dmitriy.zaporozhets@gmail.com> , Fix spec for new project navigation  Signed-off-by: Dmitriy Zaporozhets <dmitriy.zaporozhets@gmail.com> , Implement new horizontal navigation to project pages  Signed-off-by: Dmitriy Zaporozhets <dmitriy.zaporozhets@gmail.com> ]","2","1","0","0","0","[]","0","[path:features/project/active_tab.feature, size:2]","2","","0","","0","","0","","[]","","0","0","11","[]","[app/helpers/tab_helper.rb, app/views/layouts/nav/_dashboard.html.haml, app/views/layouts/nav/_project.html.haml, app/views/layouts/nav/_project_settings.html.haml, app/views/layouts/project.html.haml, app/views/layouts/project_settings.html.haml, app/views/projects/_home_panel.html.haml, app/views/projects/buttons/_dropdown.html.haml, app/views/projects/buttons/_notifications.html.haml, app/views/projects/show.html.haml, app/views/shared/_clone_panel.html.haml]","0.0","0.0","[75532a65702cafc890ec83126a8ca948a8683015, 3c8d209e16c606c5122d5aee455d051e65c6dab0, 5436bfa82230f7ba4532a2b09d035cfc733e8657, 5bb7fa1bd93f697a6023c738b7a1f9411fbecac9, 5ba52693830bfa2d5c70a343b8c2ceace0f20ccd, 442083e0fcc2d7ee9a3b202a1ebfdeaa659bb6ad, ff5109e19cc6a34c8919da1be4aa6f7b53afdef9, 79b9ff60768644287daace5a8f640d1790816353, 7365ac60f116d0e0a89a3bd8ebcf558b477c4bc3, 29211b48d785d18c3af59a11e07abaf820086701]","0.723 seconds","4.2.6","[rspec-rails, simplecov, coveralls, factory_girl]","0","[]","0","0","[]","false","0.0","0","","0",""
"gitlabhq","21178","[04-05-2016]","1","1","[Backport changes from gitlab-org/gitlab-ee!372  Mostly replaces several Spinach tests with RSpec Feature tests. ]","1","1","0","0","0","[]","0","","0","","0","","0","","0","","[]","","0","0","1","[]","[app/helpers/projects_helper.rb]","0.0","0.0","[f18ec70743375024aa7ec7bb86c437ca9198e729]","0.700 seconds","4.2.6","[rspec-rails, simplecov, coveralls, factory_girl]","0","[]","0","0","[]","false","0.0","0","","0",""
"gitlabhq","21219","[04-05-2016]","1","4","[Revert counter parentheses back to badges , Change build icons into buttons; update tests , Builds page redesign , Start builds redesign ]","1","3","0","0","0","[]","0","[path:features/project/merge_requests.feature, size:2]","2","","0","","0","","0","","[]","","0","0","52","[]","[app/helpers/application_helper.rb, app/views/admin/builds/_build.html.haml, app/views/admin/builds/index.html.haml, app/views/admin/logs/show.html.haml, app/views/admin/users/index.html.haml, app/views/dashboard/snippets/index.html.haml, app/views/dashboard/todos/index.html.haml, app/views/events/_event_last_push.html.haml, app/views/explore/groups/index.html.haml, app/views/explore/snippets/index.html.haml, app/views/groups/issues.html.haml, app/views/groups/merge_requests.html.haml, app/views/groups/milestones/index.html.haml, app/views/help/ui.html.haml, app/views/projects/_last_push.html.haml, app/views/projects/_readme.html.haml, app/views/projects/artifacts/browse.html.haml, app/views/projects/branches/index.html.haml, app/views/projects/builds/index.html.haml, app/views/projects/builds/show.html.haml, app/views/projects/ci/builds/_build.html.haml, app/views/projects/commit/_ci_commit.html.haml, app/views/projects/commit/_ci_menu.html.haml, app/views/projects/commit/_commit_box.html.haml, app/views/projects/commit/branches.html.haml, app/views/projects/commits/_head.html.haml, app/views/projects/commits/show.html.haml, app/views/projects/compare/index.html.haml, app/views/projects/compare/show.html.haml, app/views/projects/empty.html.haml, app/views/projects/graphs/ci.html.haml, app/views/projects/graphs/commits.html.haml, app/views/projects/graphs/languages.html.haml, app/views/projects/graphs/show.html.haml, app/views/projects/merge_requests/_show.html.haml, app/views/projects/network/_head.html.haml, app/views/projects/releases/edit.html.haml, app/views/projects/show.html.haml, app/views/projects/snippets/index.html.haml, app/views/projects/tags/index.html.haml, app/views/projects/tags/show.html.haml, app/views/projects/wikis/git_access.html.haml, app/views/search/_results.html.haml, app/views/shared/issuable/_filter.html.haml, app/views/shared/issuable/_form.html.haml, app/views/shared/milestones/_top.html.haml, app/views/shared/snippets/_header.html.haml, app/views/sherlock/file_samples/show.html.haml, app/views/sherlock/queries/show.html.haml, app/views/sherlock/transactions/index.html.haml, app/views/sherlock/transactions/show.html.haml, app/views/users/show.html.haml]","0.0","0.0","[8d19955c05f18675fc16dee6ca0f4da24013e816, 3a3f0bf436007b3eecc0b85d0fc696951245ab6a, fc20639c8d76b367dc0e0b66ef94033697b28dc7, 7878eb9fa69123981281c2d71a2964dca1b459ee]","0.678 seconds","4.2.6","[rspec-rails, simplecov, coveralls, factory_girl]","0","[]","0","0","[]","false","0.0","0","","0",""
"gitlabhq","21227","[05-05-2016]","1","2","[fix import feature v2 , fix import feature ]","1","1","0","0","0","[]","0","[path:features/dashboard/new_project.feature, size:2]","2","","0","","0","","0","","[]","","0","0","1","[]","[lib/gitlab/import_sources.rb]","0.0","0.0","[e14d1051d2c04bad514d840e1eff35ce24b05922, a9ac9ed105a710194099a4e07a2e87712d59a59a]","0.719 seconds","4.2.6","[rspec-rails, simplecov, coveralls, factory_girl]","0","[]","0","0","[]","false","0.0","0","","0",""
"gitlabhq","21312","[25-04-2016]","1","2","[Updated tests for deploy keys , Project deploy keys updated UI  Closes #13992 ]","1","1","0","0","0","[]","0","[path:features/project/deploy_keys.feature, size:2]","2","","0","","0","","0","","[]","","0","0","4","[]","[app/controllers/projects/deploy_keys_controller.rb, app/views/projects/deploy_keys/_deploy_key.html.haml, app/views/projects/deploy_keys/_form.html.haml, app/views/projects/deploy_keys/index.html.haml]","0.0","0.0","[54493b9aaef6b2209889a414cf3a26da131eb0ca, 756185533cfef42f85f5ad5cf687768e9ed82bb5]","0.766 seconds","4.2.6","[rspec-rails, simplecov, coveralls, factory_girl]","0","[]","0","0","[]","false","0.0","0","","0",""
"gitlabhq","21450","[18-04-2016]","1","12","[Add shortcut_path to GonHelper module , Expose shortcuts url from the backend via gon  Signed-off-by: Alfredo Sumaran <alfredo@gitlab.com> , Use proper method , Fix specs , Remove @focus , Add tests for the ""i"" shortcut , Update shortcuts image , Update shortcuts dialog , Update CHANGELOG , Set `i` as a shortcut for creating a new issue , Toggle help modal , Set ""l"" for Label shortcut ]","1","1","0","0","0","[]","0","[path:features/project/shortcuts.feature, size:2]","2","","0","","0","","0","","[]","","0","0","3","[]","[app/views/help/_shortcuts.html.haml, app/views/layouts/nav/_project.html.haml, lib/gitlab/gon_helper.rb]","0.0","0.0","[b41ddf9c6977e311b5085de8467ab450aa81b71b, 21063c60ba7f149635440611706bb3ec0aa3a7be, eaedc49ea3775464d05678f2b8929e4d03a742d5, ef818d0964b86dfd154ac96c482e66abb928a624, 57b7599d1719afdbb73d2ecb603770b3f3392e24, b9af0305c371b557be42ce831330bc2787dfcf85, 29734516e1558812204973865b0ee848c92f0f7c, 1a47c081c86e0822995250513683b2cf7621d389, 749abfaf2aa9e6f26bc2010fe9e7d1f04ff3c71a, eb45c48d20f7eea6d2a3f482b85101ee9d4f9d40, 91de6e2586fe22adcba440a6e2a889c72aa3b8c8, 7f15307754666a03292296b383747568f0b594b2]","0.724 seconds","4.2.6","[rspec-rails, simplecov, coveralls, factory_girl]","0","[]","0","0","[]","false","0.0","0","","0",""
"gitlabhq","21667","[07-04-2016]","1","10","[Remove comment count & icon from side by side view , Diff touch ups , Fix lint errors , Remove comment count & icon , Diff design updates , Merge conflict fixes , Update diff_comments tests , Update diff colors and icons , Move diff colors to variables , Change reply button to text field ]","1","2","0","0","0","[]","0","[path:features/project/commits/diff_comments.feature, size:3]","3","","0","","0","","0","","[]","","0","0","8","[]","[app/helpers/blob_helper.rb, app/helpers/commits_helper.rb, app/helpers/notes_helper.rb, app/views/projects/diffs/_diffs.html.haml, app/views/projects/diffs/_file.html.haml, app/views/projects/notes/_diff_notes_with_reply.html.haml, app/views/projects/notes/_diff_notes_with_reply_parallel.html.haml, app/views/projects/notes/_note.html.haml]","0.0","0.0","[e65bccfcc3956a13ffc04f0a72226afe97b6b69d, d76878b96040c8ae4752600aceb30200fa0049a0, 6ee2069768279a9f9e03ae20f10b906a807a5eb7, 04e798a5154b2b2a86288f51081da8495f96bee5, dab4ac54b691f1c832b1fe444859c3183a231411, 3cfeb3755828871813cd12c771fa7efddf67edb5, 87b3c73ea560d6091a17e7b759864b90911f5f1c, de63de18d77624d49b6a9d150f2581be0ac55e00, c80c1da7802c372607f5a025ef2f3e25202734c3, b59d4e861c5e7e9d9113afbadeef6528be321a79]","0.709 seconds","4.2.5.2","[rspec-rails, simplecov, coveralls, factory_girl]","0","[]","0","0","[]","false","0.0","0","","0",""
"gitlabhq","21686","[07-04-2016]","1","1","[Revert ""Merge branch 'new-navigation-prototype' into 'master'""  This reverts merge request !3494]","1","3","0","0","0","[]","0","[path:features/groups.feature, size:2], [path:features/project/project.feature, size:3]","5","","0","","0","","0","","[]","","0","0","7","[]","[app/views/layouts/_collapse_button.html.haml, app/views/layouts/_page.html.haml, app/views/layouts/nav/_admin.html.haml, app/views/layouts/nav/_dashboard.html.haml, app/views/layouts/nav/_group.html.haml, app/views/layouts/nav/_profile.html.haml, app/views/layouts/nav/_project.html.haml]","0.0","0.0","[f2b7cd443566f6ceefcbecbd52c8484afe264402]","0.702 seconds","4.2.5.2","[rspec-rails, simplecov, coveralls, factory_girl]","0","[]","0","0","[]","false","0.0","0","","0",""
"gitlabhq","21752","[04-04-2016]","1","1","[Merge branch 'hide_profile_activity_on_mobile' into 'master'  Hide user profile activity graph on mobile  closes #14507   ## Before ![Screen_Shot_2016-03-26_at_10.28.21_PM](/uploads/5d5e2f77de936c2f2cd8a95132720a81/Screen_Shot_2016-03-26_at_10.28.21_PM.png)  ## After ![Screen_Shot_2016-03-26_at_10.27.01_PM](/uploads/c011497b31368a0b7aa7d851541ac301/Screen_Shot_2016-03-26_at_10.27.01_PM.png)  ## Medium width screen ![fix2](/uploads/2a5eb2d01f1a516991cd3e2b35b8aadc/fix2.gif)  See merge request !3412]","1","1","0","0","0","[]","0","[path:features/dashboard/dashboard.feature, size:2]","2","","0","","0","","0","","[app/views/layouts/_collapse_button.html.haml]","","0","0","68","[]","[app/controllers/admin/application_settings_controller.rb, app/controllers/projects/merge_requests_controller.rb, app/controllers/projects_controller.rb, app/helpers/application_settings_helper.rb, app/helpers/events_helper.rb, app/models/application_setting.rb, app/models/commit.rb, app/models/commit_range.rb, app/models/concerns/issuable.rb, app/models/external_issue.rb, app/models/issue.rb, app/models/label.rb, app/models/merge_request.rb, app/models/milestone.rb, app/models/note.rb, app/models/project.rb, app/models/project_services/gitlab_issue_tracker_service.rb, app/models/project_services/jira_service.rb, app/models/repository.rb, app/models/snippet.rb, app/models/user.rb, app/services/issues/move_service.rb, app/services/projects/unlink_fork_service.rb, app/services/system_note_service.rb, app/services/todo_service.rb, app/uploaders/file_uploader.rb, app/views/admin/application_settings/_form.html.haml, app/views/events/event/_created_project.html.haml, app/views/layouts/_page.html.haml, app/views/layouts/nav/_admin.html.haml, app/views/layouts/nav/_dashboard.html.haml, app/views/layouts/nav/_group.html.haml, app/views/layouts/nav/_profile.html.haml, app/views/layouts/nav/_project.html.haml, app/views/projects/buttons/_dropdown.html.haml, app/views/projects/ci/builds/_build.html.haml, app/views/projects/diffs/_image.html.haml, app/views/projects/merge_requests/widget/_heading.html.haml, app/views/projects/merge_requests/widget/_show.html.haml, app/views/projects/notes/_note.html.haml, app/views/projects/notes/discussions/_active.html.haml, app/views/projects/notes/discussions/_commit.html.haml, app/views/projects/notes/discussions/_outdated.html.haml, app/views/search/results/_note.html.haml, app/views/shared/issuable/_filter.html.haml, app/views/shared/issuable/_label_dropdown.html.haml, app/views/shared/issuable/_milestone_dropdown.html.haml, app/views/votes/_votes_block.html.haml, lib/api/entities.rb, lib/api/projects.rb, lib/banzai/filter/abstract_reference_filter.rb, lib/banzai/filter/commit_range_reference_filter.rb, lib/banzai/filter/commit_reference_filter.rb, lib/banzai/filter/external_issue_reference_filter.rb, lib/banzai/filter/label_reference_filter.rb, lib/banzai/filter/merge_request_reference_filter.rb, lib/banzai/filter/milestone_reference_filter.rb, lib/banzai/filter/reference_filter.rb, lib/banzai/filter/snippet_reference_filter.rb, lib/banzai/filter/user_reference_filter.rb, lib/gitlab/current_settings.rb, lib/gitlab/email/message/repository_push.rb, lib/gitlab/fogbugz_import/client.rb, lib/gitlab/gfm/reference_rewriter.rb, lib/gitlab/gfm/uploads_rewriter.rb, lib/gitlab/note_data_builder.rb, lib/gitlab/routing.rb, lib/gitlab/url_builder.rb]","0.0","0.0","[c653b1b4889a4fd82ebdfdfc0df8c7fe8956b167]","0.677 seconds","4.2.5.2","[rspec-rails, simplecov, coveralls, factory_girl]","0","[]","0","0","[]","true","0.0","0","","0",""
"gitlabhq","21768","[02-04-2016]","1","1","[  Fix bug related to filtering Issues by Label/Milestone.    This problem only was affecting the dev env. ]","1","1","0","0","0","[]","0","[path:features/dashboard/dashboard.feature, size:2]","2","","0","","0","","0","","[]","","0","0","1","[]","[app/models/concerns/issuable.rb]","0.0","0.0","[fd090a2fab64332907953a1525cf5c822d983993]","0.665 seconds","4.2.5.2","[rspec-rails, simplecov, coveralls, factory_girl]","0","[]","0","0","[]","false","0.0","0","","0",""
