"Repository","https://github.com/EFForg/action-center-platform.git"
"Tasks with empty IReal","0"
"Tasks with no-empty IReal","2"
"Tasks with relevant AST error","0"
"Tasks with AST error of Gherkin files","0"
"Tasks with AST error of StepDef files","0"
"Tasks with AST error of production files","0"
"Tasks with AST error of unit test files","0"
"Tasks with step match error","0"
"Tasks without required gems","0"
"Tasks with changed stepdef","2"
"Tasks with changed Gherkin","2"
"Tasks with implemented Gherkin scenarios","2"
"All invalid tasks","0"
"All valid tasks (Gherkin scenario, no empty IReal, no error)","2"
"Valid tasks, but empty ITest","0"
"Valid tasks, no empty ITest, but zero precision-recall","0"
"Valid tasks, no empty ITest, no zero precision-recall","2"
"Project","Task","Date","#Days","#Commits","Commit_Message","#Devs","#Gherkin_Tests","#Impl_Gherkin_Tests","#StepDef","#Impl_StepDef","Methods_Unknown_Type","#Step_Call","Step_Match_Errors","#Step_Match_Error","AST_Errors","#AST_Errors","Gherkin_AST_Errors","#Gherkin_AST_Errors","Steps_AST_Errors","#Steps_AST_Errors","Renamed_Files","Deleted_Files","NotFound_Views","#Views","#TestI","#TaskI","TestI","TaskI","Precision","Recall","Hashes","Timestamp","Rails","Gems","#Visit_Call","Lost_visit_call","#Views_ITest","#Code_View_Analysis","Code_View_Analysis","Has_Merge","F2","#Multiple_Step_Matches","Multiple_Step_Matches","#Generic_Step_Keyword","Generic_Step_Keyword"
"action-center-platform","225","[10-12-2015]","1","2","[[security] dashboard page now sends headers telling browser not to cache it , wrote failing using cucumber ]","1","3","3","18","18","[page, html, include, have_content, not_to, click, find, set, page, evaluate_script, fill_in, click_button, change, get email alerts]","0","","0","","0","","0","","0","","[]","[/login, /logout]","2","20","2","[app/controllers/admin/action_pages_controller.rb, app/controllers/admin/topic_categories_controller.rb, app/controllers/admin/topic_sets_controller.rb, app/controllers/partners_controller.rb, app/controllers/users_controller.rb, app/controllers/welcome_controller.rb, app/models/action_page.rb, app/models/user.rb, app/views/admin/_header.html.erb, app/views/admin/_nav_tabs.html.erb, app/views/admin/action_pages/_date_range_form.html.erb, app/views/admin/action_pages/_date_vars.html.erb, app/views/admin/action_pages/index.html.erb, app/views/devise/registrations/edit.html.erb, app/views/subscriptions/_form.html.erb, app/views/tools/_loading.html.erb, app/views/users/edit.html.erb, app/views/users/show.html.erb, app/views/welcome/_meta_tags.html.erb, app/views/welcome/index.html.erb]","[app/controllers/application_controller.rb, app/controllers/users_controller.rb]","0.05","0.5","[c72d06d7bbf75b3f6082a0849b830a669b1be39c, a7f0d5036e476c1c1594b96ef3bb1e9f74b88248]","2.895 seconds","4.1.10","[cucumber-rails, rspec-rails, factory_girl]","6","[]","12","18","[app/controllers/admin/action_pages_controller.rb, app/controllers/admin/topic_categories_controller.rb, app/controllers/admin/topic_sets_controller.rb, app/controllers/partners_controller.rb, app/controllers/users_controller.rb, app/controllers/welcome_controller.rb, app/views/admin/_header.html.erb, app/views/admin/_nav_tabs.html.erb, app/views/admin/action_pages/_date_range_form.html.erb, app/views/admin/action_pages/_date_vars.html.erb, app/views/admin/action_pages/index.html.erb, app/views/devise/registrations/edit.html.erb, app/views/subscriptions/_form.html.erb, app/views/tools/_loading.html.erb, app/views/users/edit.html.erb, app/views/users/show.html.erb, app/views/welcome/_meta_tags.html.erb, app/views/welcome/index.html.erb]","false","0.1785714285714286","0","","0",""
"action-center-platform","226","[03-12-2015]","1","1","[added cucumber testing ]","1","2","2","12","12","[page, html, include, have_content, not_to, click, find, set, fill_in, click_button, get email alerts]","0","","0","","0","","0","","0","","[]","[/login, /logout]","2","13","3","[app/controllers/admin/action_pages_controller.rb, app/controllers/welcome_controller.rb, app/models/action_page.rb, app/models/user.rb, app/views/admin/_header.html.erb, app/views/admin/_nav_tabs.html.erb, app/views/admin/action_pages/_date_range_form.html.erb, app/views/admin/action_pages/_date_vars.html.erb, app/views/admin/action_pages/index.html.erb, app/views/subscriptions/_form.html.erb, app/views/tools/_loading.html.erb, app/views/welcome/_meta_tags.html.erb, app/views/welcome/index.html.erb]","[app/controllers/admin/action_pages_controller.rb, app/controllers/tools_controller.rb, app/models/user.rb]","0.1538461538","0.6666666667","[7050403a9e41024f25dc693cf034c0a455e45180]","2.642 seconds","4.1.10","[cucumber-rails, rspec-rails, factory_girl]","4","[]","9","11","[app/controllers/admin/action_pages_controller.rb, app/controllers/welcome_controller.rb, app/views/admin/_header.html.erb, app/views/admin/_nav_tabs.html.erb, app/views/admin/action_pages/_date_range_form.html.erb, app/views/admin/action_pages/_date_vars.html.erb, app/views/admin/action_pages/index.html.erb, app/views/subscriptions/_form.html.erb, app/views/tools/_loading.html.erb, app/views/welcome/_meta_tags.html.erb, app/views/welcome/index.html.erb]","false","0.39999999994720004","0","","0",""
