"Repository","https://github.com/alphagov/e-petitions.git"
"TASK","HASH","RUBY","RAILS","COVERAGE","TESTS"
"126","11fc547b2e0887ed754eb59640f591c07567e643","","4.2.5.1","","features/freya_searches_for_petitions_by_constituency.feature(46)"
"145","630149da7446ac76dd8c46fb8cfb1c84cf9180fb","","4.2.4","","features/admin/petition_email.feature(7);features/admin/petition_email.feature(25);features/admin/petition_email.feature(43);features/admin/petition_email.feature(61)"
"148","29699705f65b9d7958f87fa2aa1427b65cc8cfd3","","4.2.4","","features/suzie_signs_a_petition.feature(9);features/suzie_signs_a_petition.feature(19);features/suzie_signs_a_petition.feature(96)"
"149","8c4482a23d2143818eebbb9231ebecd3ab057f09","","4.2.4","","features/suzie_signs_a_petition.feature(9);features/suzie_signs_a_petition.feature(19);features/suzie_signs_a_petition.feature(96)"
"150","046113e0c696a852fa8bfd239719d3cdbb03eb03","","4.2.4","","features/suzie_signs_a_petition.feature(9);features/suzie_signs_a_petition.feature(19);features/suzie_signs_a_petition.feature(96)"
"153","c5340d874622c54b398cce1055c6d0f055f3e0ae","","4.2.4","","features/suzie_views_a_petition.feature(77);features/suzie_views_all_petitions.feature(74);features/admin/moderator_updates_petition_scheduled_debate_date.feature(4);features/admin/petition_email.feature(7);features/admin/providing_debate_outcome_information.feature(7)"
"155","157645baabddec50d3ee08b6c190fe24d2b079c0","","4.2.4","","features/suzie_views_a_petition.feature(64);features/suzie_views_a_petition.feature(69);features/admin/petition_email.feature(7)"
"157","182539451f7d154a16341c83b4827b9e3747c603","","4.2.4","","features/admin/moderator_responds_to_petition.feature(59);features/admin/moderator_responds_to_petition.feature(79);features/admin/moderator_responds_to_petition.feature(95)"
"159","48263469d8690139428154753bb83e7e4fbebbb0","","4.2.4","","features/robby_indexes_the_website.feature(7);features/robby_indexes_the_website.feature(11);features/robby_indexes_the_website.feature(16)"
"165","af3fe776a1dd4679e0e9a57b928291c8879e42c2","","4.2.4","","features/admin/search_for_signatures_by_email.feature(19);features/admin/search_for_signatures_by_email.feature(27);features/admin/search_for_signatures_by_email.feature(35)"
"171","f716fce538cc4928a099682c9264ce744b9cd140","","4.2.3","","features/admin/petition_email.feature(7)"
"172","8da610fac9e537db72f8aaa7b40e9255779a13b4","","4.2.3","","features/admin/moderator_responds_to_petition.feature(59);features/admin/moderator_responds_to_petition.feature(72);features/admin/moderator_responds_to_petition.feature(79);features/admin/moderator_responds_to_petition.feature(95);features/admin/takedown.feature(10);features/admin/takedown.feature(18);features/charlie_creates_a_petition.feature(25);features/charlie_creates_a_petition.feature(46);features/charlie_creates_a_petition.feature(56)"
"177","be4cb3b6cadf5e2b3be79d0051aa3a8dba6d00e8","","4.2.3","","features/suzie_signs_a_petition.feature(9);features/suzie_signs_a_petition.feature(19);features/suzie_signs_a_petition.feature(107)"
"178","7d12e1beb945e3754d1a59f1fa56f642fe151747","","4.2.3","","features/suzie_views_a_petition.feature(36)"
"214","e9e5356278204395d65f5be9468e0ad6dacfbe7d","","4.2.2","","features/laura_signs_charlies_petition_as_a_sponsor.feature(51);features/laura_signs_charlies_petition_as_a_sponsor.feature(57);features/laura_signs_charlies_petition_as_a_sponsor.feature(63)"
"215","70f5c8ed32934c916b0087432bd51b6f9c4b4c61","","4.2.2","","features/joe_views_an_archived_petition.feature(6);features/joe_views_an_archived_petition.feature(14);features/joe_views_an_archived_petition.feature(47)"
"242","dcc3f3051028a876da12f9f5e6bd8dee5888b9db","","4.2.2","","features/admin/moderator_responds_to_petition.feature(103)"
"247","1ad0b8e2924bb3c2771c935e057c3ff6ebe00b61","","4.2.2","","features/suzie_searches_by_free_text.feature(77);features/suzie_views_all_petitions.feature(61);features/suzie_views_all_petitions.feature(74)"
"249","87404ae94e51d0a92cdf3eb1ff52e6f6cc8d2cf4","","4.2.2","","features/suzie_sees_actioned_petitions.feature(6);features/suzie_sees_actioned_petitions.feature(12);features/suzie_sees_actioned_petitions.feature(20);features/suzie_sees_actioned_petitions.feature(28);features/suzie_sees_actioned_petitions.feature(39)"
"252","c9afd67fd657990328e31b9003803a6d673d0781","","4.2.2","","features/suzie_searches_by_free_text.feature(31);features/suzie_searches_by_free_text.feature(67);features/suzie_views_all_petitions.feature(12);features/suzie_views_all_petitions.feature(24);features/suzie_views_all_petitions.feature(36);features/suzie_views_all_petitions.feature(49);features/suzie_views_all_petitions.feature(61);features/suzie_views_all_petitions.feature(74)"
"254","220638fb13864714418b6c85dec92cb887aab776","","4.2.2","","features/user_sees_static_stuff.feature(5);features/user_sees_static_stuff.feature(12);features/user_sees_static_stuff.feature(19)"
"256","5b356a34867b4fe364dbdc0b99e4a490db54d60b","","4.2.2","","features/admin/notes.feature(9);features/admin/notes.feature(22)"
"261","6121d86e667b30f76a752c4623bb9a048b34e8a4","","4.2.2","","features/charlie_creates_a_petition.feature(18)"
"263","f05e204441773ff1f655b57a4067df476303bfb2","","4.2.2","","features/freya_searches_for_petitions_by_constituency.feature(39)"
"267","28a02265722117235e77becf799328959cdc7cc2","","4.2.2","","features/admin/moderator_updates_petition_scheduled_debate_date.feature(3);features/admin/moderator_responds_to_petition.feature(14);features/admin/moderator_responds_to_petition.feature(32);features/admin/moderator_responds_to_petition.feature(43);features/admin/providing_debate_outcome_information.feature(6)"
