"REPO_URL","TASK_ID","#HASHES","HASHES","#PROD_FILES","#TEST_FILES","LAST"
"https://github.com/diaspora/diaspora.git","1496","1","[63abe9055b3594f6abedad7fc36f230f493e3029]","3","3","63abe9055b3594f6abedad7fc36f230f493e3029","ee3a9f9be04bd3b4ac5d825176421786ff02fdd7","682a49605ef84fd8ca83b7e376707adcee98fa7b"
"https://github.com/diaspora/diaspora.git","1500","1","[2d3933ccd8498e4d1cd320062fdf2c206fa5eba7]","1","2","2d3933ccd8498e4d1cd320062fdf2c206fa5eba7","682a49605ef84fd8ca83b7e376707adcee98fa7b","f356ae7216d21d1fbf7c239531d2ff1193f0ecb4"
"https://github.com/diaspora/diaspora.git","1501","6","[5c8d615b67ca95bf72ffddcfef484fca3bfa9f54, 5556420740cbf8dcc14292a79acef23561e68192, dff486f1ecc3d6eb652384c386eb3d14554617c9, 02ed7144a00007daab6a8e90a87687a03d40f0fa, 5a60cb72bf2cf0b08e36219986746de8151c3482, f356ae7216d21d1fbf7c239531d2ff1193f0ecb4]","1","1","5c8d615b67ca95bf72ffddcfef484fca3bfa9f54","79bc1a780004d853f9bf498f21ded59e4c4112ea","c634aba2677b6b59401a40e1927d051ef36cc696"
"https://github.com/diaspora/diaspora.git","1509","24","[faad980df0f6c7bb434f7b99bc0b041dcead4445, 4130592ca5d131505b246eacb6701c425c3df40e, 6f3844b73bb954e5e1bbf8d18c9dfbc31a02810f, 4174b88987b8b5c4a7420020794a05af2569acca, 167884e5653adafb8964b2981c1b82f117a51d87, a3837a4f190be833397605e86e20efa8ae8dc7da, 2d0abbae23d7a3725578b862bb98b44d9e395ef3, dde39aa1bb019ed88b0315adb9d6464234d2acba, a9843ae9968aab890090de9238ca41d0cee9d088, 8f9736a7413ad0b0d0babcf520831caf861d824a, 7dcf11e62923456a63a1128e73b3c92f8171a242, 9c24365fde4bff7bd51f18c1386a5929c06ed440, c484b2cd0c0759da82da58a92f009d9e8988ad2a, 12fabe2fb9d706880598bc9f87deade186ef7f25, e4c68a4edb7efc66222c215066e847099f652c85, d0a77ce6b3a9a0cefa1fc04c9caa665595ba569f, 04199837b3eef45c02789e02e4dd45a16f54d9d3, 18a43295b73555528f489269498d8047b5070703, 95d98ff2b630a2fb314cfdad1bef187671fd518b, c02414c36decded0016d54ed427caa1f1d03c332, 8a4f833d1def9ee780f958bee584c3a54c13c009, 5d560609e40505cda4cb90f34292bd4b291c7b4a, fe67bdf2e79d44928b99cca672067f3deb3934b5, dfbe17d046dc30caa076c0785746014d4d4d8922]","13","1","faad980df0f6c7bb434f7b99bc0b041dcead4445","211963d320719b1e6551e287643a1fe41b891da8","b2070774058ae07f1526b233b1431f4281c36bdd"
"https://github.com/diaspora/diaspora.git","1520","8","[b0a4d5d439056674dcc8a89b4e5fa2ceab9edc91, cd241ee94dd387289fb45e0004239ffce1402275, 029520a351bb92b796527125400f0b82348250d7, d9857a3a1076ea5c972f5ac24ebc5303ff4b072a, 23a91eb63ff9221399ab2d616069b4e3c665c1f2, 4fc9c6416ed19b99a897604e7c405bd188ee46a0, eabdc7390cab3d5f19e118fcc568925a68ff8d84, f217a5bc112b274affe5b4e7a44240aa946a228b]","16","1","b0a4d5d439056674dcc8a89b4e5fa2ceab9edc91","ab15bad53f4078dcea28a3ba4cc1ed9533e34683","835608f06f80e5d00d3d88ccbbb57f8deee098ff"
"https://github.com/diaspora/diaspora.git","1544","1","[2a145e67abb72c0b6b4d67cee79995b22f196f58]","5","1","2a145e67abb72c0b6b4d67cee79995b22f196f58","3a616469f4167e29c9770a287934666ddf6f362a","4a3869cda8b42eb7308dbc81f8e23c2786a85fe5"
"https://github.com/diaspora/diaspora.git","1546","1","[a2b391750578ea437c4b8439a4f2903ab512940c]","1","1","a2b391750578ea437c4b8439a4f2903ab512940c","3e3979cc288c78c55991e7f5335dc6b79b41f256","11b3fe7df404217ade9708f17c65cf0c34b286fe"
"https://github.com/diaspora/diaspora.git","1565","3","[7bfa7292faf99dba9d76a4397681cb4289749887, 0c5c17f5e2af8d61b3160ba7fea3340468437d8e, 234ce10cf57b6b01fb20ca1357fbbb67982ffb08]","71","49","7bfa7292faf99dba9d76a4397681cb4289749887","590778502d1cf3b2a9a99bc74a6ac6b7a55aa59e","edbed6c44a8d01ce689ac2bb6e97338e0b38745a"
"https://github.com/diaspora/diaspora.git","1576","6","[80acf6b057b95881a57012f692006551df321bc9, 580068ed7c15f0d7c841cf49b42fe0635d183d36, 88e05809828d03c102d76d285ba9d5d12e47cc24, 29a98ddc29f55beb8dd3fd8a23b74230c03c6e4d, 706b11b14df42302c666560c9c634bda72f674de, a1ac848d6237eca497f9acf9ab063418041e6bc1]","1","1","80acf6b057b95881a57012f692006551df321bc9","23c24e170dca3b40b7ccf6360b3389093f758518","42f790fa1316e15a6e83f455a28169ac6474fb60"
"https://github.com/diaspora/diaspora.git","1585","4","[d32bd8100a816d765a8e3695029f53a88f5fe612, 55b967caf9ca07c2490c8fa5d43537e1d59f521c, 54def634a728d35338d4c570cda2b5896eaa45b2, ae3b50080c7bfeaf3dab509e772c63b4108b8540]","6","1","d32bd8100a816d765a8e3695029f53a88f5fe612","2734471feb7e934ecdd13a931cf9496afbd5f293","5d83402dc3547e0f98133c230442cfc0df1ea06d"
"https://github.com/diaspora/diaspora.git","1588","15","[12ab9004c4979a6b3ad653b63e90ab732d7ad48b, 4dcc712ea137c9b6e58ec1712af1f9382dcfff1d, b3ebe1a40814a138e745c0bed986eafbf8c2e9fb, a96611c2595dd55aed8c1f2be8681696a4455c0e, 206e3f94221640abbf30bdcc8fd6388005a0706b, 24310fe5a9bb5bff4682dab9554bbd3ec6691dd0, 5ab777f8cb3e77b6754671ab5a40915edea2e557, c24cfb432d9a911b5299f857d0400a22120d4c1f, c11b744a7f0418e9bbb0ae66281c35b1ee8d7f21, c24d5193e45295451b73dfcc3b74c9d25f0f7ca7, 5c81da3147371a73e1121b8ee20db5a8439f226a, c12a45556d1073d56a609f5d24686a02b8c3eab1, bbbdd87519fe024f0b9e134195ea9a54bf6b4b33, 6aced29bb69b01957a3019f6ab6a653893c42d49, 923a4f2ab4970ef574fa7dd1160cbf8bdefee86e]","9","1","12ab9004c4979a6b3ad653b63e90ab732d7ad48b","78c923de8950393bbfd2682ca4528d47e699c815","c660c900918cea97c018cdfc4e43a9963b67c9f1"
"https://github.com/diaspora/diaspora.git","1604","2","[b1590b73afb4f804596de57f011f6021b99babd7, 1833edfd67606278a754e2d36c8dd3aa7d118fd5]","5","3","b1590b73afb4f804596de57f011f6021b99babd7","d8618f87004d2f055e33de49467c86c84bef20d1","859cd83e38f57f8d14050322dfa85b19b9667bc1"
"https://github.com/diaspora/diaspora.git","1613","1","[e614562470dfca7b6bc865666be1e73e4422278e]","1","1","e614562470dfca7b6bc865666be1e73e4422278e","6e62a99732f315c8f67a8e1020dec5b47f8db381","141fc814ba3a515edda8fad90e45206716d0ed2d"
"https://github.com/diaspora/diaspora.git","1629","7","[d4e1cebe685f4b6be31bb793c94b388fffe3d271, 78b31f5298a5c983670321f8c16752918a091b5f, 262925cc92b7cef8ef786f324704284617c25f3d, e47e5bd3be0a421d8dbeae8070c8cf61d8d7bce9, b2ff1878e31e0a9ee9326cd37793cb930e66e98f, 5ff05139a3b7f2beddf14d761d36ff4878debaa2, 5223a2d906f09ef6afd510e1657d85c894630205]","1","2","d4e1cebe685f4b6be31bb793c94b388fffe3d271","72e421b38fd894da5d263ccf9804c917c759d739","5eb5057864cceb506cc1d05401122532d4abe5fc"
"https://github.com/diaspora/diaspora.git","1633","1","[a4ce4404ff0135912a6fda1629525c9fe7230887]","3","1","a4ce4404ff0135912a6fda1629525c9fe7230887","991a50543988400913def697b897ba772027183f","0cdfc7cfbd9a94aea3e5373ab7c587217719d52e"
"https://github.com/diaspora/diaspora.git","1644","2","[7e3373a9a329495553fc0963fd8e21f9fac379f9, fa7a03e9a723092ed5d7bdd7cb38241a06425cba]","1","1","7e3373a9a329495553fc0963fd8e21f9fac379f9","e194a07f18f3b667ca483b3a34b99b41d255e4a6","ec97c2e7601d4fed7a065f31f1515b07b4338e83"
"https://github.com/diaspora/diaspora.git","1650","10","[2919c7c73f96da92ac546ff1c729c8f4e009ac8b, 38f01b9cd53a30a10f0f5d4990796947c11c64a4, c5c20926bf6f5637e5542c842ddcbedf5103913f, 3899e383ee090325f0a3c0e1fe36d114ad678429, 5f518fec0dcdb262ed419561560832076a5dc0f5, 324b09a72aeae8cee1b7757984af7d2f57215083, 748b38434f740a012e311fedd22ca6ff5f6fd1b5, 5238004effe8e7cbb5f4bd9f530e92913a81e3ac, 1067d6a731f9bb85ec295a4277f802d4bb58839e, f9a3990562de5a257bec9065b863327b851f7a0d]","21","1","2919c7c73f96da92ac546ff1c729c8f4e009ac8b","5d7d295067ef00f6df3d408757aec4e2b4a75886","e58019fe8e891b40a02fec88fa606660c37d7eba"
"https://github.com/diaspora/diaspora.git","1657","7","[a365d29896c4295f8cc314c26dec263e2a9b7ac5, 7fe972555aa964d61af87817589a7f046f087fe4, 6987bacaa31213af38edbdda60721733c0901948, ba886d127af908a4c598b0cf9808d0d647b2f394, 554d0a93d077ca9fb2e90292bcb248501a9c9ff3, a9e9961761d56b1cf465f1313040988669be9ee3, e5e63b09a33d4611e3e6c8e61ff02b566f8e9ca5]","6","1","a365d29896c4295f8cc314c26dec263e2a9b7ac5","1b7bc02eee45a89075f613685024e95cbdaa5536","9793827f201f1f2bf19f5c960bb28658ead52d15"
"https://github.com/diaspora/diaspora.git","1658","39","[96436c5ca66d2908be8a74822cf9d4cf3ade3b17, f337e4e9a0955ec13d81505a5478c245afb884fe, 532ec72bcf1ffa713cd368bc92e982da9eef900b, 796b6a805b7006aaf54fa27910f219cf14c561a7, 0012a82f4870747ce1475183f262261f85d01805, 039cf4dea13c7a8293fd90c30fbd35109c8170ca, a3547452836c648c8074c54a37eb39929398457b, 0de0d8855c625189d0f2028e1a1e5736e8fbdcea, 328fb7113f0938f7549c052a8cda3ca6f7b4eaea, f0b68ff6d1c5b5d17fd7aacfe2c1e4bfb18c9d95, 7c46a745824d7bc2b92d0e5dfdf6d55af96b357a, ee98cc2bab5e022f2e0ea97cdb5fe1a1de5496f0, 51ee8b4e93195c619aa76ce6f4a154c687207284, f9cb662ff7a956d8122b415b742d12d220a26f83, e036525e8dbb587958617a6aaa71d15578b67f69, ee960ae9fd98cd2a94ecd463d096d42c56f2a4d5, 059521b0aa26cc6ba2be286d91b8f4bb83ab9866, 867efeb80f1f8c02773a6b8266adca4ea3b172fd, 9996cbaf156535d9390c7c5113653bb83c0c10e3, c356e33f638e02772972758385e5aa1fceca32c1, 690e47c9469c288be5fd1fccbfa89f458c9d10d3, c6e2a9135946cfe2fddf418ea1047e2b1ee712a8, 96149cfe239db775f258bafdf0d0a4c87d317c66, 44ee6b4892fda9fbcdc3fddbd17d3f27e555e722, a875ce70114b034a2869da9160cdf94e4f03632f, 5bed6d8cf75e716daa187c4563f2d56c23ad5c7b, 79a849ad979f24542ab10f4dc3275fcfed32a0cd, c91124834059daf46276ac5ef62286b4db528ba4, fa7b756d4de7c1b00ffd7e2efa1a42ed42ed5e20, b8fb70d44e85c58c245cfe89870455d67732dd6c, d7aaaea86e21a6250355e6d61edf9db28cb021ec, 8c695ecec2a352b80af7abc6c1892da7a7b6243a, 72f8d58c06f67ff6eea8ff7852ebd4b9e3cfcd6d, 958793e3382489002b01925d2bd6ff147c07673d, 46d2240ed4405aaab8413bc95a3cb948b57d38f8, 149c812d036123170a4da2ff34b3539675870914, 10e52f970c24e7e72941c630d452f1cab5fcc41d, d63dc9f0a58d003696fdfa90f46c6dbfa9f1748d, abba8d8dfc29206da7744c78a06b6cbc29dbbe06]","2","1","96436c5ca66d2908be8a74822cf9d4cf3ade3b17","1b7bc02eee45a89075f613685024e95cbdaa5536","9793827f201f1f2bf19f5c960bb28658ead52d15"
"https://github.com/diaspora/diaspora.git","1661","1","[d1c679cc22a9b82c8d280f0c2a78fff733861394]","1","1","d1c679cc22a9b82c8d280f0c2a78fff733861394","684067be4fda28a544f41e3d14a4eecdc20500e9","73825ab94a46e85114556d5fbacd93fd6c49f4eb"
"https://github.com/diaspora/diaspora.git","1665","1","[795a7a575180dc214b636d097936bdb8ea6ef1e5]","1","1","795a7a575180dc214b636d097936bdb8ea6ef1e5","3b06184d72a50d142e1b1b0bf003098523bd25a2","3e15835386f83fa80b42a94c8ddb92ed45bd2d62"
"https://github.com/diaspora/diaspora.git","1688","1","[ac533f83835aeba9b0ec39b5a4da02dbe99d032c]","4","3","ac533f83835aeba9b0ec39b5a4da02dbe99d032c","1639ae2b312e88b9a10bfd8684e86fdf7d508c91","9ec9ae0c6cd2b2d4ab0d6096028be664b9111a0d"
"https://github.com/diaspora/diaspora.git","1709","1","[8e2633f8b3ae7a5a0760107ab3eb95d8c7ab7534]","1","1","8e2633f8b3ae7a5a0760107ab3eb95d8c7ab7534","837a1ba5645eb94d22239360978c402701d28cc4","221c1bf959fbe50d79cbc4e0bdbc061f287d14d1"
"https://github.com/diaspora/diaspora.git","1721","1","[3f3fe3ecc7d2a53995660bfeec850b4c11a7dadc]","4","1","3f3fe3ecc7d2a53995660bfeec850b4c11a7dadc","c2a9cb55efba549316bd92f0e7abacd2ba8b8fbb","619ffa9d743a308b2beab928b31b76517ae51e87"
"https://github.com/diaspora/diaspora.git","1733","14","[8865f72afaf70378dfd737dc2d04a5218bc5d533, 63040bb8cc877ab1427e9d416318e5414c7ae5db, 477c9d2ef33bab25d52ff6b1f5ee850223b5fdf2, e3265aa650b40e185fde1b58115911d8112c3469, 32935be9b1f85e0e879883897fb3c7b7dffea7ca, e8f57d8faca210e6748c5d80eb0cfef68ebbff29, 4c4a98f42e455c53018251584ec8dbf6b15792b1, 9307a1aaeb2825bd025b46c25fc4c3d61b6d7954, fdf52ffe9e5cc7cdc67cc9642b84ad7befd487f2, 848e5d2a572890ef73d27675bb5eee06a778f730, 67d7f02faa79af8d107f0260eb846b6b32d5e20c, da532e18bd139a7837993ce4e9792cca3752616a, 775b560a94e8dfba9c8f3bf5b479c7effe98da9f, 4f1bfd7eeadf14d2f3801154c20ed03ab92acb79]","1","1","8865f72afaf70378dfd737dc2d04a5218bc5d533","f5a4bc51c211b2d5915a4cd123ee54fd0ff3b3d6","f6e31fdd9596a671ee35c8b17ce4bc13dae2f31e"
"https://github.com/diaspora/diaspora.git","1746","1","[bc87b501f2e1e28307f0a58f02b7fe2e98ab3af7]","1","1","bc87b501f2e1e28307f0a58f02b7fe2e98ab3af7","fd069af2c6b75a842bd74b45f4aa1fd2d62a3ecd","0149dbf9ade5434fcbaa2a87cf7e0d858f5b7180"
"https://github.com/diaspora/diaspora.git","1751","2","[01d91e02d406e66481d8fc5486e4a20bf7448f4d, 5a85fd71f19108211fe53aa0bb2d34a1e339072b]","1","1","01d91e02d406e66481d8fc5486e4a20bf7448f4d","15418eae67ed9dab0503a47162f71732e5357f8c","06d67bf854fdedb1e54fe3fb9d8fb160645ee9b0"
"https://github.com/diaspora/diaspora.git","1756","9","[f08f4a22f7b181355da0e29f8a4aee0f6cb36a31, a693a0970b63bb62ae667ef339ff7c6ef551f573, 85ae8e2ac5f12a2f3b0013d08637dca48238d126, a2e9711c76322a008c35f1f6077153c7fe3763a0, 5b0d33ade018f78ed8e3621953ad1fc33e3b2fcc, 4c5a29830467527d12d943b341bc64d1247b8234, 29af94ce4eec98c246ea9425c569eea7a2381769, 704113f8964f4ee8d03b9fd37d9aa8efde0ce04f, 74690088f216bd500413ece1f3d9349188cf5bd8]","2","1","f08f4a22f7b181355da0e29f8a4aee0f6cb36a31","f3b7d57b3a0d0954d5bfbbedafa3db7a980301b2","cdc4e869d17dc6460b73519f0ac3fd31ed43bedd"
