"Repository","https://github.com/AgileVentures/WebsiteOne.git"
"Precision mean (RT)","0.28676367492105265"
"Precision median (RT)","0.1428571429"
"Precision standard deviation (RT)","0.3139085758609952"
"Recall mean (RT)","0.7121173030631579"
"Recall median (RT)","1.0"
"Recall standard deviation (RT)","0.42598923390621507"
"F2 mean (RT)","0.42833647033012995"
"F2 median (RT)","0.41666666666666663"
"F2 standard deviation (RT)","0.28600413929932234"
"Correlation #Test-Precision","0.66"
"Correlation #Test-Recall","0.28"
"Task","Dates","#Devs","#Commits","Hashes","#Gherkin_Tests","#Sted_defs","#TestI","#TaskI","TestI","TaskI","Precision","Recall","Rails","#visit_call","Lost_visit_call","#Views_TestI","#Code_View_Analysis","Code_View_Analysis","Methods_Unknown_Type","Renamed_Files","Deleted_Files","NotFound_Views","#NotFound_Views","Timestamp","Has_Merge","#FP","#FN","FP","FN","#Hits","Hits","f2"
"880","[12-01-2014]","1","1","[a9a84e9c18880c854dea9ae5098d1aaec9566452]","19","58","11","24","[app/controllers/projects_controller.rb, app/controllers/visitors_controller.rb, app/models/project.rb, app/models/user.rb, app/views/devise/registrations/new.html.erb, app/views/devise/sessions/new.html.erb, app/views/devise/shared/_links.erb, app/views/projects/index.html.erb, app/views/projects/new.html.erb, app/views/projects/show.html.erb, app/views/visitors/index.html.erb]","[app/controllers/application_controller.rb, app/controllers/projects_controller.rb, app/controllers/visitors_controller.rb, app/helpers/projects_helper.rb, app/helpers/visitors_helper.rb, app/models/project.rb, app/models/user.rb, app/views/devise/confirmations/new.html.erb, app/views/devise/mailer/confirmation_instructions.html.erb, app/views/devise/mailer/reset_password_instructions.html.erb, app/views/devise/mailer/unlock_instructions.html.erb, app/views/devise/passwords/edit.html.erb, app/views/devise/passwords/new.html.erb, app/views/devise/registrations/edit.html.erb, app/views/devise/registrations/new.html.erb, app/views/devise/sessions/new.html.erb, app/views/devise/shared/_links.erb, app/views/devise/unlocks/new.html.erb, app/views/layouts/_navbar.html.erb, app/views/layouts/application.html.erb, app/views/projects/index.html.erb, app/views/projects/new.html.erb, app/views/projects/show.html.erb, app/views/visitors/index.html.erb]","1.0","0.4583333333","4.0.2","16","[]","7","9","[app/controllers/projects_controller.rb, app/controllers/visitors_controller.rb, app/views/devise/registrations/new.html.erb, app/views/devise/sessions/new.html.erb, app/views/devise/shared/_links.erb, app/views/projects/index.html.erb, app/views/projects/new.html.erb, app/views/projects/show.html.erb, app/views/visitors/index.html.erb]","[page, have_selector, find, within, have_link, current_path, eq, fill_in, click_button, click_link, click_link, have_text, save_and_open_page, have_field, have_css, have_button, click_button, fill_in, sign up, sign in, merge, within, have_content, page, have_field, have_button, within, sign up, sign in]","","[]","[/users/edit, new_confirmation, new_password, new_registration, new_session, new_unlock, omniauth_authorize]","7","0.501 seconds","true","0","13","[]","[app/controllers/application_controller.rb, app/helpers/projects_helper.rb, app/helpers/visitors_helper.rb, app/views/devise/confirmations/new.html.erb, app/views/devise/mailer/confirmation_instructions.html.erb, app/views/devise/mailer/reset_password_instructions.html.erb, app/views/devise/mailer/unlock_instructions.html.erb, app/views/devise/passwords/edit.html.erb, app/views/devise/passwords/new.html.erb, app/views/devise/registrations/edit.html.erb, app/views/devise/unlocks/new.html.erb, app/views/layouts/_navbar.html.erb, app/views/layouts/application.html.erb]","11","[app/controllers/projects_controller.rb, app/controllers/visitors_controller.rb, app/models/project.rb, app/models/user.rb, app/views/devise/registrations/new.html.erb, app/views/devise/sessions/new.html.erb, app/views/devise/shared/_links.erb, app/views/projects/index.html.erb, app/views/projects/new.html.erb, app/views/projects/show.html.erb, app/views/visitors/index.html.erb]","0.5140186915552449"
"894","[11-01-2014, 12-01-2014]","1","2","[3d0fd5aede6ecafaa0e59413e5c891d981dbc029, adebde85b3318c6e497dbb08815c9f899bb2add4]","18","47","11","9","[app/controllers/projects_controller.rb, app/controllers/visitors_controller.rb, app/models/project.rb, app/models/user.rb, app/views/devise/registrations/new.html.erb, app/views/devise/sessions/new.html.erb, app/views/devise/shared/_links.erb, app/views/projects/index.html.erb, app/views/projects/new.html.erb, app/views/projects/show.html.erb, app/views/visitors/index.html.erb]","[app/controllers/projects_controller.rb, app/helpers/projects_helper.rb, app/models/project.rb, app/views/devise/registrations/new.html.erb, app/views/devise/sessions/new.html.erb, app/views/layouts/_navbar.html.erb, app/views/projects/index.html.erb, app/views/projects/new.html.erb, app/views/projects/show.html.erb]","0.6363636364","0.7777777778","4.0.2","16","[]","7","9","[app/controllers/projects_controller.rb, app/controllers/visitors_controller.rb, app/views/devise/registrations/new.html.erb, app/views/devise/sessions/new.html.erb, app/views/devise/shared/_links.erb, app/views/projects/index.html.erb, app/views/projects/new.html.erb, app/views/projects/show.html.erb, app/views/visitors/index.html.erb]","[find, within, page, have_link, current_path, eq, fill_in, click_button, click_link, click_link, have_text, save_and_open_page, have_field, have_css, have_button, click_button, fill_in, sign up, sign in, merge, within, have_content, page, have_field, have_button, within, sign up, sign in]","","[]","[/users/edit, new_confirmation, new_password, new_registration, new_session, new_unlock, omniauth_authorize]","7","0.615 seconds","true","4","2","[app/controllers/visitors_controller.rb, app/models/user.rb, app/views/devise/shared/_links.erb, app/views/visitors/index.html.erb]","[app/helpers/projects_helper.rb, app/views/layouts/_navbar.html.erb]","7","[app/controllers/projects_controller.rb, app/models/project.rb, app/views/devise/registrations/new.html.erb, app/views/devise/sessions/new.html.erb, app/views/projects/index.html.erb, app/views/projects/new.html.erb, app/views/projects/show.html.erb]","0.7446808510900861"
"903","[10-01-2014, 11-01-2014]","4","14","[c7aabe2fb3967ea89f0b0eafbfc0f96fd68c3007, 97450a8c7fd81e3f268baa850932911129bdb8ef, 59dcd8d42fc8380c9732cef25d059572ef1d09c6, 509924232b4a3a845d29e52067a743eac42db846, e134dcb1acb60c855aa39a37199c7a2049db95a7, 03e4895b70a6a10703d95289a7424f4d00538241, 0a52dccfc6a139057106864d4f90e3d5c9db861b, 075f578da24017722ddcaf0e5d117a83cb697d61, 1403044e5f17c2e034c4140b717051cdf1615901, 65da610fa6c40b7f2bc3767a4ce0d2aa57b947d1, d23c7ee3c666f2ebd6ca9dd1b7cbe8c74b76b671, 4dfc84ffca834a702011f4acb21895b2cf0fd86c, 43817b7cce77e71b59f18ead5d8824732f5ad021, 584fa129e92a4ab690bf0933d6ffbe4ec8558780]","9","45","11","4","[app/controllers/projects_controller.rb, app/controllers/visitors_controller.rb, app/models/project.rb, app/models/user.rb, app/views/devise/registrations/new.html.erb, app/views/devise/sessions/new.html.erb, app/views/devise/shared/_links.erb, app/views/projects/index.html.erb, app/views/projects/new.html.erb, app/views/projects/show.html.erb, app/views/visitors/index.html.erb]","[app/controllers/projects_controller.rb, app/views/projects/index.html.erb, app/views/projects/new.html.erb, app/views/projects/show.html.erb]","0.3636363636","1.0","4.0.2","16","[]","7","9","[app/controllers/projects_controller.rb, app/controllers/visitors_controller.rb, app/views/devise/registrations/new.html.erb, app/views/devise/sessions/new.html.erb, app/views/devise/shared/_links.erb, app/views/projects/index.html.erb, app/views/projects/new.html.erb, app/views/projects/show.html.erb, app/views/visitors/index.html.erb]","[page, have_link, current_path, eq, fill_in, click_button, click_link, click_link, have_text, save_and_open_page, have_field, have_css, have_button, click_button, fill_in, sign up, sign in, within, page, have_css, find, click, merge, within, current_user, have_selector, have_content, page, have_field, have_button, within, sign in, find]","","[app/views/projects/projects.html.erb]","[/users/edit, /users/sign_up, new_confirmation, new_password, new_registration, new_session, new_unlock, omniauth_authorize]","8","0.683 seconds","false","7","0","[app/controllers/visitors_controller.rb, app/models/project.rb, app/models/user.rb, app/views/devise/registrations/new.html.erb, app/views/devise/sessions/new.html.erb, app/views/devise/shared/_links.erb, app/views/visitors/index.html.erb]","[]","4","[app/controllers/projects_controller.rb, app/views/projects/index.html.erb, app/views/projects/new.html.erb, app/views/projects/show.html.erb]","0.7407407407105625"
"887","[13-01-2014]","1","1","[07eee95e7731448551c910eec3ba5bb34ddba044]","5","6","13","6","[app/controllers/projects_controller.rb, app/controllers/visitors_controller.rb, app/models/project.rb, app/models/user.rb, app/views/devise/registrations/new.html.erb, app/views/devise/sessions/new.html.erb, app/views/devise/shared/_links.erb, app/views/projects/_form.html.erb, app/views/projects/edit.html.erb, app/views/projects/index.html.erb, app/views/projects/new.html.erb, app/views/projects/show.html.erb, app/views/visitors/index.html.erb]","[app/controllers/projects_controller.rb, app/views/projects/_form.html.erb, app/views/projects/edit.html.erb, app/views/projects/index.html.erb, app/views/projects/new.html.erb, app/views/projects/show.html.erb]","0.4615384615","1.0","4.0.2","6","[]","9","11","[app/controllers/projects_controller.rb, app/controllers/visitors_controller.rb, app/views/devise/registrations/new.html.erb, app/views/devise/sessions/new.html.erb, app/views/devise/shared/_links.erb, app/views/projects/_form.html.erb, app/views/projects/edit.html.erb, app/views/projects/index.html.erb, app/views/projects/new.html.erb, app/views/projects/show.html.erb, app/views/visitors/index.html.erb]","[fill_in, click_button, within, sign in, current_path, eq, click_button, click_link, page, have_text, have_field, have_link, have_button, fill_in, sign up, sign in, have_css, within, hashes, save, each, save_and_open_page, id, click_link, within, send, eq, send, eq, id, click_link, change, by, current_url, request_uri]","","[]","[hello mars, new_confirmation, new_password, new_registration, new_session, new_unlock, omniauth_authorize]","7","0.412 seconds","true","7","0","[app/controllers/visitors_controller.rb, app/models/project.rb, app/models/user.rb, app/views/devise/registrations/new.html.erb, app/views/devise/sessions/new.html.erb, app/views/devise/shared/_links.erb, app/views/visitors/index.html.erb]","[]","6","[app/controllers/projects_controller.rb, app/views/projects/_form.html.erb, app/views/projects/edit.html.erb, app/views/projects/index.html.erb, app/views/projects/new.html.erb, app/views/projects/show.html.erb]","0.8108108107870708"
"891","[13-01-2014]","1","2","[825f2f392a21d2c5950145146eab0aae02cdae7f, 9fdf6449d8d1cbdcce04c4d1f38deac21ca87300]","4","0","10","3","[app/controllers/projects_controller.rb, app/models/project.rb, app/models/user.rb, app/views/devise/sessions/new.html.erb, app/views/devise/shared/_links.erb, app/views/projects/_form.html.erb, app/views/projects/edit.html.erb, app/views/projects/index.html.erb, app/views/projects/new.html.erb, app/views/projects/show.html.erb]","[app/controllers/projects_controller.rb, app/views/projects/_form.html.erb, app/views/projects/index.html.erb]","0.3","1.0","4.0.2","4","[]","7","8","[app/controllers/projects_controller.rb, app/views/devise/sessions/new.html.erb, app/views/devise/shared/_links.erb, app/views/projects/_form.html.erb, app/views/projects/edit.html.erb, app/views/projects/index.html.erb, app/views/projects/new.html.erb, app/views/projects/show.html.erb]","[fill_in, click_button, within, sign in, click_button, click_link, page, have_text, have_field, have_button, click_button, fill_in, hashes, save, each, have_css, save_and_open_page, id, click_link, within, send, eq, send, eq, current_url, request_uri]","","[]","[hello mars, new_confirmation, new_password, new_registration, new_session, new_unlock, omniauth_authorize]","7","0.473 seconds","false","7","0","[app/models/project.rb, app/models/user.rb, app/views/devise/sessions/new.html.erb, app/views/devise/shared/_links.erb, app/views/projects/edit.html.erb, app/views/projects/new.html.erb, app/views/projects/show.html.erb]","[]","3","[app/controllers/projects_controller.rb, app/views/projects/_form.html.erb, app/views/projects/index.html.erb]","0.6818181818181818"
"892","[12-01-2014]","3","3","[30a90ce3679f372ef35e3af7bacfac386d6da160, cca7898a88d188790f1478cd02dfc8b226e81737, c2b95de608af2c885a5e8b841a40d39e1882f479]","3","2","10","5","[app/controllers/projects_controller.rb, app/models/project.rb, app/models/user.rb, app/views/devise/sessions/new.html.erb, app/views/devise/shared/_links.erb, app/views/projects/_form.html.erb, app/views/projects/edit.html.erb, app/views/projects/index.html.erb, app/views/projects/new.html.erb, app/views/projects/show.html.erb]","[app/controllers/projects_controller.rb, app/views/projects/_form.html.erb, app/views/projects/edit.html.erb, app/views/projects/new.html.erb, app/views/projects/show.html.erb]","0.5","1.0","4.0.2","6","[]","7","8","[app/controllers/projects_controller.rb, app/views/devise/sessions/new.html.erb, app/views/devise/shared/_links.erb, app/views/projects/_form.html.erb, app/views/projects/edit.html.erb, app/views/projects/index.html.erb, app/views/projects/new.html.erb, app/views/projects/show.html.erb]","[fill_in, click_button, sign in, click_button, page, have_text, have_link, have_button, fill_in, have_css, within, hashes, save, each, id, click_link, within, send, eq, send, eq, current_url, request_uri]","","[]","[hello mars, new_confirmation, new_password, new_registration, new_session, new_unlock, omniauth_authorize]","7","0.648 seconds","true","5","0","[app/models/project.rb, app/models/user.rb, app/views/devise/sessions/new.html.erb, app/views/devise/shared/_links.erb, app/views/projects/index.html.erb]","[]","5","[app/controllers/projects_controller.rb, app/views/projects/_form.html.erb, app/views/projects/edit.html.erb, app/views/projects/new.html.erb, app/views/projects/show.html.erb]","0.8333333333333333"
"895","[12-01-2014]","3","3","[c749a5929d477700dffa17f3d240a0cfdda15445, cca7898a88d188790f1478cd02dfc8b226e81737, c2b95de608af2c885a5e8b841a40d39e1882f479]","3","3","10","1","[app/controllers/projects_controller.rb, app/models/project.rb, app/models/user.rb, app/views/devise/sessions/new.html.erb, app/views/devise/shared/_links.erb, app/views/projects/_form.html.erb, app/views/projects/edit.html.erb, app/views/projects/index.html.erb, app/views/projects/new.html.erb, app/views/projects/show.html.erb]","[app/controllers/projects_controller.rb]","0.1","1.0","4.0.2","5","[]","7","8","[app/controllers/projects_controller.rb, app/views/devise/sessions/new.html.erb, app/views/devise/shared/_links.erb, app/views/projects/_form.html.erb, app/views/projects/edit.html.erb, app/views/projects/index.html.erb, app/views/projects/new.html.erb, app/views/projects/show.html.erb]","[fill_in, click_button, sign in, click_button, page, have_text, have_button, fill_in, hashes, save, each, id, click_link, within, send, eq, send, eq, nil?, id, click_link, change, by, within, current_url, request_uri]","","[]","[hello mars, new_confirmation, new_password, new_registration, new_session, new_unlock, omniauth_authorize]","7","0.389 seconds","false","9","0","[app/models/project.rb, app/models/user.rb, app/views/devise/sessions/new.html.erb, app/views/devise/shared/_links.erb, app/views/projects/_form.html.erb, app/views/projects/edit.html.erb, app/views/projects/index.html.erb, app/views/projects/new.html.erb, app/views/projects/show.html.erb]","[]","1","[app/controllers/projects_controller.rb]","0.3571428571428572"
"901","[11-01-2014]","2","2","[9d637c493413a899d5b9cd69963a81f6e32b9962, 81518a35b2b38250eb969f74fa6cf6fa1505f945]","3","1","12","2","[app/controllers/projects_controller.rb, app/controllers/visitors_controller.rb, app/models/project.rb, app/models/user.rb, app/views/devise/registrations/new.html.erb, app/views/devise/sessions/new.html.erb, app/views/devise/shared/_links.erb, app/views/projects/edit.html.erb, app/views/projects/index.html.erb, app/views/projects/new.html.erb, app/views/projects/show.html.erb, app/views/visitors/index.html.erb]","[app/controllers/projects_controller.rb, app/views/projects/edit.html.erb]","0.1666666667","1.0","4.0.2","3","[]","8","10","[app/controllers/projects_controller.rb, app/controllers/visitors_controller.rb, app/views/devise/registrations/new.html.erb, app/views/devise/sessions/new.html.erb, app/views/devise/shared/_links.erb, app/views/projects/edit.html.erb, app/views/projects/index.html.erb, app/views/projects/new.html.erb, app/views/projects/show.html.erb, app/views/visitors/index.html.erb]","[fill_in, click_button, sign in, current_path, eq, click_link, save_and_open_page, page, have_field, have_text, have_css, have_link, have_button, sign up, sign in, within, page, all, click]","","[]","[new_confirmation, new_password, new_registration, new_session, new_unlock, omniauth_authorize]","6","0.494 seconds","false","10","0","[app/controllers/visitors_controller.rb, app/models/project.rb, app/models/user.rb, app/views/devise/registrations/new.html.erb, app/views/devise/sessions/new.html.erb, app/views/devise/shared/_links.erb, app/views/projects/index.html.erb, app/views/projects/new.html.erb, app/views/projects/show.html.erb, app/views/visitors/index.html.erb]","[]","2","[app/controllers/projects_controller.rb, app/views/projects/edit.html.erb]","0.50000000006"
"893","[11-01-2014]","2","2","[e080909fb5d2b11afcfee3dec1ccff449819ba85, b522caf737798a7b2dc545563b5a57ba2d0bc363]","2","3","8","1","[app/controllers/projects_controller.rb, app/models/project.rb, app/models/user.rb, app/views/devise/sessions/new.html.erb, app/views/devise/shared/_links.erb, app/views/projects/index.html.erb, app/views/projects/new.html.erb, app/views/projects/show.html.erb]","[app/views/projects/index.html.erb]","0.125","1.0","4.0.2","2","[]","5","6","[app/controllers/projects_controller.rb, app/views/devise/sessions/new.html.erb, app/views/devise/shared/_links.erb, app/views/projects/index.html.erb, app/views/projects/new.html.erb, app/views/projects/show.html.erb]","[fill_in, click_button, sign in, click_link, page, have_field, have_button, hashes, save, each, have_text, have_css, save_and_open_page, id, find, click, change, by]","","[]","[new_confirmation, new_password, new_registration, new_session, new_unlock, omniauth_authorize]","6","0.161 seconds","false","7","0","[app/controllers/projects_controller.rb, app/models/project.rb, app/models/user.rb, app/views/devise/sessions/new.html.erb, app/views/devise/shared/_links.erb, app/views/projects/new.html.erb, app/views/projects/show.html.erb]","[]","1","[app/views/projects/index.html.erb]","0.41666666666666663"
"897","[11-01-2014]","2","3","[22c1db370fe3c851a2f8d1309cb9c822bc31a496, 96894535963311594d1b670df189ceb2980a1d16, f0c40194575b32def98282d626205595fa65d9f8]","2","0","13","5","[app/controllers/projects_controller.rb, app/controllers/visitors_controller.rb, app/models/project.rb, app/models/user.rb, app/views/devise/registrations/new.html.erb, app/views/devise/sessions/new.html.erb, app/views/devise/shared/_links.erb, app/views/projects/_form.html.erb, app/views/projects/edit.html.erb, app/views/projects/index.html.erb, app/views/projects/new.html.erb, app/views/projects/show.html.erb, app/views/visitors/index.html.erb]","[app/controllers/projects_controller.rb, app/views/projects/_form.html.erb, app/views/projects/edit.html.erb, app/views/projects/new.html.erb, app/views/projects/show.html.erb]","0.3846153846","1.0","4.0.2","3","[]","9","11","[app/controllers/projects_controller.rb, app/controllers/visitors_controller.rb, app/views/devise/registrations/new.html.erb, app/views/devise/sessions/new.html.erb, app/views/devise/shared/_links.erb, app/views/projects/_form.html.erb, app/views/projects/edit.html.erb, app/views/projects/index.html.erb, app/views/projects/new.html.erb, app/views/projects/show.html.erb, app/views/visitors/index.html.erb]","[fill_in, click_button, sign in, current_path, eq, page, have_text, have_button, sign up, sign in, page, all, click, hashes, save, each]","","[]","[new_confirmation, new_password, new_registration, new_session, new_unlock, omniauth_authorize]","6","0.655 seconds","false","8","0","[app/controllers/visitors_controller.rb, app/models/project.rb, app/models/user.rb, app/views/devise/registrations/new.html.erb, app/views/devise/sessions/new.html.erb, app/views/devise/shared/_links.erb, app/views/projects/index.html.erb, app/views/visitors/index.html.erb]","[]","5","[app/controllers/projects_controller.rb, app/views/projects/_form.html.erb, app/views/projects/edit.html.erb, app/views/projects/new.html.erb, app/views/projects/show.html.erb]","0.75757575756382"
"904","[10-01-2014]","1","2","[386c388592909e48e5c18767826382a47aa8acf1, 95038306218ff6cb5fe9d30401f26671058efdd7]","2","6","7","1","[app/controllers/projects_controller.rb, app/controllers/visitors_controller.rb, app/views/devise/registrations/new.html.erb, app/views/devise/sessions/new.html.erb, app/views/devise/shared/_links.erb, app/views/projects/projects.html.erb, app/views/visitors/index.html.erb]","[app/views/projects/projects.html.erb]","0.1428571429","1.0","4.0.2","30","[]","5","7","[app/controllers/projects_controller.rb, app/controllers/visitors_controller.rb, app/views/devise/registrations/new.html.erb, app/views/devise/sessions/new.html.erb, app/views/devise/shared/_links.erb, app/views/projects/projects.html.erb, app/views/visitors/index.html.erb]","[page, have_link, click_link, have_text, sign up, sign in, have_css, within, page, have_css, within]","","[]","[new_confirmation, new_password, new_registration, new_session, new_unlock, omniauth_authorize]","6","0.114 seconds","false","6","0","[app/controllers/projects_controller.rb, app/controllers/visitors_controller.rb, app/views/devise/registrations/new.html.erb, app/views/devise/sessions/new.html.erb, app/views/devise/shared/_links.erb, app/views/visitors/index.html.erb]","[]","1","[app/views/projects/projects.html.erb]","0.4545454546322314"
"916","[09-01-2014]","2","5","[d56d357d1a0c38232c7804280e296447a598a88e, 70215d9a6aa157f0ca2309204d635b671a727500, eb9d8bee7e12b32d25c841e734b3b137e4fbd555, 3e22dd789a518c1927d44b9c7125f275b477d181, 70d95a6800cd4102affefe73efc13ff1d209dcf3]","2","5","2","2","[app/controllers/visitors_controller.rb, app/views/visitors/index.html.erb]","[app/views/layouts/_navbar.html.erb, app/views/layouts/application.html.erb]","0.0","0.0","4.0.2","1","[]","1","2","[app/controllers/visitors_controller.rb, app/views/visitors/index.html.erb]","[page, have_selector, find, within, have_link]","","[]","","0","0.043 seconds","true","2","2","[app/controllers/visitors_controller.rb, app/views/visitors/index.html.erb]","[app/views/layouts/_navbar.html.erb, app/views/layouts/application.html.erb]","0","[]","0.0"
"878","[15-01-2014]","1","2","[e3794e656d58979b1d33a67faeafe162e1892dd7, 4b9289c1184ae72dd5ceb8db8b8ebe3a5a4c9be2]","1","1","13","1","[app/controllers/projects_controller.rb, app/controllers/visitors_controller.rb, app/models/document.rb, app/models/project.rb, app/views/devise/registrations/new.html.erb, app/views/devise/sessions/new.html.erb, app/views/devise/shared/_links.erb, app/views/projects/_form.html.erb, app/views/projects/edit.html.erb, app/views/projects/index.html.erb, app/views/projects/new.html.erb, app/views/projects/show.html.erb, app/views/visitors/index.html.erb]","[app/models/document.rb]","0.0769230769","1.0","4.0.2","1","[]","9","11","[app/controllers/projects_controller.rb, app/controllers/visitors_controller.rb, app/views/devise/registrations/new.html.erb, app/views/devise/sessions/new.html.erb, app/views/devise/shared/_links.erb, app/views/projects/_form.html.erb, app/views/projects/edit.html.erb, app/views/projects/index.html.erb, app/views/projects/new.html.erb, app/views/projects/show.html.erb, app/views/visitors/index.html.erb]","[current_path, eq, click_button, sign up, sign in, hashes, save, each]","","[]","[new_confirmation, new_password, new_registration, new_session, new_unlock, omniauth_authorize]","6","0.398 seconds","false","12","0","[app/controllers/projects_controller.rb, app/controllers/visitors_controller.rb, app/models/project.rb, app/views/devise/registrations/new.html.erb, app/views/devise/sessions/new.html.erb, app/views/devise/shared/_links.erb, app/views/projects/_form.html.erb, app/views/projects/edit.html.erb, app/views/projects/index.html.erb, app/views/projects/new.html.erb, app/views/projects/show.html.erb, app/views/visitors/index.html.erb]","[]","1","[app/models/document.rb]","0.29411764699134946"
"888","[13-01-2014]","1","1","[53f0b60a3c174643ec6ffb349b7fe9f86c4eb973]","1","1","2","3","[app/controllers/visitors_controller.rb, app/views/visitors/index.html.erb]","[app/views/layouts/_flash.html.erb, app/views/layouts/_footer.html.erb, app/views/layouts/application.html.erb]","0.0","0.0","4.0.2","1","[]","1","2","[app/controllers/visitors_controller.rb, app/views/visitors/index.html.erb]","[page, have_text, within]","","[]","","0","0.050 seconds","false","2","3","[app/controllers/visitors_controller.rb, app/views/visitors/index.html.erb]","[app/views/layouts/_flash.html.erb, app/views/layouts/_footer.html.erb, app/views/layouts/application.html.erb]","0","[]","0.0"
"890","[13-01-2014]","1","1","[940cf58e584305f114f123b1e352a967aed66804]","1","1","10","1","[app/controllers/projects_controller.rb, app/models/project.rb, app/models/user.rb, app/views/devise/sessions/new.html.erb, app/views/devise/shared/_links.erb, app/views/projects/_form.html.erb, app/views/projects/edit.html.erb, app/views/projects/index.html.erb, app/views/projects/new.html.erb, app/views/projects/show.html.erb]","[app/controllers/projects_controller.rb]","0.1","1.0","4.0.2","2","[]","7","8","[app/controllers/projects_controller.rb, app/views/devise/sessions/new.html.erb, app/views/devise/shared/_links.erb, app/views/projects/_form.html.erb, app/views/projects/edit.html.erb, app/views/projects/index.html.erb, app/views/projects/new.html.erb, app/views/projects/show.html.erb]","[fill_in, click_button, within, sign in, page, have_text, hashes, save, each, nil?, id, click_link, change, by, within]","","[]","[new_confirmation, new_password, new_registration, new_session, new_unlock, omniauth_authorize]","6","0.357 seconds","true","9","0","[app/models/project.rb, app/models/user.rb, app/views/devise/sessions/new.html.erb, app/views/devise/shared/_links.erb, app/views/projects/_form.html.erb, app/views/projects/edit.html.erb, app/views/projects/index.html.erb, app/views/projects/new.html.erb, app/views/projects/show.html.erb]","[]","1","[app/controllers/projects_controller.rb]","0.3571428571428572"
"898","[11-01-2014]","3","5","[7ecc2231ae235d88bad849727cf9ac3fee694f7d, d60377d9a447f26145e1183066590979593d5b9f, 63f5dcedef4cb5073b4efcf065948a88417784e0, ef724fc64c1070407e86fd0e9d82fd32ee8c635c, bf2c956689aaf2e339c8a09cd43eff24482e713f]","1","2","11","1","[app/controllers/projects_controller.rb, app/controllers/visitors_controller.rb, app/models/project.rb, app/models/user.rb, app/views/devise/registrations/new.html.erb, app/views/devise/sessions/new.html.erb, app/views/devise/shared/_links.erb, app/views/projects/index.html.erb, app/views/projects/new.html.erb, app/views/projects/show.html.erb, app/views/visitors/index.html.erb]","[app/controllers/projects_controller.rb]","0.0909090909","1.0","4.0.2","2","[]","7","9","[app/controllers/projects_controller.rb, app/controllers/visitors_controller.rb, app/views/devise/registrations/new.html.erb, app/views/devise/sessions/new.html.erb, app/views/devise/shared/_links.erb, app/views/projects/index.html.erb, app/views/projects/new.html.erb, app/views/projects/show.html.erb, app/views/visitors/index.html.erb]","[fill_in, click_button, sign in, current_path, eq, click_link, page, have_text, click_button, fill_in, sign up, sign in, hashes, save, each, id, click_link, change, by, within]","","[]","[new_confirmation, new_password, new_registration, new_session, new_unlock, omniauth_authorize]","6","0.468 seconds","true","10","0","[app/controllers/visitors_controller.rb, app/models/project.rb, app/models/user.rb, app/views/devise/registrations/new.html.erb, app/views/devise/sessions/new.html.erb, app/views/devise/shared/_links.erb, app/views/projects/index.html.erb, app/views/projects/new.html.erb, app/views/projects/show.html.erb, app/views/visitors/index.html.erb]","[]","1","[app/controllers/projects_controller.rb]","0.3333333333088889"
"906","[10-01-2014]","1","5","[059a441df0a71450f3bb602726643f6d048beda3, 31a6a8571daf79cb1f2fdc517885f523eeb0bf72, 2f71dc010c29a7b56232e92c5d915b0583e53d7a, a47afe3257bb1afba284b22d39f8d3104430b903, 5782d0c80661a5f02598d1c654f1925b1c7c117f]","1","3","5","5","[app/controllers/visitors_controller.rb, app/views/devise/registrations/new.html.erb, app/views/devise/sessions/new.html.erb, app/views/devise/shared/_links.erb, app/views/visitors/index.html.erb]","[app/controllers/projects_controller.rb, app/helpers/projects_helper.rb, app/models/project.rb, app/views/layouts/_navbar.html.erb, app/views/projects/projects.html.erb]","0.0","0.0","4.0.2","6","[]","4","5","[app/controllers/visitors_controller.rb, app/views/devise/registrations/new.html.erb, app/views/devise/sessions/new.html.erb, app/views/devise/shared/_links.erb, app/views/visitors/index.html.erb]","[page, have_button, click_link, have_text, sign up, sign in]","","[app/views/application/projects.html.erb]","[new_confirmation, new_password, new_registration, new_session, new_unlock, omniauth_authorize]","6","0.187 seconds","false","5","5","[app/controllers/visitors_controller.rb, app/views/devise/registrations/new.html.erb, app/views/devise/sessions/new.html.erb, app/views/devise/shared/_links.erb, app/views/visitors/index.html.erb]","[app/controllers/projects_controller.rb, app/helpers/projects_helper.rb, app/models/project.rb, app/views/layouts/_navbar.html.erb, app/views/projects/projects.html.erb]","0","[]","0.0"
"909","[10-01-2014]","2","3","[770132582ab94a51118fe09fa7de87ef01418816, 44d6e0bef7863b1bbe107be1212762872ad76768, 5403b2b61f006c52b584bbbc29f2958e68cfaa33]","1","1","2","1","[app/controllers/visitors_controller.rb, app/views/visitors/index.html.erb]","[app/views/layouts/application.html.erb]","0.0","0.0","4.0.2","1","[]","1","2","[app/controllers/visitors_controller.rb, app/views/visitors/index.html.erb]","[find, within, page, have_link, save_and_open_page]","","[]","","0","0.026 seconds","false","2","1","[app/controllers/visitors_controller.rb, app/views/visitors/index.html.erb]","[app/views/layouts/application.html.erb]","0","[]","0.0"
"918","[09-01-2014]","1","2","[67f8af3f4d8eed6afcc924780833a4bbbe9d5bad, adfe71fe28ab237c1d5ff43fec655245c57e3b1f]","1","8","5","17","[app/controllers/visitors_controller.rb, app/views/devise/registrations/new.html.erb, app/views/devise/sessions/new.html.erb, app/views/devise/shared/_links.erb, app/views/visitors/index.html.erb]","[app/controllers/application_controller.rb, app/controllers/visitors_controller.rb, app/helpers/visitors_helper.rb, app/models/user.rb, app/views/devise/confirmations/new.html.erb, app/views/devise/mailer/confirmation_instructions.html.erb, app/views/devise/mailer/reset_password_instructions.html.erb, app/views/devise/mailer/unlock_instructions.html.erb, app/views/devise/passwords/edit.html.erb, app/views/devise/passwords/new.html.erb, app/views/devise/registrations/edit.html.erb, app/views/devise/registrations/new.html.erb, app/views/devise/sessions/new.html.erb, app/views/devise/shared/_links.erb, app/views/devise/unlocks/new.html.erb, app/views/layouts/application.html.erb, app/views/visitors/index.html.erb]","1.0","0.2941176471","4.0.2","13","[]","4","5","[app/controllers/visitors_controller.rb, app/views/devise/registrations/new.html.erb, app/views/devise/sessions/new.html.erb, app/views/devise/shared/_links.erb, app/views/visitors/index.html.erb]","[fill_in, click_button, click_link, current_path, eq, page, have_content, sign up, sign in]","","[]","[new_confirmation, new_password, new_registration, new_session, new_unlock, omniauth_authorize]","6","0.180 seconds","true","0","12","[]","[app/controllers/application_controller.rb, app/helpers/visitors_helper.rb, app/models/user.rb, app/views/devise/confirmations/new.html.erb, app/views/devise/mailer/confirmation_instructions.html.erb, app/views/devise/mailer/reset_password_instructions.html.erb, app/views/devise/mailer/unlock_instructions.html.erb, app/views/devise/passwords/edit.html.erb, app/views/devise/passwords/new.html.erb, app/views/devise/registrations/edit.html.erb, app/views/devise/unlocks/new.html.erb, app/views/layouts/application.html.erb]","5","[app/controllers/visitors_controller.rb, app/views/devise/registrations/new.html.erb, app/views/devise/sessions/new.html.erb, app/views/devise/shared/_links.erb, app/views/visitors/index.html.erb]","0.3424657534693188"
