"Repository","https://github.com/otwcode/otwarchive.git"
"Tasks with empty IReal","0"
"Tasks with no-empty IReal","2"
"Tasks with relevant AST error","0"
"Tasks with AST error of Gherkin files","0"
"Tasks with AST error of StepDef files","0"
"Tasks with AST error of production files","0"
"Tasks with AST error of unit test files","0"
"Tasks with step match error","2"
"Tasks without required gems","0"
"Tasks with changed stepdef","1"
"Tasks with changed Gherkin","2"
"Tasks with implemented Gherkin scenarios","1"
"All invalid tasks","2"
"All valid tasks (Gherkin scenario, no empty IReal, no error)","0"
"Valid tasks, but empty ITest","0"
"Valid tasks, no empty ITest, but zero precision-recall","0"
"Valid tasks, no empty ITest, no zero precision-recall","0"
"Project","Task","Date","#Days","#Commits","Commit_Message","#Devs","#Gherkin_Tests","#Impl_Gherkin_Tests","#StepDef","#Impl_StepDef","Methods_Unknown_Type","#Step_Call","Step_Match_Errors","#Step_Match_Error","AST_Errors","#AST_Errors","Gherkin_AST_Errors","#Gherkin_AST_Errors","Steps_AST_Errors","#Steps_AST_Errors","Renamed_Files","Deleted_Files","NotFound_Views","#Views","#TestI","#TaskI","TestI","TaskI","Precision","Recall","Hashes","Timestamp","Rails","Gems","#Visit_Call","Lost_visit_call","#Views_ITest","#Code_View_Analysis","Code_View_Analysis","Has_Merge","F2","#Multiple_Step_Matches","Multiple_Step_Matches","#Generic_Step_Keyword","Generic_Step_Keyword"
"otwarchive","2535","[27-06-2011, 28-06-2011]","2","5","[Merge pull request #195 from karen88/otwarchive  ---  Changed submit button to update for several types of challenges.   , changed submit button to update 4 , changed submit to update button 3 , changed submit button to update 2 , changed submit button to update 1 ]","2","12","11","11","11","[save, fill_in, check, click_button, save, fill_in, check, click_button, url_for, are you sure?, subscribe, series, work, translated_post, .participant_confirm_delete, are you sure you want to delete this claim?, single_comment, comment, gsub, nil?, select, click_link, select, uncheck, page, have_content, has_content?, page, have_content, has_content?, have_no_content, has_no_content?, within, .participant_confirm_delete, url_for, subscribe, series, work, are you sure?, translated_post, are you sure you want to delete this claim?, single_comment, comment, all, node, to_i, within, capture_model, capture_fields, create_model, to_i, click_link, emails, to_i]","0","[path:features/challenge_yuletide.feature, size:1]","1","","0","","0","","0","","[]","[app/views/challenge_claims/_creation.html.erb, app/views/chapters/_work.html.erb, app/views/pseuds/_pseud.html.erb, bookmarkable, post_draft_work, user_subscription]","6","217","4","[app/controllers/abuse_reports_controller.rb, app/controllers/admin/admin_users_controller.rb, app/controllers/admin/skins_controller.rb, app/controllers/admin_posts_controller.rb, app/controllers/admin_sessions_controller.rb, app/controllers/admins_controller.rb, app/controllers/archive_faqs_controller.rb, app/controllers/bookmarks_controller.rb, app/controllers/challenge/gift_exchange_controller.rb, app/controllers/challenge_claims_controller.rb, app/controllers/chapters_controller.rb, app/controllers/collection_items_controller.rb, app/controllers/collection_participants_controller.rb, app/controllers/collections_controller.rb, app/controllers/external_works_controller.rb, app/controllers/fandoms_controller.rb, app/controllers/feedbacks_controller.rb, app/controllers/home_controller.rb, app/controllers/invitations_controller.rb, app/controllers/invite_requests_controller.rb, app/controllers/known_issues_controller.rb, app/controllers/media_controller.rb, app/controllers/orphans_controller.rb, app/controllers/passwords_controller.rb, app/controllers/people_controller.rb, app/controllers/pseuds_controller.rb, app/controllers/readings_controller.rb, app/controllers/related_works_controller.rb, app/controllers/serial_works_controller.rb, app/controllers/series_controller.rb, app/controllers/skins_controller.rb, app/controllers/static/collections_controller.rb, app/controllers/static/fandoms_controller.rb, app/controllers/static/media_controller.rb, app/controllers/static/works_controller.rb, app/controllers/tag_wranglings_controller.rb, app/controllers/tags_controller.rb, app/controllers/user_invite_requests_controller.rb, app/controllers/user_sessions_controller.rb, app/controllers/users_controller.rb, app/controllers/works_controller.rb, app/helpers/bookmarks_helper.rb, app/helpers/works_helper.rb, app/models/abuse_report.rb, app/models/admin_post.rb, app/models/admin_session.rb, app/models/archive_faq.rb, app/models/category.rb, app/models/challenge_signup.rb, app/models/collection.rb, app/models/fandom.rb, app/models/feedback.rb, app/models/invite_request.rb, app/models/known_issue.rb, app/models/people.rb, app/models/prompt.rb, app/models/rating.rb, app/models/series.rb, app/models/tag.rb, app/models/user.rb, app/models/user_invite_request.rb, app/models/user_session.rb, app/models/warning.rb, app/models/work.rb, app/views/abuse_reports/new.html.erb, app/views/admin/_admin_nav.html.erb, app/views/admin/_admin_options.html.erb, app/views/admin_posts/_admin_index.html.erb, app/views/admin_posts/_admin_post_form.html.erb, app/views/admin_posts/edit.html.erb, app/views/admin_posts/index.html.erb, app/views/admin_posts/new.html.erb, app/views/admin_posts/show.html.erb, app/views/admin_sessions/new.html.erb, app/views/admins/show.html.erb, app/views/archive_faqs/_admin_index.html.erb, app/views/archive_faqs/_archive_faq_form.html.erb, app/views/archive_faqs/_archive_faq_order.html.erb, app/views/archive_faqs/edit.html.erb, app/views/archive_faqs/index.html.erb, app/views/archive_faqs/manage.html.erb, app/views/archive_faqs/new.html.erb, app/views/archive_faqs/show.html.erb, app/views/bookmarks/_bookmark.html.erb, app/views/bookmarks/_bookmark_form.html.erb, app/views/bookmarks/_bookmark_full_info.html.erb, app/views/bookmarks/_bookmark_owner_navi.html.erb, app/views/bookmarks/_bookmark_user_info.html.erb, app/views/bookmarks/_bookmarks.html.erb, app/views/bookmarks/edit.html.erb, app/views/bookmarks/index.html.erb, app/views/bookmarks/show.html.erb, app/views/challenge/gift_exchange/edit.html.erb, app/views/challenge_claims/show.html.erb, app/views/challenge_signups/_show_prompt.html.erb, app/views/chapters/_chapter.html.erb, app/views/chapters/_chapter_form.html.erb, app/views/chapters/_chapter_management.html.erb, app/views/chapters/manage.html.erb, app/views/chapters/new.html.erb, app/views/collection_items/_item_form.html.erb, app/views/collection_items/index.html.erb, app/views/collection_participants/_add_participants_form.html.erb, app/views/collection_participants/_participant_form.html.erb, app/views/collection_participants/index.html.erb, app/views/collections/_bookmarks_module.html.erb, app/views/collections/_collection_blurb.html.erb, app/views/collections/_filters.html.erb, app/views/collections/_form.html.erb, app/views/collections/_header.html.erb, app/views/collections/_works_module.html.erb, app/views/collections/edit.html.erb, app/views/collections/index.html.erb, app/views/collections/list_challenges.html.erb, app/views/collections/new.html.erb, app/views/collections/show.html.erb, app/views/comments/_comment_form.html.erb, app/views/comments/_comment_thread.html.erb, app/views/comments/_commentable.html.erb, app/views/comments/_confirm_delete.html.erb, app/views/comments/_single_comment.html.erb, app/views/external_works/_external_work_blurb.html.erb, app/views/external_works/new.html.erb, app/views/fandoms/index.html.erb, app/views/feedbacks/new.html.erb, app/views/gifts/_gift_search.html.erb, app/views/home/_tos.html.erb, app/views/home/index.html.erb, app/views/home/tos.html.erb, app/views/home/tos_faq.html.erb, app/views/invitations/index.html.erb, app/views/invite_requests/index.html.erb, app/views/known_issues/_admin_index.html.erb, app/views/known_issues/_known_issues_form.html.erb, app/views/known_issues/edit.html.erb, app/views/known_issues/index.html.erb, app/views/known_issues/new.html.erb, app/views/kudos/_kudos.html.erb, app/views/media/index.html.erb, app/views/orphans/about.html.erb, app/views/passwords/new.html.erb, app/views/people/_author_blurb.html.erb, app/views/people/_search_form.html.erb, app/views/people/index.html.erb, app/views/people/search.html.erb, app/views/pseuds/_byline.html.erb, app/views/pseuds/_pseud_blurb.html.erb, app/views/pseuds/_pseuds_form.html.erb, app/views/pseuds/index.html.erb, app/views/pseuds/new.html.erb, app/views/pseuds/show.html.erb, app/views/series/_series_blurb.html.erb, app/views/series/_series_order.html.erb, app/views/series/edit.html.erb, app/views/series/index.html.erb, app/views/series/manage.html.erb, app/views/skins/_form.html.erb, app/views/skins/_skin_navigation.html.erb, app/views/skins/_skin_style_block.html.erb, app/views/skins/_skin_top_navigation.html.erb, app/views/skins/_wizard_form.html.erb, app/views/skins/edit.html.erb, app/views/skins/index.html.erb, app/views/skins/new.html.erb, app/views/skins/new_wizard.html.erb, app/views/tag_wranglings/index.html.erb, app/views/tags/_search_form.html.erb, app/views/tags/edit.html.erb, app/views/tags/index.html.erb, app/views/tags/new.html.erb, app/views/tags/search.html.erb, app/views/tags/show.html.erb, app/views/tags/wrangle.html.erb, app/views/user_invite_requests/new.html.erb, app/views/user_sessions/_greeting.html.erb, app/views/user_sessions/_login.html.erb, app/views/user_sessions/_openid.html.erb, app/views/user_sessions/_openid_small.html.erb, app/views/user_sessions/_passwd.html.erb, app/views/user_sessions/_passwd_small.html.erb, app/views/user_sessions/new.html.erb, app/views/users/_contents.html.erb, app/views/users/_header.html.erb, app/views/users/_legal.html.erb, app/views/users/_openid.html.erb, app/views/users/_passwd.html.erb, app/views/users/_sidebar.html.erb, app/views/users/browse.html.erb, app/views/users/change_email.html.erb, app/views/users/change_openid.html.erb, app/views/users/change_password.html.erb, app/views/users/change_username.html.erb, app/views/users/confirmation.html.erb, app/views/users/delete_confirmation.html.erb, app/views/users/delete_preview.html.erb, app/views/users/edit.html.erb, app/views/users/new.html.erb, app/views/users/show.html.erb, app/views/works/_edit_multiple_controls.html.erb, app/views/works/_filters.html.erb, app/views/works/_meta.html.erb, app/views/works/_search_box.html.erb, app/views/works/_series_links.html.erb, app/views/works/_standard_form.html.erb, app/views/works/_work_blurb.html.erb, app/views/works/_work_footer.html.erb, app/views/works/_work_header.html.erb, app/views/works/_work_tags_form.html.erb, app/views/works/edit.html.erb, app/views/works/edit_multiple.html.erb, app/views/works/edit_tags.html.erb, app/views/works/index.html.erb, app/views/works/navigate.html.erb, app/views/works/new.html.erb, app/views/works/new_import.html.erb, app/views/works/show.html.erb, app/views/works/show_multiple.html.erb]","[app/views/challenge/gift_exchange/_gift_exchange_form.html.erb, app/views/challenge/gift_exchange/edit.html.erb, app/views/challenge/prompt_meme/_prompt_meme_form.html.erb, app/views/collections/_form.html.erb]","0.0092165899","0.5","[0efefef2807ab1780372a031bd0d1915c2698471, 6e267020018a27a6dfc7d432969cf08054c61408, b39c8e9f4b8ccef6be899c3de6b8902d5a3d2da3, af10c545a18bc15fc14fed4c2392b5e68fa071db, 4d1008e79ffeb9d43e63e9ed40c3299aaeb1c1a3]","1 minutes, 0.399 seconds","3.0.4","[cucumber-rails, rspec-rails, factory_girl]","31","[{path=otwcode_otwarchive/features/step_definitions/work_steps.rb, line=-1}]","153","193","[app/controllers/abuse_reports_controller.rb, app/controllers/admin/skins_controller.rb, app/controllers/admin_posts_controller.rb, app/controllers/admin_sessions_controller.rb, app/controllers/admins_controller.rb, app/controllers/archive_faqs_controller.rb, app/controllers/bookmarks_controller.rb, app/controllers/challenge/gift_exchange_controller.rb, app/controllers/challenge_claims_controller.rb, app/controllers/chapters_controller.rb, app/controllers/collection_items_controller.rb, app/controllers/collection_participants_controller.rb, app/controllers/collections_controller.rb, app/controllers/external_works_controller.rb, app/controllers/fandoms_controller.rb, app/controllers/feedbacks_controller.rb, app/controllers/home_controller.rb, app/controllers/invitations_controller.rb, app/controllers/invite_requests_controller.rb, app/controllers/known_issues_controller.rb, app/controllers/media_controller.rb, app/controllers/orphans_controller.rb, app/controllers/passwords_controller.rb, app/controllers/people_controller.rb, app/controllers/pseuds_controller.rb, app/controllers/serial_works_controller.rb, app/controllers/series_controller.rb, app/controllers/skins_controller.rb, app/controllers/static/collections_controller.rb, app/controllers/static/fandoms_controller.rb, app/controllers/static/media_controller.rb, app/controllers/static/works_controller.rb, app/controllers/tag_wranglings_controller.rb, app/controllers/tags_controller.rb, app/controllers/user_invite_requests_controller.rb, app/controllers/user_sessions_controller.rb, app/controllers/users_controller.rb, app/controllers/works_controller.rb, app/helpers/bookmarks_helper.rb, app/helpers/works_helper.rb, app/views/abuse_reports/new.html.erb, app/views/admin/_admin_nav.html.erb, app/views/admin/_admin_options.html.erb, app/views/admin_posts/_admin_index.html.erb, app/views/admin_posts/_admin_post_form.html.erb, app/views/admin_posts/edit.html.erb, app/views/admin_posts/index.html.erb, app/views/admin_posts/new.html.erb, app/views/admin_posts/show.html.erb, app/views/admin_sessions/new.html.erb, app/views/admins/show.html.erb, app/views/archive_faqs/_admin_index.html.erb, app/views/archive_faqs/_archive_faq_form.html.erb, app/views/archive_faqs/_archive_faq_order.html.erb, app/views/archive_faqs/edit.html.erb, app/views/archive_faqs/index.html.erb, app/views/archive_faqs/manage.html.erb, app/views/archive_faqs/new.html.erb, app/views/archive_faqs/show.html.erb, app/views/bookmarks/_bookmark.html.erb, app/views/bookmarks/_bookmark_form.html.erb, app/views/bookmarks/_bookmark_full_info.html.erb, app/views/bookmarks/_bookmark_owner_navi.html.erb, app/views/bookmarks/_bookmark_user_info.html.erb, app/views/bookmarks/_bookmarks.html.erb, app/views/bookmarks/edit.html.erb, app/views/bookmarks/index.html.erb, app/views/bookmarks/show.html.erb, app/views/challenge/gift_exchange/edit.html.erb, app/views/challenge_claims/show.html.erb, app/views/challenge_signups/_show_prompt.html.erb, app/views/chapters/_chapter.html.erb, app/views/chapters/_chapter_form.html.erb, app/views/chapters/_chapter_management.html.erb, app/views/chapters/manage.html.erb, app/views/chapters/new.html.erb, app/views/collection_items/_item_form.html.erb, app/views/collection_items/index.html.erb, app/views/collection_participants/_add_participants_form.html.erb, app/views/collection_participants/_participant_form.html.erb, app/views/collection_participants/index.html.erb, app/views/collections/_bookmarks_module.html.erb, app/views/collections/_collection_blurb.html.erb, app/views/collections/_filters.html.erb, app/views/collections/_form.html.erb, app/views/collections/_header.html.erb, app/views/collections/_works_module.html.erb, app/views/collections/edit.html.erb, app/views/collections/index.html.erb, app/views/collections/list_challenges.html.erb, app/views/collections/new.html.erb, app/views/collections/show.html.erb, app/views/comments/_comment_form.html.erb, app/views/comments/_comment_thread.html.erb, app/views/comments/_commentable.html.erb, app/views/comments/_confirm_delete.html.erb, app/views/comments/_single_comment.html.erb, app/views/external_works/_external_work_blurb.html.erb, app/views/external_works/new.html.erb, app/views/fandoms/index.html.erb, app/views/feedbacks/new.html.erb, app/views/gifts/_gift_search.html.erb, app/views/home/_tos.html.erb, app/views/home/index.html.erb, app/views/home/tos.html.erb, app/views/home/tos_faq.html.erb, app/views/invitations/index.html.erb, app/views/invite_requests/index.html.erb, app/views/known_issues/_admin_index.html.erb, app/views/known_issues/_known_issues_form.html.erb, app/views/known_issues/edit.html.erb, app/views/known_issues/index.html.erb, app/views/known_issues/new.html.erb, app/views/kudos/_kudos.html.erb, app/views/media/index.html.erb, app/views/orphans/about.html.erb, app/views/passwords/new.html.erb, app/views/people/_author_blurb.html.erb, app/views/people/_search_form.html.erb, app/views/people/index.html.erb, app/views/people/search.html.erb, app/views/pseuds/_byline.html.erb, app/views/pseuds/_pseud_blurb.html.erb, app/views/pseuds/_pseuds_form.html.erb, app/views/pseuds/index.html.erb, app/views/pseuds/new.html.erb, app/views/pseuds/show.html.erb, app/views/series/_series_blurb.html.erb, app/views/series/_series_order.html.erb, app/views/series/edit.html.erb, app/views/series/index.html.erb, app/views/series/manage.html.erb, app/views/skins/_form.html.erb, app/views/skins/_skin_navigation.html.erb, app/views/skins/_skin_style_block.html.erb, app/views/skins/_skin_top_navigation.html.erb, app/views/skins/_wizard_form.html.erb, app/views/skins/edit.html.erb, app/views/skins/index.html.erb, app/views/skins/new.html.erb, app/views/skins/new_wizard.html.erb, app/views/tag_wranglings/index.html.erb, app/views/tags/_search_form.html.erb, app/views/tags/edit.html.erb, app/views/tags/index.html.erb, app/views/tags/new.html.erb, app/views/tags/search.html.erb, app/views/tags/show.html.erb, app/views/tags/wrangle.html.erb, app/views/user_invite_requests/new.html.erb, app/views/user_sessions/_greeting.html.erb, app/views/user_sessions/_login.html.erb, app/views/user_sessions/_openid.html.erb, app/views/user_sessions/_openid_small.html.erb, app/views/user_sessions/_passwd.html.erb, app/views/user_sessions/_passwd_small.html.erb, app/views/user_sessions/new.html.erb, app/views/users/_contents.html.erb, app/views/users/_header.html.erb, app/views/users/_legal.html.erb, app/views/users/_openid.html.erb, app/views/users/_passwd.html.erb, app/views/users/_sidebar.html.erb, app/views/users/browse.html.erb, app/views/users/change_email.html.erb, app/views/users/change_openid.html.erb, app/views/users/change_password.html.erb, app/views/users/change_username.html.erb, app/views/users/confirmation.html.erb, app/views/users/delete_confirmation.html.erb, app/views/users/delete_preview.html.erb, app/views/users/edit.html.erb, app/views/users/new.html.erb, app/views/users/show.html.erb, app/views/works/_edit_multiple_controls.html.erb, app/views/works/_filters.html.erb, app/views/works/_meta.html.erb, app/views/works/_search_box.html.erb, app/views/works/_series_links.html.erb, app/views/works/_standard_form.html.erb, app/views/works/_work_blurb.html.erb, app/views/works/_work_footer.html.erb, app/views/works/_work_header.html.erb, app/views/works/_work_tags_form.html.erb, app/views/works/edit.html.erb, app/views/works/edit_multiple.html.erb, app/views/works/edit_tags.html.erb, app/views/works/index.html.erb, app/views/works/navigate.html.erb, app/views/works/new.html.erb, app/views/works/new_import.html.erb, app/views/works/show.html.erb, app/views/works/show_multiple.html.erb]","true","0.04291845510150307","5","[path:features/challenge_giftexchange.feature, text:My Gift Exchange gift exchange should be fully created], [path:features/challenge_promptmeme_springkink.feature, text:the following activated users exist], [path:features/challenge_yuletide.feature, text:the following activated users exist], [path:features/collection_anonymity.feature, text:the following activated users exist], [path:features/collection_anonymity.feature, text:0 emails should be delivered]","0",""
"otwarchive","2543","[23-06-2011]","1","3","[Merge pull request #190 from mumble/otwarchive  ---  Second attempt at fixing the visible HTML in collection notifications, copying code from potential_match_generation_notification.html.erb that seems to be working. , Removed puzzling and presumably superfluous line that was causing the giftexchange test to fail , second attempt at fixing the visible HTML in collection notifications ]","2","1","0","0","0","[]","0","[path:features/challenge_giftexchange.feature, size:1]","1","","0","","0","","0","","[]","","0","0","1","[]","[app/views/user_mailer/collection_notification.html.erb]","0.0","0.0","[18ba5b44b79ecbaf6598cf528b46b0e959763aed, bfdc52af85a5595d50e3be362899269e718005ab, 8f51529707853c586c99526e1e117a2ab4cf4282]","0.225 seconds","3.0.4","[cucumber-rails, rspec-rails, factory_girl]","0","[]","0","0","[]","true","0.0","0","","0",""
