"Repository","https://github.com/fourbeansoup/broth.git"
"TASK","HASH","RUBY","RAILS","COVERAGE","TESTS"
"5","73a4e902ddddde0ca287a331f5b644a1e3a89469","","","","features/users/account_update.feature(10);features/users/account_update.feature(16);features/users/account_update.feature(22);features/users/referral_sending.feature(6);features/users/user_signin.feature(7);features/users/user_signin.feature(14);features/visitors/public_profiles.feature(6);features/visitors/public_profiles.feature(12);features/visitors/user_signup.feature(8);features/visitors/user_signup.feature(16)"
