"Repository","https://github.com/fourbeansoup/broth.git"
"Precision mean (RT)","0.5"
"Precision median (RT)","0.5"
"Precision standard deviation (RT)","0.0"
"Recall mean (RT)","0.6875"
"Recall median (RT)","0.6875"
"Recall standard deviation (RT)","0.0"
"F2 mean (RT)","0.6395348837209303"
"F2 median (RT)","0.6395348837209303"
"F2 standard deviation (RT)","0.0"
"Correlation #Test-Precision","null"
"Correlation #Test-Recall","null"
"Task","Dates","#Devs","#Commits","Hashes","#Gherkin_Tests","#Sted_defs","#TestI","#TaskI","TestI","TaskI","Precision","Recall","Rails","#visit_call","Lost_visit_call","#Views_TestI","#Code_View_Analysis","Code_View_Analysis","Methods_Unknown_Type","Renamed_Files","Deleted_Files","NotFound_Views","#NotFound_Views","Timestamp","Has_Merge","#FP","#FN","FP","FN","#Hits","Hits","f2"
"5","[19-09-2009]","1","1","[73a4e902ddddde0ca287a331f5b644a1e3a89469]","10","3","22","16","[app/controllers/admin/emails_controller.rb, app/controllers/admin/invites_controller.rb, app/controllers/admin/site_settings_controller.rb, app/controllers/admin/users_controller.rb, app/controllers/invites_controller.rb, app/controllers/password_resets_controller.rb, app/controllers/referrals_controller.rb, app/controllers/user_sessions_controller.rb, app/controllers/users_controller.rb, app/models/site_setting.rb, app/models/user.rb, app/views/invites/_invite.html.haml, app/views/invites/new.html.haml, app/views/referrals/new.html.haml, app/views/shared/_notice_beta.html.haml, app/views/shared/_notice_invite_required.html.haml, app/views/shared/_notice_invites.html.haml, app/views/shared/_notice_referral.html.haml, app/views/user_sessions/new.html.haml, app/views/users/edit.html.haml, app/views/users/new.html.haml, app/views/users/show.html.haml]","[app/controllers/invites_controller.rb, app/controllers/referrals_controller.rb, app/controllers/users_controller.rb, app/models/invite.rb, app/models/profile.rb, app/models/referral.rb, app/models/referral_mailer.rb, app/models/user.rb, app/views/admin/site_settings/edit.html.haml, app/views/invites/_invite.html.haml, app/views/invites/new.html.haml, app/views/referrals/new.html.haml, app/views/shared/_notice_invites.html.haml, app/views/users/edit.html.haml, app/views/users/new.html.haml, app/views/users/show.html.haml]","0.5","0.6875","","6","[]","11","20","[app/controllers/admin/emails_controller.rb, app/controllers/admin/invites_controller.rb, app/controllers/admin/site_settings_controller.rb, app/controllers/admin/users_controller.rb, app/controllers/invites_controller.rb, app/controllers/password_resets_controller.rb, app/controllers/referrals_controller.rb, app/controllers/user_sessions_controller.rb, app/controllers/users_controller.rb, app/views/invites/_invite.html.haml, app/views/invites/new.html.haml, app/views/referrals/new.html.haml, app/views/shared/_notice_beta.html.haml, app/views/shared/_notice_invite_required.html.haml, app/views/shared/_notice_invites.html.haml, app/views/shared/_notice_referral.html.haml, app/views/user_sessions/new.html.haml, app/views/users/edit.html.haml, app/views/users/new.html.haml, app/views/users/show.html.haml]","[click_button, click_link, fill_in, response, contain, response, contain, current_url, path, raise, tell your friends, sign in, sign up, request invite, body, be_nil, Factory, controller, be_signed_in, be_signed_out, update_attributes]","","[]","[profile, root]","2","9.532 seconds","false","11","5","[app/controllers/admin/emails_controller.rb, app/controllers/admin/invites_controller.rb, app/controllers/admin/site_settings_controller.rb, app/controllers/admin/users_controller.rb, app/controllers/password_resets_controller.rb, app/controllers/user_sessions_controller.rb, app/models/site_setting.rb, app/views/shared/_notice_beta.html.haml, app/views/shared/_notice_invite_required.html.haml, app/views/shared/_notice_referral.html.haml, app/views/user_sessions/new.html.haml]","[app/models/invite.rb, app/models/profile.rb, app/models/referral.rb, app/models/referral_mailer.rb, app/views/admin/site_settings/edit.html.haml]","11","[app/controllers/invites_controller.rb, app/controllers/referrals_controller.rb, app/controllers/users_controller.rb, app/models/user.rb, app/views/invites/_invite.html.haml, app/views/invites/new.html.haml, app/views/referrals/new.html.haml, app/views/shared/_notice_invites.html.haml, app/views/users/edit.html.haml, app/views/users/new.html.haml, app/views/users/show.html.haml]","0.6395348837209303"
