"Repository","https://github.com/EFForg/action-center-platform.git"
"Tasks with empty IReal",""
"Tasks with no-empty IReal",""
"Tasks with relevant AST error",""
"Tasks with AST error of Gherkin files",""
"Tasks with AST error of StepDef files",""
"Tasks with AST error of production files",""
"Tasks with AST error of unit test files",""
"Tasks with step match error",""
"Tasks without required gems",""
"Tasks with changed stepdef",""
"Tasks with changed Gherkin",""
"Tasks with implemented Gherkin scenarios",""
"All invalid tasks",""
"All valid tasks (Gherkin scenario, no empty IReal, no error)",""
"Valid tasks, but empty ITest",""
"Valid tasks, no empty ITest, but zero precision-recall",""
"Valid tasks, no empty ITest, no zero precision-recall",""
"Project","","Date","#Days","#Commits","Commit_Message","#Devs","#Gherkin_Tests","#Impl_Gherkin_Tests","#StepDef","#Impl_StepDef","Methods_Unknown_Type","#Step_Call","Step_Match_Errors","#Step_Match_Error","AST_Errors","#AST_Errors","Gherkin_AST_Errors","#Gherkin_AST_Errors","Steps_AST_Errors","#Steps_AST_Errors","Renamed_Files","Deleted_Files","NotFound_Views","#Views","#TestI","#TaskI","TestI","TaskI","Precision","Recall","Hashes","Timestamp","Rails","Gems","#Visit_Call","Lost_visit_call","#Views_ITest","#Code_View_Analysis","Code_View_Analysis","Has_Merge","F2","#Multiple_Step_Matches","Multiple_Step_Matches","#Generic_Step_Keyword","Generic_Step_Keyword"
"action-center-platform","41","[28-06-2018, 13-07-2018]","16","3","[Fix 'I should be signed in' feature step , Change logout link to a form submit , Change logout from a GET to a DELETE request ]","1","3","3","3","3","[click_on, page, html, include, have_selector, have_content, not_to, click_on, fill_in, click_button, reset_password_token, confirm, reset_password_token, be_nil, gsub, be_truthy, click, page, has_content?, sleep, be_truthy, allow_any_instance_of, receive, and_return, allow, change my password, change, get email alerts]","0","","0","[[path:features/step_definitions/congress_steps.rb, msgs:[unexpected ':']]]","1","","0","[{path=features/step_definitions/congress_steps.rb, msgs=[unexpected ':']}]","1","","[]","[/login, /password/new, new_confirmation, new_password, new_registration, new_session, new_unlock, omniauth_authorize, privacy]","9","35","1","[app/controllers/admin/action_pages_controller.rb, app/controllers/admin/partners_controller.rb, app/controllers/admin/topic_categories_controller.rb, app/controllers/admin/topic_sets_controller.rb, app/controllers/admin/users_controller.rb, app/controllers/partners_controller.rb, app/controllers/registrations_controller.rb, app/controllers/smarty_streets_controller.rb, app/controllers/users_controller.rb, app/controllers/welcome_controller.rb, app/models/action_page.rb, app/models/congress_member.rb, app/models/partner.rb, app/models/tweet.rb, app/models/user.rb, app/views/admin/_header.html.erb, app/views/admin/_nav_tabs.html.erb, app/views/admin/action_pages/_date_range_form.html.erb, app/views/admin/action_pages/_panel_action_pages.html.erb, app/views/admin/action_pages/_panel_homepage_settings.html.erb, app/views/admin/action_pages/_panel_site_analytics.html.erb, app/views/admin/action_pages/_panel_topics.html.erb, app/views/admin/action_pages/edit.html.erb, app/views/admin/action_pages/index.html.erb, app/views/admin/partners/index.html.erb, app/views/devise/passwords/edit.html.erb, app/views/devise/registrations/edit.html.erb, app/views/devise/shared/_links.erb, app/views/partners/_form.html.erb, app/views/partners/edit.html.erb, app/views/subscriptions/_form.html.erb, app/views/tools/_loading.html.erb, app/views/users/edit.html.erb, app/views/welcome/_meta_tags.html.erb, app/views/welcome/index.html.erb]","[app/views/layouts/application.html.erb]","0.0","0.0","[c40d3f0838aaf9fd6546ea48c4a1e9a2877a9ac7, 6792e6c6bb03f7329bf1deca357ea6cd09a7d731, cd72919b46c1bf152f4645a589b7bf05928c2364]","20.075 seconds","4.2.6","[cucumber-rails, rspec-rails, factory_girl]","7","[]","20","29","[app/controllers/admin/action_pages_controller.rb, app/controllers/admin/partners_controller.rb, app/controllers/admin/topic_categories_controller.rb, app/controllers/admin/topic_sets_controller.rb, app/controllers/admin/users_controller.rb, app/controllers/partners_controller.rb, app/controllers/registrations_controller.rb, app/controllers/users_controller.rb, app/controllers/welcome_controller.rb, app/views/admin/_header.html.erb, app/views/admin/_nav_tabs.html.erb, app/views/admin/action_pages/_date_range_form.html.erb, app/views/admin/action_pages/_panel_action_pages.html.erb, app/views/admin/action_pages/_panel_homepage_settings.html.erb, app/views/admin/action_pages/_panel_site_analytics.html.erb, app/views/admin/action_pages/_panel_topics.html.erb, app/views/admin/action_pages/edit.html.erb, app/views/admin/action_pages/index.html.erb, app/views/admin/partners/index.html.erb, app/views/devise/passwords/edit.html.erb, app/views/devise/registrations/edit.html.erb, app/views/devise/shared/_links.erb, app/views/partners/_form.html.erb, app/views/partners/edit.html.erb, app/views/subscriptions/_form.html.erb, app/views/tools/_loading.html.erb, app/views/users/edit.html.erb, app/views/welcome/_meta_tags.html.erb, app/views/welcome/index.html.erb]","false","0.0","0","","0",""
"action-center-platform","63","[21-02-2018, 22-02-2018]","2","2","[Accept bioguide ids in ac embed config , Accept bio ids for congress message as url param ]","1","1","1","1","1","[gsub, click_button, page, have_content]","0","[path:features/action_page/congress_message.feature, size:1]","1","[[path:features/step_definitions/congress_steps.rb, msgs:[unexpected ':']]]","1","","0","[{path=features/step_definitions/congress_steps.rb, msgs=[unexpected ':']}]","1","","[]","","0","2","3","[app/controllers/admin/action_pages_controller.rb, app/models/action_page.rb]","[app/controllers/action_page_controller.rb, app/helpers/congress_message_helper.rb, app/views/tools/_congress_message.html.erb]","0.0","0.0","[1a3de108fc5fcd8c0973f8cec00cd0f5684269b2, 116df6799dec760b8b634285a336ac9bd1c735f3]","1.393 seconds","4.2.6","[cucumber-rails, rspec-rails, factory_girl]","1","[]","0","1","[app/controllers/admin/action_pages_controller.rb]","false","0.0","0","","0",""
"action-center-platform","92","[21-09-2017]","1","1","[Allow partners to link to page with their signup form ]","1","2","2","1","1","[find, click, fill_in, click_button, page, has_content?, sleep, code, gsub, trigger, page, have_content, rows_hash, find_by, be_nil, not_to, sleep]","1","[path:features/action_page/congress_message.feature, size:1]","1","[[path:features/step_definitions/congress_steps.rb, msgs:[unexpected ':']]]","1","","0","[{path=features/step_definitions/congress_steps.rb, msgs=[unexpected ':']}]","1","","[]","","0","4","2","[app/controllers/admin/action_pages_controller.rb, app/models/action_page.rb, app/models/partner.rb, app/models/petition.rb]","[app/helpers/action_page_helper.rb, app/views/tools/_newsletter_signup.html.erb]","0.0","0.0","[627494a85bd127ca8ca793790d3f329124d78d9e]","1.701 seconds","4.2.6","[cucumber-rails, rspec-rails, factory_girl]","2","[]","0","1","[app/controllers/admin/action_pages_controller.rb]","false","0.0","0","","0",""
"action-center-platform","93","[12-09-2017, 14-09-2017, 18-09-2017, 19-09-2017, 20-09-2017]","9","14","[Move all email signup logic to newsletter_signup.js, don't need $.ready , Require email if newsletter signup true , Randomize partner less disruptively , Mock civicrm with webmock in Cucumber , Add civicrm stub setup , Fix specs , Clean up civicrm feature mock , Mock calls to CiviCRM , Post email tool to email action , Bye yahoo , Use a single partial for newsletters , Correctly process partners on petition , Group form elements required for eff newsletter with eff newsletter radios , Randomly show a single newsletter signup ]","2","7","7","7","7","[gsub, find, set, click, page, have_css, page, have_css, sub, have_requested, click_on, have_selector, fill_in, click_button, click_button, driver, browser, window_handles, eq, trigger, fill_in, have_content, find, has_content?, sleep, rows_hash, find_by, be_nil, not_to, sleep]","1","[path:features/action_page/congress_message.feature, size:1]","1","[[path:features/step_definitions/congress_steps.rb, msgs:[unexpected ':']]]","1","","0","[{path=features/step_definitions/congress_steps.rb, msgs=[unexpected ':']}]","1","","[app/views/tools/_email_signup_radios.html.erb]","[/login]","1","7","9","[app/controllers/admin/action_pages_controller.rb, app/models/action_page.rb, app/models/call_campaign.rb, app/models/email_campaign.rb, app/models/partner.rb, app/models/petition.rb, app/models/user.rb]","[app/controllers/tools_controller.rb, app/models/email_campaign.rb, app/views/layouts/application.html.erb, app/views/tools/_call.html.erb, app/views/tools/_congress_message.html.erb, app/views/tools/_email.html.erb, app/views/tools/_newsletter_signup.html.erb, app/views/tools/_petition.html.erb, lib/civicrm.rb]","0.1428571429","0.1111111111","[38ee5dbfc7af2ace11e1360734960023f52c890e, d8bfb73409c67644a20041733c5337362743881e, 14f5f001d898df03adaee3ec13ed4816c42b4488, faaffa6e6b8b6c58547225b408f1bae76f94144d, 2f625705930775765987bb42c970520921f79e6d, 1d18105da07fb65c486d8794494e481f50acd7c9, 83a2cebc8241e31e2eebfe1ea5283934b2747f95, a7fcba075929b6b16621252f60637e6d6ab05bc9, 327860abf523d03c1c598cdef818b9a5e5b768b1, 0c51f2cfdc6355d604313928b1ed885666090385, daaab935be1ce907376406600153983e1a641a50, bd667cba01b6308e10d23523f14dc362ca90b802, 6fa693b500310cd6d8a15c82d81b8bded26ca1c4, b3a81d74d8b3261fafe87a84d71b0f4fbc90430c]","2.555 seconds","4.2.6","[cucumber-rails, rspec-rails, factory_girl]","2","[]","0","1","[app/controllers/admin/action_pages_controller.rb]","false","0.1162790697633856","0","","0",""
"action-center-platform","100","[07-09-2017, 08-09-2017, 11-09-2017]","5","14","[Only show action center signup link to anon users on call tool , Use a no-js solution for fancy checkbox images , Don't rely on factorygirl sequence in tests  They can be reset between tests, but thoughtbot says not to: https://robots.thoughtbot.com/getting-sequential-a-look-into-a-factory-girl , Fix small logic fail , Pass zip:false to hide zip on newsletter form , Check for action page before creating partner subscription , Process partner signups on call tool , Always ask for newsletter signup  We can hide this based on a partner param in #314 , Don't duplicate partner radio buttons on js insertion , Render all partner signups on backend , Only show newsletter signup to anonymous users , Trigger click event to prevent intermittent failures  See https://github.com/teampoltergeist/poltergeist/issues/530. I think these tests are failing because of an interaction between the click and some kind of animation or css transition. Triggering the click event on the element solves the proble [TOO_LONG]","1","3","3","4","4","[click_button, find, trigger, click, gsub, fill_in, page, have_content, find, gsub, nil?, set, fill_in, click_button, rows_hash, find_by, be_nil, not_to, table, rows_hash, create!, sleep]","5","[path:features/action_page/congress_message.feature, size:1]","1","[[path:features/step_definitions/congress_steps.rb, msgs:[unexpected ':']]]","1","","0","[{path=features/step_definitions/congress_steps.rb, msgs=[unexpected ':']}]","1","","[]","[/login]","1","13","9","[app/controllers/admin/action_pages_controller.rb, app/models/action_page.rb, app/models/call_campaign.rb, app/models/partner.rb, app/models/user.rb, app/views/admin/_header.html.erb, app/views/admin/_nav_tabs.html.erb, app/views/admin/action_pages/_date_range_form.html.erb, app/views/admin/action_pages/_panel_action_pages.html.erb, app/views/admin/action_pages/_panel_homepage_settings.html.erb, app/views/admin/action_pages/_panel_site_analytics.html.erb, app/views/admin/action_pages/_panel_topics.html.erb, app/views/admin/action_pages/index.html.erb]","[app/controllers/action_page_controller.rb, app/controllers/tools_controller.rb, app/helpers/tools_helper.rb, app/models/action_page.rb, app/views/tools/_call.html.erb, app/views/tools/_congress_message.html.erb, app/views/tools/_email.html.erb, app/views/tools/_email_signup_radios.html.erb, app/views/tools/_newsletter_signup.html.erb]","0.0769230769","0.1111111111","[1c58fcc411002d78c78569b043fbd6ec200d1442, ba68239f716d9eb31f9895842e455c2e88c29478, 5c6a92cc863325ab77dfb6f9b632d556ebb96992, a4f0a1a09d29e71bfd12482391b2434ab33b804e, b6300da8cbd11a8d74159ddae99cf43ca179601a, 46dfb70a913026f18752858066298c41631fe467, 98495f51122a13b764ef781ce602fbd8dac4ba7b, b3e3595f79f6681dc36d559ea46a92991f10c6e3, 20b05559eef010cf99c89fa4585221ba3fa15441, dfafd030c2099d3150a8efc9f3b20742659f2df9, 1b48e20874df70bdc9d6d1b22a8a0e5f699ba867, f95c6fef1b0153beee25871771eb12a775a000f7, 3ed413603030e3547f2d510e37068f2817769d67, 992e10c37015c22b4d50b46cef8b1aadc6d94c31]","5.528 seconds","4.2.6","[cucumber-rails, rspec-rails, factory_girl]","3","[]","8","9","[app/controllers/admin/action_pages_controller.rb, app/views/admin/_header.html.erb, app/views/admin/_nav_tabs.html.erb, app/views/admin/action_pages/_date_range_form.html.erb, app/views/admin/action_pages/_panel_action_pages.html.erb, app/views/admin/action_pages/_panel_homepage_settings.html.erb, app/views/admin/action_pages/_panel_site_analytics.html.erb, app/views/admin/action_pages/_panel_topics.html.erb, app/views/admin/action_pages/index.html.erb]","false","0.10204081631091212","0","","0",""
