"Repository","https://github.com/opf/openproject.git"
"Tasks with empty IReal","0"
"Tasks with no-empty IReal","28"
"Tasks with relevant AST error","10"
"Tasks with AST error of Gherkin files","0"
"Tasks with AST error of StepDef files","0"
"Tasks with AST error of production files","10"
"Tasks with AST error of unit test files","0"
"Tasks with step match error","28"
"Tasks without required gems","0"
"Tasks with changed stepdef","21"
"Tasks with changed Gherkin","28"
"Tasks with implemented Gherkin scenarios","1"
"All invalid tasks","28"
"All valid tasks (Gherkin scenario, no empty IReal, no error)","0"
"Valid tasks, but empty ITest","0"
"Valid tasks, no empty ITest, but zero precision-recall","0"
"Valid tasks, no empty ITest, no zero precision-recall","0"
"Project","Task","Date","#Days","#Commits","Commit_Message","#Devs","#Gherkin_Tests","#Impl_Gherkin_Tests","#StepDef","#Impl_StepDef","Methods_Unknown_Type","#Step_Call","Step_Match_Errors","#Step_Match_Error","AST_Errors","#AST_Errors","Gherkin_AST_Errors","#Gherkin_AST_Errors","Steps_AST_Errors","#Steps_AST_Errors","Renamed_Files","Deleted_Files","NotFound_Views","#Views","#TestI","#TaskI","TestI","TaskI","Precision","Recall","Hashes","Timestamp","Rails","Gems","#Visit_Call","Lost_visit_call","#Views_ITest","#Code_View_Analysis","Code_View_Analysis","Has_Merge","F2","#Multiple_Step_Matches","Multiple_Step_Matches","#Generic_Step_Keyword","Generic_Step_Keyword"
"openproject","8957","[11-06-2012]","1","4","[disabling instead off commenting out cukes for which the desired behaviour is unclear  * this is more explicit, fixing and then disabling the cuke for jumping from a project cost report to the overall cost report, destroy private cost queries upon user deletion, reassociate public once to the DeletedUser, remove the deleted user's id from filters in public cost_queries, Filter results connected to a user who is no longer existing are displayed as belonging to a DeletedUser]","1","5","0","0","0","[]","0","[path:features/filter.feature, size:1]","1","[[path:app/models/cost_query/filter/issue_id.rb, msgs:[unexpected tLABEL_END]]]","1","","0","","0","","[]","","0","0","2","[]","[app/helpers/reporting_helper.rb, app/models/cost_query.rb]","0.0","0.0","[0b1699c0dc1bd5bac33216e0a36e9eb0b403212a, bca36aa7235db6b55ef5f618fe8c974945efd702, 6809ccf1ae7cf2bcf18ed9a496176df12aa1dde0, 2fe9f35196b153fa538726a21c572237e49d866c]","0.029 seconds","","[]","0","[]","0","0","[]","false","0.0","0","","0",""
"openproject","8986","[14-05-2012]","1","1","[fixes deleting cost entries in the entry table ]","1","3","0","1","1","[find, click]","1","[path:features/links.feature, size:1], [path:features/step_definitions/custom_steps.rb, size:1]","2","[[path:app/models/cost_query/filter/issue_id.rb, msgs:[unexpected tLABEL_END]]]","1","","0","","0","","[]","","0","0","1","[]","[lib/redmine_widgets/entry_table.rb]","0.0","0.0","[83520fa63211a537b47d8e30aed8cdf10d881ecd]","0.022 seconds","","[]","0","[]","0","0","[]","false","0.0","0","","0",""
"openproject","8993","[07-05-2012]","1","3","[split up costlog controller edit into new, create, edit, update  * fix mass_assignment problem on create * changing routes  * will still need more refactoring, specfix: restoring original permissions so they do not interfere with other tests , taking the user provided by :for option if available ]","1","1","0","0","0","[]","0","[path:features/credit_unit_costs.feature, size:2]","2","[[path:lib/costs_issues_controller_patch.rb, msgs:[unexpected ':']]]","1","","0","","0","","[]","","0","0","5","[]","[app/controllers/costlog_controller.rb, app/helpers/costlog_helper.rb, app/models/cost_entry.rb, app/models/cost_type.rb, lib/costs/principal_allowance_evaluator/costs.rb]","0.0","0.0","[3d4ea2c4cc8d2c5b51267161776492b04797a682, a762a8d9af5464c76b30f84e7c81c2e7cd12e2e0, 66e3adea93bc2be2da55012fa8efb89f957f3390]","0.029 seconds","","[]","0","[]","0","0","[]","false","0.0","0","","0",""
"openproject","8996","[14-02-2012, 20-02-2012, 14-03-2012, 16-03-2012, 22-03-2012, 29-03-2012, 02-04-2012, 03-04-2012]","50","10","[Releasing 2.1.0  * accessibility adaptations * breadcrumb * plays nicely with acts_as_journalized * fix unit costs not appearing in issue page * rewritten allowed_to? modifications , remove dead code  * membership_type never returned a symbol , rewritten allowed_to? modification to be compatible with new core implementation  * defining our own AllowanceEvaluator * no longer overwriting allowed_to * adding tests for changed allowed_to? decisions , show log unit costs in issue detail page, fixes #26310 , adding a new journal formatter that handles the cost association  on issues  registering cost_object_id, testing recreate_initial_journal! for cost_objects, acts_as_journalized for variable_cost_object  * removed from cost_object as acts_as_journalized does not play well with subclasses * create migration for recreating initial journals , change empty line coding , [unifynavigation] remove new budget link from index page, [breadcrumb] replace default breadcrumb text ]","3","3","0","2","2","[rows_hash, has_key?, eval, created_on, to_date, save!, journals, update_attribute]","0","[path:features/activity.feature, size:2]","2","[[path:lib/costs_issues_controller_patch.rb, msgs:[unexpected ':']]]","1","","0","","0","","[]","","0","1","6","[app/models/variable_cost_object.rb]","[app/controllers/cost_types_controller.rb, app/models/cost_object.rb, app/models/variable_cost_object.rb, lib/costs/principal_allowance_evaluator/costs.rb, lib/costs_issue_patch.rb, lib/costs_user_patch.rb]","1.0","0.1666666667","[ca064573408af2fe4415b04b0c68e5397f6f5c6d, bb0e066944ccd9cd7124d311fb2b1e08ecdf418f, 7a3f52f34c5c34caf0c1c6c943928b4f577bdde4, 2000f4a377aad77c92002a5973bad7d3aeee61ea, 34d11a33facd7c7715395378eba6526a98198b7f, ddb2dcbbf805864fe88fa60bf079149e44f3e281, 5027a42a8df2c7784003345a8f2ae35bbc1c1835, cdb2e8e54d93aad410124c9d8fb85bc6cbd163e8, 7807df9c68252c44bf8bd858a604c6859bcbd52e, c28104f36b3c1f94d416075620c19066599f8daa]","0.041 seconds","","[]","0","[]","0","0","[]","false","0.2000000000384","0","","0",""
"openproject","8999","[02-08-2011, 18-08-2011, 19-08-2011, 27-01-2012]","179","6","[remove 'beta' from meetings , Select the minutes tab on oplock save error., adding cucumber to op lock feature , release 1.3.0 , add Optimistic Locking for Meeting Agenda/Minutes , Releasing 1.2.3  Bug Fixes  * Suppressed Referer led to 500]","3","1","0","2","2","[save!, agenda, save!]","0","[path:features/meetings_locking.feature, size:2]","2","","0","","0","","0","","[]","","0","1","4","[app/models/meeting.rb]","[app/controllers/meeting_contents_controller.rb, app/helpers/meeting_contents_helper.rb, app/models/meeting_content.rb, app/views/meeting_contents/_form.html.erb]","0.0","0.0","[c0f495387409167982dd95375b5455735202fca4, b1de1549456401540c8806a89952e97447c8042c, 9a4a70a8602107937a3c46847208482c0b3d28ec, 9653338407cbdb6178899b64688a56ac0257c856, fba2f07258c5637b0e819b31e1235c9c0b5c47eb, 59e2a5c467cea1ffc936e49418347a4774214c3c]","0.012 seconds","","[]","0","[]","0","0","[]","false","0.0","0","","0",""
"openproject","9000","[19-08-2011, 21-09-2011, 07-10-2011, 16-12-2011, 27-01-2012, 15-02-2012, 20-02-2012, 23-02-2012, 16-03-2012, 12-04-2012, 24-04-2012, 25-04-2012]","251","22","[use correct inflection, change breadcrumb to 'Meetings' for everyone , show the error flash only once , protect from mass assignment attacks , Plain text doesn't need html_escaped content , Add the content of the agenda/minutes in review request mails , Text was changed in core - updating cuke accordingly , testing recreate_initial_journal! for meetings, [accessibility] automatically focus the first input element when view is rendered, [unifynavigation] move new meetings link to project menu, use gregors fancy named scope, [designfix] show history only if there is one, remove 'beta' from meetings, [accessibility] adding hidden labels for invited and attended user checkboxes, [accessibility] jump to error message field ""duration"", Correct activity path, doesn't rely on clicking around., Make the diff view work again., Delete meetings when deleting the project it is in., Remove surprising notes in MeetingJournals, Load classes to make sure, that the Journal classes are created as well, [TOO_LONG]","4","3","0","0","0","[]","0","[path:features/meetings_locking.feature, size:2], [path:features/meetings_activity.feature, size:2]","4","","0","","0","","0","","[]","","0","0","12","[]","[app/controllers/meeting_contents_controller.rb, app/controllers/meetings_controller.rb, app/models/meeting.rb, app/models/meeting_agenda.rb, app/models/meeting_content.rb, app/models/meeting_participant.rb, app/views/meeting_contents/_form.html.erb, app/views/meeting_contents/diff.html.erb, app/views/meetings/_form.html.erb, app/views/meetings/index.html.erb, app/views/meetings/show.html.erb, lib/redmine_meeting/patch_redmine_classes.rb]","0.0","0.0","[c120ce7d1350d8367c5d8f0634b30814bc034c0b, b73a764f1231faa42d2e409968455df4373bdbb2, d75043e9cadc601c54ca036ad635ccd21c104a7f, b18fb9bd991822cc10ec9118b8ddd8986b2fcb7a, 087640f3c51fb28df11c4980f12e76702e59d319, e114b57e0c7dc2ddcc606da385a65cf61aae5de0, 0fe66967c4cd6cb887f62468b6d2343869efaea6, 3fdefac0089ceb2b803d0fbc53b62b4dd6cdbe89, 8d3ffd622fec31628a90aa09715ee039c1036518, 20dd144ec592c9a1b090708e083f2a90a8a09509, 3ebd9fb4352a6689f6fef6f64704f649c528fbff, 4f35697493a775f2cf92e0ccd77dabd2cc93d97e, b84407ef466a1803df4ed3f17663fc9a0eb6d2b0, 24633984221208df9ba1087faa4ef2fde22ae3b6, 624768af7032a8076aab748f74284405b295e16a, 4bc49cd654fdfe32789d612a0d10ab0906c6cb49, c202cc782a2a491034083f0c2d09893c9aa64e61, a6be1bd7f941cbb1cec9893bfb430e4ec1576717, d1cbe93cfeac55d0825aa75473c69440e201c475, 4208f1cdec1160145735c24fa5140548f1703ca3, 601d0fdd8770ed8958c33725dab3e57b3712f6d9, 1542447a9e789eccf1cb6f4c97b08f7ca515c397]","0.010 seconds","","[]","0","[]","0","0","[]","false","0.0","0","","0",""
"openproject","9202","[15-09-2011, 16-09-2011, 22-09-2011]","8","6","[specify the scope in our DOM when grouping in cuces to please IE , fixin' the cukes, have to use ids on some occasions because capybara does not lightly click on a lowly span , dont use css ids for identifying what a user should see. also, keep waiting for ajax , steps to ensure saving queries respects permissions and doesn't fail horribly doing so , removes some non-sensical steps , moves displaying report lists to several partials ]","1","9","0","1","1","[]","0","[path:features/saving.feature, size:2], [path:features/grouping.feature, size:1]","3","[[path:app/models/cost_query/filter/issue_id.rb, msgs:[unexpected tLABEL_END]]]","1","","0","","0","","[]","","0","0","1","[]","[app/controllers/cost_reports_controller.rb]","0.0","0.0","[e8352e28a80832cf6f2b416557f3283a0fbe4371, cca54ccdd39fbb9da4a2aac4c6ab8d34526b8009, becd6b6ee1ffef3f774e0d3438e01d5340d21a4a, 938e07819447e463ece03f73fe52f0cac5ccc262, 38b27aa6a0f4d6af2d69a4bb63126d70eaa6cf27, c18e5367155b76cff7bdc1a3b3548f9248594acf]","0.021 seconds","","[]","0","[]","0","0","[]","false","0.0","0","","0",""
"openproject","9209","[28-08-2011, 30-08-2011, 31-08-2011, 01-09-2011]","5","9","[cukefix for issue_hierarchy_boundaries  * field_parent_issue is renamed by another plugin, releasing 0.10.9 , prevent parent-child relationships between stories and tasks to span project boundaries , Im Modalfenster wird die Zeit nun als Label angezeigt. In der normalen Ticketansicht bleibt es weiterhin editierbar.  refs #8400 , remove unnecessary method , caching backlogs_tracker , rewriting fixed_version propagation so that it does not produce stale objects , making cuke step ...should have target version more flexible , Release 0.10.8: fix issue modal box on chili 2]","3","2","0","3","3","[fixed_version, eql, raw, blank?, each]","0","[path:features/issue_hierarchy_restriction_project_boundaries.feature, size:2], [path:features/fixed_version_by_issue_hierarchy.feature, size:2]","4","[[path:lib/redmine_backlogs/issue_form.rb, msgs:[unexpected tSTRING_BEG]]]","1","","0","","0","","[]","","0","1","2","[lib/backlogs_project_patch.rb]","[lib/backlogs_issue_patch.rb, lib/redmine_backlogs/issue_form/fields_paragraph.rb]","0.0","0.0","[b9ef37d6627a24e19f6810c6bc768e412a67ae43, 5ba9769e753652523d2c312fdee89546c59d430c, 4e3c9e55a4814b4f8ee95123e90cc5b46ad5cb74, 3f702033e88c5804ff1635f38ff5bc655e8645f6, ab07d080c5a11d2612001003f9785a5bf7e5e1d8, 37088fa59bca73c83b0451e28200c97fb7eb70e9, c164dca785beafbb22d6ba8b339e3e1d7f70c821, 33535d280b47a645c0b91267ffa3170adff8b5cb, ffa7534c4a34b12266c573672f68e91cc8d225a8]","0.058 seconds","","[]","0","[]","0","0","[]","false","0.0","0","","0",""
"openproject","9220","[28-07-2011, 05-08-2011]","9","3","[Fix cuke steps to work with optimistic locking, stubbing away check_if_login_required  Don't know why, but this was needed to make the tests run in my env - should not be harmful for others, adding some reloads to fix StaleObjectError]","2","1","0","2","2","[id, send_table_to_object]","0","[path:features/meetings_show.feature, size:2]","2","","0","","0","","0","","[]","","0","3","1","[app/models/meeting.rb, app/models/meeting_agenda.rb, app/models/meeting_minutes.rb]","[app/views/meetings/show.html.erb]","0.0","0.0","[61e6ee2bd16cc1557bf65b6f5eb5037630a3bb32, 35020f690c3f808925ef1b0bebe0df89212ffe0f, cb81df40e769464d24641a40e733d76d071a99f4]","0.013 seconds","","[]","0","[]","0","0","[]","false","0.0","0","","0",""
"openproject","9222","[11-08-2011]","1","8","[Avoiding exceptions, Actually tasks may already act as list, Refactoring the way backlogs aa_list is implemented  This way it should be compatible with postgres and perhaps less magic, only updating direct task descendants - if theres a task in between, we are not going to update it , cukefix: whitespace leading to issue not found, more robustness in used step_definition , Fix task should get version from nearest ancestor story not farthest , Only showing those statuses that are available for the story's tracker  This needs to be further limited to the accessible statuses - depending on the workflows , Sorting journals by date to ensure proper calculations  Postgres does not deliver them in proper order by default Conflicts:  	app/models/burndown.rb ]","3","1","0","1","1","[find, attributes, id, fixed_version_id, page, driver, url_for, merge, post]","0","[path:features/scrum_master.feature, size:2]","2","[[path:lib/redmine_backlogs/issue_form.rb, msgs:[unexpected tSTRING_BEG]]]","1","","0","","0","","[]","","0","2","7","[app/models/story.rb, app/models/task.rb]","[app/models/burndown.rb, app/models/impediment.rb, app/models/story.rb, app/models/task.rb, app/views/rb_stories/_helpers.html.erb, lib/backlogs_issue_patch.rb, lib/backlogs_list.rb]","1.0","0.2857142857","[c5e10796409c826fa08e4127d1f885e20ae1d454, 4b70e6cd58c5d1769f01eef59ee175121040bbb9, 32d94113f6638f28b6273c02ccace946a08c816c, a528fa77a7217f421fe17e61c47b93f7e8308209, 99637a912d695c53c8f7f1b0b3b55ba2faa0f547, 91d5424a635191158de54cc083ce718f71108ad9, 15f986ebcdf731451f2252dcca386f78691050c1, 6b5a5ca6453dcb5c3802275f414bb0b4cd59fd86]","0.049 seconds","","[]","0","[]","0","0","[]","false","0.3333333333177778","0","","0",""
"openproject","9245","[15-07-2011, 19-07-2011, 20-07-2011]","6","20","[add form_authenticity_token to delete request for time and cost entries. adjust the request method (timeentries => delete, costentries => post). Tickets #4417 and #4416 , make last column (edit|delete) in entrytable unsortable , close break tags , remove old partials that have been replaced by widgets , adjust label_new_report for english so that no information gets lost because of removing the duplicate headline , Ticket #4415: remove 'Cost Report' headline , --allow-empty-message , Dev-Ticket #4409: fixes short headers in EntryTable , ensure proper rendering of ProjectId#available_values , engine is no longer defined in ReportingHelper , never try to render the progressbar instead of the table. fixes no render on GET , override Controller#index to provide the respond_to hook that redmine_export uses for excel exporting , fix image_tag , add missing translations , make sure the excel export and notes stay visible when replacing the report table , workaround the fact that ProgressBar [TOO_LONG]","3","3","0","0","0","[]","0","[path:features/links.feature, size:1]","1","[[path:app/models/cost_query/filter/issue_id.rb, msgs:[unexpected tLABEL_END]]]","1","","0","","0","","[]","","0","0","4","[]","[app/controllers/cost_reports_controller.rb, app/helpers/reporting_helper.rb, app/models/cost_query/filter/project_id.rb, lib/redmine_widgets/entry_table.rb]","0.0","0.0","[3ab3547e56aa9e949a1a765732a442f9e7e0039a, 9b52b24055ceb46610c28593e880f0be6a337ec8, e16ec0aadbeba12d353635949cc043241a883903, 1d81ae40286c8bdab8006c0238106b78cf052812, 58b3e59fceb05340e8eff853aba409e7a47bf6a2, 2c5a17d82aded17394db1967285600782edd73c0, 1a67f821762a746c9a3b25097c82f13ba02a584b, 80c31da7bd3a45c24c8952cff0a531094d8641b4, bdd63891ba04be5fbb2c57484aa8c15ac544ea75, 7db14c146af4cbb68f97f867df1b08c437a50610, ba301b372689584af82dbe15c9dcf0ad1fc0baa2, cbf0e738622af1edba270b272bd8c03bb80aae66, 59b8053c479ad42c6d5532286ed76333aa682e03, fecae543e2ca077203f1a473fad393c6818650bd, a960092bb7a4c9b46564506fbea2e979692794a4, fdab4965dd40e26d00503a5af09e5d971ff71159, e03d7e9600af5bb739fdbf04d05cfa88d887f1d6, 5bcfe9bb74c8bbd251fdf305ca1ef51e07dbf3a4, 5a979206f97a8062210dfac8bf3b817e97790d9c, b96af0d7f005fa312cccc2b2b2209ae907090b17]","0.018 seconds","","[]","0","[]","0","0","[]","false","0.0","0","","0",""
"openproject","9253","[01-07-2011, 06-07-2011, 07-07-2011, 15-07-2011]","15","25","[make simple and detailed table work , remove definition of l() from query utils , fix ReportingHelper definition of l() , spice the load path, instead doing a find-match-require over redmine widgets , use our own simple table widget by opening Widget::Table , Fix grouping cukes , fix filter steps , fix a few more cucumber steps , start adjusting specs to new widgets , make saved queries accessible in sidebar , Sort out FIXME. Remove find_optional_project from CostReportsController, it's in ApplicationController since Redmine 1.0 , add permissions to save private/public reports , sort before_filters, hopefully right this time , deactivate widget cache , add fixmes to index.rhtml , cost type tabs now look the same as previously , make cost type tabs actually work, switching color etc. , use engine javascript for cost type tabs , include application helper in reporting helper , order before_filters , use our widgets for rendering the cost reports , update the reporting helper with code  [TOO_LONG]","2","7","0","6","6","[find_by_id, find, select_option, find, click, page, evaluate_script, find_by_id, all, has_no_content?, all?, has_content?, any?, click]","0","[path:features/filter.feature, size:1], [path:features/grouping.feature, size:1], [path:features/links.feature, size:1]","3","[[path:app/models/cost_query/filter/issue_id.rb, msgs:[unexpected tLABEL_END]]]","1","","0","","0","","[lib/redmine_widgets.rb, lib/redmine_widgets/table.rb]","","0","0","9","[]","[app/controllers/cost_reports_controller.rb, app/helpers/reporting_helper.rb, app/models/cost_query/filter/cost_type_id.rb, app/models/cost_query/filter/issue_id.rb, app/models/cost_query/filter/user_id.rb, app/models/cost_query/query_utils.rb, lib/redmine_widgets/entry_table.rb, lib/redmine_widgets/simple_table.rb, lib/redmine_widgets/sortable_init.rb]","0.0","0.0","[716162a5b9ecfe2a7f0013ed5dfa22171bb5bd86, 7c5fde821058fb4f761a8e1cfe459149d4e9179b, 1d05c873e8c2dc6aa1e2874d86c6e2e1fe9c3504, 089678871f840fcbaafd375e823a2e76db417f71, 78288913b59a4f67dd41ed0c7b810e6a608d15ae, db22db92fd3501ef159684547592e1e921671d89, cdacede9565ec790991d4b926cb0af9f7d426b1f, 9e07ff75307f29bd13115e9822e24c914b20ff4f, 6cc2f23d49d8830c81025404810f65a7970048d2, 564a22100012abc310384c568db3eba3b5b8d97b, c10a4c58f40e02419c9cf64a2b82948874fa04c3, 6f8cd44d1f35242e5f0539da8cfdeebf4be8f80c, b07e42c4280ecc0c07b9f72e8d3e3272cbe93c4e, cb42254f3284b42c01323d50985b0d15dab47b4a, d110ee5d734dce444bf18d87a6bd0ac524ab79dd, 2c2873fe89825d8e6892d875b973dd9a3d8bfdb3, 336b5d3ae6782a6b32c31a56cb863bf44889d96a, c8abe970cf2acdda141969492c32597ce0df26bb, 1aca1930da6ddfb9c8a903603860391e6fee023e, 894e170b162566da51153d102db732209e7b2ffd, 8ba2b7f383fd247a95ad4d8636823e221880e01c, c748a5806fbbd898dbbc2f06f6e39c6cbe3e43e4, 443b7457ef32c1ca97df2aa6f93eaf2a71f305ac, a2ed89e1e3879a1e7cf6fa0e14a41d8e9a1da650, 897ee4d963412c43f7814c7e5b8965356b844cb6]","0.024 seconds","","[]","0","[]","0","0","[]","false","0.0","0","","0",""
"openproject","9261","[27-06-2011, 28-06-2011, 29-06-2011, 30-06-2011]","4","20","[Adding test to make sure, our ci is using FF 5, augmenting task lists asynchronously  not a performance boost, but at least, the page is not blocked until this is done , listening to click instead of mouseup   - this is should avoid unintentional actions since clicks are easier to abort , minor boost - finding dom nodes only once , Performance boost  - large pages load 20 times faster in FF - large pages load 8 times faster in IE8 , Refactoring initialize into smaller chunks , loading modal window only after mouse over   - this should improve responsiveness of large pages with lots of stories even more , removing strange source comment , Updating step definitions to work with cucumber/capybara 1.0 , Releasing 0.8.9  Bug Fixes  * Burndown not working with Postgres * Fixes for IE7 , Using new Then Wait for AJAX step  this is hopefully more robust , fixes Ticket #4313: fixes burndowns #collect with Postgresql. Since version 8.3, Ints won't be automatically casted when comparing them wit [TOO_LONG]","2","2","1","12","12","[page, evaluate_script, page, driver, url_for, post, find, attributes, id, fixed_version_id, merge, to_i, length, raise, all, text, nil?, native, send_key]","0","[path:features/edit_story.feature, size:2]","2","","0","","0","","0","","[]","","0","3","3","[app/models/sprint.rb, app/models/story.rb, app/models/task.rb]","[app/helpers/rb_common_helper.rb, app/models/burndown.rb, app/views/rb_taskboards/show.html.erb]","0.0","0.0","[6c7497568f719b7c5438ecd808e90a3f21eb964e, bed806e2fe527f8e0af9b0e00c91c965b23eb354, a4695e7127c78c5b16c22d30a4aacd4037ae7a89, 09f22a4281ed84333c9aa6a53e644a706036b6f2, b8bb09a3440b71885942d115978b9888505bf575, 8a9cf6d5cd8905e2a5a1f1fa30defb5813994a35, f5033000e396ccbada0103bbd5741ac837dcea85, 60e87c1dd6810937ee7bfd90558754fdb809c72b, a4ae4ec849e5e8bedd46d3acbd6d6d7f23bd96b1, b6db6161c699346801a64486ba05ce1289e874c9, e7b0bfb3cd9b333fa0fd6661b7dcee851e3845a1, 677d5fcad4c6fcfe0a88fa2cb6586f3ad64c7b2c, 89985db6035b3c9cef04fd5d89b7d10a04fd04b5, 8986df08ca5dbbd090468e66198d408e03c91f03, a34dfde10ab76c6757c51b9f885a3ecef2f6e321, ae3d7ada7282ae71e62da915279994b956903c1d, e6fa392681846d8f9c61d412cdb35ffec99161d6, f4c7dc3cef4de635a5988eac2e2e0a8323b030af, 69d34e8e1366dd9fe0ccd9093e466f65d692c0b5, 44384b27419307114400263f184d796fd3a4f68b]","0.068 seconds","","[]","0","[]","0","0","[]","false","0.0","0","","0",""
"openproject","9262","[07-07-2011]","1","1","[added a project specific definition of done in the project settings tab ""backlog setting"" refs #4225 ]","1","1","0","0","0","[]","0","[path:features/backlog_settings.feature, size:1]","1","","0","","0","","0","","[]","","0","0","5","[]","[app/views/projects/settings/_project_issue_statuses.erb, lib/issue_model_patch.rb, lib/project_model_patch.rb, lib/projects_controller_patch.rb, lib/projects_helper_patch.rb]","0.0","0.0","[ac63066e3d82cec8a47fd2742f2713847477458b]","0.042 seconds","","[]","0","[]","0","0","[]","false","0.0","0","","0",""
"openproject","9263","[17-05-2011, 18-05-2011, 19-05-2011, 01-06-2011]","16","8","[Wording Fix. myproject #5871 , Show the meeting change history on meeting view.  This probably needs to be refined somewhat., Meeting journalizing and activity view refinements., Restore proper activity functionality for meeting contents., Typos., Don't go into an endless loop if the meeting content is created without text., Change the way text is stored to mimic the wikipages., Work in progress of migration to acts_as_journalized]","1","3","0","1","1","[minutes, send_table_to_object]","0","[path:features/meetings_activity.feature, size:2], [path:features/meetings_copy.feature, size:2]","4","","0","","0","","0","","[]","","0","1","8","[app/models/meeting.rb]","[app/controllers/meeting_contents_controller.rb, app/controllers/meetings_controller.rb, app/models/meeting.rb, app/models/meeting_agenda.rb, app/models/meeting_content.rb, app/models/meeting_minutes.rb, app/views/meeting_contents/history.html.erb, app/views/meetings/show.html.erb]","1.0","0.125","[ca7bc2664a40ca053e30f1b698c1f6245b799aee, 2ba63eebc8915339d659475564ef039312f043f5, cadd3070385f5d413e4ddb5165921c49a654d04d, d9c867cba693c6de362d96145301c597c37915d2, c1a1974e500306400f101dda570552bccea55ef5, 7cb4ed98f743267be807dcae58fc7a92f69e1367, 678826876c2d903171b20690734c19214b463cb1, 79349192004e401096bcc11093551d0379e972fe]","0.013 seconds","","[]","0","[]","0","0","[]","false","0.15151515151515152","0","","0",""
"openproject","9264","[01-06-2011, 20-06-2011, 01-07-2011]","31","9","[Show the meeting change history on meeting view.  This probably needs to be refined somewhat., Meeting journalizing and activity view refinements., Restore proper activity functionality for meeting contents., Typos., Don't go into an endless loop if the meeting content is created without text., Change the way text is stored to mimic the wikipages., Work in progress of migration to acts_as_journalized, Releasing 1.2.2  minor change in I18n , Wording Fix. myproject #5871]","2","3","0","1","1","[minutes, send_table_to_object]","0","[path:features/meetings_activity.feature, size:2], [path:features/meetings_copy.feature, size:2]","4","","0","","0","","0","","[]","","0","1","8","[app/models/meeting.rb]","[app/controllers/meeting_contents_controller.rb, app/controllers/meetings_controller.rb, app/models/meeting.rb, app/models/meeting_agenda.rb, app/models/meeting_content.rb, app/models/meeting_minutes.rb, app/views/meeting_contents/history.html.erb, app/views/meetings/show.html.erb]","1.0","0.125","[525d2c3c97ec512a006c065a05abcbdfd3ec3157, 89394e23161e740ada344624526607feb6b026a4, 018ee71b8f52b7e1c4776fb1847c98932ab3b5f9, e793fb6919939df3204398a739ae42229f6bd579, 780dc60690db2e204ddfcd62a4695f950f8a96fa, c4ddf04e5e039f6f98b047e4b8fe7ecb85e3d31a, 905c137db6c7a0e4a6c47fce222c28ad64c64153, b971138a8f3b05d4095f0027c01b08bcae070d89, 0ddd616db0e3e632cfa6fc929dc64cd8ddd9902f]","0.013 seconds","","[]","0","[]","0","0","[]","false","0.15151515151515152","0","","0",""
"openproject","9320","[13-05-2011, 18-05-2011]","6","5","[actually, there's no problem, when both dates are the same  this happens when testing the down and up migration, Migrations do not abort on every rollback - therefore we need to raise a different error, Redoing migration in a way, that my brain is able to parse, removes sprint_start_date and replaces it with start_date from chiliproject unstable 279 refs #4445 , removed sprint_start_date and replaced it with cherry picked implementation from chili-core Feature 279 start_date   version now has a start_date  refs #4445]","2","1","0","2","2","[hashes, id, eval, strftime, version_settings, build, save!, each, blank?, id, name, start_date, effective_date, each]","0","[path:features/scrum_master.feature, size:2]","2","","0","","0","","0","","[]","","0","3","6","[app/models/backlog.rb, app/models/sprint.rb, app/models/version_setting.rb]","[app/controllers/rb_calendars_controller.rb, app/models/sprint.rb, app/views/rb_burndown_charts/show.html.erb, app/views/rb_sprints/_sprint.html.erb, lib/backlogs_project_patch.rb, lib/backlogs_query_patch.rb]","0.3333333333","0.1666666667","[ce7fed699a70bc1f3f714d3c8e0fb4288ce98976, 04b23eef9394442358e5654e91ac85d71e1f6c2a, 119456c86c679434d891b430d874b8fb62d132a3, 64e931598c0cc98c7eaa5965a5c1801f28675ab3, 5fb0345122af0d52b58b63279562ed5e0ff890b7]","0.049 seconds","","[]","0","[]","0","0","[]","false","0.18518518521604937","0","","0",""
"openproject","9321","[12-05-2011, 16-05-2011, 17-05-2011, 18-05-2011]","7","28","[cukefix: fix field name, fix: using width and height of label for the story card and not the paper_width and height, fix: correcting minor issues and cukes, refactor: renamed class Page to PageLayout, refactor: moving to_pts method to own module, feature: first page now used an not empty, refactor: removing option ""overflow => ellipsis"" as it is no longer supported, refactor: using new standard way to abbreviate text for the issue description, refactor: text_abbreviation into own method, feature: rendered text is shown as abbreviated if it does not completely fit into the defined space  , refactor: CardArea.text_box uses a private method to adapt options, feature: CardArea.text_box now accepts a padding_bottom options, using this to adjust the spaces in the story cards  * removed render_empty_line because it is no longer needed, feature: long text is no longer rendered over other text that is aligned right , feature: Textile is removed from issue description text on a story card  * t [TOO_LONG]","1","2","0","1","1","[be_available]","0","[path:features/plugin_administration.feature, size:1], [path:features/scrum_master.feature, size:2]","3","","0","","0","","0","","[lib/cards.rb, lib/taskboard_card/page.rb]","","0","0","14","[]","[app/controllers/rb_stories_controller.rb, app/helpers/rb_master_backlogs_helper.rb, app/views/shared/_settings.html.erb, app/views/shared/_view_issues_sidebar.html.erb, lib/taskboard_card/bottom_attributes.rb, lib/taskboard_card/box.rb, lib/taskboard_card/card.rb, lib/taskboard_card/card_area.rb, lib/taskboard_card/description.rb, lib/taskboard_card/document.rb, lib/taskboard_card/header.rb, lib/taskboard_card/measurement.rb, lib/taskboard_card/page_layout.rb, lib/taskboard_card/top_attributes.rb]","0.0","0.0","[03300c0da8dc4fdd69d0f02011c8b0632a98da08, 57b4cffbf69d8445d4318f578dfec625332962dd, 6c0097d38484af3057fb086bc55705d6ea645c24, ca0e0e06dfb78001f8df1200063bac96788a0ffc, cfc74802ccf417ec81e4fea4adf857978c255cc7, c901dc779fe6745a7d3325d745b14f4d585a7334, b0f7927ed6af6c8c84216b6ca83daedda5f44ec6, 8b07562500db2d2446e7d5241939595bd017988b, 9db105d968b545bff9ae76c39d7bc47961783576, 7c2e0d89b577d5c8bf08f551a17f5b43a3acaea1, 9e6dba78ae1aa25ab0d5377b6afd8694b9bdb7c1, 6d9eedd6a77201d640cf70dab7dba01fdfefcf65, cf5be48904ede10e4c62a0829006cfa1540076e7, f8c2c38b07a14d9d35814562d43ba27e53aa2b38, bacecfb296905546b4ab4ca27cfc47e5a2fe89f0, bb8f96af90635421adcd3496ba1566ad2cf9e46e, 403e7b58d7a949ce5f91a17b41bd439ee3468123, 82d388f6d032f3e6e4c94ac401d798ba18e97584, d73a114dece797574a14c9f912d39c020f23abd9, dc98294731ca4c133572307e8caf0516d8cac2af, 907d181620b64a1fca1854ec7acc1e123b1be18a, 14579fd7f379d3aaab5cafce48d486746411bb9f, 8aadb9bd8cdef3da61c289c86fede94bc8a7b3fe, 4f65ffe326758f5038a82e41dd7e418ce7a694a6, a5e474199116cd50c654026a08888a51e6bcfc5f, c8f1b79b1b3b83d04069504e9e8382dbcad31135, d0cf62ba643498a7ec98a40cfeb2cd09cccdcf7b, 3c71ee62362299a014b95c2e1f5baef638bd79e0]","0.042 seconds","","[]","0","[]","0","0","[]","false","0.0","0","","0",""
"openproject","9422","[04-04-2011, 06-04-2011]","3","4","[New meeting and meeting copy refinements.  * the meeting or copy author gets automagically added as an invitee. myproject #2670 * better test coverage of the meeting copy * corrected lost initial comment for copied agendas in meeting copy (introduced in commit:5e8a2b54) * restore copying the agenda on meeting copy lost in commit:48062434 * test and account for freak boundary conditions introduced by the better copy feature (also see myproject #3109), Merge branch 'copy_improvements' , Improvements to the Meeting copy function. myproject #3109, Add cukes for meeting copy.]","2","6","0","2","2","[participants, id, detect, save]","0","[path:features/meetings_copy.feature, size:2], [path:features/meetings_new.feature, size:2]","4","","0","","0","","0","","[]","","0","1","4","[app/models/meeting.rb]","[app/controllers/meetings_controller.rb, app/models/meeting.rb, app/models/meeting_content.rb, app/views/meetings/show.html.erb]","1.0","0.25","[21abdbbcce5697445b94d7b65961f722e5cd5911, 307bf96946641d524230f77f0972fa4db9628746, 480624346e4c9d6bbf5bad9a71658cd12a60edbd, 9e10f267f9345f6e7b37ad6ba6aed1e18c96082f]","0.014 seconds","","[]","0","[]","0","0","[]","true","0.29411764705882354","0","","0",""
"openproject","9442","[04-04-2011]","1","5","[calling tracker method from within acts_as_list scope, removing position setting migrations, keeping the migrations as such to make it transparent, using ""remove"" instead of ""drop"" on down migration, correct default table name to correct table name in version_settings down migration, move acts_as_list to backlogs_list which wraps acts_as_list (scoped to :project) and also has a custom move_after method. Impediment and Story include backlogs_list  * move_after method silently updates position on elements without a position]","1","1","0","1","1","[length]","0","[path:features/product_owner.feature, size:2]","2","","0","","0","","0","","[]","","0","1","3","[app/models/story.rb]","[app/models/impediment.rb, app/models/story.rb, lib/backlogs_list.rb]","1.0","0.3333333333","[9d87bd473da555af093ebe9c6515d7bd3d09d4a5, 81c0d3de36b3ca5b614448ca7736723369f17fcc, 5aeb056b6cfbddeebd6eebb3cdf7b1b9a1e652db, 9f5d02ca1126e11d45034842084b4e88336cc9fd, cea73e80646a47da50683d60958621dbecb65cfd]","0.038 seconds","","[]","0","[]","0","0","[]","false","0.38461538457988165","0","","0",""
"openproject","9451","[01-04-2011]","1","5","[removed product backlogs links from ticket index sidebar because the backlog is no longer implicit. Hence, for now, there is no way to know which version is the backlog. , update scrum_master.feature to use the new i18n for sprint_cards , i18n for sprint_cards changed , fixed link to backlog cards - all backlogs use same link now , remove exception on forced loading attempt of project from provided params]","1","1","0","0","0","[]","0","[path:features/scrum_master.feature, size:2]","2","","0","","0","","0","","[]","","0","0","3","[]","[app/controllers/rb_application_controller.rb, app/helpers/rb_master_backlogs_helper.rb, app/views/shared/_view_issues_sidebar.html.erb]","0.0","0.0","[082dd05d8503ee4aad15e1ba6e46d416fff09308, 4b2df0ba635076fbad69921078439f02d74c3313, 8a2b4f625bab23fdd6c2db39260c6055c4876c3a, ae3edb182cd4703e7fee1f4c0d8adf7a07ed2557, 94ad83592a7d3c8977850a8ff95d86452a9e9bb1]","0.033 seconds","","[]","0","[]","0","0","[]","false","0.0","0","","0",""
"openproject","9459","[31-03-2011]","1","46","[#3178: i18n for impediment blocks_ids, cukes for that , #3178: using fieldlabel attribute as label on the task edit/create form if specified, using this on blocks_ids , #3178: providing a non existent issue id as blocked by impediment does fail smoothly , #3178: cukes for updating impediments , #3178: cucumber tests for creating impediments, also contains step definitions needed for testing , #3178: Using Impediment class to find_all_updated_since in the updated_items_controller , #3178: using id instead of object to create new IssueRelations for an Impediment , #3178: remove patching of ancestor_of and descendant_of because the issue_relations are now created after the impediment has been saved , #3178: using blocks_ids instead of blocks in impediment management, hence removing overhead , #3178: removing update_with_relationships from impediment class, using supers (Task). Also removing exception throwing from task.update_with_relationships , #3178: add TODO comment to move move_aft [TOO_LONG]","2","8","0","7","7","[blank?, page, find, wait_until, fail, be_include, find_by_subject, id, collect, hashes, id, each, blank?, attributes]","0","[path:features/scrum_master.feature, size:2]","2","","0","","0","","0","","[]","","0","5","13","[app/models/impediment.rb, app/models/sprint.rb, app/models/story.rb, app/models/task.rb, lib/backlogs_project_patch.rb]","[app/controllers/rb_impediments_controller.rb, app/controllers/rb_tasks_controller.rb, app/controllers/rb_updated_items_controller.rb, app/helpers/rb_common_helper.rb, app/models/impediment.rb, app/models/sprint.rb, app/models/task.rb, app/views/layouts/rb.html.erb, app/views/rb_impediments/_impediment.html.erb, app/views/rb_master_backlogs/show.html.erb, app/views/rb_taskboards/show.html.erb, app/views/shared/_backlogs_header.html.erb, lib/backlogs_issue_patch.rb]","0.6","0.2307692308","[75768371d2b0a786a2a42b6d7594d9f981df0e4a, db924abb43cc68eef2b3fa93e9bf2e76f8594c22, 867873e7a7758bceeb9dd7419f240509c4cb4485, b0107443f99d4b984427c5310207c47b2c8d23a7, 54c74499ce2cf94f11b003fb8f5285277082b08e, e086d08a7474b5d1f9fd5b8fdd31f51b55c75dd0, b3f9cd0d65bd894a52b63129676d2baf73ac0b3f, 1586bd89e13ad459b2229525d730cfcddeb1b2b6, e619bfb20b7e741cc1c77c214ac7b38f5b115ac4, 0815343b316703c32fbd93ea78cce27e40a1caf9, b8ac770c564095892c7e5580e12c724dcbb8574e, a98879078aee710982796dbd0fccb3c6b34a18d6, 02f64ae3add01359334e57258843aad2389e5c72, ca51ba6a08e8af8de2e134744c2f13c0fe72fb1f, 38d25f8355667c11bebc907819395717e47b34d4, 2ef65cc407680b305d29e4876ab3f5d12235f0b6, a21e3b5a68a859821409c5341e4a747ecdfdd798, bf3430004d750ff50ccf7dd209c7bce8f0b6e421, cb8f343439bb3b68cf9cf2e856e6a89ef181968a, f664e8550310c7221c535344c5216d6ecbcce56e, f389dfd97803356711cc3ab1d053c32f90f5af0a, b6f574dad68356ee85b5502dfe80bff2a255575a, a0aeb66cd88be15ee6e9e7f57ef974d6bec4505e, a4a04ebe016028e9ec9f60a22cccd87ac4f08e53, 5512c6f75866e32f591c44dbf8a52e18ef6c90c8, a6b0bad9fc880396260d9fb5dcaa9487bf48fb39, bdae7ca0f2f752dc0af399ed4155ddc7cd99d2f9, 3f14b6fd36fe7028f93b0da1267a99916d3bf5d0, 04160038f3c74f8ae7417119e5d9c5e1354f9dfb, 2a6e9b495708b4eeffb765876a1dccf31ad2828b, 6f31f47cd28ba1ff899a933c0ae0c3e5eb8ba68d, 823eb1a9bb508c140a5c88df0f056f409958492c, fd55e3c187fe390e11196f6190a3438cf8574413, 70bf42dd4f163202d1e89406b585a0f90525bd57, 1119d1bdcea9785dcb2659579b3a8937629cddcc, 2f76defb94b05c5c5a8aae2f7cc7aa31d674f8fd, d3b6e1e5b393e85ef3d998bd1fcd2a9baab1e4b3, 83d965d2207651ed1ed43200db4012ae9b35bdff, 455310381879e985a7a8db3e000ed06fd483c354, ecfaf2bb77e50ba8e544f9fab2ea89dff43712fa, 68d7230d8e68594217fa14e3ae79100a7ce38ec9, 0541bad731aeb51787f8592f0f9f5816c4b8abb3, 70857733687794c11cb0dfebdc30bc940ce92637, a19a7bba2cb693b3b2418e23134d7b5752877f8f, b722867e9947b2ae81fbbeb720e8e31d106851f0, 1be47c8e23eed265f9ac11df9e20bbbab56d75a7]","0.071 seconds","","[]","0","[]","0","0","[]","false","0.263157894768852","0","","0",""
"openproject","9478","[21-03-2011, 24-03-2011]","4","11","[fixing wrong path - this file was moved to shared , putting backlogs right after the new issue tab  ref #3167 , Adding Beta badge to Backlogs module and menu  ref #3146 , #3169: renamed sprint_impediments to ""Sprint Hindernisse"" in de, #3168: updating of impeding task by controller now uses impediment option  , #3168: minor wording optimizations for error_must_have_comma_delimited_list, #3168: using correct symbol to create error message when blocks list is empty for an impediment , recalculating velocity on every occasion, making jslint happy  missing vars, multiple vars, white space, missing semicolons, Updating translations to current interpolation syntax , Properly implementing view_scrum_statistics permission i.e. hide the link, if the user is not allowed, to see the statistics ]","2","3","0","3","3","[id, update_attributes, blank?]","0","[path:features/statistics.feature, size:2]","2","","0","","0","","0","","[]","","0","1","3","[lib/backlogs_project_patch.rb]","[app/controllers/rb_application_controller.rb, app/controllers/rb_impediments_controller.rb, app/models/task.rb]","0.0","0.0","[c6797772e45b4ab967fa6a30f70bdb091d42a674, 7cd9256abb529b115cb27300720376f5c2f2ce56, 7d8287428fb059176883174d7c487191624dd95a, e45692b10e622e3b6e284981e0c2462d192616f4, fc9c64d3758f848a65a4f3df4ff287de9824e43f, 783e76ad80ea0ceaf8c27a2ded3b138f4826e315, 4627438663eefd0baee42872ef3a3215474e7dc1, 3287e42ccc30c51f44f816de8d54e2a4586816e5, d84519843025d9fd9ba384dce1bac5d7dbc4496a, 9471ed7d4fbfdba1ce13a7a802bfb1b0d891fd18, 12e99fa9597d2d2047f0ed29cf1a982d5d531137]","0.039 seconds","","[]","0","[]","0","0","[]","false","0.0","0","","0",""
"openproject","9479","[21-03-2011, 22-03-2011, 23-03-2011, 24-03-2011]","4","16","[#2891: version settings are destroyed along with the versions , #2891: version without configuration is sorted to the left , #2891: selection to display a version in backlogs plugin is adhered to in master backlogs , #2891: i18n for backlogs column select label , #2891: version configuration has left preselected for backlogs display column , removing useless (at least in FF) css rule which does not work with multiple owner backlogs  ref #2891 , refactoring master_backlogs helper , Preparing for multiple owner backlogs  ref #2891 , using rb_common helper properly , introducing backlog model  ref #2891 , renaming product_backlog_container to owner_backlogs_container  ref #2891 , #2891: displaying select menu for backlogs display options: none, left, right, #2891: creating one-to-one relationship between version and version_settings , #2891: cleaning up spec helper, #2891: constants for display options and moving spec file to be named spec, #2891: creating table and specs for version_se [TOO_LONG]","2","1","0","9","9","[page, have_css, all, length, to_i, id, name, sprint_start_date, effective_date, each, higher_item, subject, attributes, strftime, each_key, wiki, find_page, be_nil, content, text, raise, page, all, to_i, driver, text, url_for, nil?, id]","0","[path:features/project_admin.feature, size:2]","2","","0","","0","","0","","[app/views/rb_master_backlogs/_menu.html.erb]","","0","4","19","[app/models/backlog.rb, app/models/sprint.rb, app/models/story.rb, app/models/task.rb]","[app/controllers/rb_application_controller.rb, app/controllers/rb_burndown_charts_controller.rb, app/controllers/rb_impediments_controller.rb, app/controllers/rb_master_backlogs_controller.rb, app/controllers/rb_sprints_controller.rb, app/controllers/rb_stories_controller.rb, app/controllers/rb_taskboards_controller.rb, app/controllers/rb_tasks_controller.rb, app/controllers/rb_updated_items_controller.rb, app/helpers/rb_common_helper.rb, app/helpers/rb_master_backlogs_helper.rb, app/helpers/version_settings_helper.rb, app/models/backlog.rb, app/models/sprint.rb, app/models/version_setting.rb, app/views/rb_master_backlogs/_backlog.html.erb, app/views/rb_master_backlogs/show.html.erb, lib/backlogs_version_controller_patch.rb, lib/backlogs_version_patch.rb]","0.5","0.1052631579","[87d975e0b58e8f028f43f70cf4b80b917dfa9676, fa749fea2e6dfb80e9a8de6d024e46e1ef1294c5, b3ed7f2be2c8ed4db7b3686a45b161ad0e210024, 082321bb1b723de1d66cb8360fd1898ad5035036, 24e9a4c729b0973efdfdddb5cef252c78cedd65c, 19f00be88e4d69aa1495bfce1e10694a5c5ef492, 1567c48bc834433b8ad2556199ad23582f611c8f, a5663b87ee6cae4756299f37ab68e7ca72de90a3, d32a1e67c5976c3f6200c1969f535e3bdf563793, 8c50796ac3bc7ab943c4ae26dd66f043d55ace5e, 60125592730ff7de5a786ee6a160518c8c97b4c8, 599917e553a7fdef5afb7ed9a88d37b56ac9e32f, a867c763d4c4e4b8bff111fbe5ce20c7de99e1cf, b7b71c1a94e7a98c8c86b76f5aa6445bad24cae8, df7d40c7392509b6593ee3aff62a5224f5a8de4a, ee454a8cca7f5b020e5c3d1259059e4d3f2bf865]","0.046 seconds","","[]","0","[]","0","0","[]","false","0.1250000000059375","0","","0",""
"openproject","9485","[10-03-2011, 17-03-2011, 22-03-2011]","13","3","[Nicer participant lists. myproject #2989, Correct bug in the revision view of agenda/minutes #2988, version to 1.0.0 ]","2","1","0","1","1","[agenda, send_table_to_object]","0","[path:features/meetings_show.feature, size:2]","2","","0","","0","","0","","[]","","0","1","4","[app/models/meeting.rb]","[app/helpers/meetings_helper.rb, app/models/meeting_content.rb, app/views/meetings/index.html.erb, app/views/meetings/show.html.erb]","0.0","0.0","[6842ce095d1923613d2401b225a8f8992a283558, b4eecc6e6c294d6b782d1ea3fa843586fb582c49, 078ea3196b6862ba249712ea3307aae8a0d5da14]","0.011 seconds","","[]","0","[]","0","0","[]","false","0.0","0","","0",""
"openproject","9486","[15-03-2011, 16-03-2011, 17-03-2011]","3","4","[Nicer display on the search list. #2331, Bug war in redmine_pi_customization und ist darin gefixt., Basic search support. #2331, Bump plugin version and required redmine version.]","1","1","0","1","1","[minutes, send_table_to_object]","0","[path:features/meetings_search.feature, size:2]","2","","0","","0","","0","","[]","","0","1","2","[app/models/meeting.rb]","[app/models/meeting.rb, app/models/meeting_minutes.rb]","1.0","0.5","[7ef144b0f3a5c157b38e2effb9d7fe020925a700, 9b2c12707723602cebd6810f651e056c3c2a257a, 9af58228fc0fb7e7394a3b884b5a5f9133b633d2, 4ede60c57898f8641f344a9008f754a9ae9dd244]","0.010 seconds","","[]","0","[]","0","0","[]","false","0.5555555555555556","0","","0",""
"openproject","9514","[21-02-2011, 07-03-2011]","15","10","[bugfix: link_to_project is already defined in application_helper in 1.1.0 and hence removed from reporting_helper; functionality is equivalent , Revert: (partially) b97be4b (Konstantin Haase) - Move #l from reporting helper to query utils, so it can be used in filters. We need this for custom fields (for now) , fix spelling in german translation , fix spelling mistake in german translation , add translations for 'unit' , use text-filter layout for integer-filter to avoid having them rendered as object-filter , moved translations from lang/ to condif/locales , try to define translations .. somehow the changes doesnt show up in the view , give operators o,c some labels for translation , fix for negative activeRequestCounts ]","3","1","0","0","0","[]","0","[path:features/navigations.feature, size:1]","1","[[path:app/models/cost_query/filter/issue_id.rb, msgs:[unexpected tIDENTIFIER]]]","1","","0","","0","","[]","","0","0","2","[]","[app/helpers/reporting_helper.rb, app/models/cost_query/operator.rb]","0.0","0.0","[b746308da7610ceaa6a3e9dc3f2ef1c556d96ad0, ef770b3ad808cbb6aeab12e46c4d0c7f0a6b18c5, a37de95b079a66ea2f346078d4e360e391aa82e6, dc9ab0c9fef4b5ab0fb703f4527df9907b388fc8, 27b1e112adcd400ebd4a84009771493969a0bc42, 57540d0c5cc042260db0083604b7f80a0c81f04e, a5742124be0c6bab3759afd90a7bedbf40b94c72, 6fc1cd423ebf3fede6500994b4e105b6fba148d1, dd6b49b4de17a046779457eef7368b93e40138b3, f202ffbe45f51a5a2dce093dce015f521882700b]","0.018 seconds","","[]","0","[]","0","0","[]","false","0.0","0","","0",""
"openproject","9518","[26-02-2011, 28-02-2011]","3","5","[Minutes not editable with an open agenda. #2417, More leanness(tm), Add an Open link to meeting agendas., Add a close action to agendas. #2417, Fix name of a feature.]","1","8","0","1","1","[agenda, send_table_to_object]","0","[path:features/meetings_show.feature, size:2], [path:features/meeting_close.feature, size:2], [path:features/meetings_new.feature, size:2]","6","","0","","0","","0","","[app/views/meeting_contents/_tab.html.erb]","","0","1","9","[app/models/meeting.rb]","[app/controllers/meeting_agendas_controller.rb, app/controllers/meeting_contents_controller.rb, app/controllers/meeting_minutes_controller.rb, app/controllers/meetings_controller.rb, app/models/meeting_agenda.rb, app/models/meeting_minutes.rb, app/views/meeting_contents/_form.html.erb, app/views/meeting_contents/_show.html.erb, app/views/meetings/show.html.erb]","0.0","0.0","[e418d7eac3c6464540acce76d78968daaec86607, 37be288223bc0c4fcad07732d667b16f490c5bba, 925945cf2589ecc4cf88d93bea9c94add8e5fc54, 23868446a798324e33270eeaa5026aa06522e7a3, 7ec7a6b8ff7b69d7509de238a76ac3634d812b67]","0.011 seconds","","[]","0","[]","0","0","[]","false","0.0","0","","0",""
