"Repository","https://github.com/oneclickorgs/one-click-orgs.git"
"Precision mean (RT)","0.5"
"Precision median (RT)","0.5"
"Precision standard deviation (RT)","0.7071067811865476"
"Recall mean (RT)","0.13157894735"
"Recall median (RT)","0.13157894735"
"Recall standard deviation (RT)","0.18608073186514543"
"F2 mean (RT)","0.1543209876340497"
"F2 median (RT)","0.1543209876340497"
"F2 standard deviation (RT)","0.21824283367088376"
"Correlation #Test-Precision","-1.0"
"Correlation #Test-Recall","-1.0"
"Task","Dates","#Devs","#Commits","Hashes","#Gherkin_Tests","#Sted_defs","#TestI","#TaskI","TestI","TaskI","Precision","Recall","Rails","#visit_call","Lost_visit_call","#Views_TestI","#Code_View_Analysis","Code_View_Analysis","Methods_Unknown_Type","Renamed_Files","Deleted_Files","NotFound_Views","#NotFound_Views","Timestamp","Has_Merge","#FP","#FN","FP","FN","#Hits","Hits","f2"
"167","[20-05-2011, 28-05-2011, 29-05-2011]","1","26","[311a83dcfca675b7ace078b774350f2cb7060259, 770eda6b441ffd7a613b17f9dd8b53a70f465e11, 48f65fea9995e5040605c9387daa8f7079f749ea, 43003bde22ddcc72ea762c8897ec8f23e2c19aea, 6b21e6fa306c1396081b58ebdfe37c3c09161325, 0bf26603b139cdfbfa4795ba545944bcbfc2bd47, a8c64207e38778292ade9a14d5b0cf617392d383, ecf14372add9aa3291aa41d3c7a135de66f90a05, 6e6e0550d9b06cdc24256e7db56480bfc4239198, 8f43bf61f0c32a43a7622a0207991c3af166608d, 78ecedb5a4e286c3f8cb401af0f7c74f441830e3, 271ccdc083a4acd5cdd995e7c7e2e36b7978ddbd, 48b47436b16d1c3a7db1fb9109f7943c41491cc6, fd4e77c8cd4bb7bf57429d097b9f15454f6604f0, adf659de3441cd3e62893b6ddf5419979ec2058b, 4ce1504f11b42c1fbe4f751d0d42ba78cf778f35, a74b02a6d92a20317d401c6beacf82da135324f1, 8b99043099c43f24b9b043bc057ceb99ca23c484, f066b19dfedf1d80f77f6c8062c8960f86e27107, 89a714bc11786925cfa78b740a010ca11b46900a, 2dbe37dc905210b86a076db2dfbd95e7dcc6cbea, 4c93ed66734c379d487f3bd921e39b1ab8c9ae28, 4e0f0bfe25b74c019bc02224cc0cd6e0eade898f, 5aa1780a3ccdf9a9948135cd62043a28adede307, e365bc48a43aea7b9927f92fc8bca07f28e9925a, 18f6dcae5319e68afaa3af176bfecba3e3bfc4ee]","27","84","7","0","[app/controllers/comments_controller.rb, app/controllers/member_sessions_controller.rb, app/controllers/members_controller.rb, app/controllers/one_click_controller.rb, app/controllers/organisations_controller.rb, app/controllers/password_resets_controller.rb, app/controllers/proposals_controller.rb]","[]","0.0","0.0","3.0.6","13","[]","0","14","[app/controllers/members_controller.rb, app/controllers/one_click_controller.rb, app/controllers/organisations_controller.rb, app/controllers/proposals_controller.rb, app/views/members/show.html.haml, app/views/one_click/dashboard.html.haml, app/views/organisations/new.html.haml, app/views/proposals/_description.html.haml, app/views/proposals/_vote.html.haml, app/views/proposals/_vote_count.html.haml, app/views/proposals/show.html.haml, app/views/setup/index.html.haml, app/views/shared/_convener_disclaimer.html.haml, app/views/shared/_founding_warnings.html.haml]","[click_button, click_button, click_link, fill_in, rows_hash, each, select, check, uncheck, choose, attach_file, page, have_content, has_content?, have_xpath, has_xpath?, have_no_content, has_no_content?, have_no_xpath, has_no_xpath?, find_field, tag_name, text, assert_match, assert_no_match, be_true, be_false, current_url, path, assert_equal, query, rows_hash, each_pair, save_and_open_page, within, find_by_email, active, send, raise, find_by_title, sub, sub, body, path, body, email, select, each, sub, find_by_name, make, count, times, be_active, have_css, within, where, members, id, each, active, find_by_email, first_name, last_name, active, be_inducted, send_welcome_if_requested, email, fill_in, password, click_button, pending, find_by_name, member_class]","","[]","[app/views/proposals/_proposer.html.haml, expand]","2","6.012 seconds","true","7","0","[app/controllers/comments_controller.rb, app/controllers/member_sessions_controller.rb, app/controllers/members_controller.rb, app/controllers/one_click_controller.rb, app/controllers/organisations_controller.rb, app/controllers/password_resets_controller.rb, app/controllers/proposals_controller.rb]","[]","0","[]","0"
"169","[20-05-2011, 23-05-2011]","1","48","[53030b67d4835640cfea07228a016b07bc89e16a, e63134a6fb94dbe1da3e3301c5218e4b51360ab3, 23d7f606948f378dc732b2209e9ba0d9c62b5fd0, 77466d690547e0f7f09a42cd877ad1ac7a3b1ae1, 033b8258d4560cd859b1ff6f353b87d4c226b41e, c036bfbac9f880c5f7cea345beb5085b8e52c0a5, c55b74efd88ff9a1ff62f078d161f85c87f7db5e, ede9734c740d76163a75142599a8cba48fbe78be, 9e425d3d3e371b8fa6a5d4fa1ad57836c7d2917d, cde313826f44c39cacc68f931c77674886ca9ee0, 999e68bdb3fd17432e0a296d9797e8a2e40779f0, 9636c3bef083c0441fd51a04f619e332ff61e543, b0b9c30768a01de17a92ed5ea1c3f6a0530f723b, 5bb32d396980c06a512ee789944cbd26ab15b8d6, 4ca3a55855bd93c5b63f457ebc8b843586392d29, 67ab95861a6287b95dd2dc7c878871fde46deb34, 58a631c9e140c1d67b71ff980e2558fe913d286b, 2ab004e7a661bd8d8be3e3026c87aba896fc3787, 7e7e18a1ac04b2e4e9c3951e55d34eb5fbc79bb6, 4aed846e6424d589a51574b13d034e08dd6b8349, 9a284753415e35fd6f18abe66c57d9d838df1ddb, b85f23242723c2d11daaeb155f198293d6bdd517, 7e6c126bad263aa49bc554374f5080ff0853e41e, 1322ee9b2d33d07b4c0db67ea994e044d0352b04, e5d0b2313b7515003e5ce658738f19577b726218, e7cd576373d369d9d6ede1f1be2e1a286de263dd, 8d6d87214ef57272776ab462639267d8eee02aaa, 3bea7b614c005403ab83850b79338df695f5337d, 806254df031e51e26c53aa946b5687a2f6fe4d4e, 1c960793218908fae7d984cb293429e62f5bb83d, ddab5df2d8d24dd78b9f5ce643d4c57eb4f1d1ce, b44786f6fb7ee3e998b6be6bd402f3b0b0799608, 5a828960a61f96637b6b9eabe800b1f409722939, e9c4e81b5709bb4e2adbba11f2f73e534675bab4, 1bc62276313fda20120cb542da9768e943be590c, e76229ef597be11297bc613c453dce814668dad7, 364de59555c49866f3a67f4b042e3b548d17ae80, 9ca446516a3becd7016d7bbd4f9bfaca15754a23, 2f3b81caae400e9e036eed6287ee0042b3372d62, a078c99d2e3e0d49aadb46df0a5d7069096651f1, 0420e188ede4279cb75bf4d4108c9284a3c7ad8d, 077935ed9b3d3776f86a1643d1b40c964924ac14, 08511347fad4e0ef99886688f11bd981ebdc6ee5, 293500c67a1a538296586c1c91ebef27ef29236c, 51c124298315645c410be2bdc4af7a97db99be54, b84e0e057a69d55158f6f8dadd7c94f533051184, e36147c116ab5484f6f9de4695d8195bbb813acb, 0ccce65333578555541085aa1a2ef8909d6be466]","2","12","5","19","[app/controllers/comments_controller.rb, app/controllers/constitutions_controller.rb, app/controllers/members_controller.rb, app/controllers/one_click_controller.rb, app/controllers/proposals_controller.rb]","[app/controllers/add_member_proposals_controller.rb, app/controllers/application_controller.rb, app/controllers/change_member_class_proposals_controller.rb, app/controllers/comments_controller.rb, app/controllers/constitution_proposal_bundles_controller.rb, app/controllers/constitutions_controller.rb, app/controllers/eject_member_proposals_controller.rb, app/controllers/found_organisation_proposals_controller.rb, app/controllers/founding_members_controller.rb, app/controllers/invitations_controller.rb, app/controllers/member_sessions_controller.rb, app/controllers/members_controller.rb, app/controllers/one_click_controller.rb, app/controllers/organisations_controller.rb, app/controllers/password_resets_controller.rb, app/controllers/proposals_controller.rb, app/controllers/setup_controller.rb, app/controllers/votes_controller.rb, app/controllers/welcome_controller.rb]","1.0","0.2631578947","3.0.6","2","[]","0","12","[app/controllers/constitutions_controller.rb, app/controllers/members_controller.rb, app/controllers/one_click_controller.rb, app/controllers/proposals_controller.rb, app/views/constitutions/edit.html.haml, app/views/eject_member_proposals/_form.html.haml, app/views/members/show.html.haml, app/views/one_click/dashboard.html.haml, app/views/proposals/_description.html.haml, app/views/proposals/_vote.html.haml, app/views/proposals/_vote_count.html.haml, app/views/proposals/show.html.haml]","[click_button, choose, page, have_content, has_content?, current_url, path, assert_equal, find_by_email, active, send, raise, create proposal to eject this member, page, fill_in, within, find_by_name, make, be_active, where, members, each, active, find_by_email, active, have_css, be_inducted, send_welcome_if_requested, email, fill_in, password, click_button, find_by_name, member_class, select, each]","","[app/views/one_click/amendments.html.haml, app/views/one_click/constitution.html.haml]","[app/views/proposals/_proposer.html.haml]","1","1.020 seconds","true","0","14","[]","[app/controllers/add_member_proposals_controller.rb, app/controllers/application_controller.rb, app/controllers/change_member_class_proposals_controller.rb, app/controllers/constitution_proposal_bundles_controller.rb, app/controllers/eject_member_proposals_controller.rb, app/controllers/found_organisation_proposals_controller.rb, app/controllers/founding_members_controller.rb, app/controllers/invitations_controller.rb, app/controllers/member_sessions_controller.rb, app/controllers/organisations_controller.rb, app/controllers/password_resets_controller.rb, app/controllers/setup_controller.rb, app/controllers/votes_controller.rb, app/controllers/welcome_controller.rb]","5","[app/controllers/comments_controller.rb, app/controllers/constitutions_controller.rb, app/controllers/members_controller.rb, app/controllers/one_click_controller.rb, app/controllers/proposals_controller.rb]","0.3086419752680994"
