"Repository","https://github.com/sharetribe/sharetribe.git"
"Precision mean (RT)","0.22666666666500002"
"Precision median (RT)","0.1"
"Precision standard deviation (RT)","0.3181819700760825"
"Recall mean (RT)","0.31023809524"
"Recall median (RT)","0.07142857145"
"Recall standard deviation (RT)","0.382528927630992"
"F2 mean (RT)","0.24629220629211449"
"F2 median (RT)","0.0757575757768595"
"F2 standard deviation (RT)","0.2828269402239301"
"Correlation #Test-Precision","0.52"
"Correlation #Test-Recall","0.45"
"Task","Dates","#Devs","#Commits","Hashes","#Gherkin_Tests","#Sted_defs","#TestI","#TaskI","TestI","TaskI","Precision","Recall","Rails","#visit_call","Lost_visit_call","#Views_TestI","#Code_View_Analysis","Code_View_Analysis","Methods_Unknown_Type","Renamed_Files","Deleted_Files","NotFound_Views","#NotFound_Views","Timestamp","Has_Merge","#FP","#FN","FP","FN","#Hits","Hits","f2"
"2858","[13-02-2012, 15-02-2012, 20-02-2012, 22-02-2012, 25-02-2012]","2","22","[e5c44e3283f44c5b8ba910d84268b9d95ab60bea, f5f34bb3be6518e21888666949801df71ec33525, 43fc9482408c5e440ded92c1aef27287368d3b61, e9e42ba36c8f987bc7cfc1c0d5fcb8768b68fa77, 90b977a71307c0888c6dc9da551837920fcce718, d4be775857e9c41ed7fd9df10ffb20fcf073c142, a181631e5d82c475605bcfa18e98dae1201f3976, 1c5d31f2c1de0ecfd1099d69971f01f6051c2a37, 8e338ad92c351b5e5661988907cbc17a77911304, 96f8b39d76520538fbfd3d3c7f1da8e1c1f0b613, fc9142877852f49f37cf840add0b0a366faddf91, 9d09fd6380f456a3a0adb1c218c740b8879cfd4a, 730b289f579dffadf91a9fa698caee645b345e18, 4ae0cfe5751be890853f6cbec14c43747c6666f9, 762f423251f8c1588073f91be5d89905f64c8fe8, 8475d3f306a53e909d1bf93085a30760d23b4598, ba2303a8cbc7897fb997965f525e75bfc06591e9, 4bf38a2e7fd953c4121298c044873cfe44103829, 6bb6bf5c98df33ab2baf7ffd299114f2920c2077, d6c01090a52249bd7d8398b3a936c3ee7b0a9cc4, a71de196f916dab282409aec1907909951eb1319, e7afe55eb2baddbacb3feef05ac0f9210d510555]","9","4","5","7","[app/controllers/conversations_controller.rb, app/controllers/homepage_controller.rb, app/controllers/listings_controller.rb, app/controllers/people_controller.rb, app/controllers/sessions_controller.rb]","[app/controllers/admin/news_items_controller.rb, app/controllers/admin/polls_controller.rb, app/controllers/application_controller.rb, app/controllers/homepage_controller.rb, app/controllers/infos_controller.rb, app/controllers/news_items_controller.rb, app/controllers/poll_answers_controller.rb]","0.2","0.1428571429","3.0.0","12","[]","0","77","[app/controllers/conversations_controller.rb, app/controllers/homepage_controller.rb, app/controllers/listings_controller.rb, app/controllers/people_controller.rb, app/controllers/sessions_controller.rb, app/helpers/application_helper.rb, app/models/conversation.rb, app/views/common/_staples.haml, app/views/conversations/_additional_messages.haml, app/views/conversations/_additional_notifications.haml, app/views/conversations/_inbox_spacer.haml, app/views/conversations/_message.haml, app/views/conversations/_notification.haml, app/views/conversations/_received_conversation.haml, app/views/conversations/_sent_conversation.haml, app/views/conversations/_status.haml, app/views/conversations/_status_link.haml, app/views/conversations/index.haml, app/views/conversations/new.haml, app/views/conversations/notifications.haml, app/views/conversations/notifications/_badgenotification.haml, app/views/conversations/notifications/_comment_to_followed_listing_notification.haml, app/views/conversations/notifications/_comment_to_own_listing_notification.haml, app/views/conversations/notifications/_listing_updated_notification.haml, app/views/conversations/notifications/_testimonialnotification.haml, app/views/conversations/show.haml, app/views/homepage/_additional_private_listings_slate.haml, app/views/homepage/_blank_slate.haml, app/views/homepage/_invitation_form.haml, app/views/homepage/_news_item.haml, app/views/homepage/_news_items.haml, app/views/homepage/_poll_form.haml, app/views/homepage/_profile_info_empty_notification.haml, app/views/homepage/_recent_listing.haml, app/views/homepage/index.haml, app/views/listings/_additional_listings.haml, app/views/listings/_bubble_listing_not_visible.haml, app/views/listings/_comment.haml, app/views/listings/_comment_form.haml, app/views/listings/_destination.haml, app/views/listings/_edit_links.haml, app/views/listings/_follow_links.haml, app/views/listings/_googlemap.haml, app/views/listings/_help_texts.haml, app/views/listings/_left_panel_link.haml, app/views/listings/_listed_listing.haml, app/views/listings/_listed_listing_closed_status.haml, app/views/listings/_listed_listing_edit_links.haml, app/views/listings/_listed_listings.haml, app/views/listings/_listing_spacer.haml, app/views/listings/_listings_on_map.haml, app/views/listings/_origin.haml, app/views/listings/_reply_link.haml, app/views/listings/edit.haml, app/views/listings/form/_departure_time.haml, app/views/listings/form/_departure_time_radio_buttons.haml, app/views/listings/form/_description.haml, app/views/listings/form/_destination.haml, app/views/listings/form/_form_content.haml, app/views/listings/form/_googlemap.haml, app/views/listings/form/_images.haml, app/views/listings/form/_javascripts.haml, app/views/listings/form/_location.haml, app/views/listings/form/_origin.haml, app/views/listings/form/_send_button.haml, app/views/listings/form/_share_type.haml, app/views/listings/form/_tag_list.haml, app/views/listings/form/_title.haml, app/views/listings/form/_valid_until.haml, app/views/listings/form/_valid_until_radio_buttons.haml, app/views/listings/form/_visibility.haml, app/views/listings/index.haml, app/views/listings/new.haml, app/views/listings/show.haml, app/views/people/_help_texts.haml, app/views/people/new.haml, app/views/sessions/new.haml]","[hashes, each, update_attribute, fill_in, click_button, fill_in, click_button, get_test_person_and_session, cookie, update_attributes, id, click_link, page, have_content, has_content?, page, have_content, has_content?, page, have_no_content, has_no_content?, have_no_content, has_no_content?, within, send_button, listing, capture_model, model!, update_attribute, Factory, to_i, Factory, times]","","[app/views/infos/_additional_news_items.haml, app/views/infos/_news_item.haml, app/views/infos/news.haml]","[about_infos, app/views/conversations/_author.html.haml, app/views/conversations/_listing.html.haml, app/views/listings/_author.html.haml, avatar_person_settings, close_person_listing, edit_listing, follow_listing, listing, listing_image, new_listing, new_person_message_feedback, news_items, person_badges, person_message, person_settings, person_testimonials, skip_person_message_feedbacks, unfollow_listing]","19","44.980 seconds","false","4","6","[app/controllers/conversations_controller.rb, app/controllers/listings_controller.rb, app/controllers/people_controller.rb, app/controllers/sessions_controller.rb]","[app/controllers/admin/news_items_controller.rb, app/controllers/admin/polls_controller.rb, app/controllers/application_controller.rb, app/controllers/infos_controller.rb, app/controllers/news_items_controller.rb, app/controllers/poll_answers_controller.rb]","1","[app/controllers/homepage_controller.rb]","0.151515151553719"
"2981","[17-12-2010, 21-12-2010, 20-01-2011, 16-02-2011]","1","5","[e99a181d8d48d54cca62e6e92780776c86e583df, a482b51573cdc8ee21c4cdb4a65aba5c43fcdf43, c71b8bbd6ae2cd3735e5102613868bd163d4415b, 631144f9fb7a60e6163c1094b0e8fb1e9f3f0f53, 9a7f06bdc4bebe42e3c73ba8503c72be56fa2eff]","9","5","5","8","[app/controllers/conversations_controller.rb, app/controllers/homepage_controller.rb, app/controllers/listings_controller.rb, app/controllers/people_controller.rb, app/controllers/sessions_controller.rb]","[app/controllers/application_controller.rb, app/controllers/comments_controller.rb, app/controllers/conversations_controller.rb, app/controllers/homepage_controller.rb, app/controllers/listings_controller.rb, app/controllers/people_controller.rb, app/controllers/search_controller.rb, app/controllers/terms_controller.rb]","0.8","0.5","3.0.0","7","[]","0","54","[app/controllers/conversations_controller.rb, app/controllers/homepage_controller.rb, app/controllers/listings_controller.rb, app/controllers/people_controller.rb, app/controllers/sessions_controller.rb, app/models/conversation.rb, app/views/common/_staples.haml, app/views/conversations/_additional_messages.haml, app/views/conversations/_additional_notifications.haml, app/views/conversations/_inbox_spacer.haml, app/views/conversations/_message.haml, app/views/conversations/_notification.haml, app/views/conversations/_received_conversation.haml, app/views/conversations/_sent_conversation.haml, app/views/conversations/_status.haml, app/views/conversations/_status_link.haml, app/views/conversations/index.haml, app/views/conversations/new.haml, app/views/conversations/notifications.haml, app/views/conversations/show.haml, app/views/homepage/_recent_listing.haml, app/views/homepage/index.haml, app/views/listings/_additional_listings.haml, app/views/listings/_comment.haml, app/views/listings/_comment_form.haml, app/views/listings/_edit_links.haml, app/views/listings/_help_texts.haml, app/views/listings/_left_panel_link.haml, app/views/listings/_listed_listing.haml, app/views/listings/_listed_listings.haml, app/views/listings/_listing_spacer.haml, app/views/listings/_reply_link.haml, app/views/listings/edit.haml, app/views/listings/form/_departure_time.haml, app/views/listings/form/_description.haml, app/views/listings/form/_destination.haml, app/views/listings/form/_form_content.haml, app/views/listings/form/_images.haml, app/views/listings/form/_javascripts.haml, app/views/listings/form/_origin.haml, app/views/listings/form/_send_button.haml, app/views/listings/form/_share_type.haml, app/views/listings/form/_tag_list.haml, app/views/listings/form/_title.haml, app/views/listings/form/_valid_until.haml, app/views/listings/form/_valid_until_radio_buttons.haml, app/views/listings/form/_visibility.haml, app/views/listings/index.haml, app/views/listings/new.haml, app/views/listings/show.haml, app/views/people/_help_texts.haml, app/views/people/new.haml, app/views/sessions/_password_forgotten.haml, app/views/sessions/new.haml]","[fill_in, click_button, fill_in, click_button, hashes, get_test_person_and_session, cookie, update_attributes, id, each, Factory, collect, click_link, select, check, uncheck, attach_file, page, have_content, has_content?, page, have_content, has_content?, page, have_content, has_content?, have_no_content, has_no_content?, have_no_content, has_no_content?, have_no_content, has_no_content?, within, send_button, listing, capture_model, model!, capture_predicate, gsub, send, capture_email, body]","","[]","[app/views/conversations/_author.html.haml, app/views/conversations/_listing.html.haml, app/views/homepage/_welcome_text.html.haml, app/views/listings/_author.html.haml, close_person_listing, edit_listing, listing, listing_image, new_listing, new_person_message_feedback, skip_person_message_feedbacks]","11","3.997 seconds","false","1","4","[app/controllers/sessions_controller.rb]","[app/controllers/application_controller.rb, app/controllers/comments_controller.rb, app/controllers/search_controller.rb, app/controllers/terms_controller.rb]","4","[app/controllers/conversations_controller.rb, app/controllers/homepage_controller.rb, app/controllers/listings_controller.rb, app/controllers/people_controller.rb]","0.5405405405405406"
"2899","[05-05-2011, 10-05-2011]","3","4","[abb31cbd3a7cb8c98609528796a14d1ae7af1513, f1e9a03c7ae898d2e7108bc72879a4224367fd91, f47b864778293ad2c29890be05142025785991b3, 4d981765cfc35c276edbc9b967e954381e371bb3]","8","1","6","2","[app/controllers/application_controller.rb, app/controllers/conversations_controller.rb, app/controllers/homepage_controller.rb, app/controllers/listings_controller.rb, app/controllers/people_controller.rb, app/controllers/sessions_controller.rb]","[app/controllers/listings_controller.rb, app/controllers/people_controller.rb]","0.3333333333","1.0","3.0.0","3","[]","0","61","[app/controllers/application_controller.rb, app/controllers/conversations_controller.rb, app/controllers/homepage_controller.rb, app/controllers/listings_controller.rb, app/controllers/people_controller.rb, app/controllers/sessions_controller.rb, app/models/conversation.rb, app/views/common/_staples.haml, app/views/conversations/_additional_messages.haml, app/views/conversations/_additional_notifications.haml, app/views/conversations/_inbox_spacer.haml, app/views/conversations/_message.haml, app/views/conversations/_notification.haml, app/views/conversations/_received_conversation.haml, app/views/conversations/_sent_conversation.haml, app/views/conversations/_status.haml, app/views/conversations/_status_link.haml, app/views/conversations/index.haml, app/views/conversations/new.haml, app/views/conversations/notifications.haml, app/views/conversations/show.haml, app/views/homepage/_recent_listing.haml, app/views/homepage/index.haml, app/views/layouts/_mobile_logged_in.haml, app/views/listings/_additional_listings.haml, app/views/listings/_comment.haml, app/views/listings/_comment_form.haml, app/views/listings/_destination.haml, app/views/listings/_edit_links.haml, app/views/listings/_googlemap.haml, app/views/listings/_help_texts.haml, app/views/listings/_left_panel_link.haml, app/views/listings/_listed_listing.haml, app/views/listings/_listed_listings.haml, app/views/listings/_listing_spacer.haml, app/views/listings/_mobile_listings.haml, app/views/listings/_origin.haml, app/views/listings/_reply_link.haml, app/views/listings/edit.haml, app/views/listings/form/_departure_time.haml, app/views/listings/form/_description.haml, app/views/listings/form/_destination.haml, app/views/listings/form/_form_content.haml, app/views/listings/form/_googlemap.haml, app/views/listings/form/_images.haml, app/views/listings/form/_javascripts.haml, app/views/listings/form/_origin.haml, app/views/listings/form/_send_button.haml, app/views/listings/form/_share_type.haml, app/views/listings/form/_tag_list.haml, app/views/listings/form/_title.haml, app/views/listings/form/_valid_until.haml, app/views/listings/form/_valid_until_radio_buttons.haml, app/views/listings/form/_visibility.haml, app/views/listings/index.haml, app/views/listings/new.haml, app/views/listings/show.haml, app/views/people/_help_texts.haml, app/views/people/new.haml, app/views/sessions/_password_forgotten.haml, app/views/sessions/new.haml]","[fill_in, click_button, hashes, get_test_person_and_session, cookie, update_attributes, each, click_button, click_link, fill_in, Integer, sleep, select, attach_file, page, have_content, has_content?, find_field, tag_name, text, assert_match, within, search, listing, send_button]","","[]","[app/views/conversations/_author.html.haml, app/views/conversations/_listing.html.haml, app/views/homepage/_welcome_text.html.haml, app/views/listings/_author.html.haml, close_person_listing, current_user, edit_listing, listing, listing_image, new_listing, new_person_message_feedback, skip_person_message_feedbacks]","12","40.954 seconds","false","4","0","[app/controllers/application_controller.rb, app/controllers/conversations_controller.rb, app/controllers/homepage_controller.rb, app/controllers/sessions_controller.rb]","[]","2","[app/controllers/listings_controller.rb, app/controllers/people_controller.rb]","0.714285714255102"
"2832","[20-06-2012, 21-06-2012, 04-07-2012]","2","8","[f2e23bd4a23207288322ac42aed68d62431005da, b208bf4c184c5eb02329d06523a2da677cbc62ac, 0e7ddc12b9ca94d89b751a1e6d632f753c58d403, bb3a32e571476362e819d6fd7d40ac94b24e30bd, 37951aa975c9414f7f74ff05add76b6d13d99502, d302f88c25a12bcb2be7be5660407a07f8ac4de5, 16b4bcfc705e457d9740b35897d947c813fd4ad2, 32870dabb6329b32811025eaebc0d588256bfe95]","6","0","7","0","[app/controllers/application_controller.rb, app/controllers/conversations_controller.rb, app/controllers/dashboard_controller.rb, app/controllers/homepage_controller.rb, app/controllers/listings_controller.rb, app/controllers/people_controller.rb, app/controllers/sessions_controller.rb]","[]","0.0","0.0","3.0.0","9","[]","0","90","[app/controllers/application_controller.rb, app/controllers/conversations_controller.rb, app/controllers/dashboard_controller.rb, app/controllers/homepage_controller.rb, app/controllers/listings_controller.rb, app/controllers/people_controller.rb, app/controllers/sessions_controller.rb, app/helpers/application_helper.rb, app/models/conversation.rb, app/views/common/_staples.haml, app/views/communities/_select_pricing_plan.haml, app/views/conversations/_additional_messages.haml, app/views/conversations/_additional_notifications.haml, app/views/conversations/_inbox_spacer.haml, app/views/conversations/_message.haml, app/views/conversations/_notification.haml, app/views/conversations/_received_conversation.haml, app/views/conversations/_sent_conversation.haml, app/views/conversations/_status.haml, app/views/conversations/_status_link.haml, app/views/conversations/index.haml, app/views/conversations/new.haml, app/views/conversations/notifications.haml, app/views/conversations/notifications/_badgenotification.haml, app/views/conversations/notifications/_comment_to_followed_listing_notification.haml, app/views/conversations/notifications/_comment_to_own_listing_notification.haml, app/views/conversations/notifications/_listing_updated_notification.haml, app/views/conversations/notifications/_testimonialnotification.haml, app/views/conversations/show.haml, app/views/dashboard/_footer.haml, app/views/dashboard/_header.haml, app/views/dashboard/_lower_middle.haml, app/views/dashboard/api.haml, app/views/dashboard/faq.haml, app/views/dashboard/index.haml, app/views/dashboard/pricing.haml, app/views/homepage/_additional_private_listings_slate.haml, app/views/homepage/_blank_slate.haml, app/views/homepage/_event_feed.haml, app/views/homepage/_event_feed_event.haml, app/views/homepage/_invitation_form.haml, app/views/homepage/_news_item.haml, app/views/homepage/_news_items.haml, app/views/homepage/_poll_form.haml, app/views/homepage/_profile_info_empty_notification.haml, app/views/homepage/_recent_listing.haml, app/views/homepage/index.haml, app/views/listings/_additional_listings.haml, app/views/listings/_bubble_listing_not_visible.haml, app/views/listings/_comment.haml, app/views/listings/_comment_form.haml, app/views/listings/_destination.haml, app/views/listings/_edit_links.haml, app/views/listings/_follow_links.haml, app/views/listings/_googlemap.haml, app/views/listings/_help_texts.haml, app/views/listings/_left_panel_link.haml, app/views/listings/_listed_listing.haml, app/views/listings/_listed_listing_closed_status.haml, app/views/listings/_listed_listing_edit_links.haml, app/views/listings/_listed_listings.haml, app/views/listings/_listing_spacer.haml, app/views/listings/_listings_on_map.haml, app/views/listings/_origin.haml, app/views/listings/_reply_link.haml, app/views/listings/edit.haml, app/views/listings/form/_departure_time.haml, app/views/listings/form/_departure_time_radio_buttons.haml, app/views/listings/form/_description.haml, app/views/listings/form/_destination.haml, app/views/listings/form/_form_content.haml, app/views/listings/form/_googlemap.haml, app/views/listings/form/_images.haml, app/views/listings/form/_javascripts.haml, app/views/listings/form/_location.haml, app/views/listings/form/_origin.haml, app/views/listings/form/_send_button.haml, app/views/listings/form/_share_type.haml, app/views/listings/form/_tag_list.haml, app/views/listings/form/_title.haml, app/views/listings/form/_valid_until.haml, app/views/listings/form/_valid_until_radio_buttons.haml, app/views/listings/form/_visibility.haml, app/views/listings/index.haml, app/views/listings/new.haml, app/views/listings/show.haml, app/views/people/_help_texts.haml, app/views/people/new.haml, app/views/sessions/_new.haml, app/views/sessions/new.haml]","[fill_in, click_button, Factory, login_as, fill_in, click_button, hashes, get_test_person_and_session, cookie, update_attributes, id, consent, save, each, update_attribute, Factory, Factory, id, find_by_person_id, id, find_by_person_id, find_by_person_id, click_button, click_link, fill_in, check, uncheck, page, have_content, has_content?, page, have_no_content, has_no_content?, have_no_content, has_no_content?, within, send_button, listing, update_attribute, to_i, times]","","[]","[app/views/conversations/_author.html.haml, app/views/conversations/_listing.html.haml, app/views/listings/_author.html.haml, avatar_person_settings, close_person_listing, edit_listing, follow_listing, listing, listing_image, new_listing, new_person_message_feedback, new_tribe, new_tribe_membership, news_items, person, person_badges, person_message, person_settings, person_testimonials, skip_person_message_feedbacks, tribes, unfollow_listing]","22","48.319 seconds","false","7","0","[app/controllers/application_controller.rb, app/controllers/conversations_controller.rb, app/controllers/dashboard_controller.rb, app/controllers/homepage_controller.rb, app/controllers/listings_controller.rb, app/controllers/people_controller.rb, app/controllers/sessions_controller.rb]","[]","0","[]","0"
"2906","[10-05-2011]","1","2","[e2f831c4468bcab9bb8c1b4c2143aab2bade1781, 7ac7d3df7b8cc60819b6b7169a2ca24bfacce3b4]","5","0","4","1","[app/controllers/conversations_controller.rb, app/controllers/homepage_controller.rb, app/controllers/listings_controller.rb, app/controllers/sessions_controller.rb]","[app/controllers/infos_controller.rb]","0.0","0.0","3.0.0","2","[]","0","52","[app/controllers/conversations_controller.rb, app/controllers/homepage_controller.rb, app/controllers/listings_controller.rb, app/controllers/sessions_controller.rb, app/helpers/application_helper.rb, app/models/conversation.rb, app/views/common/_staples.haml, app/views/conversations/_additional_messages.haml, app/views/conversations/_additional_notifications.haml, app/views/conversations/_inbox_spacer.haml, app/views/conversations/_message.haml, app/views/conversations/_notification.haml, app/views/conversations/_received_conversation.haml, app/views/conversations/_sent_conversation.haml, app/views/conversations/_status.haml, app/views/conversations/_status_link.haml, app/views/conversations/index.haml, app/views/conversations/new.haml, app/views/conversations/notifications.haml, app/views/conversations/show.haml, app/views/homepage/_blank_slate.haml, app/views/homepage/_recent_listing.haml, app/views/homepage/index.haml, app/views/listings/_additional_listings.haml, app/views/listings/_comment.haml, app/views/listings/_comment_form.haml, app/views/listings/_edit_links.haml, app/views/listings/_help_texts.haml, app/views/listings/_left_panel_link.haml, app/views/listings/_listed_listing.haml, app/views/listings/_listed_listings.haml, app/views/listings/_listing_spacer.haml, app/views/listings/_reply_link.haml, app/views/listings/edit.haml, app/views/listings/form/_departure_time.haml, app/views/listings/form/_description.haml, app/views/listings/form/_destination.haml, app/views/listings/form/_form_content.haml, app/views/listings/form/_images.haml, app/views/listings/form/_javascripts.haml, app/views/listings/form/_origin.haml, app/views/listings/form/_send_button.haml, app/views/listings/form/_share_type.haml, app/views/listings/form/_tag_list.haml, app/views/listings/form/_title.haml, app/views/listings/form/_valid_until.haml, app/views/listings/form/_valid_until_radio_buttons.haml, app/views/listings/form/_visibility.haml, app/views/listings/index.haml, app/views/listings/new.haml, app/views/listings/show.haml, app/views/sessions/new.haml]","[click_link, page, have_content, has_content?, page, have_content, has_content?, have_no_content, has_no_content?, within, listing, send_button, fill_in, click_button]","","[]","[app/views/conversations/_author.html.haml, app/views/conversations/_listing.html.haml, app/views/listings/_author.html.haml, close_person_listing, edit_listing, listing, listing_image, new_listing, new_person_message_feedback, skip_person_message_feedbacks]","10","8.846 seconds","false","4","1","[app/controllers/conversations_controller.rb, app/controllers/homepage_controller.rb, app/controllers/listings_controller.rb, app/controllers/sessions_controller.rb]","[app/controllers/infos_controller.rb]","0","[]","0"
"2846","[04-05-2012, 07-05-2012, 08-05-2012]","1","5","[008d1e3130984ea979f8c0608affabc09429643a, 476449943ac3d3c7018ef84a294c23e1e34883d9, f7e68735863282fd04bea1aef88058ee2036bf13, f7ad580d5b3785ec0d74846c1a0930993b49bfeb, 0c61ec9b3a863472a4d31e01bf5a9ebf133edd9b]","3","7","1","3","[app/controllers/sessions_controller.rb]","[app/controllers/news_items_controller.rb, app/controllers/people_controller.rb, app/controllers/sessions_controller.rb]","1.0","0.3333333333","3.0.0","5","[]","0","2","[app/controllers/sessions_controller.rb, app/views/sessions/new.haml]","[fill_in, click_button, fill_in, click_button, set_given_name, be_blank, hashes, get_test_person_and_session, cookie, update_attributes, id, each, update_attribute, Factory, to_i, Factory, times, click_link, page, have_content, has_content?, have_no_content, has_no_content?, within, find, be_nil]","","[]","[about_infos, news_items]","2","59.925 seconds","false","0","2","[]","[app/controllers/news_items_controller.rb, app/controllers/people_controller.rb]","1","[app/controllers/sessions_controller.rb]","0.38461538457988165"
"2847","[07-05-2012, 08-05-2012]","1","4","[eed46f9bfc7cea64e54a021bf61d308a526f1395, ed53d0aff235a0b714e67318f480bfd89ff94140, 2a0f88980666ba874dcb7fed254256d78b1272ac, 45af3ccb57c27dc093935f726da0b533f6d1e3cf]","3","0","5","1","[app/controllers/conversations_controller.rb, app/controllers/homepage_controller.rb, app/controllers/listings_controller.rb, app/controllers/people_controller.rb, app/controllers/sessions_controller.rb]","[app/controllers/people_controller.rb]","0.2","1.0","3.0.0","6","[]","0","79","[app/controllers/conversations_controller.rb, app/controllers/homepage_controller.rb, app/controllers/listings_controller.rb, app/controllers/people_controller.rb, app/controllers/sessions_controller.rb, app/helpers/application_helper.rb, app/models/conversation.rb, app/views/common/_staples.haml, app/views/conversations/_additional_messages.haml, app/views/conversations/_additional_notifications.haml, app/views/conversations/_inbox_spacer.haml, app/views/conversations/_message.haml, app/views/conversations/_notification.haml, app/views/conversations/_received_conversation.haml, app/views/conversations/_sent_conversation.haml, app/views/conversations/_status.haml, app/views/conversations/_status_link.haml, app/views/conversations/index.haml, app/views/conversations/new.haml, app/views/conversations/notifications.haml, app/views/conversations/notifications/_badgenotification.haml, app/views/conversations/notifications/_comment_to_followed_listing_notification.haml, app/views/conversations/notifications/_comment_to_own_listing_notification.haml, app/views/conversations/notifications/_listing_updated_notification.haml, app/views/conversations/notifications/_testimonialnotification.haml, app/views/conversations/show.haml, app/views/homepage/_additional_private_listings_slate.haml, app/views/homepage/_blank_slate.haml, app/views/homepage/_event_feed.haml, app/views/homepage/_event_feed_event.haml, app/views/homepage/_invitation_form.haml, app/views/homepage/_news_item.haml, app/views/homepage/_news_items.haml, app/views/homepage/_poll_form.haml, app/views/homepage/_profile_info_empty_notification.haml, app/views/homepage/_recent_listing.haml, app/views/homepage/index.haml, app/views/listings/_additional_listings.haml, app/views/listings/_bubble_listing_not_visible.haml, app/views/listings/_comment.haml, app/views/listings/_comment_form.haml, app/views/listings/_destination.haml, app/views/listings/_edit_links.haml, app/views/listings/_follow_links.haml, app/views/listings/_googlemap.haml, app/views/listings/_help_texts.haml, app/views/listings/_left_panel_link.haml, app/views/listings/_listed_listing.haml, app/views/listings/_listed_listing_closed_status.haml, app/views/listings/_listed_listing_edit_links.haml, app/views/listings/_listed_listings.haml, app/views/listings/_listing_spacer.haml, app/views/listings/_listings_on_map.haml, app/views/listings/_origin.haml, app/views/listings/_reply_link.haml, app/views/listings/edit.haml, app/views/listings/form/_departure_time.haml, app/views/listings/form/_departure_time_radio_buttons.haml, app/views/listings/form/_description.haml, app/views/listings/form/_destination.haml, app/views/listings/form/_form_content.haml, app/views/listings/form/_googlemap.haml, app/views/listings/form/_images.haml, app/views/listings/form/_javascripts.haml, app/views/listings/form/_location.haml, app/views/listings/form/_origin.haml, app/views/listings/form/_send_button.haml, app/views/listings/form/_share_type.haml, app/views/listings/form/_tag_list.haml, app/views/listings/form/_title.haml, app/views/listings/form/_valid_until.haml, app/views/listings/form/_valid_until_radio_buttons.haml, app/views/listings/form/_visibility.haml, app/views/listings/index.haml, app/views/listings/new.haml, app/views/listings/show.haml, app/views/people/_help_texts.haml, app/views/people/new.haml, app/views/sessions/new.haml]","[fill_in, click_button, fill_in, click_button, hashes, get_test_person_and_session, cookie, update_attributes, id, each, update_attribute, Factory, to_i, Factory, times, click_link, page, have_content, has_content?, have_no_content, has_no_content?, within, send_button, listing]","","[]","[about_infos, app/views/conversations/_author.html.haml, app/views/conversations/_listing.html.haml, app/views/listings/_author.html.haml, avatar_person_settings, close_person_listing, edit_listing, follow_listing, listing, listing_image, new_listing, new_person_message_feedback, news_items, person_badges, person_message, person_settings, person_testimonials, skip_person_message_feedbacks, unfollow_listing]","19","10 minutes, 42.381 seconds","false","4","0","[app/controllers/conversations_controller.rb, app/controllers/homepage_controller.rb, app/controllers/listings_controller.rb, app/controllers/sessions_controller.rb]","[]","1","[app/controllers/people_controller.rb]","0.5555555555555556"
"2857","[03-01-2012, 05-01-2012, 09-01-2012, 10-01-2012, 12-01-2012, 13-01-2012, 14-01-2012, 11-02-2012, 12-02-2012, 13-02-2012, 21-02-2012, 25-02-2012, 26-02-2012]","1","31","[e01853c7dbee1b05f2d48d44b8236451aacdb440, 6a06ddbccbff3d6ce1821344b27373f74fd631ae, 47de6ca42a5cc11a42a62efabe1df0f8ea198776, 49a6d4ad79543b211470e43cc4859f122f0b7a5e, 3ae22c4d292d36ecbe201bfa41ce552de0502c9a, c8de81ebdfdd409192559e7b227f4b6d55d3064d, 988b7db90986d60533c28248507efab14cb8534e, fdc134b538114d1a4c616582cf3b9116cf07ad66, bd780a4d0ce9274a8d3b8c2c885c9247d6bf0e14, 660bdf3670dd152dfb15a6821d09ed9e774b763e, d63e7373eabbd89288b55262956139bd7767573c, 98ae993a6656e611354be41cfb6554757eff45c6, 251d84e9a33d0de585af877defe9cf1662ca43e4, 75dbb35ba895e06bf881c2ddf37d443bac585b2d, cede6284bd3c661b9b23d4dddf36d7c74f1a9af3, 2b78defbc5574c182490ccb69197c5513a7adc97, ca8a0c4a2944255a80ecd012cdb64a62d494393c, 65a7c09a1596d5a1c72d4efda0f887106135d27b, aaed3e2500d80542d43baa72753c11cb07eb9f31, c185615496b8626e48dd8471eebb782be1a9e7d6, edc7dbb70bc5279e603d10b912cb215c8177f9cb, f26e9ac0d46043f0f86db9ba215793e3702e2683, 3eb8a9a510cb50184da85ac022cbd1e1f24a7060, e2cb0b7f0bd465f59678e2576d3974fcc79bc504, 4101451d7d5622ff3e9d2473574e1f2246351b45, 8e0fc626c1df07fde645897dc066168bf92478d7, 66bd3c2d0fa137e1745227a346903022133931f9, b1dc89949c0ab4614f6506c6467ed5b26bb0bc0a, f50df604fccc3e37a8fdda78d6818a5aa3cfd505, 830f391542e26c49b30cc192126870c83ae02cde, 2dc212304cbc1867321d7683fdddaea867fdb724]","3","4","5","7","[app/controllers/conversations_controller.rb, app/controllers/homepage_controller.rb, app/controllers/listings_controller.rb, app/controllers/people_controller.rb, app/controllers/sessions_controller.rb]","[app/controllers/application_controller.rb, app/controllers/confirmations_controller.rb, app/controllers/listings_controller.rb, app/controllers/people_controller.rb, app/controllers/sessions_controller.rb, app/controllers/settings_controller.rb, app/controllers/terms_controller.rb]","0.6","0.4285714286","3.0.0","4","[]","0","74","[app/controllers/conversations_controller.rb, app/controllers/homepage_controller.rb, app/controllers/listings_controller.rb, app/controllers/people_controller.rb, app/controllers/sessions_controller.rb, app/helpers/application_helper.rb, app/models/conversation.rb, app/views/common/_staples.haml, app/views/conversations/_additional_messages.haml, app/views/conversations/_additional_notifications.haml, app/views/conversations/_inbox_spacer.haml, app/views/conversations/_message.haml, app/views/conversations/_notification.haml, app/views/conversations/_received_conversation.haml, app/views/conversations/_sent_conversation.haml, app/views/conversations/_status.haml, app/views/conversations/_status_link.haml, app/views/conversations/index.haml, app/views/conversations/new.haml, app/views/conversations/notifications.haml, app/views/conversations/notifications/_badgenotification.haml, app/views/conversations/notifications/_comment_to_followed_listing_notification.haml, app/views/conversations/notifications/_comment_to_own_listing_notification.haml, app/views/conversations/notifications/_listing_updated_notification.haml, app/views/conversations/notifications/_testimonialnotification.haml, app/views/conversations/show.haml, app/views/homepage/_additional_private_listings_slate.haml, app/views/homepage/_blank_slate.haml, app/views/homepage/_invitation_form.haml, app/views/homepage/_profile_info_empty_notification.haml, app/views/homepage/_recent_listing.haml, app/views/homepage/index.haml, app/views/listings/_additional_listings.haml, app/views/listings/_bubble_listing_not_visible.haml, app/views/listings/_comment.haml, app/views/listings/_comment_form.haml, app/views/listings/_destination.haml, app/views/listings/_edit_links.haml, app/views/listings/_follow_links.haml, app/views/listings/_googlemap.haml, app/views/listings/_help_texts.haml, app/views/listings/_left_panel_link.haml, app/views/listings/_listed_listing.haml, app/views/listings/_listed_listing_closed_status.haml, app/views/listings/_listed_listing_edit_links.haml, app/views/listings/_listed_listings.haml, app/views/listings/_listing_spacer.haml, app/views/listings/_listings_on_map.haml, app/views/listings/_origin.haml, app/views/listings/_reply_link.haml, app/views/listings/edit.haml, app/views/listings/form/_departure_time.haml, app/views/listings/form/_departure_time_radio_buttons.haml, app/views/listings/form/_description.haml, app/views/listings/form/_destination.haml, app/views/listings/form/_form_content.haml, app/views/listings/form/_googlemap.haml, app/views/listings/form/_images.haml, app/views/listings/form/_javascripts.haml, app/views/listings/form/_location.haml, app/views/listings/form/_origin.haml, app/views/listings/form/_send_button.haml, app/views/listings/form/_share_type.haml, app/views/listings/form/_tag_list.haml, app/views/listings/form/_title.haml, app/views/listings/form/_valid_until.haml, app/views/listings/form/_valid_until_radio_buttons.haml, app/views/listings/form/_visibility.haml, app/views/listings/index.haml, app/views/listings/new.haml, app/views/listings/show.haml, app/views/people/_help_texts.haml, app/views/people/new.haml, app/views/sessions/new.haml]","[fill_in, click_button, hashes, get_test_person_and_session, cookie, update_attributes, id, each, fill_in, click_button, click_link, select, uncheck, choose, attach_file, page, have_content, has_content?, within, send_button, listing, Factory, collect]","","[app/views/devise/mailer/confirmation_instructions.html.haml, app/views/devise/mailer/reset_password_instructions.html.erb, app/views/devise/passwords/edit.html.erb]","[app/views/conversations/_author.html.haml, app/views/conversations/_listing.html.haml, app/views/listings/_author.html.haml, close_person_listing, edit_listing, follow_listing, listing, listing_image, new_listing, new_person_message_feedback, person_badges, person_message, person_settings, person_testimonials, skip_person_message_feedbacks, unfollow_listing]","16","57.812 seconds","false","2","4","[app/controllers/conversations_controller.rb, app/controllers/homepage_controller.rb]","[app/controllers/application_controller.rb, app/controllers/confirmations_controller.rb, app/controllers/settings_controller.rb, app/controllers/terms_controller.rb]","3","[app/controllers/listings_controller.rb, app/controllers/people_controller.rb, app/controllers/sessions_controller.rb]","0.45454545457116624"
"2897","[11-05-2011, 17-05-2011, 19-05-2011, 27-05-2011, 29-05-2011, 30-05-2011]","1","17","[8967647dcaca7e017780d66f79b31374c793d026, 8fe980f0ee7a32644a0324a4a6199b224daf2b51, 082a04a73f544a56345de8beb0a0261ce9dc47a8, c6127e1876682b25fda379ccb98ff933e70c6f3e, 6de1cb062360da0183b0e41e866ff92f8c35c19c, 8dd84d4ec66529446470e5b8a44cbb3c361bbba5, 1eb97051c28839768aabe540783255578e28c773, fe9a1f68f01067c2d80d848b1a9512151ba2349d, 242e33373939739bf2fa563a37d8e0a79abf82e9, a76e724fcc156a35cefec59e417a3c73d414b365, 1baf2edd3492dacb2aa15ed9224cc2227318dc44, 9269f254420a81fc490ff795fc15ed83ace1de54, abb12514dece8433c83b3e8afac68221cd8e954b, 06e53b73bb0dd812fa6674700396885582c0330e, 4778c7c25cc5abf31e44886b4e344102e3e47cc4, 6122a44c0f4d3dad64475f9ce75c5598b5690e79, 12d8154e951e896c55263e2c7cad4b1605e1104b]","3","1","5","5","[app/controllers/conversations_controller.rb, app/controllers/homepage_controller.rb, app/controllers/listings_controller.rb, app/controllers/people_controller.rb, app/controllers/sessions_controller.rb]","[app/controllers/application_controller.rb, app/controllers/homepage_controller.rb, app/controllers/listings_controller.rb, app/controllers/people_controller.rb, app/controllers/sessions_controller.rb]","0.8","0.8","3.0.0","4","[]","0","56","[app/controllers/conversations_controller.rb, app/controllers/homepage_controller.rb, app/controllers/listings_controller.rb, app/controllers/people_controller.rb, app/controllers/sessions_controller.rb, app/helpers/application_helper.rb, app/models/conversation.rb, app/views/common/_staples.haml, app/views/conversations/_additional_messages.haml, app/views/conversations/_additional_notifications.haml, app/views/conversations/_inbox_spacer.haml, app/views/conversations/_message.haml, app/views/conversations/_notification.haml, app/views/conversations/_received_conversation.haml, app/views/conversations/_sent_conversation.haml, app/views/conversations/_status.haml, app/views/conversations/_status_link.haml, app/views/conversations/index.haml, app/views/conversations/new.haml, app/views/conversations/notifications.haml, app/views/conversations/show.haml, app/views/homepage/_additional_private_listings_slate.haml, app/views/homepage/_blank_slate.haml, app/views/homepage/_recent_listing.haml, app/views/homepage/index.haml, app/views/listings/_additional_listings.haml, app/views/listings/_comment.haml, app/views/listings/_comment_form.haml, app/views/listings/_edit_links.haml, app/views/listings/_help_texts.haml, app/views/listings/_left_panel_link.haml, app/views/listings/_listed_listing.haml, app/views/listings/_listed_listings.haml, app/views/listings/_listing_spacer.haml, app/views/listings/_reply_link.haml, app/views/listings/edit.haml, app/views/listings/form/_departure_time.haml, app/views/listings/form/_description.haml, app/views/listings/form/_destination.haml, app/views/listings/form/_form_content.haml, app/views/listings/form/_images.haml, app/views/listings/form/_javascripts.haml, app/views/listings/form/_origin.haml, app/views/listings/form/_send_button.haml, app/views/listings/form/_share_type.haml, app/views/listings/form/_tag_list.haml, app/views/listings/form/_title.haml, app/views/listings/form/_valid_until.haml, app/views/listings/form/_valid_until_radio_buttons.haml, app/views/listings/form/_visibility.haml, app/views/listings/index.haml, app/views/listings/new.haml, app/views/listings/show.haml, app/views/people/_help_texts.haml, app/views/people/new.haml, app/views/sessions/new.haml]","[fill_in, click_button, hashes, get_test_person_and_session, cookie, update_attributes, id, each, generate_random_username, fill_in, within, Factory, collect, Factory, collect, click_button, check, page, have_content, has_content?, page, have_content, has_content?, have_no_content, has_no_content?, have_no_content, has_no_content?, listing, send_button, communities, community_memberships, community, consent]","","[]","[app/views/conversations/_author.html.haml, app/views/conversations/_listing.html.haml, app/views/listings/_author.html.haml, close_person_listing, edit_listing, listing, listing_image, new_listing, new_person_message_feedback, skip_person_message_feedbacks]","10","11.512 seconds","false","1","1","[app/controllers/conversations_controller.rb]","[app/controllers/application_controller.rb]","4","[app/controllers/homepage_controller.rb, app/controllers/listings_controller.rb, app/controllers/people_controller.rb, app/controllers/sessions_controller.rb]","0.8000000000000002"
"2948","[06-04-2011, 12-04-2011]","1","3","[28c1da6885f07373892de4d9a728079e6e02500f, f9a70c37e4b801dd35e33dbafe790d5fa2801dce, 90093993ee91f819609542c3276dff3a9b4633a3]","3","0","5","1","[app/controllers/conversations_controller.rb, app/controllers/homepage_controller.rb, app/controllers/listings_controller.rb, app/controllers/people_controller.rb, app/controllers/sessions_controller.rb]","[app/controllers/people_controller.rb]","0.2","1.0","3.0.0","2","[]","0","55","[app/controllers/conversations_controller.rb, app/controllers/homepage_controller.rb, app/controllers/listings_controller.rb, app/controllers/people_controller.rb, app/controllers/sessions_controller.rb, app/helpers/application_helper.rb, app/models/conversation.rb, app/views/common/_staples.haml, app/views/conversations/_additional_messages.haml, app/views/conversations/_additional_notifications.haml, app/views/conversations/_inbox_spacer.haml, app/views/conversations/_message.haml, app/views/conversations/_notification.haml, app/views/conversations/_received_conversation.haml, app/views/conversations/_sent_conversation.haml, app/views/conversations/_status.haml, app/views/conversations/_status_link.haml, app/views/conversations/index.haml, app/views/conversations/new.haml, app/views/conversations/notifications.haml, app/views/conversations/show.haml, app/views/homepage/_recent_listing.haml, app/views/homepage/index.haml, app/views/listings/_additional_listings.haml, app/views/listings/_comment.haml, app/views/listings/_comment_form.haml, app/views/listings/_edit_links.haml, app/views/listings/_help_texts.haml, app/views/listings/_left_panel_link.haml, app/views/listings/_listed_listing.haml, app/views/listings/_listed_listings.haml, app/views/listings/_listing_spacer.haml, app/views/listings/_reply_link.haml, app/views/listings/edit.haml, app/views/listings/form/_departure_time.haml, app/views/listings/form/_description.haml, app/views/listings/form/_destination.haml, app/views/listings/form/_form_content.haml, app/views/listings/form/_images.haml, app/views/listings/form/_javascripts.haml, app/views/listings/form/_origin.haml, app/views/listings/form/_send_button.haml, app/views/listings/form/_share_type.haml, app/views/listings/form/_tag_list.haml, app/views/listings/form/_title.haml, app/views/listings/form/_valid_until.haml, app/views/listings/form/_valid_until_radio_buttons.haml, app/views/listings/form/_visibility.haml, app/views/listings/index.haml, app/views/listings/new.haml, app/views/listings/show.haml, app/views/people/_help_texts.haml, app/views/people/new.haml, app/views/sessions/_password_forgotten.haml, app/views/sessions/new.haml]","[click_link, page, have_content, has_content?, page, have_content, has_content?, within, listing, send_button]","","[app/controllers/consent_controller.rb, app/views/consent/show.haml, app/views/people/help_texts/_research_info.haml]","[app/views/conversations/_author.html.haml, app/views/conversations/_listing.html.haml, app/views/listings/_author.html.haml, close_person_listing, edit_listing, listing, listing_image, new_listing, new_person_message_feedback, skip_person_message_feedbacks]","10","2.244 seconds","false","4","0","[app/controllers/conversations_controller.rb, app/controllers/homepage_controller.rb, app/controllers/listings_controller.rb, app/controllers/sessions_controller.rb]","[]","1","[app/controllers/people_controller.rb]","0.5555555555555556"
"2957","[08-03-2011, 09-03-2011, 11-03-2011, 18-03-2011, 23-03-2011]","1","9","[f2126290e5dc835c4293b288a4c44e900df7d80d, fbdabb03d98f09f2fa892e04a5d6efda808780de, d2f1010a6895db3e2882e71fb9b2f023e2ecf355, 40f5d949770f0e912ddfd322ee69b34159626142, 21d25ff15a5f32fc0a06467db8fe28c3937cc6f5, ee2708a04d5c15834efd4e99b09280fc9fff1b7e, a64a8734e03a82368074e745550144101c83da83, 769104fb7891147271cff8f559b48d1a30d831a3, 0b85ea401911a72b7779584e2e72afb89aa73ea5]","3","2","5","2","[app/controllers/conversations_controller.rb, app/controllers/homepage_controller.rb, app/controllers/listings_controller.rb, app/controllers/people_controller.rb, app/controllers/sessions_controller.rb]","[app/controllers/application_controller.rb, app/controllers/people_controller.rb]","0.2","0.5","3.0.0","1","[]","0","54","[app/controllers/conversations_controller.rb, app/controllers/homepage_controller.rb, app/controllers/listings_controller.rb, app/controllers/people_controller.rb, app/controllers/sessions_controller.rb, app/models/conversation.rb, app/views/common/_staples.haml, app/views/conversations/_additional_messages.haml, app/views/conversations/_additional_notifications.haml, app/views/conversations/_inbox_spacer.haml, app/views/conversations/_message.haml, app/views/conversations/_notification.haml, app/views/conversations/_received_conversation.haml, app/views/conversations/_sent_conversation.haml, app/views/conversations/_status.haml, app/views/conversations/_status_link.haml, app/views/conversations/index.haml, app/views/conversations/new.haml, app/views/conversations/notifications.haml, app/views/conversations/show.haml, app/views/homepage/_recent_listing.haml, app/views/homepage/index.haml, app/views/listings/_additional_listings.haml, app/views/listings/_comment.haml, app/views/listings/_comment_form.haml, app/views/listings/_edit_links.haml, app/views/listings/_help_texts.haml, app/views/listings/_left_panel_link.haml, app/views/listings/_listed_listing.haml, app/views/listings/_listed_listings.haml, app/views/listings/_listing_spacer.haml, app/views/listings/_reply_link.haml, app/views/listings/edit.haml, app/views/listings/form/_departure_time.haml, app/views/listings/form/_description.haml, app/views/listings/form/_destination.haml, app/views/listings/form/_form_content.haml, app/views/listings/form/_images.haml, app/views/listings/form/_javascripts.haml, app/views/listings/form/_origin.haml, app/views/listings/form/_send_button.haml, app/views/listings/form/_share_type.haml, app/views/listings/form/_tag_list.haml, app/views/listings/form/_title.haml, app/views/listings/form/_valid_until.haml, app/views/listings/form/_valid_until_radio_buttons.haml, app/views/listings/form/_visibility.haml, app/views/listings/index.haml, app/views/listings/new.haml, app/views/listings/show.haml, app/views/people/_help_texts.haml, app/views/people/new.haml, app/views/sessions/_password_forgotten.haml, app/views/sessions/new.haml]","[hashes, each, select, page, have_content, has_content?, within, listing, send_button, lambda, raise_error]","","[]","[app/views/conversations/_author.html.haml, app/views/conversations/_listing.html.haml, app/views/homepage/_welcome_text_.html.haml, app/views/listings/_author.html.haml, close_person_listing, edit_listing, listing, listing_image, new_listing, new_person_message_feedback, skip_person_message_feedbacks]","11","4.800 seconds","false","4","1","[app/controllers/conversations_controller.rb, app/controllers/homepage_controller.rb, app/controllers/listings_controller.rb, app/controllers/sessions_controller.rb]","[app/controllers/application_controller.rb]","1","[app/controllers/people_controller.rb]","0.38461538461538464"
"2971","[09-12-2010, 10-12-2010, 12-12-2010, 13-12-2010, 15-12-2010, 24-01-2011]","2","9","[671ddf8c85818baad06cf56cf351b5aa0cdcb4f9, 474322f319089c4d56ec2c0beebab6ede0a6601b, 161f9b5f990e60fe9d5ff8038ac271cea471585d, 212f2cbe4a6daf0717899158b769fd219fd689d5, 05e24c0bc289aad7e187a5e96ff3b8741dcbabfa, 9d7e324d007dad5d3f4226582db8ca66036ee659, 798607f70a62a2adf0d8ada10ef49f225e65a195, d59f4cd6b3eb912854b4990bb7fc9014caf82426, 2e9e34aeb530a6cca391983f9f4280447b83eb2d]","3","0","5","2","[app/controllers/conversations_controller.rb, app/controllers/homepage_controller.rb, app/controllers/listings_controller.rb, app/controllers/people_controller.rb, app/controllers/sessions_controller.rb]","[app/controllers/application_controller.rb, app/controllers/sms_controller.rb]","0.0","0.0","3.0.0","3","[]","0","54","[app/controllers/conversations_controller.rb, app/controllers/homepage_controller.rb, app/controllers/listings_controller.rb, app/controllers/people_controller.rb, app/controllers/sessions_controller.rb, app/models/conversation.rb, app/views/common/_staples.haml, app/views/conversations/_additional_messages.haml, app/views/conversations/_additional_notifications.haml, app/views/conversations/_inbox_spacer.haml, app/views/conversations/_message.haml, app/views/conversations/_notification.haml, app/views/conversations/_received_conversation.haml, app/views/conversations/_sent_conversation.haml, app/views/conversations/_status.haml, app/views/conversations/_status_link.haml, app/views/conversations/index.haml, app/views/conversations/new.haml, app/views/conversations/notifications.haml, app/views/conversations/show.haml, app/views/homepage/_recent_listing.haml, app/views/homepage/index.haml, app/views/listings/_additional_listings.haml, app/views/listings/_comment.haml, app/views/listings/_comment_form.haml, app/views/listings/_edit_links.haml, app/views/listings/_help_texts.haml, app/views/listings/_left_panel_link.haml, app/views/listings/_listed_listing.haml, app/views/listings/_listed_listings.haml, app/views/listings/_listing_spacer.haml, app/views/listings/_reply_link.haml, app/views/listings/edit.haml, app/views/listings/form/_departure_time.haml, app/views/listings/form/_description.haml, app/views/listings/form/_destination.haml, app/views/listings/form/_form_content.haml, app/views/listings/form/_images.haml, app/views/listings/form/_javascripts.haml, app/views/listings/form/_origin.haml, app/views/listings/form/_send_button.haml, app/views/listings/form/_share_type.haml, app/views/listings/form/_tag_list.haml, app/views/listings/form/_title.haml, app/views/listings/form/_valid_until.haml, app/views/listings/form/_valid_until_radio_buttons.haml, app/views/listings/form/_visibility.haml, app/views/listings/index.haml, app/views/listings/new.haml, app/views/listings/show.haml, app/views/people/_help_texts.haml, app/views/people/new.haml, app/views/sessions/_password_forgotten.haml, app/views/sessions/new.haml]","[fill_in, click_button, hashes, get_test_person_and_session, cookie, update_attributes, each, click_button, click_link, fill_in, select, uncheck, attach_file, page, have_content, has_content?, within, listing, send_button, id, from_now]","","[]","[app/views/conversations/_author.html.haml, app/views/conversations/_listing.html.haml, app/views/homepage/_welcome_text.html.haml, app/views/listings/_author.html.haml, close_person_listing, edit_listing, listing, listing_image, new_listing, new_person_message_feedback, skip_person_message_feedbacks]","11","1.575 seconds","false","5","2","[app/controllers/conversations_controller.rb, app/controllers/homepage_controller.rb, app/controllers/listings_controller.rb, app/controllers/people_controller.rb, app/controllers/sessions_controller.rb]","[app/controllers/application_controller.rb, app/controllers/sms_controller.rb]","0","[]","0"
"2978","[21-02-2011, 22-02-2011]","1","3","[d126cb0af0abbaf637ba84351352585b0b6728c3, fba40b463e5482cbc728b5cd4fbd7e4aaecd28d4, 07c1e3e5ed7b647e5bb0ff1d72832291f34ca228]","2","0","5","1","[app/controllers/conversations_controller.rb, app/controllers/homepage_controller.rb, app/controllers/listings_controller.rb, app/controllers/people_controller.rb, app/controllers/sessions_controller.rb]","[app/controllers/application_controller.rb]","0.0","0.0","3.0.0","2","[]","0","54","[app/controllers/conversations_controller.rb, app/controllers/homepage_controller.rb, app/controllers/listings_controller.rb, app/controllers/people_controller.rb, app/controllers/sessions_controller.rb, app/models/conversation.rb, app/views/common/_staples.haml, app/views/conversations/_additional_messages.haml, app/views/conversations/_additional_notifications.haml, app/views/conversations/_inbox_spacer.haml, app/views/conversations/_message.haml, app/views/conversations/_notification.haml, app/views/conversations/_received_conversation.haml, app/views/conversations/_sent_conversation.haml, app/views/conversations/_status.haml, app/views/conversations/_status_link.haml, app/views/conversations/index.haml, app/views/conversations/new.haml, app/views/conversations/notifications.haml, app/views/conversations/show.haml, app/views/homepage/_recent_listing.haml, app/views/homepage/index.haml, app/views/listings/_additional_listings.haml, app/views/listings/_comment.haml, app/views/listings/_comment_form.haml, app/views/listings/_edit_links.haml, app/views/listings/_help_texts.haml, app/views/listings/_left_panel_link.haml, app/views/listings/_listed_listing.haml, app/views/listings/_listed_listings.haml, app/views/listings/_listing_spacer.haml, app/views/listings/_reply_link.haml, app/views/listings/edit.haml, app/views/listings/form/_departure_time.haml, app/views/listings/form/_description.haml, app/views/listings/form/_destination.haml, app/views/listings/form/_form_content.haml, app/views/listings/form/_images.haml, app/views/listings/form/_javascripts.haml, app/views/listings/form/_origin.haml, app/views/listings/form/_send_button.haml, app/views/listings/form/_share_type.haml, app/views/listings/form/_tag_list.haml, app/views/listings/form/_title.haml, app/views/listings/form/_valid_until.haml, app/views/listings/form/_valid_until_radio_buttons.haml, app/views/listings/form/_visibility.haml, app/views/listings/index.haml, app/views/listings/new.haml, app/views/listings/show.haml, app/views/people/_help_texts.haml, app/views/people/new.haml, app/views/sessions/_password_forgotten.haml, app/views/sessions/new.haml]","[click_button, fill_in, select, check, page, have_content, has_content?, within, listing, send_button, generate_random_username]","","[]","[app/views/conversations/_author.html.haml, app/views/conversations/_listing.html.haml, app/views/homepage/_welcome_text.html.haml, app/views/listings/_author.html.haml, close_person_listing, edit_listing, listing, listing_image, new_listing, new_person_message_feedback, skip_person_message_feedbacks]","11","5.733 seconds","false","5","1","[app/controllers/conversations_controller.rb, app/controllers/homepage_controller.rb, app/controllers/listings_controller.rb, app/controllers/people_controller.rb, app/controllers/sessions_controller.rb]","[app/controllers/application_controller.rb]","0","[]","0"
"2850","[04-04-2012, 06-04-2012, 13-04-2012, 15-04-2012, 18-04-2012, 19-04-2012, 25-04-2012, 26-04-2012, 27-04-2012, 01-05-2012, 03-05-2012]","1","23","[63f4dc170b63d2582d4b04097586d06600ae985f, 87aab73ff6fa268bdd8f53fa2d91debebf4353a5, 2cdba0e27343518fb5dfdd832ee61213da38326b, 78b8d932413ef628cbaac5a9af7e5df10203526e, 6b9550e137fb60bc3bd5fa2653be12191effeca4, 31d30d3871d604692d4e3ecdb16b3ee0a8607288, e21ef30ede845a6559d764c96359cfe3ce9be686, f5f4338a824576bbc2c50619c0eabd1add249cbb, 96343292d45d8d4689917d731091ace1d2512b7d, ba51c1683baf0d9ffca7969272dff47a5c435f65, 3c31ec874443cef161bc36776869867f540b32d9, 351012c3e8fa454064bdf7bb43cb3482a98288f2, 14d030709d0f475180559586524d526324ab8ae7, 9241776caab4417ac87df9a12c19d052ea8409e3, 3a2dff99f5ad5a7fc5672b9f625f64be5ba17cfb, 3827d7ebd78a38ffb792789e3079c749dc8202ab, 599fe019018cf1566fe220328ceada41a0dca4bb, 4825a5f81e5ef74fbd84a757d8d442b4299f460f, c07aadfa701e5b057c639c33c16c77d431249091, fe5730bd3dc610e6f4a8f4355888c062f8b771a0, aa4e2e3f0e839adcad85c9e1cc24ffd64f50bbdc, e68bef35095583efb10bb256885bce0ee1bc8f3b, c9e0aabde0425b552996ec4be532c0eeb9808118]","1","0","1","1","[app/controllers/people_controller.rb]","[app/controllers/application_controller.rb]","0.0","0.0","3.0.0","1","[]","0","4","[app/controllers/people_controller.rb, app/helpers/application_helper.rb, app/views/people/_help_texts.haml, app/views/people/new.haml]","[generate_random_username, fill_in, update_attribute, page, have_content, has_content?, within, click_button, check, uncheck, have_no_content, has_no_content?, community, consent, present?, invitation, code]","","[]","","0","1 minutes, 30.393 seconds","false","1","1","[app/controllers/people_controller.rb]","[app/controllers/application_controller.rb]","0","[]","0"
"2860","[13-02-2012]","1","1","[fd6619a7ad558bf784affc5d7d96d77676e9d639]","1","2","5","1","[app/controllers/conversations_controller.rb, app/controllers/homepage_controller.rb, app/controllers/listings_controller.rb, app/controllers/people_controller.rb, app/controllers/sessions_controller.rb]","[app/controllers/application_controller.rb]","0.0","0.0","3.0.0","1","[]","0","74","[app/controllers/conversations_controller.rb, app/controllers/homepage_controller.rb, app/controllers/listings_controller.rb, app/controllers/people_controller.rb, app/controllers/sessions_controller.rb, app/helpers/application_helper.rb, app/models/conversation.rb, app/views/common/_staples.haml, app/views/conversations/_additional_messages.haml, app/views/conversations/_additional_notifications.haml, app/views/conversations/_inbox_spacer.haml, app/views/conversations/_message.haml, app/views/conversations/_notification.haml, app/views/conversations/_received_conversation.haml, app/views/conversations/_sent_conversation.haml, app/views/conversations/_status.haml, app/views/conversations/_status_link.haml, app/views/conversations/index.haml, app/views/conversations/new.haml, app/views/conversations/notifications.haml, app/views/conversations/notifications/_badgenotification.haml, app/views/conversations/notifications/_comment_to_followed_listing_notification.haml, app/views/conversations/notifications/_comment_to_own_listing_notification.haml, app/views/conversations/notifications/_listing_updated_notification.haml, app/views/conversations/notifications/_testimonialnotification.haml, app/views/conversations/show.haml, app/views/homepage/_additional_private_listings_slate.haml, app/views/homepage/_blank_slate.haml, app/views/homepage/_invitation_form.haml, app/views/homepage/_profile_info_empty_notification.haml, app/views/homepage/_recent_listing.haml, app/views/homepage/index.haml, app/views/listings/_additional_listings.haml, app/views/listings/_bubble_listing_not_visible.haml, app/views/listings/_comment.haml, app/views/listings/_comment_form.haml, app/views/listings/_destination.haml, app/views/listings/_edit_links.haml, app/views/listings/_follow_links.haml, app/views/listings/_googlemap.haml, app/views/listings/_help_texts.haml, app/views/listings/_left_panel_link.haml, app/views/listings/_listed_listing.haml, app/views/listings/_listed_listing_closed_status.haml, app/views/listings/_listed_listing_edit_links.haml, app/views/listings/_listed_listings.haml, app/views/listings/_listing_spacer.haml, app/views/listings/_listings_on_map.haml, app/views/listings/_origin.haml, app/views/listings/_reply_link.haml, app/views/listings/edit.haml, app/views/listings/form/_departure_time.haml, app/views/listings/form/_departure_time_radio_buttons.haml, app/views/listings/form/_description.haml, app/views/listings/form/_destination.haml, app/views/listings/form/_form_content.haml, app/views/listings/form/_googlemap.haml, app/views/listings/form/_images.haml, app/views/listings/form/_javascripts.haml, app/views/listings/form/_location.haml, app/views/listings/form/_origin.haml, app/views/listings/form/_send_button.haml, app/views/listings/form/_share_type.haml, app/views/listings/form/_tag_list.haml, app/views/listings/form/_title.haml, app/views/listings/form/_valid_until.haml, app/views/listings/form/_valid_until_radio_buttons.haml, app/views/listings/form/_visibility.haml, app/views/listings/index.haml, app/views/listings/new.haml, app/views/listings/show.haml, app/views/people/_help_texts.haml, app/views/people/new.haml, app/views/sessions/new.haml]","[hashes, get_test_person_and_session, cookie, update_attributes, id, each, generate_random_username, fill_in, within, community, consent, present?, invitation, code, update_attribute, present?, save, usages_left, to_i, click_button, click_link, check, page, have_content, has_content?, have_no_content, has_no_content?, send_button, listing]","","[]","[app/views/conversations/_author.html.haml, app/views/conversations/_listing.html.haml, app/views/listings/_author.html.haml, avatar_person_settings, close_person_listing, edit_listing, follow_listing, listing, listing_image, new_listing, new_person_message_feedback, person_badges, person_message, person_settings, person_testimonials, skip_person_message_feedbacks, unfollow_listing]","17","12.989 seconds","false","5","1","[app/controllers/conversations_controller.rb, app/controllers/homepage_controller.rb, app/controllers/listings_controller.rb, app/controllers/people_controller.rb, app/controllers/sessions_controller.rb]","[app/controllers/application_controller.rb]","0","[]","0"
"2953","[22-03-2011, 25-03-2011]","1","7","[82db9a43f4f418095e3602f26cdbd6d07bb4b690, e94f144c948286f643dff753e1e346ef4a9d682f, a5ba622b1337b9aa0381b8727cc50e0628ee5fea, 3b2375a931de7f5dfe3dc0eed152743432dbd9b9, 2f67bd838ae8bb5df31600d9eaaa5e775f93a01f, d3674b1a94b1912b8c224c1685f075c51f129b1a, 42d4304a03bbae0fcebb2f423c1df39531be3d6b]","1","0","2","1","[app/controllers/people_controller.rb, app/controllers/sessions_controller.rb]","[app/controllers/settings_controller.rb]","0.0","0.0","3.0.0","1","[]","0","6","[app/controllers/people_controller.rb, app/controllers/sessions_controller.rb, app/views/people/_help_texts.haml, app/views/people/new.haml, app/views/sessions/_password_forgotten.haml, app/views/sessions/new.haml]","[fill_in, click_button, hashes, get_test_person_and_session, cookie, update_attributes, each, click_button, click_link, fill_in, page, have_content, has_content?, find_field, tag_name, text, assert_match, within]","","[]","","0","0.729 seconds","false","2","1","[app/controllers/people_controller.rb, app/controllers/sessions_controller.rb]","[app/controllers/settings_controller.rb]","0","[]","0"
"2961","[22-03-2011, 25-03-2011]","1","7","[a5792d30f93deae986145c7aae58bf21eb6f021d, 7a3bed013bde6875e7b88b5469669a5da539c49b, a5ba622b1337b9aa0381b8727cc50e0628ee5fea, 3b2375a931de7f5dfe3dc0eed152743432dbd9b9, 2f67bd838ae8bb5df31600d9eaaa5e775f93a01f, d3674b1a94b1912b8c224c1685f075c51f129b1a, 42d4304a03bbae0fcebb2f423c1df39531be3d6b]","1","0","2","1","[app/controllers/people_controller.rb, app/controllers/sessions_controller.rb]","[app/controllers/settings_controller.rb]","0.0","0.0","3.0.0","1","[]","0","6","[app/controllers/people_controller.rb, app/controllers/sessions_controller.rb, app/views/people/_help_texts.haml, app/views/people/new.haml, app/views/sessions/_password_forgotten.haml, app/views/sessions/new.haml]","[fill_in, click_button, hashes, get_test_person_and_session, cookie, update_attributes, each, click_button, click_link, fill_in, page, have_content, has_content?, find_field, tag_name, text, assert_match, within]","","[]","","0","1.629 seconds","false","2","1","[app/controllers/people_controller.rb, app/controllers/sessions_controller.rb]","[app/controllers/settings_controller.rb]","0","[]","0"
"2979","[21-02-2011]","1","2","[60a76c26803bcc78ef698b03ecba2a1c48aa70ad, d519808bec41af226f2d89ba7e1dc93ddad88b9e]","1","0","5","2","[app/controllers/conversations_controller.rb, app/controllers/homepage_controller.rb, app/controllers/listings_controller.rb, app/controllers/people_controller.rb, app/controllers/sessions_controller.rb]","[app/controllers/application_controller.rb, app/controllers/listings_controller.rb]","0.2","0.5","3.0.0","1","[]","0","54","[app/controllers/conversations_controller.rb, app/controllers/homepage_controller.rb, app/controllers/listings_controller.rb, app/controllers/people_controller.rb, app/controllers/sessions_controller.rb, app/models/conversation.rb, app/views/common/_staples.haml, app/views/conversations/_additional_messages.haml, app/views/conversations/_additional_notifications.haml, app/views/conversations/_inbox_spacer.haml, app/views/conversations/_message.haml, app/views/conversations/_notification.haml, app/views/conversations/_received_conversation.haml, app/views/conversations/_sent_conversation.haml, app/views/conversations/_status.haml, app/views/conversations/_status_link.haml, app/views/conversations/index.haml, app/views/conversations/new.haml, app/views/conversations/notifications.haml, app/views/conversations/show.haml, app/views/homepage/_recent_listing.haml, app/views/homepage/index.haml, app/views/listings/_additional_listings.haml, app/views/listings/_comment.haml, app/views/listings/_comment_form.haml, app/views/listings/_edit_links.haml, app/views/listings/_help_texts.haml, app/views/listings/_left_panel_link.haml, app/views/listings/_listed_listing.haml, app/views/listings/_listed_listings.haml, app/views/listings/_listing_spacer.haml, app/views/listings/_reply_link.haml, app/views/listings/edit.haml, app/views/listings/form/_departure_time.haml, app/views/listings/form/_description.haml, app/views/listings/form/_destination.haml, app/views/listings/form/_form_content.haml, app/views/listings/form/_images.haml, app/views/listings/form/_javascripts.haml, app/views/listings/form/_origin.haml, app/views/listings/form/_send_button.haml, app/views/listings/form/_share_type.haml, app/views/listings/form/_tag_list.haml, app/views/listings/form/_title.haml, app/views/listings/form/_valid_until.haml, app/views/listings/form/_valid_until_radio_buttons.haml, app/views/listings/form/_visibility.haml, app/views/listings/index.haml, app/views/listings/new.haml, app/views/listings/show.haml, app/views/people/_help_texts.haml, app/views/people/new.haml, app/views/sessions/_password_forgotten.haml, app/views/sessions/new.haml]","[click_link, select, page, have_content, has_content?, within, listing, send_button]","","[]","[app/views/conversations/_author.html.haml, app/views/conversations/_listing.html.haml, app/views/homepage/_welcome_text.html.haml, app/views/listings/_author.html.haml, close_person_listing, edit_listing, listing, listing_image, new_listing, new_person_message_feedback, skip_person_message_feedbacks]","11","1.704 seconds","false","4","1","[app/controllers/conversations_controller.rb, app/controllers/homepage_controller.rb, app/controllers/people_controller.rb, app/controllers/sessions_controller.rb]","[app/controllers/application_controller.rb]","1","[app/controllers/listings_controller.rb]","0.38461538461538464"
"2980","[17-02-2011]","2","17","[7fccf7bb5d3776a2bdd0d7f2e87dedb247163b8e, 9ff98d3bb6451befd7655592f3c6fc55a29a3b66, a75a4e384c1dbe5c76b83dedc562af41f98a1d76, 702472762da68525d9a6e036ad4c957ef972f4e2, f1e88bad2957d8d23b85f4a3fb20cc11b4b7fc06, a39ae860107bf0719a58708e326ce02b7bc628fc, 8ab1d86576e421c9c24556a28e2a1bc24547a287, b970eb9e2c339551f6611ad622035e9a2297ed9e, 5a73179cff13387a985fff75e9aa5f729c47c935, 7c2b2f2e88175d9adfd8be100da04251b2f11dcb, 23a4d757be75c8f59117fc158c126d7f3519cfc5, a51c3a731804e6d10c29b98416076812f858f544, 91dd13b60e46d8fed4955458aee0b23743d2477e, d1ccc1dd5623cca3572f7a862405d08a4be2d68e, 63ffe11c760be6716ace592161eaf3c976a8bfec, a4b36b583b0350a09299f669ec41eb82031592fd, 4738f1ed12290aa68ee19803409d043c9d0cdee1]","1","1","2","2","[app/controllers/people_controller.rb, app/controllers/sessions_controller.rb]","[app/controllers/application_controller.rb, app/controllers/sms_controller.rb]","0.0","0.0","3.0.0","1","[]","0","6","[app/controllers/people_controller.rb, app/controllers/sessions_controller.rb, app/views/people/_help_texts.haml, app/views/people/new.haml, app/views/sessions/_password_forgotten.haml, app/views/sessions/new.haml]","[fill_in, click_button, hashes, get_test_person_and_session, cookie, update_attributes, id, each, generate_random_username, fill_in, page, have_content, has_content?, within, click_button, click_link]","","[]","","0","0.274 seconds","false","2","2","[app/controllers/people_controller.rb, app/controllers/sessions_controller.rb]","[app/controllers/application_controller.rb, app/controllers/sms_controller.rb]","0","[]","0"
"2986","[16-12-2010]","1","2","[0f4218b79c77f3fca24f3b24540c2ddf90a7bf39, d5aa362df6161283f8d5a2c65cc772ad9d8e611f]","1","30","5","1","[app/controllers/conversations_controller.rb, app/controllers/homepage_controller.rb, app/controllers/listings_controller.rb, app/controllers/people_controller.rb, app/controllers/sessions_controller.rb]","[app/controllers/application_controller.rb]","0.0","0.0","3.0.0","2","[]","0","54","[app/controllers/conversations_controller.rb, app/controllers/homepage_controller.rb, app/controllers/listings_controller.rb, app/controllers/people_controller.rb, app/controllers/sessions_controller.rb, app/models/conversation.rb, app/views/common/_staples.haml, app/views/conversations/_additional_messages.haml, app/views/conversations/_additional_notifications.haml, app/views/conversations/_inbox_spacer.haml, app/views/conversations/_message.haml, app/views/conversations/_notification.haml, app/views/conversations/_received_conversation.haml, app/views/conversations/_sent_conversation.haml, app/views/conversations/_status.haml, app/views/conversations/_status_link.haml, app/views/conversations/index.haml, app/views/conversations/new.haml, app/views/conversations/notifications.haml, app/views/conversations/show.haml, app/views/homepage/_recent_listing.haml, app/views/homepage/index.haml, app/views/listings/_additional_listings.haml, app/views/listings/_comment.haml, app/views/listings/_comment_form.haml, app/views/listings/_edit_links.haml, app/views/listings/_help_texts.haml, app/views/listings/_left_panel_link.haml, app/views/listings/_listed_listing.haml, app/views/listings/_listed_listings.haml, app/views/listings/_listing_spacer.haml, app/views/listings/_reply_link.haml, app/views/listings/edit.haml, app/views/listings/form/_departure_time.haml, app/views/listings/form/_description.haml, app/views/listings/form/_destination.haml, app/views/listings/form/_form_content.haml, app/views/listings/form/_images.haml, app/views/listings/form/_javascripts.haml, app/views/listings/form/_origin.haml, app/views/listings/form/_send_button.haml, app/views/listings/form/_share_type.haml, app/views/listings/form/_tag_list.haml, app/views/listings/form/_title.haml, app/views/listings/form/_valid_until.haml, app/views/listings/form/_valid_until_radio_buttons.haml, app/views/listings/form/_visibility.haml, app/views/listings/index.haml, app/views/listings/new.haml, app/views/listings/show.haml, app/views/people/_help_texts.haml, app/views/people/new.haml, app/views/sessions/_password_forgotten.haml, app/views/sessions/new.haml]","[fill_in, click_button, hashes, get_test_person_and_session, cookie, update_attributes, each, id, from_now, page, have_content, has_content?, page, have_content, has_content?, have_no_content, has_no_content?, have_no_content, has_no_content?, within, listing, send_button, emails, to_i, capture_email, visit_in_email, click_first_link_in_email, emails, to_i, capture_fields, capture_email, email, be_nil, body, save_and_open_emails, capture_model, model, id, path_to_pickle, send, raise, capture_model, capture_fields, create_model, capture_plural_factory, times, create_models_from_table, find_model!, find_model, capture_plural_factory, find_models_from_table, be_any, find_models, model!, include, capture_predicate, gsub, capture_value, to_f, eql, eval]","","[]","[app/views/conversations/_author.html.haml, app/views/conversations/_listing.html.haml, app/views/homepage/_welcome_text.html.haml, app/views/listings/_author.html.haml, close_person_listing, edit_listing, listing, listing_image, new_listing, new_person_message_feedback, person, person_badges, person_message, skip_person_message_feedbacks]","14","2.521 seconds","false","5","1","[app/controllers/conversations_controller.rb, app/controllers/homepage_controller.rb, app/controllers/listings_controller.rb, app/controllers/people_controller.rb, app/controllers/sessions_controller.rb]","[app/controllers/application_controller.rb]","0","[]","0"
