"Repository","https://github.com/iboard/CBA.git"
"TASK","HASH","RUBY","RAILS","COVERAGE","TESTS"
"4","cdd1b550df35ed80792eb385a6c38b730264b15e","","3.2.2","simplecov","features/site_menus.feature(80)"
"20","fa4362171fe1d741093e4607e9bdf2d5f01896f1","","3.1.0","simplecov","features/comments.feature(46)"
"27","d9440237192c10a7bea68803174d68e78bfd8fcb","","3.1.0","simplecov","features/postings.feature(146)"
"32","bdaf989dfe8677ea0d0ec76aabc4ec1415ce9883","","3.1.0","simplecov","features/comments.feature(46);features/home.feature(58);features/home.feature(73);features/page_comments.feature(76);features/postings.feature(20);features/postings.feature(29);features/postings.feature(39)"
"33","3cc8e285830054b0aafca8a1fbb03d3596214ce4","","3.1.0","simplecov","features/home.feature(46);features/pages.feature(94)"
"40","a80d93f14b0401ae68ea635a1202a90868342300","","3.1.0","simplecov","features/home.feature(40);features/home.feature(46)"
"44","4265ce78463b6e68774543621999e8f1563e2b3f","","3.1.0","simplecov","features/page_comments.feature(14)"
"45","8e16d9db500979ce6af3c0aed5cee5364aa08b0c","","3.1.0","simplecov","features/blogs.feature(68);features/blogs.feature(83);features/comments.feature(64);features/page_comments.feature(14);features/pages.feature(121)"
"48","ef96fc26eed0abcbd600530dc4c301ed6f007725","","3.1.0","simplecov","features/comments.feature(46);features/home.feature(40)"
"72","f24a3df4a34a526a4091e072eab6e4bf62586e0e","","3.1.0","simplecov","features/page_components.feature(58);features/page_components.feature(71)"
"73","4599593cbc713f85ebc396570047430bbc58867d","","3.1.0","simplecov","features/page_components.feature(58)"
"77","ccfbb87473a1b49ef14daf7e2f32045e215ec592","","3.1.0","simplecov","features/page_components.feature(58);features/pages.feature(133);features/pages.feature(157)"
"79","3a3eee575e27c92cb096ff3760634d670a8eb484","","3.1.0.6","simplecov","features/application.feature(55);features/blogs.feature(26);features/blogs.feature(91);features/page_and_posting_search.feature(27);features/page_and_posting_search.feature(36);features/page_and_posting_search.feature(45);features/site_menus.feature(56);features/site_menus.feature(66);features/pages.feature(121);features/pages.feature(134)"
"85","9fa61f9cd4055473d331de0651d5f0c571768570","","3.0.9","simplecov","features/blogs.feature(37);features/blogs.feature(62);features/blogs.feature(66);features/blogs.feature(72);features/page_components.feature(42);features/pages.feature(107)"
"86","3d09ce46e385d79d3ddf342bccb56a23b792af1a","","3.1.0.4","simplecov","features/page_templates.feature(16);features/pages.feature(20);features/pages.feature(38);features/pages.feature(124);features/pages.feature(135);features/application.feature(40);features/blogs.feature(37);features/blogs.feature(62);features/blogs.feature(66);features/blogs.feature(72);features/comments.feature(25);features/comments.feature(40);features/comments.feature(51)"
"94","0c4e17601600ff1bbc02b7682107f349bca64a6e","","3.0.9","simplecov","features/pages.feature(117);features/pages.feature(121)"
"98","d043a5e731f0ef96291183a62ba5c72f0cf65e55","","3.0.7","simplecov","features/site_menus.feature(40);features/site_menus.feature(44);features/site_menus.feature(49);features/site_menus.feature(56);features/site_menus.feature(66);features/site_menus.feature(73);features/site_menus.feature(80)"
"99","68364d20e733b065077a5fd8a7cac0d4333feb7d","","3.0.7","simplecov","features/site_menus.feature(26)"
"104","41ccaddde7e2c08b2160119d8f810c6a10b620da","","3.0.7","simplecov","features/site_menus.feature(27)"
"109","4cd3fd5273c3d69a5c6027672e0a7be991976c7b","","3.0.7","simplecov","features/home.feature(13);features/home.feature(19)"
"112","934ef7c1d07c3ffdd6ed338d7fa367e59c977960","","","simplecov","features/blogs.feature(50);features/blogs.feature(59)"
"114","567af7a6b8ca3a668365cdfa20dd1e88b500a83b","","","simplecov","features/page_components.feature(34);features/page_components.feature(42);features/pages.feature(106)"
"120","ad89a4c3b28efe9f51405765d308872f71660789","","","simplecov","features/blogs.feature(50)"
"121","b0cc7d8b18f08e6f826569064435bcf0fa173e23","","","simplecov","features/blogs.feature(42);features/blogs.feature(50)"
