[path:/features/step_definitions/email_steps.rb, methods:[51, 76, 108, 43, 55, 59, 63, 67, 80, 84, 88, 92, 100, 104, 112, 116, 120, 124, 128, 132, 136, 144, 148, 152, 156, 160, 164, 170, 178, 182, 192, 196, 200, 204]]
[path:/features/step_definitions/general_steps.rb, methods:[43]]
[path:/features/step_definitions/item_view_steps.rb, methods:[0, 30, 8, 21, 46]]
[path:/features/step_definitions/search_steps.rb, methods:[36]]
[path:/features/step_definitions/web_steps.rb, methods:[4, 8]]
