"Repository","https://github.com/dchbx/enroll.git"
"Tasks with empty IReal","0"
"Tasks with no-empty IReal","22"
"Tasks with relevant AST error","0"
"Tasks with AST error of Gherkin files","0"
"Tasks with AST error of StepDef files","0"
"Tasks with AST error of production files","0"
"Tasks with AST error of unit test files","0"
"Tasks with step match error","0"
"Tasks without required gems","0"
"Tasks with changed stepdef","22"
"Tasks with changed Gherkin","22"
"Tasks with implemented Gherkin scenarios","22"
"All invalid tasks","0"
"All valid tasks (Gherkin scenario, no empty IReal, no error)","22"
"Valid tasks, but empty ITest","0"
"Valid tasks, no empty ITest, but zero precision-recall","18"
"Valid tasks, no empty ITest, no zero precision-recall","4"
"Project","Task","Date","#Days","#Commits","Commit_Message","#Devs","#Gherkin_Tests","#Impl_Gherkin_Tests","#StepDef","#Impl_StepDef","Methods_Unknown_Type","#Step_Call","Step_Match_Errors","#Step_Match_Error","AST_Errors","#AST_Errors","Gherkin_AST_Errors","#Gherkin_AST_Errors","Steps_AST_Errors","#Steps_AST_Errors","Renamed_Files","Deleted_Files","NotFound_Views","#Views","#TestI","#TaskI","TestI","TaskI","Precision","Recall","Hashes","Timestamp","Rails","Gems","#Visit_Call","Lost_visit_call","#Views_ITest","#Code_View_Analysis","Code_View_Analysis","Has_Merge","F2","#Multiple_Step_Matches","Multiple_Step_Matches","#Generic_Step_Keyword","Generic_Step_Keyword"
"enroll","5376","[09-08-2015]","1","3","[Fixes #2023  Added 'Edit Details' link to profile page + cucumber , Fixes #1877 - Fix broken build. , Refs #1877 - Help with plan shopping page. ]","2","1","1","2","2","[goto, a, wait_until_present, click, element, present?, visible?, be_truthy, text_field, rand, set, input, a, wait_until_present, sleep, element, wait_while_present, text_field, label, radio, fire_event, divs, li, button, to_i, li, exist, not_to, form, execute_script, click, nil?, screenshot, set, divs, button, radio, set?, be_falsey, fire_event, checkbox, div, label, text, refresh, h3, text, be_truthy, div, checkboxes, present?, select, eq, ul, execute_script]","0","","0","","0","","0","","0","","[]","","0","10","12","[app/models/broker_agency_profile.rb, app/models/broker_role.rb, app/models/carrier_profile.rb, app/models/email.rb, app/models/employee_role.rb, app/models/employer_profile.rb, app/models/forms/broker_agency_profile.rb, app/models/forms/employer_profile.rb, app/models/has_family_members.rb, app/models/validations/email.rb]","[app/controllers/consumer/employee_roles_controller.rb, app/controllers/employers/employer_profiles_controller.rb, app/helpers/application_helper.rb, app/mailers/user_mailer.rb, app/models/message.rb, app/views/consumer/employee_roles/_new_message_form.html.erb, app/views/consumer/employee_roles/new_messsage_to_broker.html.erb, app/views/employers/employer_profiles/my_account/_home_tab.html.erb, app/views/employers/employer_profiles/my_account/_profile_tab.html.erb, app/views/insured/plan_shoppings/show.html.erb, app/views/layouts/_footer.html.erb, app/views/user_mailer/message_to_broker.html.erb]","0.0","0.0","[35044eb5a7d89579d99d0263360a0ffde654574b, 00008f7ca5da224e084716dd3281d901270418ed, 057c4548932831699e776db5d1781eb8d1371ae7]","1.422 seconds","4.2.0","[cucumber-rails, rspec-rails, factory_girl]","0","[]","0","0","[]","false","0.0","2","[path:features/employers/create_employer.feature, text:I click on the Employees tab], [path:features/employers/create_employer.feature, text:I click on the plans tab]","0",""
"enroll","5391","[06-08-2015]","1","1","[Fixes #1938 Added YOUR ENROLLMENT HISTORY section ]","1","1","1","1","1","[goto, a, wait_until_present, text_field, rand, set, input, a, wait_until_present, visible?, be_truthy, sleep, element, wait_while_present, sleep, element, wait_while_present, text_field, label, radio, fire_event, be_falsey, dd, button, span, as, button, form, div, to_i, li, exist, not_to, click, li, form, execute_script, click, visible?, be_truthy, divs, select_list, select, lis, nil?, screenshot]","0","","0","","0","","0","","0","","[]","","0","10","2","[app/models/broker_agency_profile.rb, app/models/broker_role.rb, app/models/carrier_profile.rb, app/models/email.rb, app/models/employee_role.rb, app/models/employer_profile.rb, app/models/forms/broker_agency_profile.rb, app/models/forms/employer_profile.rb, app/models/has_family_members.rb, app/models/validations/email.rb]","[app/views/consumer_profiles/_employers_and_plans.html.erb, app/views/consumer_profiles/_enrollment_history.html.erb]","0.0","0.0","[85cbf7b9b424719b39a8062317e3e551c3fab3bf]","0.860 seconds","4.2.0","[cucumber-rails, rspec-rails, factory_girl]","0","[]","0","0","[]","false","0.0","0","","0",""
"enroll","5444","[30-07-2015]","1","8","[""Revert ""Fixes #1480	Use Case	Create Employer Profile edit page""""""  This reverts commit 0691ccda130f47f7e3a03847145125247a27da7d. , ""Revert ""FIXES #1480's seed data validation issue""""""  This reverts commit cd7ae097f7313e6c660e4ccb6a07c4837325d64f. , Revert ""Revert ""FIXES #1480's seed data validation issue""""  This reverts commit 35093b862d293aea139558122b736aa1191bd9fd. , Revert ""FIXES #1480's seed data validation issue""  This reverts commit 9c9d0b1d50b9081f72b0d0f057277311e5c2b928. , FIXES #1480's seed data validation issue , Revert ""Revert ""Fixes 1480	Use Case	Create Employer Profile edit page""""  This reverts commit 945bfd4a9ecd4dcff5d24408ff97023f04c7e1a3. , Refs #1130 Cucumber coverage of Broker override , Refs #1793 language options sorted in Alphabetical order ]","3","1","1","19","19","[goto, element, wait_until_present, click, radio, fire_event, element, wait_until_present, visible?, be_truthy, text_field, set, div, li, checkbox, enter_office_location, open_email, current_email, eq, have_subject, current_email, links_in_email, sub!, a, input, h3, h4, button, a, div, p, fill_user_registration_form, enter_employer_profile, button, goto, click, text_field, set, lis, radio, fire_event, checkbox, divs, lis, li, dd, td, nil?, screenshot, execute_script, present?, rand, sleep, wait_while_present, label, nil?, screenshot]","0","","0","","0","","0","","0","","[]","","0","18","5","[app/models/broker_agency_profile.rb, app/models/broker_role.rb, app/models/carrier_profile.rb, app/models/consumer_role.rb, app/models/email.rb, app/models/employee_role.rb, app/models/employer_profile.rb, app/models/family_member.rb, app/models/forms/broker_agency_profile.rb, app/models/forms/employer_profile.rb, app/models/has_family_members.rb, app/models/hbx_enrollment_exemption.rb, app/models/household.rb, app/models/irs_group.rb, app/models/office_location.rb, app/models/person_relationship.rb, app/models/plan_year.rb, app/models/validations/email.rb]","[app/controllers/employers/employer_profiles_controller.rb, app/models/organization.rb, app/views/employers/employer_profiles/_employer_form.html.erb, app/views/employers/employer_profiles/my_account/_home_tab.html.erb, app/views/shared/_broker_agency_profile_fields.html.erb]","0.0","0.0","[b9f2a348befef84ff9f69f3e79a5133abc30aebb, 92c38a52201237d98d74218fb7bbcd40b77a464a, cd7ae097f7313e6c660e4ccb6a07c4837325d64f, 35093b862d293aea139558122b736aa1191bd9fd, 9c9d0b1d50b9081f72b0d0f057277311e5c2b928, 0691ccda130f47f7e3a03847145125247a27da7d, 5daf4b204e1138032106ff55e132925842c23229, 485e371ca1e216335864227c8c937f6941c2d235]","1.213 seconds","4.2.0","[cucumber-rails, rspec-rails, factory_girl]","0","[]","0","0","[]","false","0.0","1","[path:features/brokers/create_broker_agency_profiles.feature, text:I click on the Employees tab]","0",""
"enroll","5453","[28-07-2015]","1","3","[changed the id of html element , Refs #1362 #1383 Added cucumber specs for broker registration, approval, selection process , Refs #1362 #1383 Added email_spec, action_mailer_cache_delivery gems to test emails in cucumber ]","1","1","1","58","58","[goto, element, wait_until_present, click, radio, fire_event, element, wait_until_present, visible?, be_truthy, text_field, set, div, li, checkbox, enter_office_location, a, open_email, current_email, eq, have_subject, current_email, links_in_email, sub!, input, h3, h4, button, a, div, p, execute_script, sleep, wait_while_present, click, execute_script, rand, present?, text_field, set, divs, li, button, nil?, screenshot, reset_mailer, unread_emails_for, parse_email_count, mailbox_for, subject, select, open_email, default_part_body, include, be_delivered_from, have_header, be_multipart, html_part, body, text_part, current_email_attachments, to_i, content_type, each, visit_in_email, click_first_link_in_email]","0","","0","","0","","0","","0","","[]","","0","10","1","[app/models/address.rb, app/models/broker_agency_profile.rb, app/models/broker_role.rb, app/models/carrier_profile.rb, app/models/employee_role.rb, app/models/employer_profile.rb, app/models/forms/broker_agency_profile.rb, app/models/forms/employer_profile.rb, app/models/phone.rb, app/models/tax_household.rb]","[app/views/employers/broker_agency/_index.html.erb]","0.0","0.0","[aecb7306bdd112e61c2253c5ed3b4ae512789d40, 3f9d6c0abd5833070baa43337d8aa534b97aac9f, 34dabf4b8218b083b6a3656a41601c009b324cd2]","0.833 seconds","4.2.0","[cucumber-rails, rspec-rails, factory_girl]","0","[]","0","0","[]","false","0.0","0","","0",""
"enroll","5483","[23-07-2015]","1","2","[Refs #1816, #1817 - added cucumber for plan filter on plan shopping page , Fixes #1825 - move waivers from plan details to signup progress, add misc cucumber improvements ]","2","2","2","3","3","[goto, a, wait_until_present, click, text_field, rand, set, input, element, present?, visible?, be_truthy, text_field, wait_until_present, set, click, divs, li, button, refresh, a, radio, set?, be_falsey, fire_event, checkbox, div, label, text, refresh, h3, text, be_truthy, div, li, h4, sleep, divs, checkboxes, button, element, present?, execute_script, select, eq, ul, nil?, screenshot, wait_while_present, sleep, wait_while_present, label, radio, fire_event, dd, span, as, form, to_i, exist, not_to, form, visible?, select_list, select]","0","","0","","0","","0","","0","","[]","","0","33","2","[app/controllers/consumer_profiles_controller.rb, app/models/broker_agency_profile.rb, app/models/broker_role.rb, app/models/carrier_profile.rb, app/models/email.rb, app/models/employee_role.rb, app/models/employer_profile.rb, app/models/forms/broker_agency_profile.rb, app/models/forms/employer_profile.rb, app/models/has_family_members.rb, app/models/products/qhp_benefit.rb, app/models/validations/email.rb, app/views/consumer_profiles/_employers_and_plans.html.erb, app/views/consumer_profiles/_home.html.erb, app/views/consumer_profiles/_home_js.html.erb, app/views/consumer_profiles/_home_menu.html.erb, app/views/consumer_profiles/_home_modal3.html.erb, app/views/consumer_profiles/_home_profile_pane.html.erb, app/views/consumer_profiles/_menu.html.erb, app/views/consumer_profiles/_plan.html.erb, app/views/consumer_profiles/_qles.html.erb, app/views/consumer_profiles/_shop_for_plans_widget.html.erb, app/views/consumer_profiles/home.html.erb, app/views/consumer_profiles/home_old.html.erb, app/views/people/landing_pages/_coverage_plans.html.erb, app/views/people/landing_pages/_employer.html.erb, app/views/people/landing_pages/_personal.html.erb, app/views/shared/_address_fields.html.erb, app/views/shared/_email_fields.html.erb, app/views/shared/_error_warning.html.erb, app/views/shared/_home_address_fields.html.erb, app/views/shared/_phone_fields.html.erb, app/views/shared/_waive.html.erb]","[app/views/insured/plan_shoppings/_plan_details.html.erb, app/views/shared/_signup_progress.html.haml]","0.0","0.0","[b8eadae3ceeb5905d226d940b9bd4459a37aa291, 58a4b2f67720a3c5e8671dd51f093190aa3c0d4b]","2.351 seconds","4.2.0","[cucumber-rails, rspec-rails, factory_girl]","1","[]","21","22","[app/controllers/consumer_profiles_controller.rb, app/views/consumer_profiles/_employers_and_plans.html.erb, app/views/consumer_profiles/_home.html.erb, app/views/consumer_profiles/_home_js.html.erb, app/views/consumer_profiles/_home_menu.html.erb, app/views/consumer_profiles/_home_modal3.html.erb, app/views/consumer_profiles/_home_profile_pane.html.erb, app/views/consumer_profiles/_menu.html.erb, app/views/consumer_profiles/_plan.html.erb, app/views/consumer_profiles/_qles.html.erb, app/views/consumer_profiles/_shop_for_plans_widget.html.erb, app/views/consumer_profiles/home.html.erb, app/views/consumer_profiles/home_old.html.erb, app/views/people/landing_pages/_coverage_plans.html.erb, app/views/people/landing_pages/_employer.html.erb, app/views/people/landing_pages/_personal.html.erb, app/views/shared/_address_fields.html.erb, app/views/shared/_email_fields.html.erb, app/views/shared/_error_warning.html.erb, app/views/shared/_home_address_fields.html.erb, app/views/shared/_phone_fields.html.erb, app/views/shared/_waive.html.erb]","false","0.0","0","","0",""
"enroll","5548","[14-07-2015, 15-07-2015]","2","5","[fix cucumber errors from merge , commented out ssn and dob edit validation from cucumber , fixed several method missing and method name change , fix waiver reasons , remove user based validations from census employee ]","2","1","1","5","5","[goto, a, wait_until_present, click, text_field, rand, set, input, element, present?, visible?, be_truthy, text_field, wait_until_present, set, click, divs, li, button, refresh, a, radio, set?, be_falsey, fire_event, checkbox, div, label, text, refresh, h3, text, be_truthy, div, li, h4, sleep, divs, checkboxes, button, element, present?, execute_script, select, eq, ul, nil?, screenshot, wait_while_present, label, radio, fire_event, to_i, exist, not_to, form]","0","","0","","0","","0","","0","","[]","","0","30","9","[app/controllers/consumer_profiles_controller.rb, app/models/broker_agency_profile.rb, app/models/broker_role.rb, app/models/carrier_profile.rb, app/models/email.rb, app/models/employee_role.rb, app/models/employer_profile.rb, app/models/forms/broker_agency_profile.rb, app/models/forms/employer_profile.rb, app/models/has_family_members.rb, app/models/products/qhp_benefit.rb, app/models/validations/email.rb, app/views/consumer_profiles/_employers_and_plans.html.erb, app/views/consumer_profiles/_home.html.erb, app/views/consumer_profiles/_home_js.html.erb, app/views/consumer_profiles/_home_menu.html.erb, app/views/consumer_profiles/_home_modal3.html.erb, app/views/consumer_profiles/_home_profile_pane.html.erb, app/views/consumer_profiles/_menu.html.erb, app/views/consumer_profiles/_qles.html.erb, app/views/consumer_profiles/home.html.erb, app/views/consumer_profiles/home_old.html.erb, app/views/people/landing_pages/_coverage_plans.html.erb, app/views/people/landing_pages/_employer.html.erb, app/views/people/landing_pages/_personal.html.erb, app/views/shared/_address_fields.html.erb, app/views/shared/_email_fields.html.erb, app/views/shared/_error_warning.html.erb, app/views/shared/_phone_fields.html.erb, app/views/shared/_waive.html.erb]","[app/controllers/employers/plan_years_controller.rb, app/controllers/insured/plan_shoppings_controller.rb, app/models/census_employee.rb, app/models/employer_profile.rb, app/models/employer_profile_account.rb, app/models/family.rb, app/models/hbx_enrollment.rb, app/models/household.rb, app/models/plan_year.rb]","0.0333333333","0.1111111111","[83c1b5b07f435c92ce9fab9da2b7fd7f17bd0d7a, d1f356cab75cf37f71c415d79cd00ff8fbf4cdd1, 5768ead4c261258d6d37caff47176b46be349110, 34c009c372d30ddfc3c28bfa398c732fe6fc35c9, 927fa855eac7cc3da3a67e9f002fbfb6e86721ee]","1.599 seconds","4.2.0","[cucumber-rails, rspec-rails, factory_girl]","1","[]","18","19","[app/controllers/consumer_profiles_controller.rb, app/views/consumer_profiles/_employers_and_plans.html.erb, app/views/consumer_profiles/_home.html.erb, app/views/consumer_profiles/_home_js.html.erb, app/views/consumer_profiles/_home_menu.html.erb, app/views/consumer_profiles/_home_modal3.html.erb, app/views/consumer_profiles/_home_profile_pane.html.erb, app/views/consumer_profiles/_menu.html.erb, app/views/consumer_profiles/_qles.html.erb, app/views/consumer_profiles/home.html.erb, app/views/consumer_profiles/home_old.html.erb, app/views/people/landing_pages/_coverage_plans.html.erb, app/views/people/landing_pages/_employer.html.erb, app/views/people/landing_pages/_personal.html.erb, app/views/shared/_address_fields.html.erb, app/views/shared/_email_fields.html.erb, app/views/shared/_error_warning.html.erb, app/views/shared/_phone_fields.html.erb, app/views/shared/_waive.html.erb]","false","0.07575757571900826","0","","0",""
"enroll","5551","[15-07-2015]","1","1","[Fixes #1688 - Create Confirmation Message when plan selection is purchased ]","1","2","2","2","2","[goto, a, wait_until_present, click, text_field, rand, set, input, element, present?, visible?, be_truthy, text_field, wait_until_present, set, click, divs, li, button, refresh, a, radio, set?, be_falsey, fire_event, checkbox, div, label, text, refresh, link_employee_role!, button, element, visible?, execute_script, delink_employee_role!, h3, text, be_truthy, div, li, h4, sleep, divs, checkboxes, present?, select, eq, ul, nil?, screenshot, wait_while_present, sleep, wait_while_present, label, radio, fire_event, dd, span, as, form, to_i, exist, not_to, form, select_list, select]","0","","0","","0","","0","","0","","[app/views/insured/plan_shoppings/_purchase_confirmation.html.erb]","","0","35","5","[app/controllers/consumer_profiles_controller.rb, app/models/benefit_group.rb, app/models/broker_agency_profile.rb, app/models/broker_role.rb, app/models/carrier_profile.rb, app/models/census_employee.rb, app/models/email.rb, app/models/employee_role.rb, app/models/employer_profile.rb, app/models/forms/broker_agency_profile.rb, app/models/forms/employee_role.rb, app/models/forms/employer_profile.rb, app/models/has_family_members.rb, app/models/hbx_enrollment.rb, app/models/organization.rb, app/models/products/qhp_benefit.rb, app/models/validations/email.rb, app/views/consumer_profiles/_employers_and_plans.html.erb, app/views/consumer_profiles/_home.html.erb, app/views/consumer_profiles/_home_js.html.erb, app/views/consumer_profiles/_home_menu.html.erb, app/views/consumer_profiles/_home_modal3.html.erb, app/views/consumer_profiles/_home_profile_pane.html.erb, app/views/consumer_profiles/_menu.html.erb, app/views/consumer_profiles/_qles.html.erb, app/views/consumer_profiles/home.html.erb, app/views/consumer_profiles/home_old.html.erb, app/views/people/landing_pages/_coverage_plans.html.erb, app/views/people/landing_pages/_employer.html.erb, app/views/people/landing_pages/_personal.html.erb, app/views/shared/_address_fields.html.erb, app/views/shared/_email_fields.html.erb, app/views/shared/_error_warning.html.erb, app/views/shared/_phone_fields.html.erb, app/views/shared/_waive.html.erb]","[app/controllers/insured/plan_shoppings_controller.rb, app/views/insured/plan_shoppings/_coverage_information.html.erb, app/views/insured/plan_shoppings/receipt.html.erb, app/views/insured/plan_shoppings/thankyou.html.erb, app/views/shared/_signup_progress.html.haml]","0.0","0.0","[1410c36d179d689c0384897a678274e17482e464]","2.069 seconds","4.2.0","[cucumber-rails, rspec-rails, factory_girl]","1","[]","18","19","[app/controllers/consumer_profiles_controller.rb, app/views/consumer_profiles/_employers_and_plans.html.erb, app/views/consumer_profiles/_home.html.erb, app/views/consumer_profiles/_home_js.html.erb, app/views/consumer_profiles/_home_menu.html.erb, app/views/consumer_profiles/_home_modal3.html.erb, app/views/consumer_profiles/_home_profile_pane.html.erb, app/views/consumer_profiles/_menu.html.erb, app/views/consumer_profiles/_qles.html.erb, app/views/consumer_profiles/home.html.erb, app/views/consumer_profiles/home_old.html.erb, app/views/people/landing_pages/_coverage_plans.html.erb, app/views/people/landing_pages/_employer.html.erb, app/views/people/landing_pages/_personal.html.erb, app/views/shared/_address_fields.html.erb, app/views/shared/_email_fields.html.erb, app/views/shared/_error_warning.html.erb, app/views/shared/_phone_fields.html.erb, app/views/shared/_waive.html.erb]","false","0.0","0","","0",""
"enroll","5558","[14-07-2015]","1","5","[Refs 1722 portal title depends on user spec , Refs #1502 updated plan year specs , spec fix , Refs #1502 added cucumber step to check publish success message , Refs #1502 Fix added for plan year publishing ]","2","1","1","2","2","[goto, a, wait_until_present, text_field, rand, set, input, a, wait_until_present, visible?, be_truthy, sleep, element, wait_while_present, sleep, element, wait_while_present, text_field, label, radio, fire_event, be_falsey, dd, button, span, as, button, form, div, to_i, li, exist, not_to, click, li, form, execute_script, divs, select_list, select, nil?, screenshot]","0","","0","","0","","0","","0","","[]","","0","10","2","[app/models/broker_agency_profile.rb, app/models/broker_role.rb, app/models/carrier_profile.rb, app/models/email.rb, app/models/employee_role.rb, app/models/employer_profile.rb, app/models/forms/broker_agency_profile.rb, app/models/forms/employer_profile.rb, app/models/has_family_members.rb, app/models/validations/email.rb]","[app/controllers/employers/plan_years_controller.rb, app/helpers/application_helper.rb]","0.0","0.0","[b18261b05dab0aaa9199bd24fe39256fcba8cddb, 7e21056b7d0990fc475c8c080df29536f3edc80b, 487d34a7555217b04154b625018d7746a357b478, 020233021179774599c19d232cb6a48ddd03b177, 865abd4beef249f94c2e69b7c8167ff61487b948]","0.769 seconds","4.2.0","[cucumber-rails, rspec-rails, factory_girl]","0","[]","0","0","[]","false","0.0","0","","0",""
"enroll","5591","[09-07-2015]","1","3","[Closes #1688 - Purchase confirmation pop up, update cucumber specs, update view specs. , Refs #1524 - fixes reported design issue create employee and employer , fixed cucumber ]","3","2","2","4","4","[goto, a, wait_until_present, click, text_field, rand, set, input, element, present?, visible?, be_truthy, text_field, wait_until_present, set, click, divs, li, button, refresh, a, radio, set?, be_falsey, fire_event, checkbox, div, label, text, refresh, link_employee_role!, button, element, visible?, execute_script, delink_employee_role!, h3, text, be_truthy, div, li, h4, sleep, divs, checkboxes, present?, select, eq, wait_while_present, nil?, screenshot, label, radio, fire_event, dd, span, as, form, to_i, exist, not_to, form, select_list, select]","0","","0","","0","","0","","0","","[]","","0","34","19","[app/controllers/consumer_profiles_controller.rb, app/models/benefit_group.rb, app/models/broker_agency_profile.rb, app/models/broker_role.rb, app/models/carrier_profile.rb, app/models/census_employee.rb, app/models/email.rb, app/models/employee_role.rb, app/models/employer_profile.rb, app/models/forms/broker_agency_profile.rb, app/models/forms/employee_role.rb, app/models/forms/employer_profile.rb, app/models/has_family_members.rb, app/models/hbx_enrollment.rb, app/models/organization.rb, app/models/products/qhp_benefit.rb, app/models/validations/email.rb, app/views/consumer_profiles/_employers_and_plans.html.erb, app/views/consumer_profiles/_home.html.erb, app/views/consumer_profiles/_home_js.html.erb, app/views/consumer_profiles/_home_menu.html.erb, app/views/consumer_profiles/_home_modal3.html.erb, app/views/consumer_profiles/_home_profile_pane.html.erb, app/views/consumer_profiles/_menu.html.erb, app/views/consumer_profiles/_qles.html.erb, app/views/consumer_profiles/home.html.erb, app/views/consumer_profiles/home_old.html.erb, app/views/people/landing_pages/_coverage_plans.html.erb, app/views/people/landing_pages/_employer.html.erb, app/views/people/landing_pages/_personal.html.erb, app/views/shared/_address_fields.html.erb, app/views/shared/_email_fields.html.erb, app/views/shared/_error_warning.html.erb, app/views/shared/_phone_fields.html.erb]","[app/views/consumer/employee_roles/_no_match.html.haml, app/views/consumer/employee_roles/edit.html.haml, app/views/consumer/employee_roles/no_match.html.haml, app/views/consumer/employee_roles/search.html.haml, app/views/consumer_profiles/_qles.html.erb, app/views/employers/employer_profiles/_form.html.erb, app/views/employers/employer_profiles/_no_match.html.haml, app/views/employers/people/_no_match.html.haml, app/views/insured/plan_shoppings/_purchase_confirmation.html.erb, app/views/insured/plan_shoppings/thankyou.html.erb, app/views/people/_dependent.html.erb, app/views/people/_no_results.html.erb, app/views/people/landing_pages/_add_family_member_form.html.erb, app/views/people/landing_pages/_home_tab.html.erb, app/views/shared/_census_dependent_fields.html.erb, app/views/shared/_office_location_fields.html.erb, app/views/shared/_office_locations.html.erb, app/views/shared/_signup_progress.html.haml, app/views/shared/person/_personal_information.html.erb]","0.0294117647","0.0526315789","[c19436f5e2f7f4907892c4425c27b4894a53fa8e, f9187ac111d0db044391a6c66957998c7d857fc5, c7186a080b90072c9e0959119709c6ee50fef7fe]","1.812 seconds","4.2.0","[cucumber-rails, rspec-rails, factory_girl]","1","[]","17","18","[app/controllers/consumer_profiles_controller.rb, app/views/consumer_profiles/_employers_and_plans.html.erb, app/views/consumer_profiles/_home.html.erb, app/views/consumer_profiles/_home_js.html.erb, app/views/consumer_profiles/_home_menu.html.erb, app/views/consumer_profiles/_home_modal3.html.erb, app/views/consumer_profiles/_home_profile_pane.html.erb, app/views/consumer_profiles/_menu.html.erb, app/views/consumer_profiles/_qles.html.erb, app/views/consumer_profiles/home.html.erb, app/views/consumer_profiles/home_old.html.erb, app/views/people/landing_pages/_coverage_plans.html.erb, app/views/people/landing_pages/_employer.html.erb, app/views/people/landing_pages/_personal.html.erb, app/views/shared/_address_fields.html.erb, app/views/shared/_email_fields.html.erb, app/views/shared/_error_warning.html.erb, app/views/shared/_phone_fields.html.erb]","false","0.04545454542347108","0","","0",""
"enroll","5596","[09-07-2015]","1","2","[Refs #1362 - Broker registration workflow - New Broker Registration cucumber specs. , Fixes #1491 - Employer my account page issues. ]","1","1","1","7","7","[goto, element, wait_until_present, click, radio, fire_event, text_field, set, div, li, checkboxes, element, wait_until_present, visible?, be_truthy, a, execute_script]","0","","0","","0","","0","","0","","[]","","0","5","3","[app/models/broker_agency_profile.rb, app/models/broker_role.rb, app/models/carrier_profile.rb, app/models/employee_role.rb, app/models/employer_profile.rb]","[app/views/employers/employer_profiles/my_account/_home_tab.html.erb, app/views/exchanges/broker_applicants/_edit.html.erb, app/views/exchanges/broker_applicants/_index.html.erb]","0.0","0.0","[5000df8fd26e8299191d008ddb6c24c103e24929, 55b6842d02c7fa8216aaaaeaa5ff6dcccaf034d7]","0.347 seconds","4.2.0","[cucumber-rails, rspec-rails, factory_girl]","0","[]","0","0","[]","false","0.0","0","","0",""
"enroll","5615","[07-07-2015]","1","2","[cucumber specs for broker registration , Refs #1428 - subscriber must always be selected ]","1","1","1","6","6","[goto, a, wait_until_present, click, radio, fire_event, element, text_field, set, div, li, checkboxes, binding, pry, element, wait_until_present, visible?, be_truthy]","0","","0","","0","","0","","0","","[]","","0","5","9","[app/models/broker_agency_profile.rb, app/models/broker_role.rb, app/models/carrier_profile.rb, app/models/employee_role.rb, app/models/employer_profile.rb]","[app/controllers/group_selection_controller.rb, app/models/hbx_enrollment_member.rb, app/views/broker_agencies/broker_roles/_new_broker_agency_form.html.erb, app/views/broker_agencies/broker_roles/_person_info_fields.html.erb, app/views/group_selection/new.html.erb, app/views/shared/_broker_agency_profile_fields.html.erb, app/views/shared/_office_location_fields.html.erb, app/views/shared/_organization_staff_search.html.erb, app/views/shared/organizations/_entity_name_and_type_fields.html.erb]","0.0","0.0","[c668da4892ede0731383e535ebecd8109726b832, e2d9e7bbcf9000306e3f2c7b4d50944eb5f50da2]","0.271 seconds","4.2.0","[cucumber-rails, rspec-rails, factory_girl]","0","[]","0","0","[]","false","0.0","0","","0",""
"enroll","5715","[25-06-2015, 26-06-2015]","2","2","[ref #1265, ref #1269, ref #1112, update and fix enrollment, shopping, and plan publishing guards, fix cucumber feature flows, remove unused plan year publishing propogation , ref #1265, ref #1269, ref #1112, add employee enrollment / shopping guards, use correct benefit groups when shopping, add publishable guards to plan year ]","1","2","2","19","19","[goto, a, wait_until_present, click, text_field, rand, set, input, element, present?, visible?, be_truthy, text_field, wait_until_present, set, click, divs, li, button, refresh, a, radio, set?, be_falsey, checkbox, text, refresh, link_employee_role!, button, element, visible?, execute_script, delink_employee_role!, h3, text, be_truthy, div, li, h4, sleep, divs, checkboxes, present?, select, eq, each, wait_while_present, nil?, screenshot, label, dd, span, as, form, to_i, exist, not_to, radio, fire_event, form]","0","","0","","0","","0","","0","","[]","","0","15","10","[app/models/benefit_group.rb, app/models/broker_agency_profile.rb, app/models/broker_role.rb, app/models/carrier_profile.rb, app/models/census_employee.rb, app/models/email.rb, app/models/employee_role.rb, app/models/employer_profile.rb, app/models/forms/broker_agency_profile.rb, app/models/forms/employee_role.rb, app/models/forms/employer_profile.rb, app/models/has_family_members.rb, app/models/hbx_enrollment.rb, app/models/organization.rb, app/models/validations/email.rb]","[app/controllers/consumer/employee_roles_controller.rb, app/controllers/employers/census_employees_controller.rb, app/controllers/employers/plan_years_controller.rb, app/models/benefit_group.rb, app/models/benefit_group_assignment.rb, app/models/census_employee.rb, app/models/employee_role.rb, app/models/employer_profile.rb, app/models/forms/employee_candidate.rb, app/models/plan_year.rb]","0.2666666667","0.4","[277d0ef6ddd18680911feea936e9afabec341a6b, 0ba419f50b5b92893e5be01980bb7b73d0cf0de4]","1.319 seconds","4.2.0","[cucumber-rails, rspec-rails, factory_girl]","0","[]","0","0","[]","false","0.3636363636487603","0","","0",""
"enroll","5835","[18-06-2015, 19-06-2015]","2","5","[#1163 cucumber for cancan setting employer will not able to modify linked employee's ssn and dob , messages model  needs to folders , HbxPortal email requires a model , Add state machine to support broker intake and certification , added broker history tab, added search by broker name ]","4","1","1","4","4","[goto, a, wait_until_present, click, text_field, rand, set, input, element, present?, visible?, be_truthy, text_field, wait_until_present, premium_tables, ago, beginning_of_year, to_date, end_of_year, build, set, click, divs, li, button, refresh, a, radio, set?, be_falsey, checkbox, text, refresh, link_employee_role!, button, element, visible?, execute_script, delink_employee_role!, h3, execute_script, fire_event, td, where, update, h3, text, be_truthy, div, li, h4, sleep, divs, checkboxes, plan_years, present?, select, eq, each, nil?, screenshot, label, radio, fire_event, wait_while_present, form]","0","","0","","0","","0","","0","","[]","","0","17","12","[app/models/benefit_group.rb, app/models/broker_agency_profile.rb, app/models/broker_role.rb, app/models/carrier_profile.rb, app/models/census_employee.rb, app/models/email.rb, app/models/employee_role.rb, app/models/employer_profile.rb, app/models/forms/broker_agency_profile.rb, app/models/forms/broker_agency_profile_form.rb, app/models/forms/employee_dependent.rb, app/models/forms/employee_role.rb, app/models/forms/employer_profile.rb, app/models/hbx_enrollment.rb, app/models/organization.rb, app/models/validations/email.rb, lib/object_builders/broker_role_builder.rb]","[app/controllers/exchanges/hbx_profiles_controller.rb, app/models/broker_role.rb, app/models/hbx_portal.rb, app/models/message.rb, app/models/workflow_state_transition.rb, app/views/employers/broker_agency/_index.html.erb, app/views/employers/broker_agency/_show.html.erb, app/views/employers/employer_profiles/my_account/_broker_agency.html.erb, app/views/exchanges/hbx_profiles/shared/_primary_nav.html.erb, app/views/exchanges/hbx_profiles/show.html.erb, app/views/shared/_search.html.erb, app/views/shared/inboxes/_messages.html.erb]","0.0588235294","0.0833333333","[674da7cb56b3cb9b45ba8948c8c14f8763ddc750, 0955450df6fc96b7558f04db8650c68808409c37, 5de24963428b7ad0949a603f23cf778f3992aace, 977481fa14f8b9a191dd91e85974875c56084f39, 642d424ea61641f30946a0775d72950df8a099fb]","1.049 seconds","4.2.0","[cucumber-rails, rspec-rails, factory_girl]","0","[]","0","0","[]","false","0.07692307689633136","0","","0",""
"enroll","5971","[13-06-2015]","1","2","[added basic terminate functional cucumber test back , Trying to fix page layouts for form. ]","2","1","1","1","1","[goto, a, wait_until_present, click, text_field, rand, set, input, element, present?, visible?, be_truthy, a, wait_until_present, click, text_field, premium_tables, ago, beginning_of_year, to_date, end_of_year, build, set, button, fire_event, div, li, text, refresh, radio, set?, be_falsey, checkbox, divs, refresh, goto, h3, h3, sleep, h4, text, be_truthy, div, li, divs, checkboxes, button, plan_years, update, present?, select, eq, p, each, nil?, screenshot, save, visible?, label, dd, wait_while_present, form, fire_event]","0","","0","","0","","0","","0","","[]","","0","14","1","[app/models/benefit_group.rb, app/models/broker_agency_profile.rb, app/models/broker_role.rb, app/models/carrier_profile.rb, app/models/census_employee.rb, app/models/email.rb, app/models/employee_role.rb, app/models/employer_profile.rb, app/models/forms/employee_dependent.rb, app/models/forms/employee_role.rb, app/models/hbx_enrollment.rb, app/models/organization.rb, app/models/validations/email.rb, lib/object_builders/broker_role_builder.rb]","[app/views/broker_agencies/profiles/_form.html.erb]","0.0","0.0","[4545d71b3285d5c468051cde49fc6b7555d65118, ea39042da5a3779f045648606c1d3a2b41eec376]","0.984 seconds","4.2.0","[cucumber-rails, rspec-rails, factory_girl]","0","[]","0","0","[]","false","0.0","0","","0",""
"enroll","6014","[09-06-2015, 10-06-2015]","2","3","[fixed cucumber test according to the new plan year creatation , auto trigger loading suggested dates via date change , HBX portal tabs ]","2","1","1","7","7","[goto, a, wait_until_present, click, input, build_person, text_field, set, span, visible?, be_truthy, sleep, a, click, sleep, h3, nil?, screenshot, save, text_field, wait_until_present, set, h3, click, sleep, h4, text, be_truthy, div, li, divs, checkboxes, button, plan_years, update, nil?, screenshot, save]","0","","0","","0","","0","","0","","[]","","0","11","15","[app/models/broker_agency_profile.rb, app/models/broker_role.rb, app/models/carrier_profile.rb, app/models/census_employee.rb, app/models/employee_role.rb, app/models/employer_profile.rb, app/models/forms/employee_dependent.rb, app/models/forms/employee_role.rb, app/models/hbx_enrollment.rb, app/models/organization.rb, lib/object_builders/broker_role_builder.rb]","[app/controllers/exchanges/hbx_profiles_controller.rb, app/views/broker_agencies/profiles/_index.html.erb, app/views/broker_agencies/profiles/index.html.erb, app/views/employers/employer_profiles/_index.html.erb, app/views/employers/employer_profiles/index.html.erb, app/views/exchanges/hbx_profiles/_broker_index.html.erb, app/views/exchanges/hbx_profiles/_configuration_index.html.erb, app/views/exchanges/hbx_profiles/_issuer_index.html.erb, app/views/exchanges/hbx_profiles/_product_index.html.erb, app/views/exchanges/hbx_profiles/shared/_primary_nav.html.erb, app/views/exchanges/hbx_profiles/show.html.erb, app/views/insured/families/_index.html.erb, app/views/insured/families/index.html.erb, app/views/shared/_plan_year_fields.html.erb, app/views/shared/_tab_panel.html.erb]","0.0","0.0","[508a391d23711e5989fb566266348d31474e91f8, f8f802a0b3325d57cffaf49e7206568add254178, 8c3e721adfc59795349906ba1dbdfffe784387e1]","0.352 seconds","4.2.0","[cucumber-rails, rspec-rails, factory_girl]","0","[]","0","0","[]","false","0.0","0","","0",""
"enroll","6031","[04-06-2015]","1","3","[controller spec for broker_agencies/profiles. , fix context wording. , broker agency profile cucumber specs. ]","1","1","1","9","9","[text_field, wait_until_present, rand, set, input, click, element, present?, visible?, be_truthy, nil?, screenshot, save, goto, a, text_field, set, div, wait_until_present, click, li, divs, checkbox, radio, fire_event, element]","0","","0","","0","","0","","0","","[]","","0","4","2","[app/models/broker_agency_profile.rb, app/models/broker_role.rb, app/models/carrier_profile.rb, app/models/employer_profile.rb]","[app/controllers/broker_agencies/profiles_controller.rb, app/views/broker_agencies/profiles/_form.html.erb]","0.0","0.0","[096b7839891f9fdc30daa0ec43c9920c67f65e3c, 717f9fe64a6c906f70f288455e4ca8d58233f41e, 14422b7640fd37fcc903545a16533c1d70081c48]","0.337 seconds","4.2.0","[cucumber-rails, rspec-rails, factory_girl]","0","[]","0","0","[]","false","0.0","0","","0",""
"enroll","6072","[21-05-2015, 22-05-2015]","2","14","[start on and end on select limitation and dob hire validation , fix cucumber specs. , remove sleep instances. , remove all instances of sleep in cucumber specs. , more descriptive errors for plan years. , fix for entity kind not saving correctly. , remove pry message , plan year error messages now display specific to field. , better spec , Fixing preload. , Deploy from the right branch. , Stop using deprecated gem. , Working on addressing issues. , Refactor to clarify behavior for new and enrolled employers ]","5","1","1","34","34","[goto, a, present?, wait_until_present, click, text_field, rand, set, input, element, present?, visible?, be_truthy, a, wait_until_present, click, text_field, premium_tables, ago, beginning_of_year, to_date, end_of_year, build, set, button, fire_event, div, li, text, button, visible?, fire_event, text_field, wait_until_present, set, click, be_truthy, present?, refresh, text, radio, set?, be_falsey, input, divs, refresh, visible?, goto, be_falsey, text, be_truthy, div, select_list, select_value, fieldsets, p, li, text_fields, checkboxes, button, select, eq, p, each, nil?, screenshot, save, label, dd, wait_while_present, form, fire_event]","0","","0","","0","","0","","0","","[]","","0","9","8","[app/models/broker_agency_profile.rb, app/models/broker_role.rb, app/models/carrier_profile.rb, app/models/email.rb, app/models/employee_role.rb, app/models/employer_profile.rb, app/models/forms/employee_dependent.rb, app/models/validations/email.rb, lib/object_builders/broker_role_builder.rb]","[app/controllers/application_controller.rb, app/controllers/employers/family_controller.rb, app/models/premium_statement.rb, app/views/employers/family/_member_fields.html.erb, app/views/employers/plan_years/_form.html.erb, app/views/shared/_address_fields.html.erb, app/views/shared/_employer_profile_fields.html.erb, app/views/shared/_relationship_benefit_fields.html.erb]","0.0","0.0","[05962ccf084cf2f1ae9ee6319411cd2f8c752fb4, ddc27be3db9123694f30b8ebb953c5ac4e37c34b, bd0ba40cbffabd9880d73b719a739d1a748d759f, d5f54b08c360665834076f672c56181d254bba56, fa6457c6d3d17c34e7bf290778c697a338d0440a, 38c7a2da355e8e8c3446e12f4a6707b769230cad, 46391f0ba2e61668d1710d95ec427bea56e6c4ae, a379dfae95e36db6e7045f07fa12220c0c388094, 36d4c8c6083a7ba83e4fb0c8ad1b8754508976e9, 2b6b350468489b67bfc5b405eddb39727867e4a2, c8b71b61e77fc8a62cb1c7b30bf1f571d4872fa9, fa40b08f4536b0f670d2e88ceba274fdbf01e11c, 500c7c733ef7a52db9e48fb9afc33ff3defc372c, b54a715f50699dddfdcae8db87b9459b433be119]","1.317 seconds","4.2.0","[cucumber-rails, rspec-rails, factory_girl]","0","[]","0","0","[]","false","0.0","0","","0",""
"enroll","6093","[16-05-2015, 17-05-2015]","2","3","[integration steps. , fix cucumber features , family fix. ]","1","2","2","14","14","[goto, a, present?, sleep, click, text_field, rand, set, input, element, present?, visible?, be_truthy, sleep, a, click, premium_tables, ago, beginning_of_year, to_date, end_of_year, build, text_field, set, button, fire_event, div, li, build_person, premium_tables, ago, beginning_of_year, to_date, end_of_year, build, password, text, refresh, text, radio, set?, be_falsey, input, divs, refresh, visible?, goto, be_truthy, select_list, id, select_value, fieldsets, p, li, text_fields, nil?, screenshot, save, wait_until_present, wait_until_present, label, button, dd, fire_event, binding, pry, span, as, form, h3, span]","0","","0","","0","","0","","0","","[]","","0","13","3","[app/models/address.rb, app/models/broker_agency_profile.rb, app/models/broker_role.rb, app/models/carrier_profile.rb, app/models/consumer_role.rb, app/models/email.rb, app/models/employee_role.rb, app/models/employer_profile.rb, app/models/forms/employee_dependent.rb, app/models/phone.rb, app/models/plan.rb, app/models/validations/email.rb, lib/object_builders/broker_role_builder.rb]","[app/controllers/employers/family_controller.rb, app/controllers/employers/plan_years_controller.rb, app/views/shared/_benefit_group_assignment_fields.html.erb]","0.0","0.0","[d6b0d75469a0c0cd0a931c7245e9dd13695b1e10, 118bab444cf5b49cbd87d26533686af91eb5a1d3, a88bc465e18ae1ff8482f52c734835330424ed8b]","1.021 seconds","4.2.0","[cucumber-rails, rspec-rails, factory_girl]","0","[]","0","0","[]","false","0.0","0","","0",""
"enroll","6094","[17-05-2015]","1","14","[more fixes based on UI changes , comment out steps which are no longer appropriate - to be removed at a later date , ressurect removed routes , Forgot this one. , Loading all data except the last three. , Fixing issues with environment. , Fixing loading of id generator. , added family index to hbx profile portal , fix email spec , remove routing spec , Adding employer index to hbx profile portal , fixing admin seed issue , removing deprecated controller , fixing broker renaming ]","3","1","1","6","6","[goto, a, wait_until_present, click, text_field, rand, set, input, a, wait_until_present, visible?, be_truthy, visible?, be_truthy, text_field, label, button, dd, span, as, input, form, wait_while_present, to_i, li, exist, not_to, form, element, nil?, screenshot, save]","0","","0","","0","","0","","0","","[app/controllers/broker_agencies/broker_profiles_controller.rb, app/controllers/hbx_profiles_controller.rb]","","0","6","7","[app/models/broker_agency_profile.rb, app/models/broker_role.rb, app/models/carrier_profile.rb, app/models/email.rb, app/models/employer_profile.rb, app/models/validations/email.rb]","[app/controllers/broker_agencies/broker_agency_profiles_controller.rb, app/controllers/exchanges/hbx_profiles_controller.rb, app/models/hbx_id_generator.rb, app/models/hbx_profile.rb, app/views/exchanges/hbx_profiles/index.html.erb, app/views/exchanges/hbx_profiles/show.html.erb, app/views/insured/families/index.html.erb]","0.0","0.0","[7dd9e4692a7d6aaf043875cbc063e2d745c715d5, ccff1fbeebc8cd125f4a04af03e55d9ec6c34acc, 74123c7c70a921b2a37b2ad97c6c5ba308d182b5, 56c5a3969d50fa8911f170f802d1503048a6b1a4, cc7b70b9b35626e0d59bdfdb5fe340c86e2e1462, b44704dfeb7da978dff862ab0384792880e7728b, e67bb953a35ffe3156732aa8593b8beeda31a052, 5952a6b08f285728a682d48212460b83637f3ac9, a5be320efdffab1a48c880ad7baaf358dc2b4080, 993e7909997c40cadd7f29b15681457d322aecb3, ac51b7ca5e368de744b413d46c48a3573641698f, 43781c4adfab1264444f8343074afb8e456bf249, 545ef04057dfa44ebf020e6dd8dcbef532067de6, 7f2872fc1f3f605e437437673599ae3710a2b1f1]","0.346 seconds","4.2.0","[cucumber-rails, rspec-rails, factory_girl]","0","[]","0","0","[]","false","0.0","0","","0",""
"enroll","6098","[17-05-2015]","1","6","[hbx profile show page view , more fixes based on UI changes , comment out steps which are no longer appropriate - to be removed at a later date , ressurect removed routes , Forgot this one. , Loading all data except the last three. ]","3","1","1","6","6","[goto, a, wait_until_present, click, text_field, rand, set, input, a, wait_until_present, visible?, be_truthy, visible?, be_truthy, text_field, label, button, dd, span, as, input, form, wait_while_present, to_i, li, exist, not_to, form, element, nil?, screenshot, save]","0","","0","","0","","0","","0","","[]","","0","6","1","[app/models/broker_agency_profile.rb, app/models/broker_role.rb, app/models/carrier_profile.rb, app/models/email.rb, app/models/employer_profile.rb, app/models/validations/email.rb]","[app/views/exchanges/hbx_profiles/show.html.erb]","0.0","0.0","[203ec3aed995491a01ddf0efa3165ad6d917110c, 7dd9e4692a7d6aaf043875cbc063e2d745c715d5, ccff1fbeebc8cd125f4a04af03e55d9ec6c34acc, 74123c7c70a921b2a37b2ad97c6c5ba308d182b5, 56c5a3969d50fa8911f170f802d1503048a6b1a4, cc7b70b9b35626e0d59bdfdb5fe340c86e2e1462]","0.356 seconds","4.2.0","[cucumber-rails, rspec-rails, factory_girl]","0","[]","0","0","[]","false","0.0","0","","0",""
"enroll","6114","[15-05-2015]","1","1","[employer portal existing person match and existing employer match cucumber specs with screenshots. ]","1","1","1","21","21","[goto, a, present?, sleep, click, text_field, present?, rand, set, input, click, element, present?, visible?, be_truthy, input, build_person, text_field, set, password, text, sleep, a, click, text_field, set, button, fire_event, fein, dba, refresh, text, radio, set?, be_falsey, input, refresh, be_truthy, visible?, select_list, id, select_value, nil?, screenshot, save]","0","","0","","0","","0","","0","","[]","","0","11","4","[app/models/address.rb, app/models/broker_agency_profile.rb, app/models/broker_role.rb, app/models/carrier_profile.rb, app/models/consumer_role.rb, app/models/employee_role.rb, app/models/employer_profile.rb, app/models/forms/employee_dependent.rb, app/models/phone.rb, app/models/plan.rb, lib/object_builders/broker_role_builder.rb]","[app/controllers/employers/family_controller.rb, app/views/employers/employer_profiles/my_account/_home_tab.html.erb, app/views/shared/_benefit_group_fields.html.erb, app/views/shared/_census_dependent_fields.html.erb]","0.0","0.0","[22a7d7e2aee5029b43c5e44775b26e53bd6eb246]","0.697 seconds","4.2.0","[cucumber-rails, rspec-rails, factory_girl]","0","[]","0","0","[]","false","0.0","0","","0",""
"enroll","6135","[11-05-2015, 12-05-2015]","2","2","[employer flow employee roster add and edit employee form modification , updated the select plan integrition test ]","1","1","1","6","6","[goto, a, wait_until_present, click, text_field, rand, set, input, element, wait_until_present, visible?, be_truthy, visible?, be_truthy, text_field, p, present?, dd, nil?, screenshot, save, p, present?, input, click, span, checkboxes, button, divs, select, count, strongs, eq, text, strong, each, as, select]","0","","0","","0","","0","","0","","[]","","0","6","3","[app/models/broker_agency_profile.rb, app/models/broker_role.rb, app/models/carrier_profile.rb, app/models/email.rb, app/models/employee_role.rb, app/models/employer_profile.rb]","[app/controllers/employers/family_controller.rb, app/views/employers/family/_form.html.erb, lib/tasks/hbx_import/census_import.rb]","0.0","0.0","[e981eab518c7c62757d02a8a20420a5e4d7a0d6d, 22ce10fbe2f6fc681f8f9213146c7d5af1a5853f]","0.346 seconds","4.2.0","[cucumber-rails, rspec-rails, factory_girl]","0","[]","0","0","[]","false","0.0","0","","0",""
