"REPO_URL","TASK_ID","#HASHES","HASHES","#PROD_FILES","#TEST_FILES","LAST"
"https://github.com/alphagov/e-petitions.git","420","8","[5343e6751f954b166594e42d6a317a03bb51713c, 53820ea5d49b3fc3960948430ad8f95d28465a77, 71a42cd6aaa38a19fb1b276ce1d93bcab0489961, 67e2ac3f26e950d5efb01edec97b26114075056f, 1a074e1547736a491557bd5b474707a1a876b08c, c8ad98daa9a8ce4309853acf4d0b0e04af8b1988, 20ececddf5260a75db9636b7438fc9112e8b7a16, a66e2cb8aec26588f07c4f3cbe510cfaabe3980a]","14","17","5343e6751f954b166594e42d6a317a03bb51713c","1dbed764b4914a3e874b1057f86868b5abd2e548","e0b5f8e6b5787f1099c92cc501f9f3cf82fd9216"
"https://github.com/alphagov/e-petitions.git","421","7","[f0fa82050de747b7ddfeb2c705411f5aa51c272c, 7c4521739c03bad7670f412aa13daf07ebc35d13, e388f6b6de237142d41d30af617418c338582579, f071f760094dc7d8911462b2ef9e7be3105e01c3, 03db360b4c45b89c71dd361dc86a3afe5672e2b0, ab0f001a66607fcaf781eccea07122ce0403da39, f552f6f98fd13cb196a004228d4ace76cc8c0ff4]","18","2","f0fa82050de747b7ddfeb2c705411f5aa51c272c","a18e1739338a7e533bbf509bf2b50a2ed0d2b19c","948f5da8371b97da1f244e55faf4ca7c6ad33a20"
"https://github.com/alphagov/e-petitions.git","426","5","[e344cf65848c6ce8fa5047b5835eded15d9bdd60, e1c616215125dbc1aa9caf41e6aeccfd033fef32, 19c277a8bf4ad5dce0a07241a168da82baab8e7b, 0e196388892c97474fd7d4597cf1defc672cf074, 0362cb9a63b27cc2a0f376ef612e33718cb02ef6]","13","3","e344cf65848c6ce8fa5047b5835eded15d9bdd60","6cace1001af7a03d62e2c3dc0acf527013a3dc87","481b8df196f5dbec65aa4c30f2ca0543aebde233"
"https://github.com/alphagov/e-petitions.git","428","21","[6bc9374d306abc0ef12864976a8c0323a2519dfd, bd9f7af1fd4bd60ac6deac183b3e0bee933f6782, 7491f5fabb10e967be0c53766193a500dae3431a, 15b36ddccc7f4177d38f30a789ccb5e2bda98bcf, 63967cd2747c637f804903672300771e7223832a, 851d0a7d45ecf71e997668bb6ab37bd338ce8e30, c44a0d5554236a580368f2128a1f82405e1db8a7, 3236b6fd57efb2b726aabee9f0881fde1b80334a, 835e37f7ab875f7023ef6d5c03f5a990929b62e0, 97da00eddf9889f72fc459c42f8e426e8d95bbbf, 579c56664e9cc43328725754fb09be03d98565f4, e99a8c8d41ac7b91ee8a59cc5734f4aeb98a33c6, 009b6094955d5001aea3dbf086ed2c7317cd2830, 541a5f695aa944750ddd55ef5b2043bd2599c131, 6bcb5b153988826d86de40807bfe74005b8ecdbd, 897d916b41f2a8e1d464055fa5df610d3dd33276, ad473659d7acddfe8b46a73cc04273fa0fbbd25b, 4d112d6359f639d5ac7b6bd10aca104d50dceb3b, 7a0af5e864ba37a8e47c9763cd0309db3c45543b, b5bde472b9d4ad0c40ea283ec6d7b23c2d907823, a5e22bec86706dff4d27b32cb123feef5e9d53c2]","20","9","6bc9374d306abc0ef12864976a8c0323a2519dfd","481b8df196f5dbec65aa4c30f2ca0543aebde233","78780c06d480ba5ab287d7a4d4109efce13a6d6e"
"https://github.com/alphagov/e-petitions.git","430","2","[7c42a9687dcd4929f4dcc2365760068e86761e9b, 38fd6e6ef0bb17df71dc76b3b177b89dc341f29a]","7","1","7c42a9687dcd4929f4dcc2365760068e86761e9b","420c2090af7b38a6ee78577bb553777fbd5b8a31","de7e81ae83360c2a5b52a2400ef99dcee7cb3613"
"https://github.com/alphagov/e-petitions.git","431","1","[24c133dc76f3b113ecdc9e77548c5c7bb9711042]","9","1","24c133dc76f3b113ecdc9e77548c5c7bb9711042","7aeae45b489f44d4a7b1d6d3f7c9c2b47b37623f","73e29ebcaef4b377a128f35fc57db9a42f5f6b68"
"https://github.com/alphagov/e-petitions.git","433","34","[73e29ebcaef4b377a128f35fc57db9a42f5f6b68, 3e40de3be98f1a9c4810e010d901384d2a773589, d018af46d404b16ac07ee265c36340f83010bdbe, ea65a13f4bb2175275fd9cb0cb1881390ed5f3b2, 49a43525eadd72aef84aba650a681a31e9e2eb03, e3ce52b4898ecbc20117ac8dd3408c1dfd067092, 81cc6d0ee5c99ed122c24b1dc0a04ef95085c16e, 26ffd1771e4e00c4987ba7289860a75ebcee5a3a, a69ce2989c94715a3b5dd8f17581a09353fa4122, 5c21af92b2c6c487a349b8ef87526377e33bad59, 105322415a803801f4027d1afd0f77ef98cf6b5b, 35a7a3ae879ae1bcec19d50d11dc663ee19d4e52, 737e0a4fb7d05273b036e1d4c20fe9969fdef4ef, 3b70d21d73a73a5df1d258f3a464d2aca7f709cb, 3a09b00c5d10d03ff0be9030f611eb7715dd06b2, 458237cb32f0b8500a62bb5e9a9534416aea3f38, 97cfebf046f52d13fbd3ac814eff4c180195a1ca, 4a2f75e99fd0e28d377559d46e571bc94ed6a299, 941aa300a6169cbcd3a77ec89b0a078892971455, f7d3076c11a792251f0345013db187b3952321bf, 346881d6a86a20c216f820885f021e762603b818, ffda497eaca55ab082f78534cb6f41e18296a926, 96acf660fc53d73ed8b48d07773adb9570f5ee38, d5220988e952e0e3e8f26439646f93aba6de494c, 83ecd7ae5a1bf7ee68f21343ddda93edc8f43f77, edbb298714ea10524b0c112fb7945eafebb888d6, 82f8980870c670d7e320209032afbf181861baed, 9672802d8fdde40d720fd4cc8a266f90553cfb21, fe593eda19ac9ded8cdd6a1a10c309ef942e06c2, d4c532317eb3e6e12aad4559e29fa199aec12ba3, c2f5660da7e10b8bd51e028238f8aa88f1976d29, 75f06cf22fd6cb4562c2cc9acb5362274ff965a6, 7af769520da0f5d577c4f0ce016d853d0fb0a347, 7758956473d2b612ca0fbc87072c2bdec8c51d9b]","36","5","73e29ebcaef4b377a128f35fc57db9a42f5f6b68","20bec5abdf1f5c31de6dff2b763e621f737ff66e","afb21b71123c736f524225aa1cbb43d15bf007ba"
"https://github.com/alphagov/e-petitions.git","436","3","[a9e7096a33177bbf60b76fe2840f9cfc005f0e51, 326326228c610ba3153c44da0c1b812293b3cdb7, fe736318bd91112973f84aea7a8316ae051b9a97]","2","3","a9e7096a33177bbf60b76fe2840f9cfc005f0e51","875cfae99cda978ea1a9a3f13bd3374f0c112b90","08e1fd24c7049dfd89f0baf56f8ba614a59dcb91"
"https://github.com/alphagov/e-petitions.git","438","2","[fbe90ea464604b748993285a33daf1d060c43947, 786b17f2f7c97d63c4bea092606761899f51aaed]","1","1","fbe90ea464604b748993285a33daf1d060c43947","08e1fd24c7049dfd89f0baf56f8ba614a59dcb91","763faca5524489ebbb0d55a68d8d20c7ebb8c11e"
"https://github.com/alphagov/e-petitions.git","440","9","[f748bd6d1ba745dfb9277beeee927d35a142bb90, 59db35e6353ae98abef233ec9d527ae98b623c5c, 0ee98eb5ded386f582311236c83c43e936ebe240, 1db36ae18e2ce268abd1818c20a8b22482b4bd5c, 5c2aea5e958d54adc65837a77da611483b3e6104, a382cca6ea9eadcdd9b4b9e3dd9e0e902f7a2ac8, e2aa04abb914606c376db4258b92b4ba8e53b4dc, 6b7e7494ea3f8a4b7b62b65f09397988c5d4cc5c, 349c0fae58c65db777322fa126d8edc3e2ec324a]","6","1","f748bd6d1ba745dfb9277beeee927d35a142bb90","763faca5524489ebbb0d55a68d8d20c7ebb8c11e","e1e300fd2174409fab1f35c44c9cea3ad8c5632b"
"https://github.com/alphagov/e-petitions.git","441","7","[3d242eb0db5e057d581d483d0165be307c4085e4, c095d0b9600bd656a8ced18bf0c1ed93968d80b1, f5196c91b2bd1568344f881845b7e5b107164661, 8f951b761e7630361576810d0f1c4b9c664f70e2, 5d59996f09ea908cc52875324e88d504b50ab82d, c2c12e902fe5a736fc3941b3d0ad259b0b24da92, 4bcee53175d693b64a9d6897ebf09e889d9ecd09]","3","1","3d242eb0db5e057d581d483d0165be307c4085e4","763faca5524489ebbb0d55a68d8d20c7ebb8c11e","e1e300fd2174409fab1f35c44c9cea3ad8c5632b"
"https://github.com/alphagov/e-petitions.git","442","4","[ea682e61ee46aa74e8c3cdcf82d6e6c525bad2f9, 2727a998081020e70e3f27fa993e26fae5e8a376, 12150f6006a6f758f3874ebec49f96528e09f49b, a64fcd0feaaa2f1bb1cdcca8e6bd94c8dc78efbb]","9","2","ea682e61ee46aa74e8c3cdcf82d6e6c525bad2f9","f2f86a5556a62ce88bd80181f3db48d732228947","aacc5504a1cf31b53f2f73f16d08c8a4f32fd9a8"
