"REPO_URL","TASK_ID","#HASHES","HASHES","#PROD_FILES","#TEST_FILES","LAST"
"https://github.com/BTHUNTERCN/bsmi.git","135","4","[6d277068abc62a3c03b84070e6bd9475f0af1ba4, e07bdae20a9883b89c71de877b6d150e80e1e65c, 6f6d216673222ada7245296924aac9bf7fc77f82, 282512684adce8f98331ac9adcdde23d13eeed10]","5","1","6d277068abc62a3c03b84070e6bd9475f0af1ba4","420c5cbc0a24c1d5f1e6cf16c5bcacd002e7851e","2d49aa005ddf230773c90fec3c8df1a5f10665e8"
"https://github.com/BTHUNTERCN/bsmi.git","136","2","[d418b6c2570e300e71fef2bff7e58fb8103bbb6c, 78f7571ae048c4eaf352a977898a544a50d113d1]","10","3","d418b6c2570e300e71fef2bff7e58fb8103bbb6c","420c5cbc0a24c1d5f1e6cf16c5bcacd002e7851e","c4a733b9e69f9480c5eeb6063dd969612ba8e875"
"https://github.com/BTHUNTERCN/bsmi.git","157","5","[25624ef39dc416d77ad237ec38d4ed1553a25c4f, 5be80bcf6a5103792f176a63b4e22606863c8246, ad2ae6100639b6c844d9c3b6e060aa4c7a3b09c9, 908e78f091396d8e67c8fb18a004e68fa0dee7a2, 650ca0250b4ec763eed52333d251fa039591adc1]","3","1","25624ef39dc416d77ad237ec38d4ed1553a25c4f","9798703f139b605f921da49521db3afcd6c5ca91","02d762b83e626c647f19c0b7406bc1ba2de2d89d"
"https://github.com/BTHUNTERCN/bsmi.git","161","3","[9d0db02a9a15b1cbe70183f7f1264719e2ca9172, 56f238aeacea0c8d02126e4867117f42d29ef270, 6599db9b5d090b495bac217b68d7302ef4864d2c]","4","1","9d0db02a9a15b1cbe70183f7f1264719e2ca9172","aa2505c61895bd27b2562cf1dbfce7a5352c29f6","8deb75224202deb786f65407e8157bfe42c09014"
"https://github.com/BTHUNTERCN/bsmi.git","165","1","[d255c42d937a6aabc4ed290c214db18ebb7e8ae5]","1","1","d255c42d937a6aabc4ed290c214db18ebb7e8ae5","17549e8a179a308c7187e9b874eb8c5e3643bf9c","02d762b83e626c647f19c0b7406bc1ba2de2d89d"
"https://github.com/BTHUNTERCN/bsmi.git","167","2","[fbc6a325d7a7dfa6c8c0df5bce22bef7f255db92, 62ece1755cecf6254bda338eee2bf14fb56b6480]","3","1","fbc6a325d7a7dfa6c8c0df5bce22bef7f255db92","326003b8f8aabaad65434bd256db0abd057cfbd9","8386227b95380ec89c05bdf4ce202f36616459f6"
"https://github.com/BTHUNTERCN/bsmi.git","169","3","[21b50f67cd6f53d8c8975a25b822c18e44fca05c, ee6b3187771d2e54be9c21e03939eef70a8ce34d, fbfed87c84af92db08903316c145911b59e9381d]","5","1","21b50f67cd6f53d8c8975a25b822c18e44fca05c","8deb75224202deb786f65407e8157bfe42c09014","aec7f5714237f96defd12b60bc6e37be9773c4cb"
"https://github.com/BTHUNTERCN/bsmi.git","171","1","[d9c1fc990a925c052e05f35ca7ff68397fc52234]","10","1","d9c1fc990a925c052e05f35ca7ff68397fc52234","8386227b95380ec89c05bdf4ce202f36616459f6","e7f7cc8f8c7ac205ff539e35dae729066618cb02"
"https://github.com/BTHUNTERCN/bsmi.git","174","2","[93e9ec47cb1e40851a815e07fa5c8166e8832331, 2bab2f36e9e11db32c2269e38ce5247aae5636da]","13","3","93e9ec47cb1e40851a815e07fa5c8166e8832331","aec7f5714237f96defd12b60bc6e37be9773c4cb","47ed08b2a17074cc64b1d10ba896b8fd368f0f83"
"https://github.com/BTHUNTERCN/bsmi.git","180","7","[59410b070c8e0bf9397e1a38f8d2bdc1f271dec9, 44d3e58e102d4a9df020ec156b32f6691c5e1c7b, 143309bcaf49c6d62b847561b2520264905079c9, 2523bdc178a81ea226c424e9ae6908d2f1a93dc0, b5fe9c08ce889ffbde6a046bd135cb80357a1cf1, 9ccd3c0db6d08eefdc2bacbced15ea970dce4b0a, 29a153172f2eb04aab6fd95c1697149726385b7f]","6","1","59410b070c8e0bf9397e1a38f8d2bdc1f271dec9","c4d3481e3c9614dcb66f09a48d460b359927cdb1","23f680fa0698e3756fc4876375210da7a6976c10"
"https://github.com/BTHUNTERCN/bsmi.git","185","2","[82f39fe85086641c1cb8dfd5ca7f9b4b84c006c5, 4e28f3494dfcda7a3a616b27c616c14f005fd6c2]","3","1","82f39fe85086641c1cb8dfd5ca7f9b4b84c006c5","d12bcad59442325132d3333c7fd3337b55634899","080af5cb93d2486002465db044bf4a707448cb20"
"https://github.com/BTHUNTERCN/bsmi.git","194","3","[080af5cb93d2486002465db044bf4a707448cb20, 01e288e461c7fb90f3377dea1ad0fe38b77cf529, 83048a91aae97b4b227352455540eb8ac56cb67f]","1","1","080af5cb93d2486002465db044bf4a707448cb20","059cac0cab31d66b0ada1ff4987805c01887c96a","8cbb2fc6b6b91a4a757034734776570c3df0e3f9"
"https://github.com/BTHUNTERCN/bsmi.git","197","23","[089308d1fb01b6a0f4de7b02c84dc262ab1626da, 9350ae2a0de6badd81d587537cd3648ba5f8088b, 8703982aed26f9dbf8e73c434dfcdc9b749acfbb, d150bcdf0263eceb994d8ac8c8c8a7c0bdd8d696, 60614d9844043b8d3b4eae4c829c695278f9f37e, 29b9f5aa229fb509166f3e85eeb6790cbb17c4b9, a48be18a3192a36f72734ebb3808766c62ef2c21, 4ed8288900c93feafbad6dd9b670f1dad0bc76cf, e9f1ac8d7e3f4c6e0df5014f11f45d54230886c0, 84c4805ffd956aff182661bd04ba25200c7af70b, 26d45dbbcf6746a43366ae3ce891b1cf8bb7c23d, 80d78f5717cdefebe7201a68dcf3ba754663d5d9, 7adea999f708415894ff2ae9129a87f4f6ad6481, 92cf6e938231ba4031578319afef0251ca73b617, 3e74db58a37ce27bb6e8310eac96c069e8d894d5, cfdec4225bd18e28ce93d3bceda1ff3f4ac2ef21, f3a29e93f9415d68b170a2076f6aa636e3b3bd93, 0c0aee64a84230a0b8d017fa2bafbd08787d038c, 7b3eb60fd010c4e7343ec148c6d956c1d8221185, 224cd89a76a82d29d699c050e99f65d75697c886, 4be020a4479a4d93f93797ce55aed11129ee1791, 13039ea94df9bb34b935651398fe3c41c8e642b2, 95db8281d5b76f5157b2f7ed9891c6c7a266dd3b]","22","1","089308d1fb01b6a0f4de7b02c84dc262ab1626da","8cbb2fc6b6b91a4a757034734776570c3df0e3f9","7d26ea2f13cf186c8875222e1dbfa1dd6ad5b59d"
"https://github.com/BTHUNTERCN/bsmi.git","201","1","[f153baa4c5bace2988ea8ce605bac7e49fb18528]","8","1","f153baa4c5bace2988ea8ce605bac7e49fb18528","e7f7cc8f8c7ac205ff539e35dae729066618cb02","3a4000ba1e3dfd8080bb10787e7cf886b109fc55"
"https://github.com/BTHUNTERCN/bsmi.git","214","2","[346c063ce7f6f5625d1a8ffa375c78e9c456a89b, 639a32fa78193050016c485fcee6bb161087d7d0]","2","1","346c063ce7f6f5625d1a8ffa375c78e9c456a89b","a48bf55deef915a67fcbbb6cc856b7f02c8af687","558af735358366f204ddcca5347753ee28d64f3b"
"https://github.com/BTHUNTERCN/bsmi.git","223","2","[d1f34d4d8e8c4a9f4dd162aa6379dc788241bf40, 86b5f048dd108e9b363475bf7f676597115602f4]","5","1","d1f34d4d8e8c4a9f4dd162aa6379dc788241bf40","964d4ac443b4fc4f438cb3a3fc59b2b9d555b37c","08a56a8e3cdb38f8050b373db018131d9a53c423"
"https://github.com/BTHUNTERCN/bsmi.git","232","2","[8f1199d112275a768bf703f37b46d81359b1bec5, 5c775406571008e219a851afbe1e09e008c2ed97]","1","1","8f1199d112275a768bf703f37b46d81359b1bec5","357093a7a00e8202cad9823c821c60352f810cae","e6cfa72126e411659cf24ba898a59381fd3f293e"
"https://github.com/BTHUNTERCN/bsmi.git","239","3","[b4a0ca178c3835f3bccb43dfde533bc0c604daa3, ed6b09a37d4dce5426a58a52ab1f2cdef023ea80, 3777c37a1dabdeec0c18ecd01a5fe2cf355a6426]","1","1","b4a0ca178c3835f3bccb43dfde533bc0c604daa3","02d93b9886d67abe3e34c091c9d235fd7c0b594b","7d012ca4a961858988b8ad86d09248ae08229add"
"https://github.com/BTHUNTERCN/bsmi.git","255","6","[93c66b087589f38117c48be4a481bc2c4448e836, 4f9b77cde6533677ae2b274bec473ae8a830bfe1, 5388fc29c6758f530629bea2a4fc6bfa199e1d5b, 72c0ef4b3551906bfcc8aa6ae31363c819513d71, 3ca22f3bc1ee2b2f24bffc9ecb4e61253911fe6e, eb68457aacc1cadf152f9e17e245d96b557be1a9]","30","1","93c66b087589f38117c48be4a481bc2c4448e836","7e0153f3c4871691e9f6259d30d87fff8d0f8990","9f06cc7a66aa5e9ae72b986c4f5edf15aceb29d5"
"https://github.com/BTHUNTERCN/bsmi.git","264","3","[30e2270c5c97ad658553fd97339025eb59a5caf9, 2e22f788021a85da7f1c9f72415e009c8b6cf27f, 60908b4437d4f71c5340996c240ca34934cd3807]","1","1","30e2270c5c97ad658553fd97339025eb59a5caf9","1350e949479bc353a8b829542ff9e08258b31c69","f819490bdbe1980c802d5203200d0f8775e21e3d"
