"REPO_URL","TASK_ID","#HASHES","HASHES","#PROD_FILES","#TEST_FILES","LAST"
"https://github.com/concord-consortium/rigse.git","1076","24","[df81673007519064cad3a971ddb5e54dd3517ab7, 62432c1c8bbeb2cad6082c8109be5b77162a42d5, 3331981782f25fadbfc5a34608c374d4fc38503c, f636dcb994f141b49f21a408bc92004948bfebf2, 3cd7132d55960c4061c93a88235fb06bdc0d91e3, db3fb5ff376e2526d6fc676f889c48672fa394e6, 971cee628f5bde0ec78a6378fce09add3120370a, e95d95e03653c12134bbe54c103787c28dd8396f, a8a0b83daba85453755f20292d79c2cf2c90231c, c28957b05c4e7e356bf250956e94d12ff0e6a62b, 571ed70f944e250c0bcd98c450a58d3c867a8c07, 3ee4c67c3503b7033db7579a781c63a99450ec57, 88db58b8c71f8c34bac5f5ed92b30c7ceb2f9fb0, 562e02e4490d5521cd1928abef8ce11129a293e6, e0c8fe9f443837e2645d3afdbe7fa58017888346, 56f8a706ef0d4d4b7bd0abe0e16de98f6b882f0f, 774cdc69fff4a688972ac014ba8a099e8e5724a8, 0f2ba290b75883e98bd4be426e57f7acc0f49998, a41de82eef5f6a4c75abbcfa78aac9ffb90b739b, 601a61574c41a453bb01671bd919e6447dd5afc9, d22d5ae10c7fc94d1a62d95ad97f31147426ac22, 37b34eb065e271064d1f1b6d5e925ee68d6d1745, 80165bf0873606116a9485c5d8c8b29dbb426655, fc896fc895eef2bdc0e42e8d78ece8445cd2b3cd]","34","1","df81673007519064cad3a971ddb5e54dd3517ab7","8d49352683834bab521e2df71a0fa67f37d8d50b","321c2836f5164025c4eb5294e03f78f4bddc55a1"
"https://github.com/concord-consortium/rigse.git","1079","2","[f4b51228e933e43d7fa77b9033ffcb806fe2ef0f, 99eb38eabcc74d8d94e3d5f4fa81f2348e7c0029]","1","1","f4b51228e933e43d7fa77b9033ffcb806fe2ef0f","37bbeb22bf2096e9a0fc2ff541a8627b9d2fc090","25b279624005e1d1650853ac4932caec84526598"
"https://github.com/concord-consortium/rigse.git","1125","8","[db26fe7d54885ecd7cfad6529821867515b22d42, 2e11be2a7000ca7bae7384cb95bb2a670784f793, 09430ef50f6d81a5cf90d4429a5661b57a863aa2, eb2b29d9b6bba7366edc63e41f2798a94d8504f7, 8da0e628f624a19a443fbc81566de551e34e27cc, e0acf6c93286b59ee99c0cabbc990cd5601ca5d9, 03744d357a1b8fc5bd0a7c80f15d0567ed91b94f, 5d381a4b0ef0bc7c96b428afc36b751d99fda109]","2","1","db26fe7d54885ecd7cfad6529821867515b22d42","382489a64ea3c402ad749187fb04bb2820ad8215","687036cca34656b0ca5c4cba7c6351e003b38a5d"
"https://github.com/concord-consortium/rigse.git","1150","10","[0117c2e2309d3382e7497fcb2697ee095cd0e55d, b402a02192e5f47197b57edab84a0619188d0e5b, 1a2dddddf7be0dd691560d251f57ddcd347a9c3f, aef744e9ce7d78d2989188efdec2a244724e5bf2, e42078f3107c2fd1814e64aca0c665af96073abd, 43f2d98511d75251f5580e5647bf1b3e83e803fb, 5c05b73a85c46106e9d386e531ca8b613ac36e96, 1ea6a91743d4082f92e9304bd3156329936aae93, acce2d40dee21e219f9cfab74597209791532e9b, 99b9fd3bcb9f77de78885fdd984b427dfbb99347]","21","1","0117c2e2309d3382e7497fcb2697ee095cd0e55d","314e0d59bf9aae94ebf4ef2da91e664e810d8352","b64ca3528d4978d69a1c8cd8c9eebe1d2a635c26"
"https://github.com/concord-consortium/rigse.git","1163","14","[4cf5e7c89fea5078965f8ce0de8839435af29be3, 142c249ed54dc6ee4546f8d56e916c99d767deba, 31bef050fc18ff33df9f1f25437aa8bdd7e2afb2, ebe4dc509fc7f5c94e9b432e724924f5b4ae22db, a7309f2c1c9ac76bd7bf08e70481f70ad323b563, 5d74d55fc6f9a5c213305790eef53ee56c9cec3c, de3b2c2339da9959429120b48d61298f638699bb, 26803898159cca8f731cbad7e15e53ed7e616a65, 5a3c87774f4095b8c3e85013908f33aa524bc261, 31f11b09790b03950bbf4710cb77a948c3673ddb, cde75893032a296d5dd88ca22bbef44d2254ec3d, 8f2ff865055f1885339f7de5ed9d79c8f05534f5, 730c8d8c23190f9c9b2ba5984fa2fdb82ee4227b, 020cf29d261419960dd5e06e3eeed61d26b877d4]","2","1","4cf5e7c89fea5078965f8ce0de8839435af29be3","006134305a7de59768879beacb61c88c42a893bc","87c3431fd7873a2f09741ce385bfeb67b19cdfa4"
"https://github.com/concord-consortium/rigse.git","1170","9","[a40447c2fd9cbb01ed45e9533cd4534dbc4d31a8, bf6b5404596aedcf71b2f07ec735811c59ffd679, b0a0da6e3dd832aa0cfd8aa082b7ba33daa25a4d, bd1bb3e10302b3e28f7935d323583ff09b86c704, 43ce0bba9b4ba114924be347daef187b443c5ed1, 8113531ad2fef53122004d4e44bf323148817f76, 2d69121dbcdb77edf7104884b274d2633ee21c04, 18259c3a900123d53373f420c77bed988ddaf1fe, 636ca6993545312dc145df2d4beb23346cd0f906]","3","2","a40447c2fd9cbb01ed45e9533cd4534dbc4d31a8","46f41f66c52241200b7bacf62880968aac9d7c75","c6cb1d28b8b1fb1949ec7f5aebde6f4cad4d37a8"
"https://github.com/concord-consortium/rigse.git","1183","6","[5a6f0845f935ed89693ebe85f4ea4c5ed9e96487, 2eba2a7ac4edc70ccb8023ffd8ab5910b99550a3, 887e3b5f1be78267692c6edc29b5a7de918f5b3f, 4daa07ba1e554cd7b68423be2aff69e79f824aa6, 049ba716c9c6ecc0e852d63d48591e7f03c8416c, 2dd2cb28cb35ccb8b3915c0575a232565e8cf7e8]","3","2","5a6f0845f935ed89693ebe85f4ea4c5ed9e96487","762cf021221d6636c9902d61c812b1b6569ba676","2aaa279b72fdbbce0c0d03a92bbc8d3fb99ce5af"
"https://github.com/concord-consortium/rigse.git","1191","5","[7d0fd9f656f67c43d55b41d526c0eb3f4baefa10, 242ee471d522b6312fcf4facd8c2ef0fd3ae9733, d49d68d069966f0810aebc56e0529665be2774c3, d22904802b3d6c7a07fd1cf7ac014dc1206629de, de24a1c332a3f99004710b67981bea9bcbca265f]","1","1","7d0fd9f656f67c43d55b41d526c0eb3f4baefa10","3d7e11f098489a0eec28514e0eb5bb2d1dbc8b76","a48bfc25600f4382c82a08d2532105db36f00674"
"https://github.com/concord-consortium/rigse.git","1193","8","[a48bfc25600f4382c82a08d2532105db36f00674, 8ac026f791a218a3d1b4145cc711ad8d2978482b, d628865e5d68ec0dadef056db387d51754d13cd6, 68da0856505d1a660629d033a63f4e26e4c367e1, 89483d9b5d6f1e0b155d4577eac20d9a375b24d5, 36aae4d9a701f241f991e9390590ff13e3692b94, 630e482be2f4ef27767a1e8cf2681bc43bbf7e46, 91d21408eece1ac14536755df67f71dca3751045]","1","3","a48bfc25600f4382c82a08d2532105db36f00674","197c02012b2c80bfcc21ebdcb3d35b0c65c47d33","b4af13bbefafd810e3e84d019899891128f6e045"
"https://github.com/concord-consortium/rigse.git","1208","8","[f4bee3a890a6d7ddf5ae29137ae42b042c653559, a835959ab000246d20f30aea0319215c346bb4f5, 42df225880372cfda1e2df9ae9446cf09a94a3b5, b898114ccf285624be68a013593a47eb8dc55ce8, 84ba65457035cff84ab19c3067e421b6ca267455, d44e3923de9e62d2a9e9f90d559a2b7141a8c887, 08cc60d6e02fce86abb5b022319084da9a05b36e, a69c9599374ae771eeec347f51770291bf5e83af]","15","1","f4bee3a890a6d7ddf5ae29137ae42b042c653559","97ae27200d8d4f8d02d4564faf4b6d9e6afe5e13","5d2ef7aa95e92d7e460b131f2089a25e361da7d3"
"https://github.com/concord-consortium/rigse.git","1210","2","[d47943998cce4bb91192893afa839bae52c2ec4a, 47ae5b6c589ae98dbc652581302a077cc5e7ef1d]","19","1","d47943998cce4bb91192893afa839bae52c2ec4a","5d2ef7aa95e92d7e460b131f2089a25e361da7d3","353519cf4d97cec856ff3cbfca0262d2e6e4f89b"
"https://github.com/concord-consortium/rigse.git","1311","29","[011d781640517c11c25f18c40f99be02517609a5, fd6ce9b89c8aa670b8a7e78339fd3fb33f25f754, aab61a43f7ed88c82462ec736416f5b90ca76c24, 40a45b8017d9ce45bf96d688ea72b7299167fa74, bb95f801a8e9b46bd9586834776e3464530f577c, 938475610cf900363809f93c335f54296aeb4c24, 5fea66729fbe16f0fce6da2f8311b2d8523951d5, 0156f19beab14c76a42192a9a4ee951a12a006cc, 342fd5f93d54df86fc4e192286b6d5f5938e0fac, a02f715ed18719b63a06e8ae35c5217f102ebbc7, aee7fe80ca7348023d33cf165a79cdafbd955195, 0fcae43d4f081d3c375cd3be7742bc5acb9f9c2a, a3eba8017c69f4b869c97e28054b4fee79ad9a2b, dd66fd514612dae7997b7cace778481723f3f5aa, ee1cbad5ea55dba8f95be80ddba14c983b588e62, 246bc10c6fff2f61b04cc9f2406dd34036072467, 0bc40bfad518a5f885991110b3469094f97d10c8, 5df259f5f078bf39ce1d074f0f498f59ca7428a4, 043502d9da81faeaba7357223b1e7f33b1a472c2, 2cfcff294356a1c8a78daa1e4841ed18635ffd5c, 31c9075a895c01905fd31814a28aa32aae48aa96, c472bf61407a4cea330ee80e3568c69b299658f8, f04ca472f768640fa7f34ddb3a420b20ecbbc9e2, 5ae51877383951dc9d04998e99cd867e9e3a4f73, 5a183e51304cd0ace18a234d6848184263638f74, c0b87c796b35a8de5e6565ee09e83e36089a660f, f8d4366cccdc3466cf85c47479c91c8db23e4f70, a19d2e1aed82684a8a40cf9706ab696941bf08a6, 04c74ee16971849b77922f8d21a32b033ca85a3e]","17","1","011d781640517c11c25f18c40f99be02517609a5","fb065cc1e791da93dc10565d8c9bcefa18df388a","23567f245f27d668b074e42895bf1096ec876c3b"
"https://github.com/concord-consortium/rigse.git","1336","45","[a7646150dc3abdcaf1d94d70fd25f6a10033938b, db613d4303732eb4de300a624de483e79cb5becb, 9066ec01ea845b65f7670c1c3b99c096f8e7caa9, cb875ac0a243011787dd407b9fb0566d2c693f42, 8195ee04425254e30a9807f6c5a009242eaec433, d3bc3e2acf1fbcc623aa72c5f725a67d7f2c84c4, 0fc34346a021cd5708a3430589be35fb489edff7, 38d4dcef596d793060dc6ef8f6e8f848db3c4150, 04ae5fd86525bb4be07fa2a395d9ebef308ea150, 8fb77bb691adbc2ffe65aa1cc76476b2cca3c770, 4873ffe1bda1f19acadbde51ebabce712c349f19, de641345ba9696053f87e8bdffbcbe6ce9d83063, f68d23f0541df18ca2b81bb10f3ce86765c9de05, f1d382f07c650c39816484652a5cb72d4fa97855, af645c9af730a9cca03fe53cf4bc21b9ac2553ed, 3a25643ab1a8e3a95153aaae1e889a800ab3a7e1, 67f38131d6ff84b96c12b83dd66e0a1fc793e5b0, 2c110d5eaabd96fb62ed14d3f5e20e62838f614d, e16c72e16bcfa3be83ca441ce62d6744b195d16d, 0eefb7a63d86f32f33f672ce0754e8a98c87dccf, bd12eb65482adc38e0a061d0d018c03f5297bba5, 232f72b41ee527960ddfa5d79cf018d4a8f0ff66, 143c120c13581bd0d7cf4a388237ee1c53803794, ebb0562788477139a459e46591367f58cc064586, 64127498571009a31749d98e4ad10429f7b7a7e2, e5d891669ddf32417c70e95766cb06a487a25f05, 38ed85133563dbe05539e56a62eda1cceb98e30e, d5062ad038c625119a1c11bbd0dd7971d6e88f23, a562d9f0f21875a5476de04a4bc4b695eac8aa59, 75ecbc75b96a72406ddbf0c8defeb81ab91ac986, 9adb6a70331827c1ab7755077e84ce7f80b13c42, 9d80d8410cf2dd17a11301500c49fc6442b958c2, f2f5c697b39cfa04b232c45209b2d0053e84a849, 356ee34fdb029a75cea5942ed341efc30631fe30, fbb826768d1482154a4c6b620092a189eedda409, 9fcdea428887418fcb210e1ce5bb6b7577db3e29, 59f6f62f309a310badf1c718122901b00ccde82b, 669cd1631f9be6a7d1322142adbe305f442be774, 381f372d2f99d225c68bdb7afd6fb5e779a8e537, c6fd2008c7316e5344f597dac03a7aeff2c92890, 32d9bd022e1aefeb57dc86580bb246711324d2ff, 1a5d57bace51fa82930ea4758a3c398b4724a75b, f735a591887aebbcb7cc7409f121f29519ece567, d324def8e49b4e2511e31f10a122e401a43a8308, 94be5604e5b1827b28db4814ffd5340b8d76455a]","39","2","a7646150dc3abdcaf1d94d70fd25f6a10033938b","18d618ad9b4db0d46b0b1d3b4581f9d90c7ce8c2","8396fdbad23d5d77a20626f228f430410ad35099"
