"REPO_URL","TASK_ID","#HASHES","HASHES","#PROD_FILES","#TEST_FILES","LAST"
"https://github.com/otwcode/otwarchive.git","861","2","[a668c2d14e5c4cef6d41cb084b5c65d8e27c6f52, cf0a3325d7f1e23f5dce552dad49e9e96ea6603f]","1","1","a668c2d14e5c4cef6d41cb084b5c65d8e27c6f52","d5b11f114e13e23cded5ae37afdc1575b37b24b3","a50171ac5dc330c544d39a9b3d48714f6ca37e4a"
"https://github.com/otwcode/otwarchive.git","868","35","[149aa0947eb900d3858dbc0d232605bbe7c782cb, c4c05484f6ef7199c427cda6923685492ede670e, af581387cbd9d44511bada3c021be67dab96d0a7, 000d502763e78e864052f870c0582e486d928977, b0a8f35e2ff96adc7bd249ba57a22b9419204199, ffcd6fb4c440465a086a21f196987a88fdfb8693, 22d8a4a9cacf568ca06be7812c7475196b02217c, 858aad8cfb0be1c718b524ca1447f897c12d1af2, 19147f248b9c21ee76270fb0eba3619dbc29e355, ea026bb9f9b0c9b9be9d0044308e8bb323ca9794, bafba41cdd9de395d0c39deb79b9ea44bf62bbb0, 8f2330d0dd52851880b6124cddb16de1d4e4fd76, 830f052bae5172f9f0e5da58f82f774b46fc01e8, 08b1b8ad3419189f4718f05553e2df549815b230, 2947e8b286c9e4f8db2ae1c45bffcb55b1c7498c, 308bc6096510fad1b15803857d3f8e57f8c8f68b, 992b6aa738b7f607a7c74e61470632c73de45f00, 9ee3bc66ec25f0490d77281618e37171fc6238c8, 6b41824cf0452128e0ca526f2724a59b7a9f99e7, 1180e3662b77fe2da4c2dc95f8f5fb95d421d400, 0d49f5f4c18e6b1c1bafa3cd4305e727c06c2537, 7e409db9453cdb44770ea443aa90454b3bbedc76, 894a7b8fa5518ce2b15e909d65cd4efa7160e5f6, d08dec1d82fb0517de2b5da55bb7177be0b5f1f1, f04dc59a94fd32ec3b3cdcfcdfa72f988f156fba, 098dd023909bf6bfc0f14d3f2e19e130ca0524ba, 9db1f7554a23b79d6809c3b9f556c38752b48ecc, c6da9d4ed4616d46e4f6d8b4977943442a66fd97, 3e74dcebac3aa492bbff8a8c667146e22d262f9c, 01beffcc60c317fca70f91003d96d1fb9e6c5568, 33dc76ef42ca863777bb4aafbeea42970ec7a31b, 7f74e8e767181d3db460a4499d727ea63ac7d99d, 6260f23ded96484287988edc7a7cbf5b409d1804, b2d7fbe9ce3761f06f6ce4e11353201cb56013be, d3a928fecb75199fad9996ccb8eaf9e59600d670]","25","2","149aa0947eb900d3858dbc0d232605bbe7c782cb","b1c7531bd86d3df5e1e103501cd35dcc4e5e97a3","b8704233eae7267010604110eb0993264112ae8a"
"https://github.com/otwcode/otwarchive.git","874","6","[17777a8f81d5323d29a61e5018534ea272610d8e, 71b2ef9823862a1fe4ab1cb32ed7e4c9dfd15c7b, bac4b6c1a3a33a74544fc7d04025040e840916b1, 89a82113eaa92580d28d22faa829b4fab4604d7c, f6b100deded2d87e1423861bcdeb329f8697b3c2, df180681dc4072c74e0c8840b42d3cfb74a50647]","4","3","17777a8f81d5323d29a61e5018534ea272610d8e","0953f16535e0ddbdc6f799890a23b191d0d0f75b","c215055ec5f3c52f20f6d1321d1a3b5cc836a995"
"https://github.com/otwcode/otwarchive.git","885","2","[ab7e74f390ad3658afb28c07411657a1240be151, 9e0aae327805ea1031f24901d4993c3bee3acbfb]","1","1","ab7e74f390ad3658afb28c07411657a1240be151","cd5e25aef5c19d88b2b943ef128754efbbefabae","c215055ec5f3c52f20f6d1321d1a3b5cc836a995"
"https://github.com/otwcode/otwarchive.git","887","7","[1eb7e6f81a2e1d497f3baaf6f81dea77cfe05f3e, c0ad3ff347193d8c9092edc69fa94eb6d2940fe8, 6f009db733fdb712449992f71ba393921afaa832, 6f90a992d84989d6d0794737c3f4d006df7be916, 7188696d5506f87141b0967f83474c467f73fc5d, dbe0c06a1a82b3a18046af2c26342633445f6c07, 64132a0f2c45e9902e9d1eabf94c609f4ec44661]","3","3","1eb7e6f81a2e1d497f3baaf6f81dea77cfe05f3e","aa271bc13a73f29d3b280681781d04a9e068762a","1e28e3354236eec5c2023d0a974561e2863d4a57"
"https://github.com/otwcode/otwarchive.git","892","3","[d5df9a39ed36cd451f49afbc6e0c13d5b77d548e, fbf27e561616ac5c697989ff878caaf33f72f8d6, c1dc34a6a6943a275ede5272067db292e5afbfbf]","1","4","d5df9a39ed36cd451f49afbc6e0c13d5b77d548e","c215055ec5f3c52f20f6d1321d1a3b5cc836a995","cfd3c7d429ced7a0ffa5d1de494aa23af9fb04d3"
"https://github.com/otwcode/otwarchive.git","894","3","[111925fedc984e292e26010bb10276fb0ddccee2, 553b709f090c6af0e3eede260ce19149e8b42738, 68b14605cd31841cfddf204fbe7770696dd60fcc]","1","1","111925fedc984e292e26010bb10276fb0ddccee2","e5b348e1b1f47c1bcfaff3bb27932bf85ac45cfa","209f365220c38605713ea1b65e0a665b45b8ac8b"
"https://github.com/otwcode/otwarchive.git","895","1","[2741f06ba306d2e8e899803dece16377d7d4e7a8]","1","1","2741f06ba306d2e8e899803dece16377d7d4e7a8","f8e6d1933f51f134f5bfadfac5b1f075ac73d972","0542533a455c4ef5f058b691b37c90cdc2abfe03"
"https://github.com/otwcode/otwarchive.git","896","1","[4b53445741f1a4ad39356405eca5da10b551fe6c]","1","1","4b53445741f1a4ad39356405eca5da10b551fe6c","2b1a41a9bb52dc6ba57d2ff68d8d4fc1c0483b33","30de022111dde7f331c89d5862c9ee4d00df412f"
"https://github.com/otwcode/otwarchive.git","899","1","[d6f313d07b7a2339ab9329d920fa9abcc88af6ae]","1","1","d6f313d07b7a2339ab9329d920fa9abcc88af6ae","7b45f85091a6ab827229dc16ee7efd02a2049e01","e2cb7b394a9377e91fdddfe139f4d8e8e24c3193"
"https://github.com/otwcode/otwarchive.git","904","3","[a6c4c396520ad27d41fffae2f5578b52fd07b139, 9235e47966faa90daed3b814f5bbef754ad78f45, 4e01117660b30476b1a2a53b06bc949b3c3fc8a9]","2","2","a6c4c396520ad27d41fffae2f5578b52fd07b139","30de022111dde7f331c89d5862c9ee4d00df412f","cc937328b4ec0efc0bb035034f9b344058e026e6"
"https://github.com/otwcode/otwarchive.git","908","2","[58b742e6adbf935350bb3c1e12ef7d71e53d4d70, 85d488a35721dcf47af3ff03870ae6da3ae1dbc3]","3","1","58b742e6adbf935350bb3c1e12ef7d71e53d4d70","15ec4a5390baf06deb3da55ad45dd6cea8d65827","550475e23c204d99ed0d4a4222ffb7e0c6eff1f5"
"https://github.com/otwcode/otwarchive.git","910","2","[1d498928b8bee5b806417f0d075c6df05790c19a, c1c10ce04081a11373acd1f5a901de8c1de5e0aa]","3","1","1d498928b8bee5b806417f0d075c6df05790c19a","5588a63be8ce9732c0e8bec54ee592cf971d959b","1ae235bc1e7d135e2ee4f7300289b730e3874a80"
"https://github.com/otwcode/otwarchive.git","917","6","[97dc2d8a153178841eab26e51107f631fb1f65d3, 9aac889d75861c82f36133d5740b6f24ab6fffab, b0017d46f991cd56d35a7b1e24a845696b7c5641, 7c61736b2a5043562d5717511bbbc6092b51e546, 9e15082b66ff2fa963e1cbabc38d9a449b74bf7c, e0bf0e79f49157d81343d82c2d85da62456253fe]","9","1","97dc2d8a153178841eab26e51107f631fb1f65d3","5b2042f74dccf1b3dc978331543698a7317533f8","d88c20398b0970a747002060ceb491161d47c9ec"
"https://github.com/otwcode/otwarchive.git","919","1","[a9d438ed2b6ce4e3109c3af7eac0efbdc1871cae]","1","1","a9d438ed2b6ce4e3109c3af7eac0efbdc1871cae","f8f5a28fd3c1ef444e19537c39802eb5ff00e818","7b89b3dc9f36c8ea9d840bc998cf4f4fa04401e8"
"https://github.com/otwcode/otwarchive.git","921","2","[3677d6328488af30dea3c4aadb4bde952e0f02f5, b122fec68c1bcb510b8d247ace71a2f78813200d]","1","1","3677d6328488af30dea3c4aadb4bde952e0f02f5","e65a719ce7c7bc7a128d5622d72a57af15b0857c","2d8488fc912e4db08851bd7dde084cfc884d87ef"
"https://github.com/otwcode/otwarchive.git","923","4","[35aa5a4ac58ac88c29da5998dbadee9dca4bf7b9, 8afa5e8f9554dd7257528456a26b3d0229e07ef8, c9b11b9e6e6560bb82a2280dacf269078b74833f, 10145e6b8442f5f3b47239579305d6a52d950f53]","15","1","35aa5a4ac58ac88c29da5998dbadee9dca4bf7b9","df0b813723a6ba4d2bf95f14a1f8e4ac1f95e1c3","48c0868a98666d089c2492aaaf997c5062e280d4"
"https://github.com/otwcode/otwarchive.git","926","1","[20bd8556d5bb045c7c9ecaf6f3c13675cf6d0857]","2","2","20bd8556d5bb045c7c9ecaf6f3c13675cf6d0857","f03b3e7e6dad92b3201b785f65f593bdc3a5527d","24c38b70d3e20e07074245079867cf878252f1d2"
"https://github.com/otwcode/otwarchive.git","932","3","[6159249946d87bbf9f38a2c20411873739eb8b1f, ec941cecb00b14b9ccfeef28b314da02a81455a9, 1afe07c4863e5d2c897ff0d389d85e4ef7ab8770]","2","1","6159249946d87bbf9f38a2c20411873739eb8b1f","fa6d3ef0596720fcdb02b4c88e8107651e94559e","c333a41f5288bcccf5012190918084c1265e5629"
"https://github.com/otwcode/otwarchive.git","934","1","[c6a2dcaa02c3db7090dbda32a247c8bdcae065f6]","1","1","c6a2dcaa02c3db7090dbda32a247c8bdcae065f6","aa5983a8a8176f6f8571f7fb7305f8c675e6dc9c","211a9054d11acf1c7294f68fc6b486e4b89e387a"
"https://github.com/otwcode/otwarchive.git","935","11","[366a387e123dbf4585837b131831e87eeeb8843e, 1e7da771fc73bdc2cd1af8670a0903416e8425ad, 7a4d6edad9028f41ee5508919497d9c3fafc0f2b, 96f4522563eb0247d305d4491c833f847ec4df3d, c9452ffc16fadd74d9b344488efc552b1ae9e33c, 6757251770c8264975e97fa9c331b862334e80e8, 531e460c46da11753d51eac8c3886abd3e5bac38, 84c6b0de0cd895c682fcccc0d17ae1affea76c1b, ed5a89600766f6af222f86277e48ac5d6ed4fd65, 754eac71b98a81872b790624c78146526e8e34b0, 6e36eff79bca8d5a20783fa8e0eea6f528c52ae9]","2","1","366a387e123dbf4585837b131831e87eeeb8843e","187db2b01c920dc6f23399dffbe08a77fdf89584","0ce0ef994fabe90de801bcd18bf1a67fdbb961d9"
"https://github.com/otwcode/otwarchive.git","940","2","[d284bb04bb0f0d25fd890e69d3410fc8335de4bd, 99833fa3dc5b323a2bc56e2f9bede0b0d3c4953a]","2","2","d284bb04bb0f0d25fd890e69d3410fc8335de4bd","13b49984a79f140530cef4768635b9f8e9aa91a3","878d1ddf57c3061a04a6598b752b414a7fee02ed"
"https://github.com/otwcode/otwarchive.git","941","2","[3dcd5c85d6ad1966c71ee6794b2cbe24ed427af7, 1db35a73badc098041fffafb00c35c3c392b4563]","2","1","3dcd5c85d6ad1966c71ee6794b2cbe24ed427af7","8e23777c65795557831b6caa3fbdb562e81319e6","806221cb7442a771b5688850d2f2917dcaaa5224"
"https://github.com/otwcode/otwarchive.git","943","7","[c3d384ca126ad6417eeab1f6479f02be9ff3c388, 47c00d4b5401cfb2e5b8e5730a74a7216cd12e3e, 9c0fe544b6849f359c03897631597408c5b80e49, 75ecd8cd1f99279a35df886ba9218de20acaaec2, adce7066cb56298ed34ab41a5965c889ea9166d0, 74aab2db0a6f53c4f3ba0640cc1e07aa19228589, b57344057c6cc1a68a576571ffbd0886cc1f20bd]","2","4","c3d384ca126ad6417eeab1f6479f02be9ff3c388","bf05eedbf3f0e6b37c50c55ff9a75b46d08ef0b9","5b34fe047bc8d5d1c96ba07e5e094a0dd636e14b"
"https://github.com/otwcode/otwarchive.git","945","3","[41a78773265b0fde9b9a2bb7a33d8b46387f1d3e, bacdc873450c35441a9fe8d889d8c6cfa718ea25, 394bfbc1126fe2eac3398da26d89f6bb92a9c4be]","1","1","41a78773265b0fde9b9a2bb7a33d8b46387f1d3e","7913520423dbb16798cf479690e83fc4ce380118","806221cb7442a771b5688850d2f2917dcaaa5224"
"https://github.com/otwcode/otwarchive.git","950","3","[aaaf72309b2d8b48ba6387378b3ad669fb0f7304, 47446611198590dc8029d50b0936b5ef507f6b67, ee82af652766d5a6cb5cbfec8644e0c2aa81731a]","1","1","aaaf72309b2d8b48ba6387378b3ad669fb0f7304","b6580e7a83ca5130903780804910b20b92cf6cbd","1359831e039e3787754d9cbb9bb7f50ad8aa186b"
"https://github.com/otwcode/otwarchive.git","951","2","[98f9dbbbb532db3b2be779eac801ec5d443e99f6, 211a9054d11acf1c7294f68fc6b486e4b89e387a]","1","2","98f9dbbbb532db3b2be779eac801ec5d443e99f6","4f21be493d6ad0dc12663d9d282855b72946b501","1ac6b89cd5c82bf0574b706c37750f920b5a8a09"
"https://github.com/otwcode/otwarchive.git","956","4","[b822ca1282dcc4b463e5c8d09e14d8f82072b720, fd6f148a938e514cb3cbd2d1e700a5cc62890218, 31568cca9ea0b33da4c8e2867c03f8da80b63f8e, 22cf5890550b3504f43e5005d689f6288b66a5d1]","1","2","b822ca1282dcc4b463e5c8d09e14d8f82072b720","1ac6b89cd5c82bf0574b706c37750f920b5a8a09","019bd95a128f406ca31baddcc6c06e77e159ea9a"
"https://github.com/otwcode/otwarchive.git","959","4","[bc7663b4f679130f52cab0e21a1ef0aa22ca8ff3, b79101a723abfb362ca1ba61998d72c116884495, e2400e72474557b2cfef20395e02dbbfc458adf0, aec2092b821fb924cd548f3cbbd6f41ed48b58ac]","16","1","bc7663b4f679130f52cab0e21a1ef0aa22ca8ff3","2a4cba558b6c755dbe90200f6c61f1d9f779a57b","6edebac3e79c2b24d1d19e50cb08f48cd00aa9dc"
"https://github.com/otwcode/otwarchive.git","962","6","[7717e0e81dfb7fe1e649881fb2a54a7831257c75, 71bd531bf01ea946a6cd0a81e88ea92036fb415a, 7594dca2d7bd0384f0f73680a9b0efdefd82776a, d3aecac44664e87ec372641ed3b530908859425d, 32ee51e86e09cd34279cb3b7ec30d7195e38726d, ba668b903707677e9d037fe7263af351b01ccce5]","1","1","7717e0e81dfb7fe1e649881fb2a54a7831257c75","f0cf0e7dfbcf5960b56dfd23294eb491d7a42e27","ee00060ae73e77de1ceeee6d6e14f31b2c52640b"
