"REPO_URL","TASK_ID","#HASHES","HASHES","#PROD_FILES","#TEST_FILES","LAST"
"https://github.com/otwcode/otwarchive.git","665","2","[c58edf86b78d52e3198201bfe3aa717d77196c82, b81b26476b27455041188839f00bc6358992d61a]","2","1","c58edf86b78d52e3198201bfe3aa717d77196c82","8de48117ed7ae19e189de8071c13a31cd383a4be","bff78a877a91e9571759e3463b2a9faf71db35fa"
"https://github.com/otwcode/otwarchive.git","666","1","[aa8a102d95e4d732a3f168444bfb23d3b1dae48e]","1","1","aa8a102d95e4d732a3f168444bfb23d3b1dae48e","8de48117ed7ae19e189de8071c13a31cd383a4be","5454d4a5ce01aca8a207e0624c591a33d4c94574"
"https://github.com/otwcode/otwarchive.git","670","10","[21781caa57e881e714cbf993c5e676dfbb8cc504, 4b4f79e50696156a84e0ca75e59f028b62c9b92f, 9ff29092007eace2b6ec819a0f0c03809150d7e7, dec6e6d6230af9d4d17ed03143e6a26b748e766f, 6f3b7cf611d651a69332a57175c4dea62879a727, b6020c4d539483378ec7b77c29217c7a3a8b72d9, 499fd8869e933d6269091c5ff131cd33e5bfe87c, 9c4f1282b4eacfb81e3fb5ee6e48030bd58c2291, 1feaae2a16a8e6c4a997c37b8b9ab80d87d62c92, df40f9df96aa556433117788767dbdf46ab76d6f]","6","4","21781caa57e881e714cbf993c5e676dfbb8cc504","e9f051b0df8cbab9626c28f46246fcf679ff8c21","c586af7df09563a05746867e52c7d118ce067023"
"https://github.com/otwcode/otwarchive.git","675","4","[4a0fc88353a7e2649fbf9fd13f11f77858b875c6, 7baa634f0967277a28208fbfc78a6015c832ff8e, d917819bcc10e0abc2e05d3d0433fc57548659ff, f73080ce3cd2d118c4cca984f383a92caca7b4ef]","3","1","4a0fc88353a7e2649fbf9fd13f11f77858b875c6","2231bec5c0273bbeae315858a79317477f4f81aa","8187dc3e5628e35b4008e976de0d0d008ef7f23b"
"https://github.com/otwcode/otwarchive.git","700","7","[ca614be7ca7d98ecd6b0660cd225381f1105616e, 345621adca173e3a87ef19abdaafde5afd34f2cb, ea212894de02e73973484ca56b8665a53f26c1ce, f8af7a5d87c06daf06c4a3300bcc7b8b53e8a800, 58ae676251c22107f8864ff10ffad87ac7c2028d, b77d1a5ef5e18f041be3ae3eb11e7b680faf6245, 957e8d05f32f4202d1e44f9314557fd4e41561b3]","1","1","ca614be7ca7d98ecd6b0660cd225381f1105616e","5f922d55974af305a8bb1dd3e72ec6c01b8a4060","470a849fc66e1d526b93a12090894cc0e624ac64"
"https://github.com/otwcode/otwarchive.git","709","8","[85298fd15b0eb691873ae2612462a6b472444f24, 4ca9104951dcd7f1894f83fa82f9a12e49a34132, 7e8be7a51dc18f666d996691c030be739c6797e3, 7458d020e4ebae79c48248e650623236c38351f6, ad4fdbc3c758e69baec275b6f0f085935e508c34, 71a7b8d193fca59c6d536825def1a51a1b17e08c, 57534ba6f8cb6ab6fc8d3b9f63081ff22469fa20, ec634eadf5c016f6fc29f4ce861d446be57a69ca]","2","2","85298fd15b0eb691873ae2612462a6b472444f24","e771cad335603cdefabd62a2f2e71d9aba3ead9e","89674d6d1bf83b557146f7d40b5d025cb5475784"
"https://github.com/otwcode/otwarchive.git","715","2","[f583fee065b7c929e143e84eb81ff5a612a2dd49, f219cdeb1e0e8d41c530a877de70d4fa98eeb224]","4","1","f583fee065b7c929e143e84eb81ff5a612a2dd49","23eb391eb1f4995898a0332c0d35637f5375061d","e45516a9400a0f1d42ed37006933cea96c031fd9"
"https://github.com/otwcode/otwarchive.git","731","5","[6b2185211fc910f76fef02f973425f5060075bb9, 9b56e41840b0ebf9df9d9798ad09569490df6a56, 3778a81b53c1eb982393f3f77b1c04be5ddd344b, 646beb53cc443ed4d52e84c4b3b9faec5063b8b4, 0c4d58ee1047804ff242b371c76f36f5327c02f6]","2","1","6b2185211fc910f76fef02f973425f5060075bb9","183f76df8aa926fc8a26ea24922ac9e8013b1038","e1d2e9a3f89b65be3670b81459b1ff89420bc9bf"
"https://github.com/otwcode/otwarchive.git","735","6","[9b3265010aa92e16739cb921ac5983b367679b95, 7c35bd22aef427b7a95de5f02a22fd027e3fcf85, fcf06f1df967ce193b98ec7688d08a2dd6108627, 09356d591d9dff1eb02b7df4ac5590cbc7c194af, e1c2578c28df0302eaaee51fb99c7a4afd5a657b, 2e9063592d2e0fac0d649ceb2dae5ce2ba37f852]","1","1","9b3265010aa92e16739cb921ac5983b367679b95","80de5c22756b95a8dfc9bff8d10f26b583e3e406","e1d2e9a3f89b65be3670b81459b1ff89420bc9bf"
"https://github.com/otwcode/otwarchive.git","740","1","[1c09f7e97140a237271e3968fcefaeaa6f8eb147]","5","1","1c09f7e97140a237271e3968fcefaeaa6f8eb147","ad92811931e9241475e78e26756bee3fafc7e031","29347a253f7c5a0cbf73e0e45dc87265ba9c2b92"
"https://github.com/otwcode/otwarchive.git","745","3","[062cc52870e8a11bf88eb94ba85cf3244ae77e5f, 611b33d78b11c6c7545dc3b71a6bdf4c42fa73e0, 2434df1908b24f44b8f91d12cddb18b46fb0ec58]","1","1","062cc52870e8a11bf88eb94ba85cf3244ae77e5f","f40e6c2e678b85c7edab6b2b1ef26a40a6b134be","070c94e92a0ea638f9f3f50dbd4c9c32f56415cb"
"https://github.com/otwcode/otwarchive.git","746","1","[b1d71f2cbc0b96a441381e9be966058d87f93b1c]","1","1","b1d71f2cbc0b96a441381e9be966058d87f93b1c","b3a6cbdc4502717613ab5ff2d993bf5deb2334a9","a952356bb8310b76412a2b61f21b0282dd3bcad5"
"https://github.com/otwcode/otwarchive.git","748","6","[f3c637e12eb29c0eba65e05d8c23c909f5fbf4b7, a14f3263550764968c410ad0244455a40dfb3a80, e25c18a308602fcd672351b6c3300aba8f298d07, f68f1bc6edf381797825527035860a78eccd0c5a, 8ce73096d47382513c2fc1f00acb0ac6ae13058a, 203f8b70c2d139deb566c364f1d3990f8737d16d]","2","1","f3c637e12eb29c0eba65e05d8c23c909f5fbf4b7","4657d05e5f304e43a393d505f16a84557fd73e93","fc2934debd132dcd7ee892642f32a1d6a8f8f725"
"https://github.com/otwcode/otwarchive.git","749","7","[8be49cf4e9ff38917eb793cedf9d36c6d5dbcdea, 4367bd513719b7b9e69a0fc3df5931ba5ada72ec, 34fe64dd16143d7243f121798a8f6a92a927c303, da94fdfec9fc80c38eb5df9e8a8b2d549e95c8fd, 89d803782b861e5a641c7581a53cb15e351dcc14, 756b9c77da2cee5744c8bc2d7879dae40cfa3967, c6668ccdf2c36013aa0492c1bbb1b7e6e37e0b8e]","7","1","8be49cf4e9ff38917eb793cedf9d36c6d5dbcdea","fdecc601b0c5ca8a5e1da301a8a26bd6dad5400a","892651a1270eb33c73113286c9862446a90b9823"
"https://github.com/otwcode/otwarchive.git","750","15","[fc2934debd132dcd7ee892642f32a1d6a8f8f725, 1b9e63932bc8faa7e40bb4ab50ac44ae7a89b8cd, 6723de0914f0e57375fea38a8a9df4f77c3438fe, e109d052a1e6bac384798035e12e9272835d9cad, da4c2881f9a7716ec000921e217e97a8779940cf, afc559aee2de5d6ace117876a54d735451183f30, d973aaa8fe6133f9b581ae531bf184225b58d12b, db20813a79ffeabeb476b1c0e92242bf2946287e, 00bdf9eda58d0ade9b2d368df9abb7c5efb5692f, 17a88fb878fc05e55c9a0720928c54ce3181571e, bc05f4912e34b40a9231897a7cb46bdee96b3ee3, a952356bb8310b76412a2b61f21b0282dd3bcad5, 08dd8c7a3f613d17efa6f223a67895d6b95c1783, 402bbe0485b85eed2bea30350396974b744f6298, 35a5d4a3b94b60c7f4f4a43725e45f6cd77a4b2d]","3","1","fc2934debd132dcd7ee892642f32a1d6a8f8f725","fdecc601b0c5ca8a5e1da301a8a26bd6dad5400a","8a1d29fe245d80941e57fdfeae89a68630c48aa7"
"https://github.com/otwcode/otwarchive.git","761","3","[7a270bfb6085cbcd623feb41e8b49440ea621e56, 877f246310d67b9041016a0ac4416c16ea464d41, a7b693a95f112c6410040b7d74a60bb8730320b5]","1","1","7a270bfb6085cbcd623feb41e8b49440ea621e56","d6735490bc10e6807166d886d28cfc8e2d7f7e11","0aa01010e2c6e8584b531bc494db76fc9eedbd66"
"https://github.com/otwcode/otwarchive.git","762","3","[2739804a69e3a64a240cd6e5df25dad92c46c76d, 1a95f4dd69cf5cf7e5d43425cb14b0e35a180f44, 94f0ddb7ef857b51594e99ad689f609805c99dda]","1","2","2739804a69e3a64a240cd6e5df25dad92c46c76d","3b5c8a4f880868150e426183491517e29a53f3ac","77515786f9ddf1cd0d55db5bb2408212e10a3a9d"
"https://github.com/otwcode/otwarchive.git","767","25","[1bd323761efbd5326cf8c10d6f3c554e4d75cab8, 90ce7a9e8d0ceb2a94eb28affd6de7f08a67c37b, 671931e66f5a650d8e70d2a3c5aa486fc0142cfa, fecfb6178a90ec88859cfc7e3d250c90fab03ba4, 17b07b7329f53f3dbb6abdee3e6db10d27cca99e, 4ba4f259a94370b9621b600621ae082d451b6325, 18405cd70286c126ea49980d9a15f7948edb8793, 61a55767763db15c30292dccbf8b8b9477a6092d, 4492b23c89ab49c24512d2f4928321ea48488efa, a801fa159efeb72e57e22b5e4c3b473856c45ae6, 63a34fbd966b11e67f580443ceaa8dc1c6304192, aa573206cb1b73ee7af6f9f361e14a45c60f8a78, fca363f848f704a525a7ddb25196a1b36438d508, 1c7e47e0431c6af73379a299be5ddc7c7f140708, 02d6d6e370521590b8813cdffe3884ea78cb7290, a812c6dc08002c279ad815b9086550b9d6e9c20d, 55fb7e8c81d532bb0d72fc84352873ad8111ffca, 2318e5d676b8b57049d6a268303388ce01b31def, 29d7eb19c136072caa2cb651b77d9027439aa133, 8e120df2a99b016841ffb04b1d2bad33d0299fa4, 350b15c6646e9b2470800bc5cda59553084c4914, 8078729e57286a0bf86f05d0a117c5ba2c7656a9, 4c01a3f3831030dc5225ba945676fbcedc05f78f, d0253021281f53730216b77f5f6cb8576d70558c, 6aa76bbfd345dbae76c0d2bacba1523e151993f7]","2","41","1bd323761efbd5326cf8c10d6f3c554e4d75cab8","cfdafeb4aa4540fa40d5cc59958b0637bc1ec0fd","f3439da9df2acf86f5670cdee5c66c72f68e6d39"
"https://github.com/otwcode/otwarchive.git","771","8","[2d7af924e5a40a2c5e69922e66b266317a236a93, 88d04b23040a168970e58c4ebf58f0a9426e2f16, d549fa5b019c3ce7d6eb321d73b7a8c624bed588, 11d5205f179c542b03c994c674648456574983f0, 2784b6c0481058310d9bb0342c00d617893b0be6, b0932fd72828d85495d80d561b6bc8daaf325b0c, 0a65e37f29508b921151a5062cded518ecebf61a, 31274c85ad8841af57d0365bef054f0208c7a53a]","4","1","2d7af924e5a40a2c5e69922e66b266317a236a93","8b413036b628fb61191fd62231547ac4d2f000e1","abf710d86ad01fd2d16d85deb8742425b4957dcb"
"https://github.com/otwcode/otwarchive.git","774","10","[4fb604ba911c92b1791b2c11a4d23cb1c3c1406a, d5e2a8a2fc8923e980142fcd11979246e69243a9, 7d7fba3e3ed5f46ace9efce39b102955bb92f726, 74b7e800b952d5de53207c327268b9f8ce072847, 243e7ac3ae0ebe4ba547ae1a76ce888d182969e5, 2b6c1110b1cb5c8be87ffc36c271a061256624e9, c287c9b46afa6811050e7f95adde635c247a26be, 743ca841440a8809696b2a6431c349b94895a544, 2be9ad89d2812fdec3ce1a8ff71f80958ee014b4, 1f82086fde90b679cdc62a686a31645a3a576491]","7","1","4fb604ba911c92b1791b2c11a4d23cb1c3c1406a","abf710d86ad01fd2d16d85deb8742425b4957dcb","362496cc4f1d873f762743deddab2a3643791f08"
"https://github.com/otwcode/otwarchive.git","775","2","[abdd209bf2c9e161278fed6bf1f1380b6d824556, 4c3b4592ba747341f6c6869544cdcba6e0a2e8ef]","1","1","abdd209bf2c9e161278fed6bf1f1380b6d824556","26d8d3bee5cef42f47d684fb683a098b04441b30","f8f5a28fd3c1ef444e19537c39802eb5ff00e818"
"https://github.com/otwcode/otwarchive.git","794","2","[49ad2ef3149b4028c3f73817642511447252d62e, 73689995bafc89930b2f67ffa7bf94007f282a4e]","3","1","49ad2ef3149b4028c3f73817642511447252d62e","7ec176cf3f13ccbf0fe05c8cfdf0416197d917c5","3537b0c9f9e82090a4b3c070820ab7e3e1bbb921"
"https://github.com/otwcode/otwarchive.git","803","4","[f91eb3b8d60579e0052f8e2e98dd90230d6efb70, 0bb0b3cfc9f9c91038f2541462913e77152ab375, a4f45ef6b4ca8d4e695ea13954dfac9e9a5427aa, 98a49b5479462aeef452d225b5cced9ebed671ec]","3","1","f91eb3b8d60579e0052f8e2e98dd90230d6efb70","6c02a34814db0e2836c4c4e06bd5ee28a43cbb01","f1dbaaf78091e6cb80845616a46d062cd14639d8"
"https://github.com/otwcode/otwarchive.git","810","15","[cef8daef010b6761aaf2c65ab6da102c55fecfa3, 777899b833176775a6325bfe113292b11bb5f591, 760186081151314664fe4bb0e87d352d05c8161a, 2ddce7ff5cbae3e0506f179ab9b1a722cb1df121, a06745975794bea125d7f90ecb1b0ca755153588, 0c06e9199a67efd7a2576802a0c324c7a72363b1, ab50f5a9e915ea1cb7444af3162b83fdd345ff23, c847aae5e7230fafaf8cfc02dba50918efc61125, 6d4028f1e25d7bd3589562b1fef7dc21cf35266f, fda4d84be0cfb0a07dbffe57fc4cdf09035b9148, e5f934208050399de102818a8cd2dd37328d9021, 743d72171efb4691bec055271371da19b98fcc22, 19b0bc725c9555e962c44db044be864cc0841244, e9899eaf92001c996fad460bd6ce6a655b57ee37, d76649b58e53ea0905687f91631a8f2f6553355a]","17","1","cef8daef010b6761aaf2c65ab6da102c55fecfa3","833144131a4f92427cc03525f90de8844fb03754","cfd351fe88b14ce8ea5b8b500ab687fbb11c6f82"
"https://github.com/otwcode/otwarchive.git","814","17","[e6d0d7441910ed610bb5409b867f68842aebfae4, 2f829974a28d4a4af0237e12f5af1ea7685f0861, e9b2a008e393a4c797d1955c7fe56cea45761f90, d1f8b99231b7b4587d23b344c18f1604431957bc, 53ac2619c651a1a6bc5bdfbdf919eb4a3979380c, 37367ef5d92bdf011106f402784a39b64a761049, 154e3087ce682ec3a965d443b3ee4ddf5c630dc3, ccfda3a0a878fd7fd68532fdc0f877664926da56, da62d29033e96444a729e7bdd120fee2054ee143, d017a9e5b2278cef8a23dedca0129afd4b96d5c6, b8a578b1e9f2a8c90c06f9e485f9a3b82b5a4efb, f4d5a087978e0a18567e48fae7d8ebaf3ee72e8d, dbbd78f6fa60a599fed5e6ce5e3e24c9c211bd80, b2810c22023e00c608cd06268318f90004a26183, 90946943aaaf0a1e2ce82cdaf26078c72a02a50a, e4f92ed4de863e60ca83ed190317009f99d1d107, 0f88b2117324fac590acd0ffaa6452791d8a09b1]","10","6","e6d0d7441910ed610bb5409b867f68842aebfae4","cfd351fe88b14ce8ea5b8b500ab687fbb11c6f82","b1c7531bd86d3df5e1e103501cd35dcc4e5e97a3"
"https://github.com/otwcode/otwarchive.git","821","5","[41c37d0d45e9e0f855eae3a1fae63da1f163c7f4, ea576e8a55ffc44ead8f5cd05776289bb49bae59, cf316f74d11280596900fb9d69f053f77f5b937b, e020bb85de8d516debacdc5241ef19475580edc7, 084283a19fb6e32b21f013bddf67641e84966450]","14","1","41c37d0d45e9e0f855eae3a1fae63da1f163c7f4","41d32d901e57db2f2d50a64453ff9365defd3a0e","38749f225b3d16e5e2cddd3aba184785cb741b1d"
"https://github.com/otwcode/otwarchive.git","824","6","[c5df03180c513456b7ee8c9ed387d67e07e1bbac, fc5994cff3e06b3d4472332b9e8bb5c05b5256dd, fb6f9e7d86817fb970f3cd1683b67fd53c793e81, 8a4a39e232ec9c6c87b003e2d157bd511ef6e716, 3a050b667dca3d2e76c9ac2d0347c1f416faacaa, 12e4e7b0b09c58503c02d7c0049dda9bc2c50608]","5","1","c5df03180c513456b7ee8c9ed387d67e07e1bbac","f1dbaaf78091e6cb80845616a46d062cd14639d8","f584b4de80b1e82a2bb94b7c365e7e674d85e958"
"https://github.com/otwcode/otwarchive.git","829","3","[50f9689ec8093dbb98f83b177247dbac092b54dd, 5d15154faf43eddfda0bc5b0943a794fcd0b7097, eefc01daaa6f6227307bcff7f9885274ad4db771]","1","1","50f9689ec8093dbb98f83b177247dbac092b54dd","5b0c76167c44714e88a1ec24c5eaf22b19c862a1","3f1f6eb03036db268b81a58c29cbee22b37e29ed"
"https://github.com/otwcode/otwarchive.git","832","14","[be6ce46bdd63e1fefd83a9e8f32f88fd61839dc5, cc0554bb9af5cf92bc38859011a248d1eb5f738d, 585f40d46a481e441c32c76d44a3e1d6e12f452a, 92c4fa6d813fb036721952f0addca62a7765f04e, 47de07e05c281cb552009356d7df72886a871249, ba6fee6006d9c8c318c526ca8d716b59529dae1b, f99907f6267f27e530b0ce7ae299e2aee38d3413, a2afbe48648623bf2d4bcb6ee3eb34ce73e7752e, 6b6bb0998d769b9e9d6999c9fd61c71a15a5a51e, 4827d4c825028e1fe13dc8344f84270fe90121e8, 77055256c7ac5a105a31577ed373697b523f5018, f38cc777726d7102cbff690025ca7958840951c8, e92c66dd5513fa6fbfa3adba3176fcd3ed515e20, c446fc1a15e1f4cd22223045e0b2013b2eb90a1b]","3","4","be6ce46bdd63e1fefd83a9e8f32f88fd61839dc5","3f1f6eb03036db268b81a58c29cbee22b37e29ed","1bf50332e67f965043a67b1d22f424d5821d75f5"
