"REPO_URL","TASK_ID","#HASHES","HASHES","#PROD_FILES","#TEST_FILES","LAST","MERGE","BASE"
"https://github.com/rails3book/ticketee.git","1","7","[16ee530950df3b611a8e83dd6007a3a65dcae1a5, 6b5848076c027e05d26dfda5bb4717adcda885ac, a9cdde9c079da55a64c3979314b310a9d33a1d5d, b25c3fc904c837f565cf992d8d39d46c762587cb, e2696b76792de24ddf2e5eba8dcfccf96234610a, d9c9d189699f04c362e21ad6f6f62fd78aced9c4, ed23fce8e8cffee12f1d64f74a254d6f5d02cce9]","8","1","16ee530950df3b611a8e83dd6007a3a65dcae1a5","691bcf9308e01a56f9399d10d47d68f268397dcc","dddeb7379fce420b4c92bf79d443149a526ba7c8"
"https://github.com/rails3book/ticketee.git","3","7","[dddeb7379fce420b4c92bf79d443149a526ba7c8, f9fa156aa5548a8633cfc57023ddc612e4cf52c1, 0f3d5032e0c8c7543c990b3e1eefa296957868d4, 719fe92e28b5c0832bb213236e6be2810382f7b1, f1f219abf5b78e0cb5b283b82b523fe6daf4526c, 713299bea21a56c9d12dad15986ce6b021d7f52b, ea7109e8cfd169d95ffbf9f1fd25da14a6bc71ee]","8","2","dddeb7379fce420b4c92bf79d443149a526ba7c8","1b20400b88a7c8cb36e75c4363c5a7a026ab03ee","8c55a6d425858522a51929f71eba8c8a99e44155"
