When /^(.*) within "(.*[^:"])"$/ do |step_name, parent|
  with_scope(parent) { step step_name }
end
When /^(?:|I )go to (.+)$/ do |page_name|
  visit path_to(page_name)
end
When /^(?:|I )fill in "([^"]*)" with "([^"]*)"$/ do |field, value|
  fill_in(field, with: value)
end
When /^(?:|I )select "([^"]*)" from "([^"]*)"$/ do |value, field|
  begin
    select(value, from: field)
  rescue Capybara::ElementNotFound
    # find the label, get the parent and from there find the appropriate
    # select2 container. There are currently two dom structures in which
    # this can happen.
    xpath_selector = "//label[contains(., '#{field}')]/" +
                     "parent::*/*[contains(@class, 'select2-container')] | " +
                     "//label[contains(., '#{field}')]/" +
                     "..//*[contains(@class, 'select2-container')]"

    container = find(:xpath, xpath_selector)

    container.find('.select2-choice').click

    if container['class'].include?('ui-select-container')
      # ui-select (Angular)
      find('ul.select2-result-single li', text: value).click
    else
      # classic select2 (jQuery)
      find(:xpath, "//*[@id='select2-drop']/descendant::li[contains(., '#{value}')]").click
    end
  end
end
Then /^(?:|I )should see "([^"]*)"$/ do |text|
  regexp = Regexp.new(Regexp.escape(text), Regexp::IGNORECASE)
  page.should have_content(regexp)
end
  def with_scope(locator, options = {})
    locator ? within(*selector_for(locator), options) { yield } : yield
  end
  def selector_for(locator)
    case locator

    when 'the page'
      'html > body'

    # Add more mappings here.
    # Here is an example that pulls values out of the Regexp:
    #
    #  when /^the (notice|error|info) flash$/
    #    ".flash.#{$1}"

    # You can also return an array to use a different selector
    # type, like:
    #
    #  when /the header/
    #    [:xpath, "//header"]

    # This allows you to provide a quoted selector as the scope
    # for "within" steps as was previously the default for the
    # web steps:
    when /^"(.+)"$/
      $1
    # added second when case as changing the above regexp to
    # /^"?(.+)"?$/ did not work for some reason
    when /^(.+)$/
      $1

    else
      raise "Can't find mapping from \"#{locator}\" to a selector.\n" +
        "Now, go and add a mapping in #{__FILE__}"
    end
  end
  def path_to(page_name)
    case page_name

    when /^the home\s?page$/
      '/'

    when /^the login page$/
      '/login'

    when /^the(?: "(.+?)" tab of the)? settings page (?:of|for) the project called "(.+?)"$/
      tab = $1 || ''
      project_identifier = $2.gsub("\"", '')
      tab.gsub("\"", '')

      project_identifier = Project.find_by(name: project_identifier).identifier.gsub(' ', '%20')

      if tab == ''
        "/projects/#{project_identifier}/settings"
      else
        "/projects/#{project_identifier}/settings/#{tab}"
      end

    when /^the [wW]iki [pP]age "([^\"]+)" (?:for|of) the project called "([^\"]+)"$/
      wiki_page = $1
      project_identifier = $2.gsub("\"", '')
      project = Project.find_by(name: project_identifier)

      wiki_page.gsub!(' ', '%20')
      project_identifier = project.identifier.gsub(' ', '%20')
      "/projects/#{project_identifier}/wiki/#{wiki_page}"

    when /^the lost password page$/
      '/account/lost_password'

    when /^the groups administration page$/
      '/admin/groups'

    when /^the admin page of pending users$/
      '/users?sort=created_on:desc&status=2'

    when /^the edit menu item page of the [wW]iki [pP]age "([^\"]+)" (?:for|of) the project called "([^\"]+)"$/
      project_identifier = $2.gsub("\"", '')
      project = Project.find_by(name: project_identifier)
      project_identifier = project.identifier.gsub(' ', '%20')
      "/projects/#{project_identifier}/wiki/#{$1}/wiki_menu_item/edit"

    when /^the [cC]ost [rR]eports page (?:of|for) the project called "([^\"]+)" without filters or groups$/
      project_identifier = Project.find_by(name: $1).identifier.gsub(' ', '%20')
      "/projects/#{project_identifier}/cost_reports?set_filter=1"

    when /^the [cC]ost [rR]eports page (?:of|for) the project called "([^\"]+)"$/
      project_identifier = Project.find_by(name: $1).identifier.gsub(' ', '%20')
      "/projects/#{project_identifier}/cost_reports"

    when /^the overall [cC]ost [rR]eports page$/
      '/cost_reports'

    when /^the overall [cC]ost [rR]eports page without filters or groups$/
      '/cost_reports?set_filter=1'

    when /^the overall [cC]ost [rR]eports page with standard groups in debug mode$/
      '/cost_reports?set_filter=1&groups[columns][]=cost_type_id&groups[rows][]=user_id&debug=1'

    when /^the overall [cC]ost [rR]eports page with standard groups$/
      '/cost_reports?set_filter=1&groups[columns][]=cost_type_id&groups[rows][]=user_id'

    when /^the overall [pP]rojects page$/
      '/projects'

    when /^the (?:(?:overview |home ?))?page (?:for|of) the project(?: called)? "(.+)"$/
      project_identifier = $1.gsub("\"", '')
      project_identifier = Project.find_by(name: project_identifier).identifier.gsub(' ', '%20')
      "/projects/#{project_identifier}"

    when /^the activity page of the project(?: called)? "(.+)"$/
      project_identifier = $1.gsub("\"", '')
      project_identifier = Project.find_by(name: project_identifier).identifier.gsub(' ', '%20')
      "/projects/#{project_identifier}/activity"

    when /^the overall activity page$/
      '/activity'

    when /^the page (?:for|of) the issue "([^\"]+)"$/
      issue = WorkPackage.find_by(subject: $1)
      "/work_packages/#{issue.id}"

    when /^the edit page (?:for|of) the work package(?: called)? "([^\"]+)"$/
      issue = WorkPackage.find_by(subject: $1)
      "/work_packages/#{issue.id}/activity"

    when /^the copy page (?:for|of) the work package "([^\"]+)"$/
      package = WorkPackage.find_by(subject: $1)
      project = package.project
      "/projects/#{project.identifier}/work_packages/new?copy_from=#{package.id}"

    when /^the work packages? index page (?:for|of) (the)? project(?: called)? (.+)$/
      project_identifier = $2.gsub("\"", '')
      project_identifier = Project.find_by(name: project_identifier).identifier.gsub(' ', '%20')
      "/projects/#{project_identifier}/work_packages"

    when /^the page (?:for|of) the work package(?: called)? "([^\"]+)"$/
      work_package = WorkPackage.find_by(subject: $1)
      "/work_packages/#{work_package.id}/activity"

    when /^the new work_package page (?:for|of) the project called "([^\"]+)"$/
      "/projects/#{$1}/work_packages/new"

    when /^the bulk destroy page of work packages$/
      Rails.application.routes.url_helpers.work_packages_bulk_path

    when /^the wiki index page(?: below the (.+) page)? (?:for|of) (?:the)? project(?: called)? (.+)$/
      parent_page_title = $1
      project_identifier = $2
      project_identifier.gsub!("\"", '')
      project_identifier = Project.find_by(name: project_identifier).identifier.gsub(' ', '%20')

      if parent_page_title.present?
        parent_page_title.gsub!("\"", '')

        "/projects/#{project_identifier}/wiki/#{parent_page_title}/toc"
      else
        "/projects/#{project_identifier}/wiki/index"
      end

    when /^the wiki new child page below the (.+) page (?:for|of) (?:the)? project(?: called)? (.+)$/
      parent_page_title = $1
      project_identifier = $2
      project_identifier.gsub!("\"", '')
      parent_page_title.gsub!("\"", '')
      project_identifier = Project.find_by(name: project_identifier).identifier.gsub(' ', '%20')

      "/projects/#{project_identifier}/wiki/#{parent_page_title}/new"

    when /^the edit page (?:for |of )(the )?role(?: called)? (.+)$/
      role_identifier = $2.gsub("\"", '')
      role_identifier = Role.find_by(name: role_identifier).id
      "/roles/edit/#{role_identifier}"

    when /^the new user page$/
      '/users/new'

    when /^the edit page (?:for |of )(the )?user(?: called)? (.+)$/
      user_identifier = $2.gsub("\"", '')
      user_identifier = User.find_by_login(user_identifier).id
      "/users/#{user_identifier}/edit"

    when /^the (.+) tab of the edit page (?:for |of )(the )?user(?: called)? (.+)$/
      tab = $1
      user_identifier = $3.gsub("\"", '')
      user_identifier = User.find_by_login(user_identifier).id
      "/users/#{user_identifier}/edit/#{tab}"

    when /^the show page (?:for |of )(the )?user(?: called)? (.+)$/
      user_identifier = $2.gsub("\"", '')
      user_identifier = User.find_by_login(user_identifier).id
      "/users/#{user_identifier}"

    when /^the index page (?:for|of) users$/
      '/users'

    when /^the members page of the project(?: called)? (.+)$/
      project_identifier = $1.gsub("\"", '')
      "/projects/#{project_identifier}/members"

    when /^the new member page of the project(?: called)? (.+)$/
      project_identifier = $1.gsub("\"", '')
      "/projects/#{project_identifier}/members/new"

    when /^the global index page (?:for|of) (.+)$/
      "/#{$1.gsub(' ', '_')}"

    when /^the edit page (?:for |of )the version(?: called) (.+)$/
      version_name = $1.gsub("\"", '')
      version = Version.find_by(name: version_name)
      "/versions/edit/#{version.id}"

    # this should be handled by the generic "the edit page of ..." path
    # but the path required differs from the standard
    # delete once the path is corrected
    when /the edit page (?:for |of )the (?:issue )?custom field(?: called) (.+)/
      name = $1.gsub("\"", '')
      instance = InstanceFinder.find(CustomField, name)
      "/custom_fields/edit/#{instance.id}"

    when /^the new page (?:for|of) (.+)$/
      model = $1.gsub!("\"", '').downcase
      "/#{model.pluralize}/new"

    when /^the edit page of the group called "([^\"]+)"$/
      identifier = $1.gsub("\"", '')
      instance = InstanceFinder.find(Group, identifier)
      "/admin/groups/#{instance.id}/edit"

    when /^the edit page (?:for|of) (?:the )?([^\"]+?)(?: called)? "([^\"]+)"$/
      model = $1
      identifier = $2
      identifier.gsub!("\"", '')
      model = model.gsub("\"", '').gsub(/\s/, '_')

      begin
        instance = InstanceFinder.find(model.camelize.constantize, identifier)
      rescue NameError
        instance = InstanceFinder.find(model.to_sym, identifier)
      end

      root = RouteMap.route(instance.class)

      "#{root}/#{instance.id}/edit"

    when /^the log ?out page$/
      '/logout'

    when /^the (register|registration) page$/
      '/account/register'

    when /^the activate registration page for the user called (.+) with (.+)$/
      name = $1.dup
      selection = $2.dup
      name.gsub!("\"", '')
      selection.gsub!("\"", '')
      u = User.find_by_login(name)
      "/account/#{u.id}/activate?#{selection}"

    when /^the My page$/
      '/my/page'

    when /^the My page personalization page$/
      '/my/page_layout'

    when /^the [mM]y account page$/
      '/my/account'

    when /^the [aA]ccess [tT]oken page$/
      '/my/access_token'

    when /^the my [sS]ettings page$/
      '/my/settings'

    when /^the (administration|admin) page$/
      '/admin'

    when /^the(?: (.+?) tab of the)? settings page$/
      if $1.nil?
        '/settings'
      else
        "/settings/edit?tab=#{$1}"
      end

    when /^the(?: (.+?) tab of the)? settings page (?:of|for) the project "(.+?)"$/
      if $1.nil?
        "/projects/#{$2}/settings"
      else
        "/projects/#{$2}/settings/#{$1}"
      end

    when /^the edit page of Announcement$/
      '/announcements/1/edit'

    when /^the index page of Roles$/
      '/roles'

    when /^the search page$/
      '/search'

    when /^the custom fields page$/
      '/custom_fields'

    when /^the enumerations page$/
      '/admin/enumerations'

    when /^the projects admin page$/
      '/admin/projects'

    when /^the authentication modes page$/
      '/admin/auth_sources'

    when /the page of the timeline(?: "([^\"]+)")? of the project called "([^\"]+)"$/
      timeline_name = $1
      project_name = $2
      project = Project.find_by(name: project_name)
      project_identifier = project.identifier.gsub(' ', '%20')
      timeline = project.timelines.detect { |t| t.name == timeline_name }

      timeline_id = timeline ? "/#{timeline.id}" : ''

      "/projects/#{project_identifier}/timelines#{timeline_id}"

    when /the new timeline page of the project called "([^\"]+)"$/
      project_name = $1
      project_identifier = Project.find_by(name: project_name).identifier.gsub(' ', '%20')

      "/projects/#{project_identifier}/timelines/new"

    when /the edit page of the timeline "([^\"]+)" of the project called "([^\"]+)"$/
      timeline_name = $1
      project_name = $2
      project_identifier = Project.find_by(name: project_name).identifier.gsub(' ', '%20')
      timeline = Timeline.find_by(name: timeline_name)
      "/projects/#{project_identifier}/timelines/#{timeline.id}/edit"

    when /^the page of the planning element "([^\"]+)" of the project called "([^\"]+)"$/
      planning_element_name = $1
      planning_element = WorkPackage.find_by(subject: planning_element_name)
      "/work_packages/#{planning_element.id}"

    when /^the (.+) page (?:for|of) the project called "([^\"]+)"$/
      project_page = $1
      project_identifier = $2.gsub("\"", '')
      project_page = project_page.gsub(' ', '').underscore
      project_identifier = Project.find_by(name: project_identifier).identifier.gsub(' ', '%20')
      "/projects/#{project_identifier}/#{project_page}"

    when /the reportings of the project called "([^\"]+)"$/
      project_name = $1
      project = Project.find_by(name: project_name)
      project_identifier = project.identifier.gsub(' ', '%20')

      "/projects/#{project_identifier}/reportings"

    when /^the quick reference for wiki syntax$/
      '/help/wiki_syntax'

    when /^the detailed wiki syntax help page$/
      '/help/wiki_syntax_detailed'

    when /^the configuration page of the "(.+)" plugin$/
      "/settings/plugin/#{$1}"

    when /^the admin page of the group called "([^"]*)"$/
      id = Group.find_by!(lastname: $1).id
      "/admin/groups/#{id}/edit"

    when /^the time entry page of issue "(.+)"$/
      issue_id = WorkPackage.find_by(subject: $1).id
      "/work_packages/#{issue_id}/time_entries"

    when /^the time entry report page of issue "(.+)"$/
      issue_id = WorkPackage.find_by(subject: $1).id
      "/work_packages/#{issue_id}/time_entries/report"

    when /^the move new page of the work package "(.+)"$/
      work_package_id = WorkPackage.find_by(subject: $1).id
      "/work_packages/#{work_package_id}/move/new?copy="

    when /^the applied query "([^\"]+)" on the work packages index page of the project "([^\"]+)"$/
      project = Project.find_by(name: $2)
      query = project.queries.find_by(name: $1)
      project_work_packages_path project, query_id: query.id

    when /^the move page of the work package "(.+)"$/
      work_package_id = WorkPackage.find_by(subject: $1).id
      "/work_packages/#{work_package_id}/move/new"

    when /^the message page of message "(.+)"$/
      message = Message.find_by(subject: $1)
      topic_path(message)

    when /^the show page (for|of) version ('|")(.+)('|")$/
      version = Version.find_by(name: $3)
      version_path(version)

    when /^the edit page (for|of) version ('|")(.+)('|")$/
      version = Version.find_by(name: $3)
      edit_version_path(version)

    # Add more mappings here.
    # Here is an example that pulls values out of the Regexp:
    #
    #   when /^(.*)'s profile page$/i
    #     user_profile_path(User.find_by_login($1))
    else
      begin
        page_name =~ /^the (.*) page$/
        path_components = $1.split(/\s+/)
        send(path_components.push('path').join('_').to_sym)
      rescue NoMethodError, ArgumentError
        raise "Can't find mapping from \"#{page_name}\" to a path.\n" +
          "Now, go and add a mapping in #{__FILE__}"
      end
    end
  end
When /^I select "(.+?)" from the action menu$/ do |entry_name|
  within(action_menu_selector) do
    find('button').click
  end
  within('.dropdown-menu') do
    click_link(entry_name)
  end
end
def action_menu_selector
  # supports both the old and the new selector for the action menu
  # please note that using this with the old .contextual selector takes longer
  # as capybara waits for the new .action_menu_main selector to appear

  if has_css?('.action_menu_main')
    all('.action_menu_main').first
  elsif has_css?('.action_menu_specific')
    all('.action_menu_specific').first
  elsif has_css?('.contextual')
    all('.contextual').first
  else
    raise 'No action menu on the current page'
  end
end
Given /^(?:|I )am already [aA]dmin$/ do
  admin = User.find_by(admin: true)
  # see https://github.com/railsware/rack_session_access
  page.set_rack_session(user_id: admin.id)
end
Given /^I am already logged in as "(.+?)"$/ do |login|
  user = User.find_by_login(login)
  # see https://github.com/railsware/rack_session_access
  page.set_rack_session(user_id: user.id)
end
Given /^there is 1 [pP]roject with(?: the following)?:$/ do |table|
  p = FactoryGirl.build(:project)
  send_table_to_object(p, table)
end
Given /^there are the following types:$/ do |table|
  table = table.map_headers { |header| header.underscore.gsub(' ', '_') }
  table.hashes.each_with_index do |t, i|
    type = ::Type.find_by(name: t['name'])
    type = ::Type.new name: t['name'] if type.nil?
    type.position       = t['position'] ? t['position'] : i
    type.is_in_roadmap  = t['is_in_roadmap'] ? t['is_in_roadmap'] : true
    type.is_milestone   = t['is_milestone'] ? t['is_milestone'] : true
    type.is_default     = t['is_default'] ? t['is_default'] : false
    type.in_aggregation = t['in_aggregation'] ? t['in_aggregation'] : true
    type.is_standard    = t['is_standard'] ? t['is_standard'] : false
    type.save!
  end
end
Given /^there are the following issue status:$/ do |table|
  table.hashes.each_with_index do |t, i|
    status = Status.find_by(name: t['name'])
    status = Status.new name: t['name'] if status.nil?
    status.is_closed = t['is_closed'] == 'true'
    status.is_default = t['is_default'] == 'true'
    status.position = t['position'] ? t['position'] : i
    status.default_done_ratio = t['default_done_ratio']
    status.save!
  end
end
Given /^I am working in [pP]roject "(.+?)"$/ do |project_name|
  @project = Project.find_by(name: project_name)
end
Given /^the [pP]roject(?: "([^\"]*)")? has the following types:$/ do |project_name, table|
  p = get_project(project_name)
  table.hashes.each_with_index do |t, i|
    type = ::Type.find_by(name: t['name'])
    type = ::Type.new name: t['name'] if type.nil?
    type.position = t['position'] ? t['position'] : i
    type.is_in_roadmap = t['is_in_roadmap'] ? t['is_in_roadmap'] : true
    type.save!
    if !p.types.include?(type)
      p.types << type
      p.save!
    end
  end
end
def get_project(project_name = nil)
  if project_name.blank?
    project = @project
  else
    project = Project.find_by(name: project_name)
  end
  if project.nil?
    if project_name.blank?
      raise "Could not identify the current project. Make sure to use the 'I am working in project \"Project Name\" step beforehand."
    else
      raise "Could not find project with the name \"#{project_name}\"."
    end
  end
  project
end
def send_table_to_object(object, table, except = {}, rescue_block = nil)
  return unless table.raw.present?
  as_admin do
    table.rows_hash.each do |key, value|
      _key = key.gsub(' ', '_').underscore.to_sym
      if except[_key]
        except[_key].call(object, value)
      elsif except[key]
        except[key].call(object, value)
      elsif object.respond_to? :"#{_key}="
        object.send(:"#{_key}=", value)
      elsif rescue_block
        rescue_block.call(object, key, value)
      else
        raise "No such method #{_key} on a #{object.class}"
      end
    end
    object.save!
  end
end
def as_admin(count = 1)
  cur_user = User.current
  User.current = User.find_by_login('admin')
  retval = nil
  count.to_i.times do
    retval = yield
  end
  User.current = cur_user
  retval
end
Given /^there is a(?:n)? (default )?issuepriority with:$/ do |default, table|
  name = table.raw.find { |ary| ary.include? 'name' }[table.raw.first.index('name') + 1].to_s
  project = get_project
  FactoryGirl.build(:priority).tap do |prio|
    prio.name = name
    prio.is_default = !!default
    prio.project = project
  end.save!
end
def get_project(project_name = nil)
  if project_name.blank?
    project = @project
  else
    project = Project.find_by(name: project_name)
  end
  if project.nil?
    if project_name.blank?
      raise "Could not identify the current project. Make sure to use the 'I am working in project \"Project Name\" step beforehand."
    else
      raise "Could not find project with the name \"#{project_name}\"."
    end
  end
  project
end
Given /^the [Uu]ser "([^\"]*)" is a "([^\"]*)" (?:in|of) the [Pp]roject "([^\"]*)"$/ do |user, role, project|
  u = User.find_by_login(user)
  r = Role.find_by(name: role)
  p = Project.find_by(name: project) || Project.find_by(identifier: project)
  as_admin do
    Member.new.tap do |m|
      m.user = u
      m.roles << r
      m.project = p
    end.save!
  end
end
Given /^there is a [rR]ole "([^\"]*)"$/ do |name, _table = nil|
  FactoryGirl.create(:role, name: name) unless Role.find_by(name: name)
end
Given /^the [rR]ole "([^\"]*)" may have the following [rR]ights:$/ do |role, table|
  r = Role.find_by(name: role)
  raise "No such role was defined: #{role}" unless r
  as_admin do
    available_perms = Redmine::AccessControl.permissions.map(&:name)
    r.permissions = []

    table.raw.each do |_perm|
      perm = _perm.first
      unless perm.blank?
        perm = perm.gsub(' ', '_').underscore.to_sym
        if available_perms.include?(:"#{perm}")
          r.add_permission! perm
        end
      end
    end

    r.save!
  end
end
Given /^there is 1 [Uu]ser with(?: the following)?:$/ do |table|
  login = table.rows_hash[:Login].to_s + table.rows_hash[:login].to_s
  user = User.find_by_login(login) unless login.blank?

  if !user
    user = FactoryGirl.create(:user)
    user.pref
    user.password = user.password_confirmation = nil
  end

  modify_user(user, table)
end
def modify_user(u, table)
  as_admin do
    send_table_to_object(u, table,
                         default_rate: Proc.new do |user, value|
                           user.save!
                           DefaultHourlyRate.new.tap do |r|
                             r.valid_from = 3.years.ago.to_date
                             r.rate       = value
                             r.user_id    = user.id
                           end.save!
                         end,
                         name: Proc.new { |user, _value| user.login = name; user.save! },
                         hourly_rate: Proc.new do |user, value|
                           user.save!
                           HourlyRate.new.tap do |r|
                             r.valid_from = (2.years.ago + HourlyRate.count.days).to_date
                             r.rate       = value
                             r.user_id    = user.id
                             r.project    = user.projects.last
                           end.save!
                         end
                        )

    u.save!
  end
  u
end
  def name
    [first_name, last_name].compact.join(' ')
  end
Given (/^there are the following issues(?: in project "([^"]*)")?:$/) do |project_name, table|
  table.hashes.map do |h| h['project'] = project_name end
  modified_table = Cucumber::Core::Ast::DataTable.new(table.hashes, table.location)
  argument_table = Cucumber::MultilineArgument::DataTable.new modified_table
  step %{there are the following issues with attributes:}, argument_table
end
Given /^there are the following project types:$/ do |table|
  table = table.map_headers { |header| header.underscore.gsub(' ', '_') }

  table.hashes.each do |type_attributes|
    FactoryGirl.create(:project_type, type_attributes)
  end
end
Given /^there are the following projects of type "([^"]*)":$/ do |project_type_name, table|
  table.raw.flatten.each do |name|
    step %{there is a project named "#{name}" of type "#{project_type_name}"}
  end
end
Given (/^there are the following work packages(?: in project "([^"]*)")?:$/) do |project_name, table|
  project = get_project(project_name)
  create_work_packages_from_table table, project
end
def create_work_packages_from_table(table, project)
  table = table.map_headers { |header| header.underscore.gsub(' ', '_') }

  table.hashes.each do |type_attributes|
    [['author', User],
     ['responsible', User],
     ['assigned_to', User],
     ['type', ::Type],
     ['fixed_version', Version],
     ['priority', IssuePriority],
     ['status', Status],
     ['parent', WorkPackage]
    ].each do |key, const|
      if type_attributes[key].present?
        type_attributes[key] = InstanceFinder.find(const, type_attributes[key])
      else
        type_attributes.delete(key)
      end
    end

    # Force project to have a type the WP can use
    if project.types.empty?
      project.types << FactoryGirl.create(:type_standard)
      project.save!
    end

    # lookup the type by its name and replace it with the type
    # if the cast is ommitted, the contents of type_attributes is interpreted as an int
    if type_attributes.has_key? :type
      type_attributes[:type] = ::Type.find_by(name: type_attributes[:type])
    end

    if type_attributes.has_key? 'author'
      User.current = type_attributes['author']
    end

    FactoryGirl.create(:work_package, type_attributes.merge(project_id: project.id))
  end
end
Given /^the work package "(.*?)" has the following children:$/ do |work_package_subject, table|
  parent = WorkPackage.find_by(subject: work_package_subject)

  table.raw.flatten.each do |child_subject|
    child = WorkPackage.find_by(subject: child_subject)

    child.parent_id = parent.id

    child.save
  end
end
When /^I click(?:| on) "([^"]*)"$/ do |name|
  click_link_or_button(name)
end
Then /^the "(.+)" drop-down(?: inside "([^\"]*)")? should have "([^\"]*)" selected$/ do |field_name, selector, option_name|
  with_scope(selector) do
    find_field(field_name).find('option[selected]').text.should == option_name
  end
end
Given /^Delayed Job is turned off$/  do
  Delayed::Worker.delay_jobs = false
end
Given (/^there are the following issues with attributes:$/) do |table|
  table = table.map_headers { |header| header.underscore.gsub(' ', '_') }
  table.hashes.each do |type_attributes|
    project  = get_project(type_attributes.delete('project'))
    attributes = type_attributes.merge(project_id: project.id) if project

    assignee = User.find_by_login(attributes.delete('assignee'))
    attributes.merge! assigned_to_id: assignee.id if assignee

    author   = User.find_by_login(attributes.delete('author'))
    attributes.merge! author_id: author.id if author

    responsible = User.find_by_login(attributes.delete('responsible'))
    attributes.merge! responsible_id: responsible.id if responsible

    watchers = attributes.delete('watched_by')

    type = ::Type.find_by(name: attributes.delete('type'))
    attributes.merge! type_id: type.id if type

    version = Version.find_by(name: attributes.delete('version'))
    attributes.merge! fixed_version_id: version.id if version

    category = Category.find_by(name: attributes.delete('category'))
    attributes.merge! category_id: category.id if category

    issue = FactoryGirl.create(:work_package, attributes)

    if watchers
      watchers.split(',').each do |w| issue.add_watcher User.find_by_login(w) end
      issue.save
    end
  end
end
Given /^there is a project named "([^"]*)"(?: of type "([^"]*)")?$/ do |name, project_type_name|
  attributes = { name: name,
                 identifier: name.downcase.gsub(' ', '_') }

  if project_type_name
    attributes.merge!(project_type: ProjectType.find_by!(name: project_type_name))
  end

  FactoryGirl.create(:project, attributes)
end
