Given(/^#{capture_model} exists?(?: with #{capture_fields})?$/) do |name, fields|
  create_model(name, fields)
end
Then(/^#{capture_model} should be #{capture_model}$/) do |a, b|
  model!(a).should == model!(b)
end
Given /I have an orphan account/ do
  user = FactoryGirl.create(:user, :login => 'orphan_account')
  user.activate
end
Given /^I am logged in as "([^\"]*)" with password "([^\"]*)"$/ do |login, password|
  step("I am logged out")
  user = User.find_by_login(login)
  if user.blank?
    user = FactoryGirl.create(:user, {:login => login, :password => password})
    user.activate
  else
    user.password = password
    user.password_confirmation = password
    user.save
  end
  visit login_path
  fill_in "User name", :with => login
  fill_in "Password", :with => password
  check "Remember Me"
  click_button "Log In"
  assert UserSession.find
end
Given /^I am logged in as "([^\"]*)"$/ do |login|
  step(%{I am logged in as "#{login}" with password "#{DEFAULT_PASSWORD}"})
end
Given /^I am logged in as a random user$/ do
  step("I am logged out")
  name = "testuser#{User.count + 1}"
  user = FactoryGirl.create(:user, :login => name, :password => DEFAULT_PASSWORD)
  user.activate
  visit login_path
  fill_in "User name", :with => name
  fill_in "Password", :with => DEFAULT_PASSWORD
  check "Remember me"
  click_button "Log In"
  assert UserSession.find
end
Given /^I am logged out$/ do
  visit logout_path
  assert !UserSession.find
  visit admin_logout_path
  assert !AdminSession.find
end
Given /^I log out$/ do
  step(%{I follow "Log Out"})
end
When /^"([^\"]*)" creates the default pseud "([^\"]*)"$/ do |username, newpseud|
  visit user_pseuds_path(username)
  click_link("New Pseud")
  fill_in "Name", :with => newpseud
  # TODO: this isn't currently working
  check "Make this name default"
  click_button "Create"
end
Given /^"([^\"]*)" deletes their account/ do |username|
  visit user_path(username)
  step(%{I follow "Profile"})
  step(%{I follow "Delete My Account"})
end
Given /^(?:|I )am on (.+)$/ do |page_name|
  visit path_to(page_name)
end
When /^(?:|I )go to (.+)$/ do |page_name|
  visit path_to(page_name)
end
When /^(?:|I )press "([^"]*)"(?: within "([^"]*)")?$/ do |button, selector|
  with_scope(selector) do
    click_button(button)
  end
end
When /^(?:|I )follow "([^"]*)"(?: within "([^"]*)")?$/ do |link, selector|
  with_scope(selector) do
    click_link(link)
  end
end
When /^(?:|I )fill in "([^"]*)" with "([^"]*)"(?: within "([^"]*)")?$/ do |field, value, selector|
  with_scope(selector) do
    fill_in(field, :with => value)
  end
end
When /^(?:|I )select "([^"]*)" from "([^"]*)"(?: within "([^"]*)")?$/ do |value, field, selector|
  with_scope(selector) do
    select(value, :from => field)
  end
end
When /^(?:|I )check "([^"]*)"(?: within "([^"]*)")?$/ do |field, selector|
  with_scope(selector) do
    check(field)
  end
end
When /^(?:|I )choose "([^"]*)"(?: within "([^"]*)")?$/ do |field, selector|
  with_scope(selector) do
    choose(field)
  end
end
Then /^(?:|I )should see "([^"]*)"(?: within "([^"]*)")?$/ do |text, selector|
  with_scope(selector) do
    if page.respond_to? :should
      page.should have_content(text)
    else
      assert page.has_content?(text)
    end
  end
end
Then /^(?:|I )should not see "([^"]*)"(?: within "([^"]*)")?$/ do |text, selector|
  with_scope(selector) do
    if page.respond_to? :should
      page.should have_no_content(text)
    else
      assert page.has_no_content?(text)
    end
  end
end
  def with_scope(locator)
    locator ? within(locator) { yield } : yield
  end
  def path_to(page_name)
    case page_name

    when /the home\s?page/
      '/'
    when /^the search bookmarks page$/i
      Bookmark.tire.index.refresh
      search_bookmarks_path
    when /^the search tags page$/i
      Tag.tire.index.refresh
      search_tags_path
    when /^the search works page$/i
      Work.tire.index.refresh
      search_works_path      
    when /^the search people page$/i
      Pseud.tire.index.refresh
      search_people_path

    # the following are examples using path_to_pickle

    when /^#{capture_model}(?:'s)? page$/                           # eg. the forum's page
      path_to_pickle $1

    when /^#{capture_model}(?:'s)? #{capture_model}(?:'s)? page$/   # eg. the forum's post's page
      path_to_pickle $1, $2

    when /^#{capture_model}(?:'s)? #{capture_model}'s (.+?) page$/  # eg. the forum's post's comments page
      path_to_pickle $1, $2, :extra => $3                           #  or the forum's post's edit page

    when /^#{capture_model}(?:'s)? (.+?) page$/                     # eg. the forum's posts page
      path_to_pickle $1, :extra => $2                               #  or the forum's edit page

    # Add more mappings here.

    when /^the tagsets page$/i
      tag_sets_path
    when /^the login page$/i
      new_user_session_path
    when /^(.*)'s user page$/i
      user_path(:id => $1)
    when /^(.*)'s user url$/i
      user_url(:id => $1).sub("http://www.example.com", ArchiveConfig.APP_URL)
    when /^(.*)'s works page$/i
      Work.tire.index.refresh
      user_works_path(:user_id => $1)
    when /^the "(.*)" work page/
      work_path(Work.find_by_title($1))
    when /^the work page with title (.*)/
      work_path(Work.find_by_title($1))
    when /^(.*)'s bookmarks page$/i
      Bookmark.tire.index.refresh
      user_bookmarks_path(:user_id => $1)
    when /^(.*)'s pseuds page$/i
      user_pseuds_path(:user_id => $1)
    when /^(.*)'s reading page$/i
      user_readings_path(:user_id => $1)
    when /^(.*)'s series page$/i
      user_series_index_path(:user_id => $1)
    when /^(.*)'s preferences page$/i
      user_preferences_path(:user_id => $1)
    when /^the subscriptions page for "(.*)"$/i
      user_subscriptions_path(:user_id => $1)
    when /^(.*)'s profile page$/i
      user_profile_path(:user_id => $1)
    when /my pseuds page/
      user_pseuds_path(User.current_user)
    when /my user page/
      user_path(User.current_user)
    when /my preferences page/
      user_preferences_path(User.current_user)
    when /my bookmarks page/
      Bookmark.tire.index.refresh
      user_bookmarks_path(User.current_user)
    when /my works page/
      Work.tire.index.refresh
      user_works_path(User.current_user)
    when /my subscriptions page/
      user_subscriptions_path(User.current_user)      
    when /my profile page/
      user_profile_path(User.current_user)
    when /my claims page/
      user_claims_path(User.current_user)
    when /my signups page/
      user_signups_path(User.current_user)
    when /the import page/
      new_work_path(:import => 'true')
    when /the work-skins page/
      skins_path(:skin_type => "WorkSkin")
    when /^(.*)'s skin page/
      skins_path(:user_id => $1)
    when /^"(.*)" skin page/
      skin_path(Skin.find_by_title($1))
    when /^"(.*)" edit skin page/
      edit_skin_path(Skin.find_by_title($1))
    when /^"(.*)" collection's page$/i                      # e.g. when I go to "Collection name" collection's page
      collection_path(Collection.find_by_title($1))
    when /^the "(.*)" signups page$/i                      # e.g. when I go to "Collection name" signup page
      collection_signups_path(Collection.find_by_title($1))
    when /^the "(.*)" requests page$/i                      # e.g. when I go to "Collection name" signup page
      collection_requests_path(Collection.find_by_title($1))
    when /^"(.*)" collection's url$/i                      # e.g. when I go to "Collection name" collection's url
      collection_url(Collection.find_by_title($1)).sub("http://www.example.com", ArchiveConfig.APP_URL)
    when /^"(.*)" gift exchange edit page$/i
      edit_collection_gift_exchange_path(Collection.find_by_title($1))
    when /^"(.*)" collection's static page$/i
      static_collection_path(Collection.find_by_title($1))
    when /^the works tagged "(.*)"$/i
      Work.tire.index.refresh
      tag_works_path(Tag.find_by_name($1))
    when /^the url for works tagged "(.*)"$/i
      Work.tire.index.refresh
      tag_works_url(Tag.find_by_name($1)).sub("http://www.example.com", ArchiveConfig.APP_URL)
    when /^the works tagged "(.*)" in collection "(.*)"$/i
      Work.tire.index.refresh
      collection_tag_works_path(Collection.find_by_title($2), Tag.find_by_name($1))
    when /^the url for works tagged "(.*)" in collection "(.*)"$/i
      Work.tire.index.refresh
      collection_tag_works_url(Collection.find_by_title($2), Tag.find_by_name($1)).sub("http://www.example.com", ArchiveConfig.APP_URL)
    when /^the admin-posts page$/i
      admin_posts_path
    when /^the admin-settings page$/i
      admin_settings_path      
    when /^the admin-notices page$/i
      notify_admin_users_path
    when /^the FAQ reorder page$/i
      manage_archive_faqs_path
    when /^the support page$/i
      new_feedback_report_path
    when /^the new tag ?set page$/i
      new_tag_set_path
    when /^the "(.*)" tag ?set edit page$/i
      edit_tag_set_path(OwnedTagSet.find_by_title($1))    
    when /^the "(.*)" tag ?set page$/i
      tag_set_path(OwnedTagSet.find_by_title($1))
      
    # Here is an example that pulls values out of the Regexp:
    #
    #   when /^(.*)'s profile page$/i
    #     user_profile_path(User.find_by_login($1))

    else
      begin
        page_name =~ /the (.*) page/
        path_components = $1.split(/\s+/)
        self.send(path_components.push('path').join('_').to_sym)
      rescue Object => e
        raise "Can't find mapping from \"#{page_name}\" to a path.\n" +
          "Now, go and add a mapping in #{__FILE__}"
      end
    end
  end
When /^I view the series "([^\"]*)"$/ do |series|
  visit series_url(Series.find_by_title!(series))
end
When /^I add the work "([^\"]*)" to series "([^\"]*)"$/ do |work_title, series_title|
  work = Work.find_by_title(work_title)
  if work.blank?
    step "the draft \"#{work_title}\""
    work = Work.find_by_title(work_title)
  end
  visit preview_work_url(work)
  click_button("Post")
  step "I should see \"Work was successfully posted.\""
  step "I edit the work \"#{work_title}\""

  check("series-options-show")  
  if Series.find_by_title(series_title)
    step %{I select "#{series_title}" from "work_series_attributes_id"}
  else
    fill_in("work_series_attributes_title", :with => series_title)
  end
  click_button("Post Without Preview")
end
When /^I view the work "([^\"]*)"(?: in (full|chapter-by-chapter) mode)?$/ do |work, mode|
  work = Work.find_by_title!(work)
  visit work_url(work)
  step %{I follow "Entire Work"} if mode == "full"
  step %{I follow "View chapter by chapter"} if mode == "chapter-by-chapter"
end
When /^I edit the work "([^\"]*)"$/ do |work|
  work = Work.find_by_title!(work)
  visit edit_work_url(work)
end
When /^I post the chaptered work "([^\"]*)"$/ do |title|
  step %{I post the work "#{title}"}
  step %{I follow "Add Chapter"}
  fill_in("content", :with => "Another Chapter.")
  click_button("Preview")
  step %{I press "Post"}
  Work.tire.index.refresh
end
When /^I post the work "([^\"]*)"$/ do |title|
  step %{I post the work "#{title}" with fandom "#{DEFAULT_FANDOM}" with freeform "#{DEFAULT_FREEFORM}" with category "#{DEFAULT_CATEGORY}"}
end
When /^I post the locked work "([^\"]*)"$/ do |title|
  work = Work.find_by_title(work)
  if work.blank?
    step "the locked draft \"#{title}\""
    work = Work.find_by_title(title)
  end
  visit preview_work_url(work)
  click_button("Post")
  Work.tire.index.refresh
end
Given(/^all emails? (?:have|has) been delivered$/) do
  ActionMailer::Base.deliveries.clear
  ActionMailer::Base.deliveries.should be_empty # Sanity check, ftw
end
Given(/^(\d)+ emails? should be delivered$/) do |count|
  emails.size.should == count.to_i
end
Then(/^(\d)+ emails? should be delivered to (.*)$/) do |count, to|
  emails("to: \"#{email_for(to)}\"").size.should == count.to_i
end
Then(/^#{capture_email} should contain "(.*)"$/) do |email_ref, text|
  if email(email_ref).multipart?
    email(email_ref).text_part.body.should =~ /#{text}/
    email(email_ref).html_part.body.should =~ /#{text}/
  else
    email(email_ref).body.should =~ /#{text}/
  end
end
  def email_for(to)
    case to
  
    # add your own name => email address mappings here
  
    when /^#{capture_model}$/
      model($1).email

    when /^"([^@]*)"$/
      user = User.find_by_login($1)
      user.email 

    when /^"(.*)"$/
      $1
  
    else
      to
    end
  end
When /^kudos are sent$/ do
  RedisMailQueue.deliver_kudos
end
When /^the kudos queue is cleared$/ do
  RedisMailQueue.clear_queue("kudos")
end
When /^I leave kudos on "([^\"]*)"$/ do |work_title|
  step %{I view the work "#{work_title}"}
  click_button("kudo_submit")
end
Then /^I should see kudos on every chapter$/ do
  step %{I should see "myname3 left kudos on this work!"}
  step %{I follow "Next Chapter"}
  step %{I should see "myname3 left kudos on this work!"}
  step %{I follow "Entire Work"}
  step %{I should see "myname3 left kudos on this work!"}
end
Then /^I should see kudos on every chapter but the draft$/ do
  step %{I should see "myname3 left kudos on this work!"}
  step %{I follow "Next Chapter"}
  step %{I should see "myname3 left kudos on this work!"}
  step %{I follow "Next Chapter"}
  step %{I should not see "myname3 left kudos on this work!"}
  step %{I follow "Entire Work"}
  step %{I should see "myname3 left kudos on this work!"}
end
When /^(?:|I )unselect "([^"]+)" from "([^"]+)"$/ do |item, selector|
  unselect(item, :from => selector)
end
Then /^I should see the "(alt|title)" text "([^\"]*)"(?: within "([^"]*)")?$/ do |texttype, text, selector|
  with_scope(selector) do
    (texttype == "alt") ? (page.should have_xpath("//img[@alt='#{text}']")) : (page.should have_xpath("//img[@title='#{text}']"))
  end
end
Then /^I should not see the "(alt|title)" text "([^\"]*)"(?: within "([^"]*)")?$/ do |texttype, text, selector|
  with_scope(selector) do
    (texttype == "alt") ? (page.should have_no_xpath("//img[@alt='#{text}']")) : (page.should have_no_xpath("//img[@title='#{text}']"))
  end
end
When /^"([^\"]*)" is fixed$/ do |what|
  puts "\nDEFERRED (#{what})"
end
Given /^I have (?:a|the) collection "([^"]*)"(?: with name "([^"]*)")?$/ do |title, name|
  step %{I am logged in as "moderator"}
  step %{I create the collection "#{title}" with name "#{name}"}
end
When /^I create (?:a|the) collection "([^"]*)"(?: with name "([^"]*)")?$/ do |title, name|
  name = title.gsub(/[^\w]/, '_') if name.blank?
  step %{I set up the collection "#{title}" with name "#{name}"}
  step %{I submit}
end
Given /^I have a bookmark for "([^\"]*)"$/ do |title|
  step %{I start a new bookmark for "#{title}"}
    step %{I fill in "Your Tags" with "#{DEFAULT_BOOKMARK_TAGS}"}
    step %{I press "Create"}
end
When /^I add my bookmark to the collection$/ do
  step %{I follow "Add To Collection"}
    fill_in("collection_names", :with => "Various_Penguins")
    click_button("Add")
end
Given /^I have loaded the fixtures$/ do 
  ActiveRecord::Fixtures.reset_cache
  fixtures_folder = File.join(Rails.root, 'features', 'fixtures')
  fixtures = Dir[File.join(fixtures_folder, '*.yml')].map {|f| File.basename(f, '.yml') }
  ActiveRecord::Fixtures.create_fixtures(fixtures_folder, fixtures)
  step %{all search indexes are updated}
end
Given /^all search indexes are updated$/ do
  [Work, Bookmark, Pseud, Tag].each do |klass|
    klass.import
    klass.tire.index.refresh
  end
end
Given /^I am logged in as "([^\"]*)" with password "([^\"]*)"$/ do |login, password|
  step("I am logged out")
  user = User.find_by_login(login)
  if user.blank?
    user = FactoryGirl.create(:user, {:login => login, :password => password})
    user.activate
  else
    user.password = password
    user.password_confirmation = password
    user.save
  end
  visit login_path
  fill_in "User name", :with => login
  fill_in "Password", :with => password
  check "Remember Me"
  click_button "Log In"
  assert UserSession.find
end
Given /^I am logged in as "([^\"]*)"$/ do |login|
  step(%{I am logged in as "#{login}" with password "#{DEFAULT_PASSWORD}"})
end
When /^(?:|I )follow "([^"]*)"(?: within "([^"]*)")?$/ do |link, selector|
  with_scope(selector) do
    click_link(link)
  end
end
When /^(?:|I )fill in "([^"]*)" with "([^"]*)"(?: within "([^"]*)")?$/ do |field, value, selector|
  with_scope(selector) do
    fill_in(field, :with => value)
  end
end
When /^(?:|I )select "([^"]*)" from "([^"]*)"(?: within "([^"]*)")?$/ do |value, field, selector|
  with_scope(selector) do
    select(value, :from => field)
  end
end
Then /^(?:|I )should see "([^"]*)"(?: within "([^"]*)")?$/ do |text, selector|
  with_scope(selector) do
    if page.respond_to? :should
      page.should have_content(text)
    else
      assert page.has_content?(text)
    end
  end
end
Then /^(?:|I )should not see "([^"]*)"(?: within "([^"]*)")?$/ do |text, selector|
  with_scope(selector) do
    if page.respond_to? :should
      page.should have_no_content(text)
    else
      assert page.has_no_content?(text)
    end
  end
end
When /^I view the work "([^\"]*)"(?: in (full|chapter-by-chapter) mode)?$/ do |work, mode|
  work = Work.find_by_title!(work)
  visit work_url(work)
  step %{I follow "Entire Work"} if mode == "full"
  step %{I follow "View chapter by chapter"} if mode == "chapter-by-chapter"
end
When /^I edit the work "([^\"]*)"$/ do |work|
  work = Work.find_by_title!(work)
  visit edit_work_url(work)
end
When /^I post the work "([^\"]*)" with fandom "([^\"]*)" with freeform "([^\"]*)" with category "([^\"]*)"$/ do |title, fandom, freeform, category|
  work = Work.find_by_title(title)
  if work.blank?
    step %{the draft "#{title}" with fandom "#{fandom}" with freeform "#{freeform}" with category "#{category}"}
    work = Work.find_by_title(title)
  end
  visit preview_work_url(work)
  click_button("Post")
  step "I should see \"Work was successfully posted.\""
  Work.tire.index.refresh
end
When /^I post the work "([^\"]*)"$/ do |title|
  step %{I post the work "#{title}" with fandom "#{DEFAULT_FANDOM}" with freeform "#{DEFAULT_FREEFORM}" with category "#{DEFAULT_CATEGORY}"}
end
When /^the draft "([^\"]*)"(?: with fandom "([^\"]*)")?(?: with freeform "([^\"]*)")?(?: with category "([^\"]*)")?$/ do |title, fandom, freeform, category|
  step "basic tags"
  visit new_work_url
  step %{I fill in the basic work information for "#{title}"}
  check(category.nil? ? DEFAULT_CATEGORY : category)
  fill_in("Fandoms", :with => fandom.nil? ? DEFAULT_FANDOM : fandom)
  fill_in("Additional Tags", :with => freeform.nil? ? DEFAULT_FREEFORM : freeform)
  click_button("Preview")
end
When /^the locked draft "([^\"]*)"$/ do |title|
  step "basic tags"
  visit new_work_url
  step %{I fill in the basic work information for "#{title}"}
  check("work_restricted")
  click_button("Preview")
end
When /^I set up (?:a|the) collection "([^"]*)"(?: with name "([^"]*)")?$/ do |title, name|
  visit new_collection_url
  fill_in("collection_name", :with => name.blank? ? title.gsub(/[^\w]/, '_') : name)
  fill_in("collection_title", :with => title)
end
When /^I create (?:a|the) collection "([^"]*)"(?: with name "([^"]*)")?$/ do |title, name|
  name = title.gsub(/[^\w]/, '_') if name.blank?
  step %{I set up the collection "#{title}" with name "#{name}"}
  step %{I submit}
end
When /^I submit$/ do
  step %{I submit with the 1st button}
end
When /^I start a new bookmark for "([^\"]*)"$/ do |title|
  step %{I open the bookmarkable work "#{title}"}  
  click_link("Bookmark")
end
Given /^I am logged out$/ do
  visit logout_path
  assert !UserSession.find
  visit admin_logout_path
  assert !AdminSession.find
end
When /^I fill in the basic work information for "([^\"]*)"$/ do |title|
  step %{I fill in basic work tags}
  check(DEFAULT_WARNING)
  fill_in("Work Title", :with => title)
  fill_in("content", :with => DEFAULT_CONTENT)
end
Given /^basic tags$/ do
  Warning.find_or_create_by_name_and_canonical("No Archive Warnings Apply", true)
  Warning.find_or_create_by_name_and_canonical("Choose Not To Use Archive Warnings", true)
  Rating.find_or_create_by_name_and_canonical("Not Rated", true)
  Rating.find_or_create_by_name_and_canonical("Explicit", true)
  Fandom.find_or_create_by_name_and_canonical("No Fandom", true)
  Category.find_or_create_by_name_and_canonical("Other", true)
  Category.find_or_create_by_name_and_canonical("F/F", true)
  Category.find_or_create_by_name_and_canonical("Multi", true)
  Category.find_or_create_by_name_and_canonical("M/F", true)
  Category.find_or_create_by_name_and_canonical("M/M", true)
end
When /^I submit with the (\d+)(?:st|nd|rd|th) button$/ do |index|
  page.all("p.submit input[type='submit']")[(index.to_i-1)].click
end
When /^I open the bookmarkable work "([^\"]*)"$/ do |title|
  work = Work.find_by_title(title)
  if !work
    step %{I post the work "#{title}"}
    work = Work.find_by_title(title)
  end
  visit work_url(work)
end
When /^I post the work "([^\"]*)"$/ do |title|
  step %{I post the work "#{title}" with fandom "#{DEFAULT_FANDOM}" with freeform "#{DEFAULT_FREEFORM}" with category "#{DEFAULT_CATEGORY}"}
end
When /^I fill in basic work tags$/ do
  select(DEFAULT_RATING, :from => "Rating")
  fill_in("Fandoms", :with => DEFAULT_FANDOM)
  fill_in("Additional Tags", :with => DEFAULT_FREEFORM)
end
When /^I post the work "([^\"]*)" with fandom "([^\"]*)" with freeform "([^\"]*)" with category "([^\"]*)"$/ do |title, fandom, freeform, category|
  work = Work.find_by_title(title)
  if work.blank?
    step %{the draft "#{title}" with fandom "#{fandom}" with freeform "#{freeform}" with category "#{category}"}
    work = Work.find_by_title(title)
  end
  visit preview_work_url(work)
  click_button("Post")
  step "I should see \"Work was successfully posted.\""
  Work.tire.index.refresh
end
When /^the draft "([^\"]*)"(?: with fandom "([^\"]*)")?(?: with freeform "([^\"]*)")?(?: with category "([^\"]*)")?$/ do |title, fandom, freeform, category|
  step "basic tags"
  visit new_work_url
  step %{I fill in the basic work information for "#{title}"}
  check(category.nil? ? DEFAULT_CATEGORY : category)
  fill_in("Fandoms", :with => fandom.nil? ? DEFAULT_FANDOM : fandom)
  fill_in("Additional Tags", :with => freeform.nil? ? DEFAULT_FREEFORM : freeform)
  click_button("Preview")
end
Then /^(?:|I )should see "([^"]*)"(?: within "([^"]*)")?$/ do |text, selector|
  with_scope(selector) do
    if page.respond_to? :should
      page.should have_content(text)
    else
      assert page.has_content?(text)
    end
  end
end
When /^I fill in basic work tags$/ do
  select(DEFAULT_RATING, :from => "Rating")
  fill_in("Fandoms", :with => DEFAULT_FANDOM)
  fill_in("Additional Tags", :with => DEFAULT_FREEFORM)
end
