"REPO_URL","TASK_ID","#HASHES","HASHES","#PROD_FILES","#TEST_FILES","LAST"
"https://github.com/gitlabhq/gitlabhq.git","28038","1","[61a86101e81368b79bc9b99ef355518cde83facc]","2","1","61a86101e81368b79bc9b99ef355518cde83facc","7be084b13a0bb056a6cd8065f74fd24f4f147551","05ef996e52eddececee3e0edb9c8bb5a0dc4c82d"
"https://github.com/gitlabhq/gitlabhq.git","28050","4","[9fabd703230301cd985c51a6888bfd7b8d9cf5a6, ca1b67ce38eb43edc969c0ca04264b7ea423413c, 16b6040c2e810253b29bfed4df5fcd098c456813, 9c629a1ebc642bfeec9f8cc7379613b1acf7817b]","2","1","9fabd703230301cd985c51a6888bfd7b8d9cf5a6","8672203baf5971acb96cf62562876887fb69623b","2d31a9f345fd84fc65cac9b429a907e96b4e18b7"
"https://github.com/gitlabhq/gitlabhq.git","28060","2","[c606df8fdf7ea4601415fb54135f1c53083f9456, 91e112ffe2a2c16b3b5e2cd4ce032cb9fa769660]","1","1","c606df8fdf7ea4601415fb54135f1c53083f9456","6113d80639241476ff07afa7cf12e3ee927f3b25","e1ca9de0dabb9d1da13073110072b3327280eb55"
"https://github.com/gitlabhq/gitlabhq.git","28065","1","[0a05ab9126aa1edadea069e9e7dbe272da4b9618]","1","1","0a05ab9126aa1edadea069e9e7dbe272da4b9618","edb3368c93c6ff64840ef5cd12f2af30b18b5b52","7bf8d22f178d5628e9c2dc8e79ec94a016e1d69b"
"https://github.com/gitlabhq/gitlabhq.git","28066","4","[a056fc2db0e55befba7e3ac6350cdccaa5b69463, 5c2d3c8e50b55e04d7094f9d4a95e7f6f88894ce, 7bf8d22f178d5628e9c2dc8e79ec94a016e1d69b, 13fec18ac9cbdecdef3b0e5fb7dd7480e9d7cbbf]","3","3","a056fc2db0e55befba7e3ac6350cdccaa5b69463","4f9bc937b3b74cc16c899d51402004eb70a5149e","c9f741bb07bac1722dcbfeb909acd4ed49d1d1ae"
"https://github.com/gitlabhq/gitlabhq.git","28078","6","[e1bdb165d147ee65e89d9dacd442d4467d29a86c, 01ff084a4df76ba0856a513aca9bdf8f1d550365, 71d31a38fc73252a76076820c63d054a8047d667, 24bc3e0874bd81d1cf8cc8a7104f277d5a9fa5c7, 0f2299a8d43c8e66d1bf764b737b8ec14266fb2a, a9d3e6ce573e1e108ab340141ab0f104bf27a430]","6","1","e1bdb165d147ee65e89d9dacd442d4467d29a86c","9d077c9cab4fd93c67b7d89a79ca501120be2bbb","201158f1dee15accf6abbd7ad5a50af023ba5d23"
"https://github.com/gitlabhq/gitlabhq.git","28121","2","[1101ceb3f4dfb8983f5876215378331a2d9bcc88, 5f24bdb7d067df9204e08e126f43c071116089b0]","3","1","1101ceb3f4dfb8983f5876215378331a2d9bcc88","e67574fe77dfb2ed4f6c9ed8ee96ddeef647f2ff","0a44ecf3a0eb7be66b2dbbb6e8404e3242a4b016"
"https://github.com/gitlabhq/gitlabhq.git","28151","8","[44e2a2e453c6954554d3cc6a03bfe64554a228e8, 66dacfc52a1a91783b68e503e0e1844e26f47a54, 2388ca0f3299ceb06b234fe08eaa71d79e6f0801, 7fefb0397eea99910537541bbba70d0a68a44644, 02c3bb7a32058a355756f0f77b2b8208913205e5, ca52f848411efaa5ccfb364c2169b38a8e9644b4, f4978bc08ea9fa4468d70eefaa32fd1eeafce5a9, 3f9b1d62effb576213e43f6ef9f55587ad3d9a67]","41","3","44e2a2e453c6954554d3cc6a03bfe64554a228e8","76eb9532df62f0b48340006f463615c870c3841f","4537623d12fb7372262267be5d6ec3b41f3f476c"
"https://github.com/gitlabhq/gitlabhq.git","28178","16","[4d373005968b8269a8d2fe56b7776820396127a4, 0a013adc4da162512b75d5ed20c338392af7577b, 532809a17310a14c16df7adfecbdfa363a068f40, 58064027408bcbfb9e6216a3157dffd9c324848d, 0e82c98174618c77e75153884269b5a02850c1d0, fae3f466151ac8ee9f9e0e496669be8a9e649120, 539c70c7d64589656cce804282725b97e28e49ff, d99594273d57b2d5ed7c748b3185712960b89478, 128f2845770b7a6d553ee764cdbbe63da5ba9e84, 0ef055a4aef76d20668a40717fb33bfe41599cfb, 09112dbb1df2669b0042d6d785a5469a9855ac20, bbef8bb5896d8858bf91692bdd5aa9236472a885, 216d5e2c1adb8470421a99943f09c45e4e515d5b, 5d56da6bddcaa4d510fd97a8e38d80e750e3e20f, 489fa5d72631505873b8c33f3a2bbd5919330a92, 3d7194f0112da12e8732df9ffe8b34fe7d0a9f6b]","43","3","4d373005968b8269a8d2fe56b7776820396127a4","0d715bcd812ca6c99884e117f28a400669aa8e57","fd033671933fcc0f472480d98c907aefde357416"
"https://github.com/gitlabhq/gitlabhq.git","28183","4","[4de1db11685811e06b351fdcfe92c1d7a34e3246, dd8f090bc84a96bce0f086a8be9840751da21747, efa267602122dc2aa5ee789a87fe4039c7ffe484, a7fab42b9cd34ddd44ff2ab0837691f57428b8e4]","6","1","4de1db11685811e06b351fdcfe92c1d7a34e3246","be17a32d041209c5268c72005ac7c82eac15c934","cb86cf844c4abddba6e5d5e43cebd3297d724897"
"https://github.com/gitlabhq/gitlabhq.git","28208","8","[17b5657331957df2f3eefc0108156f423bee5cb6, de5c8601eb8df5e4a20b9fbb8a095ca87f3427be, 8b1d44f789cce12219dbc70890d8a72675b71315, 3b660be6ee79d75ab3e287411a0cdb01bf63c722, 7406494abc786a2d6aefe4097bf785bd1a20dc5d, dbf4e5b0b04a40f9e22cb37e12ba2873df717af7, dc038a7108f3e61e708310b5a9ab4b193723366b, 3232f547ac250096f0f4baefff1bc245be1455ac]","14","1","17b5657331957df2f3eefc0108156f423bee5cb6","3c0596974a930b25ba96e9fe4f11ddd606d7473f","acb402a1c1cfb23613be0f988b60884c352de37c"
"https://github.com/gitlabhq/gitlabhq.git","28244","31","[0904cc485c23385e4ac0628ddce5e1c842909af4, 28d517f58e7acf331f8f85ada1b06eb393d5291d, 3e4de1ded4343f66b4d7036129b80684b2f46d38, f15e8a0cfe2a977cd9925332e15ef2405170fbd3, b143976bfa1ef73aef3dd81a6691c9d6d411c372, 49fcbdbd1e0c7405c819cecedf54029b4541fcc2, 6c0fd9f29ad92b0f4b1cdea82a33d485622d0fd5, 318b50a0b3df4842cc33a15ff2019c948af15359, 6642709faa090107e13ab8ad5aa74f2949e73faf, 467e7c10b5a9176509b50d5b5552bfeb0c86b587, 01cf474fa1be16f1d342963829c775a4cb8a848b, 3c4689c23c9d6f50e9facb48a8dc0a7344764ebf, 9f087fb9e7d1891cd12ced9d40141a6d32510160, f50cb7fc9fe7150337fef9b85e628dc540adc516, 1dd80d22a58d6407951e89eedcdbf21d340f9261, 21f7c99c25615961f6eed870b38ba8fba558b879, a064060096aa99403f626544acaa307dea709e2d, 112e919823a3286fe7224b01ee3cd87b48c66304, a5dbe353549ad71ce2868d67dee5226ad8d46e63, db03bfa86838020d5add006f8e7714d4a0823c32, 0a0cdc6c61007675f92ff474d605dcf7b617a6be, 58427749fd553ce802f037a7bdbbfd30f9df232a, 0705a7a5070dfa74db1f51e71aa74376bc000f11, d0529ad21df0bb2e67b17ac71a27aa47dbf5339f, 11c9b06f7cf412cc61883e61899525fca33c7f1b, dc917552641f88defa77f3ac7d68312ccccd21c4, 367a5d1b32c154baea584c0ffe85253869bee415, c71697abc9dd5cf8ddc45f2972fbb51ee80db62d, 746ffcfcbdd28a0965ab7d15860aa07977bc4c2f, 8fb84104e4c50c77d1ec66ebf207b057fa58f043, d40e6bc228ce68cb3e77161e1ef62b039b41fef5]","25","3","0904cc485c23385e4ac0628ddce5e1c842909af4","f438bd415ffc4405c2e81360a92ffaf907cd87ad","d41940d36ee8ff693a3c22d6c317e864b53792f0"
"https://github.com/gitlabhq/gitlabhq.git","28259","26","[106764ab3b42f9d81a6ad81f2611ea1d78d7ae05, 89a1e7e1f5cdfe4c5ebc076ed39d37aea0e543fc, b4a9cab7f0eaac8a29d82c0c70293f866e1d6b01, 113d2ff525b6005e1cc7ff86a5a0189c4ab3d0e4, 05a7e8b9c0b1ebdc01470a31f933b7526ca2cd08, 15f62fcc27235b3c8012c80f0517ecf5c27aa205, afc9d548198ac2b405fbf3a268cdc0c2ffd35995, 3e09e6f7b8032859a82266282dfd35715b3b3727, e55e23bbda6f6a95982109bc46e48a5550e4c181, 40bca5246b6e1cea36932c5e0eae89a63d8f0a03, 2ed7cbfba4ff3c6a4cf3e72515a0375544998de0, 95791316f4037273af7b747ce1851d5f4e46933f, e45179c9b4d0504def48f00cfe4b97463b090614, 248ece76e51014700733727e553a428e2f85579d, 7b87fcbad42c57317f34d178b83176a96e914ebd, 529feb4b40bacf2a35cd76501ec1b56788bc9b14, 96f3a88c0111b56cce8ac77b7c48225510b2b73b, 102aaf0682e7e670fecbaf2cdc9ed1c35647f04f, edcd46599b8363c3447c07ae4dcf320af8bfd4c1, 9787c37aed0c934d9ae4f6786413eb25b55c3a17, ee13297af2706be438666a3761938423fc9a51db, 59f75e6c1ec29721d1430e8dbcb5858a0ddb910a, 0bc714c271174137431d9194d8f1567953f97a8b, 19d628dd239f03e950a41c4498131f9b2a221909, c2317d6785016918975d93c08d915055448d56cb, 09daff61780a2fa391cf1a80bf152cca15740754]","198","1","106764ab3b42f9d81a6ad81f2611ea1d78d7ae05","d41940d36ee8ff693a3c22d6c317e864b53792f0","8d70ac008dbb43752e2c1f69530c4453eb8e0e2d"
"https://github.com/gitlabhq/gitlabhq.git","28265","36","[9de23248d8f3d6464d329b979ccfe98c23eb4aa3, 1dd6606161bea762cefe14c7a39f79a8c0b43dd7, dc0f08f8d807c363e082f9ada7a1addeefdb554d, 6577d3a49cf6f21b1e044339f9cb984a67e9fdab, fdf7fc044ae1666a0d7dfb9a0022c48dfa3d7231, ede746bf079dd45ac1e2f701e8a9019dba8e0417, 4c9e47f6e054649eefd453089d1658b9508c16fc, 3208dad1e7e0c1eeb638e5a2779a290ed9c3e73a, 99eb96075dbfc87d401e544888dfe718711e0a84, fe514b17ab6de8c9d1f091e50e94aaf27183aa6d, f3cbbfe020678d6734573bc3f21b53f8c2668070, f0606451194db37f897f2f487f8ab855271674a5, 7384541b345169a829c4c9f2b63bf71fd223d9b9, e8e9e0f771c34cf45e9c42f69de4da6b747f07e0, 0273b79b92fb38086f14f2a44e621c37c35cc748, be26d2724bc710bdc0cb2327830aff84ce61fba2, c3c849927d42c4ba5431b3970dab63fdb89b77f5, c78393ec1714daaa01313793cdc3fa2e98378d7a, 8c918e583a5a0ec4c0c904522730215b2d147ae6, d0efe2c07cdbd13698bfb70f9be7157ec4f7245b, b1dbabdec30d8e03afb0155b9494cfe2ef351352, 2c482097fc8028ec9f96d268c42016720aaf9be8, 7e4ee824ab4cfedba72e742331536a6e207f7f2d, 1ecdfb46a46a1725c47df33c786f1d059a2ab97e, 4d149ac8a9103f5249eb8641879b8643304723a0, 2864aca48c11d4f50471b988d9f11fec7b8f825b, f47ba909a29f70d59180a373b9a89dd8935fd455, 86d9ed9a0a9d58c09b89da08dd4216b89a2025a2, 38a9fc4f4701ff3f2d1a06e8567f45d1bb9fb9c6, 5a2111526dd7a255f74c98b95eeefc578ab0f444, c54d07b9ed083fe5739cc0e467eaf79b2deda255, 3d978f065f184beb10ef6652c08a19f672ebcb91, cc2145da80abe53052598b062d7853efdf225d8b, 1811d32e23f2c7c4c76f4e868ab3b5850f6addb3, 8e737ed54235ba0d296d25bc24f2f00e986c1507, 93e003aa61e885fe129b9678b1894e485c25c81c]","52","1","9de23248d8f3d6464d329b979ccfe98c23eb4aa3","8d70ac008dbb43752e2c1f69530c4453eb8e0e2d","4a53e0285c9f823cde7cf8dec9d065952b707864"
"https://github.com/gitlabhq/gitlabhq.git","28278","3","[f7ea649f4b409d5561b2bd81e46863a1f0c77e1b, 6637c1e475e1e5845edfb6817a9a8074036275b7, 642f9f4a1cd66152846d0bc61fba2efd550edd33]","3","1","f7ea649f4b409d5561b2bd81e46863a1f0c77e1b","b1bdd82992b5133e24154c8692e25e79049cd907","d0357f3bbe9258bcb2ca9732e25f34fc9933af57"
"https://github.com/gitlabhq/gitlabhq.git","28314","28","[e0af7cefb4c92b474d14116b40927d70c13e78cc, 03de5a5ceea394e03120dcda709058fb0f2c1ab6, 0359f1d9ec286fbbf58027e2cdb2a307806f54da, 3e695acfa2f4035431cb325645b3114d06e43105, e3351287b4284af95390835bc75a6c3c461f04ba, 033037a059c9229df310e3508f9c50beb676bf00, d4543eb5a71bd3aa5bfc24f9fadf07e4fe3d461d, 611ac727450b4fb9214e428cd91f7913d48ed7d8, ed4dcf7484149c4432597c81b9ce1324010e036a, 3d3e40c251179654d136d9838087f275c549e827, 8f08fbfd9f768b885c631bdc8bc8ad202c6827a0, 4be12be62a9dc30faecff139684f7537f0726d45, e90aebe259b1f81cb2523099cab4626b9276e751, 9bd1983e167c7a040565d8e03a20364455bddd59, 9710e42d798556ecaf0ffeaf4806a117c1b3530c, b3dc4fb72146d439314bdb40377272a317974397, 3b6228dc27fad65250884256bec05a66e1dff74c, 83eb63cbe8c266256ce93af9336e118233845173, 8adf9c79560f0b1d39270b8ee957df75b53fc30a, 770f262a6a89ff5335ed452b83d1b8edb3e3ff5d, 718ec26a23e3e303e04c569447acf963b9ef307e, 9e2525cbd0da4204f93937e368e277be38d1a7b3, 5b35000f16201bd631f161ef6d79b0a77dc2c27b, bc7c5f87bbd5cc25a0aaf03e9e5ecf6a65375098, 7d2fbe6bd880b001857a373500e4fae31d43060a, 617239000762a01c57b35cbb699f155622ae921a, b49cfbc1d54b6cfa674ba803b3a90fb81c609c8b, cc869d5dc101ea1175e308d8532064f06072d08b]","32","4","e0af7cefb4c92b474d14116b40927d70c13e78cc","bcc4e4dc7ed0740e92a61fc82c3c669f8f2d8d30","77faffbda3e6d26329b140b0a38f71dcdb9aa381"
"https://github.com/gitlabhq/gitlabhq.git","28355","1","[483f9854e43d2a3fc6cf48ec7228ddef62b93375]","2","1","483f9854e43d2a3fc6cf48ec7228ddef62b93375","68825be12fb5d35080660d3f9eb6916a7a421fa8","63c6f30aba95398f732876f94f1fba1f8ed19622"
"https://github.com/gitlabhq/gitlabhq.git","28380","5","[1738055dabb902b45d07839bec053bfc59fd05ee, 6505cd5ec95987b585a08294b53b5b1c2a5e38fc, 3a4c1c5c63f625e6e6075d384a85c67c3992ffb7, c0e3b39792cb7ad479af66c07685eb37e654ccb6, 97a9c2293affaeeba6f448b8760bb5dffd170f2c]","8","1","1738055dabb902b45d07839bec053bfc59fd05ee","9ea27db155b1aac503c3a1cfabca422475378064","edcdbd671b3a1f01f0e1052d5867e4a14c90278b"
"https://github.com/gitlabhq/gitlabhq.git","28408","9","[749d3383cc390ef156d0c37a1b5f9c21062e7f9c, 4528fa9817f2f9ba9ccf330ea2c9f6575b6a3c4b, 1882baa1aaa1c195cce55678b2b8a12e1b59db34, 8e4625af614b58df97d60031c2b5c72f37f1a692, b7f1cf9f491f6cefdfc5f651f724331f07cfd6f5, 42b86b79d0547d8d6f9f3fc8bc3414f7eb4a3964, ff346c01fac3eb0c588d493ac4c848340b4ec0c4, a735ce2aa7da72242629a4452c33e7a1900fdd62, 543d86f351780ebfd9bdd945e6cc247da4919602]","14","1","749d3383cc390ef156d0c37a1b5f9c21062e7f9c","caf065007a49a58f8005c0a8d2cb0140719af8d2","53413f128d049a7f45e4b3daf3dd0c3408a777e9"
"https://github.com/gitlabhq/gitlabhq.git","28416","3","[8589f0f4000095583a3a536f4986dd85a379669d, a7ba81ea5d3f2c9b0085db68e880e89cec960f6f, 4c44c5ef9a569c65bca8e70078205ef2ce7d6396]","4","1","8589f0f4000095583a3a536f4986dd85a379669d","2fc236177f70244101b285bde8ee6a77f779c0ce","4f5aae1d26ac66f8baf0574a2e457597a3e7cc33"
"https://github.com/gitlabhq/gitlabhq.git","28418","3","[ec63804831d1a55171abfb7fc0894af20d4298e8, de8df1be1a75cfde02a5a1d3f52a888b770c54e0, ae33fdf297e03866ecc6c31c5470dd5ad72d1328]","8","1","ec63804831d1a55171abfb7fc0894af20d4298e8","f40d4e6685ca749c69bfc480a747a430f6c9825f","e996c52636f46b193b5ff7291e9b835c317e5438"
"https://github.com/gitlabhq/gitlabhq.git","28435","2","[233d285c68e5cb180aa5f96d9e213257ef0d91dc, 1ae9c697349f1b001c077c27149987177d264524]","4","1","233d285c68e5cb180aa5f96d9e213257ef0d91dc","d747448b8b8534e9c53133afaf0b2b32cc30fee7","16d3425a256dac77d71384068c214e4f3c9a619d"
"https://github.com/gitlabhq/gitlabhq.git","28437","5","[05c2c15cd1672a46e2b31e2ba1e71b872e8993e3, 963ec23407760bcd86ac989916140b1e8f6d5c0c, b36b40ca40c1a380e74ac5384ef40938323307a8, 85c468ec480a1541de36da07fc5fb4ca73c9ad5e, 63b58b9491badf4fe5fa79a32c6ad77be2bf3c25]","4","1","05c2c15cd1672a46e2b31e2ba1e71b872e8993e3","16d3425a256dac77d71384068c214e4f3c9a619d","75fbdc40eb6c46a5a1a5d95a314dad0b3eeda299"
"https://github.com/gitlabhq/gitlabhq.git","28480","1","[33e236c63124e5c59dba5979d641ba174f4a1479]","1","1","33e236c63124e5c59dba5979d641ba174f4a1479","6005ec894a726cfa54685b703a4ea74a961f3956","90db28d6d0a031cad8dc58bc5936e381ce82a764"
