"REPO_URL","TASK_ID","#HASHES","HASHES","#PROD_FILES","#TEST_FILES","LAST"
"https://github.com/gitlabhq/gitlabhq.git","17296","18","[e06f88effa842c73d3827593f8d28846207bfca0, 298d05a5c3cc3c2f1daa4d77c45f9c90b53248df, b1ccf99e87605216f7d5733d6a4ffb4530d4cfc9, e6842ff5643c7fc88a65af24b56682f47f4be2de, f5ff372140d066d7bcedc0ad0799c723a9012bb0, f9023adbad4939ba597d509e319105659e61734b, 9e3153dbf556b9b9397806bedcf0a195e8ee3fa4, 676b79b94d33e007b34d70c00900a52983ce1106, 3f60a276fc36fc7d1c5323c38b33fdbc774cfbbf, 0f2776287a7d9b0fde9ff54ef8d9f74e2f844a09, f9f1a508c6a4bdb2fcee98d18394e28e1cc663c3, ebc3f62be52e386b4550e01ce589744e880ad443, cc83aded33471a3e2f943bd9a760f689d30f901e, dc995daf90e67b5531dd7fbb8a958507f46e4eb6, 8ca5fef9d472e11b4a9ff5d5ab47bbba3e7e670d, 37057870a6b4bf4bf42cc7210a6ae17d68ae5448, ed880e4954803f9753cfafe0dd8106852245d10d, 0d3e24358b88ce41848c97f3ac37bc813074f260]","15","1","e06f88effa842c73d3827593f8d28846207bfca0","52278412c7350b8087ef4ffc688c79e4593369cc","ae71032d0af1730c359089f3edc9029a8b5c8acc"
"https://github.com/gitlabhq/gitlabhq.git","17550","1","[28102ec28e1ef3d3203db3d05aa89ab3da234e70]","4","1","28102ec28e1ef3d3203db3d05aa89ab3da234e70","d6287ab230d1507893895397e759eaf38377cb18","60fe975452f6781198188ae985bad7329d1aff05"
"https://github.com/gitlabhq/gitlabhq.git","17608","15","[3833a28c3aa7a7ae8c1a353e2c6d4338f50b5fb1, d42e7f23b2cde8991ab8f617335abc19eec4e906, bf587cb5c0bbc8d99809d7195a17f96d6c3a1a80, 9918be8fc885600d21ae6a5020e6288e8e341f21, d5b4b026339fcc3f0deecb4d713b3066c8c69c71, 5499f1e66b5c5fa5645856ff9415158a0a3ab781, f0d20b09dc6604d4ea11a39a7d7492ad10574094, b2137632203cda91b79763c33ac80c51e88ed010, e069875e80117020eea5bfe1b06f1a5bf868ffc9, 952bdfae52b5843e3265ad672750765a57c5bc9b, a1518055723459cf042327e1f9a4cf5004a0d301, 8e23d7ad84db730413b1df66117775b241dfe38c, 9fa6512501f03f844cb0a9393de78555e963afb4, 48f4f76c16352278600174c13744b3ce8c026f1a, a167897bed66ed2b9aafad7020d75334e2badf32]","10","1","3833a28c3aa7a7ae8c1a353e2c6d4338f50b5fb1","089ca2df590d22489fde16e9dabdc4f25faface3","24e5a1e8db943be346b4f7f4fb49326ad0e5eb9e"
"https://github.com/gitlabhq/gitlabhq.git","18088","8","[5569573a24efca76abede20370988a81d623e6a5, 95a78fb53bbddfa10db7da3b12406332a7fafacc, d8cc8d7adc4c50843ecacc77a30b2e6db4e3fd84, d02f7d29c07632f219e103ba256636f49329067c, 8d0e84bcf49ccb136557302313bac0833b7d91e5, b5bb98100a58a39a4982c28d868c195ead19a69e, ee7374a9fb16ca65603ef095de2856694612d68f, 56264f35d40e3ebcebf2b88b9ff6f3a8f4f545e9]","3","1","5569573a24efca76abede20370988a81d623e6a5","55e0065b49d63f53c40876196d8f110e4eb3ea32","c392b0cc24ba40e3fed920c6c693cb24665193af"
"https://github.com/gitlabhq/gitlabhq.git","18192","3","[e4084fa0b0cc96b42d3a5eb8795d60c957598e14, 441948f4382601f63326982c44919d1572390693, 4281daf30a0319103e46b98cc2d0f64228415443]","2","2","e4084fa0b0cc96b42d3a5eb8795d60c957598e14","2cd6fdd6486608ecb98eb71708c3a0407fe56716","aba94f65f039908d14643f3854e3c2901ff843aa"
"https://github.com/gitlabhq/gitlabhq.git","18658","2","[7c8c80880995e0bce822a6809fe514ce0f3fda36, 5c7904d786c5f176d94753b2db5c9efaa23a80fe]","1","1","7c8c80880995e0bce822a6809fe514ce0f3fda36","6320192592f32519c07231480cbd669a71e78320","21f0c27aac3be09f3c8288e32668982524b13f4b"
"https://github.com/gitlabhq/gitlabhq.git","18665","1","[ca3c0c6cd915d44ec2d409b04ab05d964bd5a403]","5","1","ca3c0c6cd915d44ec2d409b04ab05d964bd5a403","d7dd66ed561c48e8b698d750cd4f4ea32379ad30","0bbeff3d5e6c1b5ea3b364f052ed6f777c3aa645"
"https://github.com/gitlabhq/gitlabhq.git","18850","1","[9abd871a03ead34945f7dff050f92d7ab9225472]","5","1","9abd871a03ead34945f7dff050f92d7ab9225472","709c7009e5fbf67c53a9c09fe0754e605363b07b","d54f05dac63d580d4451a954dd5593a065a05a3c"
"https://github.com/gitlabhq/gitlabhq.git","19324","1","[8f9a7ca854ffda26c5ce9aed2aec10bf155d0463]","4","1","8f9a7ca854ffda26c5ce9aed2aec10bf155d0463","51dca778ed7f0ad852d451a42676ac7d196e0e96","fb84439a92e759ff90811e98f6abf6bdbb3e6d55"
"https://github.com/gitlabhq/gitlabhq.git","19468","1","[30f9596c612abc19dd060fa3a8e8ae3d92001d45]","2","1","30f9596c612abc19dd060fa3a8e8ae3d92001d45","966b303802e12204f5d32af24b13bd0ceb5342a1","34d5426f0e17a9d0a2d2330b472114e7e457ae05"
"https://github.com/gitlabhq/gitlabhq.git","19475","31","[94a7198ade54595d72797cab09db2c2a89172535, 29ac60d7fbb8208880408dbf98a94acd0ae73730, a8fe213ebbb4a1aa48a20c908ba989190d20f2a1, ac072132b8f0e36badf297208a5964109dbed126, 445edcfacc583ba613a4b865b104d7d7e1f7ec0f, 28e33df46bdffac3dc9388b56035db38dcdab5e3, d99d5198c2df6f931664b8096bcbfc28e8221145, 08f5f897889dc7e7f00a65f56e988449350e60f2, 69096ad9da77ce51d544a8f23f4e8873df273f4e, 9a5f40878c6d71e7fd4858f7fa1d948af6c371ae, 159998a460be6ca1ea5efd135a5c3aefeab2d9b6, fc8d2fbc946d144d2a9d075d67a9f1fe1035da0e, 7cb8ceb5b9b7da6f9bd5f80a50eeca6727ac5902, 6515ec09bbfa25027d1b8a1240e09bc1c6edbcfb, f8aeb8cdac98108bca5d1be2a382c32df6a500e5, 3c1dca0301366c63d1800aa11e73a82e68e120d0, 0e974b52d8f5806c24fdc80ef5b62b261f5be2ba, b0a023842d4e9fc29db7fa6c7168528d9e4ac09d, 8e031ce3b29b186858ddda2a28a6ea8f98b2f749, 5cad2d290219d29aa2be6e991b42b73ac9d87754, 964742f600f5fc5e07272982c4d3847ccc76ce00, 988836bc807a6e7ba5362fd8bddd330d1f3bf19b, 5d5f2cf3ef7bc238f75d9a73ce94efceec6f690e, 09fa0139281d7a76d6b40991f7672187fea40e67, 6190216541adb04fd0ce4b21862e6b253b868671, dbd58dc4bb638be33f98336410ae6f4ede15f737, b8fef7eb5948344f4d442a52637cad168f4c5bf1, 94ca25c9b8c62f9995fbd571c33954754950e1da, ceff8106433187613eb97d13952fc96c4806b847, 2afcc9e910bde32507e14be452c9f7681f5497e4, 2acb8a3085ad64ce56625a9d63f01f9398e757a3]","9","1","94a7198ade54595d72797cab09db2c2a89172535","5e95c0b8d201a6bfdd020aa29a5a6e14c7085e3f","8e9b6019e9889fd6267020acf76883c882512b2f"
"https://github.com/gitlabhq/gitlabhq.git","19598","1","[b6d545df51d7c3b4e572b40cdafb7efeb78edaf4]","10","1","b6d545df51d7c3b4e572b40cdafb7efeb78edaf4","ee713a5f3f5266d74e7d4a9e267f6ec5071cc556","95e5b4634db48656317242e2691388f68e8dcd37"
"https://github.com/gitlabhq/gitlabhq.git","19927","1","[d7c591915893c8c572e9135db4ec27dc174823fd]","4","1","d7c591915893c8c572e9135db4ec27dc174823fd","d4677353b84681bd73f321a0b04bb7eba32dbc9c","7968484dfa363537e6e7822ca1ec100bcd0ec4f8"
"https://github.com/gitlabhq/gitlabhq.git","19981","1","[c39356998b1850f3dc26fe0b987cb419c1d1afb4]","4","1","c39356998b1850f3dc26fe0b987cb419c1d1afb4","d5c715c9cc23a403d908e4686db152d8316ac684","a6a6970961cdfa3908384691ab37d9deb4785841"
"https://github.com/gitlabhq/gitlabhq.git","20061","1","[0de617772dfeb9bdcf3770e9acf7421db5023058]","9","1","0de617772dfeb9bdcf3770e9acf7421db5023058","5d0b06a038a205f52f73f4cfd2947799f12698d0","cfb5a76bb26521ff3ff68acc20466ea7feb49d9f"
"https://github.com/gitlabhq/gitlabhq.git","20066","1","[bf2a86b73cce332ff8f4392ffc8df501193f32ec]","9","1","bf2a86b73cce332ff8f4392ffc8df501193f32ec","dad406da23f7a4d94f9f8df1a4b8743dc0e9dc96","39fbec941939f76ec08a25f537cc3f4a308e21f5"
"https://github.com/gitlabhq/gitlabhq.git","20073","4","[140b0952a8b0ba1f9620a54f4ae2ea21abe02c18, 22191fcdd188b31bb1d3c2326d862019bd5b2457, 35224dbf5e88936b138af7e6215a2e4e0503ae97, 338072cc4ba66cd7eb6fbd9541862946e4ae4b75]","9","1","140b0952a8b0ba1f9620a54f4ae2ea21abe02c18","68155ee73b549a4f79744bb325542c29d45c71ea","86d83a3a85dfc252ee5efb8cc630e1a4295adb93"
"https://github.com/gitlabhq/gitlabhq.git","20123","3","[e65a703122fa4fa6c2cce2aeb76904d630e1c389, a44988ae4abb494b1194bb575b2415ef0de68878, e7aa8315af71339ecb6b01ae7da83f3c9b1e1957]","1","2","e65a703122fa4fa6c2cce2aeb76904d630e1c389","c6bfad2a672c4d2c623c8dd99a0dbc2138f325ab","a9dbd394a60de76ffd9f5773560c8e9126751d91"
"https://github.com/gitlabhq/gitlabhq.git","20168","2","[ce6635406c8e2e4d336d6d7738a1e4916036871c, 12aa1f898dbfea3aaeb2de351ac1cccef304717f]","5","1","ce6635406c8e2e4d336d6d7738a1e4916036871c","f7b056167a3dd79dde7b7fdd87209b478975c546","c5d164d1df46eb34668a032b234484f142e1a881"
