"Repository","https://github.com/ministryofjustice/Claim-for-Crown-Court-Defence.git"
"Precision mean (RT)","0.5579710144956522"
"Precision median (RT)","0.5"
"Precision standard deviation (RT)","0.39762138624460047"
"Recall mean (RT)","0.621118012426087"
"Recall median (RT)","1.0"
"Recall standard deviation (RT)","0.4606172668413179"
"F2 mean (RT)","0.5747202156551715"
"F2 median (RT)","0.8333333333333333"
"F2 standard deviation (RT)","0.4178232407718614"
"Correlation #Test-Precision","-0.22"
"Correlation #Test-Recall","-0.31"
"Task","Dates","#Devs","#Commits","Hashes","#Gherkin_Tests","#Sted_defs","#TestI","#TaskI","TestI","TaskI","Precision","Recall","Rails","#visit_call","Lost_visit_call","#Views_TestI","#Code_View_Analysis","Code_View_Analysis","Methods_Unknown_Type","Renamed_Files","Deleted_Files","NotFound_Views","#NotFound_Views","Timestamp","Has_Merge","#FP","#FN","FP","FN","#Hits","Hits","f2"
"2087","[11-05-2015, 12-05-2015]","1","3","[c54e1e933c875d54522e930909b2df4f1bbd3230, 8ca6e898f5011701d2376284fc052feed0e2dee7, 144bbed1b6a2b0ac664ecd1eccffc0dadbdc82e0]","7","23","2","1","[app/controllers/advocates/claims_controller.rb, app/controllers/api/advocates/claims_controller.rb]","[app/controllers/advocates/claims_controller.rb]","0.5","1.0","4.1.8","7","[]","0","9","[app/controllers/advocates/claims_controller.rb, app/controllers/api/advocates/claims_controller.rb, app/views/advocates/claims/_claims.html.haml, app/views/advocates/claims/confirmation.html.haml, app/views/advocates/claims/edit.html.haml, app/views/advocates/claims/index.html.haml, app/views/advocates/claims/new.html.haml, app/views/advocates/claims/show.html.haml, app/views/advocates/claims/summary.html.haml]","[create, user, select, fill_in, attach_file, page, have_content, not_to, click_on, eq, be_submitted, click_link, id, fill_in, click_on, create_list, update_column, id, have_selector, each, to_not, advocates, claims]","","[]","","0","2.192 seconds","false","1","0","[app/controllers/api/advocates/claims_controller.rb]","[]","1","[app/controllers/advocates/claims_controller.rb]","0.8333333333333333"
"2070","[01-05-2015, 12-05-2015]","3","6","[86bebe9e12fa6809765a5695a6ff43da790ba4f8, 40b26b8adeef44ad9782daa0b979a38c2c9be863, f73e1a5cf78e38e6d14131271e3bb7dadfe39c94, e1c71b62798885faf86e8368a02f1ab90f36c589, 3cd0e9830980ef03be428cf2e4fe2e8ea58df1de, 9c910d24e215e8ca293ca8fc5a492f2f170aaec2]","6","9","1","7","[app/controllers/case_workers/claims_controller.rb]","[app/controllers/advocates/admin/advocates_controller.rb, app/controllers/advocates/admin/application_controller.rb, app/controllers/advocates/claims_controller.rb, app/controllers/api/advocates/claims_controller.rb, app/controllers/application_controller.rb, app/controllers/case_workers/claims_controller.rb, app/controllers/documents_controller.rb]","1.0","0.1428571429","4.1.8","4","[]","0","2","[app/controllers/case_workers/claims_controller.rb, app/views/case_workers/claims/index.html.haml]","[documents, id, click_link, page, all, count, eq, to_not, have_link, each, driver, response, headers, include, body, browser, window_handles, create, email, fill_in, click_on, gsub, current_url, advocates_root_url, advocates_admin_root_url, case_workers_root_url, case_workers_admin_root_url, user, create_list, update_column, case_workers, page, have_selector, each, to_not, body, fill_in, click_on]","","[]","","0","0.666 seconds","false","0","6","[]","[app/controllers/advocates/admin/advocates_controller.rb, app/controllers/advocates/admin/application_controller.rb, app/controllers/advocates/claims_controller.rb, app/controllers/api/advocates/claims_controller.rb, app/controllers/application_controller.rb, app/controllers/documents_controller.rb]","1","[app/controllers/case_workers/claims_controller.rb]","0.17241379315338884"
"2175","[15-04-2015, 16-04-2015]","2","9","[d1f180f0473be13674df8bf6b4d08d5e55c72434, c2ffbf7b444d3f7790a11ea86eeb80574e9dbd22, cda14f26d6919d0d67337cd9b85e5c7bb48aa52d, 4a59585bc48253e5acde8207f9555387f38e0b88, 0581ffb5d39c621fadd8208910a4f801d8cfd7e4, 4ff2a0d607ad253fd7c899ceedba9c684a642b99, 740f5a1534d151fe5efbe531c1ad61234be06252, a6768089b70e862f8c30054c1881083dd93680b6, 572d0e4739d258fec5a3d3b12b27aeb0b50123bf]","6","16","1","2","[app/controllers/case_workers/claims_controller.rb]","[app/controllers/advocates/claims_controller.rb, app/controllers/case_workers/claims_controller.rb]","1.0","0.5","4.1.8","3","[]","0","2","[app/controllers/case_workers/claims_controller.rb, app/views/case_workers/claims/index.html.haml]","[create, create_list, update_column, case_workers, id, id, page, have_selector, each, to_not, body, click_on, have_content, fill_in, click_button, fill_in, click_on, select]","","[]","","0","0.075 seconds","true","0","1","[]","[app/controllers/advocates/claims_controller.rb]","1","[app/controllers/case_workers/claims_controller.rb]","0.5555555555555556"
"2048","[15-05-2015]","1","1","[0d4011fa1ced3e975d8de9c169f92f043c0f5f33]","4","4","2","1","[app/controllers/advocates/claims_controller.rb, app/controllers/api/advocates/claims_controller.rb]","[app/controllers/advocates/claims_controller.rb]","0.5","1.0","4.1.8","5","[]","0","7","[app/controllers/advocates/claims_controller.rb, app/controllers/api/advocates/claims_controller.rb, app/views/advocates/claims/_claims.html.haml, app/views/advocates/claims/_summary.html.haml, app/views/advocates/claims/edit.html.haml, app/views/advocates/claims/index.html.haml, app/views/advocates/claims/new.html.haml]","[create, user, fill_in, click_on, create_list, update_column, id, advocates, page, have_css]","","[]","","0","3.339 seconds","false","1","0","[app/controllers/api/advocates/claims_controller.rb]","[]","1","[app/controllers/advocates/claims_controller.rb]","0.8333333333333333"
"2042","[18-05-2015]","1","1","[3608d526425309723d1b076a4174cb10ba829d7c]","3","5","2","2","[app/controllers/case_workers/claims_controller.rb, app/controllers/documents_controller.rb]","[app/controllers/advocates/claims_controller.rb, app/controllers/documents_controller.rb]","0.5","0.5","4.1.8","4","[]","0","4","[app/controllers/case_workers/claims_controller.rb, app/controllers/documents_controller.rb, app/views/case_workers/claims/index.html.haml, app/views/documents/new.html.haml]","[create, select, attach_file, fill_in, click_on, be_present, document, path, documents, id, click_link, page, driver, response, headers, include, user, create_list, update_column, case_workers, page, have_selector, each, to_not, body, fill_in, click_on]","","[]","","0","3.506 seconds","false","1","1","[app/controllers/case_workers/claims_controller.rb]","[app/controllers/advocates/claims_controller.rb]","1","[app/controllers/documents_controller.rb]","0.5"
"2082","[13-05-2015]","1","6","[64a1631bf88d901a209e0d169c9268af250117c9, eb8064eb03657f18bcd3a6fa5f2f49ddd4901265, bded1886ad760469584cfbd0d204ab3defc9a18a, e7ba9883557d67bdf4543f1fbae9430ea00a46e6, d8aaf00224b961f7456adc7faccf19e767c32c45, 8cbecbbe9488ae2e96c93eb6fcaf19cbe1967d26]","3","2","2","0","[app/controllers/advocates/claims_controller.rb, app/controllers/api/advocates/claims_controller.rb]","[]","0.0","0.0","4.1.8","3","[]","0","6","[app/controllers/advocates/claims_controller.rb, app/controllers/api/advocates/claims_controller.rb, app/views/advocates/claims/_claims.html.haml, app/views/advocates/claims/edit.html.haml, app/views/advocates/claims/index.html.haml, app/views/advocates/claims/new.html.haml]","[create, user, advocates, to_i, create_list, id, update_column, claims, send, id, to_i, eq, page, have_selector, each, within, fill_in, click_on]","","[]","","0","0.137 seconds","false","2","0","[app/controllers/advocates/claims_controller.rb, app/controllers/api/advocates/claims_controller.rb]","[]","0","[]","0"
"2049","[15-05-2015]","1","1","[228cec19bc087faadf03e98e21a8adeb9b90e6e1]","2","2","0","2","[]","[app/controllers/advocates/claims_controller.rb, app/controllers/application_controller.rb]","0.0","0.0","4.1.8","1","[]","0","0","[]","[create, email, fill_in, click_on, gsub, current_url, case_workers_root_url, eq, case_workers_admin_root_url, advocates_landing_url]","","[]","","0","0.152 seconds","false","0","2","[]","[app/controllers/advocates/claims_controller.rb, app/controllers/application_controller.rb]","0","[]","0"
"2072","[13-05-2015]","1","2","[964148517ecb4359cc33e638069b4a6fe8d6bf32, a8041e340f7d865c8df26aee07b7ba4d8f5b38d0]","2","2","2","1","[app/controllers/advocates/claims_controller.rb, app/controllers/api/advocates/claims_controller.rb]","[app/controllers/advocates/claims_controller.rb]","0.5","1.0","4.1.8","3","[]","0","6","[app/controllers/advocates/claims_controller.rb, app/controllers/api/advocates/claims_controller.rb, app/views/advocates/claims/_claims.html.haml, app/views/advocates/claims/edit.html.haml, app/views/advocates/claims/index.html.haml, app/views/advocates/claims/new.html.haml]","[create, user, advocates, to_i, create_list, id, update_column, claims, send, id, to_i, eq, page, have_selector, each, within, fill_in, click_on]","","[]","","0","1.189 seconds","false","1","0","[app/controllers/api/advocates/claims_controller.rb]","[]","1","[app/controllers/advocates/claims_controller.rb]","0.8333333333333333"
"2080","[13-05-2015]","1","1","[e072e401e113d1141356f18cafa70fd151f04461]","2","6","2","0","[app/controllers/advocates/claims_controller.rb, app/controllers/api/advocates/claims_controller.rb]","[]","0.0","0.0","4.1.8","5","[]","0","6","[app/controllers/advocates/claims_controller.rb, app/controllers/api/advocates/claims_controller.rb, app/views/advocates/claims/_claims.html.haml, app/views/advocates/claims/edit.html.haml, app/views/advocates/claims/index.html.haml, app/views/advocates/claims/new.html.haml]","[create, user, advocates, to_i, create_list, id, update_column, claims, send, id, to_i, eq, page, have_selector, each, within, fill_in, click_button, have_content, to_not, fill_in, click_on]","","[]","","0","0.217 seconds","false","2","0","[app/controllers/advocates/claims_controller.rb, app/controllers/api/advocates/claims_controller.rb]","[]","0","[]","0"
"2100","[01-05-2015]","1","1","[49304e634f0b58512f344a339dfa848921327b55]","2","2","0","3","[]","[app/controllers/advocates/admin/advocates_controller.rb, app/controllers/advocates/admin/application_controller.rb, app/controllers/application_controller.rb]","0.0","0.0","4.1.8","1","[]","0","0","[]","[create, email, fill_in, click_on, gsub, current_url, advocates_root_url, eq, advocates_admin_root_url, case_workers_root_url, case_workers_admin_root_url]","","[]","","0","0.047 seconds","false","0","3","[]","[app/controllers/advocates/admin/advocates_controller.rb, app/controllers/advocates/admin/application_controller.rb, app/controllers/application_controller.rb]","0","[]","0"
"2060","[14-05-2015]","1","3","[2c8c931abb0be0139104e861398a079f7265cc59, b44c48f82f0641e0d63e6c9f58f545adb96bd97e, 17daf577642b61194b50973621fa6bc0b61c35ae]","1","1","2","1","[app/controllers/advocates/claims_controller.rb, app/controllers/api/advocates/claims_controller.rb]","[app/controllers/advocates/claims_controller.rb]","0.5","1.0","4.1.8","3","[]","0","6","[app/controllers/advocates/claims_controller.rb, app/controllers/api/advocates/claims_controller.rb, app/views/advocates/claims/_claims.html.haml, app/views/advocates/claims/edit.html.haml, app/views/advocates/claims/index.html.haml, app/views/advocates/claims/new.html.haml]","[create, user, advocates, to_i, create_list, id, update_column, claims, send, id, to_i, eq, page, have_selector, each, within, fill_in, click_on]","","[]","","0","2.299 seconds","false","1","0","[app/controllers/api/advocates/claims_controller.rb]","[]","1","[app/controllers/advocates/claims_controller.rb]","0.8333333333333333"
"2088","[12-05-2015]","1","1","[4c6605bda9cb6e872b54d0897b34428f4616160c]","1","3","2","1","[app/controllers/advocates/claims_controller.rb, app/controllers/api/advocates/claims_controller.rb]","[app/controllers/advocates/claims_controller.rb]","0.5","1.0","4.1.8","3","[]","0","8","[app/controllers/advocates/claims_controller.rb, app/controllers/api/advocates/claims_controller.rb, app/views/advocates/claims/confirmation.html.haml, app/views/advocates/claims/edit.html.haml, app/views/advocates/claims/index.html.haml, app/views/advocates/claims/new.html.haml, app/views/advocates/claims/show.html.haml, app/views/advocates/claims/summary.html.haml]","[create, user, click_on, page, eq, id, fill_in, click_on]","","[]","","0","2.057 seconds","false","1","0","[app/controllers/api/advocates/claims_controller.rb]","[]","1","[app/controllers/advocates/claims_controller.rb]","0.8333333333333333"
"2094","[11-05-2015]","1","1","[2878b4305f4e56a29d7de307ccea9e09f1b8fb45]","1","5","2","1","[app/controllers/advocates/claims_controller.rb, app/controllers/api/advocates/claims_controller.rb]","[app/controllers/advocates/claims_controller.rb]","0.5","1.0","4.1.8","3","[]","0","3","[app/controllers/advocates/claims_controller.rb, app/controllers/api/advocates/claims_controller.rb, app/views/advocates/claims/new.html.haml]","[create, user, select, fill_in, attach_file, page, have_content, not_to, fill_in, click_on]","","[]","","0","0.071 seconds","false","1","0","[app/controllers/api/advocates/claims_controller.rb]","[]","1","[app/controllers/advocates/claims_controller.rb]","0.8333333333333333"
"2110","[29-04-2015]","2","2","[07a6db98eb93bbe77438d11d4d0c0fa2ae8f31a1, 90ec751e9ee58fdc73601add3a0181c231360347]","1","3","2","2","[app/controllers/advocates/claims_controller.rb, app/controllers/api/advocates/claims_controller.rb]","[app/controllers/advocates/claims_controller.rb, app/controllers/api/advocates/claims_controller.rb]","1.0","1.0","4.1.8","3","[]","0","6","[app/controllers/advocates/claims_controller.rb, app/controllers/api/advocates/claims_controller.rb, app/views/advocates/claims/edit.html.haml, app/views/advocates/claims/new.html.haml, app/views/advocates/claims/show.html.haml, app/views/advocates/claims/summary.html.haml]","[create, user, select, fill_in, attach_file, click_on, page, eq, have_content, fill_in, click_on]","","[]","","0","1.307 seconds","true","0","0","[]","[]","2","[app/controllers/advocates/claims_controller.rb, app/controllers/api/advocates/claims_controller.rb]","1.0"
"2111","[28-04-2015, 29-04-2015]","1","4","[cfa8faac6b7136a0b4f46cf807a9d3d96e465017, f81c0e7bbb12afa4868c1e565952faa1c8801f92, 3fb6f4055a1c198a9b8d7e049a7f5fbfc42b17ca, b764c8babe1d8d6100c700f934c95ca4508ed098]","1","3","2","2","[app/controllers/advocates/claims_controller.rb, app/controllers/api/advocates/claims_controller.rb]","[app/controllers/advocates/claims_controller.rb, app/controllers/api/advocates/claims_controller.rb]","1.0","1.0","4.1.8","3","[]","0","6","[app/controllers/advocates/claims_controller.rb, app/controllers/api/advocates/claims_controller.rb, app/views/advocates/claims/edit.html.haml, app/views/advocates/claims/new.html.haml, app/views/advocates/claims/show.html.haml, app/views/advocates/claims/summary.html.haml]","[create, select, fill_in, attach_file, click_on, page, eq, have_content, fill_in, click_on]","","[]","","0","0.362 seconds","false","0","0","[]","[]","2","[app/controllers/advocates/claims_controller.rb, app/controllers/api/advocates/claims_controller.rb]","1.0"
"2115","[27-04-2015, 28-04-2015]","1","9","[5a35f4e271a052e7bf93ca7bdfb4c04e1b249ab5, 1e238c630cfb43991185e3b091b3c07036948ce7, 967a18eaf185ef1501621db49cd9ab265bca27a5, 9d76c90fd635f911581acbe2ea8d5536aeaa773d, f640ceac2871e87796c8d8fdc536d30570965854, eab731365d8d7735bcb655d746a32a81063119c5, 14c64bfd23ca7c29fd458b299d8b45ab3ec5de23, a3706d844df9b59f3d579f6aa1c2fc6cdbbbdc67, 5fc481b0e45c7f673b23290153f46ff148424038]","1","13","1","7","[app/controllers/case_workers/admin/case_workers_controller.rb]","[app/controllers/advocates/application_controller.rb, app/controllers/advocates/claims_controller.rb, app/controllers/application_controller.rb, app/controllers/case_workers/admin/application_controller.rb, app/controllers/case_workers/admin/case_workers_controller.rb, app/controllers/case_workers/application_controller.rb, app/controllers/case_workers/claims_controller.rb]","1.0","0.1428571429","4.1.8","9","[]","0","2","[app/controllers/case_workers/admin/case_workers_controller.rb, app/views/case_workers/admin/case_workers/allocate.html.haml]","[create, email, fill_in, click_on, gsub, current_url, advocates_root_url, eq, case_workers_root_url, case_workers_admin_root_url, case_number, select, match_array, click_on, id, page, have_selector, each, fill_in, click_on, user, id, create_list, update_column, case_workers]","","[app/controllers/admin/application_controller.rb, app/controllers/admin/users_controller.rb, app/controllers/case_workers/admin/users_controller.rb, app/views/admin/users/_form.html.haml, app/views/admin/users/allocate.html.haml, app/views/admin/users/edit.html.haml, app/views/admin/users/index.html.haml, app/views/admin/users/new.html.haml, app/views/admin/users/show.html.haml, app/views/case_workers/admin/users/_form.html.haml, app/views/case_workers/admin/users/allocate.html.haml, app/views/case_workers/admin/users/edit.html.haml, app/views/case_workers/admin/users/index.html.haml, app/views/case_workers/admin/users/new.html.haml, app/views/case_workers/admin/users/show.html.haml]","","0","0.468 seconds","false","0","6","[]","[app/controllers/advocates/application_controller.rb, app/controllers/advocates/claims_controller.rb, app/controllers/application_controller.rb, app/controllers/case_workers/admin/application_controller.rb, app/controllers/case_workers/application_controller.rb, app/controllers/case_workers/claims_controller.rb]","1","[app/controllers/case_workers/admin/case_workers_controller.rb]","0.17241379315338884"
"2124","[24-04-2015]","1","1","[16409e5743063aa412062ffb7c532e1533ed8580]","1","5","3","2","[app/controllers/advocates/claims_controller.rb, app/controllers/api/advocates/claims_controller.rb, app/controllers/documents_controller.rb]","[app/controllers/advocates/claims_controller.rb, app/controllers/documents_controller.rb]","0.6666666667","1.0","4.1.8","2","[]","0","5","[app/controllers/advocates/claims_controller.rb, app/controllers/api/advocates/claims_controller.rb, app/controllers/documents_controller.rb, app/views/advocates/claims/new.html.haml, app/views/documents/new.html.haml]","[create, select, attach_file, fill_in, click_on, be_present]","","[]","","0","0.044 seconds","true","1","0","[app/controllers/api/advocates/claims_controller.rb]","[]","2","[app/controllers/advocates/claims_controller.rb, app/controllers/documents_controller.rb]","0.9090909091033057"
"2127","[23-04-2015]","1","1","[a8e238efa8e4a23f7146764ab8e53ed8537ed1c2]","1","5","3","2","[app/controllers/advocates/claims_controller.rb, app/controllers/api/advocates/claims_controller.rb, app/controllers/documents_controller.rb]","[app/controllers/advocates/claims_controller.rb, app/controllers/documents_controller.rb]","0.6666666667","1.0","4.1.8","2","[]","0","5","[app/controllers/advocates/claims_controller.rb, app/controllers/api/advocates/claims_controller.rb, app/controllers/documents_controller.rb, app/views/advocates/claims/new.html.haml, app/views/documents/new.html.haml]","[create, select, attach_file, fill_in, click_on, be_present]","","[]","","0","0.044 seconds","false","1","0","[app/controllers/api/advocates/claims_controller.rb]","[]","2","[app/controllers/advocates/claims_controller.rb, app/controllers/documents_controller.rb]","0.9090909091033057"
"2150","[20-04-2015]","1","1","[d0aa80501321ea6d573459eca3ae27fe91f5a63b]","1","2","1","1","[app/controllers/case_workers/claims_controller.rb]","[app/controllers/case_workers/claims_controller.rb]","1.0","1.0","4.1.8","3","[]","0","2","[app/controllers/case_workers/claims_controller.rb, app/views/case_workers/claims/index.html.haml]","[create, id, page, have_selector, each, to_not, body, create_list, update_column, case_workers, id, click_on, fill_in, click_on]","","[]","","0","0.234 seconds","true","0","0","[]","[]","1","[app/controllers/case_workers/claims_controller.rb]","1.0"
"2153","[20-04-2015]","1","3","[4825748be8172bfcd2644083c8bc8027444757e5, 711958332e13a44d94d01aeb2ddb9f1969de0b3e, 7acb857a967bfa8f5862ed42180ef1bd74b04c1a]","1","2","1","1","[app/controllers/case_workers/claims_controller.rb]","[app/controllers/case_workers/claims_controller.rb]","1.0","1.0","4.1.8","3","[]","0","2","[app/controllers/case_workers/claims_controller.rb, app/views/case_workers/claims/index.html.haml]","[create, id, page, have_selector, each, to_not, body, create_list, update_column, case_workers, id, click_on, fill_in, click_on]","","[]","","0","0.071 seconds","false","0","0","[]","[]","1","[app/controllers/case_workers/claims_controller.rb]","1.0"
"2169","[16-04-2015]","1","12","[37e6ec451db849843fcd2d18cda0762a0929442f, 73f2313e6529f962935d05f619000745d7c63c89, 6fb22154f5465ebb8d609c3f47ab201c5a35db20, 586109109c2cf3ffd59c6caa07ff5f251ff179f5, 6bcd02e075399a8da265a0a4ec2670466a350ed9, f7c7a4159b15a14d352a6002d8cfe55860426f91, 6b746b2c37dfcc9f41c21c5b99c48b647939b6c6, efaad5377847f2d2c13a82809391f63c402bc1d9, c9318aa7b3716cf882686542428fd90f69d28633, bc7f24bf7a5523e9a8d48e84819ec260b1323137, 3c65225fe819442ec64c9b19940c7a2a88c7d825, 9a54555692014dbaf955f26aba4da44adac1bab4]","1","2","1","0","[app/controllers/documents_controller.rb]","[]","0.0","0.0","4.1.8","1","[]","0","2","[app/controllers/documents_controller.rb, app/views/documents/new.html.haml]","[attach_file, click_on, be_present]","","[]","","0","0.034 seconds","false","1","0","[app/controllers/documents_controller.rb]","[]","0","[]","0"
"2174","[16-04-2015]","1","1","[dd500ccf0d630c08ca5b8c8f916ade86b73357c2]","1","7","1","1","[app/controllers/admin/users_controller.rb]","[app/controllers/admin/users_controller.rb]","1.0","1.0","4.1.8","4","[]","0","2","[app/controllers/admin/users_controller.rb, app/views/admin/users/allocate.html.haml]","[create, create_list, case_number, select, click_on, claims_to_manage, match_array, click_on, id, page, have_selector, each, fill_in, click_on]","","[]","","0","0.062 seconds","false","0","0","[]","[]","1","[app/controllers/admin/users_controller.rb]","1.0"
"2183","[10-04-2015, 13-04-2015]","2","5","[1dc06b796ba95d75ff87dbf817acaf810656ffe8, f991953907c6e8e52d3ee5099087ef01c988f474, db761b6e14a0f82cbc56b3f09b5a8094623b28f5, 236272cacb767900e9f5c54a2f1064d42b2b4d48, 9351ae4a22bbe6b9bed369299b2815d32e506fb9]","1","2","0","0","[]","[]","0.0","0.0","4.1.8","1","[]","0","0","[]","[gsub, create, email, fill_in, click_on, gsub, current_url, advocates_root_url, eq, case_workers_root_url, admin_root_url, be_submitted]","","[]","","0","0.087 seconds","true","0","0","[]","[]","0","[]","0"
