Given /^(?:|I )am on (.+)$/ do |page_name|
  visit path_to(page_name)
end
When /^(?:|I )follow "([^"]*)"(?: within "([^"]*)")?$/ do |link, selector|
  with_scope(selector) do
    click_link(link)
  end
end
When /^(?:|I )select "([^"]*)" from "([^"]*)"(?: within "([^"]*)")?$/ do |value, field, selector|
  with_scope(selector) do
    select(value, :from => field)
  end
end
Then /^(?:|I )should see "([^"]*)"(?: within "([^"]*)")?$/ do |text, selector|
  with_scope(selector) do
    if page.respond_to? :should
      page.should have_content(text)
    else
      assert page.has_content?(text)
    end
  end
end
  def with_scope(locator)
    locator ? within(locator) { yield } : yield
  end
  def path_to(page_name)
    case page_name

    when /the home\s?page/
      '/'
    when /the signup page/
      '/en/signup' 
    when /the requests page/
      '/en/requests'
    when /the offers page/
      '/en/offers'  
    when /the edit listing page/
      edit_listing_path(:id => @listing.id) 
    when /^the give feedback path of "(.*)"$/i
      new_person_message_feedback_path(:person_id => @people[$1].id, :message_id => @conversation.id.to_s)
    when /^the conversation path of "(.*)"$/i
      person_message_path(:person_id => @people[$1].id, :id => @conversation.id.to_s)
    when /^the profile page of "(.*)"$/i
      person_path(:id => @people[$1].id)
    when /^the badges page of "(.*)"$/i
      person_badges_path(:person_id => @people[$1].id)
    when /the listing page/
      listing_path(:id => @listing.id)
      
    # the following are examples using path_to_pickle

    when /^#{capture_model}(?:'s)? page$/                           # eg. the forum's page
      path_to_pickle $1

    when /^#{capture_model}(?:'s)? #{capture_model}(?:'s)? page$/   # eg. the forum's post's page
      path_to_pickle $1, $2

    when /^#{capture_model}(?:'s)? #{capture_model}'s (.+?) page$/  # eg. the forum's post's comments page
      path_to_pickle $1, $2, :extra => $3                           #  or the forum's post's edit page

    when /^#{capture_model}(?:'s)? (.+?) page$/                     # eg. the forum's posts page
      path_to_pickle $1, :extra => $2                               #  or the forum's edit page
    

    # Add more mappings here.
    # Here is an example that pulls values out of the Regexp:
    #
    #   when /^(.*)'s profile page$/i
    #     user_profile_path(User.find_by_login($1))

    else
      begin
        page_name =~ /the (.*) page/
        path_components = $1.split(/\s+/)
        self.send(path_components.push('path').join('_').to_sym)
      rescue Object => e
        raise "Can't find mapping from \"#{page_name}\" to a path.\n" +
          "Now, go and add a mapping in #{__FILE__}"
      end
    end
  end
