"Repository","https://github.com/opf/openproject.git"
"Precision mean (RT)","0.01515151515"
"Precision median (RT)","0.0"
"Precision standard deviation (RT)","0.03538631564016696"
"Recall mean (RT)","0.16666666666666666"
"Recall median (RT)","0.0"
"Recall standard deviation (RT)","0.38924947208076155"
"F2 mean (RT)","0.05555555555148148"
"F2 median (RT)","0.0"
"F2 standard deviation (RT)","0.1297498240174055"
"Correlation #Test-Precision","-0.53"
"Correlation #Test-Recall","-0.53"
"Task","Dates","#Devs","#Commits","Hashes","#Gherkin_Tests","#Sted_defs","#TestI","#TaskI","TestI","TaskI","Precision","Recall","Rails","#visit_call","Lost_visit_call","#Views_TestI","#Code_View_Analysis","Code_View_Analysis","Methods_Unknown_Type","Renamed_Files","Deleted_Files","NotFound_Views","#NotFound_Views","Timestamp","Has_Merge","#FP","#FN","FP","FN","#Hits","Hits","f2"
"2923","[12-09-2016, 13-09-2016, 14-09-2016, 15-09-2016, 20-09-2016, 21-09-2016]","2","35","[655638f803f46658558cc9259898313762b3defc, 4f3595cc75807d2540ad36eb43c6bd8a05524eb5, 1f59bec1f180c023d81781e64a98a429f27e8235, da7b63eeb73f69fb09c2461963a9f43bd31a0904, c08c9c0fc67e3f60918c9163c97c8ca1bd1f3946, 309e826ed7766d68f67d5713882ab03e1519741e, d5a5cac7c67ea6144fd3d20e98312e6b4cb7fb0f, 81d517db835379757dd10f8540cabcb6f5ff4706, c8b2669c2d3ad4bc1da55981a7955eb61695648d, e8dec710105778110ba1c9b911b0119c3084abed, ef7153543ecffb2a6950ab2c5cb97e7e7ca129d6, 953f8d8cc54b82031ace711791ea716c490698f2, c71f6c6cdda6e3b2142e6af6141bd41a1c718314, bc19d44a11967fefad6329f5f90c01ee7eb2b6f5, ad8b88f14fde03ae54c70f2813227adbeee6f915, 26a63b95881279e07ec87a13ad28d0fa7e9cf20c, 34d1548ee54224addb87902a3b9022d7913f0352, 888e962b167b26fe0eb0a844aeb3111fe1616db1, 6a48aaba6a38edbccf6cd37ec46d909c34786db3, ae7b0a3ca2b6be841cecced230c4397063bbb18a, b97defd2dfd97df51a25a39a815ab1616e8a94aa, e842f4abfafd3e0f580bc50e0d50e43304c22991, 93ea33ce9ae2c079d8a817723aa492f8a42995a7, b4753de00a0159ac4c18481501bb1f4becccec99, a528bd72a25cb98dbfc91a3a273d854c867b9c0e, a6d265eb7920ac63a6afcdb87f527a90df2e4c78, a22b0dfd2ba9d7a851bcb7506c46870ca1286cc9, 74d80eaab47751ec4855dd5755cd66f20c85a208, e3546e1d68aa78ef0c59ccfd390d7ad22d3a25a6, b5e9fe0515a1fe072667e704cf02d59e5aefab71, 31df201d4054b221e30c0842b09a2e857926927a, 68c3cf411c9df7e167eea34537012449ba771bb8, 461f9c32b25c5c49fccec3e7f9cf6d8728ac0595, ec2bcc04a5feafbcba7c9e1c3e59fc41020d2f68, 4fab8974ce2e2923101aced5125cbf59ef87deab]","6","1","2","5","[app/controllers/api/v2/reportings_controller.rb, app/controllers/reportings_controller.rb]","[app/controllers/api/experimental/concerns/grape_routing.rb, app/controllers/members_controller.rb, app/controllers/time_entries/reports_controller.rb, app/controllers/timelog_controller.rb, app/controllers/work_packages_controller.rb]","0.0","0.0","5.0.0","1","[]","0","3","[app/controllers/api/v2/reportings_controller.rb, app/controllers/reportings_controller.rb, app/views/reportings/index.html.erb]","[fill_in, click, page, have_content, page, have_content, have_no_content, within, raise, click_link_or_button, find_field, eql, page, set_rack_session, raw, rows_hash, gsub, send, class, raise, save!, to_i, times, map_headers, hashes]","","[]","","0","1.993 seconds","false","2","5","[app/controllers/api/v2/reportings_controller.rb, app/controllers/reportings_controller.rb]","[app/controllers/api/experimental/concerns/grape_routing.rb, app/controllers/members_controller.rb, app/controllers/time_entries/reports_controller.rb, app/controllers/timelog_controller.rb, app/controllers/work_packages_controller.rb]","0","[]","0"
"2539","[20-01-2017]","1","6","[c5f545bfd02eb0d7a6615da91cdaff698a60a772, c0837bc7c686a3f8a542ad724226333c9064f218, 1a285fc530165dde5efd4e25c4792c2f00680ddf, 6b5a4df797b88d31b5a688b3ef651191e63f1c0e, 311c11bbc572955468e9620e1592f9749bb19cd6, 0990cb219dd874efb0fa69211e59526bd5a3223f]","5","1","2","0","[app/controllers/account_controller.rb, app/controllers/homescreen_controller.rb]","[]","0.0","0.0","5.0.0","3","[]","0","12","[app/controllers/homescreen_controller.rb, app/views/account/_auth_providers.html.erb, app/views/account/_footer.html.erb, app/views/account/_login.html.erb, app/views/account/_password_login_form.html.erb, app/views/account/_register.html.erb, app/views/account/login.html.erb, app/views/announcements/_show.html.erb, app/views/customizable/_field.html.erb, app/views/homescreen/index.html.erb, app/views/hooks/login/_auth_provider.html.erb, app/views/onboarding/_starting_video_modal.html.erb]","[fill_in, page, have_content, have_selector, within, raise, set_rack_session, fill_in, click_button, within, gsub, gsub, all, click, page]","","[app/views/account/register.html.erb]","[/users?sort=created_on:desc&status=2]","1","1.601 seconds","false","2","0","[app/controllers/account_controller.rb, app/controllers/homescreen_controller.rb]","[]","0","[]","0"
"2903","[04-10-2016, 05-10-2016, 06-10-2016]","2","6","[0b2ec6cfcb96ef5d0cba68183855880bfe702adc, 1795f1bf4777a6381d9547ca60aec660fc8ef486, ffe3625e40182f22c26500b0e843c7724a475841, 8f1c5d76b756586aaa74b2eb67f3f1846852b225, d8b4d8dd015336244c18e94b9593dd7c35414286, fc3f04f7c1397347ef47c59d466aaffdd2cff5a5]","5","0","5","1","[app/controllers/admin_controller.rb, app/controllers/api/experimental/work_packages_controller.rb, app/controllers/projects_controller.rb, app/controllers/sys_controller.rb, app/controllers/work_packages_controller.rb]","[app/controllers/copy_projects_controller.rb]","0.0","0.0","5.0.0","5","[]","0","4","[app/controllers/api/experimental/work_packages_controller.rb, app/controllers/work_packages_controller.rb, app/views/work_packages/_sidebar.html.erb, app/views/work_packages/index.html.erb]","[gsub, map_headers, hashes, raw, flatten, page, set_rack_session, click_button, click_button, click_link, fill_in, click, page, have_content, nil?, find_field, be_truthy, within, raise, click_link_or_button, rows_hash, save!, ago, to_date, tap, days, send_table_to_object, first_name, last_name, to_i, times, raise, add_permission!, each_with_index, method, location, send, class, gsub!, save, merge!, merge, blank?]","","[]","","0","3.091 seconds","false","5","1","[app/controllers/admin_controller.rb, app/controllers/api/experimental/work_packages_controller.rb, app/controllers/projects_controller.rb, app/controllers/sys_controller.rb, app/controllers/work_packages_controller.rb]","[app/controllers/copy_projects_controller.rb]","0","[]","0"
"2928","[15-09-2016, 16-09-2016, 19-09-2016]","1","3","[c30da3e640e09a016dd5e8b564328776db7a5cab, d2d9a3ec124b99996bc07555a614c44eea3105c5, 458071df19d55e7537db2b64f37fa577cc482319]","5","0","15","0","[app/controllers/admin_controller.rb, app/controllers/api/experimental/projects_controller.rb, app/controllers/api/experimental/versions_controller.rb, app/controllers/api/experimental/work_packages_controller.rb, app/controllers/api/v2/pagination/projects_controller.rb, app/controllers/api/v2/projects_controller.rb, app/controllers/api/v2/timelines_controller.rb, app/controllers/api/v2/versions_controller.rb, app/controllers/news_controller.rb, app/controllers/projects_controller.rb, app/controllers/sys_controller.rb, app/controllers/timelines_controller.rb, app/controllers/versions_controller.rb, app/controllers/work_packages/bulk_controller.rb, app/controllers/work_packages_controller.rb]","[]","0.0","0.0","4.2.7.1","3","[]","0","41","[app/controllers/api/experimental/projects_controller.rb, app/controllers/api/experimental/versions_controller.rb, app/controllers/api/experimental/work_packages_controller.rb, app/controllers/api/v2/pagination/projects_controller.rb, app/controllers/api/v2/projects_controller.rb, app/controllers/api/v2/timelines_controller.rb, app/controllers/api/v2/versions_controller.rb, app/controllers/news_controller.rb, app/controllers/projects_controller.rb, app/controllers/timelines_controller.rb, app/controllers/versions_controller.rb, app/controllers/work_packages/bulk_controller.rb, app/controllers/work_packages_controller.rb, app/helpers/work_packages_filter_helper.rb, app/views/customizable/_form.html.erb, app/views/news/_form.html.erb, app/views/news/_news.html.erb, app/views/news/show.html.erb, app/views/projects/_members_box.html.erb, app/views/projects/show.html.erb, app/views/timelines/_comparison.html.erb, app/views/timelines/_custom_fields.html.erb, app/views/timelines/_form.html.erb, app/views/timelines/_general.html.erb, app/views/timelines/_timeline.html.erb, app/views/timelines/_vertical_planning_elements.html.erb, app/views/timelines/confirm_destroy.html.erb, app/views/timelines/edit.html.erb, app/views/timelines/filter/_planning_elements.html.erb, app/views/timelines/filter/_projects.html.erb, app/views/timelines/group/_grouping.html.erb, app/views/timelines/new.html.erb, app/views/timelines/show.html.erb, app/views/versions/_form.html.erb, app/views/versions/_overview.html.erb, app/views/versions/edit.html.erb, app/views/versions/show.html.erb, app/views/wiki/_content.html.erb, app/views/work_packages/_sidebar.html.erb, app/views/work_packages/bulk/destroy.html.erb, app/views/work_packages/index.html.erb]","[page, set_rack_session, page, set_rack_session, blank?, raise, raw, rows_hash, gsub, send, class, save!, to_i, times, click_link, fill_in, click, page, have_content, have_no_content, current_url, within, gsub, id, project, routes, gsub!, present?, class, find_by, send, raise, raise, first_name, last_name, all, click_link_or_button, ago, to_date, tap, days, send_table_to_object, first_name, last_name, map_headers, hashes, save!, have_selector, within, merge!]","","[]","[topic]","1","59.438 seconds","false","15","0","[app/controllers/admin_controller.rb, app/controllers/api/experimental/projects_controller.rb, app/controllers/api/experimental/versions_controller.rb, app/controllers/api/experimental/work_packages_controller.rb, app/controllers/api/v2/pagination/projects_controller.rb, app/controllers/api/v2/projects_controller.rb, app/controllers/api/v2/timelines_controller.rb, app/controllers/api/v2/versions_controller.rb, app/controllers/news_controller.rb, app/controllers/projects_controller.rb, app/controllers/sys_controller.rb, app/controllers/timelines_controller.rb, app/controllers/versions_controller.rb, app/controllers/work_packages/bulk_controller.rb, app/controllers/work_packages_controller.rb]","[]","0","[]","0"
"2760","[08-11-2016, 09-11-2016]","3","4","[cb5698592930cb8905cda43fa19a72860f3d43f7, 5bb6c9c77e030d082b258bf3eef604539ebfb4a1, 777759d65eadf3a15af0a17c6d9241666a778e4f, e5db7166f0f2e1d806f42856c042bb9f41246a79]","3","0","9","0","[app/controllers/admin_controller.rb, app/controllers/api/experimental/versions_controller.rb, app/controllers/api/experimental/work_packages_controller.rb, app/controllers/api/v2/versions_controller.rb, app/controllers/sys_controller.rb, app/controllers/types_controller.rb, app/controllers/versions_controller.rb, app/controllers/work_packages/bulk_controller.rb, app/controllers/work_packages_controller.rb]","[]","0.0","0.0","5.0.0","1","[]","0","15","[app/controllers/api/experimental/versions_controller.rb, app/controllers/api/experimental/work_packages_controller.rb, app/controllers/api/v2/versions_controller.rb, app/controllers/versions_controller.rb, app/controllers/work_packages/bulk_controller.rb, app/controllers/work_packages_controller.rb, app/views/customizable/_form.html.erb, app/views/versions/_form.html.erb, app/views/versions/_overview.html.erb, app/views/versions/edit.html.erb, app/views/versions/show.html.erb, app/views/wiki/_content.html.erb, app/views/work_packages/_sidebar.html.erb, app/views/work_packages/bulk/destroy.html.erb, app/views/work_packages/index.html.erb]","[page, set_rack_session, gsub, map_headers, hashes, nil?, save!, each_with_index, blank?, raise, click_button, current_url, within, gsub, id, project, routes, gsub!, present?, class, find_by, send, raise, first_name, last_name, to_i, raise, rows_hash, ago, to_date, tap, days, send_table_to_object, first_name, last_name, to_i, times, raw, add_permission!, merge!, has_key?, merge, click_link, fill_in]","","[]","[/projects(/.*)?/wiki/, topic]","2","1 minutes, 8.139 seconds","true","9","0","[app/controllers/admin_controller.rb, app/controllers/api/experimental/versions_controller.rb, app/controllers/api/experimental/work_packages_controller.rb, app/controllers/api/v2/versions_controller.rb, app/controllers/sys_controller.rb, app/controllers/types_controller.rb, app/controllers/versions_controller.rb, app/controllers/work_packages/bulk_controller.rb, app/controllers/work_packages_controller.rb]","[]","0","[]","0"
"3055","[22-08-2016]","1","2","[c5ca7e7782b01fae20e395fea4933074b09351fa, 728dff126eb7a5a8827e5513e91914d9aa7bef7f]","3","0","2","1","[app/controllers/admin_controller.rb, app/controllers/sys_controller.rb]","[app/controllers/wiki_menu_items_controller.rb]","0.0","0.0","4.2.7.1","2","[]","0","0","[]","[click_button, fill_in, choose, within, raise, click_link_or_button, page, set_rack_session, raw, rows_hash, gsub, send, class, raise, save!, to_i, times, tap, ago, to_date, days, send_table_to_object, first_name, last_name]","","[]","[/projects(/.*)?/wiki/]","1","1.883 seconds","false","2","1","[app/controllers/admin_controller.rb, app/controllers/sys_controller.rb]","[app/controllers/wiki_menu_items_controller.rb]","0","[]","0"
"2596","[10-01-2017, 11-01-2017]","3","6","[37958a31ac40691d2b408b6382e17b0680791bda, f77564f84f6f3cbc6b2eba199b40d3a602df38ac, 75bdb94abe694815582363bf53fd2bc9a20a61e7, 45b26177f3844d6fc2f5ff714708fb3a4e93fbd8, 7cf11bb68997b886986ee06613e5fd6e8f12c4af, 12bcec86c11640532d301f3674a02f32c596a808]","2","0","0","96","[]","[app/controllers/account_controller.rb, app/controllers/activities_controller.rb, app/controllers/admin_controller.rb, app/controllers/api/experimental/api_controller.rb, app/controllers/api/experimental/concerns/column_data.rb, app/controllers/api/experimental/concerns/grape_routing.rb, app/controllers/api/experimental/concerns/query_loading.rb, app/controllers/api/experimental/concerns/v3_naming.rb, app/controllers/api/experimental/groups_controller.rb, app/controllers/api/experimental/projects_controller.rb, app/controllers/api/experimental/queries_controller.rb, app/controllers/api/experimental/roles_controller.rb, app/controllers/api/experimental/users_controller.rb, app/controllers/api/experimental/versions_controller.rb, app/controllers/api/experimental/work_packages_controller.rb, app/controllers/api/v2/api_controller.rb, app/controllers/api/v2/authentication_controller.rb, app/controllers/api/v2/concerns/multiple_projects.rb, app/controllers/api/v2/custom_fields_controller.rb, app/controllers/api/v2/pagination/principals_controller.rb, app/controllers/api/v2/pagination/project_types_controller.rb, app/controllers/api/v2/pagination/projects_controller.rb, app/controllers/api/v2/pagination/reported_project_statuses_controller.rb, app/controllers/api/v2/pagination/statuses_controller.rb, app/controllers/api/v2/pagination/types_controller.rb, app/controllers/api/v2/pagination/users_controller.rb, app/controllers/api/v2/planning_element_journals_controller.rb, app/controllers/api/v2/planning_element_priorities_controller.rb, app/controllers/api/v2/planning_element_type_colors_controller.rb, app/controllers/api/v2/planning_element_types_controller.rb, app/controllers/api/v2/planning_elements_controller.rb, app/controllers/api/v2/project_associations_controller.rb, app/controllers/api/v2/project_types_controller.rb, app/controllers/api/v2/projects_controller.rb, app/controllers/api/v2/reported_project_statuses_controller.rb, app/controllers/api/v2/reportings_controller.rb, app/controllers/api/v2/statuses_controller.rb, app/controllers/api/v2/timelines_controller.rb, app/controllers/api/v2/users_controller.rb, app/controllers/api/v2/versions_controller.rb, app/controllers/api/v2/workflows_controller.rb, app/controllers/application_controller.rb, app/controllers/attachments_controller.rb, app/controllers/auth_sources_controller.rb, app/controllers/authentication_controller.rb, app/controllers/boards_controller.rb, app/controllers/categories_controller.rb, app/controllers/concerns/omniauth_login.rb, app/controllers/concerns/password_confirmation.rb, app/controllers/concerns/redirect_after_login.rb, app/controllers/concerns/user_invitation.rb, app/controllers/copy_projects_controller.rb, app/controllers/custom_fields_controller.rb, app/controllers/enumerations_controller.rb, app/controllers/groups_controller.rb, app/controllers/help_controller.rb, app/controllers/homescreen_controller.rb, app/controllers/journals_controller.rb, app/controllers/ldap_auth_sources_controller.rb, app/controllers/mail_handler_controller.rb, app/controllers/members_controller.rb, app/controllers/messages_controller.rb, app/controllers/my_controller.rb, app/controllers/news/comments_controller.rb, app/controllers/news_controller.rb, app/controllers/planning_element_journals_controller.rb, app/controllers/planning_element_type_colors_controller.rb, app/controllers/project_associations_controller.rb, app/controllers/project_enumerations_controller.rb, app/controllers/project_types_controller.rb, app/controllers/projects_controller.rb, app/controllers/reported_project_statuses_controller.rb, app/controllers/reportings_controller.rb, app/controllers/repositories_controller.rb, app/controllers/roles_controller.rb, app/controllers/search_controller.rb, app/controllers/settings_controller.rb, app/controllers/statuses_controller.rb, app/controllers/sys_controller.rb, app/controllers/time_entries/reports_controller.rb, app/controllers/timelines_controller.rb, app/controllers/timelog_controller.rb, app/controllers/types_controller.rb, app/controllers/users/memberships_controller.rb, app/controllers/users_controller.rb, app/controllers/versions_controller.rb, app/controllers/watchers_controller.rb, app/controllers/wiki_controller.rb, app/controllers/wiki_menu_items_controller.rb, app/controllers/work_packages/auto_completes_controller.rb, app/controllers/work_packages/bulk_controller.rb, app/controllers/work_packages/calendars_controller.rb, app/controllers/work_packages/moves_controller.rb, app/controllers/work_packages/reports_controller.rb, app/controllers/work_packages_controller.rb, app/controllers/workflows_controller.rb]","0.0","0.0","5.0.0","1","[]","0","10","[app/models/activity/changeset_activity_provider.rb, app/models/activity/message_activity_provider.rb, app/models/activity/news_activity_provider.rb, app/models/activity/time_entry_activity_provider.rb, app/models/activity/wiki_content_activity_provider.rb, app/models/activity/work_package_activity_provider.rb, app/models/work_package.rb, app/views/activities/index.html.erb, lib/plugins/acts_as_event/lib/acts_as_event.rb, lib/plugins/acts_as_journalized/lib/redmine/acts/journalized/deprecated.rb]","[page, set_rack_session, fill_in, page, have_content, click_link_or_button]","","[]","","0","1.258 seconds","true","0","96","[]","[app/controllers/account_controller.rb, app/controllers/activities_controller.rb, app/controllers/admin_controller.rb, app/controllers/api/experimental/api_controller.rb, app/controllers/api/experimental/concerns/column_data.rb, app/controllers/api/experimental/concerns/grape_routing.rb, app/controllers/api/experimental/concerns/query_loading.rb, app/controllers/api/experimental/concerns/v3_naming.rb, app/controllers/api/experimental/groups_controller.rb, app/controllers/api/experimental/projects_controller.rb, app/controllers/api/experimental/queries_controller.rb, app/controllers/api/experimental/roles_controller.rb, app/controllers/api/experimental/users_controller.rb, app/controllers/api/experimental/versions_controller.rb, app/controllers/api/experimental/work_packages_controller.rb, app/controllers/api/v2/api_controller.rb, app/controllers/api/v2/authentication_controller.rb, app/controllers/api/v2/concerns/multiple_projects.rb, app/controllers/api/v2/custom_fields_controller.rb, app/controllers/api/v2/pagination/principals_controller.rb, app/controllers/api/v2/pagination/project_types_controller.rb, app/controllers/api/v2/pagination/projects_controller.rb, app/controllers/api/v2/pagination/reported_project_statuses_controller.rb, app/controllers/api/v2/pagination/statuses_controller.rb, app/controllers/api/v2/pagination/types_controller.rb, app/controllers/api/v2/pagination/users_controller.rb, app/controllers/api/v2/planning_element_journals_controller.rb, app/controllers/api/v2/planning_element_priorities_controller.rb, app/controllers/api/v2/planning_element_type_colors_controller.rb, app/controllers/api/v2/planning_element_types_controller.rb, app/controllers/api/v2/planning_elements_controller.rb, app/controllers/api/v2/project_associations_controller.rb, app/controllers/api/v2/project_types_controller.rb, app/controllers/api/v2/projects_controller.rb, app/controllers/api/v2/reported_project_statuses_controller.rb, app/controllers/api/v2/reportings_controller.rb, app/controllers/api/v2/statuses_controller.rb, app/controllers/api/v2/timelines_controller.rb, app/controllers/api/v2/users_controller.rb, app/controllers/api/v2/versions_controller.rb, app/controllers/api/v2/workflows_controller.rb, app/controllers/application_controller.rb, app/controllers/attachments_controller.rb, app/controllers/auth_sources_controller.rb, app/controllers/authentication_controller.rb, app/controllers/boards_controller.rb, app/controllers/categories_controller.rb, app/controllers/concerns/omniauth_login.rb, app/controllers/concerns/password_confirmation.rb, app/controllers/concerns/redirect_after_login.rb, app/controllers/concerns/user_invitation.rb, app/controllers/copy_projects_controller.rb, app/controllers/custom_fields_controller.rb, app/controllers/enumerations_controller.rb, app/controllers/groups_controller.rb, app/controllers/help_controller.rb, app/controllers/homescreen_controller.rb, app/controllers/journals_controller.rb, app/controllers/ldap_auth_sources_controller.rb, app/controllers/mail_handler_controller.rb, app/controllers/members_controller.rb, app/controllers/messages_controller.rb, app/controllers/my_controller.rb, app/controllers/news/comments_controller.rb, app/controllers/news_controller.rb, app/controllers/planning_element_journals_controller.rb, app/controllers/planning_element_type_colors_controller.rb, app/controllers/project_associations_controller.rb, app/controllers/project_enumerations_controller.rb, app/controllers/project_types_controller.rb, app/controllers/projects_controller.rb, app/controllers/reported_project_statuses_controller.rb, app/controllers/reportings_controller.rb, app/controllers/repositories_controller.rb, app/controllers/roles_controller.rb, app/controllers/search_controller.rb, app/controllers/settings_controller.rb, app/controllers/statuses_controller.rb, app/controllers/sys_controller.rb, app/controllers/time_entries/reports_controller.rb, app/controllers/timelines_controller.rb, app/controllers/timelog_controller.rb, app/controllers/types_controller.rb, app/controllers/users/memberships_controller.rb, app/controllers/users_controller.rb, app/controllers/versions_controller.rb, app/controllers/watchers_controller.rb, app/controllers/wiki_controller.rb, app/controllers/wiki_menu_items_controller.rb, app/controllers/work_packages/auto_completes_controller.rb, app/controllers/work_packages/bulk_controller.rb, app/controllers/work_packages/calendars_controller.rb, app/controllers/work_packages/moves_controller.rb, app/controllers/work_packages/reports_controller.rb, app/controllers/work_packages_controller.rb, app/controllers/workflows_controller.rb]","0","[]","0"
"2882","[11-10-2016, 12-10-2016]","2","9","[5db362af4dcf0caf3eb97447d8299a66226ebd0d, 6c5177d8bf4bd2c4f2de4d669fb6a55d6cf5a496, bcff9779245c0051125a531bee5053c7511c64aa, b9dca3412b49dc76058f89e5f5ee84ca54c3b63e, b49245ec2c31faa0f9c39167c0e7d88510507657, c8cb4ed509ad29b5db774aea03cc0f8068fe661a, 7b4b232768e485d09ff8b14fd7a3aff58fd844d6, f7e86feb7174cbf0ee29b44f3e57117a2f5a6f0b, c3013d6272cef96c5cc3d1f4723b6c9efcdc5dcb]","2","0","3","1","[app/controllers/admin_controller.rb, app/controllers/projects_controller.rb, app/controllers/sys_controller.rb]","[app/controllers/api/experimental/queries_controller.rb]","0.0","0.0","5.0.0","3","[]","0","0","[]","[fill_in, click, page, have_content, within, raise, click_link, has_css?, all, page, set_rack_session, page, set_rack_session, gsub, map_headers, hashes, nil?, save!, each_with_index, blank?, raise, raw, rows_hash, send, class, to_i, times, tap, add_permission!, ago, to_date, days, send_table_to_object, first_name, last_name, location, flatten, has_key?, merge, save, click_link_or_button, find_field, within, raise, merge!]","","[]","[/work_packages(/.*)?/activity]","1","3.177 seconds","false","3","1","[app/controllers/admin_controller.rb, app/controllers/projects_controller.rb, app/controllers/sys_controller.rb]","[app/controllers/api/experimental/queries_controller.rb]","0","[]","0"
"2880","[12-10-2016, 13-10-2016]","3","11","[b18c9d4d34f630221a9ffce07c3bb61a0ce6980e, 35886e2f59ba514e24eb0cb482b0d3f090fe241f, 6cdc78679e686915374e4adb6987688bcdbb558e, 054e36852644a5204c35f503a58a759ad9948fbd, 2afefd7193b5381c20f6cc607c7ae95f2f4727cd, bf43ff0b4f3542f89b77e9ce794fe63ceaca44ed, 6e62083200db3745f8c648bfd7781a3dee037a32, 0d6329b4719528af3a6a3fde3ffaa8e00eb94f4d, 5e136707d9ac2c814a247127b69e8afb4064304c, 11d4b30d1012b8af66afb30e3d9aa4c3146d3a56, 12d0737ccb1c64429a604ddd75607a39b1b60823]","1","0","2","1","[app/controllers/admin_controller.rb, app/controllers/sys_controller.rb]","[app/controllers/copy_projects_controller.rb]","0.0","0.0","5.0.0","2","[]","0","0","[]","[gsub, map_headers, hashes, raw, flatten, page, set_rack_session, fill_in, click, page, have_content, within, raise, click_link_or_button, rows_hash, save!, ago, to_date, tap, days, send_table_to_object, first_name, last_name, to_i, times, raise, add_permission!, merge!]","","[]","","0","1.775 seconds","true","2","1","[app/controllers/admin_controller.rb, app/controllers/sys_controller.rb]","[app/controllers/copy_projects_controller.rb]","0","[]","0"
"2912","[26-09-2016, 27-09-2016]","2","2","[bb2d607de60d66a75124f890f2cd70bdab2916a9, def76c7927e50fbe5da4e81b43949e33463e2aeb]","1","0","11","1","[app/controllers/api/experimental/projects_controller.rb, app/controllers/api/experimental/versions_controller.rb, app/controllers/api/experimental/work_packages_controller.rb, app/controllers/api/v2/pagination/projects_controller.rb, app/controllers/api/v2/projects_controller.rb, app/controllers/api/v2/versions_controller.rb, app/controllers/news_controller.rb, app/controllers/projects_controller.rb, app/controllers/versions_controller.rb, app/controllers/work_packages/bulk_controller.rb, app/controllers/work_packages_controller.rb]","[app/controllers/work_packages_controller.rb]","0.0909090909","1.0","4.2.7.1","3","[]","0","26","[app/controllers/api/experimental/projects_controller.rb, app/controllers/api/experimental/versions_controller.rb, app/controllers/api/experimental/work_packages_controller.rb, app/controllers/api/v2/pagination/projects_controller.rb, app/controllers/api/v2/projects_controller.rb, app/controllers/api/v2/versions_controller.rb, app/controllers/news_controller.rb, app/controllers/projects_controller.rb, app/controllers/versions_controller.rb, app/controllers/work_packages/bulk_controller.rb, app/controllers/work_packages_controller.rb, app/helpers/work_packages_filter_helper.rb, app/views/customizable/_form.html.erb, app/views/news/_form.html.erb, app/views/news/_news.html.erb, app/views/news/show.html.erb, app/views/projects/_members_box.html.erb, app/views/projects/show.html.erb, app/views/versions/_form.html.erb, app/views/versions/_overview.html.erb, app/views/versions/edit.html.erb, app/views/versions/show.html.erb, app/views/wiki/_content.html.erb, app/views/work_packages/_sidebar.html.erb, app/views/work_packages/bulk/destroy.html.erb, app/views/work_packages/index.html.erb]","[page, set_rack_session, save!, raw, rows_hash, gsub, send, class, raise, to_i, times, click, page, have_content, have_no_content, current_url, driver, browser, switch_to, alert, accept, within, gsub, id, project, routes, gsub!, present?, class, find_by, send, raise, first_name, last_name]","","[]","[topic]","1","58.636 seconds","true","10","0","[app/controllers/api/experimental/projects_controller.rb, app/controllers/api/experimental/versions_controller.rb, app/controllers/api/experimental/work_packages_controller.rb, app/controllers/api/v2/pagination/projects_controller.rb, app/controllers/api/v2/projects_controller.rb, app/controllers/api/v2/versions_controller.rb, app/controllers/news_controller.rb, app/controllers/projects_controller.rb, app/controllers/versions_controller.rb, app/controllers/work_packages/bulk_controller.rb]","[]","1","[app/controllers/work_packages_controller.rb]","0.3333333333088889"
"2939","[12-09-2016]","1","4","[8391a9c0d273dd6f69a7a342a3ccdf44346e832f, 18458741859c0451747f42d92a1d937f7f8ebcde, 9ff3bd8ad98300d02dcfcf76597c19e40a3d3b34, 76f0314a9a636ece9519a0dc83a24a7add173b55]","1","0","2","1","[app/controllers/admin_controller.rb, app/controllers/sys_controller.rb]","[app/controllers/search_controller.rb]","0.0","0.0","5.0.0","1","[]","0","0","[]","[tap, save!, to_i, times, page, evaluate_script, lambda, to_f, raise, page, raw, flatten, have_selector, click, first_name, last_name, page, set_rack_session, raw, rows_hash, gsub, send, class, raise, save!, to_i, times, ago, to_date, tap, days, send_table_to_object, first_name, last_name, within, raise]","","[]","[/users(/.*)?/edit/]","1","1.778 seconds","false","2","1","[app/controllers/admin_controller.rb, app/controllers/sys_controller.rb]","[app/controllers/search_controller.rb]","0","[]","0"
"3083","[11-08-2016, 12-08-2016]","1","8","[36a3b722ba0d9fddc5b5f84140fb9d0c3bd476e9, a5e3f3223d1458d00b4babc6fad35ab8e7c44ae3, f0f078b20874fd94eba886378c037f41e15468e9, 3388a64c9de89e6a3c462a809cd22c71ba08c6f6, 47f7d3e14de1150429727399fbd76602d5d6b90f, 1641335acf8ef5d5fa8c92d63f7fe3de51f015ef, 77d70d6286eeb130311f4a787ecb6e6608d9b92f, b4019d166c30046297d41ed7d401b9ffc193696d]","1","0","11","1","[app/controllers/api/experimental/projects_controller.rb, app/controllers/api/experimental/versions_controller.rb, app/controllers/api/experimental/work_packages_controller.rb, app/controllers/api/v2/pagination/projects_controller.rb, app/controllers/api/v2/projects_controller.rb, app/controllers/api/v2/versions_controller.rb, app/controllers/news_controller.rb, app/controllers/projects_controller.rb, app/controllers/versions_controller.rb, app/controllers/work_packages/bulk_controller.rb, app/controllers/work_packages_controller.rb]","[app/controllers/work_packages_controller.rb]","0.0909090909","1.0","4.2.5","3","[]","0","26","[app/controllers/api/experimental/projects_controller.rb, app/controllers/api/experimental/versions_controller.rb, app/controllers/api/experimental/work_packages_controller.rb, app/controllers/api/v2/pagination/projects_controller.rb, app/controllers/api/v2/projects_controller.rb, app/controllers/api/v2/versions_controller.rb, app/controllers/news_controller.rb, app/controllers/projects_controller.rb, app/controllers/versions_controller.rb, app/controllers/work_packages/bulk_controller.rb, app/controllers/work_packages_controller.rb, app/helpers/work_packages_filter_helper.rb, app/views/customizable/_form.html.erb, app/views/news/_form.html.erb, app/views/news/_news.html.erb, app/views/news/show.html.erb, app/views/projects/_members_box.html.erb, app/views/projects/show.html.erb, app/views/versions/_form.html.erb, app/views/versions/_overview.html.erb, app/views/versions/edit.html.erb, app/views/versions/show.html.erb, app/views/wiki/_content.html.erb, app/views/work_packages/_sidebar.html.erb, app/views/work_packages/bulk/destroy.html.erb, app/views/work_packages/index.html.erb]","[page, set_rack_session, save!, raw, rows_hash, gsub, send, class, raise, to_i, times, click, page, have_content, have_no_content, current_url, driver, browser, switch_to, alert, accept, within, gsub, id, project, routes, gsub!, present?, class, find_by, send, raise, first_name, last_name]","","[lib/redmine/menu_manager/top_menu/work_packages_menu.rb]","[topic]","1","57.827 seconds","false","10","0","[app/controllers/api/experimental/projects_controller.rb, app/controllers/api/experimental/versions_controller.rb, app/controllers/api/experimental/work_packages_controller.rb, app/controllers/api/v2/pagination/projects_controller.rb, app/controllers/api/v2/projects_controller.rb, app/controllers/api/v2/versions_controller.rb, app/controllers/news_controller.rb, app/controllers/projects_controller.rb, app/controllers/versions_controller.rb, app/controllers/work_packages/bulk_controller.rb]","[]","1","[app/controllers/work_packages_controller.rb]","0.3333333333088889"
