"REPO_URL","TASK_ID","#HASHES","HASHES","#PROD_FILES","#TEST_FILES","LAST"
"https://github.com/sharetribe/sharetribe.git","2351","8","[59bca9afbd388c9f64e4510710f84b115e1dfc0d, 2013a12d54755af786c7a42621ae0e6a21a8c075, a62cf5beb52858ca7372b86392b84c72dfc78467, dc995deb7e92edea6132231ff7e04bd93cf0240f, 92f6aa978c4714aba68de081af7ee7aeadb1d2bc, b7ccf2c385d2013f4411e11d60521a76619c9e4f, ccaf612ff1185e40faf9d7acac3225085f684eac, 805447a0873785bda6be53e6c58dc426cf551620]","14","1","59bca9afbd388c9f64e4510710f84b115e1dfc0d","708a80597774aeb510d7d4a004dba90ec7fb016a","125769238f669dbf210294af4f1e74516f6eb7f3"
"https://github.com/sharetribe/sharetribe.git","2359","1","[60559a7238f82799d18ee163192bafd222ee892c]","1","4","60559a7238f82799d18ee163192bafd222ee892c","0d8e9182127cbb730e57f532478b8d7973ef8641","4dc231fb680a41d887bf83a36a7106a813ad32bb"
"https://github.com/sharetribe/sharetribe.git","2364","2","[f100c1baacf03ea82e9e8628790ad13ead25c8f2, 6b31fce07c1cd395141572ad66610bbf9948c953]","1","1","f100c1baacf03ea82e9e8628790ad13ead25c8f2","bb4077876592e2c22b85331d6b50e11c8f2ce932","574e1893b79fbc023b430c46661db5f31acb4339"
"https://github.com/sharetribe/sharetribe.git","2374","3","[0489c577920bca7460b9a1740867a9828d5837dc, 4e85b53c8926329b65b4605fc912a517beded062, d3e7d5c87e449435c955c5e34910a207491c7a99]","4","1","0489c577920bca7460b9a1740867a9828d5837dc","3a760201dea66a3e4a72d745e703ee7857c699c7","48a3a7100da98c998aa5ca73ec009aec01174bc5"
"https://github.com/sharetribe/sharetribe.git","2383","2","[48a3a7100da98c998aa5ca73ec009aec01174bc5, 4331498da7591298bc0e158dc21bbf796c6bfd22]","51","8","48a3a7100da98c998aa5ca73ec009aec01174bc5","9b4959759c75480d4ec4e13603c0e386738cc85a","cf41460ac2f68125cae83d7ca9aba7d54d1f3b4b"
"https://github.com/sharetribe/sharetribe.git","2389","5","[1d90dec2872fd779ac81aaf1c52e2dde2bf65f3b, 0b4e80cf7aa380ad29e532fa257309459ef7d9a3, 079619f25220cbb1b53de8a933812d1f129e232e, f059b51d4fd599bb4d38a6dd71b6c42d7f804c55, ae2db37d3b8fac4ffd728ec239198238b6ab0547]","4","1","1d90dec2872fd779ac81aaf1c52e2dde2bf65f3b","258c19c3aea48a8ef65c75be1c3b974b7c10d760","2d4653ee9204f02560deda5f6770cf3aba20d0dc"
"https://github.com/sharetribe/sharetribe.git","2390","9","[67f390e942a59f0c9a507b1742dda99fb9b0dab0, c29f3c05ca45d78459e2914e09160d2b6e4d5b54, c3cdf5e5f590632f36215a0a16754e3f4e3ba4e4, 0b91343cc757930d86ba2ed96d8f1c8657f17eb8, b57ed5448f68100f78bba7b040041b141f55134a, 433d4a234e76f10d12b0a95efa954d9c47baf8bb, 219ac2fa5d7e990885039bdf0d452af22ca2c957, 7a7aeccbd102ced99f60eda578653ce0c6211511, b87193094522671f22da3a04870e2b604465c1b6]","9","1","67f390e942a59f0c9a507b1742dda99fb9b0dab0","42e5be64d87c2717f9b573be79855d1a2ab5e5cd","e38de3797fdc05ee06bfaffc3d1b19a6265e2f6a"
"https://github.com/sharetribe/sharetribe.git","2393","5","[4124ddbf9a6e967a82c765966a6fa3aa2e002593, 58d6a175893b9d45fe4a7bf6eee4bfd158c1133d, 284e9e07d9308cea9e5f049157e111a8ff8b133a, 5400f08f7ef180912d18801832f66fff191c688c, 20ff8c9211ccc230e939be141ba4700d86659361]","5","1","4124ddbf9a6e967a82c765966a6fa3aa2e002593","1be111d04007f365f60bf9d68fae658976e6489e","73831be731fe5a7029c75a9d3726446cbcad1d65"
"https://github.com/sharetribe/sharetribe.git","2394","1","[73831be731fe5a7029c75a9d3726446cbcad1d65]","12","3","73831be731fe5a7029c75a9d3726446cbcad1d65","f8ab5f12bb6f52cabc9adba04e778b3a23dc6aca","8c90f1f8f2fdacf5f6eb3f26156ec143d95529f4"
"https://github.com/sharetribe/sharetribe.git","2399","2","[8bfa166f72cf0efd4dae736d0e18188d5245a3b8, 8fc95062ccf81b1a1356703966a2b75e4be39c50]","2","1","8bfa166f72cf0efd4dae736d0e18188d5245a3b8","d3705ab87883d7e6d86b833a531db443b8252f83","9538e8a3b01597006c55801a24e231efd2999b4f"
"https://github.com/sharetribe/sharetribe.git","2400","2","[ab5a5c2a8c735c58c9b7494c50d7978172dfbbc4, ee2c094785a52264c2bad8217e28246b2a2517c8]","6","2","ab5a5c2a8c735c58c9b7494c50d7978172dfbbc4","b1c49627003a320f4dd4ecbfa6ea37388539a816","7fd584cad2d607877f5be977232f5143b24c6a24"
"https://github.com/sharetribe/sharetribe.git","2403","1","[9538e8a3b01597006c55801a24e231efd2999b4f]","14","1","9538e8a3b01597006c55801a24e231efd2999b4f","f9acab3a7e07423210562bfb693b2bc69aaca16c","3bd6669beb18e18d5d142787c85c4cf4f39ce8e5"
"https://github.com/sharetribe/sharetribe.git","2405","22","[ef1e4ae585db27b8652243b1fb5f00185f958b73, 7737aa40920410204b877f1e430127bc18b1fc21, 928f5b8ec022833247f00515219899419d78894a, 3531a1f0bf7d7276b4e0eef2f472858a92211f6d, ea71f33982baef997ea31b84904f1fcd1ce218e8, 8685a07e4e1679653313b3f8135fb74d73aee168, 929c08ae462950fc1cefc9698e744b8b4895a934, ac9f0403ba585c39fe09ddfcab27775ba8ea89de, edb526a873ec4db62b38106962abeed018dfed1e, 2cb7257a5e4d9aa696eaa694688139aa8626a4cb, 769a2f54e571f7386d7bac4e9f9007a005b6193f, daa5c66f9a336718114308fdac9a6e0489ff24aa, 4e4496b84cb80ff157b6fac84c9548b2e9f88d3d, ef0e5a8c41b8816836459c9c46f1bc80aecfc31c, d40ccdaba3213c15f88313eb87e909a7de77bcc3, bd677954919f89f34977b4b54284990f59d07435, acccad3f026946d17bcc6378e016b3379976908f, 6cdd02f20eb1d99e656a505ea72e672ad420cb53, 1e87ca3ea7e6fb649838acb7ee3e13c3f5db6b14, 443b1c2776a77b30e808d8647fc3b76ace7853f6, 8949df84b2e043cf8371d4c1a3672cbd2b642cdb, 32d3bf894f719765add34e75d2823537a03f15b9]","14","2","ef1e4ae585db27b8652243b1fb5f00185f958b73","3bd6669beb18e18d5d142787c85c4cf4f39ce8e5","133ebca4d9a773bf8ae6ddeb4f9905f01719d339"
"https://github.com/sharetribe/sharetribe.git","2407","3","[ce0b33a5b0170ee26b2d867ee5b4d1e2b940df9d, 46d5daa235c7b844e1fb72d8d997dc447cf6d268, adda11b6be4d33a89dac556225090f49e7e610bd]","10","2","ce0b33a5b0170ee26b2d867ee5b4d1e2b940df9d","7fd584cad2d607877f5be977232f5143b24c6a24","aefc47afc72a2f56419c5372809421bc87e15727"
"https://github.com/sharetribe/sharetribe.git","2416","1","[353727be3c1eff857314ea72b2d347939ba0d1a0]","5","1","353727be3c1eff857314ea72b2d347939ba0d1a0","ee84c96ab1038ba286fa84f347f11d1ea8b63e88","9f32b08a00e5fc3eab327cf96412487affb4429c"
"https://github.com/sharetribe/sharetribe.git","2426","2","[aefc47afc72a2f56419c5372809421bc87e15727, 5eaeccd0ef5f9e9e33c50bc086847ff92cbfd433]","7","1","aefc47afc72a2f56419c5372809421bc87e15727","cedd2dc87bfec1429faf95c70dac2b32e4658c3d","df34629a9e85e089ccc5d21d72840990af3b79db"
"https://github.com/sharetribe/sharetribe.git","2429","3","[2f5afd32554ecbd370f51e993fb96503ad33769c, 5efa7e148a5094edc26e2570a6774182d8fac2e8, fe739ba101e5c9e9c50efd5352bb6d547ae6839d]","7","1","2f5afd32554ecbd370f51e993fb96503ad33769c","df34629a9e85e089ccc5d21d72840990af3b79db","a2fb7675f92be729350c5dfcad4fdf51cf9f83be"
"https://github.com/sharetribe/sharetribe.git","2440","2","[91a91c4b281b539e514a7bfc59178c5cac95c86a, be983291c4ff36ec800b6a7f313b74da21deec27]","22","2","91a91c4b281b539e514a7bfc59178c5cac95c86a","12a0f784c6160e067b3a28f2cb0328b1206a002a","d436c6cc5656a7e6b8b19ee24414efbbfb05c1ea"
"https://github.com/sharetribe/sharetribe.git","2441","6","[03e10621b8edc9083c5343b0153a468656118099, ed66613ac8ec3b8c56dddaef258c86fc9b857460, 310bd3a4ab8f58b3b6cbacc7485f4e87eb004d2a, 0929a00656daa143e562f380af8bc8e46f42a484, 7e54f05a2bb9b93fc4bbcbd5c750032461ae399f, 6f25e3dbab284188acb93d41ada6d59a7879ed72]","16","1","03e10621b8edc9083c5343b0153a468656118099","62a15eeab5a61b6e1d7e4d5a047ca103892e2759","084b2a0e8ba550fa68ec5130279ed55b592a09e0"
"https://github.com/sharetribe/sharetribe.git","2443","1","[49fb14c36ef0ec3ae193827b70fc4c0e713800bd]","2","1","49fb14c36ef0ec3ae193827b70fc4c0e713800bd","29f64c7b2bb63ae8fcac8c9aa6b605d17c11a373","0680632f2ec8b3797bc1df9a27eaa64c2b0cf22a"
"https://github.com/sharetribe/sharetribe.git","2454","13","[321d649027bdcc83fed5a6708f1afa3d0b3f6d9f, 4ba43a37887f1ad704d8e40282e39ef631b9f08b, d61124c9fa84805fb32676cd3f29c8308bfce0af, e9da69c52f01d2e7c31f0959ab97eb33cba5d547, 4f34d9b30f780a9cce88937212aa31ec340bcedb, 4d5bbe24ef7b26330513708e5fc82292023c5e93, 253503f74ef0e08698448fb6b4536b9f236a0503, 84a1e4cf620b7f6abcf504dcdd30144477ca9110, 47ca4c936e8a65b47995f422c576997bb1803b5b, 8ade43068cc5a1595447a786bab44b1665040740, c9dd4d3c841aac053082590a6a165dd06c235d3e, 712e1d41f2723969b57822b191c7ff13ae193c64, 14451484c01592c4aebaa99c96bc64a27bfb6c3f]","8","2","321d649027bdcc83fed5a6708f1afa3d0b3f6d9f","e8ea2a0c75079aa659ea3982fbff2da2e0edf0e7","dc6ca48c670abeb981e2c6477ad48771ac0a49e2"
"https://github.com/sharetribe/sharetribe.git","2457","4","[4b31e4f57712eceb2455cd9dbc4c64462bbc4286, 61a5bc03a7093eda09da1228200d073a21da93eb, a3b02e100db532c98ae68f6d4bf5f231d9c9e451, d32eb07516444f1d82c20d7e8d484f58c3119309]","5","1","4b31e4f57712eceb2455cd9dbc4c64462bbc4286","f6f7d56f5884d14dc446f3c17b2367ede12aab5c","c61db2482ae87ddc5b40266a69c20e1a62906d7f"
"https://github.com/sharetribe/sharetribe.git","2458","5","[d0908f0583df23af4630ac9208f016e089bdfe1b, b5228d2429f142ffe276953c0ed5c8b9b2ecc6bd, f1c9bbcc9b5eccf0a8aec8454c4b025c4b9b0e9a, f6ce7c14fd44c2096fe9dc4e868fa55d1652e96d, b1e70c4a20ec8248b7fb1f1c68f26c4b902c671c]","6","1","d0908f0583df23af4630ac9208f016e089bdfe1b","f6f7d56f5884d14dc446f3c17b2367ede12aab5c","b1993cada8ec56ba0caf1530b61109ff572dd040"
"https://github.com/sharetribe/sharetribe.git","2461","4","[730c668292277d8940dd4057c152a29d5347a655, 37b7aaf8fd791a41e54f56058e95f32b6a85c5e2, 72b2892facb67614598966cb4a244aec9b70a931, 1227b749b8bbade97d8b5c0156165d67fd954999]","9","6","730c668292277d8940dd4057c152a29d5347a655","af93edcefe42bd5c49b3389e517d063397821944","275e1bace914233ac59c156c90c3c6acb9c6187b"
"https://github.com/sharetribe/sharetribe.git","2464","9","[3e5d724c4961965292c1e2e80d09f6cee40a3562, a06322a474320a1290dccf97214329098b741656, 5d46903361bf99646ec4dc32af42414fa3316896, d6bbe759ef147959cae12bb4f8a799e399e62469, 3151d1aa439d109c7a7dfe1097fc096aa3e1bdd0, 52e87b7d16ce420ddda9aeecfae4c4b80f620244, ec53f0cb0da46158b615f99ce2bf60f96b663644, e2132074afbf8d7d8a28dcf852eb351db93169d0, 18dae4c05fa2bc31df9570b67b6bbf4eb8e17b9b]","4","2","3e5d724c4961965292c1e2e80d09f6cee40a3562","38c31c16ed9f67155abe4affa8121dbcc4e91e86","3507d550ce574add0a74c273867d030af92b2019"
"https://github.com/sharetribe/sharetribe.git","2469","1","[5c6f69a8d0a29bc4d948e7bd207837a34babc2cb]","1","1","5c6f69a8d0a29bc4d948e7bd207837a34babc2cb","5fdac15c9ecfa343e323d65a7795145d16428774","576c3a96fa808dbdbad2a6b20f8e7065a4cb9ebb"
"https://github.com/sharetribe/sharetribe.git","2470","2","[6d1bb97e8806263a2eebbc0fbadfc24e457360f8, 63dfb3314f2a5304776748b42e1db06e3c071250]","12","7","6d1bb97e8806263a2eebbc0fbadfc24e457360f8","5fdac15c9ecfa343e323d65a7795145d16428774","576c3a96fa808dbdbad2a6b20f8e7065a4cb9ebb"
"https://github.com/sharetribe/sharetribe.git","2471","12","[7b5c07c338a2b862c52e6dc43ce99f62a313eaa3, 71702bec77ede55fc89033aedf6541914a962d2f, d20ec53e571247561825d9219c9c69e5f66a0f71, bd9fc6bc2f5c27ec797fed3bc058908ec4367169, f1846d84fbb549540ab1e419824c4fd916e36345, 05327676c46ae1ae6198133fc3150b061e8c35c8, c1b159673787ad059528f8f14a935c5db8e5e62c, e5a1d01f04f4f1f7974633de3b1270ed06acdca8, 5bc82b23a01c76952d1c03a0fa7caa357f477bec, 9b0df93b73633772ae12a84d66e8a9d339d21689, 3327825b0c101112b3e5b915b6e226c49a9cba65, 07c3dded705a1d4643d9211798af780b228432ee]","11","5","7b5c07c338a2b862c52e6dc43ce99f62a313eaa3","96fa718f9941153b8794aa92775a1241e2ab9f50","319e83b0daec06ee5dc0809549a712072226bef8"
"https://github.com/sharetribe/sharetribe.git","2472","3","[b69c18d088a9fb6750c69553d4742f1e16cd6b24, 8132452d191c603a5c8fb229073f84f3819b0d68, 472f512b53c05b2c332ae5b691960c5915a560e3]","102","30","b69c18d088a9fb6750c69553d4742f1e16cd6b24","96fa718f9941153b8794aa92775a1241e2ab9f50","8a284b1fa81a14d618f8e4dd8c65385f1e4d3f09"
"https://github.com/sharetribe/sharetribe.git","2478","7","[a9bf91db6161b075886fb74e91713fb85a1eb584, db8b4848e2400d9b719e3bda66e1c0d7828264df, b145a90391052c9f4879092e21416e7edde40724, ee24be1f6cc7bdafb239664f48d8073ab4b3c4f7, a47c051fea44b5012bcf892251ee5b8d341552e8, 5f39b6fdb4db6892c46032528fb67ae6862173bb, b7ba7ca294b7853e09c42098dbbc4b1c7dcfd7c2]","4","2","a9bf91db6161b075886fb74e91713fb85a1eb584","5a1c832431b6d99fa56aa7afc12a40985c0d48f8","3503faebb4395f5f0cd02f7bb022ce939687c6d5"
