"REPO_URL","TASK_ID","#HASHES","HASHES","#PROD_FILES","#TEST_FILES","LAST"
"https://github.com/sharetribe/sharetribe.git","2832","8","[f2e23bd4a23207288322ac42aed68d62431005da, b208bf4c184c5eb02329d06523a2da677cbc62ac, 0e7ddc12b9ca94d89b751a1e6d632f753c58d403, bb3a32e571476362e819d6fd7d40ac94b24e30bd, 37951aa975c9414f7f74ff05add76b6d13d99502, d302f88c25a12bcb2be7be5660407a07f8ac4de5, 16b4bcfc705e457d9740b35897d947c813fd4ad2, 32870dabb6329b32811025eaebc0d588256bfe95]","22","6","f2e23bd4a23207288322ac42aed68d62431005da","419ccb9460c6336dd66516f1b1dd2b79a8e305af","f14c846b7b42e82108aa34b7e4c4ca47867b262d"
"https://github.com/sharetribe/sharetribe.git","2840","5","[457871618e2aa034effa2bdfe63e738d6798a928, b2125d77bccf4ab85d5f1e10ad43559a154e7ea7, d691ad78217a40812c61f33b144e0e4bc5784271, e645e1d6bf403fb3d9e4577a8ee1ef9278d27b0e, 1a773e7fe011a333cb5b63d2ff75b419d1efaeac]","10","4","457871618e2aa034effa2bdfe63e738d6798a928","cf0604ffbe15ded3fca5e8162e17567ebdaa1345","6794daad6eeca36c594650fc71a84a97f551b412"
"https://github.com/sharetribe/sharetribe.git","2841","5","[bd2531952cfb3b44017ec70a3415a2b1d9fa5d4a, d6f70bca7824f0053b3561d9e7660a7bb9528617, 2c3653a65760316f61d85064a2c6c5de469d83ad, f319d9c9438a1ca0198667872c0a85e3f247eb6c, 39bef630571fdff063ae686f187b69221afe9df8]","17","1","bd2531952cfb3b44017ec70a3415a2b1d9fa5d4a","6794daad6eeca36c594650fc71a84a97f551b412","6fc905b52acb7c76f5271391a819f95ca4a95208"
"https://github.com/sharetribe/sharetribe.git","2845","5","[232f4a2e5954395ca8a997b1f7887e3cf4854289, 6c0458e46404155a3a2441bcc2d82caf5af78bb5, 9ee0db7b450bfc9e3526ede687885029100c6f9c, e72dbbdfd776ed8eca96e68e1f1d0fc673a08d03, 9b2a3949e90bbb4fbf378559c93d3065320d0ccc]","14","6","232f4a2e5954395ca8a997b1f7887e3cf4854289","94d4bc11062a7e2374033ff660535d82197e96fa","eb94a5d11aaf32bcba5fdcd3b12e86573ca3bcea"
"https://github.com/sharetribe/sharetribe.git","2846","5","[008d1e3130984ea979f8c0608affabc09429643a, 476449943ac3d3c7018ef84a294c23e1e34883d9, f7e68735863282fd04bea1aef88058ee2036bf13, f7ad580d5b3785ec0d74846c1a0930993b49bfeb, 0c61ec9b3a863472a4d31e01bf5a9ebf133edd9b]","6","3","008d1e3130984ea979f8c0608affabc09429643a","74483b226a393507e686904206e27ed903ace294","d14a34edbc264d86851501c5c46618ee31139ed8"
"https://github.com/sharetribe/sharetribe.git","2847","4","[eed46f9bfc7cea64e54a021bf61d308a526f1395, ed53d0aff235a0b714e67318f480bfd89ff94140, 2a0f88980666ba874dcb7fed254256d78b1272ac, 45af3ccb57c27dc093935f726da0b533f6d1e3cf]","3","2","eed46f9bfc7cea64e54a021bf61d308a526f1395","74483b226a393507e686904206e27ed903ace294","552a5c4ef293c45c3acfc1778f2f35283fca0e26"
"https://github.com/sharetribe/sharetribe.git","2850","23","[63f4dc170b63d2582d4b04097586d06600ae985f, 87aab73ff6fa268bdd8f53fa2d91debebf4353a5, 2cdba0e27343518fb5dfdd832ee61213da38326b, 78b8d932413ef628cbaac5a9af7e5df10203526e, 6b9550e137fb60bc3bd5fa2653be12191effeca4, 31d30d3871d604692d4e3ecdb16b3ee0a8607288, e21ef30ede845a6559d764c96359cfe3ce9be686, f5f4338a824576bbc2c50619c0eabd1add249cbb, 96343292d45d8d4689917d731091ace1d2512b7d, ba51c1683baf0d9ffca7969272dff47a5c435f65, 3c31ec874443cef161bc36776869867f540b32d9, 351012c3e8fa454064bdf7bb43cb3482a98288f2, 14d030709d0f475180559586524d526324ab8ae7, 9241776caab4417ac87df9a12c19d052ea8409e3, 3a2dff99f5ad5a7fc5672b9f625f64be5ba17cfb, 3827d7ebd78a38ffb792789e3079c749dc8202ab, 599fe019018cf1566fe220328ceada41a0dca4bb, 4825a5f81e5ef74fbd84a757d8d442b4299f460f, c07aadfa701e5b057c639c33c16c77d431249091, fe5730bd3dc610e6f4a8f4355888c062f8b771a0, aa4e2e3f0e839adcad85c9e1cc24ffd64f50bbdc, e68bef35095583efb10bb256885bce0ee1bc8f3b, c9e0aabde0425b552996ec4be532c0eeb9808118]","26","1","63f4dc170b63d2582d4b04097586d06600ae985f","acba3538aa980353cb8349ec93b7201f1554978a","d960c80bcbdc049b0915c7406ba008c9fb3a0386"
"https://github.com/sharetribe/sharetribe.git","2857","31","[e01853c7dbee1b05f2d48d44b8236451aacdb440, 6a06ddbccbff3d6ce1821344b27373f74fd631ae, 47de6ca42a5cc11a42a62efabe1df0f8ea198776, 49a6d4ad79543b211470e43cc4859f122f0b7a5e, 3ae22c4d292d36ecbe201bfa41ce552de0502c9a, c8de81ebdfdd409192559e7b227f4b6d55d3064d, 988b7db90986d60533c28248507efab14cb8534e, fdc134b538114d1a4c616582cf3b9116cf07ad66, bd780a4d0ce9274a8d3b8c2c885c9247d6bf0e14, 660bdf3670dd152dfb15a6821d09ed9e774b763e, d63e7373eabbd89288b55262956139bd7767573c, 98ae993a6656e611354be41cfb6554757eff45c6, 251d84e9a33d0de585af877defe9cf1662ca43e4, 75dbb35ba895e06bf881c2ddf37d443bac585b2d, cede6284bd3c661b9b23d4dddf36d7c74f1a9af3, 2b78defbc5574c182490ccb69197c5513a7adc97, ca8a0c4a2944255a80ecd012cdb64a62d494393c, 65a7c09a1596d5a1c72d4efda0f887106135d27b, aaed3e2500d80542d43baa72753c11cb07eb9f31, c185615496b8626e48dd8471eebb782be1a9e7d6, edc7dbb70bc5279e603d10b912cb215c8177f9cb, f26e9ac0d46043f0f86db9ba215793e3702e2683, 3eb8a9a510cb50184da85ac022cbd1e1f24a7060, e2cb0b7f0bd465f59678e2576d3974fcc79bc504, 4101451d7d5622ff3e9d2473574e1f2246351b45, 8e0fc626c1df07fde645897dc066168bf92478d7, 66bd3c2d0fa137e1745227a346903022133931f9, b1dc89949c0ab4614f6506c6467ed5b26bb0bc0a, f50df604fccc3e37a8fdda78d6818a5aa3cfd505, 830f391542e26c49b30cc192126870c83ae02cde, 2dc212304cbc1867321d7683fdddaea867fdb724]","27","2","e01853c7dbee1b05f2d48d44b8236451aacdb440","5304ef444c69cce42b3d5a49b22f03be0aa2eba9","30f87626307b67b8687f4447d8fb80064b82eb82"
"https://github.com/sharetribe/sharetribe.git","2858","22","[e5c44e3283f44c5b8ba910d84268b9d95ab60bea, f5f34bb3be6518e21888666949801df71ec33525, 43fc9482408c5e440ded92c1aef27287368d3b61, e9e42ba36c8f987bc7cfc1c0d5fcb8768b68fa77, 90b977a71307c0888c6dc9da551837920fcce718, d4be775857e9c41ed7fd9df10ffb20fcf073c142, a181631e5d82c475605bcfa18e98dae1201f3976, 1c5d31f2c1de0ecfd1099d69971f01f6051c2a37, 8e338ad92c351b5e5661988907cbc17a77911304, 96f8b39d76520538fbfd3d3c7f1da8e1c1f0b613, fc9142877852f49f37cf840add0b0a366faddf91, 9d09fd6380f456a3a0adb1c218c740b8879cfd4a, 730b289f579dffadf91a9fa698caee645b345e18, 4ae0cfe5751be890853f6cbec14c43747c6666f9, 762f423251f8c1588073f91be5d89905f64c8fe8, 8475d3f306a53e909d1bf93085a30760d23b4598, ba2303a8cbc7897fb997965f525e75bfc06591e9, 4bf38a2e7fd953c4121298c044873cfe44103829, 6bb6bf5c98df33ab2baf7ffd299114f2920c2077, d6c01090a52249bd7d8398b3a936c3ee7b0a9cc4, a71de196f916dab282409aec1907909951eb1319, e7afe55eb2baddbacb3feef05ac0f9210d510555]","48","5","e5c44e3283f44c5b8ba910d84268b9d95ab60bea","5304ef444c69cce42b3d5a49b22f03be0aa2eba9","cbf25b666fc70cd77ec09e5e72738b711ea548c0"
"https://github.com/sharetribe/sharetribe.git","2860","1","[fd6619a7ad558bf784affc5d7d96d77676e9d639]","2","1","fd6619a7ad558bf784affc5d7d96d77676e9d639","cbf25b666fc70cd77ec09e5e72738b711ea548c0","25433d2903d12073f0ff9c9df8aa6e1973fccd5a"
"https://github.com/sharetribe/sharetribe.git","2881","1","[e7a80986cfd1e28b61a724e6053d9c188bc87e3b]","3","4","e7a80986cfd1e28b61a724e6053d9c188bc87e3b","8dfc308f4e6c1687bd25efa3a74449a273096a2c","b20a22ba945a28242a181c843861f33767eddbff"
"https://github.com/sharetribe/sharetribe.git","2888","4","[a56c7a5f85ce6c73c843df4671f484f94d7e6d63, 771757602d2f394c77ed4e24df01d210452dec50, c02837afe97b28d2228bc0aefdbebe0a3c8988b8, c6333e15ee230a2bfd070c496569a4097949ef57]","31","2","a56c7a5f85ce6c73c843df4671f484f94d7e6d63","5bda1b33ba1704951830ab6b86772cf697ef7435","c99f24ac82c7053acd12d4218c3925394ae27835"
"https://github.com/sharetribe/sharetribe.git","2892","4","[98f946ee882270433792270c8ced0024a7a16a10, 5bea458727a7305008c7c5c3bc43bb8029dac008, a16e66c818b886411487066cc075f750cd6b6fad, 7169566e8aa88616cef161d4a4790c6e24452b20]","11","3","98f946ee882270433792270c8ced0024a7a16a10","d799f317c206eb10bce1c08691967257d99a1f41","689c29710f43bc3309baf78442bf2f44e3587bcd"
"https://github.com/sharetribe/sharetribe.git","2897","17","[8967647dcaca7e017780d66f79b31374c793d026, 8fe980f0ee7a32644a0324a4a6199b224daf2b51, 082a04a73f544a56345de8beb0a0261ce9dc47a8, c6127e1876682b25fda379ccb98ff933e70c6f3e, 6de1cb062360da0183b0e41e866ff92f8c35c19c, 8dd84d4ec66529446470e5b8a44cbb3c361bbba5, 1eb97051c28839768aabe540783255578e28c773, fe9a1f68f01067c2d80d848b1a9512151ba2349d, 242e33373939739bf2fa563a37d8e0a79abf82e9, a76e724fcc156a35cefec59e417a3c73d414b365, 1baf2edd3492dacb2aa15ed9224cc2227318dc44, 9269f254420a81fc490ff795fc15ed83ace1de54, abb12514dece8433c83b3e8afac68221cd8e954b, 06e53b73bb0dd812fa6674700396885582c0330e, 4778c7c25cc5abf31e44886b4e344102e3e47cc4, 6122a44c0f4d3dad64475f9ce75c5598b5690e79, 12d8154e951e896c55263e2c7cad4b1605e1104b]","11","2","8967647dcaca7e017780d66f79b31374c793d026","d9eb1666c60585bc8c574ea699a2ddc3834894ff","674be63bc92da39f9885b80692deb6673fe45677"
"https://github.com/sharetribe/sharetribe.git","2899","4","[abb31cbd3a7cb8c98609528796a14d1ae7af1513, f1e9a03c7ae898d2e7108bc72879a4224367fd91, f47b864778293ad2c29890be05142025785991b3, 4d981765cfc35c276edbc9b967e954381e371bb3]","3","3","abb31cbd3a7cb8c98609528796a14d1ae7af1513","25fa7e70faddd62275f1de993834bb5a75fb2fa7","597055df94fe54866ab21e1b37856a4ad8334284"
"https://github.com/sharetribe/sharetribe.git","2900","1","[426b69b0d451fbb226bfca47519b07b95c83c03b]","3","1","426b69b0d451fbb226bfca47519b07b95c83c03b","c99f24ac82c7053acd12d4218c3925394ae27835","3e936d6d685fea94a2cc7b064f33ceeb670bed01"
"https://github.com/sharetribe/sharetribe.git","2901","1","[f17b211a1d068d3348c82a35068e228f913e1c5e]","3","1","f17b211a1d068d3348c82a35068e228f913e1c5e","c99f24ac82c7053acd12d4218c3925394ae27835","3e936d6d685fea94a2cc7b064f33ceeb670bed01"
"https://github.com/sharetribe/sharetribe.git","2905","1","[47b84ee52d7baefcc72e326d8b4314de060b1aef]","3","4","47b84ee52d7baefcc72e326d8b4314de060b1aef","cefd7671526c001c103acf3e9d13caca7dbad8b6","dce47d1244fa18bbd9c4439b1a86e97adc22caef"
"https://github.com/sharetribe/sharetribe.git","2906","2","[e2f831c4468bcab9bb8c1b4c2143aab2bade1781, 7ac7d3df7b8cc60819b6b7169a2ca24bfacce3b4]","3","1","e2f831c4468bcab9bb8c1b4c2143aab2bade1781","cefd7671526c001c103acf3e9d13caca7dbad8b6","dce47d1244fa18bbd9c4439b1a86e97adc22caef"
"https://github.com/sharetribe/sharetribe.git","2948","3","[28c1da6885f07373892de4d9a728079e6e02500f, f9a70c37e4b801dd35e33dbafe790d5fa2801dce, 90093993ee91f819609542c3276dff3a9b4633a3]","13","2","28c1da6885f07373892de4d9a728079e6e02500f","f98d7d7e135cd86c19ffa3207c9d706ba40ba53f","56275bb709118833b7eae7d1604f3934a25b593e"
"https://github.com/sharetribe/sharetribe.git","2953","7","[82db9a43f4f418095e3602f26cdbd6d07bb4b690, e94f144c948286f643dff753e1e346ef4a9d682f, a5ba622b1337b9aa0381b8727cc50e0628ee5fea, 3b2375a931de7f5dfe3dc0eed152743432dbd9b9, 2f67bd838ae8bb5df31600d9eaaa5e775f93a01f, d3674b1a94b1912b8c224c1685f075c51f129b1a, 42d4304a03bbae0fcebb2f423c1df39531be3d6b]","4","1","82db9a43f4f418095e3602f26cdbd6d07bb4b690","bf9cdee9b5e921f61852098ef41eb2f83da27b49","901939abeb1de49cbbe113ab3d9a9607ba3bf970"
"https://github.com/sharetribe/sharetribe.git","2957","9","[f2126290e5dc835c4293b288a4c44e900df7d80d, fbdabb03d98f09f2fa892e04a5d6efda808780de, d2f1010a6895db3e2882e71fb9b2f023e2ecf355, 40f5d949770f0e912ddfd322ee69b34159626142, 21d25ff15a5f32fc0a06467db8fe28c3937cc6f5, ee2708a04d5c15834efd4e99b09280fc9fff1b7e, a64a8734e03a82368074e745550144101c83da83, 769104fb7891147271cff8f559b48d1a30d831a3, 0b85ea401911a72b7779584e2e72afb89aa73ea5]","10","1","f2126290e5dc835c4293b288a4c44e900df7d80d","b3e6481f0ab541fc5ad73cded7d4199e479a374e","e9df45c916dcd2437f0e10dd13466490cbd6cdff"
"https://github.com/sharetribe/sharetribe.git","2961","7","[a5792d30f93deae986145c7aae58bf21eb6f021d, 7a3bed013bde6875e7b88b5469669a5da539c49b, a5ba622b1337b9aa0381b8727cc50e0628ee5fea, 3b2375a931de7f5dfe3dc0eed152743432dbd9b9, 2f67bd838ae8bb5df31600d9eaaa5e775f93a01f, d3674b1a94b1912b8c224c1685f075c51f129b1a, 42d4304a03bbae0fcebb2f423c1df39531be3d6b]","4","1","a5792d30f93deae986145c7aae58bf21eb6f021d","efc7ebace0abdbdbcfb9b0c8b3518dd7739e82d6","901939abeb1de49cbbe113ab3d9a9607ba3bf970"
"https://github.com/sharetribe/sharetribe.git","2971","9","[671ddf8c85818baad06cf56cf351b5aa0cdcb4f9, 474322f319089c4d56ec2c0beebab6ede0a6601b, 161f9b5f990e60fe9d5ff8038ac271cea471585d, 212f2cbe4a6daf0717899158b769fd219fd689d5, 05e24c0bc289aad7e187a5e96ff3b8741dcbabfa, 9d7e324d007dad5d3f4226582db8ca66036ee659, 798607f70a62a2adf0d8ada10ef49f225e65a195, d59f4cd6b3eb912854b4990bb7fc9014caf82426, 2e9e34aeb530a6cca391983f9f4280447b83eb2d]","5","2","671ddf8c85818baad06cf56cf351b5aa0cdcb4f9","e9df45c916dcd2437f0e10dd13466490cbd6cdff","a44c0c67e4297afb73c8c71c363f9d89f150ec67"
"https://github.com/sharetribe/sharetribe.git","2978","3","[d126cb0af0abbaf637ba84351352585b0b6728c3, fba40b463e5482cbc728b5cd4fbd7e4aaecd28d4, 07c1e3e5ed7b647e5bb0ff1d72832291f34ca228]","2","2","d126cb0af0abbaf637ba84351352585b0b6728c3","7bf1c4dcd2dd6b2fa4e3d8a471e7fde7da66b91a","2a9a313d2c07a917db1115e786286cb36d32376e"
"https://github.com/sharetribe/sharetribe.git","2979","2","[60a76c26803bcc78ef698b03ecba2a1c48aa70ad, d519808bec41af226f2d89ba7e1dc93ddad88b9e]","4","1","60a76c26803bcc78ef698b03ecba2a1c48aa70ad","2a9a313d2c07a917db1115e786286cb36d32376e","05bc89970b14eb7df729a6b6c83829e23d581834"
"https://github.com/sharetribe/sharetribe.git","2980","17","[7fccf7bb5d3776a2bdd0d7f2e87dedb247163b8e, 9ff98d3bb6451befd7655592f3c6fc55a29a3b66, a75a4e384c1dbe5c76b83dedc562af41f98a1d76, 702472762da68525d9a6e036ad4c957ef972f4e2, f1e88bad2957d8d23b85f4a3fb20cc11b4b7fc06, a39ae860107bf0719a58708e326ce02b7bc628fc, 8ab1d86576e421c9c24556a28e2a1bc24547a287, b970eb9e2c339551f6611ad622035e9a2297ed9e, 5a73179cff13387a985fff75e9aa5f729c47c935, 7c2b2f2e88175d9adfd8be100da04251b2f11dcb, 23a4d757be75c8f59117fc158c126d7f3519cfc5, a51c3a731804e6d10c29b98416076812f858f544, 91dd13b60e46d8fed4955458aee0b23743d2477e, d1ccc1dd5623cca3572f7a862405d08a4be2d68e, 63ffe11c760be6716ace592161eaf3c976a8bfec, a4b36b583b0350a09299f669ec41eb82031592fd, 4738f1ed12290aa68ee19803409d043c9d0cdee1]","5","1","7fccf7bb5d3776a2bdd0d7f2e87dedb247163b8e","2a9a313d2c07a917db1115e786286cb36d32376e","05bc89970b14eb7df729a6b6c83829e23d581834"
"https://github.com/sharetribe/sharetribe.git","2981","5","[e99a181d8d48d54cca62e6e92780776c86e583df, a482b51573cdc8ee21c4cdb4a65aba5c43fcdf43, c71b8bbd6ae2cd3735e5102613868bd163d4415b, 631144f9fb7a60e6163c1094b0e8fb1e9f3f0f53, 9a7f06bdc4bebe42e3c73ba8503c72be56fa2eff]","13","5","e99a181d8d48d54cca62e6e92780776c86e583df","7ecebe56da40605214654870e1df8f818c9167d5","d5364beab7000bde4f091265bcea3f763e9347db"
"https://github.com/sharetribe/sharetribe.git","2986","2","[0f4218b79c77f3fca24f3b24540c2ddf90a7bf39, d5aa362df6161283f8d5a2c65cc772ad9d8e611f]","1","1","0f4218b79c77f3fca24f3b24540c2ddf90a7bf39","d5364beab7000bde4f091265bcea3f763e9347db","36684d6a686d12df770e5bab129845c1d7ff29be"
