"Repository","https://github.com/jpatel531/folioapp.git"
"Precision mean (RT)","0.6481481481333333"
"Precision median (RT)","0.8333333333"
"Precision standard deviation (RT)","0.47249447489508123"
"Recall mean (RT)","0.6193520886333334"
"Recall median (RT)","0.652173913"
"Recall standard deviation (RT)","0.10679344514050135"
"F2 mean (RT)","0.5753119429272558"
"F2 median (RT)","0.6818181817757025"
"F2 standard deviation (RT)","0.24589604330102655"
"Correlation #Test-Precision","0.87"
"Correlation #Test-Recall","0.87"
"Task","Dates","#Devs","#Commits","Hashes","#Gherkin_Tests","#Sted_defs","#TestI","#TaskI","TestI","TaskI","Precision","Recall","Rails","#visit_call","Lost_visit_call","#Views_TestI","#Code_View_Analysis","Code_View_Analysis","Methods_Unknown_Type","Renamed_Files","Deleted_Files","NotFound_Views","#NotFound_Views","Timestamp","Has_Merge","#FP","#FN","FP","FN","#Hits","Hits","f2"
"43","[28-07-2014]","1","8","[f08cb3a95c973f8e8aae929ca9d121c7849e67c4, 7af82170c4504b3aef0593b31aa4b0d579b31dbb, e402ef35b9df7f64069e5a822f0d75e4ab89e8f8, 1820aa064ec91851552a1a8ee801fc5ae766683a, 4616b546b35091714cbf9ec42696372203f7a00f, fcd7b392d92941a3fbaf85ddb0422705f0127ae9, 8be700d25a18b7235a6cff34c9e8df452a49f8da, e4061a3981481b2b43f47ef835a088183a24526a]","3","18","18","23","[app/controllers/home_controller.rb, app/controllers/opportunities_controller.rb, app/controllers/organisations_controller.rb, app/controllers/users_controller.rb, app/models/opportunity.rb, app/models/organisation.rb, app/models/user.rb, app/views/home/index.html.erb, app/views/opportunities/new.html.erb, app/views/organisations/_information.html.erb, app/views/organisations/_new_profile_pic.html.erb, app/views/organisations/_profile_picture.html.erb, app/views/organisations/new.html.erb, app/views/organisations/show.html.erb, app/views/users/_information.html.erb, app/views/users/_new_profile_pic.html.erb, app/views/users/_profile_picture.html.erb, app/views/users/show.html.erb]","[app/controllers/home_controller.rb, app/controllers/opportunities_controller.rb, app/controllers/organisations_controller.rb, app/controllers/submissions_controller.rb, app/controllers/users_controller.rb, app/helpers/opportunities_helper.rb, app/helpers/organisations_helper.rb, app/helpers/submissions_helper.rb, app/models/membership.rb, app/models/opportunity.rb, app/models/organisation.rb, app/models/submission.rb, app/models/user.rb, app/models/work.rb, app/views/home/index.html.erb, app/views/opportunities/new.html.erb, app/views/organisations/_information.html.erb, app/views/organisations/_new_profile_pic.html.erb, app/views/organisations/_profile_picture.html.erb, app/views/organisations/new.html.erb, app/views/organisations/show.html.erb, app/views/submissions/new.html.erb, app/views/users/show.html.erb]","0.8333333333","0.652173913","4.1.2","8","[]","11","15","[app/controllers/home_controller.rb, app/controllers/opportunities_controller.rb, app/controllers/organisations_controller.rb, app/controllers/users_controller.rb, app/views/home/index.html.erb, app/views/opportunities/new.html.erb, app/views/organisations/_information.html.erb, app/views/organisations/_new_profile_pic.html.erb, app/views/organisations/_profile_picture.html.erb, app/views/organisations/new.html.erb, app/views/organisations/show.html.erb, app/views/users/_information.html.erb, app/views/users/_new_profile_pic.html.erb, app/views/users/_profile_picture.html.erb, app/views/users/show.html.erb]","[click_link, click_button, attach_file, fill_in, create, select, fill_in, click_button, page, have_content, have_css, current_user, login_as, attach_file, find, have_text]","","[]","","0","0.512 seconds","false","3","8","[app/views/users/_information.html.erb, app/views/users/_new_profile_pic.html.erb, app/views/users/_profile_picture.html.erb]","[app/controllers/submissions_controller.rb, app/helpers/opportunities_helper.rb, app/helpers/organisations_helper.rb, app/helpers/submissions_helper.rb, app/models/membership.rb, app/models/submission.rb, app/models/work.rb, app/views/submissions/new.html.erb]","15","[app/controllers/home_controller.rb, app/controllers/opportunities_controller.rb, app/controllers/organisations_controller.rb, app/controllers/users_controller.rb, app/models/opportunity.rb, app/models/organisation.rb, app/models/user.rb, app/views/home/index.html.erb, app/views/opportunities/new.html.erb, app/views/organisations/_information.html.erb, app/views/organisations/_new_profile_pic.html.erb, app/views/organisations/_profile_picture.html.erb, app/views/organisations/new.html.erb, app/views/organisations/show.html.erb, app/views/users/show.html.erb]","0.6818181817757025"
"44","[24-07-2014, 25-07-2014]","2","18","[eeee1d02636477a38f9afd096a30ff63f833c03c, 2c2147ac87ac15d958b15c7079c056f9ecbafa96, af02bef5ca4e32daa145642fdb71deb0cfbd8e08, 9e49ec105c757c9fc09b1849a357e2b4b83210a6, 42098bd8e8b1da6c4c2f6a8567ed746be0190aca, 255ef4872830cc7d63f547a18fbd1460cdb9aebe, 8260febef37abda5588a3378662bf0cab6693806, 62fab6a06ee4c5dad91d827bffd45d8c94ef8793, a6f98320c3090327629046f3a916da1dc5ec6a73, df1808363f4b328d2d496e636835a553a1002bbb, d041299fd906664bc2ac3388295dac9e44b603e1, c3522ec0f4105de67d4538a61ce3c71abc1af8ca, 3be89c516946f1a928dc6c6be344f30efcc68e1d, 49b689d69bd26c271d2c45cc7bf604d32b3956bf, 294a7eac1ff569c431cfbc64fc9d8bb5593b5125, 13e3781ee5fa9969712d4abb4361ef8b7ec30513, cd2fece2ab36a7d040b0fb876b985896c491cf40, e8f076743961c377ccfb25c0bcb26fdebf243399]","3","13","12","17","[app/controllers/collections_controller.rb, app/controllers/users_controller.rb, app/controllers/works_controller.rb, app/models/collection.rb, app/models/user.rb, app/models/work.rb, app/views/collections/index.html.erb, app/views/users/_information.html.erb, app/views/users/show.html.erb, app/views/works/_art.html.erb, app/views/works/_writing.html.erb, app/views/works/new.html.erb]","[app/controllers/collections_controller.rb, app/controllers/users_controller.rb, app/controllers/works_controller.rb, app/helpers/collections_helper.rb, app/helpers/works_helper.rb, app/models/collection.rb, app/models/genre.rb, app/models/medium.rb, app/models/user.rb, app/models/work.rb, app/views/collections/index.html.erb, app/views/collections/show.html.erb, app/views/users/_information.html.erb, app/views/users/show.html.erb, app/views/works/_art.html.erb, app/views/works/_writing.html.erb, app/views/works/new.html.erb]","1.0","0.7058823529","4.1.2","2","[{path=jpatel531_folioapp/features/step_definitions/profile_creation_steps.rb, line=-1}]","6","9","[app/controllers/collections_controller.rb, app/controllers/users_controller.rb, app/controllers/works_controller.rb, app/views/collections/index.html.erb, app/views/users/_information.html.erb, app/views/users/show.html.erb, app/views/works/_art.html.erb, app/views/works/_writing.html.erb, app/views/works/new.html.erb]","[login_as, click_link, current_path, eq, click_button, within, attach_file, click_link, fill_in, click_button, current_path, eq, page, have_css, have_content, not_to, image, title, caption, publish, find, have_text]","","[]","","0","0.132 seconds","true","0","5","[]","[app/helpers/collections_helper.rb, app/helpers/works_helper.rb, app/models/genre.rb, app/models/medium.rb, app/views/collections/show.html.erb]","12","[app/controllers/collections_controller.rb, app/controllers/users_controller.rb, app/controllers/works_controller.rb, app/models/collection.rb, app/models/user.rb, app/models/work.rb, app/views/collections/index.html.erb, app/views/users/_information.html.erb, app/views/users/show.html.erb, app/views/works/_art.html.erb, app/views/works/_writing.html.erb, app/views/works/new.html.erb]","0.7499999999628125"
"2","[01-09-2014]","1","1","[4cdea803f21fd9f959966f8bd4a1bf50f82bc83d]","1","2","9","2","[app/controllers/opportunities_controller.rb, app/controllers/organisations_controller.rb, app/models/opportunity.rb, app/models/organisation.rb, app/models/user.rb, app/views/opportunities/new.html.erb, app/views/organisations/_information.html.erb, app/views/organisations/new.html.erb, app/views/organisations/show.html.erb]","[app/views/organisations/show.html.erb, app/views/users/show.html.erb]","0.1111111111","0.5","4.1.2","2","[]","4","6","[app/controllers/opportunities_controller.rb, app/controllers/organisations_controller.rb, app/views/opportunities/new.html.erb, app/views/organisations/_information.html.erb, app/views/organisations/new.html.erb, app/views/organisations/show.html.erb]","[click_link, fill_in, attach_file, select, click_button, page, have_content, have_css, login_as]","","[]","","0","0.174 seconds","false","8","1","[app/controllers/opportunities_controller.rb, app/controllers/organisations_controller.rb, app/models/opportunity.rb, app/models/organisation.rb, app/models/user.rb, app/views/opportunities/new.html.erb, app/views/organisations/_information.html.erb, app/views/organisations/new.html.erb]","[app/views/users/show.html.erb]","1","[app/views/organisations/show.html.erb]","0.2941176470432526"
