"Repository","https://github.com/cufcq/cufcq.git"
"Precision mean (RT)","0.6666666666666666"
"Precision median (RT)","1.0"
"Precision standard deviation (RT)","0.5773502691896258"
"Recall mean (RT)","0.15920634923333335"
"Recall median (RT)","0.130952381"
"Recall standard deviation (RT)","0.1750518765706894"
"F2 mean (RT)","0.1857581490494183"
"F2 median (RT)","0.15850144097799998"
"F2 standard deviation (RT)","0.20077891750301727"
"Correlation #Test-Precision","1.0"
"Correlation #Test-Recall","0.87"
"Task","Dates","#Devs","#Commits","Hashes","#Gherkin_Tests","#Sted_defs","#TestI","#TaskI","TestI","TaskI","Precision","Recall","Rails","#visit_call","Lost_visit_call","#Views_TestI","#Code_View_Analysis","Code_View_Analysis","Methods_Unknown_Type","Renamed_Files","Deleted_Files","NotFound_Views","#NotFound_Views","Timestamp","Has_Merge","#FP","#FN","FP","FN","#Hits","Hits","f2"
"36","[25-02-2015]","2","15","[2f4293cf99b9ec304ea850db9f6b1128e1b2151c, 1c8d92456efbb1ecf5b42794507b71c134137e3a, 1cd2017a722f0183096234981322b06e03ee9a87, 2113cc6ba12418c87ec091bee7c46250e711d14d, 788a54f133c48be08a32558dc23bd86926f4b735, 217d3fe8f900497168876943a2663e6fc57f3e8c, 653d0b65ab693757ed3805ec2b96c0d59c1d54e4, a78be44915d89b9338a89c0ea82a1d0eb55a9a1e, a1377ca6fa62afa656dc417af5af9fad48c5d8e8, ff3ae05846228f8de81af9eeb8587077e9310149, 7c69f4abe3f48648eca6e877e9ba0faff6c6e04d, 3297ec1e18f4f433c25727c957af5af4006d3309, e0edc8d5716844aece6b8921c2904a1d1dce63d0, a0b1a90ca7dc4ea9d21b566060005a27cd1c13fb, f075827ba4b24f8ae4e4132e94980c68848fad6c]","6","12","11","84","[app/controllers/courses_controller.rb, app/controllers/departments_controller.rb, app/controllers/instructors_controller.rb, app/controllers/static_pages_controller.rb, app/models/course.rb, app/models/department.rb, app/models/instructor.rb, app/views/courses/index.html.erb, app/views/departments/index.html.erb, app/views/instructors/index.html.erb, app/views/static_pages/help.html.erb]","[app/controllers/application_controller.rb, app/controllers/courses_controller.rb, app/controllers/departments_controller.rb, app/controllers/fcqs_controller.rb, app/controllers/instructors_controller.rb, app/controllers/static_pages_controller.rb, app/helpers/application_helper.rb, app/helpers/courses_helper.rb, app/helpers/departments_helper.rb, app/helpers/fcqs_helper.rb, app/helpers/instructors_helper.rb, app/helpers/search_helper.rb, app/helpers/static_pages_helper.rb, app/models/course.rb, app/models/department.rb, app/models/fcq.rb, app/models/instructor.rb, app/views/courses/_form.html.erb, app/views/courses/edit.html.erb, app/views/courses/index.html.erb, app/views/courses/new.html.erb, app/views/courses/show.html.erb, app/views/courses_old/_form.html.erb, app/views/courses_old/edit.html.erb, app/views/courses_old/index.html.erb, app/views/courses_old/new.html.erb, app/views/courses_old/show.html.erb, app/views/departments/_form.html.erb, app/views/departments/edit.html.erb, app/views/departments/index.html.erb, app/views/departments/new.html.erb, app/views/departments/show.html.erb, app/views/departments_old/_form.html.erb, app/views/departments_old/edit.html.erb, app/views/departments_old/index.html.erb, app/views/departments_old/new.html.erb, app/views/departments_old/show.html.erb, app/views/fcqs/_form.html.erb, app/views/fcqs/edit.html.erb, app/views/fcqs/index.html.erb, app/views/fcqs/new.html.erb, app/views/fcqs/show.html.erb, app/views/fcqs_old/_form.html.erb, app/views/fcqs_old/edit.html.erb, app/views/fcqs_old/index.html.erb, app/views/fcqs_old/new.html.erb, app/views/fcqs_old/show.html.erb, app/views/instructors/_form.html.erb, app/views/instructors/edit.html.erb, app/views/instructors/index.html.erb, app/views/instructors/new.html.erb, app/views/instructors/show.html.erb, app/views/instructors_old/_form.html.erb, app/views/instructors_old/edit.html.erb, app/views/instructors_old/index.html.erb, app/views/instructors_old/new.html.erb, app/views/instructors_old/show.html.erb, app/views/layouts/_course_dashboard.html.erb, app/views/layouts/_course_graph.html.erb, app/views/layouts/_course_scorecard.html.erb, app/views/layouts/_course_stack.html.erb, app/views/layouts/_course_titlecard.html.erb, app/views/layouts/_department_graph.html.erb, app/views/layouts/_department_scorecard.html.erb, app/views/layouts/_department_titlecard.html.erb, app/views/layouts/_fcq_dashboard.html.erb, app/views/layouts/_fcq_errorbar.html.erb, app/views/layouts/_fcq_scorecard.html.erb, app/views/layouts/_fcq_titlecard.html.erb, app/views/layouts/_fcqcard.html.erb, app/views/layouts/_footer.html.erb, app/views/layouts/_grade_pie.html.erb, app/views/layouts/_graph.html.erb, app/views/layouts/_header.html.erb, app/views/layouts/_instructor_dashboard.html.erb, app/views/layouts/_instructor_graph.html.erb, app/views/layouts/_instructor_scorecard.html.erb, app/views/layouts/_instructor_titlecard.html.erb, app/views/layouts/_scorecard.html.erb, app/views/layouts/_titlecard.html.erb, app/views/layouts/application.html.erb, app/views/static_pages/about.html.erb, app/views/static_pages/help.html.erb, app/views/static_pages/home.html.erb]","1.0","0.130952381","4.0.0","6","[]","4","8","[app/controllers/courses_controller.rb, app/controllers/departments_controller.rb, app/controllers/instructors_controller.rb, app/controllers/static_pages_controller.rb, app/views/courses/index.html.erb, app/views/departments/index.html.erb, app/views/instructors/index.html.erb, app/views/static_pages/help.html.erb]","[flunk, click_link, page, have_xpath, has_xpath?, instructor_first, crse, instructoroverall_SD, pending, pending]","","[app/controllers/application_controller.rb, app/controllers/courses_controller.rb, app/controllers/departments_controller.rb, app/controllers/fcqs_controller.rb, app/controllers/instructors_controller.rb, app/controllers/static_pages_controller.rb, app/helpers/application_helper.rb, app/helpers/courses_helper.rb, app/helpers/departments_helper.rb, app/helpers/fcqs_helper.rb, app/helpers/instructors_helper.rb, app/helpers/search_helper.rb, app/helpers/static_pages_helper.rb, app/models/course.rb, app/models/department.rb, app/models/fcq.rb, app/models/instructor.rb, app/views/courses/_form.html.erb, app/views/courses/edit.html.erb, app/views/courses/index.html.erb, app/views/courses/new.html.erb, app/views/courses/show.html.erb, app/views/courses_old/_form.html.erb, app/views/courses_old/edit.html.erb, app/views/courses_old/index.html.erb, app/views/courses_old/new.html.erb, app/views/courses_old/show.html.erb, app/views/departments/_form.html.erb, app/views/departments/edit.html.erb, app/views/departments/index.html.erb, app/views/departments/new.html.erb, app/views/departments/show.html.erb, app/views/departments_old/_form.html.erb, app/views/departments_old/edit.html.erb, app/views/departments_old/index.html.erb, app/views/departments_old/new.html.erb, app/views/departments_old/show.html.erb, app/views/fcqs/_form.html.erb, app/views/fcqs/edit.html.erb, app/views/fcqs/index.html.erb, app/views/fcqs/new.html.erb, app/views/fcqs/show.html.erb, app/views/fcqs_old/_form.html.erb, app/views/fcqs_old/edit.html.erb, app/views/fcqs_old/index.html.erb, app/views/fcqs_old/new.html.erb, app/views/fcqs_old/show.html.erb, app/views/instructors/_form.html.erb, app/views/instructors/edit.html.erb, app/views/instructors/index.html.erb, app/views/instructors/new.html.erb, app/views/instructors/show.html.erb, app/views/instructors_old/_form.html.erb, app/views/instructors_old/edit.html.erb, app/views/instructors_old/index.html.erb, app/views/instructors_old/new.html.erb, app/views/instructors_old/show.html.erb, app/views/layouts/_course_dashboard.html.erb, app/views/layouts/_course_graph.html.erb, app/views/layouts/_course_scorecard.html.erb, app/views/layouts/_course_stack.html.erb, app/views/layouts/_course_titlecard.html.erb, app/views/layouts/_department_graph.html.erb, app/views/layouts/_department_scorecard.html.erb, app/views/layouts/_department_titlecard.html.erb, app/views/layouts/_fcq_dashboard.html.erb, app/views/layouts/_fcq_errorbar.html.erb, app/views/layouts/_fcq_scorecard.html.erb, app/views/layouts/_fcq_titlecard.html.erb, app/views/layouts/_fcqcard.html.erb, app/views/layouts/_footer.html.erb, app/views/layouts/_grade_pie.html.erb, app/views/layouts/_graph.html.erb, app/views/layouts/_header.html.erb, app/views/layouts/_instructor_dashboard.html.erb, app/views/layouts/_instructor_graph.html.erb, app/views/layouts/_instructor_scorecard.html.erb, app/views/layouts/_instructor_titlecard.html.erb, app/views/layouts/_scorecard.html.erb, app/views/layouts/_titlecard.html.erb, app/views/layouts/application.html.erb, app/views/static_pages/about.html.erb, app/views/static_pages/help.html.erb, app/views/static_pages/home.html.erb]","","0","2.475 seconds","false","0","73","[]","[app/controllers/application_controller.rb, app/controllers/fcqs_controller.rb, app/helpers/application_helper.rb, app/helpers/courses_helper.rb, app/helpers/departments_helper.rb, app/helpers/fcqs_helper.rb, app/helpers/instructors_helper.rb, app/helpers/search_helper.rb, app/helpers/static_pages_helper.rb, app/models/fcq.rb, app/views/courses/_form.html.erb, app/views/courses/edit.html.erb, app/views/courses/new.html.erb, app/views/courses/show.html.erb, app/views/courses_old/_form.html.erb, app/views/courses_old/edit.html.erb, app/views/courses_old/index.html.erb, app/views/courses_old/new.html.erb, app/views/courses_old/show.html.erb, app/views/departments/_form.html.erb, app/views/departments/edit.html.erb, app/views/departments/new.html.erb, app/views/departments/show.html.erb, app/views/departments_old/_form.html.erb, app/views/departments_old/edit.html.erb, app/views/departments_old/index.html.erb, app/views/departments_old/new.html.erb, app/views/departments_old/show.html.erb, app/views/fcqs/_form.html.erb, app/views/fcqs/edit.html.erb, app/views/fcqs/index.html.erb, app/views/fcqs/new.html.erb, app/views/fcqs/show.html.erb, app/views/fcqs_old/_form.html.erb, app/views/fcqs_old/edit.html.erb, app/views/fcqs_old/index.html.erb, app/views/fcqs_old/new.html.erb, app/views/fcqs_old/show.html.erb, app/views/instructors/_form.html.erb, app/views/instructors/edit.html.erb, app/views/instructors/new.html.erb, app/views/instructors/show.html.erb, app/views/instructors_old/_form.html.erb, app/views/instructors_old/edit.html.erb, app/views/instructors_old/index.html.erb, app/views/instructors_old/new.html.erb, app/views/instructors_old/show.html.erb, app/views/layouts/_course_dashboard.html.erb, app/views/layouts/_course_graph.html.erb, app/views/layouts/_course_scorecard.html.erb, app/views/layouts/_course_stack.html.erb, app/views/layouts/_course_titlecard.html.erb, app/views/layouts/_department_graph.html.erb, app/views/layouts/_department_scorecard.html.erb, app/views/layouts/_department_titlecard.html.erb, app/views/layouts/_fcq_dashboard.html.erb, app/views/layouts/_fcq_errorbar.html.erb, app/views/layouts/_fcq_scorecard.html.erb, app/views/layouts/_fcq_titlecard.html.erb, app/views/layouts/_fcqcard.html.erb, app/views/layouts/_footer.html.erb, app/views/layouts/_grade_pie.html.erb, app/views/layouts/_graph.html.erb, app/views/layouts/_header.html.erb, app/views/layouts/_instructor_dashboard.html.erb, app/views/layouts/_instructor_graph.html.erb, app/views/layouts/_instructor_scorecard.html.erb, app/views/layouts/_instructor_titlecard.html.erb, app/views/layouts/_scorecard.html.erb, app/views/layouts/_titlecard.html.erb, app/views/layouts/application.html.erb, app/views/static_pages/about.html.erb, app/views/static_pages/home.html.erb]","11","[app/controllers/courses_controller.rb, app/controllers/departments_controller.rb, app/controllers/instructors_controller.rb, app/controllers/static_pages_controller.rb, app/models/course.rb, app/models/department.rb, app/models/instructor.rb, app/views/courses/index.html.erb, app/views/departments/index.html.erb, app/views/instructors/index.html.erb, app/views/static_pages/help.html.erb]","0.15850144097799998"
"47","[05-01-2015]","1","4","[89133d2db6e5c27dd4dca530a520aecce747c2ee, af96ad64a13beec89995d53cd59ff35f04d25597, b43bf5104dfd5e9ee9770a22e9478d18ac80676f, af2c7b29406aaccc0c8c5639e7e8a882dc08dda4]","6","12","26","75","[app/controllers/courses_controller.rb, app/controllers/departments_controller.rb, app/controllers/fcqs_controller.rb, app/controllers/instructors_controller.rb, app/models/course.rb, app/models/department.rb, app/models/fcq.rb, app/models/instructor.rb, app/views/courses/index.html.erb, app/views/courses/show.html.erb, app/views/departments/_form.html.erb, app/views/departments/edit.html.erb, app/views/departments/index.html.erb, app/views/departments/show.html.erb, app/views/fcqs/_form.html.erb, app/views/fcqs/edit.html.erb, app/views/fcqs/index.html.erb, app/views/fcqs/new.html.erb, app/views/fcqs/show.html.erb, app/views/instructors/index.html.erb, app/views/instructors/show.html.erb, app/views/layouts/_department_graph.html.erb, app/views/layouts/_department_titlecard.html.erb, app/views/layouts/_fcq_errorbar.html.erb, app/views/layouts/_fcq_scorecard.html.erb, app/views/layouts/_fcq_titlecard.html.erb]","[app/controllers/application_controller.rb, app/controllers/courses_controller.rb, app/controllers/departments_controller.rb, app/controllers/fcqs_controller.rb, app/controllers/instructors_controller.rb, app/controllers/static_pages_controller.rb, app/helpers/application_helper.rb, app/helpers/courses_helper.rb, app/helpers/departments_helper.rb, app/helpers/fcqs_helper.rb, app/helpers/instructors_helper.rb, app/helpers/static_pages_helper.rb, app/models/course.rb, app/models/department.rb, app/models/fcq.rb, app/models/instructor.rb, app/views/courses/_form.html.erb, app/views/courses/edit.html.erb, app/views/courses/index.html.erb, app/views/courses/new.html.erb, app/views/courses/show.html.erb, app/views/courses_old/_form.html.erb, app/views/courses_old/edit.html.erb, app/views/courses_old/index.html.erb, app/views/courses_old/new.html.erb, app/views/courses_old/show.html.erb, app/views/departments/_form.html.erb, app/views/departments/edit.html.erb, app/views/departments/index.html.erb, app/views/departments/new.html.erb, app/views/departments/show.html.erb, app/views/departments_old/_form.html.erb, app/views/departments_old/edit.html.erb, app/views/departments_old/index.html.erb, app/views/departments_old/new.html.erb, app/views/departments_old/show.html.erb, app/views/fcqs/_form.html.erb, app/views/fcqs/edit.html.erb, app/views/fcqs/index.html.erb, app/views/fcqs/new.html.erb, app/views/fcqs/show.html.erb, app/views/instructors/_form.html.erb, app/views/instructors/edit.html.erb, app/views/instructors/index.html.erb, app/views/instructors/new.html.erb, app/views/instructors/show.html.erb, app/views/instructors_old/_form.html.erb, app/views/instructors_old/edit.html.erb, app/views/instructors_old/index.html.erb, app/views/instructors_old/new.html.erb, app/views/instructors_old/show.html.erb, app/views/layouts/_course_dashboard.html.erb, app/views/layouts/_course_graph.html.erb, app/views/layouts/_course_scorecard.html.erb, app/views/layouts/_course_titlecard.html.erb, app/views/layouts/_department_graph.html.erb, app/views/layouts/_department_scorecard.html.erb, app/views/layouts/_department_titlecard.html.erb, app/views/layouts/_fcq_errorbar.html.erb, app/views/layouts/_fcq_scorecard.html.erb, app/views/layouts/_fcq_titlecard.html.erb, app/views/layouts/_fcqcard.html.erb, app/views/layouts/_footer.html.erb, app/views/layouts/_graph.html.erb, app/views/layouts/_header.html.erb, app/views/layouts/_instructor_dashboard.html.erb, app/views/layouts/_instructor_graph.html.erb, app/views/layouts/_instructor_scorecard.html.erb, app/views/layouts/_instructor_titlecard.html.erb, app/views/layouts/_scorecard.html.erb, app/views/layouts/_titlecard.html.erb, app/views/layouts/application.html.erb, app/views/static_pages/about.html.erb, app/views/static_pages/help.html.erb, app/views/static_pages/home.html.erb]","1.0","0.3466666667","4.0.0","6","[]","18","22","[app/controllers/courses_controller.rb, app/controllers/departments_controller.rb, app/controllers/fcqs_controller.rb, app/controllers/instructors_controller.rb, app/views/courses/index.html.erb, app/views/courses/show.html.erb, app/views/departments/_form.html.erb, app/views/departments/edit.html.erb, app/views/departments/index.html.erb, app/views/departments/show.html.erb, app/views/fcqs/_form.html.erb, app/views/fcqs/edit.html.erb, app/views/fcqs/index.html.erb, app/views/fcqs/new.html.erb, app/views/fcqs/show.html.erb, app/views/instructors/index.html.erb, app/views/instructors/show.html.erb, app/views/layouts/_department_graph.html.erb, app/views/layouts/_department_titlecard.html.erb, app/views/layouts/_fcq_errorbar.html.erb, app/views/layouts/_fcq_scorecard.html.erb, app/views/layouts/_fcq_titlecard.html.erb]","[flunk, click_link, page, have_xpath, has_xpath?, instructor_first, crse, instructor_overall_SD, pending, pending]","","[app/controllers/application_controller.rb, app/controllers/courses_controller.rb, app/controllers/departments_controller.rb, app/controllers/fcqs_controller.rb, app/controllers/instructors_controller.rb, app/controllers/static_pages_controller.rb, app/helpers/application_helper.rb, app/helpers/courses_helper.rb, app/helpers/departments_helper.rb, app/helpers/fcqs_helper.rb, app/helpers/instructors_helper.rb, app/helpers/static_pages_helper.rb, app/models/course.rb, app/models/department.rb, app/models/fcq.rb, app/models/instructor.rb, app/views/courses/_form.html.erb, app/views/courses/edit.html.erb, app/views/courses/index.html.erb, app/views/courses/new.html.erb, app/views/courses/show.html.erb, app/views/courses_old/_form.html.erb, app/views/courses_old/edit.html.erb, app/views/courses_old/index.html.erb, app/views/courses_old/new.html.erb, app/views/courses_old/show.html.erb, app/views/departments/_form.html.erb, app/views/departments/edit.html.erb, app/views/departments/index.html.erb, app/views/departments/new.html.erb, app/views/departments/show.html.erb, app/views/departments_old/_form.html.erb, app/views/departments_old/edit.html.erb, app/views/departments_old/index.html.erb, app/views/departments_old/new.html.erb, app/views/departments_old/show.html.erb, app/views/fcqs/_form.html.erb, app/views/fcqs/edit.html.erb, app/views/fcqs/index.html.erb, app/views/fcqs/new.html.erb, app/views/fcqs/show.html.erb, app/views/instructors/_form.html.erb, app/views/instructors/edit.html.erb, app/views/instructors/index.html.erb, app/views/instructors/new.html.erb, app/views/instructors/show.html.erb, app/views/instructors_old/_form.html.erb, app/views/instructors_old/edit.html.erb, app/views/instructors_old/index.html.erb, app/views/instructors_old/new.html.erb, app/views/instructors_old/show.html.erb, app/views/layouts/_course_dashboard.html.erb, app/views/layouts/_course_graph.html.erb, app/views/layouts/_course_scorecard.html.erb, app/views/layouts/_course_titlecard.html.erb, app/views/layouts/_department_graph.html.erb, app/views/layouts/_department_scorecard.html.erb, app/views/layouts/_department_titlecard.html.erb, app/views/layouts/_fcq_errorbar.html.erb, app/views/layouts/_fcq_scorecard.html.erb, app/views/layouts/_fcq_titlecard.html.erb, app/views/layouts/_fcqcard.html.erb, app/views/layouts/_footer.html.erb, app/views/layouts/_graph.html.erb, app/views/layouts/_header.html.erb, app/views/layouts/_instructor_dashboard.html.erb, app/views/layouts/_instructor_graph.html.erb, app/views/layouts/_instructor_scorecard.html.erb, app/views/layouts/_instructor_titlecard.html.erb, app/views/layouts/_scorecard.html.erb, app/views/layouts/_titlecard.html.erb, app/views/layouts/application.html.erb, app/views/static_pages/about.html.erb, app/views/static_pages/help.html.erb, app/views/static_pages/home.html.erb]","","0","1 minutes, 5.713 seconds","false","0","49","[]","[app/controllers/application_controller.rb, app/controllers/static_pages_controller.rb, app/helpers/application_helper.rb, app/helpers/courses_helper.rb, app/helpers/departments_helper.rb, app/helpers/fcqs_helper.rb, app/helpers/instructors_helper.rb, app/helpers/static_pages_helper.rb, app/views/courses/_form.html.erb, app/views/courses/edit.html.erb, app/views/courses/new.html.erb, app/views/courses_old/_form.html.erb, app/views/courses_old/edit.html.erb, app/views/courses_old/index.html.erb, app/views/courses_old/new.html.erb, app/views/courses_old/show.html.erb, app/views/departments/new.html.erb, app/views/departments_old/_form.html.erb, app/views/departments_old/edit.html.erb, app/views/departments_old/index.html.erb, app/views/departments_old/new.html.erb, app/views/departments_old/show.html.erb, app/views/instructors/_form.html.erb, app/views/instructors/edit.html.erb, app/views/instructors/new.html.erb, app/views/instructors_old/_form.html.erb, app/views/instructors_old/edit.html.erb, app/views/instructors_old/index.html.erb, app/views/instructors_old/new.html.erb, app/views/instructors_old/show.html.erb, app/views/layouts/_course_dashboard.html.erb, app/views/layouts/_course_graph.html.erb, app/views/layouts/_course_scorecard.html.erb, app/views/layouts/_course_titlecard.html.erb, app/views/layouts/_department_scorecard.html.erb, app/views/layouts/_fcqcard.html.erb, app/views/layouts/_footer.html.erb, app/views/layouts/_graph.html.erb, app/views/layouts/_header.html.erb, app/views/layouts/_instructor_dashboard.html.erb, app/views/layouts/_instructor_graph.html.erb, app/views/layouts/_instructor_scorecard.html.erb, app/views/layouts/_instructor_titlecard.html.erb, app/views/layouts/_scorecard.html.erb, app/views/layouts/_titlecard.html.erb, app/views/layouts/application.html.erb, app/views/static_pages/about.html.erb, app/views/static_pages/help.html.erb, app/views/static_pages/home.html.erb]","26","[app/controllers/courses_controller.rb, app/controllers/departments_controller.rb, app/controllers/fcqs_controller.rb, app/controllers/instructors_controller.rb, app/models/course.rb, app/models/department.rb, app/models/fcq.rb, app/models/instructor.rb, app/views/courses/index.html.erb, app/views/courses/show.html.erb, app/views/departments/_form.html.erb, app/views/departments/edit.html.erb, app/views/departments/index.html.erb, app/views/departments/show.html.erb, app/views/fcqs/_form.html.erb, app/views/fcqs/edit.html.erb, app/views/fcqs/index.html.erb, app/views/fcqs/new.html.erb, app/views/fcqs/show.html.erb, app/views/instructors/index.html.erb, app/views/instructors/show.html.erb, app/views/layouts/_department_graph.html.erb, app/views/layouts/_department_titlecard.html.erb, app/views/layouts/_fcq_errorbar.html.erb, app/views/layouts/_fcq_scorecard.html.erb, app/views/layouts/_fcq_titlecard.html.erb]","0.39877300617025485"
"59","[14-04-2014]","1","1","[7db306166a7cd50d2106cf956a77b309bf06bd80]","3","4","33","3","[app/controllers/courses_controller.rb, app/controllers/departments_controller.rb, app/controllers/fcqs_controller.rb, app/controllers/instructors_controller.rb, app/models/course.rb, app/models/department.rb, app/models/instructor.rb, app/views/courses/_form.html.erb, app/views/courses/edit.html.erb, app/views/courses/index.html.erb, app/views/courses/new.html.erb, app/views/courses/show.html.erb, app/views/departments/_form.html.erb, app/views/departments/edit.html.erb, app/views/departments/index.html.erb, app/views/departments/new.html.erb, app/views/departments/show.html.erb, app/views/fcqs/show.html.erb, app/views/instructors/_form.html.erb, app/views/instructors/edit.html.erb, app/views/instructors/index.html.erb, app/views/instructors/new.html.erb, app/views/instructors/show.html.erb, app/views/layouts/_course_graph.html.erb, app/views/layouts/_course_scorecard.html.erb, app/views/layouts/_course_titlecard.html.erb, app/views/layouts/_department_titlecard.html.erb, app/views/layouts/_fcq_scorecard.html.erb, app/views/layouts/_fcq_titlecard.html.erb, app/views/layouts/_fcqcard.html.erb, app/views/layouts/_instructor_graph.html.erb, app/views/layouts/_instructor_scorecard.html.erb, app/views/layouts/_instructor_titlecard.html.erb]","[app/views/static_pages/about.html.erb, app/views/static_pages/help.html.erb, app/views/static_pages/home.html.erb]","0.0","0.0","4.0.0","3","[]","26","30","[app/controllers/courses_controller.rb, app/controllers/departments_controller.rb, app/controllers/fcqs_controller.rb, app/controllers/instructors_controller.rb, app/views/courses/_form.html.erb, app/views/courses/edit.html.erb, app/views/courses/index.html.erb, app/views/courses/new.html.erb, app/views/courses/show.html.erb, app/views/departments/_form.html.erb, app/views/departments/edit.html.erb, app/views/departments/index.html.erb, app/views/departments/new.html.erb, app/views/departments/show.html.erb, app/views/fcqs/show.html.erb, app/views/instructors/_form.html.erb, app/views/instructors/edit.html.erb, app/views/instructors/index.html.erb, app/views/instructors/new.html.erb, app/views/instructors/show.html.erb, app/views/layouts/_course_graph.html.erb, app/views/layouts/_course_scorecard.html.erb, app/views/layouts/_course_titlecard.html.erb, app/views/layouts/_department_titlecard.html.erb, app/views/layouts/_fcq_scorecard.html.erb, app/views/layouts/_fcq_titlecard.html.erb, app/views/layouts/_fcqcard.html.erb, app/views/layouts/_instructor_graph.html.erb, app/views/layouts/_instructor_scorecard.html.erb, app/views/layouts/_instructor_titlecard.html.erb]","[pending, pending, page, has_xpath?]","","[]","","0","1 minutes, 3.518 seconds","false","33","3","[app/controllers/courses_controller.rb, app/controllers/departments_controller.rb, app/controllers/fcqs_controller.rb, app/controllers/instructors_controller.rb, app/models/course.rb, app/models/department.rb, app/models/instructor.rb, app/views/courses/_form.html.erb, app/views/courses/edit.html.erb, app/views/courses/index.html.erb, app/views/courses/new.html.erb, app/views/courses/show.html.erb, app/views/departments/_form.html.erb, app/views/departments/edit.html.erb, app/views/departments/index.html.erb, app/views/departments/new.html.erb, app/views/departments/show.html.erb, app/views/fcqs/show.html.erb, app/views/instructors/_form.html.erb, app/views/instructors/edit.html.erb, app/views/instructors/index.html.erb, app/views/instructors/new.html.erb, app/views/instructors/show.html.erb, app/views/layouts/_course_graph.html.erb, app/views/layouts/_course_scorecard.html.erb, app/views/layouts/_course_titlecard.html.erb, app/views/layouts/_department_titlecard.html.erb, app/views/layouts/_fcq_scorecard.html.erb, app/views/layouts/_fcq_titlecard.html.erb, app/views/layouts/_fcqcard.html.erb, app/views/layouts/_instructor_graph.html.erb, app/views/layouts/_instructor_scorecard.html.erb, app/views/layouts/_instructor_titlecard.html.erb]","[app/views/static_pages/about.html.erb, app/views/static_pages/help.html.erb, app/views/static_pages/home.html.erb]","0","[]","0.0"
