"REPO_URL","TASK_ID","#HASHES","HASHES","#PROD_FILES","#TEST_FILES","LAST"
"https://github.com/alphagov/whitehall.git","16","6","[c2163c6bfdabb82ea5425d02b5a3ac4e0d54492d, 041413f42f2bcbd1b16f7c591d52d2f5ba99f8cd, ef1f0476a5e3f5bd33b330912c714c1b9f52ef25, 90d236afc4f34a7b86ae98555bf5053f13c0becc, 4deb58cd5f1ab5f5ab6d8d31c967ddb323976df8, 384484230835790247908797a254e136a9f31803]","6","1","c2163c6bfdabb82ea5425d02b5a3ac4e0d54492d","4f3bd2bf4ffe967de3a94306c3542ec779ca9e89","88957b3433e39826c9a80a5da9da6171cf2514d0"
"https://github.com/alphagov/whitehall.git","42","1","[63027a64975cba6a14bfa49b4050722c96594f61]","2","1","63027a64975cba6a14bfa49b4050722c96594f61","cd57db5ab0de1dff05075bbbec614ef8ac637ec2","c80d991b141752315543737e2a007e78bfa083df"
"https://github.com/alphagov/whitehall.git","87","1","[79e3bf6eb4bac18c40e186f5edd3d718bb0e969e]","2","4","79e3bf6eb4bac18c40e186f5edd3d718bb0e969e","1a5b31badf89f5daeb5c6df16645680e0ec82cb3","2ce57250ea742d5b0aaed11a456da05a21ef9bfd"
"https://github.com/alphagov/whitehall.git","103","1","[d977eba34767acce32d4d352087d3c0eb0165f65]","1","5","d977eba34767acce32d4d352087d3c0eb0165f65","a41c3610ec2160bd5d0ec2c03e10f0c6888f826d","b7a735e80829df0fe5c6a51eaaa2dd48971de3dd"
"https://github.com/alphagov/whitehall.git","190","6","[921a0d8496c7328a39aaa2ee00fbb4b6fdd9e32f, 0d89afa4a81ce849ed7d437d6a1f5176a6713cd2, bdd01d90540804ec185d34579524665af67b2792, 0857a97e66422157850c1552e7a737ed44a7dfdc, 55caf5755bed6a4727c85cfcfac367bdfe40c324, 67a3a7ae7ba56f0e5aa8abc8f4ac02e8a999c04e]","8","1","921a0d8496c7328a39aaa2ee00fbb4b6fdd9e32f","24efdfc9fef0095605169191ee4a52ee3015894b","561f36375d7b57b47eec7e720660d599a8dbd041"
"https://github.com/alphagov/whitehall.git","203","31","[3a83be809a176a443a8945b7a57c2ae10aedefab, 58a135dc5df055c2d252719ff28acc20a9c8233b, 94d705514cb55a47d28f6a7145296748d55dcfc1, 06ebd0595aca51d87e7aa6405dba43d7580947dd, 0bd50dd4de27e6f3f45edcf768d12b785fdb800e, 5ee05e78d244b780fc98f6e6efd36294f8df5f26, 52f3f137b8f42b7a27f77f92067aaacda19f07c0, 50e403e02ce14ff2cd0e80669c40e8e336e83f75, e1dac2ced3a93d9bf3234ab78041964c1b2ce06d, ec8e777a261c81bcdb1b3d90eb28bd8f6a8cbbf1, e2bac8bdf5d01bf10d0e9b55e738679ae44b1bb3, 478e5bbd24d26e202641b8f9849308c65ae93855, 4bd4dda9244dee7f04ef61cdb36a63b4141ec7ac, 02f77e19da242ea0ed7ddd1c80ebc5f09fad183d, 49a521e484019331d06b80e98706866b7d178e68, 999b453e1eeaca5efd3f02ba26eb111996770e66, 21867c2948a0a3e6ecb4373ccd0f679a7654f645, 2e123233588f89c69d0ace74f571d5776b2ce3bf, 59c5e20f551d41d49b66cde5e3f357e99092cc00, 213885f66c1565f626521600cb9fb7f6840f265d, 36ec854aadeb415ada550bb5c3ac586b8d533605, 826a9b3dcaef45cd2be100b80b475b961c6923e0, 21a6229370b69712e087cd5b93bcd3a5c3843009, d7aeef59ddcbb38aa3e0629732155dced99649b4, 81742d85f3f88da15437c1ac7bbff7ac59d12a52, c82c7cd55b47b901f8a943c1b21abf334a4cb4ce, 8d6708a06716da3effcce3e834ee8acf8db41c69, 3326d694b9b2305eee3e7ae22794b506e726a447, 167530fe6cad3057678bb1d0e096295f8a998bf7, cf99f030cf8e43d0bf0d7e4503c6585681f8674c, 51371bf74fa8f6e6cb5acac7c10ab8e06ef27621]","15","2","3a83be809a176a443a8945b7a57c2ae10aedefab","c1057c7a32fa9934bcaa2a60480840a24dd59eb7","e5d0f55d90a0249c23bda24bead44086e79f0663"
"https://github.com/alphagov/whitehall.git","259","6","[85af7b7a65ca837d2330802d2693b1fb107d46d2, 5f0542d56ed4803ebd6b24abdd1968ef9fa0b8fd, 920e677b8c83ab4ce3a065a4a2a29f74704261fa, 646eb2b412c8495b255d5073abba722627f0542c, ec15f5388ec2e473b0f4a8f53a0016efaf1f16a2, a1bb7542c07c058011484784ba41a35c28312481]","6","1","85af7b7a65ca837d2330802d2693b1fb107d46d2","b4bd5328aeecbb04adc72f0bf947a8a77cda3f4d","b069613badf414a576937427e889b4f1b3569f3d"
"https://github.com/alphagov/whitehall.git","280","2","[098458b2dcec8ae829c3afe22181c8d3e7d8dc95, a5b0c003194ed45f19cc855cda69d45fd292d163]","1","1","098458b2dcec8ae829c3afe22181c8d3e7d8dc95","be4a2b7586670694d88fc84f328337c1abbe78eb","5aef6db18579e66e9017a11f557ed4acb9d0c651"
"https://github.com/alphagov/whitehall.git","296","4","[14e49e4908b01ff68ccafc34abeb58c7dda4a9b4, 94424a587d4b53eafdc4c963edfb925ebcf5922e, 07d737df7e5d822b507fef269cb808d988c45a43, 3eb6560823be00a4f488845851d5175fe8e720b8]","4","1","14e49e4908b01ff68ccafc34abeb58c7dda4a9b4","85806fc96e971f0fcea838b281f45366671e8a98","b56a80a0d9548b6108673d929e99e6cd13f9e970"
"https://github.com/alphagov/whitehall.git","347","35","[5d26bbd27c910ac5e4e53d2a9c1fa77959208e7b, e7d53550f2260ecc0780733825de51eafedda272, ded645efe0464cf383dbb665dd311756bdd8e68d, fc6687df5a484667dc8042d0d7b7c5e5d467944b, 90442ca65902901d6e5c458095f5c7ec2dd9e91f, e09dfd1b3a3e947289aab9f9ff72eab980fd3641, d8c8c223922b8bba3759d7be8495c33aa86759b8, 6cdfb91e91657938e0193df9d34051e567b39565, b48b23ed3a9e66e00242c9e2af12b38f5b0a54ea, 657333c757bc557896d97d61e553472e101e6925, b355e5a44e01c6abad7b27fd2a4cadb1a5b315c1, bfc0b1e649132b28555c67f83eb1c80e86d17dc6, d10931e445795fa336e8abe93f2144b72957759a, 36455080675858206aac47d0f8788ce2c4d27000, 2e932e0941aa312803b1bf047e0110109ae1040a, b9950defb6cffc5bc1788a1d7b9b477079923176, ea6f5a407645bba772fdc22d45be8acb81428a82, 5a13e91ca473f1d011f022c39dc5b55fa35ad641, 0b44a5eecad82d14d42cbbfbb71e8ffa287a7fd4, f28a828a7c4c738097be795eac69d2a19f8b9443, fc508f353d4a9224c23e99dcd12f5638aef5aafa, f5f1d0e6082af912c227643a4013caa5414f7e4a, 25029bc186c0fcc9e3122bb9562c5931aab8dd2a, ce27fcc42d5e06138755afedf90ff18da66cde68, efe20e5b39ba242e1193abe2d125786fd5b9a60e, ce4415e7e58d211a4165dba5ce6dbd9c1158cf8b, 3c72317e2757f4094f3bf9feb94a15eab6d2df97, b03d05644c814ff2966a71bfea77462ab412e6c8, c35a578daaf4504112172d97fb50da2a194a65b4, 855f5f2aa318d7361174d9692b0e7b0c599a7c13, 2cc4372fccb5413ea9aee295b07790f4e584a974, 505fdba00f33515ec7eefb3fd8df0cc2e8742b28, 1faab9e9b5d6166e02e6d95e18ea13551d756ece, fa427fb2ee7dd43308e78c6483c1401238769d1d, b46d011a32c3fd358fbbe265ef34c92c498ecdf4]","20","1","5d26bbd27c910ac5e4e53d2a9c1fa77959208e7b","40c7b95e204fa76aeaae34f1115a07082ff1bad2","d8a7db8381e68705c3b9503c4cb9dd263d6cc11c"
"https://github.com/alphagov/whitehall.git","350","1","[262522528907e05485218f939ee9f9a7be0381cb]","2","1","262522528907e05485218f939ee9f9a7be0381cb","fdd63dcc0c4804f6346bc468ed9e96f29d90a7c5","d8a7db8381e68705c3b9503c4cb9dd263d6cc11c"
"https://github.com/alphagov/whitehall.git","364","8","[fa7b9bc9d6ad1c1739dbd40e30289b29870fbd4a, d7468e3270b5a241a02f4b202d7f39c144d4fb50, 978147eb8fe6d8606a85bce23a7f58bedec0d088, 9b8e2bf4a4b589c81fb97c2a695508961e17c66c, 6b706f8a78e3f8d3292cd702ce9c12ac6f629ffc, aca5bfff911070b6565f56f4bc523320f6350cfc, a1e4b5c3ca88f445d6d75357c81d7d373ffce677, e56d9ec39546a7a89bddeabc0e43ec02a109efd9]","4","1","fa7b9bc9d6ad1c1739dbd40e30289b29870fbd4a","a82b241c7638707c2e484ccdfcd51e927b7e06e9","388513e3f43bdd940e9d92243d3a4afaf98ec4da"
"https://github.com/alphagov/whitehall.git","379","22","[e9c8a9b153f1fdd354ec7c2afce15de93c286acf, a50cc1164e1200b376c6a96fe3e2205f3d559cf9, ba9837f73730db154f350c865f3c899443c37a80, 68e11527697101c894321140cb014df322c55d80, 042b66dd82aa7cd7a09fb5a120db38c5168001d9, 5922a749fc014d8d866bfda8382ef354b473db5d, 5e4c2d50b87f634367b0b5eff7cbd9a6da211ec4, 4c591f99dc289e894ddbd0eb890b7e4cd4a84c47, 0483ba93a01283fb394920d99bb5d32a00383556, 8bf1f813f6c7628ca3bce168085c2f7b24687fef, a0a8109a216f9494414c1252d89feff7028eabba, 2824611e3e3ece9e899bbb25e3577f38bbd1f615, 60199e1a28dc3369107f78ce3a254731d70e68b5, 43a07a11b9e3a1a981d868de8a3e6fa811765938, 81cff421789a87c3838f6eee93cc2985d38515d4, 7f82d92c6a21e651eff0d4732b1c387b7d44aab7, d4f5710b738e7c29119c193104eec5903185a825, 90375f022c934f083243d3835de286ff4564ff54, 78fca62c04eccbfc23dccf3a493a2ca5603817b6, 5c94aa9aed3eb4efd8b8a9ee06a038edcdeaa8e4, d7d8d99003fe11376fea5ce5dd28dc736365f286, aa9690040fda61daa7147a67a9d9b6602ed45e51]","14","3","e9c8a9b153f1fdd354ec7c2afce15de93c286acf","d0520eded684eaccd6c249e7ef02cba4b70e7b47","4dbac244fc4c7ee1009f32f0ec31b6bc180b6d47"
"https://github.com/alphagov/whitehall.git","400","1","[c4cdc381a138de54579a93175ca0c4752fa00c45]","2","5","c4cdc381a138de54579a93175ca0c4752fa00c45","bf99293c8750e20cd1f003b7e549f9780a7c0a77","b812b7fd523fca765948fb0265b0f07cfdacd826"
"https://github.com/alphagov/whitehall.git","424","10","[df25cdb5d6266a5c833ce211e4751a1c19961b86, 05751871f430ad72cc15e1f09a78dd65ef286cdf, 0ad218e9296d161fd2459ed9f3bb42685eff2697, 612e2e9c8bb7991d757d450563af174d3c774ac5, e93442b03bd31258699b6875042e1eb79d891092, 43229f228b4c8f6f5a0bf679e644d9ea991b272a, 2001d7019aaa0e44d7599a7ae175d5b8548d43d4, 85ba47fd849a031523f83725f955b4b48b0b243c, ca5537807a2b1ce3dd57fe933c9c5b27499c3f03, b7956c8fd2cc70fd4bef4b008a40f465494ad5b8]","10","1","df25cdb5d6266a5c833ce211e4751a1c19961b86","7fc0d5ae7adcb872e7170f1aeef5c9865f4d812d","522be8270779319b810bd3c2ad5c80da73de5e95"
"https://github.com/alphagov/whitehall.git","463","1","[46058c097faaa45eca6edafcef37fe07fef06b70]","1","1","46058c097faaa45eca6edafcef37fe07fef06b70","1263e7b4d86805cdf901bc0106925a25591f6b4c","d921aa3cf2802768c410e8e2017e263359b4ac63"
"https://github.com/alphagov/whitehall.git","464","8","[541376ad238e782c24f9b04c4ef53505ae3a87c4, b34a0abcaf96bb5603d78a60ad1628fa1e2ef762, 9571cd95d7871fcfddeb389a6458693f6a84df2e, 39e8a4c4c9f1333fdc25421ab9d36335b1554eee, 478c23ae2b0be487043e01be108cee1685def88c, 6abd4d118d7dd95540e4016e079551428e74d420, 285ad0c3b6e6dc94e9c66423b7c98e8f52dddadc, 47b9dc7e4716811abd74e16d82c72cc547d4b076]","6","1","541376ad238e782c24f9b04c4ef53505ae3a87c4","884e1693ee0a90720fdb9463cf542f6fa3b74554","f44f5972a52f459f3c1b5dbf99f2f0c02fca5e16"
"https://github.com/alphagov/whitehall.git","502","33","[6c34ca764377c0f8392dabc497bee3776d304627, 06c038ab70ad57a2c655d185b3aaed3613ddfff7, 307e9ded2d0c705c08ce3c04c288d3ab5116c516, ed83ec9af441b7cd815b988a69c1c793b732cfcf, 26da411793467baf85531c8b6857b9e036eb3a87, cc3488d93971898ed5c2045cbbf44b5ce7438074, db2ceb8eff06450887801a2b2889d66276b590b5, e98cff7d56d86c10178a35d16045951db131d360, 4cf4c05c48829753fa5561c09fa8329e2c723d08, 42a005b1478129735376d08a1d455c6d26f78dcb, 84579c8f23e1079fbb9bd6187d17e22133de2cf0, 14e9f5cd06fb22f050ce6f1c7415291c28490771, f225c77b373c51b3080488467938804e7e783f2b, 46d6fd484899138079206d0f86975cd900ebeff3, 30bbf6289d9902b063f07ccde4fd166368616f63, 1f2ddb0a9f9b1e58b93ca9844c14e1b28ea734c1, ad9d720e5dd96bd1442909eaaab3d58c9ce23a4e, fe7e399dc48b52aa1291c920a8d1cdbe06d949f7, 464af60ca3a58624d030581259b19dabf88457b6, 8c7aa08cb855f0c601b7db1eb8767f21efe4a70f, ee9294db59474009b9ee3d3edbc48b5ac9a6cb95, 3f98979b5e4314a66e64c0fc9aac962ed9423845, ac0c70cf0d3ee3f2d5d6b03c1abe21fbb0bbe256, 85dab8034e4adc0f219f0cc80f26e6581dcee839, 9e400a63f1dccb419d9431566d6041cf67ec3f99, 846d1757dca4d87fa0f740c7ad49317985391169, a49c479e2d5892bde1c6f867ea6cac1f78450a6d, 43d6361a3a1759f04624f24a2ce3e75d3c2312a3, 99defd9302bdf1c5963d3c84a1e8880dca7ec08c, 8ca32f7d9c653b055bd59ae2fefcebb8ad6c4f64, 2a61da3485abf83160c0d496dee15fd0b55f7909, 2602de749023b48e11fb014d6021fcbb807806a8, a929a769ec29715e7763109fb0136ec85c61b179]","29","8","6c34ca764377c0f8392dabc497bee3776d304627","24981f1a4f18a3b05bcecb70fd42dbfc7838557d","bbbcd9d657d87e4734ec0f729f7d32034cab17dc"
"https://github.com/alphagov/whitehall.git","539","3","[d397077a1f25c96d7397c050703b250a6b748788, 797909f215a62261ce763a339a515ccb8833ef4f, 3d4cb0522570c78cb9dfec46798034d1009334ee]","3","2","d397077a1f25c96d7397c050703b250a6b748788","35952fcad83c3723234a04f40ef6433a17a7c1ef","0cd044408bdb1f8eaad729ecc91452e8cbba5fc9"
"https://github.com/alphagov/whitehall.git","710","8","[c3213066570bfebcafaa0c2d52ae371586e810f6, e3d34916a16afdaf13158956ed91a51084330101, 1d76da4776bec33e1e41619da06b14fda87a3349, a84f8f2ebb825696c7d89355c6e8bb18c012abab, 5c2e4033fd5b80cabe754982c0c072666a62bee3, a024c0f83d167e54a33071691d157dcdd397a8fe, abadaeda2a9f9f5d1165493cd14f52448ab42905, fe0e3e7d5a97b655667da754e13efbd3ba08e648]","3","1","c3213066570bfebcafaa0c2d52ae371586e810f6","0d00189729722185e549dd6a27911402945e8f1d","20f07b75382b4d390437676e4af9261fb47743a2"
"https://github.com/alphagov/whitehall.git","771","1","[5bbb698f075594ca08092f9d94352970b98eac29]","4","1","5bbb698f075594ca08092f9d94352970b98eac29","f595bc06fbb7b9a5b848adc86762f34a29538ca1","0977cd0b3d0fec543a1edf65cd3cd0af75706c14"
"https://github.com/alphagov/whitehall.git","808","2","[3a62c4ab4549cb13f13691ce3d3194ff66fcd437, 4b825f4b2fb7ff4f82c6c3bfff76cb869d755904]","1","6","3a62c4ab4549cb13f13691ce3d3194ff66fcd437","48e825efa3cca1208a858538de19187125659abd","490febb444546d463394e39ad144a0922ccc28ab"
"https://github.com/alphagov/whitehall.git","855","1","[a7ea0d92536e7a5727732570e1a2d0b787a231c2]","4","1","a7ea0d92536e7a5727732570e1a2d0b787a231c2","8824ff391258f2689a94c60ea8936030bad8143d","406a710de2175b364d729c34f6be6d2a108cda4e"
"https://github.com/alphagov/whitehall.git","862","4","[a53f622a3e8fb5aa296bc532ae0d48a29e614a38, 085965a53c1d5367ff1ed6ee95de0857ff9bc86b, 8e7164daac3be49572f19b6f5ffbf7abff824297, 8c935a96b8e6737af44fee994af0b8196bc2064f]","11","6","a53f622a3e8fb5aa296bc532ae0d48a29e614a38","d1c941d27fd3ba973b48a7cee240d3f6e4beafc9","3cdebf289a350abbec226848fb9194daf0691612"
"https://github.com/alphagov/whitehall.git","884","19","[bf0d1be9f3f72d512963eb3753c027134012b033, a24867515d1b2d39d9dd71dfa0c8e801f5d73fef, f8be1c236d6cabaaf53dd563d1c0eb9d290ff636, 664a4e5cc15abec31fc7075b89f1a2bf06674e2d, ebd1f01b5cf972c1f1ec8f4171eda355c7de8928, debd61f7f98f7c535424a87e30d51c4f584d8aaa, b7c56e63f433f20e21d2b8ba1120fe1efbe122b7, 396fd23b2794b84a813466bbe3bca0daedc10273, 230902ddcf7df480e74a7e596c117af3f05ab12e, bb1fc4c861a2b67309afe379d229e2550d001e6b, 9f557118db78a4c7586ca145988b5cc5c8b236d5, 7435c6a14fd9fc844828d424d6878194bafc8f07, 111e5cc634c5ea9acdb10789e3b52aec86140e3b, 438cd6c8b7e904183ecc46e0546d525dd2640851, 305f4faf488b97ddd7f4d234a82576fd070346fb, ab4fe9978e2895256a2de13eff48233e042554ec, d51829740c8196d5b5e3225fc7dd00076fefd25a, 0aedd243b395cc49820e0372f7e220eba8f9ab2a, 2514feb85c4a070cffbf3fe8a6eb570393fe4bfc]","28","1","bf0d1be9f3f72d512963eb3753c027134012b033","d05d3d9a87e6f2515cff4902717180d3eddd5551","e0284519ac0086be20231191384f6db3ddef7659"
"https://github.com/alphagov/whitehall.git","905","2","[dcda55d77fd39ceb6d784aa7726c54d4dea47960, b7df381cb253e87cf6cc70c956074f8100d92cf0]","1","1","dcda55d77fd39ceb6d784aa7726c54d4dea47960","32d756185845bb53affb078033fffdcabd177c09","7cea491a1a381334f9665a6ecdb8082e734ea79c"
"https://github.com/alphagov/whitehall.git","913","14","[69ebea7e11dbf0654b6fd7cbc26936afce411e7b, 40a72a8a4ba95d762dcd05b0046d73d1ec44982a, ecae233a733dd03f12e40d1d689314a81b04effd, 112aae9e059e0aa7531a91cc09384ad71c8cd8bd, 7e94ac88290b0a387d8e835a17431e218d28437e, ed038457ef6d0c7a9b40c89f56a6c026dc6bc450, 956db0fe67a209cc1a3f9f09f4a76184d286a5ed, a9eabf2f5eed92f72b042a0d5525ff8d3ac3aa9e, 4951deb1862febd19439eaa5ba4b0cb39d43f7c2, ed84b3c43d8786295aab373b99ba377cc0036fdb, ffdee4860a5ca7e6bf9edaf5a195904b2de2f098, abee1a7c61e17059457e8b253f521771b47378e3, 6064b71e517bbc26f941ac29a4498aadb1be7a01, b222692e9eca6ee82fe0013cc549f8cc8c86bde3]","5","14","69ebea7e11dbf0654b6fd7cbc26936afce411e7b","1784672598678dae54a4b66a5a094c3a57fbd056","bf2c449fde61d3e8a106422dad235e41d6962e06"
"https://github.com/alphagov/whitehall.git","939","3","[0ece906543c4380aa2b9796e6a1348b128fc52ae, dfbd0d673bcc8927e8c3c2a1b5d6cfa8aba6c748, cf4d9953c230ea457108c18ad9a098ee58378d22]","2","2","0ece906543c4380aa2b9796e6a1348b128fc52ae","dcaa8a49fee34f43e7bae1f21a3f8f0b0d323a49","e44eda767b7336121caa779aa4c700b576796ac9"
"https://github.com/alphagov/whitehall.git","941","15","[e998dc6b9a17f14861427f5f3bdace2672d5cd68, 4f9d5d130c426b87894d681176af1510e8d56aeb, e546a3114397d0317cbbe59cf1c80dac618419d4, a3feb7d3a89f1bb9c87ed6f859c67d76b5739f94, d3ee9a35ebff9db8e4baf7c030428326f1d0ab23, 3160bb7e3c596bf78143923f5c654d1982ec4a99, e44eda767b7336121caa779aa4c700b576796ac9, 0d7f3167e8614390c17509db9145be2722a458e5, f1df1b17543e71c9d4b2aac150018fb650041ad3, 8f5bcd6b93eeecde3a69e993bb4198a497b2c067, 3b7e1790a5f5a23845c7f61ab52c35a99fc83cbc, a110e90e9d95202384d92046b6932a3cbea0da2c, 175e4245ea67b336dec1e8a21bb58d628bfe3af0, 4a7af4e0b054e3c76a5ee255af28e7c046281c0d, ef12560cfe90258b7a1a0993762c8f13d197c037]","14","2","e998dc6b9a17f14861427f5f3bdace2672d5cd68","309dab4ccd8f5dfe98e1e6a0fd6f0fdea9428126","ebb0b29ea779f2b0be516713682f683a46bbb27c"
"https://github.com/alphagov/whitehall.git","964","3","[f1b211a0a3b8e1054ab8ff8b6fb76fd14399ef64, 3a295eb2f47ee997556d9375b58469f7e9b331f5, 144aab85a0b278ac60a725338c0edb32f9c93e67]","1","3","f1b211a0a3b8e1054ab8ff8b6fb76fd14399ef64","c263c61f9e05d58dd98ef248b1b2446a8e714770","59d3d3b9ca57fb968b46c45d44fbeef4bc135429"
