Given /^I am logged in$/ do
  Given "there is a User"
  Given "I am on the login page"
  Given "I fill in \"#{User.first.user_name}\" for \"user name\""
  Given "I fill in \"123\" for \"password\""
  Given "I press \"Log In\""
end
Given /^(?:|I )am on (.+)$/ do |page_name|
  visit path_to(page_name)
end
When /^(?:|I )press "([^\"]*)"$/ do |button|
  click_button(button)
end
When /^(?:|I )follow "([^\"]*)"$/ do |link|
  click_link(link)
end
When /^(?:|I )fill in "([^\"]*)" for "([^\"]*)"$/ do |value, field|
  fill_in(field, :with => value)
end
When /^(?:|I )choose "([^\"]*)"$/ do |field|
  choose(field)
end
Then /^(?:|I )should see "([^\"]*)"$/ do |text|
  if defined?(Spec::Rails::Matchers)
    response.should contain(text)
  else
    assert_contain text
  end
end
  def path_to(page_name, options = {})

    format = page_name[/^(?:|the )(\w+) formatted/,1]
    options.reverse_merge!( :format => format )

    case page_name

      when /the home\s?page/
        '/'
      when /the new add_suggested_field_to_form_section page/
        new_add_suggested_field_to_form_section_path

      when /the new assign_unique_id_to_a_child page/
        new_assign_unique_id_to_a_child_path(options)

      when /new child page/
        new_child_path(options)

      when /children listing page/
        children_path(options)

      when /saved record page for child with name "(.+)"/
        child_name = $1
        child = Summary.by_name(:key => child_name)
        raise "no child named '#{child_name}'" if child.nil?
        child_path( child, options )
        
      when /child record page for "(.+)"/
        child_name = $1
        child = Summary.by_name(:key => child_name)
        raise "no child named '#{child_name}'" if child.nil?
        child_path( child, options )
        
      when /change log page for "(.+)"/
        child_name = $1
        child = Summary.by_name(:key => child_name)
        raise "no child named '#{child_name}'" if child.nil?
        child_history_path( child, options )

      when /new user page/
        new_user_path(options)

      when /manage users page/
        users_path(options)

      when /edit user page for "(.+)"/
        user = User.find_by_user_name($1)
        edit_user_path(user, options)

      when /child search page/
        search_children_path(options)
        
      when /login page/
        login_path(options)
        
      when /logout page/
        logout_path(options)
        
      when /child search results page/
        search_children_path(options)
        
      when /create form section page/
        new_formsection_path(options)
        
      when /form section page/
        formsections_path(options) 

      when /choose field type page/
        arbitrary_form_section = FormSection.new
        new_formsection_field_path( arbitrary_form_section, options )

      when /the edit user page for "(.+)"$/
        user = User.by_user_name(:key => $1)
        raise "no user named #{$1}" if user.nil?
        edit_user_path(user)

      when /photo resource for child with name "(.+)"/
        child_name = $1
        child = Summary.by_name(:key => child_name)
        raise "no child named '#{child_name}'" if child.nil?
        child_path( child, :format => 'jpg' )

      when /new field page for "(.+)"/
        field_type = $1
        send( "new_#{field_type}_formsection_fields_path" )

      when /the manage fields page for "(.+)"/
        form_section = $1
        formsection_fields_path(form_section)

      when /the admin page/
        admin_path(options) 

      # Add more mappings here.
      # Here is an example that pulls values out of the Regexp:
      #
      #   when /^(.*)'s profile page$/i
      #     user_profile_path(User.find_by_login($1))

      else
        raise "Can't find mapping from \"#{page_name}\" to a path.\n" +
                "Now, go and add a mapping in #{__FILE__}"
    end
  end
