[path:/features/step_definitions/basic_steps.rb, methods:[26, 101, 166, 149, 154, 159, 95, 109, 13, 118, 73]]
[path:/features/step_definitions/search_steps.rb, methods:[17, 4]]
[path:/features/step_definitions/web_steps.rb, methods:[37, 21, 251, 13, 180, 25, 141, 265, 17, 124]]
[path:/features/support/paths.rb, methods:[[name:path_to, step:Then ]]]
[path:/vendor/gems/couchrest-0.34/spec/fixtures/more/user.rb, methods:[[name:first, step:Given ], [name:find_by_user_name, step:Then ], [name:by_user_name, step:Then ]]]
