"REPO_URL","TASK_ID","#HASHES","HASHES","#PROD_FILES","#TEST_FILES","LAST"
"https://github.com/sanger/sequencescape.git","1404","1","[2ea2cbb7b76e2ec10a7ce3721255d7483de02139]","2","1","2ea2cbb7b76e2ec10a7ce3721255d7483de02139","c1b4c9c40bed61afe289036628fdbf1dbe745ed9","9983a6a50902dbd2db6c1eef4a4f238e6ba71f5f"
"https://github.com/sanger/sequencescape.git","1405","1","[9983a6a50902dbd2db6c1eef4a4f238e6ba71f5f]","1","1","9983a6a50902dbd2db6c1eef4a4f238e6ba71f5f","6211ffd0ed05e8c4e43a3119c1bea45c44880124","b57b0b1f3f11db3169e2df104856611195d7d039"
"https://github.com/sanger/sequencescape.git","1422","15","[8cca53cc2215ef89e453cc4c665574062745c36f, 18e89d46598306d7a1e213ad5e9fd0f59b97212d, 3a64abd5bcbe59c388d359992703197a5e16a446, fd12b8bf7a3b659ec0ee5cf945c27fb2a526bd09, 37b5c9c829269fe25048734fa2fa75a2dfa3dc02, 90b16db127cfae0539bbf35baac462d21c66040c, 28be060009c5c7cf7f4ae9aa41542d7edd04d461, b0f9913bdeab6c08251972a366bc6ecd21748885, 76f8c1656d35b18275fae2d26cbbd648efd3900d, 53618b473354ce65120405e4d74ba10ce472b7fd, 786e50b50817416b8dadbeb0d807e89c2f6895dc, 146ef389a7074c27768cb8ec1d2cd04b74c86b81, b0217dbd6508a7417de923a395584b71364585c9, a6bb8b0e7783f3e9619f2ae24456642364b9ad2d, 1dab5e801e348cabe09bb96ff3b62bcf74b3a43d]","48","13","8cca53cc2215ef89e453cc4c665574062745c36f","29b77c0d9a557de4171e21fef3a977106035e656","dae800adfac5464475e9b87cc0c9d67db2f590da"
"https://github.com/sanger/sequencescape.git","1441","12","[c8f79276654adfa834033e03abf4c26c0ebe33e9, 158198350da500401e1a95674f6d8f8e40df5cb4, 69c299ccdbae74a665c1817d90e747832df73137, ffed5455f966a702381effd2968c04d650a213a3, 0a76e8d71c197f6515a84df3cc199feaf7ed84bf, a01ac8d2f07346f3c60780b8dea3a1f364736b69, 3e25d6dff899a5856bcee7e0aacab1460957a4e5, a0360f7daae227d3ab34afcc39429a5333b10cfe, f16c34463188a4e69d8453a241810c70c8879692, 0dc323cdc94e732785b0e616b6a3783f9ba3a378, eda71c6a6d1534a4d458c6a0ab7365b345c294cc, 152ff4d5691480a146ce5a615944edf8c01c8826]","18","6","c8f79276654adfa834033e03abf4c26c0ebe33e9","6910b2af0c1bd3d0c47f61f32e2c6ce190b32632","8415aa232e2bf6cec918f1fcf54369377fc7064c"
"https://github.com/sanger/sequencescape.git","1446","8","[8dc9c951fbb0fdbd12b0acadf8977d664a34a5c6, d62792f1ff00192997545058feab5c9e03388899, c40bc536e6ed042368c7c9e91dbebc9b47d6713e, a45bd4679e68b942e448e9a01ccb2e9e06668388, 5e3fe9acc62c6e42fcdbdb6d15863efe8075fac7, acc22c8bd8af9e6953954d363e56e8e0e08a586a, 4762a68560105a61487c17cb9b8ed2516352ac57, 873b44e6d1d6cc219abd31a5d9f91f703c3a9c69]","35","9","8dc9c951fbb0fdbd12b0acadf8977d664a34a5c6","d243accb60ff83323ddd0e9a300e4347aad5633a","c8b591c1c239ab4545b3ef8b29e69c580c6ce973"
"https://github.com/sanger/sequencescape.git","1460","6","[ddcb76b6afd09006e5be2fc16dda7e43cd52034d, 4a22ddd7bfb684a0ec3bb103ffb034056d57a647, 441c4f1f3ba228d4d9e432e18db358c3b003f66e, 90809984b57dbc3e696bf2fc07296af8952fd330, 60a17d52af32530695dfbfad3fec0129f1c13585, 5f4ee93cddfbae7765715ec54942f609b8606a45]","9","3","ddcb76b6afd09006e5be2fc16dda7e43cd52034d","7b1cf4700edd2a816a971936de24b3032c42a49c","bb31392a380429dcbc715650cebeb49b4b3c5575"
"https://github.com/sanger/sequencescape.git","1464","1","[84ce4c04885271420283ae3db8348c68394af0e7]","20","2","84ce4c04885271420283ae3db8348c68394af0e7","9156b6e01ac1f66b69cd337be5208c324b797466","eca45153732a0dcc84074a2cfe09a45605f25e6d"
"https://github.com/sanger/sequencescape.git","1471","6","[3fa45cc77c20e82514a6c3e68d65fc4ad3d45bea, d6464855c28d6c4950f0b6b72d71c43d4a7d7c33, f49236d6f02fce9c91db142b0c831daacfe6c6ff, a891025dd4336528d26bfa4ed8b723e61855d382, e2cb85bec985c59da79ac14e4a560fedf63c4e4f, 33cdbe8331e8fd73503cb877465e6062ca240ae0]","3","1","3fa45cc77c20e82514a6c3e68d65fc4ad3d45bea","595dcebf3dc94ccfa4d0c36d734cb5addc33cba7","1a6a1e5ce6bd3211e8c461cdc53764e0b69436b0"
"https://github.com/sanger/sequencescape.git","1475","3","[9b970b69e3db1224b5e669b2007636c90fe37d8f, ca5a9db2b3fc21cc0fe466702ad5364fff733ff5, 9a2c5a19576df7ff9889b8387d709ce5c8b8c3da]","1","1","9b970b69e3db1224b5e669b2007636c90fe37d8f","a34ec1359005e19f8b0e6abc60fc9e2b4ec48a48","f9de4216df6d4091eed9adda9be0203d9014ecf2"
"https://github.com/sanger/sequencescape.git","1479","24","[84f8d93bb117e35edb38ae2da7c103dc5b320476, 4cac0749a61979dc628509b451c962650260156c, e90ed12748e67258d1fb547f60f730040ea46338, e4ca4ae114793cbaacc7240d162a4042700fb799, 3d7ba83ef6c306b87836a9d2b45b1fa48ded0644, 4f3163f0820ebf319908fcf8729f7f4fc1414f93, 404d1633d1e4e17512242ffcc7ec9bb686cacb6f, f91b630e6d891b53132ecca5bd5ae5f1ed4a5942, bceac6c9fc17a437abc8854e419179b46ffcbf50, 3b4243021b531e48c72f32ec9332a092a0b9a3f3, 6af1f36bd83024b6414abd20d5442b6ec209c0d6, 6f873459885bd2f9716316168f2781a2c3e384da, 027bce70fc391944a159f82fa06cee5b9d2626f2, 0d76de7aa904e53face84d864fcf1b9d4608adcf, 282b7eddfcf368c3c107a06af0373249434a956d, fe9cc424dfb431e4a9752671182bb98bb655fe7a, 2f5053254899afa723896f1d55674b3bb33ea972, a399f4591f297b6f67fe03a3748ed39d2a4a8225, 6e40a3c1b3c86eacd8003b7acd68d474cbf04f8e, cbe9d67c5cc3a3d0a48d1c23eeb972808400a490, 45addd753a547f89a6377696b49b4bf8917f2f47, 72ecc13c37d0165dd89001b30ec993973178cd86, adc0c5278d1c8ec9ab7e3fe00e6003dbb80a40dd, 53d88c5d0269d457f948caf1a121eb0a9edaf11b]","54","1","84f8d93bb117e35edb38ae2da7c103dc5b320476","60cdd468f73ce61df30e271c4465c168b4b24352","29849c6abd9b04ec19034c988dee3d3eda7e6099"
"https://github.com/sanger/sequencescape.git","1495","31","[00a8ebefe74cadbbbbba97549566e6ca41af9066, 3b59e18da474562ed3ccf5e6a7c5808cf1087413, 798217601ec168282346563a437c7016a7b38cb7, d18b2c73677aea28ac9bf4317af1bfd853ac10fa, 3733cd5ef05f72f120115b525197d460ebdae805, e7faf143502c4dd2026e37c956eb55656a1f5d72, b87473378e44cd3822b5aa1cb8af1ef451cb3e1e, 7bea45cc6461eab706ee9c1884b72b60ba8f64cd, 079b6a9d3d3250b9cc44cea30dee08b74ebbdb17, 7730d03fcad63efe9a60644a7d72f286ba231bfe, 733d2f74cc7212ee7a635578a2322c8e3f7bfaa4, 27bfe9fdd5864e28a6fcda64ae4b478b4cfc4525, e771c81db7e41859355fa51adc43b14a2efceab6, bb52efe6db22be8d92b2953d49ed661d9eeaad46, 8c3f60041f04601d1a2c55a5db3c4f5cb12a0d68, e4cf219be889ca8eab82eb5d2d817e4b02271952, 6faa07e7682487e2c305c8d0a307de3a02425b3e, ed9ee065372afdd55d0105226ec2b3a8f7aad765, 08b5625971a8767f807a284eca222f2634e8b305, f3e8d86c965c986db8c97bb63398048f7c966b56, 183e2049f6fbf82af23fcddf4a471f4d3efffe5c, 8003e11a557e7cfe50535f5effbb5a92ddab1cf5, ddc7d5366c68f74cd174bd04604984aa655ff299, 13b20de185715c2c75701495b0e62b2e73bfa94a, cb2e9710e336a35d8622d8d37195f93a020ab50f, 2b91358e57746ffa6bf5ce4dbce5c3346a098381, 2ec5b7d888fdd81cba122344b8db6342c80c73e3, 15dc91f9510bf7569e419c5f81bb82c4b16942f5, adea49fb357c5d35694de5e8d73bd646c3bf63b1, 8c1c9fd54d950d95a0ff529d2bfc16ad0c79a072, c8436bef6b198462118780fa45cd6085af6239fa]","65","2","00a8ebefe74cadbbbbba97549566e6ca41af9066","7858f25950b3852790cbef853508c6ab133db15e","a536d5500df7e61267ec9b8fa8327fee2677ecdb"
"https://github.com/sanger/sequencescape.git","1498","1","[4e4b90eba70de473b4b487a45bfdcf0375fcf643]","20","1","4e4b90eba70de473b4b487a45bfdcf0375fcf643","a536d5500df7e61267ec9b8fa8327fee2677ecdb","1939f2df77a01b6ee42a6db29dabf8f69a16ea0d"
"https://github.com/sanger/sequencescape.git","1505","6","[1428e430140f52585664d8f26622c5932f836b71, 42423e8a6669349896ea9ef94df959fb5ce0bb77, 2591ed4a1b744abc95fb2e5a029cfe13810bedab, 5a45609364716d8878fe882082638123ac7d961e, 5f42fddccf6b2c25a0d6e07662b45531cf88bf5e, 22e24e013e81e318027e39d7792d78abded3813e]","1","1","1428e430140f52585664d8f26622c5932f836b71","9691a0f2aa3694d6c51abec903cbe1f6d98f541b","5cff276e2adcd26679a2ed064e5c7143e8ae9f97"
"https://github.com/sanger/sequencescape.git","1507","16","[793118d6a24a9a90c69fe6ceed37f60cef9da4a9, 300478d51394881001e6314171b30b601c868619, 7510ea06f97c6161b59678dd294e4d6c576e7d06, 8e540c6c7217734fc658f50b8de1f6ee7daa7f0d, 4688b389c37634c9258fea5a2a8055f0375a53b5, 3061f2a609eb672cd3f708de19ad961a9a3b1373, 17a69d97ad7df1a7ead0d5b8c3289141b0908ab8, 5f131d94dad9e224491b32a0dae3701833040ea6, 5da21bc768f56442ef3241fd5f20df327ab779ba, 6ec7089cdfe7835e19995db7f572079cad206a63, 5e0848b7a1cb9e923f3db3fc12d7f8cfb2ec9b12, cb448951679080fa8ede9634d6b0561bbb665d88, 165884a21ae0aede7bdf624eec6be306afb19b4e, 17f8710c3c0bd9351d3f066ef9ab24bd0e7a34cc, 236b9aa708a5c3aeb72bea30500ebbd1d614f67b, 37bd67bfc02a0b39a5627fd728403195bcd70e20]","7","1","793118d6a24a9a90c69fe6ceed37f60cef9da4a9","00434d753a3a61d90da650930aa2b9d94a12281b","557769d63f3d935c5601ba1ad9707de6647a2f10"
"https://github.com/sanger/sequencescape.git","1512","1","[9d52abd65acf123b952c17390dd3afeabab0c575]","32","8","9d52abd65acf123b952c17390dd3afeabab0c575","7df8382860b572f23095f798d0fbd060e25f9fcf","cb30d9b957118c88be9b8ca92f4f2726f6a1a59f"
"https://github.com/sanger/sequencescape.git","1513","3","[cb30d9b957118c88be9b8ca92f4f2726f6a1a59f, af99b9d9049c3acceeec391653f98642cab52a48, 24b6b055ebea48022b78e2b1f1fe268dfedc1f26]","2","1","cb30d9b957118c88be9b8ca92f4f2726f6a1a59f","5cff276e2adcd26679a2ed064e5c7143e8ae9f97","bc43bb8f1d08e0f2a9ffa918d0053bad581f4ec0"
"https://github.com/sanger/sequencescape.git","1517","5","[796441260297435a6ea09fbb035aff529f7c904a, 716fb5eca2041ea18a5c94a2859748415a6430a1, d85d1b924c5d9ea3b25f95f86c4ccdb527bc42c8, f23271228787d6c53ed41f2bfa91010810e4708e, 2a23e0e1a4a9427734b46ada599826936e1b9487]","1","3","796441260297435a6ea09fbb035aff529f7c904a","23afd951848daabf3c152e45aa7bf73eb964a4e7","20f51e68ac2fe32a6f6a81ba6d36b856b498fbe9"
"https://github.com/sanger/sequencescape.git","1518","4","[9cac922a87cb311a3318c5286d6088ddd358991f, 7d87c2154b85cf5d0ffb30a55ba91c3f577d904b, 26675e1db55767d4eca98eaf9a8857b73099e9e3, 1ad85d6edc806cdaa529c64a50f2ba3d49cdb8bd]","4","1","9cac922a87cb311a3318c5286d6088ddd358991f","2b2d510d5a46492e57f6a99691f198ad24bcb754","235bf8aef41d14ff7853994cdc4c5d669e2d20d3"
"https://github.com/sanger/sequencescape.git","1520","7","[19f5bbb9afa3f3ec1a34c5d19513d8583b500c3b, e1d36ca55fe0982881674a36a55ef49ef3feae3d, 0515571890b0fea21d269bdb1d299ad5ec462ae4, e82534e797fd665ba015cf933f9648a52e047a12, b391cee274f53e4cac687b38fe8e5d494fb66e79, 666411cc7238eb53a3c06baae6431f04f8310d6b, 7c9496536fc17bfad7119eca326fe829fbac4307]","3","3","19f5bbb9afa3f3ec1a34c5d19513d8583b500c3b","fb50d4ef664f9a1c219ab825e81f1f1efb9f762d","20f51e68ac2fe32a6f6a81ba6d36b856b498fbe9"
"https://github.com/sanger/sequencescape.git","1536","3","[2b6926b9a3ad119acbfaede2d4b1024b43ec47df, b5aa853938b2f2646217abec8f816f044ed75f62, f4088d3b621a67a039474163bb4b4f0782234e48]","17","1","2b6926b9a3ad119acbfaede2d4b1024b43ec47df","63b197ab41cfe7cf3f689fe37e0fd066796afdc0","61158456c07b326dddc900a6b5b3c9abf56c7388"
"https://github.com/sanger/sequencescape.git","1541","5","[da72e969d167c70bb2138dfe0e3fe7350c31e758, 7d1fdac2be6dcfa38f9b1e9e1874604af2df5494, 5855573b92f7d5ac13e2945a65c0c36382494b92, 3b4465b506fdb82d3dee17a5a2dedd96f93d6486, c1aeeaabff150678a1905e2c5d84202bbcc19138]","4","1","da72e969d167c70bb2138dfe0e3fe7350c31e758","30138123897019f6f70d242ee8975ce3ac531232","d3131ac8e64f988ccd17161cce8b4d4f601be63f"
"https://github.com/sanger/sequencescape.git","1543","1","[1be9047f2db76d8bffab9e43f8c51c83c9f9f3ae]","1","3","1be9047f2db76d8bffab9e43f8c51c83c9f9f3ae","90b30c9ffc28085a74a656687e8b7a7df2a778d1","61158456c07b326dddc900a6b5b3c9abf56c7388"
"https://github.com/sanger/sequencescape.git","1544","1","[1570d269eadfe83c224a61d49a1016dafdfffdee]","3","1","1570d269eadfe83c224a61d49a1016dafdfffdee","f57c07b90d1ddce73d618910756a07b8501abf3c","61158456c07b326dddc900a6b5b3c9abf56c7388"
"https://github.com/sanger/sequencescape.git","1558","2","[316c6102944861a324452b78d9561d8bbe24d76d, c0165230f8a84b5988a37ff690f4fbeeb8f36856]","49","4","316c6102944861a324452b78d9561d8bbe24d76d","d3131ac8e64f988ccd17161cce8b4d4f601be63f","e854715e547ccd74b61012307b8a54ced01dc845"
"https://github.com/sanger/sequencescape.git","1568","1","[a4982eef2821c4d3321bcd68e5c857dc6d955cc3]","26","4","a4982eef2821c4d3321bcd68e5c857dc6d955cc3","e663ff5c50b07cd28b9d481cef159bdcbff45001","860deab4c303bee1c9533020a7eb980e8028cb08"
"https://github.com/sanger/sequencescape.git","1575","3","[c4c10b806c8eacf28b5e767382fc0377a274f26b, 42892000f1b90ef765e932d8c505fa74bf810ab2, a00d138b02d7f79f6913f226e446093e0b9a141d]","12","1","c4c10b806c8eacf28b5e767382fc0377a274f26b","06c58f3031b4e19e9bba6cffebf52380df2a96fe","16295b4b5730a4a36faedcd7d0d1541c41d7cbfc"
"https://github.com/sanger/sequencescape.git","1583","2","[87cd29170f4619306c702b0171f3add4cfa66d08, b0c11c40cb8b24e92735b1d5e558b9fa7f2398e5]","10","3","87cd29170f4619306c702b0171f3add4cfa66d08","408fa77339613bff895b786fbf38b557da4005a3","fce5bf833072a2328efedffd7ac97b60ac040ed0"
"https://github.com/sanger/sequencescape.git","1587","9","[4589215c8501c597d7bfef91eb40227e87bf3d52, 0c6b5f24e6c25c52a8cb3e40ac635f16cfb07a63, 36d6b43837af7af4e5cf79e8e16550ddfca548e3, afe1c9b7281d42671cbf57670d96323e3c3fbe10, 354f243c1af2e92c29a5ec104f0f470aa0cc1a39, 8b7a5345d68cf7892df1e9d3e1d69eaacc0c09e6, b7d4fe679ca5cb61f9b534563e013264ea8f3586, 539d1d5d3713625369b5996768efbb7e066c436d, 0cd4aa0587d670f951975fc9903020956eb45b97]","24","5","4589215c8501c597d7bfef91eb40227e87bf3d52","fce5bf833072a2328efedffd7ac97b60ac040ed0","4cf37891f2bb7aa1d939e6a1a650cf63f22fa159"
"https://github.com/sanger/sequencescape.git","1593","10","[6ef73f0668336a2e71cb7c983856ad2d02549dad, f6987c61a5a998d36cbae901dc79df865227b57c, 5cb857ac5f11c1f332bbbaa230d482d5b434f9a0, e7c3a8fa57dfd9a0d08ba1d2c784669ddd1e9348, 864b26d02707abaa0fb864c7850823081135ee07, fa4ba404c12ee241ba1de6550f09cde8121f19a4, 6eefe0d6d173bb472dd59ab6a104997f22a02eef, 9ec4373cbdc9008da1140aa42399cf16845c8d6a, c3eb04249405b6a0a2c720d14eadc82b4dc61892, 37b3f999fdfd074a603ae965fce44e363722aeb7]","28","6","6ef73f0668336a2e71cb7c983856ad2d02549dad","8bc3096575d22d99e003ac7caffa0d3704dbcd5f","b1d3c099926e42aa1b9d042428f5a918d752c320"
"https://github.com/sanger/sequencescape.git","1596","5","[53dceee5404df38a7b69aca2d3fabf1d2819bce9, e482a3a4e81748d309dfbfc6d613fb6d34ceb66d, 5a653d08d012740774804ab6f2af4c5b51ae2e56, ee1787b91f351d368ae44d38244c61675035b939, 5b5148307a693be612eb63dba35c421dae93289f]","15","3","53dceee5404df38a7b69aca2d3fabf1d2819bce9","860deab4c303bee1c9533020a7eb980e8028cb08","07592bdb6559161466037c2f7da61352bc5e3632"
