"REPO_URL","TASK_ID","#HASHES","HASHES","#PROD_FILES","#TEST_FILES","LAST"
"https://github.com/sanger/sequencescape.git","2218","1","[6a5e4db40fcf37eff8f6a0826e324c47c95cc7c3]","6","6","6a5e4db40fcf37eff8f6a0826e324c47c95cc7c3","3a3f3c71e732585324bf952a935bbbb9e15042c3","342f5849213f02c323cb934cc079c109fb400be4"
"https://github.com/sanger/sequencescape.git","2220","1","[21a681bff04aa3dda0f85f375517b581e76d7ea1]","5","1","21a681bff04aa3dda0f85f375517b581e76d7ea1","a4fe5acc34f2a127d8e0a5500e2c4692faad017e","342f5849213f02c323cb934cc079c109fb400be4"
"https://github.com/sanger/sequencescape.git","2224","6","[67018fad45f169422d8614204a6199cc14751d15, 75f6215e70167c9a63a41052aa268d00ff88b824, bcffc0cf321220abe95ca04fdaec76661be5a2dc, d056f4a933415f12973255ac9b8ff3d7de5f5e93, fe1f1934fae0bd0ed743fbd1212ef1f744923716, 47d7266a9a38c14f97a0ba1a8fcf348b73989fc6]","74","14","67018fad45f169422d8614204a6199cc14751d15","80f4fa3fceabf2782311ceac46e96f00b0e79ea6","06d21e7186ed4b2371f8f044536c4afe2b3889aa"
"https://github.com/sanger/sequencescape.git","2227","1","[3d63de97b3ad861abc635d15a75541b973b8c464]","8","3","3d63de97b3ad861abc635d15a75541b973b8c464","d5d531d69451651e4dc2e30cd9bb4651fe7c9018","134f68b9479f7afe84f97d80fb58906801b2e6a6"
"https://github.com/sanger/sequencescape.git","2228","1","[b432da5069eb8ea120e651cb474182a5ace2f080]","9","2","b432da5069eb8ea120e651cb474182a5ace2f080","5db28ca40fc3a7e18660420e2648a5c1219d85aa","134f68b9479f7afe84f97d80fb58906801b2e6a6"
"https://github.com/sanger/sequencescape.git","2229","1","[1dff5ed6bd9906f1e2b72a567a2e7bd8a9051147]","5","1","1dff5ed6bd9906f1e2b72a567a2e7bd8a9051147","855609cd828850c0eb2a0e729efb7301bbfaf9cd","134f68b9479f7afe84f97d80fb58906801b2e6a6"
"https://github.com/sanger/sequencescape.git","2230","1","[134f68b9479f7afe84f97d80fb58906801b2e6a6]","28","13","134f68b9479f7afe84f97d80fb58906801b2e6a6","5f60d35084283300ed290b76c475d9ae87b031e2","2427a24f31bfce575f480aae8ec673c0cc376232"
"https://github.com/sanger/sequencescape.git","2232","76","[5720b7598cc0b29231759b577a29324364d9b088, fb9e24132bb70ef8e8ed383c858de8305c90cb0f, 12a133b5a98986dadda0ae9fca63f375fa5f6b56, ec1c634610caf2e91d54baec2af857a0fb0970e2, a5bce7c26a41a9f1a9a54776bdbd1260e6031056, 6562c516d9b71c991660ca603876f357ef6b5d1b, 3d1c7c9dbfa7ca106497295e1b567fb7561f40b7, 0be8b104079673c9f539b88a6d56f545f17a9d10, d28ae48fa4df2fd76ccd08e42764713a080e5f33, 905790198c594e34cd45f1c563eec3df13f34975, 152aac6c33246fe6bfc4ca2c3d9f5feabff9dd53, 0b9af58715bcc479af9ea786cfc3ab7bf9cc0fbf, bf05ad861892961b4b2981db78243b6ab4d6ef63, 34e8547220126bee9fb5851b65a488bc4cbfc9c9, 41a7d28b0989655c00fb9728c7ab4557ac9f6be1, d07a0825dd136c82b09fde6743600f20f43e5a76, 8c2c302b7122fafe16fbf301a30cb82ca837e589, 9e7857c353f7792a35beeb968d597a9b69b0cb95, 6bc50664d82d0099981992ea3fdfa25bcfe6db32, bb491148578c4e1e9906d689c84cb6d153b1b04e, 6dce2027c74744aefdcfde74c3a8301c43f0f896, 478fea4a48130fe1d5d0a39077ef6a29ea4b9375, 0df6c871570ea388ad153b73d16440b02615f6df, 4de94fbf2b0cefaa2b20be0afeb581b313159548, 7fc4843f3134736f5e20024e2475cde7d29c212b, 9cd574df42ddce3aa48a8a234aef5ab37201b14e, bb421776d8192e31a189dac198f7105bb59ed387, 3a43c2761cfc3da126de9af2c32dbc3d6ee3deba, a0b6df68e90b745bb1d68ec2f3468408f734bea5, 8a4e3ac931e35e0aca8c6f4323255e9c5af5d15f, 0a542943de697b091d41467cca9f5fa6a2aa14b5, 58f6f93eb96662c54858c7f7e9a8b703d8fdf34a, 83c640b81f78ba749d41123c14c171176fb397b4, c0c5a486ae5af476872c374288f780f338928c0f, 4bad6a655af44926b56262820e7a2d494159867b, b916663b9072a5a453c68d28adeb40f053229a00, 50b243648e2450b7bbf2b155e90b88928f04b9eb, f052b2a31cbbac1769f28662a90d0a1f321a6c8a, 38a856c246dd405adbb7d6a37d7aea51a587622d, 2f0a418d31d34a7e259ef06674b490a802d2b2fb, f3a2b37df196fcce3fad7575c4c956a47fb0d461, 59bd2e7b44362aa5c970dab9edea5d8db963b151, f9c8dca3694aa44c81ac0684e07d190d08a47598, 11327e74ba0a93cca939d591606d75773cf2cfc9, 44604554ff271100aee743178678021da99ff109, db5117f7c3bf7729a07d8e6de4f6efcde735e1b6, 49dbec07af80714f20125e5533bffe3117b9432b, 17136c0e6e6aeecd0a1ff5c20ca112752a214965, 20d4aba2e6b67845c366102299c0a180cca021f5, 76d082a83c5a9e8cec4ea77b202ff5d51026d984, a965d332d6eaceb9250a700e93f05f283b823d02, 40737ea838bb4b1a695148d9923cecc4e4027408, 799dd10862e9e5a66e5fda133f5373d6928d3356, aa8354be03c1c92253e4b0a5cf2d64a2d05f8c10, ca21a3709826c075e43acb3fa30861ed32c38181, bb1ab03fb99ec39e2a1ea2f70cbcab8c0f592009, f0c79378fb80d97acbd3316d67df057c680efae3, 3dbf98d1d776bcfcdc9aa77e7e41736a4827c835, 936b3f6f3e99edc207f684db9ba2054423b641e8, f15a296d1a747dc35f13db6eaf183eff87845435, a21d7a312a7f0394b4570400a970fc5adb2c117c, df8bc800c639bb42b47580cd88772f38623a3d09, 750b8a1af777b80a1c06b395d7e738c5a1af0547, 470eea65874339944d8ef7e43ffb7dcac3bedad0, af20c3a1f3040fc196342359e9d56b8e3b9c95e3, cc9278ae0623a1c37010dc4b281fe54df138a24e, 20c9b4ffda87fba7f498789bcf1577e6ba2e4f23, 9734c8be5a5e5d4e26fdf0e6023b756a11ff6472, 955355322b13a759656b222e86aab80307a0e8a5, 311d48d3bd20539b398f463ec968dbb0049f780f, 5740a4374b591d521365ab1d7903859c91b2b0c5, 797dd26060baf86d59643c98735540f86b12dad5, 543204231b276cdb8cc1187e9f6846811acbe11c, 982058485708b6001f1c8c54881e56318acb8b94, 8a4b295ab2905508e24f83b3a273c82cdcaf80cc, def2ff220fd4c511d0a4b8ce91c4de34816f9e5b]","71","14","5720b7598cc0b29231759b577a29324364d9b088","06d21e7186ed4b2371f8f044536c4afe2b3889aa","6604c83d8fbd2b1980e26f0c51ecc4c70292d374"
"https://github.com/sanger/sequencescape.git","2237","2","[88432e629e4d6e8e7c8422270a2e9f16048499ca, 9a7b78ae2b7098a6678e35b88c4c08ef69b16aab]","1","1","88432e629e4d6e8e7c8422270a2e9f16048499ca","13dfcb4537cbdd8d52fccb6fc8f81f6d3865bb34","5261f988f45a81fac8eef3c82a047f5d2d772594"
"https://github.com/sanger/sequencescape.git","2244","2","[6604c83d8fbd2b1980e26f0c51ecc4c70292d374, a373226f95fad52101fbab1896f7afe58a723ea7]","4","9","6604c83d8fbd2b1980e26f0c51ecc4c70292d374","ab189f2f46dd32d27035e07e21fc5d0e7787dce2","b53e4ff944218e8816e067cc590dc47d1f8ee690"
"https://github.com/sanger/sequencescape.git","2249","2","[705ca04b202551849d49428c9e5b47d3e2f49a2c, fa8f2f678db32022a6a5cabc4fed246c446bb46f]","2","1","705ca04b202551849d49428c9e5b47d3e2f49a2c","621239019150388f618890d5d34c5c7c87abcf20","b6a9bd76d1d20502ce74e57fa38be11e035d8827"
"https://github.com/sanger/sequencescape.git","2252","1","[cd8345b7f8b7292cd41afb61b5698b4afa9877ec]","3","2","cd8345b7f8b7292cd41afb61b5698b4afa9877ec","4bd258708188c4da2400c2f1faf938dc4f432064","6fc927312fc74f7026b52a73a544558ba231df36"
"https://github.com/sanger/sequencescape.git","2258","8","[bf418c893d4d9316140f4f5d30e1f5a10859d529, 9b604edca8f6cc11c078fa940adf9fb9142d6091, 9af626bde2738d3d25361a28d6c2080a27330ebd, 53483745765cfc387d5f6bae839642f6de96d8db, bda7742923591f99433860cf8f3af6a66e48c013, 735785e41b01cca41c7dfcc68be43de31c40715c, f9bef991dfb42e839df4466cf2e4753ac9f167f1, cd46e9891610ac58ac1b1dfaae19187d284f0ca9]","5","1","bf418c893d4d9316140f4f5d30e1f5a10859d529","5d27bd32cb6f66d49eeefc11a802d0019c8e3058","76f98d7564d5f5a49d516942c437be5562187939"
"https://github.com/sanger/sequencescape.git","2263","1","[c6dea7861071bf5285cea4347acab90f43807658]","1","1","c6dea7861071bf5285cea4347acab90f43807658","60337bab93e087d7c40a2c60cf93d6a319c417c5","9fd0eced5acbf1e99289121cab4bb3e52431b931"
"https://github.com/sanger/sequencescape.git","2272","1","[c229d12d19d604eae91da508dfdb5cca041c5d64]","1","1","c229d12d19d604eae91da508dfdb5cca041c5d64","1595f3bae82ad55e0644bb54991a75877497e952","c26ad2380687a387c5b9dce60c0d8fa1dba65675"
"https://github.com/sanger/sequencescape.git","2273","6","[c26ad2380687a387c5b9dce60c0d8fa1dba65675, f393f9d90018293d626e51adbb33b12d907ece79, ae2b5a7804d76bd8f1aae3d860ab63a2e28cb2de, 29874444ea04c1145fd57ae35af1e1605ca5eb8d, f34152439c6ec274e1081b256a458068e2d3264b, 046445ab04e8c4fc137cd890e22acffecedf2b75]","14","3","c26ad2380687a387c5b9dce60c0d8fa1dba65675","ca55e17dc31bbeb22646a85ae285c2eb647d0319","f077738456dbf9c5cee18844affdc00c813fe88b"
"https://github.com/sanger/sequencescape.git","2274","3","[7068eaaaf6bc43aa899ab300dbff283c4e56f6e0, 75253c66ba513fc7c3672cd1e417ad7946f8f872, 5d5f01e38bb380533c99d289a96190ff27d91850]","30","9","7068eaaaf6bc43aa899ab300dbff283c4e56f6e0","ca55e17dc31bbeb22646a85ae285c2eb647d0319","e5ad5efacdb7b87db5357d4260d1815b936afe4c"
"https://github.com/sanger/sequencescape.git","2277","3","[58606a6f4c9b3500c073a056792e8b0a386e1126, f289e640e71a1f3d69e051106e237e02aed13dc6, ef25786617964d99606cc391a675145b0f7b4477]","9","3","58606a6f4c9b3500c073a056792e8b0a386e1126","e5ad5efacdb7b87db5357d4260d1815b936afe4c","c063148b70572dc5d547e4f1376dd3ab1ba178be"
"https://github.com/sanger/sequencescape.git","2282","1","[2370b5e70951e65d5fb40aef209745ed4b68ec13]","1","1","2370b5e70951e65d5fb40aef209745ed4b68ec13","d074a1f2f077845575625d66a5b22a05444c0678","86e4898d4d3604c7a4936e2f649a9605a76bb485"
"https://github.com/sanger/sequencescape.git","2292","2","[758f384d794188f0ac80c30bdce777eae2672652, add7c89ba101b7f71470e8a34f33b828c0c11133]","2","1","758f384d794188f0ac80c30bdce777eae2672652","229f877705016d59f23ab744dbe9b8de8718f1dd","01a1037badd004708adeaebe213fd792abff263b"
"https://github.com/sanger/sequencescape.git","2293","1","[3cae54d51b988125a2075c3ff0421d95153ce067]","2","1","3cae54d51b988125a2075c3ff0421d95153ce067","01a1037badd004708adeaebe213fd792abff263b","8b8459b2d2e37442bfff8ff6c12f28546a6eccc8"
"https://github.com/sanger/sequencescape.git","2295","2","[8b8459b2d2e37442bfff8ff6c12f28546a6eccc8, adf72357c946f0dd5b727c058fb014384b0ed44a]","2","2","8b8459b2d2e37442bfff8ff6c12f28546a6eccc8","d2fe839e1fb8345a8f5d1ac9a443bee1197face8","681cba225cfdccd2386d2b4a0cb5047624406508"
"https://github.com/sanger/sequencescape.git","2310","1","[76416b92f991dbc6895a82dff5f0c988c714e9a2]","2","1","76416b92f991dbc6895a82dff5f0c988c714e9a2","4aff9b93a1602eb32faae8170c1d9b5c9b744f59","bb534f79aaaf3463dbecbee7330728571028b424"
"https://github.com/sanger/sequencescape.git","2312","6","[b82bc3a01446dff2c1dada28db2610d4c38f4241, f756b64ae51684628f468d0fdc27ee7f791d1b3b, 8d67a31f94b0671de5da2e33fc150ad680663df5, 9bdb5256128b49b1b0590cecb6c1290d72f52037, 43779c601e4303cb863e5369a5f942ce91ae9fe0, 63c5f1d611a90a15f924b327c94ed0cca6f16d61]","31","17","b82bc3a01446dff2c1dada28db2610d4c38f4241","0df1765ab7d59294a31cbcaea67c197e7e3d1b3e","fec57cd9f382ab6e324425db53a2d7a5112e541a"
"https://github.com/sanger/sequencescape.git","2317","3","[6fd1b57b7134623a39ef687828ffb5fb183ee19f, 2bd51e211c75f723513afa90ad847002e4d01189, 3c971829df38e54faf23f640f92bf6a79364500e]","10","14","6fd1b57b7134623a39ef687828ffb5fb183ee19f","70938fe340a688b7cd1c000b3c6b6d95948154e4","aa0c1ac0bfa4cf5bff4ff2d133e1bdc556cdf122"
"https://github.com/sanger/sequencescape.git","2318","2","[72829ea53d0150785a3ec05fca6e2e40594d7580, 80808e915469d4123f8e814490dadfad7bc7fcb8]","7","2","72829ea53d0150785a3ec05fca6e2e40594d7580","70938fe340a688b7cd1c000b3c6b6d95948154e4","d0865389173d320d6e9be355fb3f3e9789b32cc2"
"https://github.com/sanger/sequencescape.git","2338","8","[173d8638f794dcdbae5d668bac114ef036d46184, 9afdd6ee023afaebbfa61ab3ca3dc93492bbbc7e, c13d95c7e607a785e0fc1cec4280e5ebde902f0c, 1655dd579351750613966a52ab56702d72120371, 4a93db5afa131a8d3736443f2e2680223ffe52b0, 3409ec44a8ffe56d5d2e9397e8453c281d003d49, 648d2f5ff829d5c5ef134e47b421bfb1c8624a4f, d8a191bbb61f40bea1ba49471ba580724e81e9f2]","9","4","173d8638f794dcdbae5d668bac114ef036d46184","ea37d1cf4a1cd9c2e3541cff537a6b39e9b57a99","ab802936ceff360a66839c2cbc5198f1f551f7be"
