"REPO_URL","TASK_ID","#HASHES","HASHES","#PROD_FILES","#TEST_FILES","LAST"
"https://github.com/sanger/sequencescape.git","1248","2","[0a6203615adc02f98cac9f22c6d6f5a2ddd9057c, 93eace9f34817885aef20a6c34984cc9954835cc]","41","9","0a6203615adc02f98cac9f22c6d6f5a2ddd9057c","5c14a65dcf80701e353a36a6ec838389feb000bc","c6ced904dee2e73cc1c2046860ef57c8641fef02"
"https://github.com/sanger/sequencescape.git","1252","2","[bf9b461e4dd7f28770ce63e3dee567a8b04f05ef, fa9352460f67b5b8b2bb2ac4913ff4e215564f25]","1","1","bf9b461e4dd7f28770ce63e3dee567a8b04f05ef","51ec1a76f2f5fbb1b5e57db2c12cd6241c62e1e0","b2877f412418dbbdd74c6cf7d7dd219153e96353"
"https://github.com/sanger/sequencescape.git","1254","5","[bdd7145fd55d231e170111384c9f62df9139d4f0, dc5dbe35877398a323f29ab1c5f887a0626f17b7, c57892ee4b6063765d59551a50e08365f810fba6, 249718147510dadc8d78809a3deba48bf6384e80, a1005729eb03aafd392a51b3da559ef58ba10fb3]","41","9","bdd7145fd55d231e170111384c9f62df9139d4f0","c6ced904dee2e73cc1c2046860ef57c8641fef02","e1029efc46538ac00176159f6321c0de8e9432ff"
"https://github.com/sanger/sequencescape.git","1255","3","[8eccad8671959ae2db704448e95c9a4a425861ba, 05360a83b15108680ca1ba87a0843bd34d49c02b, 14422c75df07e41e68f2623847097357ba6b7dc6]","14","6","8eccad8671959ae2db704448e95c9a4a425861ba","35a56ac93e5fea46500883be1601f1abdf3c986f","e1029efc46538ac00176159f6321c0de8e9432ff"
"https://github.com/sanger/sequencescape.git","1257","1","[307c8365207c344fe457358eeb2f6108517fb55e]","1","1","307c8365207c344fe457358eeb2f6108517fb55e","b2877f412418dbbdd74c6cf7d7dd219153e96353","4e0022022e9a627d6d0a7e97d9e3b30199bba29d"
"https://github.com/sanger/sequencescape.git","1260","3","[3a17c05eee9be05abde69ddf097f0f31ccac3c3f, 34f58df4b27209b1d1c554904bfe5b272319fd05, a826f1bc8a7e048a849cbc98a0d9e06e6d55f6b6]","2","1","3a17c05eee9be05abde69ddf097f0f31ccac3c3f","2d0f1afddb0d557651779d084269dce415a7d238","87d868835668cadbef08480e0b2db3bd9fbe2442"
"https://github.com/sanger/sequencescape.git","1261","1","[c7eb48e1ee5f3651f2283c82e89980692a5fe7fb]","3","1","c7eb48e1ee5f3651f2283c82e89980692a5fe7fb","2d0f1afddb0d557651779d084269dce415a7d238","87d868835668cadbef08480e0b2db3bd9fbe2442"
"https://github.com/sanger/sequencescape.git","1265","1","[4e0022022e9a627d6d0a7e97d9e3b30199bba29d]","8","1","4e0022022e9a627d6d0a7e97d9e3b30199bba29d","87d868835668cadbef08480e0b2db3bd9fbe2442","d42a9511cacb11ca888c9f1315d1ce8eacd5fd0f"
"https://github.com/sanger/sequencescape.git","1269","10","[73a5f92943ff10409e52b0b4a265d69163f00159, a035e9d044e0f02fb775b475990a5c98932f7bcf, 9c902de8b1402558790984db4b98ba9e41cab1cd, c1999c930274bbf729a5ccea9efbbd07f8b98d1e, a0091b8b351d3541dbcee3be8d3f651328048183, ce54e7dbbbfa1ac1382a99935997d116af367a08, d1ff914a94fa62d9fdf800266fe575eaa99b09f3, 4138d5b16db71b1696bb1d2edd6b019a038e3cb1, 6a096e9a25cdbd15bb06768d4e20036acdadd3ba, e6585a018a0c16b2004fc2c027fffcd4303029e8]","12","3","73a5f92943ff10409e52b0b4a265d69163f00159","9042f62ade093f5621b0ecf88c74aa34dca8c80a","e2dd6055c61c33327c711560ddf51bbbfc7fb6b0"
"https://github.com/sanger/sequencescape.git","1270","3","[6969e9bec4bf118f760291a79bdbce032ee45874, 0c0526e5be7133d7cfeac2648a9ddefd2bfdc862, 2a546a754be5c0ce6c29ef031a044b535e336d2c]","5","2","6969e9bec4bf118f760291a79bdbce032ee45874","e4f232dd5aea8877a4caddf70ac3bcafccdc4ad7","c4c98094320d1d5a06d9672c52e5b8b2aa12eb26"
"https://github.com/sanger/sequencescape.git","1284","3","[e5107d22f8ce8182ff5326830318f0568f9107fa, 3e4c0eb15960ad5cabf0f21f2a16635215b33038, 9954dc93af62985004988846c49041b5b1e38244]","8","1","e5107d22f8ce8182ff5326830318f0568f9107fa","24a38fd4d1e597fb8ec4178829edf6beaa6fbb3a","e2dd6055c61c33327c711560ddf51bbbfc7fb6b0"
"https://github.com/sanger/sequencescape.git","1285","2","[44d4c1df0a3934547fe03b3e60a0719d6d213ec4, 678aa5661db4df478276e20e4b9c46bfd00425c1]","5","1","44d4c1df0a3934547fe03b3e60a0719d6d213ec4","24a38fd4d1e597fb8ec4178829edf6beaa6fbb3a","d7be2ed55a279f131374e43e3fff003dd7f34ac0"
"https://github.com/sanger/sequencescape.git","1287","2","[addaf12aca880a08f4c98ac3a77442879d843d40, 2e400d52b72ad349510dcedf3f5cdc3110eda3ee]","25","3","addaf12aca880a08f4c98ac3a77442879d843d40","96196368c55d61ab81ad4c7a991996f17d05df1d","e2dd6055c61c33327c711560ddf51bbbfc7fb6b0"
"https://github.com/sanger/sequencescape.git","1296","7","[af8bfb7bf44b3a1b6bc3907026325b646629c365, 0855dbbc9716086b54abce18111fe78ce85c800f, 91116fcc09858543f5af23721a09d4a185f00e33, 91799357ab7c421069696b76bbf403e114f3b3e9, 08746bfcdef020333aae7c912f675560ec46a5c8, f4a73e78bab00a91aed69077c7aec0300f0e126e, 62cf34e69192324e17203e5dc363c68bf1e0f11a]","4","1","af8bfb7bf44b3a1b6bc3907026325b646629c365","11ffb3453a567c73f9e87b765cde7a65301e132b","d16b95929e26a4b0df12f807a7e1dc9db481ec3d"
"https://github.com/sanger/sequencescape.git","1302","2","[23362a03fbd259b088e2ca381092d90e11d3cacc, df791b49fec1e2ae453659cc79bdc32728d2ee3b]","3","1","23362a03fbd259b088e2ca381092d90e11d3cacc","48fb486230ecf59ffc4835393845d0054dba1a56","51f9aeca8272699f94f87ee6f87dc5871827c7cd"
"https://github.com/sanger/sequencescape.git","1304","6","[8b565be18c758a5f43f3ad144deb60a844c87a24, 2458146139b0100213062f86e7e648b1e7394c9a, 96859145c4d8598ba471d436a58f3cf3bc5ccd5d, 9d08701d74ae633bd76c263c2ee9c67bf84e30b0, 21d863df3bf7bad64f2ed5e2e1dda33488c11dee, 19a3027e60d06f2d3fb60be0f96ecf260840a510]","3","1","8b565be18c758a5f43f3ad144deb60a844c87a24","51f9aeca8272699f94f87ee6f87dc5871827c7cd","41906aa971db84f76efcc77fdc38db08b89c37e2"
"https://github.com/sanger/sequencescape.git","1308","3","[0cc9c4eaf37ea8fe8a9dc926d78c58c48bccc5f1, 3bee3e7a405c30ebaa132296f8911aea26df5ba3, ed099df6b57b3c4d8ffc33a6b52ddba834f09636]","5","3","0cc9c4eaf37ea8fe8a9dc926d78c58c48bccc5f1","f4f3f0a45f9a4f207b0f29a640c548bfcefc6b65","d227ee63c78a8d0161226437997284e4e5ac1ea3"
"https://github.com/sanger/sequencescape.git","1310","6","[af160869bfd8714faf5d5694aed6bf2632839039, a9361d5565a55b7b8f6441c089552a522e55a221, 5645017bcf824c295fefe07797b0997a562e689f, 979482e6a449de997f9dae8661695325a29ea8bb, 13dbe959b00eddb588eb7723c77961750ab7a1e4, 2e1e4d5a84f55e6a28702647cb33828edef6f8b1]","4","10","af160869bfd8714faf5d5694aed6bf2632839039","513ec3bda559e138a5f2035fb5421147a0da2e9d","48f0cabe2513e4caf6770eb83f3eb98882f290c5"
"https://github.com/sanger/sequencescape.git","1312","2","[f384745358edda63010084f3bcb79b479e078382, 40dfd78611cae930af669b52395b4b6c9d35abad]","1","4","f384745358edda63010084f3bcb79b479e078382","91399aa9dc47b760680f9a99c4c7479030305bc2","0ebe549de79a4e1282f817c6cf87e8480cd81a11"
"https://github.com/sanger/sequencescape.git","1323","4","[f99f209378293267304bb68d631694c68ea73a43, 56b3030c0905cc4d70e6e57c848302cf79281331, a02746b52241960be30d0896a5ae6602850961f6, 403c5f29fc3e38a64158d5166692d43e5352b67a]","3","1","f99f209378293267304bb68d631694c68ea73a43","79c7f74734ccc96d7ad0fd2bc605f030f83dfd7f","137716407644543004f1b8463e3db5548602302b"
"https://github.com/sanger/sequencescape.git","1327","2","[2ad90c242e440993413957f72542b648d3990e66, 9b19451f0cded6c3af0722efc96d0c9a3b61082a]","1","1","2ad90c242e440993413957f72542b648d3990e66","25c1bdf377a54855eb0ca6aa7c0c5da88bcf739e","12a6d180ac896c9861dbfb4c7c11e4ce93b12002"
"https://github.com/sanger/sequencescape.git","1360","2","[3dc164d67c1d45020be102548a3d411225bab2df, 4441c2d34146c2e6b86e43a1c6bda868ef847cdf]","11","1","3dc164d67c1d45020be102548a3d411225bab2df","b854755418fb144555d2ea62791a42590eeb9ff3","876e10de220be53efa644ffa9e7fe92e13883a17"
"https://github.com/sanger/sequencescape.git","1369","3","[ab738059a0081d2f9a95ee02f4c660ad9dea5b69, 2293626187b5f12d39bc34a0b9ea3aaef81f3b93, c8471b1e71220d418bbddc24e5887f3c4b2ecf0e]","1543","61","ab738059a0081d2f9a95ee02f4c660ad9dea5b69","bcc4a233fc3b6af9f89a42c7bf4800b9fd6692e4","4af19030a25d68339daea1239514310b1bbf80d5"
"https://github.com/sanger/sequencescape.git","1373","1","[0f6e7d0b46af4d5026e2e76b0ce45d09e74f0e4f]","5","1","0f6e7d0b46af4d5026e2e76b0ce45d09e74f0e4f","274c9666f41ac69d50adc2bc01c305b0580e4233","924b3b4b074c15bc700cf2bdc63ce3c98348906e"
"https://github.com/sanger/sequencescape.git","1378","1","[4803bb3c4691ec4f4e8de34092d861d7dec517d7]","1","1","4803bb3c4691ec4f4e8de34092d861d7dec517d7","41906aa971db84f76efcc77fdc38db08b89c37e2","671a657bf35168a13919b31f72d6516835d04bb5"
"https://github.com/sanger/sequencescape.git","1384","2","[ad60a3ed4b9a9e6e8e18a061ff3775af566a7090, c00d91b44fb76171ec445a639f02b0b70d803844]","5","2","ad60a3ed4b9a9e6e8e18a061ff3775af566a7090","c3588b58871207255c6f136b789fe5776c839407","f2d430f7bb9d4fbb042a2d59668e8656cd9bc2bf"
