Given /^(?:|I )am on (.+)$/ do |page_name|
  visit path_to(page_name)
end
When /^(?:|I )follow "([^"]*)"(?: within "([^"]*)")?$/ do |link, selector|
  with_scope(selector) do
    click_link(link)
  end
end
Then /^(?:|I )should see "([^"]*)"(?: within "([^"]*)")?$/ do |text, selector|
  with_scope(selector) do
    if page.respond_to? :should
      page.should have_content(text)
    else
      assert page.has_content?(text)
    end
  end
end
Then /^(?:|I )should not see "([^"]*)"(?: within "([^"]*)")?$/ do |text, selector|
  with_scope(selector) do
    if page.respond_to? :should
      page.should have_no_content(text)
    else
      assert page.has_no_content?(text)
    end
  end
end
  def with_scope(locator)
    locator ? within(locator) { yield } : yield
  end
  def path_to(page_name)
    case page_name
      when /^the home(?: )?page$/
        root_path
      when /^step (\d)$/
        if $1.to_i == 1
          getting_started_path
        else
          getting_started_path(:step => $1)
        end
      when /^the tag page for "([^\"]*)"$/
        tag_path($1)
      when /^its ([\w ]+) page$/
        send("#{$1.gsub(/\W+/, '_')}_path", @it)
      when /^the ([\w ]+) page$/
        send("#{$1.gsub(/\W+/, '_')}_path")
      when /^my edit profile page$/
        edit_profile_path
      when /^my profile page$/
        person_path(@me.person)
      when /^my acceptance form page$/
        accept_user_invitation_path(:invitation_token => @me.invitation_token)
      when /^the requestors profile$/
        person_path(Request.where(:recipient_id => @me.person.id).first.sender)
      when /^"([^\"]*)"'s page$/
        person_path(User.find_by_email($1).person)
      when /^my account settings page$/
        edit_user_path
      when /^the photo page for "([^\"]*)"'s post "([^\"]*)"$/
        photo_path(User.find_by_email($1).posts.find_by_text($2))
      when /^"(\/.*)"/
        $1
      else
        raise "Can't find mapping from \"#{page_name}\" to a path."
    end
  end
When /^I press the aspect dropdown$/ do
  find('.dropdown .button').click
end
And /^I toggle the aspect "([^"]*)"$/ do |aspect_name|
  aspect = @me.aspects.where(:name => aspect_name).first
  find("li[data-aspect_id='#{aspect.id}']").click
end
When /^I append "([^"]*)" to the publisher$/ do |stuff|
  # Wait for the publisher to appear and all the elements to lay out
  wait_until { evaluate_script("$('#status_message_fake_text').focus().length == 1") }

  # Write to the placeholder field and trigger a keyup to start the copy
  page.execute_script <<-JS
    $('#status_message_fake_text').val($('#status_message_fake_text').val() + '#{stuff}');
    $('#status_message_fake_text').keyup();
  JS

  # Wait until the text appears in the placeholder
  wait_until do
    evaluate_script("$('#status_message_fake_text').val().match(/#{stuff}/) != null")
  end

  # WAIT FOR IT!...

  # Wait until the text copy is finished
  wait_until do
    evaluate_script <<-JS
      $('#status_message_text').val() && ($('#status_message_text').val().match(/#{stuff}/) != null)
    JS
  end
end
And /^I click "([^"]*)" button$/ do |arg1|
  page.execute_script('$(".button:contains('+arg1+')").click()')
end
When /^(.*) in the modal window$/ do |action|
  within('#facebox') do
    When action
  end
end
When /^I have turned off jQuery effects$/ do
  evaluate_script("$.fx.off = true")
end
Given /^a user with username "([^\"]*)"$/ do |username|
  user = Factory(:user, :email => username + "@" + username + '.' + username, :username => username,
                 :password => 'password', :password_confirmation => 'password', :getting_started => false)
  user.aspects.create(:name => "Besties")
  user.aspects.create(:name => "Unicorns")
end
Given /^I have an aspect called "([^\"]*)"$/ do |aspect_name|
  @me.aspects.create!(:name => aspect_name)
  @me.reload
end
When /^I have user with username "([^"]*)" in an aspect called "([^"]*)"$/ do |username, aspect|
  user = User.find_by_username(username)
  contact = @me.reload.contact_for(user.person)
  contact.aspects << @me.aspects.find_by_name(aspect)
end
Given /^a user with username "([^"]*)" is connected with "([^"]*)"$/ do |arg1, arg2|
  user1 = User.where(:username => arg1).first
  user2 = User.where(:username => arg2).first
  connect_users(user1, user1.aspects.first, user2, user2.aspects.first)
end
When /^I sign in as "([^"]*)"$/ do |email|
  @me = User.find_by_email(email)
  @me.password ||= 'password'
  Given 'I am signed in'
end
