"Repository","https://github.com/rapidftr/RapidFTR.git"
"Tasks with empty IReal","0"
"Tasks with no-empty IReal","1"
"Tasks with relevant AST error","1"
"Tasks with AST error of Gherkin files","0"
"Tasks with AST error of StepDef files","0"
"Tasks with AST error of production files","1"
"Tasks with AST error of unit test files","0"
"Tasks with step match error","0"
"Tasks without required gems","0"
"Tasks with changed stepdef","1"
"Tasks with changed Gherkin","1"
"Tasks with implemented Gherkin scenarios","1"
"All invalid tasks","1"
"All valid tasks (Gherkin scenario, no empty IReal, no error)","0"
"Valid tasks, but empty ITest","0"
"Valid tasks, no empty ITest, but zero precision-recall","0"
"Valid tasks, no empty ITest, no zero precision-recall","0"
"Project","Task","Date","#Days","#Commits","Commit_Message","#Devs","#Gherkin_Tests","#Impl_Gherkin_Tests","#StepDef","#Impl_StepDef","Methods_Unknown_Type","#Step_Call","Step_Match_Errors","#Step_Match_Error","AST_Errors","#AST_Errors","Gherkin_AST_Errors","#Gherkin_AST_Errors","Steps_AST_Errors","#Steps_AST_Errors","Renamed_Files","Deleted_Files","NotFound_Views","#Views","#TestI","#TaskI","TestI","TaskI","Precision","Recall","Hashes","Timestamp","Rails","Gems","#Visit_Call","Lost_visit_call","#Views_ITest","#Code_View_Analysis","Code_View_Analysis","Has_Merge","F2","#Multiple_Step_Matches","Multiple_Step_Matches","#Generic_Step_Keyword","Generic_Step_Keyword"
"rapidftr","1147","[29-03-2011]","1","1","[TC - send kill signal if device has been blacklisted ]","1","1","1","2","2","[hashes, detect, devices, save!, each, post, response, status, response_body]","0","","0","[[path:app/controllers/sessions_controller.rb, msgs:[unexpected tASSOC]]]","1","","0","","0","","[]","[sessions]","1","2","2","[app/models/session.rb, app/models/user.rb]","[app/controllers/sessions_controller.rb, app/models/login.rb]","0.0","0.0","[ef6a69533ef0d7a3cfcd4eff7fe69cc2d5eac3c5]","0.089 seconds","2.3.5","[cucumber-rails, rspec-rails]","0","[]","0","0","[]","false","0.0","0","","0",""
