"Repository","https://github.com/rapidftr/RapidFTR.git"
"Precision mean (RT)","0.09209401709615385"
"Precision median (RT)","0.0"
"Precision standard deviation (RT)","0.219078728039039"
"Recall mean (RT)","0.23076923076923073"
"Recall median (RT)","0.0"
"Recall standard deviation (RT)","0.4057282152074029"
"F2 mean (RT)","0.1455046022389627"
"F2 median (RT)","0.0"
"F2 standard deviation (RT)","0.25605531331550974"
"Correlation #Test-Precision","0.4"
"Correlation #Test-Recall","0.46"
"Task","Dates","#Devs","#Commits","Hashes","#Gherkin_Tests","#Sted_defs","#TestI","#TaskI","TestI","TaskI","Precision","Recall","Rails","#visit_call","Lost_visit_call","#Views_TestI","#Code_View_Analysis","Code_View_Analysis","Methods_Unknown_Type","Renamed_Files","Deleted_Files","NotFound_Views","#NotFound_Views","Timestamp","Has_Merge","#FP","#FN","FP","FN","#Hits","Hits","f2"
"1195","[14-12-2010, 26-12-2010]","1","2","[ca1f2e01d7d9f7137facb38120102246888c1a55, e9f4deec8aa072985c31d69486dadfc0904e4de1]","7","1","9","1","[app/controllers/admin_controller.rb, app/controllers/child_ids_controller.rb, app/controllers/child_media_controller.rb, app/controllers/children_controller.rb, app/controllers/fields_controller.rb, app/controllers/form_section_controller.rb, app/controllers/histories_controller.rb, app/controllers/sessions_controller.rb, app/controllers/users_controller.rb]","[app/controllers/fields_controller.rb]","0.1111111111","1.0","2.3.5","3","[]","0","41","[app/controllers/admin_controller.rb, app/controllers/child_ids_controller.rb, app/controllers/child_media_controller.rb, app/controllers/children_controller.rb, app/controllers/fields_controller.rb, app/controllers/form_section_controller.rb, app/controllers/histories_controller.rb, app/controllers/sessions_controller.rb, app/controllers/users_controller.rb, app/helpers/application_helper.rb, app/views/admin/index.html.erb, app/views/children/_form_section.html.erb, app/views/children/_search_results.html.erb, app/views/children/_summary_row.html.erb, app/views/children/_tabs.html.erb, app/views/children/edit.html.erb, app/views/children/edit_photo.html.erb, app/views/children/index.html.erb, app/views/children/new.html.erb, app/views/children/search.html.erb, app/views/children/show.html.erb, app/views/fields/_basic_form.html.erb, app/views/fields/_multiple_choice_form.html.erb, app/views/fields/_suggested_field.html.erb, app/views/fields/choose.html.erb, app/views/fields/confirm_toggle.html.erb, app/views/fields/edit.html.erb, app/views/fields/new.html.erb, app/views/form_section/index.html.erb, app/views/form_section/new.html.erb, app/views/histories/_audio_history_change.html.erb, app/views/histories/_history_change.html.erb, app/views/histories/_photo_history_change.html.erb, app/views/histories/show.html.erb, app/views/sessions/new.html.erb, app/views/sessions/show.html.erb, app/views/users/_edittable_user.html.erb, app/views/users/_mobile_login_history.html.erb, app/views/users/edit.html.erb, app/views/users/index.html.erb, app/views/users/new.html.erb]","[each, hashes, gsub, reverse_merge!, to_i, response, body, css, include, click_button, click_link, click_link, fill_in, fill_in, contain, assert_contain, field_labeled, be_checked, checked?, url_for, rows_hash, assert_have_xpath, each, raw, text, detect, be_nil, options, element, hashes, reverse_merge!, new_create_custom_fields, raise, url_for]","","[app/views/fields/_basic_new_field_form.html.erb, app/views/fields/new_check_box.html.erb, app/views/fields/new_date_field.html.erb, app/views/fields/new_numeric_field.html.erb, app/views/fields/new_radio_button.html.erb, app/views/fields/new_select_box.html.erb, app/views/fields/new_text_field.html.erb, app/views/fields/new_textarea.html.erb]","[feature, new_add_suggested_field_to_form_section, new_assign_unique_id_to_a_child, new_create_custom_field]","4","2.487 seconds","false","8","0","[app/controllers/admin_controller.rb, app/controllers/child_ids_controller.rb, app/controllers/child_media_controller.rb, app/controllers/children_controller.rb, app/controllers/form_section_controller.rb, app/controllers/histories_controller.rb, app/controllers/sessions_controller.rb, app/controllers/users_controller.rb]","[]","1","[app/controllers/fields_controller.rb]","0.3846153845887574"
"1208","[23-11-2010, 24-11-2010, 25-11-2010, 26-11-2010, 01-12-2010]","1","6","[7437338fa914f5787f17f2c999d1668ee0566e98, 70368477c796fda14684e16c89a0063e0153154f, 2df89827f16e2b17b57ee25c9a3f5445630c4399, 386e2c3e8a89a5a10d03c04e5f2e0a660fffff39, 265b7aac6330d4786328ba7f54ceb7580c6db349, 5e93dc02a1931dd7a6a0143b7cffad9ccac1a573]","6","0","6","1","[app/controllers/admin_controller.rb, app/controllers/child_media_controller.rb, app/controllers/children_controller.rb, app/controllers/fields_controller.rb, app/controllers/form_section_controller.rb, app/controllers/users_controller.rb]","[app/controllers/children_controller.rb]","0.1666666667","1.0","2.3.5","5","[]","0","20","[app/controllers/admin_controller.rb, app/controllers/child_media_controller.rb, app/controllers/children_controller.rb, app/controllers/fields_controller.rb, app/controllers/form_section_controller.rb, app/controllers/users_controller.rb, app/views/admin/index.html.erb, app/views/children/_form_section.html.erb, app/views/children/_tabs.html.erb, app/views/children/edit.html.erb, app/views/children/index.html.erb, app/views/children/new.html.erb, app/views/fields/_delete_button.html.erb, app/views/fields/_direction_button.html.erb, app/views/fields/index.html.erb, app/views/form_section/index.html.erb, app/views/users/_edittable_user.html.erb, app/views/users/edit.html.erb, app/views/users/index.html.erb, app/views/users/new.html.erb]","[hashes, reverse_merge!, delete, uploadable_photo, create!, each, response, body, Hpricot, to_html, click_button, click_link, click_link, fill_in, select, choose, attach_file, attach_file, contain, assert_contain, response, contain, assert_not_contain, assert_not_contain, url_for, to_i, response, body, Hpricot, checkboxes, nil?, raise, check, to_i, content_type, response_body, chomp, length, hashes, find, be_nil, each_key, each, find_child_by_name, have_selector]","","[]","[new_formsection_fields]","1","1.005 seconds","false","5","0","[app/controllers/admin_controller.rb, app/controllers/child_media_controller.rb, app/controllers/fields_controller.rb, app/controllers/form_section_controller.rb, app/controllers/users_controller.rb]","[]","1","[app/controllers/children_controller.rb]","0.50000000006"
"1167","[08-02-2011, 15-02-2011, 16-02-2011, 23-02-2011]","3","4","[41822f328a2f336bdc4a350c6ca3b66d3874450d, 2d4a03ad179f8100620f44b43b15b2294e95b730, d49d605a89ac17676248646bbc21c7cccfcb238f, 6f3ac4a021a1e49515363c0daa9b5b255c797da9]","5","3","5","0","[app/controllers/child_media_controller.rb, app/controllers/children_controller.rb, app/controllers/fields_controller.rb, app/controllers/sessions_controller.rb, app/controllers/users_controller.rb]","[]","0.0","0.0","2.3.5","2","[]","0","9","[app/controllers/child_media_controller.rb, app/controllers/fields_controller.rb, app/views/fields/_basic_form.html.erb, app/views/fields/_common.html.erb, app/views/fields/_multiple_choice_form.html.erb, app/views/fields/_suggested_field.html.erb, app/views/fields/choose.html.erb, app/views/fields/edit.html.erb, app/views/fields/new.html.erb]","[and_return, and_return, stub!, stub!, and_return, stub!, hashes, reverse_merge!, delete, uploadable_photo, create!, each, gsub, to_i, click_button, click_link, click_link, fill_in, fill_in, select, select, choose, choose, attach_file, response, contain, assert_contain, response_body, have_selector, body, Hpricot, be_empty, inner_html, uploadable_photo, represent_inline_attachment, find_child_by_name]","","[lib/rapidftr_default_db_setup.rb, lib/suggested_fields_db_setup.rb]","","0","0.333 seconds","false","5","0","[app/controllers/child_media_controller.rb, app/controllers/children_controller.rb, app/controllers/fields_controller.rb, app/controllers/sessions_controller.rb, app/controllers/users_controller.rb]","[]","0","[]","0"
"1198","[18-12-2010]","1","2","[b897f61b0c88d0d795c241ba90189eac5ca80e0b, abc80a66d9fec520789b89eef544d8bd8bec9c69]","4","4","7","0","[app/controllers/admin_controller.rb, app/controllers/child_media_controller.rb, app/controllers/children_controller.rb, app/controllers/form_section_controller.rb, app/controllers/histories_controller.rb, app/controllers/sessions_controller.rb, app/controllers/users_controller.rb]","[]","0.0","0.0","2.3.5","4","[]","0","24","[app/controllers/admin_controller.rb, app/controllers/child_media_controller.rb, app/controllers/children_controller.rb, app/controllers/form_section_controller.rb, app/controllers/histories_controller.rb, app/controllers/users_controller.rb, app/views/admin/index.html.erb, app/views/children/_form_section.html.erb, app/views/children/_tabs.html.erb, app/views/children/edit.html.erb, app/views/children/edit_photo.html.erb, app/views/children/index.html.erb, app/views/children/new.html.erb, app/views/children/show.html.erb, app/views/form_section/index.html.erb, app/views/histories/_audio_history_change.html.erb, app/views/histories/_history_change.html.erb, app/views/histories/_photo_history_change.html.erb, app/views/histories/show.html.erb, app/views/users/_edittable_user.html.erb, app/views/users/_mobile_login_history.html.erb, app/views/users/edit.html.erb, app/views/users/index.html.erb, app/views/users/new.html.erb]","[cookies, save!, be_disabled, click_button, click_link, click_link_within, fill_in, check, uncheck, response, contain, assert_contain, to_i, rand, url_for, response_body, have_selector, inner_html, each, hashes, gsub, reverse_merge!, to_i, be_nil, fields, length, to_i]","","[]","","0","0.760 seconds","false","7","0","[app/controllers/admin_controller.rb, app/controllers/child_media_controller.rb, app/controllers/children_controller.rb, app/controllers/form_section_controller.rb, app/controllers/histories_controller.rb, app/controllers/sessions_controller.rb, app/controllers/users_controller.rb]","[]","0","[]","0"
"1197","[18-12-2010, 20-12-2010, 21-12-2010]","1","5","[d999f432670eb56fd48684d57f0bf95739e38677, 425434485b8c50ed9ec8ee5987a40845c4499729, e55c5f9d097b8ac70b56d42ee6b5dce147f40a52, ef04cf9b004baf70c8752830e52f56b6de143768, 733873a77019faee1dfa225bacc5175c3c088a43]","3","2","0","2","[]","[app/controllers/child_media_controller.rb, app/controllers/contact_information_controller.rb]","0.0","0.0","2.3.5","2","[]","0","0","[]","[hashes, inject, uploadable_audio, create!, contain, matches?, failure_message, within, hashes, response_body, class, each, request, url, have_selector]","","[]","","0","0.097 seconds","false","0","2","[]","[app/controllers/child_media_controller.rb, app/controllers/contact_information_controller.rb]","0","[]","0"
"1205","[11-12-2010, 12-12-2010]","1","12","[5f4eb62cef003c1d077a6d3583279bbf8655f7e6, 0c5df79a0c44d86054a72b842d062408d6cb32b0, 0a0d9b8820608e749d3f969412819c8fc139e052, b4d758d8bd9e959ea033a6841b94db170bf804d8, 2498319bf180a38a2f69e0190cd9a9b560b73316, c61363d58aa65d2f73b5e373c3fafae98c1761a8, a38f9f52fa49385ae26c8ad5934269bb3dfb77d7, 18bd5372f3655666c7407b888d335540d0ceef15, c183c5e809f5c6792c7ae6088e7566c939b484de, 5fa7af5a76feef3ef96ccf1c7a0fc5f7fff9a577, 2c0bfebd6e891a1ff058488675c19f13e698d827, 6cd1ad97efe66f9386d5ea7f0d3816457d0e6839]","3","1","9","1","[app/controllers/admin_controller.rb, app/controllers/child_ids_controller.rb, app/controllers/child_media_controller.rb, app/controllers/children_controller.rb, app/controllers/fields_controller.rb, app/controllers/form_section_controller.rb, app/controllers/histories_controller.rb, app/controllers/sessions_controller.rb, app/controllers/users_controller.rb]","[app/controllers/contact_information_controller.rb]","0.0","0.0","2.3.5","2","[]","0","46","[app/controllers/admin_controller.rb, app/controllers/child_ids_controller.rb, app/controllers/child_media_controller.rb, app/controllers/children_controller.rb, app/controllers/fields_controller.rb, app/controllers/form_section_controller.rb, app/controllers/histories_controller.rb, app/controllers/sessions_controller.rb, app/controllers/users_controller.rb, app/helpers/application_helper.rb, app/views/admin/index.html.erb, app/views/children/_form_section.html.erb, app/views/children/_search_results.html.erb, app/views/children/_summary_row.html.erb, app/views/children/_tabs.html.erb, app/views/children/edit.html.erb, app/views/children/edit_photo.html.erb, app/views/children/index.html.erb, app/views/children/new.html.erb, app/views/children/search.html.erb, app/views/children/show.html.erb, app/views/fields/_basic_new_field_form.html.erb, app/views/fields/_multiple_choice_form.html.erb, app/views/fields/_suggested_field.html.erb, app/views/fields/confirm_toggle.html.erb, app/views/fields/new.html.erb, app/views/fields/new_check_box.html.erb, app/views/fields/new_date_field.html.erb, app/views/fields/new_numeric_field.html.erb, app/views/fields/new_radio_button.html.erb, app/views/fields/new_select_box.html.erb, app/views/fields/new_text_field.html.erb, app/views/fields/new_textarea.html.erb, app/views/form_section/index.html.erb, app/views/form_section/new.html.erb, app/views/histories/_audio_history_change.html.erb, app/views/histories/_history_change.html.erb, app/views/histories/_photo_history_change.html.erb, app/views/histories/show.html.erb, app/views/sessions/new.html.erb, app/views/sessions/show.html.erb, app/views/users/_edittable_user.html.erb, app/views/users/_mobile_login_history.html.erb, app/views/users/edit.html.erb, app/views/users/index.html.erb, app/views/users/new.html.erb]","[hashes, inject, click_button, click_link, fill_in, response, contain, assert_contain, matches?, failure_message, within, field_labeled, assert_match, current_url, select, compact, assert_equal, reverse_merge!, new_create_custom_fields, raise, send, url_for, lambda, raise_error]","","[]","[feature, new_add_suggested_field_to_form_section, new_assign_unique_id_to_a_child, new_check_box_formsection_fields, new_create_custom_field, new_date_field_formsection_fields, new_numeric_field_formsection_fields, new_radio_button_formsection_fields, new_select_box_formsection_fields, new_text_field_formsection_fields, new_textarea_formsection_fields]","11","1.632 seconds","false","9","1","[app/controllers/admin_controller.rb, app/controllers/child_ids_controller.rb, app/controllers/child_media_controller.rb, app/controllers/children_controller.rb, app/controllers/fields_controller.rb, app/controllers/form_section_controller.rb, app/controllers/histories_controller.rb, app/controllers/sessions_controller.rb, app/controllers/users_controller.rb]","[app/controllers/contact_information_controller.rb]","0","[]","0"
"1153","[23-03-2011]","1","1","[8be3c2cf58e0e3a314fe3b4825a0dd3a895285d1]","2","4","1","2","[app/controllers/users_controller.rb]","[app/controllers/sessions_controller.rb, app/controllers/users_controller.rb]","1.0","0.5","2.3.5","1","[]","0","5","[app/controllers/users_controller.rb, app/views/users/_devices.html.erb, app/views/users/_edittable_user.html.erb, app/views/users/_mobile_login_history.html.erb, app/views/users/edit.html.erb]","[hashes, detect, devices, save!, each, post, response_body, click_button, check, response, contain, assert_contain, response, contain, assert_contain]","","[]","[sessions]","1","0.249 seconds","false","0","1","[]","[app/controllers/sessions_controller.rb]","1","[app/controllers/users_controller.rb]","0.5555555555555556"
"1176","[13-01-2011, 14-01-2011, 17-01-2011]","1","4","[2d6b132982e761152540adfcf52470d4a73ef413, 9578d7d45526555330eeeacb1c7f1a1d79585aa1, 69550d419923f65c12aa60e834dcb9abf1e536ff, 20431ec09b7a1b2d88b81ea95577e77fdef8c681]","2","2","4","1","[app/controllers/children_controller.rb, app/controllers/fields_controller.rb, app/controllers/sessions_controller.rb, app/controllers/users_controller.rb]","[app/controllers/fields_controller.rb]","0.25","1.0","2.3.5","2","[]","0","7","[app/controllers/fields_controller.rb, app/views/fields/_basic_form.html.erb, app/views/fields/_multiple_choice_form.html.erb, app/views/fields/_suggested_field.html.erb, app/views/fields/choose.html.erb, app/views/fields/edit.html.erb, app/views/fields/new.html.erb]","[each, hashes, gsub, reverse_merge!, to_i, response_body, have_selector]","","[app/views/fields/confirm_toggle.html.erb]","","0","0.661 seconds","false","3","0","[app/controllers/children_controller.rb, app/controllers/sessions_controller.rb, app/controllers/users_controller.rb]","[]","1","[app/controllers/fields_controller.rb]","0.625"
"1177","[13-01-2011, 14-01-2011, 15-01-2011]","2","7","[38eac5d48a300ccdcd9d2a0ee2257720a0982dff, 436d7d43b8d81e3f4220118c860390dc5adb2370, 5aa4257cb15f05284142708bbdbc8cb2ebb0eb2c, ed39cb5a1b07063ad8ccbd8d7bbde6feb08f9191, 80b46fbefaaceae6cfc1a9c99919fec67d1b1ee9, f4c17fc124ee4f4e0702b0c6f788e698145ebf8e, b1826b34f64af956cdf438b70574eda3e04ecb19]","2","0","5","2","[app/controllers/child_media_controller.rb, app/controllers/children_controller.rb, app/controllers/form_section_controller.rb, app/controllers/histories_controller.rb, app/controllers/home_controller.rb]","[app/controllers/children_controller.rb, app/controllers/publish_form_section_controller.rb]","0.2","0.5","2.3.5","1","[]","0","32","[app/controllers/child_media_controller.rb, app/controllers/children_controller.rb, app/controllers/histories_controller.rb, app/controllers/home_controller.rb, app/views/children/_audio_upload_box.html.erb, app/views/children/_check_box.html.erb, app/views/children/_date_field.html.erb, app/views/children/_form_section.html.erb, app/views/children/_numeric_field.html.erb, app/views/children/_photo_upload_box.html.erb, app/views/children/_picture.html.erb, app/views/children/_radio_button.html.erb, app/views/children/_repeatable_text_field.html.erb, app/views/children/_search_results.html.erb, app/views/children/_search_sidebar.html.erb, app/views/children/_select_box.html.erb, app/views/children/_summary_row.html.erb, app/views/children/_tabs.html.erb, app/views/children/_text_field.html.erb, app/views/children/_textarea.html.erb, app/views/children/advanced_search.html.erb, app/views/children/edit.html.erb, app/views/children/edit_photo.html.erb, app/views/children/index.html.erb, app/views/children/new.html.erb, app/views/children/search.html.erb, app/views/children/show.html.erb, app/views/histories/_audio_history_change.html.erb, app/views/histories/_history_change.html.erb, app/views/histories/_photo_history_change.html.erb, app/views/histories/show.html.erb, app/views/home/index.html.erb]","[click_link, response, contain, assert_contain]","","[]","","0","0.365 seconds","false","4","1","[app/controllers/child_media_controller.rb, app/controllers/form_section_controller.rb, app/controllers/histories_controller.rb, app/controllers/home_controller.rb]","[app/controllers/publish_form_section_controller.rb]","1","[app/controllers/children_controller.rb]","0.38461538461538464"
"1180","[08-01-2011, 09-01-2011]","2","4","[1ce868e55e8b3f6887bbe5ff11d51ecace51f680, fa0010fd3ce24aa8e27f29dc7997c474e4053e18, 6678dc33b9ef198a1bccfb330534f43a39289788, bc3f2952174aab26aaeb8b31b4c7baf723eda627]","2","1","0","1","[]","[app/controllers/children_controller.rb]","0.0","0.0","2.3.5","1","[]","0","0","[]","[click_link, response_body, write, close, path, to_i, have, pages, strings, include, hashes, reverse_merge!, delete, uploadable_photo, create!, each]","","[]","","0","0.230 seconds","false","0","1","[]","[app/controllers/children_controller.rb]","0","[]","0"
"1181","[08-01-2011]","1","3","[cbc55f08f0964f37fc7455a8f0cb6b10e235ce67, 663b1993d6ee61ef6da8d6b23ede13908276595b, 28c945cdd9225cef222ba96980904fb15f3fa5e9]","2","0","6","1","[app/controllers/admin_controller.rb, app/controllers/child_media_controller.rb, app/controllers/children_controller.rb, app/controllers/form_section_controller.rb, app/controllers/histories_controller.rb, app/controllers/users_controller.rb]","[app/controllers/form_section_controller.rb]","0.1666666667","1.0","2.3.5","1","[]","0","24","[app/controllers/admin_controller.rb, app/controllers/child_media_controller.rb, app/controllers/children_controller.rb, app/controllers/form_section_controller.rb, app/controllers/histories_controller.rb, app/controllers/users_controller.rb, app/views/admin/index.html.erb, app/views/children/_form_section.html.erb, app/views/children/_tabs.html.erb, app/views/children/edit.html.erb, app/views/children/edit_photo.html.erb, app/views/children/index.html.erb, app/views/children/new.html.erb, app/views/children/show.html.erb, app/views/form_section/index.html.erb, app/views/histories/_audio_history_change.html.erb, app/views/histories/_history_change.html.erb, app/views/histories/_photo_history_change.html.erb, app/views/histories/show.html.erb, app/views/users/_edittable_user.html.erb, app/views/users/_mobile_login_history.html.erb, app/views/users/edit.html.erb, app/views/users/index.html.erb, app/views/users/new.html.erb]","[hashes, reverse_merge!, delete, uploadable_photo, create!, each, to_i, response, body, Hpricot, checkboxes, nil?, raise, check, click_button, click_link, fill_in, choose, response, contain, assert_contain, url_for, to_i, content_type, response_body, chomp, length, body, hashes, find, be_nil, each_key, each]","","[]","","0","1.810 seconds","false","5","0","[app/controllers/admin_controller.rb, app/controllers/child_media_controller.rb, app/controllers/children_controller.rb, app/controllers/histories_controller.rb, app/controllers/users_controller.rb]","[]","1","[app/controllers/form_section_controller.rb]","0.50000000006"
"1192","[26-12-2010]","1","1","[5846bbc1716f655a62d6bde876027ece935a0691]","2","0","7","0","[app/controllers/admin_controller.rb, app/controllers/child_media_controller.rb, app/controllers/children_controller.rb, app/controllers/form_section_controller.rb, app/controllers/histories_controller.rb, app/controllers/home_controller.rb, app/controllers/users_controller.rb]","[]","0.0","0.0","2.3.5","2","[]","0","26","[app/controllers/admin_controller.rb, app/controllers/child_media_controller.rb, app/controllers/children_controller.rb, app/controllers/form_section_controller.rb, app/controllers/histories_controller.rb, app/controllers/home_controller.rb, app/controllers/users_controller.rb, app/views/admin/index.html.erb, app/views/children/_form_section.html.erb, app/views/children/_tabs.html.erb, app/views/children/edit.html.erb, app/views/children/edit_photo.html.erb, app/views/children/index.html.erb, app/views/children/new.html.erb, app/views/children/show.html.erb, app/views/form_section/index.html.erb, app/views/histories/_audio_history_change.html.erb, app/views/histories/_history_change.html.erb, app/views/histories/_photo_history_change.html.erb, app/views/histories/show.html.erb, app/views/home/index.html.erb, app/views/users/_edittable_user.html.erb, app/views/users/_mobile_login_history.html.erb, app/views/users/edit.html.erb, app/views/users/index.html.erb, app/views/users/new.html.erb]","[click_link, url_for]","","[]","","0","2.714 seconds","false","7","0","[app/controllers/admin_controller.rb, app/controllers/child_media_controller.rb, app/controllers/children_controller.rb, app/controllers/form_section_controller.rb, app/controllers/histories_controller.rb, app/controllers/home_controller.rb, app/controllers/users_controller.rb]","[]","0","[]","0"
"1199","[13-12-2010, 15-12-2010]","1","6","[871cd88c8e0a5460e7c3fa53c47d0a23863ba685, 2976343f46aa2f84723a42ac6bc7bfff9c9759c1, 797c93b676a1ab608f5bbd6005de2cc53d61c366, 3b6de2a857a049fd46c14e106e48443ef4604550, 163d136dbef65e8e0f8b231da8e561d8d863727c, a72a9b27fd42a996e93f5e205b56ebd3fe7dd620]","2","2","0","0","[]","[]","0.0","0.0","2.3.5","2","[]","0","0","[]","[uploadable_audio, create!, response_body, request, url, have_selector]","","[]","","0","0.114 seconds","false","0","0","[]","[]","0","[]","0"
"1204","[11-12-2010, 13-12-2010]","2","3","[3e85f35134bcfdd3d4c13d85a4d6f122a0d83c68, c18d4cfa61907cdb57704052c0f9afde737d35ba, 45523610e52e405232b339d569c82dd7ea96d140]","2","1","1","0","[app/controllers/users_controller.rb]","[]","0.0","0.0","2.3.5","3","[]","0","4","[app/controllers/users_controller.rb, app/views/users/_edittable_user.html.erb, app/views/users/_mobile_login_history.html.erb, app/views/users/edit.html.erb]","[cookies, save!, be_disabled, click_button, fill_in, check, uncheck, response_body, have_selector, inner_html]","","[]","","0","0.262 seconds","false","1","0","[app/controllers/users_controller.rb]","[]","0","[]","0"
"1206","[05-12-2010]","1","1","[7c1b414a2afd03a5dea0ae902ee6af90a8478559]","2","3","2","1","[app/controllers/children_controller.rb, app/controllers/fields_controller.rb]","[app/controllers/fields_controller.rb]","0.5","1.0","2.3.5","3","[]","0","15","[app/controllers/children_controller.rb, app/controllers/fields_controller.rb, app/views/children/_form_section.html.erb, app/views/children/_tabs.html.erb, app/views/children/new.html.erb, app/views/fields/_basic_new_field_form.html.erb, app/views/fields/_suggested_field.html.erb, app/views/fields/confirm_toggle.html.erb, app/views/fields/new.html.erb, app/views/fields/new_check_box.html.erb, app/views/fields/new_date_field.html.erb, app/views/fields/new_numeric_field.html.erb, app/views/fields/new_select_drop_down.html.erb, app/views/fields/new_text_field.html.erb, app/views/fields/new_textarea.html.erb]","[fill_in, attach_file, response, body, css, include, click_button, click_link, fill_in, contain, assert_contain, click_link, field_labeled, options, element, hashes, text, each]","","[]","[new_check_box_formsection_fields, new_date_field_formsection_fields, new_numeric_field_formsection_fields, new_select_drop_down_formsection_fields, new_text_field_formsection_fields, new_textarea_formsection_fields]","6","0.202 seconds","false","1","0","[app/controllers/children_controller.rb]","[]","1","[app/controllers/fields_controller.rb]","0.8333333333333333"
"1149","[20-03-2011]","1","3","[e5d4e1c58b4ba42820040830e78dc79618f62bf7, cadde35e0cf3e6825e04ce78761d21fad0324101, 8613a5e9ebad2880a43c5edb1d3fcf52e5935d4a]","1","0","4","0","[app/controllers/child_media_controller.rb, app/controllers/children_controller.rb, app/controllers/form_section_controller.rb, app/controllers/histories_controller.rb]","[]","0.0","0.0","2.3.5","1","[]","0","31","[app/controllers/child_media_controller.rb, app/controllers/children_controller.rb, app/controllers/histories_controller.rb, app/views/children/_audio_player.html.erb, app/views/children/_audio_upload_box.html.erb, app/views/children/_check_box.html.erb, app/views/children/_date_field.html.erb, app/views/children/_form_section.html.erb, app/views/children/_numeric_field.html.erb, app/views/children/_photo_upload_box.html.erb, app/views/children/_picture.html.erb, app/views/children/_radio_button.html.erb, app/views/children/_repeatable_text_field.html.erb, app/views/children/_search_results.html.erb, app/views/children/_search_sidebar.html.erb, app/views/children/_select_box.html.erb, app/views/children/_show_child_toolbar.erb, app/views/children/_summary_row.html.erb, app/views/children/_tabs.html.erb, app/views/children/_text_field.html.erb, app/views/children/_textarea.html.erb, app/views/children/edit.html.erb, app/views/children/edit_photo.html.erb, app/views/children/index.html.erb, app/views/children/new.html.erb, app/views/children/search.html.erb, app/views/children/show.html.erb, app/views/histories/_audio_history_change.html.erb, app/views/histories/_history_change.html.erb, app/views/histories/_photo_history_change.html.erb, app/views/histories/show.html.erb]","[length, to_i, click_button, click_link, response, contain, assert_contain]","","[]","","0","0.585 seconds","false","4","0","[app/controllers/child_media_controller.rb, app/controllers/children_controller.rb, app/controllers/form_section_controller.rb, app/controllers/histories_controller.rb]","[]","0","[]","0"
"1154","[18-03-2011]","1","3","[c3994882ec48863b4ad97c425cf9d831095d628c, c3e71006e6ef61d3be33b1552bf72f05568147bb, 55dade9338d867a1d0308148bc5a458b1f3224e4]","1","0","0","1","[]","[app/controllers/children_controller.rb]","0.0","0.0","2.3.5","1","[]","0","0","[]","[click_button, fill_in, to_i, response, body, Hpricot, checkboxes, nil?, raise, check, response_body, write, close, path, to_i, have, pages, strings, include, hashes, reverse_merge!, delete, uploadable_photo, create!, each]","","[]","","0","0.131 seconds","false","0","1","[]","[app/controllers/children_controller.rb]","0","[]","0"
"1157","[09-03-2011]","2","2","[ca5d5f8821d8cae9b56116f25a03fc06c5cdfea0, d2c2e53b5c8ca5a0f5b7a87eecf485c148acfae9]","1","0","1","0","[app/controllers/users_controller.rb]","[]","0.0","0.0","2.3.5","1","[]","0","3","[app/controllers/users_controller.rb, app/views/users/_edittable_user.html.erb, app/views/users/new.html.erb]","[click_button, response, contain, assert_contain]","","[]","","0","0.115 seconds","false","1","0","[app/controllers/users_controller.rb]","[]","0","[]","0"
"1160","[07-03-2011]","2","2","[3711271d03b00bf6e87410ba892bdd8407ab718b, 7d966711318af70af94f5fa35aae6007741f2da8]","1","0","1","0","[app/controllers/users_controller.rb]","[]","0.0","0.0","2.3.5","1","[]","0","3","[app/controllers/users_controller.rb, app/views/users/_edittable_user.html.erb, app/views/users/new.html.erb]","[click_button, fill_in, response, contain, assert_contain]","","[]","","0","0.159 seconds","false","1","0","[app/controllers/users_controller.rb]","[]","0","[]","0"
"1161","[02-03-2011]","1","1","[cec6d0a45d932e87513506b90796f046277c8e4b]","1","0","1","2","[app/controllers/child_media_controller.rb]","[app/controllers/advanced_search_controller.rb, app/controllers/children_controller.rb]","0.0","0.0","2.3.5","1","[]","0","1","[app/controllers/child_media_controller.rb]","[hashes, reverse_merge!, delete, uploadable_photo, create!, each, click_button, fill_in, response, find_child_by_name, body, have_selector]","","[app/models/advanced_search.rb, app/views/children/advanced_search.html.erb]","","0","0.093 seconds","false","1","2","[app/controllers/child_media_controller.rb]","[app/controllers/advanced_search_controller.rb, app/controllers/children_controller.rb]","0","[]","0"
"1168","[05-02-2011, 07-02-2011]","2","2","[9128cf4e5cce94a362d2c60a4cd325402dd63397, 1153981d18f400f5f15859b7cc2f9b7818793ce5]","1","0","9","0","[app/controllers/admin_controller.rb, app/controllers/child_ids_controller.rb, app/controllers/child_media_controller.rb, app/controllers/children_controller.rb, app/controllers/fields_controller.rb, app/controllers/form_section_controller.rb, app/controllers/histories_controller.rb, app/controllers/sessions_controller.rb, app/controllers/users_controller.rb]","[]","0.0","0.0","2.3.5","2","[]","0","53","[app/controllers/admin_controller.rb, app/controllers/child_ids_controller.rb, app/controllers/child_media_controller.rb, app/controllers/children_controller.rb, app/controllers/fields_controller.rb, app/controllers/form_section_controller.rb, app/controllers/histories_controller.rb, app/controllers/sessions_controller.rb, app/controllers/users_controller.rb, app/views/admin/index.html.erb, app/views/children/_audio_player.html.erb, app/views/children/_audio_upload_box.html.erb, app/views/children/_check_box.html.erb, app/views/children/_date_field.html.erb, app/views/children/_form_section.html.erb, app/views/children/_numeric_field.html.erb, app/views/children/_photo_upload_box.html.erb, app/views/children/_picture.html.erb, app/views/children/_radio_button.html.erb, app/views/children/_repeatable_text_field.html.erb, app/views/children/_search_results.html.erb, app/views/children/_search_sidebar.html.erb, app/views/children/_select_box.html.erb, app/views/children/_summary_row.html.erb, app/views/children/_tabs.html.erb, app/views/children/_text_field.html.erb, app/views/children/_textarea.html.erb, app/views/children/advanced_search.html.erb, app/views/children/edit.html.erb, app/views/children/edit_photo.html.erb, app/views/children/index.html.erb, app/views/children/new.html.erb, app/views/children/search.html.erb, app/views/children/show.html.erb, app/views/fields/_basic_form.html.erb, app/views/fields/_multiple_choice_form.html.erb, app/views/fields/_suggested_field.html.erb, app/views/fields/choose.html.erb, app/views/fields/edit.html.erb, app/views/fields/new.html.erb, app/views/form_section/index.html.erb, app/views/form_section/new.html.erb, app/views/histories/_audio_history_change.html.erb, app/views/histories/_history_change.html.erb, app/views/histories/_photo_history_change.html.erb, app/views/histories/show.html.erb, app/views/sessions/new.html.erb, app/views/sessions/show.html.erb, app/views/users/_edittable_user.html.erb, app/views/users/_mobile_login_history.html.erb, app/views/users/edit.html.erb, app/views/users/index.html.erb, app/views/users/new.html.erb]","[each, hashes, gsub, reverse_merge!, to_i, click_button, click_link, fill_in, response, contain, assert_contain, field_labeled, be_checked, checked?, rows_hash, assert_have_xpath, each, raw, reverse_merge!, new_create_custom_fields, raise, url_for]","","[]","[feature, new_add_suggested_field_to_form_section, new_assign_unique_id_to_a_child, new_create_custom_field]","4","3.105 seconds","false","9","0","[app/controllers/admin_controller.rb, app/controllers/child_ids_controller.rb, app/controllers/child_media_controller.rb, app/controllers/children_controller.rb, app/controllers/fields_controller.rb, app/controllers/form_section_controller.rb, app/controllers/histories_controller.rb, app/controllers/sessions_controller.rb, app/controllers/users_controller.rb]","[]","0","[]","0"
"1169","[31-01-2011, 06-02-2011, 07-02-2011]","1","6","[8114360e42bac31f168e1ca7d139e7ad9f7c26c1, a4a5998267b637b80a204bef4ec50cd98bf103cc, a61392137219da468d1a80944930ca26d1c525ae, ff2a9b3c09f421fec1f7b1d77b3e413824b727d7, 450c5aaffcbd9a99855eb536dff85e50847992ef, fdc6f2314b23199cf0cd8cd8f993ccda70993c32]","1","0","3","1","[app/controllers/children_controller.rb, app/controllers/sessions_controller.rb, app/controllers/users_controller.rb]","[app/controllers/fields_controller.rb]","0.0","0.0","2.3.5","2","[]","0","0","[]","[each, hashes, gsub, reverse_merge!, to_i, be_nil, fields, save!, click_button, select, response, contain, assert_not_contain, raw, assert_contain, each]","","[]","","0","0.102 seconds","false","3","1","[app/controllers/children_controller.rb, app/controllers/sessions_controller.rb, app/controllers/users_controller.rb]","[app/controllers/fields_controller.rb]","0","[]","0"
"1178","[14-01-2011]","1","1","[a7ade5366c055b6624929f822c2e71061f41b044]","1","0","8","0","[app/controllers/admin_controller.rb, app/controllers/child_media_controller.rb, app/controllers/children_controller.rb, app/controllers/fields_controller.rb, app/controllers/form_section_controller.rb, app/controllers/histories_controller.rb, app/controllers/sessions_controller.rb, app/controllers/users_controller.rb]","[]","0.0","0.0","2.3.5","2","[]","0","48","[app/controllers/admin_controller.rb, app/controllers/child_media_controller.rb, app/controllers/children_controller.rb, app/controllers/fields_controller.rb, app/controllers/form_section_controller.rb, app/controllers/histories_controller.rb, app/controllers/users_controller.rb, app/views/admin/index.html.erb, app/views/children/_audio_upload_box.html.erb, app/views/children/_check_box.html.erb, app/views/children/_date_field.html.erb, app/views/children/_form_section.html.erb, app/views/children/_numeric_field.html.erb, app/views/children/_photo_upload_box.html.erb, app/views/children/_picture.html.erb, app/views/children/_radio_button.html.erb, app/views/children/_repeatable_text_field.html.erb, app/views/children/_search_results.html.erb, app/views/children/_search_sidebar.html.erb, app/views/children/_select_box.html.erb, app/views/children/_summary_row.html.erb, app/views/children/_tabs.html.erb, app/views/children/_text_field.html.erb, app/views/children/_textarea.html.erb, app/views/children/advanced_search.html.erb, app/views/children/edit.html.erb, app/views/children/edit_photo.html.erb, app/views/children/index.html.erb, app/views/children/new.html.erb, app/views/children/search.html.erb, app/views/children/show.html.erb, app/views/fields/_basic_form.html.erb, app/views/fields/_multiple_choice_form.html.erb, app/views/fields/_suggested_field.html.erb, app/views/fields/choose.html.erb, app/views/fields/confirm_toggle.html.erb, app/views/fields/edit.html.erb, app/views/fields/new.html.erb, app/views/form_section/index.html.erb, app/views/histories/_audio_history_change.html.erb, app/views/histories/_history_change.html.erb, app/views/histories/_photo_history_change.html.erb, app/views/histories/show.html.erb, app/views/users/_edittable_user.html.erb, app/views/users/_mobile_login_history.html.erb, app/views/users/edit.html.erb, app/views/users/index.html.erb, app/views/users/new.html.erb]","[each, hashes, gsub, reverse_merge!, to_i, response, body, Hpricot, to_html, click_link, url_for]","","[]","","0","2.741 seconds","false","8","0","[app/controllers/admin_controller.rb, app/controllers/child_media_controller.rb, app/controllers/children_controller.rb, app/controllers/fields_controller.rb, app/controllers/form_section_controller.rb, app/controllers/histories_controller.rb, app/controllers/sessions_controller.rb, app/controllers/users_controller.rb]","[]","0","[]","0"
"1190","[26-12-2010]","1","1","[f2f9fbd7dd41ec1369aec26148290b7e4e0885a6]","1","0","9","0","[app/controllers/admin_controller.rb, app/controllers/child_ids_controller.rb, app/controllers/child_media_controller.rb, app/controllers/children_controller.rb, app/controllers/fields_controller.rb, app/controllers/form_section_controller.rb, app/controllers/histories_controller.rb, app/controllers/sessions_controller.rb, app/controllers/users_controller.rb]","[]","0.0","0.0","2.3.5","1","[]","0","46","[app/controllers/admin_controller.rb, app/controllers/child_ids_controller.rb, app/controllers/child_media_controller.rb, app/controllers/children_controller.rb, app/controllers/fields_controller.rb, app/controllers/form_section_controller.rb, app/controllers/histories_controller.rb, app/controllers/sessions_controller.rb, app/controllers/users_controller.rb, app/helpers/application_helper.rb, app/views/admin/index.html.erb, app/views/children/_form_section.html.erb, app/views/children/_search_results.html.erb, app/views/children/_summary_row.html.erb, app/views/children/_tabs.html.erb, app/views/children/edit.html.erb, app/views/children/edit_photo.html.erb, app/views/children/index.html.erb, app/views/children/new.html.erb, app/views/children/search.html.erb, app/views/children/show.html.erb, app/views/fields/_basic_new_field_form.html.erb, app/views/fields/_multiple_choice_form.html.erb, app/views/fields/_suggested_field.html.erb, app/views/fields/confirm_toggle.html.erb, app/views/fields/new.html.erb, app/views/fields/new_check_box.html.erb, app/views/fields/new_date_field.html.erb, app/views/fields/new_numeric_field.html.erb, app/views/fields/new_radio_button.html.erb, app/views/fields/new_select_box.html.erb, app/views/fields/new_text_field.html.erb, app/views/fields/new_textarea.html.erb, app/views/form_section/index.html.erb, app/views/form_section/new.html.erb, app/views/histories/_audio_history_change.html.erb, app/views/histories/_history_change.html.erb, app/views/histories/_photo_history_change.html.erb, app/views/histories/show.html.erb, app/views/sessions/new.html.erb, app/views/sessions/show.html.erb, app/views/users/_edittable_user.html.erb, app/views/users/_mobile_login_history.html.erb, app/views/users/edit.html.erb, app/views/users/index.html.erb, app/views/users/new.html.erb]","[click_button, fill_in, current_url, select, compact, assert_equal, reverse_merge!, new_create_custom_fields, raise, send, url_for, response, body, Hpricot]","","[]","[feature, new_add_suggested_field_to_form_section, new_assign_unique_id_to_a_child, new_check_box_formsection_fields, new_create_custom_field, new_date_field_formsection_fields, new_numeric_field_formsection_fields, new_radio_button_formsection_fields, new_select_box_formsection_fields, new_text_field_formsection_fields, new_textarea_formsection_fields]","11","9.887 seconds","false","9","0","[app/controllers/admin_controller.rb, app/controllers/child_ids_controller.rb, app/controllers/child_media_controller.rb, app/controllers/children_controller.rb, app/controllers/fields_controller.rb, app/controllers/form_section_controller.rb, app/controllers/histories_controller.rb, app/controllers/sessions_controller.rb, app/controllers/users_controller.rb]","[]","0","[]","0"
"1191","[27-12-2010]","1","1","[2549fc51ac8c139073cb112e93add4b0bcd740de]","1","1","3","1","[app/controllers/children_controller.rb, app/controllers/sessions_controller.rb, app/controllers/users_controller.rb]","[app/controllers/fields_controller.rb]","0.0","0.0","2.3.5","1","[]","0","0","[]","[each, hashes, gsub, reverse_merge!, to_i, be_nil, fields, save!, response, body, css, include, click_button, fill_in, contain, assert_contain, raw, each]","","[]","","0","0.117 seconds","false","3","1","[app/controllers/children_controller.rb, app/controllers/sessions_controller.rb, app/controllers/users_controller.rb]","[app/controllers/fields_controller.rb]","0","[]","0"
"1210","[06-12-2010]","1","1","[a169dfce8aff3c60d9de0633a1265488dff2bb5b]","1","0","5","0","[app/controllers/admin_controller.rb, app/controllers/children_controller.rb, app/controllers/form_section_controller.rb, app/controllers/histories_controller.rb, app/controllers/users_controller.rb]","[]","0.0","0.0","2.3.5","1","[]","0","22","[app/controllers/admin_controller.rb, app/controllers/children_controller.rb, app/controllers/form_section_controller.rb, app/controllers/histories_controller.rb, app/controllers/users_controller.rb, app/views/admin/index.html.erb, app/views/children/_form_section.html.erb, app/views/children/_tabs.html.erb, app/views/children/edit.html.erb, app/views/children/edit_photo.html.erb, app/views/children/index.html.erb, app/views/children/new.html.erb, app/views/children/show.html.erb, app/views/form_section/index.html.erb, app/views/histories/_audio_history_change.html.erb, app/views/histories/_history_change.html.erb, app/views/histories/_photo_history_change.html.erb, app/views/histories/show.html.erb, app/views/users/_edittable_user.html.erb, app/views/users/edit.html.erb, app/views/users/index.html.erb, app/views/users/new.html.erb]","[click_button, click_link, click_link, fill_in, select, choose, attach_file, response, contain, assert_contain, url_for]","","[]","","0","1.410 seconds","false","5","0","[app/controllers/admin_controller.rb, app/controllers/children_controller.rb, app/controllers/form_section_controller.rb, app/controllers/histories_controller.rb, app/controllers/users_controller.rb]","[]","0","[]","0"
