"Repository","https://github.com/TracksApp/tracks.git"
"Precision mean (RT)","0.20059523809285712"
"Precision median (RT)","0.0"
"Precision standard deviation (RT)","0.35473693584135413"
"Recall mean (RT)","0.27380952380714285"
"Recall median (RT)","0.0"
"Recall standard deviation (RT)","0.37329179517698896"
"F2 mean (RT)","0.2266156462546427"
"F2 median (RT)","0.0"
"F2 standard deviation (RT)","0.32490873688164573"
"Correlation #Test-Precision","0.2"
"Correlation #Test-Recall","0.3"
"Task","Dates","#Devs","#Commits","Hashes","#Gherkin_Tests","#Sted_defs","#TestI","#TaskI","TestI","TaskI","Precision","Recall","Rails","#visit_call","Lost_visit_call","#Views_TestI","#Code_View_Analysis","Code_View_Analysis","Methods_Unknown_Type","Renamed_Files","Deleted_Files","NotFound_Views","#NotFound_Views","Timestamp","Has_Merge","#FP","#FN","FP","FN","#Hits","Hits","f2"
"336","[11-03-2011, 26-03-2011, 28-03-2011, 01-04-2011, 09-04-2011]","1","12","[19f9cacd37309e45cd9f2bbf3d4e1cc87d7a115e, d16fd9d3049f4dcf7b85436d51c6f67fd81626de, 7533ce6ab191d5999003bb2edd58916e27532753, 74a2b2a49fdd27e78e7748a887a4c139d0fcef28, 3116d46820208b97a8e2ce6b9d24e0e70e28318c, 6816ad7b05adbd3eee139d2b2379738c5405dae3, 2d53f0dec2bf0d33e4971444850b7fd3cd4bc218, 898dbe01c60be61da9ecb6d0528e00bcd43276ca, fed7483063c7d9534b7ba6929f4074d37593d39b, 00f3a258071f937d2294cb4c8ba8df1cf1ca6612, e0ca60f73f1725787761397ed61e973894c40833, 5535a5c9f0cdedadad0b0adaa739306536c57e73]","6","11","10","2","[app/controllers/contexts_controller.rb, app/controllers/data_controller.rb, app/controllers/notes_controller.rb, app/controllers/preferences_controller.rb, app/controllers/projects_controller.rb, app/controllers/recurring_todos_controller.rb, app/controllers/search_controller.rb, app/controllers/stats_controller.rb, app/controllers/todos_controller.rb, app/controllers/users_controller.rb]","[app/controllers/application_controller.rb, app/controllers/todos_controller.rb]","0.1","0.5","","3","[]","0","26","[app/controllers/contexts_controller.rb, app/controllers/data_controller.rb, app/controllers/notes_controller.rb, app/controllers/preferences_controller.rb, app/controllers/projects_controller.rb, app/controllers/recurring_todos_controller.rb, app/controllers/search_controller.rb, app/controllers/stats_controller.rb, app/controllers/todos_controller.rb, app/controllers/users_controller.rb, app/views/contexts/index.html.erb, app/views/contexts/show.html.erb, app/views/data/index.de.html.erb, app/views/data/index.en.html.erb, app/views/notes/index.html.erb, app/views/preferences/index.html.erb, app/views/projects/index.html.erb, app/views/projects/show.html.erb, app/views/recurring_todos/_recurring_todo.html.erb, app/views/recurring_todos/_recurring_todo_form.erb, app/views/recurring_todos/index.html.erb, app/views/stats/index.html.erb, app/views/todos/index.html.erb, app/views/users/change_auth_type.html.erb, app/views/users/change_password.html.erb, app/views/users/index.html.erb]","[login, hashes, contexts, create!, blank?, save!, each, click_link, response, contain, assert_contain, current_url, path, assert_equal, contexts, find_by_name, projects, send, raise, have_xpath, selenium, get_text, to_i, content, be_nil, todos, find_by_description, wait_for_element, is_visible, be_true, Factory, create_preference, fill_in, uncheck, click_button, response, selenium, wait_for_page_to_load, contain, get_element_position_top, contexts, find_by_name, selenium, get_element_height, to_i, mouse_down_at, mouse_move_at, mouse_up_at, be_false, be_nil, projects, be_nil, find_by_name, todos, complete!, is_element_present, wait_for, drag_and_drop_to_object, wait_for]","","[]","[app/views/contexts/_context.html.erb, app/views/contexts/_context_state_group.html.erb, app/views/contexts/_new_context_form.html.erb, app/views/notes/_all_note.html.erb, app/views/notes/_note_edit_form.html.erb, app/views/notes/_notes_summary.html.erb, app/views/projects/_new_project_form.html.erb, app/views/projects/_project.html.erb, app/views/projects/_project_state_group.html.erb, app/views/recurring_todos/_completed_recurring_todo.html.erb, app/views/shared/_add_new_item_form.html.erb, app/views/shared/_empty.html.erb, app/views/stats/_actions.html.erb, app/views/stats/_contexts.html.erb, app/views/stats/_projects.html.erb, app/views/stats/_tags.html.erb, app/views/stats/_totals.html.erb, app/views/todos/_completed.html.erb, app/views/todos/_deferred.html.erb, feeds, integrations, login, rest_api_docs, signup, tag, tickler]","26","15.469 seconds","false","9","1","[app/controllers/contexts_controller.rb, app/controllers/data_controller.rb, app/controllers/notes_controller.rb, app/controllers/preferences_controller.rb, app/controllers/projects_controller.rb, app/controllers/recurring_todos_controller.rb, app/controllers/search_controller.rb, app/controllers/stats_controller.rb, app/controllers/users_controller.rb]","[app/controllers/application_controller.rb]","1","[app/controllers/todos_controller.rb]","0.2777777777777778"
"301","[20-10-2011]","1","2","[b387b27f4a6f5009a2ad8c5d374261447686fc5a, 4d5a40c37677b3a2a06d7ed97caa6f6447bebef4]","4","5","1","1","[app/controllers/projects_controller.rb]","[app/controllers/application_controller.rb]","0.0","0.0","2.3.12","1","[]","0","2","[app/controllers/projects_controller.rb, app/views/projects/index.html.erb]","[contexts, find_or_create_by_name, projects, to_i, todos, create!, projects, find_by_name, be_nil, selenium, get_text, now, save!, hashes, Factory, create_preference, each, be_nil, fill_in, uncheck, click_button, response, selenium, wait_for_page_to_load, contain]","","[]","[app/views/projects/_new_project_form.html.erb, app/views/projects/_project_state_group.html.erb]","2","0.961 seconds","false","1","1","[app/controllers/projects_controller.rb]","[app/controllers/application_controller.rb]","0","[]","0"
"330","[17-08-2011, 18-08-2011]","1","4","[40a7cc2d3a5e8fdbec17d5fb29d68c39b5ead1ab, 555311b681f5b6184edb009ea650d44032fb5bb7, 89ec9898a36d3599eaf7b1732fc0819d82f5ea8b, 977b57dbb29a25f53f5cbf2623aec165fa8551b3]","4","6","0","1","[]","[app/controllers/preferences_controller.rb]","0.0","0.0","","2","[]","0","0","[]","[response, contain, assert_contain, fill_in, click_button, fill_in, uncheck, click_button, response, selenium, wait_for_page_to_load, contain, uncheck, selenium, wait_for_page_to_load, run_script, sleep, hashes, Factory, create_preference, each]","","[app/views/preferences/edit.html.erb, app/views/preferences/oldindex.html.erb]","[login]","1","0.737 seconds","false","0","1","[]","[app/controllers/preferences_controller.rb]","0","[]","0"
"288","[20-12-2011, 31-12-2011, 04-01-2012]","4","7","[f7faef3c91dc1e3e7eb08c6b1ace7e7d1dc3cb68, ff16cb30517393fe932963f2703ee409358692d6, e9277676b2a7627b1fa5ecb5710ffdd5700db1bf, c7cd46ee1d4dd9665f35fde48dedd3584775af2b, eaa4a46359fd5c889dddfc025afc036c478198df, 8ed13fc6c22b3955f1a4546697db863f9d4ef6e8, d0e72646610d589021959803529777684310b9d2]","3","0","3","1","[app/controllers/contexts_controller.rb, app/controllers/projects_controller.rb, app/controllers/todos_controller.rb]","[app/controllers/todos_controller.rb]","0.3333333333","1.0","2.3.12","5","[]","0","6","[app/controllers/contexts_controller.rb, app/controllers/projects_controller.rb, app/controllers/todos_controller.rb, app/views/contexts/show.html.erb, app/views/projects/show.html.erb, app/views/todos/index.html.erb]","[click_button, click_button, click_link, fill_in, fill_in, response, contain, assert_contain, assert_not_contain, field_labeled, element, search, inner_html, hashes, Factory, create_preference, each, have_xpath, selenium, get_text, to_i, content, fill_in, uncheck, click_button, response, selenium, wait_for_page_to_load, contain, login, contexts, create!, todos, find_by_description, be_nil, is_element_present, wait_for, be_nil, find_by_name, todos, complete!]","","[]","[app/views/contexts/_context.html.erb, app/views/notes/_note_edit_form.html.erb, app/views/notes/_notes_summary.html.erb, app/views/projects/_project.html.erb, app/views/shared/_add_new_item_form.html.erb, app/views/shared/_empty.html.erb, app/views/todos/_completed.html.erb, app/views/todos/_deferred.html.erb, tag, tickler]","10","1.082 seconds","true","2","0","[app/controllers/contexts_controller.rb, app/controllers/projects_controller.rb]","[]","1","[app/controllers/todos_controller.rb]","0.714285714255102"
"326","[07-09-2011]","1","13","[342b8ab4ef76606f7bb53d57a2378e6fe938583f, 97431324dba9bfdb41a6d982435f753fcb9d8465, db77225ff76e043d94b757bef3eeaa7f6ed605c6, ad1f3b58629610fb8d02b7ff70e9f42a3f976c34, 5d3829cfbfc0540b5713880adc640ec05d178a58, a11937788e355660af430d4d75db78a7905d1b8d, e221264e74ae2826f876ae08c0cf54ecde07f073, e5708f5ce75797465237face857aae1bbbe5d685, 8e23d1105400b67ee5f5c34fa7f5da13ae56daa2, 34e0573fc40a34e88b0ecbbf522f90b5f05b09d2, e7301608a64e7127aab92de013d8540f872ce195, 42437eadfa4b3efd253a859fb1fec94feccbe2ee, 95f0f7144140ab473cd1045276f97aa557caa82d]","3","1","8","2","[app/controllers/contexts_controller.rb, app/controllers/data_controller.rb, app/controllers/notes_controller.rb, app/controllers/projects_controller.rb, app/controllers/recurring_todos_controller.rb, app/controllers/search_controller.rb, app/controllers/todos_controller.rb, app/controllers/users_controller.rb]","[app/controllers/application_controller.rb, app/controllers/users_controller.rb]","0.125","0.5","2.3.12","6","[]","0","28","[app/controllers/contexts_controller.rb, app/controllers/data_controller.rb, app/controllers/notes_controller.rb, app/controllers/projects_controller.rb, app/controllers/recurring_todos_controller.rb, app/controllers/search_controller.rb, app/controllers/todos_controller.rb, app/controllers/users_controller.rb, app/helpers/application_helper.rb, app/views/contexts/index.html.erb, app/views/contexts/show.html.erb, app/views/data/index.de.html.erb, app/views/data/index.en.html.erb, app/views/notes/index.html.erb, app/views/projects/done.html.erb, app/views/projects/index.html.erb, app/views/projects/show.html.erb, app/views/recurring_todos/_recurring_todo.html.erb, app/views/recurring_todos/_recurring_todo_form.erb, app/views/recurring_todos/done.html.erb, app/views/recurring_todos/index.html.erb, app/views/todos/_todo.html.erb, app/views/todos/all_done.html.erb, app/views/todos/done.html.erb, app/views/todos/index.html.erb, app/views/users/_update_password.html.erb, app/views/users/change_password.html.erb, app/views/users/index.html.erb]","[fill_in, uncheck, click_button, response, selenium, wait_for_page_to_load, contain, response, contain, assert_contain, current_url, path, assert_equal, contexts, find_by_name, projects, send, raise, request, headers, be_nil, request_uri, hashes, Factory, create_preference, each, fill_in, click_button]","","[]","[all_done_tag, app/views/contexts/_context.html.erb, app/views/contexts/_context_state_group.html.erb, app/views/contexts/_new_context_form.html.erb, app/views/notes/_all_note.html.erb, app/views/notes/_note_edit_form.html.erb, app/views/notes/_notes_summary.html.erb, app/views/projects/_new_project_form.html.erb, app/views/projects/_project.html.erb, app/views/projects/_project_listing.html.erb, app/views/projects/_project_state_group.html.erb, app/views/recurring_todos/_completed_recurring_todo.html.erb, app/views/shared/_add_new_item_form.html.erb, app/views/shared/_empty.html.erb, app/views/todos/_completed.html.erb, app/views/todos/_deferred.html.erb, calendar, done_overview, done_tag, feeds, integrations, login, logout, preferences, rest_api_docs, signup, stats, tag, tickler]","29","7.764 seconds","false","7","1","[app/controllers/contexts_controller.rb, app/controllers/data_controller.rb, app/controllers/notes_controller.rb, app/controllers/projects_controller.rb, app/controllers/recurring_todos_controller.rb, app/controllers/search_controller.rb, app/controllers/todos_controller.rb]","[app/controllers/application_controller.rb]","1","[app/controllers/users_controller.rb]","0.3125"
"101","[11-10-2015, 12-10-2015, 03-11-2015, 18-11-2015, 27-11-2015, 01-12-2015, 02-12-2015]","3","10","[42961e97014f100b4c691ddb28dcc39649fd1e0f, 357c281b9da1ad9831e969c85fb797aa901c09ef, e60c25f8a26c9c4760004573b357663863278092, 20b040b8b7e009d9a6503eebd2a57c1917999984, 9389fbef9ad4f9cdc5cb980af01a55b41f5ea655, 6a7af342b6193212cc791b0df1605634b32330b3, da7a97b9b51885c1e7dc039ee161e2085b751397, d9b78c4e1fb1ffeeca4e6e074a21475c2d013b62, fbb62fd36ef6fa00680ff73e1ffd69d180f2bdf9, 0f168b430e52ac7e02a1d8b434e97ee3e513396c]","2","0","14","0","[app/controllers/calendar_controller.rb, app/controllers/contexts_controller.rb, app/controllers/data_controller.rb, app/controllers/feedlist_controller.rb, app/controllers/integrations_controller.rb, app/controllers/login_controller.rb, app/controllers/notes_controller.rb, app/controllers/preferences_controller.rb, app/controllers/projects_controller.rb, app/controllers/recurring_todos_controller.rb, app/controllers/search_controller.rb, app/controllers/stats_controller.rb, app/controllers/todos_controller.rb, app/controllers/users_controller.rb]","[]","0.0","0.0","4.1.11","4","[]","0","97","[app/controllers/calendar_controller.rb, app/controllers/contexts_controller.rb, app/controllers/data_controller.rb, app/controllers/feedlist_controller.rb, app/controllers/integrations_controller.rb, app/controllers/login_controller.rb, app/controllers/notes_controller.rb, app/controllers/preferences_controller.rb, app/controllers/projects_controller.rb, app/controllers/recurring_todos_controller.rb, app/controllers/search_controller.rb, app/controllers/stats_controller.rb, app/controllers/todos_controller.rb, app/controllers/users_controller.rb, app/helpers/application_helper.rb, app/views/calendar/show.html.erb, app/views/contexts/_context.html.erb, app/views/contexts/_context_form.html.erb, app/views/contexts/_context_listing.html.erb, app/views/contexts/_context_state_group.html.erb, app/views/contexts/_new_context_form.html.erb, app/views/contexts/index.html.erb, app/views/contexts/show.html.erb, app/views/data/csv_import.html.erb, app/views/data/csv_map.html.erb, app/views/data/import.html.erb, app/views/data/index.de.html.erb, app/views/data/index.en.html.erb, app/views/data/index.es.html.erb, app/views/data/yaml_export.html.erb, app/views/data/yaml_form.de.html.erb, app/views/data/yaml_form.en.html.erb, app/views/data/yaml_import.html.erb, app/views/feedlist/_feed_for_context.html.erb, app/views/feedlist/_feed_for_project.html.erb, app/views/feedlist/_legend.html.erb, app/views/feedlist/index.html.erb, app/views/integrations/index.de.html.erb, app/views/integrations/index.en.html.erb, app/views/integrations/index.nl.html.erb, app/views/integrations/rest_api.html.erb, app/views/login/login.html.erb, app/views/notes/_note_edit_form.html.erb, app/views/notes/_notes_summary.html.erb, app/views/notes/index.html.erb, app/views/preferences/_authentication.html.erb, app/views/preferences/_date_and_time.html.erb, app/views/preferences/_profile.html.erb, app/views/preferences/_tracks_behavior.html.erb, app/views/preferences/index.html.erb, app/views/projects/_new_project_form.html.erb, app/views/projects/_project.html.erb, app/views/projects/_project_form.html.erb, app/views/projects/_project_listing.html.erb, app/views/projects/_project_settings.html.erb, app/views/projects/_project_settings_container.html.erb, app/views/projects/_project_state_group.html.erb, app/views/projects/done.html.erb, app/views/projects/index.html.erb, app/views/projects/review.html.erb, app/views/projects/show.html.erb, app/views/recurring_todos/_recurring_todo.html.erb, app/views/recurring_todos/_recurring_todo_form.html.erb, app/views/recurring_todos/done.html.erb, app/views/recurring_todos/index.html.erb, app/views/search/index.html.erb, app/views/shared/_add_new_item_form.html.erb, app/views/stats/_actions.html.erb, app/views/stats/_chart.html.erb, app/views/stats/_contexts.html.erb, app/views/stats/_contexts_list.html.erb, app/views/stats/_null_list_item.html.erb, app/views/stats/_projects.html.erb, app/views/stats/_projects_list.html.erb, app/views/stats/_tags.html.erb, app/views/stats/_time_to_complete.html.erb, app/views/stats/_totals.html.erb, app/views/stats/done.html.erb, app/views/stats/index.html.erb, app/views/todos/_collection.html.erb, app/views/todos/_edit_form.html.erb, app/views/todos/_new_multi_todo_form.html.erb, app/views/todos/_new_todo_form.html.erb, app/views/todos/_successor.html.erb, app/views/todos/_todo.html.erb, app/views/todos/all_done.html.erb, app/views/todos/done.html.erb, app/views/todos/index.html.erb, app/views/todos/list_deferred.html.erb, app/views/todos/tag.html.erb, app/views/users/_update_password.html.erb, app/views/users/change_auth_type.html.erb, app/views/users/change_password.html.erb, app/views/users/index.html.erb, app/views/users/new.html.erb, app/views/users/nosignup.de.html.erb, app/views/users/nosignup.en.html.erb]","[page, have_content, have_no_content, current_url, path, eq, within, contexts, where, projects, send, raise, url_for, fill_in, within, all, click_button, page, execute_script, evaluate_script, zero?, todos, where, be_nil, to_not, click_link, have_no_css, have_css, hashes, create_preference, each, login, be_nil, to_not, where, first_or_create]","","[]","[/test_login_backdoor, actionize_projects, alphabetize_projects, app/views/notes/_all_note.html.erb, app/views/recurring_todos/_completed_recurring_todo.html.erb, app/views/sidebar/_sidebar.html.erb, app/views/stats/_last_completed_recurring_todo.html.erb]","7","15.492 seconds","true","14","0","[app/controllers/calendar_controller.rb, app/controllers/contexts_controller.rb, app/controllers/data_controller.rb, app/controllers/feedlist_controller.rb, app/controllers/integrations_controller.rb, app/controllers/login_controller.rb, app/controllers/notes_controller.rb, app/controllers/preferences_controller.rb, app/controllers/projects_controller.rb, app/controllers/recurring_todos_controller.rb, app/controllers/search_controller.rb, app/controllers/stats_controller.rb, app/controllers/todos_controller.rb, app/controllers/users_controller.rb]","[]","0","[]","0"
"266","[11-07-2012, 12-07-2012, 13-07-2012, 15-07-2012, 16-07-2012, 18-07-2012]","2","19","[702c89e754fed0a5a333453c1486c0a1cc4ec43a, a37d10f57ac61452a796a4f51c918028882070b5, 881c83292b4df74f19dd39295add2ba678a349f6, 4e29bf69f709356e4b5d2f1ae8d5069f914232e4, e8c3ba2e284203846c2adee6fed613294784e763, 3a3a1ac22e5ba19e1cf2218ba7abc46bf4e40b05, 22e166c3703cd56b13191910f4a723d0a6952d22, 7c1cd2a144d22d157dc0f005e476caa6bc57a919, 5a24644aadeefd01f3a55d53f3296141f904e417, 6e1ad5e200364c22af31506c687796f4ac56303b, 0d854efbbb2e4559363fe1c9aeee353de636d912, 885ee7d1d16cb68d71a19e6c15eb5933722ae101, 80e47b94b09c62707b9463b6b0f59cb3929bbbc7, e03c52131421da6b6e29e4653d6f274e8eb9558d, 82bb67f518b5c5b5d244c9fa66cc6040251ab83a, 7d0c716366a0e38fc01f89b793ec886c35766e18, 9af3dee277bed75c189766b17fe64981e62329eb, f9dc8c6969e41682460c25d0225920c9b367e1b3, 48cc8740cb6e2906f533a2c7e0c78e7b6f268dc0]","2","2","4","3","[app/controllers/contexts_controller.rb, app/controllers/login_controller.rb, app/controllers/recurring_todos_controller.rb, app/controllers/todos_controller.rb]","[app/controllers/application_controller.rb, app/controllers/integrations_controller.rb, app/controllers/todos_controller.rb]","0.25","0.3333333333","","3","[]","0","14","[app/controllers/contexts_controller.rb, app/controllers/login_controller.rb, app/controllers/todos_controller.rb, app/helpers/application_helper.rb, app/views/contexts/_context.html.erb, app/views/contexts/show.html.erb, app/views/login/login.html.erb, app/views/shared/_add_new_item_form.html.erb, app/views/todos/_completed.html.erb, app/views/todos/_deferred.html.erb, app/views/todos/_new_multi_todo_form.html.erb, app/views/todos/_new_todo_form.html.erb, app/views/todos/_todo.html.erb, app/views/todos/index.html.erb]","[click_button, click_button, click_link, fill_in, page, have_content, has_content?, have_no_content, has_no_content?, within, find, text, to_i, todos, find_by_description, be_nil, have_xpath, hashes, create_preference, each, fill_in, uncheck, click_button, page, have_content, login, contexts, find_or_create_by_name, todos, create!, be_nil, find_by_name, now, complete!, projects, save!, todos, find_by_description, be_nil, fill_in, find, click, page, evaluate_script, class, eql, sleep, have_content, wait_until, execute_script]","","[backup.rails2.3/app/apis/todo_api.rb, backup.rails2.3/plugins/translate/spec/files/translate/app/models/article.rb, backup.rails2.3/plugins/translate/spec/files/translate/app/views/category.erb, backup.rails2.3/plugins/translate/spec/files/translate/app/views/category.html.erb]","[app/views/sidebar/_sidebar.html.erb, app/views/todos/_contexts_to_show.html.erb]","2","1.444 seconds","false","3","2","[app/controllers/contexts_controller.rb, app/controllers/login_controller.rb, app/controllers/recurring_todos_controller.rb]","[app/controllers/application_controller.rb, app/controllers/integrations_controller.rb]","1","[app/controllers/todos_controller.rb]","0.3124999999765625"
"285","[14-01-2012, 16-01-2012, 19-01-2012, 20-01-2012, 21-01-2012, 23-01-2012, 27-01-2012]","3","17","[e935066c183e1f5156d33edc29cabe5b2ca049a8, 8b13ee88abc832fd8171127bc279588374f0a160, b7ee2f79f5692fade4b724bfeef449370b1cd17b, 1bce9a670d6aa14d447b95841f6e98e73f33d53f, bc7bf459dba2e77ac929187b1c87fc2998bbbbd6, 7af2211479f80b58541fcb69936fd5ece4c5398a, 78a2bd7f49f66b40beb8552aa957a8c053a8485e, b948cc48b29f7985c521c400e86d7533a341d2bf, 2349bee53553c6111f3a30d8f3259d34bd83f27e, 80d8d2b67ab99293d5b3372ed430f568dcca5791, 61624ed45554f773811ec28d6edf1232db69942f, f74370aab51c569c46448d4dd868354854e89b4a, 4705aca8dc586243e5e7a1c80cf528de1bd87d21, 01f283bc31dc2e4d16c408ace569a7acd1cab27e, 250e1d8fccb968400eb9e76a1988ecfbf2755e1e, 27fb483485aea40f8da327f32f74542559a30efc, 99707d7a6959104c4151c8f971e15bbb69eceeba]","2","1","2","4","[app/controllers/projects_controller.rb, app/controllers/todos_controller.rb]","[app/controllers/application_controller.rb, app/controllers/projects_controller.rb, app/controllers/stats_controller.rb, app/controllers/todos_controller.rb]","1.0","0.5","2.3.12","2","[]","0","4","[app/controllers/projects_controller.rb, app/controllers/todos_controller.rb, app/views/projects/show.html.erb, app/views/todos/index.html.erb]","[click_button, click_button, click_link, fill_in, response, contain, assert_contain, assert_not_contain, have_xpath, selenium, get_text, to_i, content, todos, find_by_description, be_nil, hashes, Factory, create_preference, each, fill_in, uncheck, click_button, response, selenium, wait_for_page_to_load, contain, login, be_nil, contexts, find_by_name, todos, create!, complete!, find_or_create_by_name, projects, to_i, save!, selenium, drag_and_drop_to_object, be_nil, click, pending_successors, wait_for_element, wait_for]","","[]","[app/views/contexts/_context.html.erb, app/views/notes/_note_edit_form.html.erb, app/views/notes/_notes_summary.html.erb, app/views/projects/_project.html.erb, app/views/shared/_add_new_item_form.html.erb, app/views/shared/_empty.html.erb, app/views/todos/_completed.html.erb, app/views/todos/_deferred.html.erb]","8","1.164 seconds","true","0","2","[]","[app/controllers/application_controller.rb, app/controllers/stats_controller.rb]","2","[app/controllers/projects_controller.rb, app/controllers/todos_controller.rb]","0.5555555555555556"
"84","[15-05-2016]","1","6","[4ad65ea0791a15fee6a4a85c69595938def3fed7, 5173f949933ad925ec45ce5f9845ac81fb303fd3, 1dfdad96fe1bf0f47a3bbdf214f816896ad4346b, 73a69250549215a5b4ea5fafa13a904082cd9953, 836d790f9f50383a861b0127761df7cbe406f4b0, 14a4da8a71bb62e5303329b13baaef9a11c77509]","1","0","0","0","[]","[]","0.0","0.0","4.1.11","2","[]","0","0","[]","[page, have_content, within, fill_in, click_button, hashes, create_preference, each]","","[]","[/test_login_backdoor]","1","1.035 seconds","false","0","0","[]","[]","0","[]","0"
"109","[13-08-2015]","1","1","[336f19c4fe81b94ffa9b713318e6d003dc400ed6]","1","1","1","0","[app/controllers/todos_controller.rb]","[]","0.0","0.0","4.1.11","2","[]","0","5","[app/controllers/todos_controller.rb, app/views/shared/_add_new_item_form.html.erb, app/views/todos/_new_multi_todo_form.html.erb, app/views/todos/_new_todo_form.html.erb, app/views/todos/index.html.erb]","[fill_in, sleep, within, page, evaluate_script, zero?, todos, where, be_nil, to_not, execute_script, have_css, all, click, click_button, have_content, todos, where, eq, hashes, create_preference, each, login, contexts, where, first_or_create, todos, create!, be_nil, to_not]","","[]","[/test_login_backdoor, app/views/sidebar/_sidebar.html.erb]","2","1.499 seconds","false","1","0","[app/controllers/todos_controller.rb]","[]","0","[]","0"
"149","[12-04-2015]","1","2","[1ed137afa98cba9b3a8e3c79718af1d7e4d4c370, bf8b118ebf0142a0abae7b13b1e852c349e35789]","1","3","1","1","[app/controllers/todos_controller.rb]","[app/controllers/todos_controller.rb]","1.0","1.0","4.1.10","2","[]","0","5","[app/controllers/todos_controller.rb, app/views/shared/_add_new_item_form.html.erb, app/views/todos/_new_multi_todo_form.html.erb, app/views/todos/_new_todo_form.html.erb, app/views/todos/list_deferred.html.erb]","[contexts, where, first_or_create, todos, create!, to_i, day, save!, page, have_content, body, hashes, create_preference, each, be_nil, to_not]","","[]","[/test_login_backdoor, app/views/sidebar/_sidebar.html.erb]","2","1.207 seconds","false","0","0","[]","[]","1","[app/controllers/todos_controller.rb]","1.0"
"155","[04-04-2015]","1","2","[ca9a4a1f44597be602bee431b60850cd59da6596, e1ab067dbbb5ad0196b6de1ee2ef6c111df74617]","1","0","1","1","[app/controllers/projects_controller.rb]","[app/controllers/todos_controller.rb]","0.0","0.0","4.1.10","2","[]","0","8","[app/controllers/projects_controller.rb, app/views/notes/_note_edit_form.html.erb, app/views/notes/_notes_summary.html.erb, app/views/projects/_project_settings_container.html.erb, app/views/projects/show.html.erb, app/views/shared/_add_new_item_form.html.erb, app/views/todos/_new_multi_todo_form.html.erb, app/views/todos/_new_todo_form.html.erb]","[be_nil, to_not, create!, fill_in, page, have_xpath, find, text, within, page, have_css, to_not, click_link, find, click, evaluate_script, zero?, hashes, create_preference, each]","","[]","[/test_login_backdoor, app/views/sidebar/_sidebar.html.erb]","2","1.255 seconds","false","1","1","[app/controllers/projects_controller.rb]","[app/controllers/todos_controller.rb]","0","[]","0"
"211","[11-05-2013, 13-05-2013, 25-05-2013, 27-05-2013]","1","13","[671f64b419a12c1069417e0d13aa018471372b89, 049296fd33d7c7e757578e42a906aec0b229e740, 8ffacca3938cbceff3e4aca5850ce13ce2b4e1cf, 7465ecce26fe73c6629f5928d7b67c35781157fc, 08498fee4f9143940b556869b87ce13f48ee80ef, 80974fb0d5eef89d5e95f7d3ae2c0efa8c983041, 54b106d96b85c0ffdce95d8670d7a97c9c9e489f, 1234abb2667ea0a67aca8ef26f63f2d7c1f79d8b, cc21081d77c6fc34b7d9dd03f27d115796fae37a, cd689dc0e895ab672ced9c71759d037ee9e3686f, ebff4cfc0c7c5c68077f368c4659211aa1f13d2f, 0bc9b0397a144a10c99486f084519d2d9c946f22, 65859807ead1e0a8fb4eff572ee153eee80bd8dd]","1","0","1","10","[app/controllers/login_controller.rb]","[app/controllers/application_controller.rb, app/controllers/contexts_controller.rb, app/controllers/data_controller.rb, app/controllers/notes_controller.rb, app/controllers/preferences_controller.rb, app/controllers/projects_controller.rb, app/controllers/recurring_todos_controller.rb, app/controllers/todos/todo_create_params_helper.rb, app/controllers/todos_controller.rb, app/controllers/users_controller.rb]","0.0","0.0","4.0.0.1","2","[]","0","2","[app/controllers/login_controller.rb, app/views/login/login.html.erb]","[page, have_content, has_content?, within, fill_in, click_button, hashes, create_preference, each, fill_in, uncheck, click_button, page, have_content]","","[]","","0","0.263 seconds","false","1","10","[app/controllers/login_controller.rb]","[app/controllers/application_controller.rb, app/controllers/contexts_controller.rb, app/controllers/data_controller.rb, app/controllers/notes_controller.rb, app/controllers/preferences_controller.rb, app/controllers/projects_controller.rb, app/controllers/recurring_todos_controller.rb, app/controllers/todos/todo_create_params_helper.rb, app/controllers/todos_controller.rb, app/controllers/users_controller.rb]","0","[]","0"
"328","[02-09-2011]","1","2","[f1c40c559473762840c708ef5a1cd1b3dec42648, 55bf457740965a7032b9dbe4bbcbed6eb49cea7f]","1","0","1","0","[app/controllers/projects_controller.rb]","[]","0.0","0.0","2.3.12","1","[]","0","2","[app/controllers/projects_controller.rb, app/views/projects/index.html.erb]","[response, contain, assert_contain, fill_in, selenium, get_text, selenium, click, have_xpath, to_i, content, hashes, Factory, create_preference, each, be_nil, projects, create!, fill_in, uncheck, click_button, response, selenium, wait_for_page_to_load, contain]","","[]","[app/views/projects/_new_project_form.html.erb, app/views/projects/_project_state_group.html.erb]","2","0.612 seconds","false","1","0","[app/controllers/projects_controller.rb]","[]","0","[]","0"
