[path:/features/step_definitions/admin_steps.rb, methods:[34, 53, 40, 18, 176, 180, 25, [name:update_settings, step:Given ]]]
[path:/features/step_definitions/email_steps.rb, methods:[12, 29, 53, 25, 17]]
[path:/features/step_definitions/invite_steps.rb, methods:[32, 108, 122, 102, 40, 15, 63, 128, 25, 56, 116]]
[path:/features/step_definitions/pickle_steps.rb, methods:[38, 3]]
[path:/features/step_definitions/user_steps.rb, methods:[57, 128, 169, 6, 38, 105]]
[path:/features/step_definitions/web_steps.rb, methods:[38, 26, 61, 106, 22, 158, 32, 81, 75, 18, [name:with_scope, step:When ], [name:with_scope, step:Then ], [name:with_scope, step:Given ]]]
[path:/features/support/email.rb, methods:[[name:email_for, step:Then ]]]
