[path:/features/step_definitions/basic_steps.rb, methods:[106, 205, 170, 191]]
[path:/features/step_definitions/database_steps.rb, methods:[12, 16, 32, 26, 36]]
[path:/features/step_definitions/more_web_steps.rb, methods:[93]]
[path:/features/step_definitions/web_steps.rb, methods:[13, 109, 37, 21, 29, 141, 113, 17, 25, 285]]
