"Repository","https://github.com/diaspora/diaspora.git"
"Precision mean (RT)","0.0689898325875"
"Precision median (RT)","0.0"
"Precision standard deviation (RT)","0.15137310666407985"
"Recall mean (RT)","0.09919139797916667"
"Recall median (RT)","0.0"
"Recall standard deviation (RT)","0.2307732217050767"
"F2 mean (RT)","0.048228770731174465"
"F2 median (RT)","0.0"
"F2 standard deviation (RT)","0.09153112480886366"
"Correlation #Test-Precision","0.24"
"Correlation #Test-Recall","0.4"
"Task","Dates","#Devs","#Commits","Hashes","#Gherkin_Tests","#Sted_defs","#TestI","#TaskI","TestI","TaskI","Precision","Recall","Rails","#visit_call","Lost_visit_call","#Views_TestI","#Code_View_Analysis","Code_View_Analysis","Methods_Unknown_Type","Renamed_Files","Deleted_Files","NotFound_Views","#NotFound_Views","Timestamp","Has_Merge","#FP","#FN","FP","FN","#Hits","Hits","f2"
"2579","[21-07-2011, 22-07-2011]","5","28","[241999f72a89f91e67223519991bd0c0cdf24a0b, 00885be738a2e737e7ed18d016eb7a537213d49e, 99aafb18cd041cf382fbd1fc795231e5d3ec62df, f74bf047982e456564be0d284e82e9c0135790a1, 0e2936f069ebdc9a5748d024063b4ff622415c73, 78bced56bb4874796b29b85b617a4b20f7ea9368, 5a12636967703521025625d27f4a1b1f2182bcf4, 4b1d5b772d4d812c231dbd713c5dcf9197b28002, ad5dba052ca7c2d67e9e7c64ff8d46f84b2ab791, 17774d8b3b94ab0f3c6917c65d30552959fa387e, a1bf22fe7e4cbcb535ebfd6d108cf09d37856ebe, 7382dfb7be498d3c9d2b37311fd88ac98158074d, e19fb6d0f885afaaaa48708da2f29f60ecfc2bed, 537766d0d70ee26b5fce3a770062f15f66e0f790, 70be713b158b181b548ce1b35abca65cad7d4f2a, bd1c8efe54f44083cbe81a04633621225ad4d43b, 2d6f51f68c43653bb761933241f16acebc8f4956, 987d44c41c0851e64fbabdc7cb04828738810520, a8400ad4607e518ecf1b9a1d416956f2bd455317, a32ef3c1d803f09b82f91a46bc9ca69091df718b, bdc4b9f746eca12b50b5d37fd329eeb0bfa75cc5, 509a435cc9c6b608923b3a03347584bda76be5e7, 7b3180e5da4a6dab67e543f237b3a9b6de1bc72f, f3a515eef165095b79de85418e33eb968e65e59a, d1bbbdbc4c2c91af69fa841572d9116d93f1ff97, ce9477976603cdb000d6e7095b13dc548235f99c, fa9269541fa89b4ed4061cd19a99b4bc89b0a184, 06f886ad770d95b7396a068ad15c153c624632d9]","8","4","18","22","[app/controllers/aspect_memberships_controller.rb, app/controllers/aspects_controller.rb, app/controllers/authorizations_controller.rb, app/controllers/comments_controller.rb, app/controllers/conversation_visibilities_controller.rb, app/controllers/home_controller.rb, app/controllers/likes_controller.rb, app/controllers/photos_controller.rb, app/controllers/posts_controller.rb, app/controllers/services_controller.rb, app/controllers/tag_followings_controller.rb, app/controllers/users_controller.rb, app/models/conversation.rb, app/models/user.rb, app/views/home/show.html.haml, app/views/home/show.mobile.haml, lib/diaspora/user.rb, lib/diaspora/user/querying.rb]","[app/controllers/aspects_controller.rb, app/controllers/people_controller.rb, app/controllers/publics_controller.rb, app/controllers/reshares_controller.rb, app/helpers/reshares_helper.rb, app/helpers/sockets_helper.rb, app/helpers/stream_helper.rb, app/models/app_config.rb, app/models/person.rb, app/models/post.rb, app/models/relayable_retraction.rb, app/models/reshare.rb, app/models/retraction.rb, app/models/signed_retraction.rb, app/models/user.rb, app/views/posts/show.html.haml, app/views/publics/host_meta.erb, app/views/publics/host_meta.html.erb, app/views/reshares/_reshare.haml, app/views/shared/_stream.haml, app/views/shared/_stream_element.html.haml, lib/postzord/dispatch.rb]","0.1111111111","0.0909090909","3.0.9","7","[]","2","3","[app/controllers/home_controller.rb, app/views/home/show.html.haml, app/views/home/show.mobile.haml]","[aspects, post, posts, sleep, click_button, silence_warnings, click_link, click_link, fill_in, page, have_content, has_content?, have_no_content, has_no_content?, within, Factory, aspects, profile, update_attributes, aspects, create!, reload, person, find_by_name, connect_users, connect_users, page, execute_script, page, execute_script, page, evaluate_script, has_css?, be_true, wait_until, to_i, sleep, within]","","[app/views/shared/_stream_element_shim.haml]","[app/views/home/_show.html.haml, person, send]","3","0.381 seconds","false","16","20","[app/controllers/aspect_memberships_controller.rb, app/controllers/authorizations_controller.rb, app/controllers/comments_controller.rb, app/controllers/conversation_visibilities_controller.rb, app/controllers/home_controller.rb, app/controllers/likes_controller.rb, app/controllers/photos_controller.rb, app/controllers/posts_controller.rb, app/controllers/services_controller.rb, app/controllers/tag_followings_controller.rb, app/controllers/users_controller.rb, app/models/conversation.rb, app/views/home/show.html.haml, app/views/home/show.mobile.haml, lib/diaspora/user.rb, lib/diaspora/user/querying.rb]","[app/controllers/people_controller.rb, app/controllers/publics_controller.rb, app/controllers/reshares_controller.rb, app/helpers/reshares_helper.rb, app/helpers/sockets_helper.rb, app/helpers/stream_helper.rb, app/models/app_config.rb, app/models/person.rb, app/models/post.rb, app/models/relayable_retraction.rb, app/models/reshare.rb, app/models/retraction.rb, app/models/signed_retraction.rb, app/views/posts/show.html.haml, app/views/publics/host_meta.erb, app/views/publics/host_meta.html.erb, app/views/reshares/_reshare.haml, app/views/shared/_stream.haml, app/views/shared/_stream_element.html.haml, lib/postzord/dispatch.rb]","2","[app/controllers/aspects_controller.rb, app/models/user.rb]","0.09433962263207546"
"2606","[05-07-2011, 06-07-2011]","4","31","[b7e86673e807272c15fce5254f0b910d78f62026, 8c1c546bdfd8e3b6bd9a21c9b2a42f84660ac42c, d74942877f27ed7ebf8d0908cdec6d1c0b3de7a6, 19911bc856ca400c5cfa99558a05c894dd1ac3af, 4a9900dff669ed98625e04d306c4f420f93055a5, 27f78dd1adf569de961630833da8e0ddf00bd3c0, 2a9fc776e6643c03ada5800d85bd7125ce638873, efd6275e68225af88b78f70db40a0a1643cdf5a1, 0ac28cd9ea2891e21e399d5b23b6b8c5a57c15d2, 41be7a37b0531c9f37506020d41bb3f9160e6b99, e2b373695d4fef163f415929db4083ee7ef618e1, ecaf7974e3e29974ce6a91a714fc7abb5e2178e1, 06abdce180f80726b672cc61fe6cdd02b76c4b78, 47e0558c3e9a68a86f16628c74ce817ca90a1d2d, c3e477f2c5554d5476d1efaacdcf17f39368f544, 0ab961e09637895d2ceb648511c0ef27339f21d5, 027f096ca7be7dc8c1e6829766a593681cb6169e, 2d8b5bd54c6f08fa4d2fee060f2d0ac44974b9f1, edac7601f57a262ed58d03f71b06ade8ac11e114, d15673c3de02370585a27e9b4cc5fd144d8c0f8a, f0d9d318e8462e1869e65ff4d6425d3a6ba7aa06, 632eacc51f8f51769ffc555422ca7a0d5c6a802e, 1e4ee472b70ca0899795c3582f79b796dc8f1c20, 77d28b411706a8590accf8a4b33cfe5c422117d6, 956a86b4011614955b92b7654880b7aee1e5e75b, b2f580c39e8428878adf02b2a17996ad690dc275, 47aab723bd58c572930ea554833e68047b1e76bb, 53993cd714937c824acae577aae0aab079bec3bc, f5e3c4c0d755e19659abf996e48d57840047edcf, 5f592f9616c98c837ff03a9a0c23be14ff6e143f, 130914267bc6954a6735a33741e96c8d81e7f5cb]","8","3","53","17","[app/controllers/activity_streams/photos_controller.rb, app/controllers/aspects_controller.rb, app/controllers/conversations_controller.rb, app/controllers/home_controller.rb, app/controllers/likes_controller.rb, app/controllers/people_controller.rb, app/controllers/photos_controller.rb, app/controllers/profiles_controller.rb, app/controllers/services_controller.rb, app/controllers/status_messages_controller.rb, app/controllers/tags_controller.rb, app/controllers/users_controller.rb, app/helpers/application_helper.rb, app/helpers/stream_helper.rb, app/models/activity_streams/photo.rb, app/models/conversation.rb, app/models/photo.rb, app/models/request.rb, app/models/user.rb, app/views/aspect_memberships/_aspect_dropdown.html.haml, app/views/aspects/new.haml, app/views/comments/_comment.html.haml, app/views/comments/_comments.haml, app/views/conversations/new.haml, app/views/home/show.html.haml, app/views/home/show.mobile.haml, app/views/likes/_likes_container.haml, app/views/likes/index.html.haml, app/views/people/_index.html.haml, app/views/people/_profile_sidebar.html.haml, app/views/people/show.html.haml, app/views/people/show.mobile.haml, app/views/photos/_index.html.haml, app/views/photos/_new_photo.haml, app/views/photos/_new_profile_photo.haml, app/views/photos/_photo.haml, app/views/photos/edit.html.haml, app/views/photos/show.html.haml, app/views/photos/show.mobile.haml, app/views/profiles/edit.html.haml, app/views/services/index.html.haml, app/views/shared/_add_remove_services.haml, app/views/shared/_author_info.html.haml, app/views/shared/_public_explain.haml, app/views/shared/_publisher.html.haml, app/views/shared/_settings_nav.haml, app/views/shared/_stream.haml, app/views/status_messages/new.haml, app/views/tags/show.haml, app/views/users/edit.html.haml, lib/diaspora/user.rb, lib/diaspora/user/querying.rb, lib/fake.rb]","[app/controllers/aspects_controller.rb, app/controllers/status_messages_controller.rb, app/controllers/tag_followings_controller.rb, app/controllers/tags_controller.rb, app/helpers/aspect_global_helper.rb, app/helpers/stream_helper.rb, app/helpers/tag_followings_helper.rb, app/models/profile.rb, app/models/tag_following.rb, app/models/user.rb, app/views/aspects/index.html.haml, app/views/comments/_comments.haml, app/views/conversations/_show.haml, app/views/conversations/index.haml, app/views/conversations/new.haml, app/views/shared/_stream_element.html.haml, app/views/tags/show.haml]","0.1509433962","0.4705882353","3.0.3","8","[]","31","45","[app/controllers/activity_streams/photos_controller.rb, app/controllers/aspects_controller.rb, app/controllers/conversations_controller.rb, app/controllers/home_controller.rb, app/controllers/likes_controller.rb, app/controllers/people_controller.rb, app/controllers/photos_controller.rb, app/controllers/profiles_controller.rb, app/controllers/services_controller.rb, app/controllers/status_messages_controller.rb, app/controllers/tags_controller.rb, app/controllers/users_controller.rb, app/helpers/application_helper.rb, app/helpers/stream_helper.rb, app/views/aspect_memberships/_aspect_dropdown.html.haml, app/views/aspects/new.haml, app/views/comments/_comment.html.haml, app/views/comments/_comments.haml, app/views/conversations/new.haml, app/views/home/show.html.haml, app/views/home/show.mobile.haml, app/views/likes/_likes_container.haml, app/views/likes/index.html.haml, app/views/people/_index.html.haml, app/views/people/_profile_sidebar.html.haml, app/views/people/show.html.haml, app/views/people/show.mobile.haml, app/views/photos/_index.html.haml, app/views/photos/_new_photo.haml, app/views/photos/_new_profile_photo.haml, app/views/photos/_photo.haml, app/views/photos/edit.html.haml, app/views/photos/show.html.haml, app/views/photos/show.mobile.haml, app/views/profiles/edit.html.haml, app/views/services/index.html.haml, app/views/shared/_add_remove_services.haml, app/views/shared/_author_info.html.haml, app/views/shared/_public_explain.haml, app/views/shared/_publisher.html.haml, app/views/shared/_settings_nav.haml, app/views/shared/_stream.haml, app/views/status_messages/new.haml, app/views/tags/show.haml, app/views/users/edit.html.haml]","[sleep, click_button, silence_warnings, sleep, click_button, silence_warnings, click_link, click_link, fill_in, page, have_content, has_content?, have_no_content, has_no_content?, current_url, path, assert_equal, within, send, person, invitation_token, sender, posts, find_by_text, raise, are_you_sure, services.index.really_disconnect, find, click, page, evaluate_script, execute_script, wait_until, execute_script, to_i, Factory, aspects, profile, update_attributes, aspects, create!, reload, person, find_by_name, connect_users, connect_users, Factory, photos]","","[]","[accept_user_invitation, app/views/home/_show.html.haml, aspects_manage, export_photos_user, export_user, getting_started, person_contacts, photo_make_profile_photo, send]","9","1.615 seconds","true","45","9","[app/controllers/activity_streams/photos_controller.rb, app/controllers/conversations_controller.rb, app/controllers/home_controller.rb, app/controllers/likes_controller.rb, app/controllers/people_controller.rb, app/controllers/photos_controller.rb, app/controllers/profiles_controller.rb, app/controllers/services_controller.rb, app/controllers/users_controller.rb, app/helpers/application_helper.rb, app/models/activity_streams/photo.rb, app/models/conversation.rb, app/models/photo.rb, app/models/request.rb, app/views/aspect_memberships/_aspect_dropdown.html.haml, app/views/aspects/new.haml, app/views/comments/_comment.html.haml, app/views/home/show.html.haml, app/views/home/show.mobile.haml, app/views/likes/_likes_container.haml, app/views/likes/index.html.haml, app/views/people/_index.html.haml, app/views/people/_profile_sidebar.html.haml, app/views/people/show.html.haml, app/views/people/show.mobile.haml, app/views/photos/_index.html.haml, app/views/photos/_new_photo.haml, app/views/photos/_new_profile_photo.haml, app/views/photos/_photo.haml, app/views/photos/edit.html.haml, app/views/photos/show.html.haml, app/views/photos/show.mobile.haml, app/views/profiles/edit.html.haml, app/views/services/index.html.haml, app/views/shared/_add_remove_services.haml, app/views/shared/_author_info.html.haml, app/views/shared/_public_explain.haml, app/views/shared/_publisher.html.haml, app/views/shared/_settings_nav.haml, app/views/shared/_stream.haml, app/views/status_messages/new.haml, app/views/users/edit.html.haml, lib/diaspora/user.rb, lib/diaspora/user/querying.rb, lib/fake.rb]","[app/controllers/tag_followings_controller.rb, app/helpers/aspect_global_helper.rb, app/helpers/tag_followings_helper.rb, app/models/profile.rb, app/models/tag_following.rb, app/views/aspects/index.html.haml, app/views/conversations/_show.haml, app/views/conversations/index.haml, app/views/shared/_stream_element.html.haml]","8","[app/controllers/aspects_controller.rb, app/controllers/status_messages_controller.rb, app/controllers/tags_controller.rb, app/helpers/stream_helper.rb, app/models/user.rb, app/views/comments/_comments.haml, app/views/conversations/new.haml, app/views/tags/show.haml]","0.3305785123736766"
"2621","[03-06-2011, 06-06-2011, 08-06-2011, 09-06-2011, 13-06-2011, 14-06-2011, 15-06-2011, 20-06-2011, 22-06-2011, 23-06-2011, 24-06-2011, 27-06-2011, 28-06-2011]","5","41","[7fd9b81e555ff2baa5019ca3ae3d4bb340bd2e64, b14271342a699e3c33612ddf0f5928f1649624bc, 240eb78b08a16f20b1a94d80caa6d991c3af4983, 17917528f62147c51d908b97ab24e0c47d44d807, 54ef22b83ebe141e00b5136a837c08a9a6c21cf3, f9b09d32f87dd6612e6c77dda2caf8f2c688b677, 0b5de2aa7a747856aa03d93fb62cd26b68ddff19, d186246db0588d71df8f75c39ade24e2a6ea7935, bd84eaaf7533e061828e745f01f7ce3752ba8b52, 63125cb9b960d39c903c1acf93495c1edbd04cde, d46f3a8d1f66d700f76fc1a6f563fe4cb9c8b099, 74a7c3ab00e90dbd5d6feecf707dc9da1abd13ee, 052adc32137632dbba8efe50973105efab3a8c4f, c91cf6f38c9a3a4924dc99c02dfd7f971ab021d9, a9b7cd1254b7a1ef62563648ecbe04c4f858d6cc, 13810336d36de810118eb93a5f6d630a1a921552, 5917f0d69517a452d73028486f0d3465ab53ce53, c09fb776fbcd2bd39027c685d7cd48aa6470b63d, 75a1012c1cd2577e9dcfc9ca0a1ce6aa67729ead, b3cee70ead899043cffd646fa87a9dc5aeffe8a4, 78253b6885f4da5181fc360064bc8c7a22f59c18, 9366b7243a21c8e7e48a1d1b277209569265a950, 844bf48851a1de892b2a119ea93fedfdf9c3faad, ec9932e4916843499fae71da2c83ec79c87db972, af8ce13ee58d9b848fc4e6825127038d0024fd34, dfb48d343fdda7062e838c3ea319e4e1dcff3383, dca2eca67c10fcb01bf5b3b414f5d757964a310b, 2a4932ea34af149ce7b3cd0c1e4e35f1e1dd416a, ef0e48a7ffc76a12f81315d57e22340efea10312, 3d77186d352663e7b1cf427b03c76727a0ba7b6a, f31a78f23f5766b6890dbfbd9836e7c3cd0cd4fd, 6d5169d7071e27b3e18376b4c7129f4e5dbfe69d, 775dbda2b28f7a9323fc2dd6afd9bd7bfb975c8a, d9d66a5c31d66beaac72858e3c64f666ac0397b2, 67eaafe3a94e571d2a63c9503b4594071bcd9c17, 7aeb3a364956afc3f0142a36e8119f558ed4097a, 4b13c83de7921394addd8972445f9a114801f3a1, e720fc097d84ea15ced1cb8fc99ffbe54ee0a560, 01edfeee032a9c5bfe97f70c3f0790fbc9916fd6, e121b0fe6d1e663e5688d88ad191e0092f66094d, 381b85189db652f69965676e6d02e636d2cf3a5f]","7","9","58","18","[app/controllers/activity_streams/photos_controller.rb, app/controllers/aspects_controller.rb, app/controllers/conversations_controller.rb, app/controllers/home_controller.rb, app/controllers/people_controller.rb, app/controllers/photos_controller.rb, app/controllers/profiles_controller.rb, app/controllers/services_controller.rb, app/controllers/status_messages_controller.rb, app/controllers/tags_controller.rb, app/controllers/users_controller.rb, app/helpers/application_helper.rb, app/helpers/stream_helper.rb, app/models/activity_streams/photo.rb, app/models/aspect.rb, app/models/conversation.rb, app/models/oauth2_provider_models_activerecord_client.rb, app/models/photo.rb, app/models/request.rb, app/models/user.rb, app/views/aspect_memberships/_aspect_dropdown.html.haml, app/views/aspects/new.haml, app/views/comments/_comment.html.haml, app/views/comments/_comments.haml, app/views/conversations/_conversation.haml, app/views/conversations/_show.haml, app/views/conversations/index.haml, app/views/conversations/new.haml, app/views/devise/mailer/reset_password_instructions.html.haml, app/views/home/show.html.haml, app/views/home/show.mobile.haml, app/views/likes/_likes.haml, app/views/messages/_message.haml, app/views/notifier/_notifier_css.haml, app/views/people/_index.html.haml, app/views/people/_profile_sidebar.html.haml, app/views/people/show.html.haml, app/views/people/show.mobile.haml, app/views/photos/_index.html.haml, app/views/photos/_new_photo.haml, app/views/photos/_new_profile_photo.haml, app/views/photos/_photo.haml, app/views/photos/edit.html.haml, app/views/photos/show.html.haml, app/views/photos/show.mobile.haml, app/views/profiles/edit.html.haml, app/views/services/index.html.haml, app/views/shared/_add_remove_services.haml, app/views/shared/_author_info.html.haml, app/views/shared/_public_explain.haml, app/views/shared/_publisher.html.haml, app/views/shared/_settings_nav.haml, app/views/shared/_stream.haml, app/views/status_messages/new.haml, app/views/tags/show.haml, app/views/users/edit.html.haml, lib/diaspora/user.rb, lib/fake.rb]","[app/controllers/activity_streams/photos_controller.rb, app/controllers/apis_controller.rb, app/controllers/authorizations_controller.rb, app/models/app_config.rb, app/models/oauth2_provider_models_activerecord_authorization.rb, app/models/oauth2_provider_models_activerecord_client.rb, app/models/person.rb, app/models/photo.rb, app/models/post.rb, app/models/status_message.rb, app/models/user.rb, app/views/authorizations/index.html.haml, app/views/authorizations/new.html.haml, app/views/layouts/popup.html.haml, app/views/services/index.html.haml, app/views/shared/_add_remove_services.haml, app/views/shared/_settings_nav.haml, app/views/users/edit.html.haml]","0.1379310345","0.4444444444","3.0.3","5","[]","36","49","[app/controllers/activity_streams/photos_controller.rb, app/controllers/aspects_controller.rb, app/controllers/conversations_controller.rb, app/controllers/home_controller.rb, app/controllers/people_controller.rb, app/controllers/photos_controller.rb, app/controllers/profiles_controller.rb, app/controllers/services_controller.rb, app/controllers/status_messages_controller.rb, app/controllers/tags_controller.rb, app/controllers/users_controller.rb, app/helpers/application_helper.rb, app/helpers/stream_helper.rb, app/views/aspect_memberships/_aspect_dropdown.html.haml, app/views/aspects/new.haml, app/views/comments/_comment.html.haml, app/views/comments/_comments.haml, app/views/conversations/_conversation.haml, app/views/conversations/_show.haml, app/views/conversations/index.haml, app/views/conversations/new.haml, app/views/devise/mailer/reset_password_instructions.html.haml, app/views/home/show.html.haml, app/views/home/show.mobile.haml, app/views/likes/_likes.haml, app/views/messages/_message.haml, app/views/notifier/_notifier_css.haml, app/views/people/_index.html.haml, app/views/people/_profile_sidebar.html.haml, app/views/people/show.html.haml, app/views/people/show.mobile.haml, app/views/photos/_index.html.haml, app/views/photos/_new_photo.haml, app/views/photos/_new_profile_photo.haml, app/views/photos/_photo.haml, app/views/photos/edit.html.haml, app/views/photos/show.html.haml, app/views/photos/show.mobile.haml, app/views/profiles/edit.html.haml, app/views/services/index.html.haml, app/views/shared/_add_remove_services.haml, app/views/shared/_author_info.html.haml, app/views/shared/_public_explain.haml, app/views/shared/_publisher.html.haml, app/views/shared/_settings_nav.haml, app/views/shared/_stream.haml, app/views/status_messages/new.haml, app/views/tags/show.haml, app/views/users/edit.html.haml]","[body, oauth_identifier, oauth_secret, page, person, instance_eval, have_content, where, count, destroy_all, diaspora_handle, username, password, sleep, click_button, silence_warnings, click_link, has_content?, current_url, path, assert_equal, within, send, invitation_token, sender, posts, find_by_text, raise, status_message, are_you_sure, button, services.index.really_disconnect, Factory, aspects, reload, page, evaluate_script]","","[]","[/account, accept_user_invitation, app/views/home/_show.html.haml, aspects_manage, conversation_visibility, edit_password, export_photos_user, export_user, getting_started, next_photo, person_contacts, photo_make_profile_photo, prev_photo, send]","14","2.626 seconds","false","50","10","[app/controllers/aspects_controller.rb, app/controllers/conversations_controller.rb, app/controllers/home_controller.rb, app/controllers/people_controller.rb, app/controllers/photos_controller.rb, app/controllers/profiles_controller.rb, app/controllers/services_controller.rb, app/controllers/status_messages_controller.rb, app/controllers/tags_controller.rb, app/controllers/users_controller.rb, app/helpers/application_helper.rb, app/helpers/stream_helper.rb, app/models/activity_streams/photo.rb, app/models/aspect.rb, app/models/conversation.rb, app/models/request.rb, app/views/aspect_memberships/_aspect_dropdown.html.haml, app/views/aspects/new.haml, app/views/comments/_comment.html.haml, app/views/comments/_comments.haml, app/views/conversations/_conversation.haml, app/views/conversations/_show.haml, app/views/conversations/index.haml, app/views/conversations/new.haml, app/views/devise/mailer/reset_password_instructions.html.haml, app/views/home/show.html.haml, app/views/home/show.mobile.haml, app/views/likes/_likes.haml, app/views/messages/_message.haml, app/views/notifier/_notifier_css.haml, app/views/people/_index.html.haml, app/views/people/_profile_sidebar.html.haml, app/views/people/show.html.haml, app/views/people/show.mobile.haml, app/views/photos/_index.html.haml, app/views/photos/_new_photo.haml, app/views/photos/_new_profile_photo.haml, app/views/photos/_photo.haml, app/views/photos/edit.html.haml, app/views/photos/show.html.haml, app/views/photos/show.mobile.haml, app/views/profiles/edit.html.haml, app/views/shared/_author_info.html.haml, app/views/shared/_public_explain.haml, app/views/shared/_publisher.html.haml, app/views/shared/_stream.haml, app/views/status_messages/new.haml, app/views/tags/show.haml, lib/diaspora/user.rb, lib/fake.rb]","[app/controllers/apis_controller.rb, app/controllers/authorizations_controller.rb, app/models/app_config.rb, app/models/oauth2_provider_models_activerecord_authorization.rb, app/models/person.rb, app/models/post.rb, app/models/status_message.rb, app/views/authorizations/index.html.haml, app/views/authorizations/new.html.haml, app/views/layouts/popup.html.haml]","8","[app/controllers/activity_streams/photos_controller.rb, app/models/oauth2_provider_models_activerecord_client.rb, app/models/photo.rb, app/models/user.rb, app/views/services/index.html.haml, app/views/shared/_add_remove_services.haml, app/views/shared/_settings_nav.haml, app/views/users/edit.html.haml]","0.30769230769242606"
"2507","[22-08-2011, 23-08-2011, 24-08-2011, 25-08-2011]","9","36","[b70f684efcdab6a9c6297e366cda5b88e2cd4b60, 4dc4c67edda117610825d42ed742b3ae8d33a562, 2708b0b695b1d8f5145ab26358cf94c91d5887c4, 121c0c97f8e8d39c46ecf858da61fa85bc161687, ded85fb22541c1b71e79744097578515d8811281, c1c622ff5270fc2ee3c2738946ca1fe4804e5308, a7d05756db6f6c534cf1361ccf16dd0c9eb0ee44, 1df4e76f36aa1c17fa239d6b01907e225a7ad25d, 89bd4f8da5922ffa38f64f502d601ec213f31067, 9740af3951e4f8d8fcaa7f2f33b3d08e8e3e3ce0, bcae8a1952eaca9b7a6bd859ae94de09cfe76fe6, 7f0677ab1640cdc3e78a8f43d7da59acba51cf97, dec10e3de92d4b24a2a9ca661f2c71af19274881, 89edfb7ed61d260fb4b3f7d6f01dd29c4848a150, a63d1ad4aee5dd7f94c49cfb08a71def41d061e7, 6b88a751748a1fcfe9c4273b23bb3302cae1ced0, c95f80be427927c9f22a132be8af3895ead3b221, 76b0f310205b1f84a0a7de503b087f2799e150f1, a7d9bbed84d4022ce25c12190af19e06b59499b0, 27049e52b59c5c748a37d4c9d1773ceecb010a18, 7a5fc1150586db167bcd7ccb504beb28d6ab9ea2, eb99b6ba5d1596f1ef9a5671adc4228902b84bc2, b7d6d511df45a639b85b709161985cf77afbb0eb, 2a5155fd4da06f0e31310032bc367d1aa267ed39, 40b2c2370a00c58fe93e28ba7889e493e2886f75, 3366aa62dc1f78f19407d8b568289da5c2fa2acd, 0dc5807ee0074413669dbbc3f540446d005d8936, e7071fd74c06d05104c7730bd054e2aed3e080e1, 43d6acd868638af4bb7aaa2813cbbf1240e36a4b, 049efae1a6f72c53d0b0b3ad6d3eb610920527a7, 6b040c7b4a2bf2335a5ca2915d10e8ae25d87120, 7fd7fa968c4e2519bcbc50eef3b30f8a9135757a, f8a030d761e65a21efcbe6e538e0564501c90ef5, 87cd09a9360df74e987fd6e4023707da137228bc, 59ba3f85e60ccd10279358f4052611c64040fe7e, 9fd4432e5a4ec9f810bcc44ecebef970af6bf3ed]","5","5","80","10","[app/controllers/activity_streams/photos_controller.rb, app/controllers/aspects_controller.rb, app/controllers/contacts_controller.rb, app/controllers/conversations_controller.rb, app/controllers/home_controller.rb, app/controllers/likes_controller.rb, app/controllers/photos_controller.rb, app/controllers/posts_controller.rb, app/controllers/profiles_controller.rb, app/controllers/services_controller.rb, app/controllers/tags_controller.rb, app/controllers/users_controller.rb, app/helpers/stream_helper.rb, app/models/activity_streams/photo.rb, app/models/oauth2_provider_models_activerecord_client.rb, app/models/photo.rb, app/models/request.rb, app/models/status_message.rb, app/models/user.rb, app/views/aspects/_aspect_listings.haml, app/views/aspects/_new.haml, app/views/aspects/edit.html.haml, app/views/aspects/new.haml, app/views/authorizations/new.html.haml, app/views/comments/_comment.html.haml, app/views/comments/_comments.haml, app/views/comments/_new_comment.html.haml, app/views/comments/_new_comment.mobile.haml, app/views/contacts/index.html.haml, app/views/contacts/index.mobile.haml, app/views/conversations/new.haml, app/views/devise/confirmations/new.html.haml, app/views/devise/mailer/reset_password_instructions.haml, app/views/devise/passwords/new.haml, app/views/devise/shared/_links.haml, app/views/devise/unlocks/new.html.haml, app/views/home/show.html.haml, app/views/home/show.mobile.haml, app/views/invitations/new.html.haml, app/views/invitations/new.mobile.haml, app/views/likes/_likes_container.haml, app/views/likes/index.html.haml, app/views/notifier/_notifier_css.haml, app/views/people/_index.html.haml, app/views/people/_person.html.haml, app/views/photos/_index.html.haml, app/views/photos/_new_photo.haml, app/views/photos/_new_profile_photo.haml, app/views/photos/_photo.haml, app/views/photos/edit.html.haml, app/views/photos/show.html.haml, app/views/photos/show.mobile.haml, app/views/posts/_photo.html.haml, app/views/posts/show.html.haml, app/views/posts/show.mobile.haml, app/views/profiles/edit.haml, app/views/registrations/new.html.haml, app/views/requests/_new_request_to_person.haml, app/views/requests/_new_request_with_aspect_to_person.haml, app/views/reshares/_reshare.haml, app/views/services/index.html.haml, app/views/sessions/new.haml, app/views/sessions/new.mobile.haml, app/views/shared/_add_remove_services.haml, app/views/shared/_aspect_dropdown.html.haml, app/views/shared/_author_info.html.haml, app/views/shared/_contact_list.html.haml, app/views/shared/_contact_sidebar.html.haml, app/views/shared/_public_explain.haml, app/views/shared/_publisher.html.haml, app/views/shared/_settings_nav.haml, app/views/shared/_stream.haml, app/views/shared/_stream_element.html.haml, app/views/status_messages/_status_message.haml, app/views/status_messages/new.haml, app/views/tags/_followed_tags_listings.haml, app/views/tags/show.haml, app/views/users/edit.html.haml, lib/diaspora/user.rb, lib/diaspora/web_socket.rb]","[app/controllers/admins_controller.rb, app/controllers/authorizations_controller.rb, app/controllers/invitations_controller.rb, app/helpers/sessions_helper.rb, app/views/aspects/_aspect_stream.haml, app/views/aspects/_no_posts_message.haml, app/views/invitations/edit.html.haml, app/views/services/_remote_friend.html.haml, app/views/sessions/new.haml, app/views/users/getting_started.haml]","0.0125","0.1","3.0.9","3","[]","59","72","[app/controllers/activity_streams/photos_controller.rb, app/controllers/aspects_controller.rb, app/controllers/contacts_controller.rb, app/controllers/conversations_controller.rb, app/controllers/home_controller.rb, app/controllers/likes_controller.rb, app/controllers/photos_controller.rb, app/controllers/posts_controller.rb, app/controllers/profiles_controller.rb, app/controllers/services_controller.rb, app/controllers/tags_controller.rb, app/controllers/users_controller.rb, app/helpers/stream_helper.rb, app/views/aspects/_aspect_listings.haml, app/views/aspects/_new.haml, app/views/aspects/edit.html.haml, app/views/aspects/new.haml, app/views/authorizations/new.html.haml, app/views/comments/_comment.html.haml, app/views/comments/_comments.haml, app/views/comments/_new_comment.html.haml, app/views/comments/_new_comment.mobile.haml, app/views/contacts/index.html.haml, app/views/contacts/index.mobile.haml, app/views/conversations/new.haml, app/views/devise/confirmations/new.html.haml, app/views/devise/mailer/reset_password_instructions.haml, app/views/devise/passwords/new.haml, app/views/devise/shared/_links.haml, app/views/devise/unlocks/new.html.haml, app/views/home/show.html.haml, app/views/home/show.mobile.haml, app/views/invitations/new.html.haml, app/views/invitations/new.mobile.haml, app/views/likes/_likes_container.haml, app/views/likes/index.html.haml, app/views/notifier/_notifier_css.haml, app/views/people/_index.html.haml, app/views/people/_person.html.haml, app/views/photos/_index.html.haml, app/views/photos/_new_photo.haml, app/views/photos/_new_profile_photo.haml, app/views/photos/_photo.haml, app/views/photos/edit.html.haml, app/views/photos/show.html.haml, app/views/photos/show.mobile.haml, app/views/posts/_photo.html.haml, app/views/posts/show.html.haml, app/views/posts/show.mobile.haml, app/views/profiles/edit.haml, app/views/registrations/new.html.haml, app/views/requests/_new_request_to_person.haml, app/views/requests/_new_request_with_aspect_to_person.haml, app/views/reshares/_reshare.haml, app/views/services/index.html.haml, app/views/sessions/new.haml, app/views/sessions/new.mobile.haml, app/views/shared/_add_remove_services.haml, app/views/shared/_aspect_dropdown.html.haml, app/views/shared/_author_info.html.haml, app/views/shared/_contact_list.html.haml, app/views/shared/_contact_sidebar.html.haml, app/views/shared/_public_explain.haml, app/views/shared/_publisher.html.haml, app/views/shared/_settings_nav.haml, app/views/shared/_stream.haml, app/views/shared/_stream_element.html.haml, app/views/status_messages/_status_message.haml, app/views/status_messages/new.haml, app/views/tags/_followed_tags_listings.haml, app/views/tags/show.haml, app/views/users/edit.html.haml]","[body, oauth_identifier, oauth_secret, username, password, diaspora_handle, fuck yeah!, hell no., are_you_sure, button creation, 4, services.index.really_disconnect, sleep, click_button, silence_warnings, sleep, click_button, silence_warnings, click_link, fill_in, fill_in, find_field, tag_name, assert_match, current_url, path, assert_equal, within, send, person, invitation_token, id, sender, posts, find_by_text, raise, are_you_sure, Factory, aspects, create, reload, deliveries, to_i]","","[]","[accept_user_invitation, app/views/home/_show.html.haml, edit_password, export_photos_user, export_user, friend_finder, getting_started, new_confirmation, new_password, new_registration, new_session, new_unlock, person, photo_make_profile_photo, post_comment, post_visibility]","16","3.277 seconds","true","79","9","[app/controllers/activity_streams/photos_controller.rb, app/controllers/aspects_controller.rb, app/controllers/contacts_controller.rb, app/controllers/conversations_controller.rb, app/controllers/home_controller.rb, app/controllers/likes_controller.rb, app/controllers/photos_controller.rb, app/controllers/posts_controller.rb, app/controllers/profiles_controller.rb, app/controllers/services_controller.rb, app/controllers/tags_controller.rb, app/controllers/users_controller.rb, app/helpers/stream_helper.rb, app/models/activity_streams/photo.rb, app/models/oauth2_provider_models_activerecord_client.rb, app/models/photo.rb, app/models/request.rb, app/models/status_message.rb, app/models/user.rb, app/views/aspects/_aspect_listings.haml, app/views/aspects/_new.haml, app/views/aspects/edit.html.haml, app/views/aspects/new.haml, app/views/authorizations/new.html.haml, app/views/comments/_comment.html.haml, app/views/comments/_comments.haml, app/views/comments/_new_comment.html.haml, app/views/comments/_new_comment.mobile.haml, app/views/contacts/index.html.haml, app/views/contacts/index.mobile.haml, app/views/conversations/new.haml, app/views/devise/confirmations/new.html.haml, app/views/devise/mailer/reset_password_instructions.haml, app/views/devise/passwords/new.haml, app/views/devise/shared/_links.haml, app/views/devise/unlocks/new.html.haml, app/views/home/show.html.haml, app/views/home/show.mobile.haml, app/views/invitations/new.html.haml, app/views/invitations/new.mobile.haml, app/views/likes/_likes_container.haml, app/views/likes/index.html.haml, app/views/notifier/_notifier_css.haml, app/views/people/_index.html.haml, app/views/people/_person.html.haml, app/views/photos/_index.html.haml, app/views/photos/_new_photo.haml, app/views/photos/_new_profile_photo.haml, app/views/photos/_photo.haml, app/views/photos/edit.html.haml, app/views/photos/show.html.haml, app/views/photos/show.mobile.haml, app/views/posts/_photo.html.haml, app/views/posts/show.html.haml, app/views/posts/show.mobile.haml, app/views/profiles/edit.haml, app/views/registrations/new.html.haml, app/views/requests/_new_request_to_person.haml, app/views/requests/_new_request_with_aspect_to_person.haml, app/views/reshares/_reshare.haml, app/views/services/index.html.haml, app/views/sessions/new.mobile.haml, app/views/shared/_add_remove_services.haml, app/views/shared/_aspect_dropdown.html.haml, app/views/shared/_author_info.html.haml, app/views/shared/_contact_list.html.haml, app/views/shared/_contact_sidebar.html.haml, app/views/shared/_public_explain.haml, app/views/shared/_publisher.html.haml, app/views/shared/_settings_nav.haml, app/views/shared/_stream.haml, app/views/shared/_stream_element.html.haml, app/views/status_messages/_status_message.haml, app/views/status_messages/new.haml, app/views/tags/_followed_tags_listings.haml, app/views/tags/show.haml, app/views/users/edit.html.haml, lib/diaspora/user.rb, lib/diaspora/web_socket.rb]","[app/controllers/admins_controller.rb, app/controllers/authorizations_controller.rb, app/controllers/invitations_controller.rb, app/helpers/sessions_helper.rb, app/views/aspects/_aspect_stream.haml, app/views/aspects/_no_posts_message.haml, app/views/invitations/edit.html.haml, app/views/services/_remote_friend.html.haml, app/views/users/getting_started.haml]","1","[app/views/sessions/new.haml]","0.041666666666666664"
"2503","[27-08-2011, 28-08-2011, 29-08-2011]","5","14","[e1838729fecac099458f4e9a16db1620ddf6c4f5, 5dcff46d0b9fdca26f1945f251fd5b8e627cf660, b7f9400a9f5507a1cf362b7fd93a937b81bb09af, a618b261f3b42c7594b39dccd06983891a761bdd, 068d3c690d88feea17395b7fa5899268c99c26d1, b60101b9ad472534d727815693ae684c8f66eb99, f0b811473863e7485665299511572d9a2326733e, 3a27d66ee83bb480c495c33159247e93bc37afc0, f2fb431fed57ddf4f0c4db1f477e01dc43a22a35, 802dd989a8c10946acc5bd555e4caf7f30c61a8a, 60c8a0d00bd3f6c9120404bcbb5bfc10f222d2b6, b9dbe0ecdd3fa2794e6a5ef3051ba0fd1d5a18bf, b048d1dd54b3ba8df1217d580f001e2107e4022f, 5b51dde19507c558e44b936cd801237937e0ca96]","4","2","41","6","[app/controllers/activity_streams/photos_controller.rb, app/controllers/home_controller.rb, app/controllers/likes_controller.rb, app/controllers/photos_controller.rb, app/controllers/posts_controller.rb, app/controllers/profiles_controller.rb, app/controllers/tags_controller.rb, app/controllers/users_controller.rb, app/helpers/stream_helper.rb, app/models/activity_streams/photo.rb, app/models/photo.rb, app/models/request.rb, app/models/user.rb, app/views/comments/_comment.html.haml, app/views/comments/_comments.haml, app/views/home/show.html.haml, app/views/home/show.mobile.haml, app/views/likes/_likes_container.haml, app/views/likes/index.html.haml, app/views/people/_index.html.haml, app/views/photos/_index.html.haml, app/views/photos/_new_photo.haml, app/views/photos/_new_profile_photo.haml, app/views/photos/_photo.haml, app/views/photos/edit.html.haml, app/views/photos/show.html.haml, app/views/photos/show.mobile.haml, app/views/posts/_photo.html.haml, app/views/posts/show.html.haml, app/views/posts/show.mobile.haml, app/views/profiles/edit.haml, app/views/reshares/_reshare.haml, app/views/shared/_author_info.html.haml, app/views/shared/_settings_nav.haml, app/views/shared/_stream.haml, app/views/shared/_stream_element.html.haml, app/views/status_messages/_status_message.haml, app/views/tags/_followed_tags_listings.haml, app/views/tags/show.haml, app/views/users/edit.html.haml, lib/diaspora/user.rb]","[app/controllers/aspects_controller.rb, app/views/aspects/_aspect_listings.haml, app/views/aspects/new.haml, app/views/layouts/_header.html.haml, app/views/shared/_aspect_dropdown.html.haml, app/views/users/getting_started.haml]","0.0","0.0","3.0.9","4","[]","27","36","[app/controllers/activity_streams/photos_controller.rb, app/controllers/home_controller.rb, app/controllers/likes_controller.rb, app/controllers/photos_controller.rb, app/controllers/posts_controller.rb, app/controllers/profiles_controller.rb, app/controllers/tags_controller.rb, app/controllers/users_controller.rb, app/helpers/stream_helper.rb, app/views/comments/_comment.html.haml, app/views/comments/_comments.haml, app/views/home/show.html.haml, app/views/home/show.mobile.haml, app/views/likes/_likes_container.haml, app/views/likes/index.html.haml, app/views/people/_index.html.haml, app/views/photos/_index.html.haml, app/views/photos/_new_photo.haml, app/views/photos/_new_profile_photo.haml, app/views/photos/_photo.haml, app/views/photos/edit.html.haml, app/views/photos/show.html.haml, app/views/photos/show.mobile.haml, app/views/posts/_photo.html.haml, app/views/posts/show.html.haml, app/views/posts/show.mobile.haml, app/views/profiles/edit.haml, app/views/reshares/_reshare.haml, app/views/shared/_author_info.html.haml, app/views/shared/_settings_nav.haml, app/views/shared/_stream.haml, app/views/shared/_stream_element.html.haml, app/views/status_messages/_status_message.haml, app/views/tags/_followed_tags_listings.haml, app/views/tags/show.haml, app/views/users/edit.html.haml]","[page, first_name, last_name, has_content?, wait_until, Factory, aspects, create, create!, reload, post, sleep, click_button, silence_warnings, click_link, page, have_content, has_content?, have_no_content, has_no_content?, current_url, path, assert_equal, within, send, person, invitation_token, id, sender, posts, find_by_text, raise, are_you_sure, page, execute_script, evaluate_script, wait_until, find, click]","","[app/views/aspects/_new.haml]","[accept_user_invitation, app/views/home/_show.html.haml, export_photos_user, export_user, getting_started, person, photo_make_profile_photo, post_comment, post_visibility, send]","10","1.434 seconds","false","41","6","[app/controllers/activity_streams/photos_controller.rb, app/controllers/home_controller.rb, app/controllers/likes_controller.rb, app/controllers/photos_controller.rb, app/controllers/posts_controller.rb, app/controllers/profiles_controller.rb, app/controllers/tags_controller.rb, app/controllers/users_controller.rb, app/helpers/stream_helper.rb, app/models/activity_streams/photo.rb, app/models/photo.rb, app/models/request.rb, app/models/user.rb, app/views/comments/_comment.html.haml, app/views/comments/_comments.haml, app/views/home/show.html.haml, app/views/home/show.mobile.haml, app/views/likes/_likes_container.haml, app/views/likes/index.html.haml, app/views/people/_index.html.haml, app/views/photos/_index.html.haml, app/views/photos/_new_photo.haml, app/views/photos/_new_profile_photo.haml, app/views/photos/_photo.haml, app/views/photos/edit.html.haml, app/views/photos/show.html.haml, app/views/photos/show.mobile.haml, app/views/posts/_photo.html.haml, app/views/posts/show.html.haml, app/views/posts/show.mobile.haml, app/views/profiles/edit.haml, app/views/reshares/_reshare.haml, app/views/shared/_author_info.html.haml, app/views/shared/_settings_nav.haml, app/views/shared/_stream.haml, app/views/shared/_stream_element.html.haml, app/views/status_messages/_status_message.haml, app/views/tags/_followed_tags_listings.haml, app/views/tags/show.haml, app/views/users/edit.html.haml, lib/diaspora/user.rb]","[app/controllers/aspects_controller.rb, app/views/aspects/_aspect_listings.haml, app/views/aspects/new.haml, app/views/layouts/_header.html.haml, app/views/shared/_aspect_dropdown.html.haml, app/views/users/getting_started.haml]","0","[]","0.0"
"2615","[02-07-2011]","4","24","[f161377480c6109a356253052cfc4fc016ce0203, 24d84d7756fa4c6d8a3f39bef6f5771f2dff023f, 689bde2e5f763dd27fe583bdb3ed26719697ae74, 86c06c4d1530480283f36f79d22fa9266ea96ff4, 6b46d69b658f9bce9cbe51ae42dfc235b658434e, 98799b3971d417b3fb3ab4b6cd32056bbb6a3c19, 290fb1e7f5994a984c4b13dff5750d20f13f50eb, 7baeaebe57c743e0372028820b268c56fad1c8ab, a36bd9897fa6c81c2a6fedab95f8ae60c9e33bd6, f4ca8898f6b36a862182615ccc7e15cd322cb402, 2d9d9bd1a1d7c1f035e81ad978fb72edd5831726, 696779d5897ffa2e39ab13b5f9a552ab90632194, dd752d7dd93751e561f14ed7480359a3a64b2b4e, 7f552799624a3b229d8a3bc9173993effce8f144, bc5d29bff333f262b2788d2ff587f2f0ef729a32, 757b87e994d6e8c9840b76671829e8a6dcefa543, 64898c522e91740bb110a868cfaf5a6aaa588275, de8e750b0dcf3c8b8a779e4408ecdd3bc9ca6257, 3baf433b3a4be611d58a12952c1ccf42b9c596d6, ac832f160cb697ccd010e352a6038cca4aff040a, 7ccaf54e701f352b2a9f09da4e2d936bc7b115be, 11e5057e520f50ac029eeb814b65191d977263ce, 49d905c719ffbacb51fad3f3c33e9dfbcebe7c71, 7a800a64622c03d17522bb6a769fecd1e2cb41b3]","4","1","53","27","[app/controllers/activity_streams/photos_controller.rb, app/controllers/aspects_controller.rb, app/controllers/conversations_controller.rb, app/controllers/home_controller.rb, app/controllers/people_controller.rb, app/controllers/photos_controller.rb, app/controllers/profiles_controller.rb, app/controllers/services_controller.rb, app/controllers/status_messages_controller.rb, app/controllers/tags_controller.rb, app/controllers/users_controller.rb, app/helpers/application_helper.rb, app/helpers/stream_helper.rb, app/models/activity_streams/photo.rb, app/models/contact.rb, app/models/conversation.rb, app/models/invitation.rb, app/models/photo.rb, app/models/request.rb, app/models/user.rb, app/views/aspect_memberships/_aspect_dropdown.html.haml, app/views/aspects/new.haml, app/views/comments/_comment.html.haml, app/views/comments/_comments.haml, app/views/conversations/new.haml, app/views/home/show.html.haml, app/views/home/show.mobile.haml, app/views/likes/_likes.haml, app/views/people/_index.html.haml, app/views/people/_profile_sidebar.html.haml, app/views/people/show.html.haml, app/views/people/show.mobile.haml, app/views/photos/_index.html.haml, app/views/photos/_new_photo.haml, app/views/photos/_new_profile_photo.haml, app/views/photos/_photo.haml, app/views/photos/edit.html.haml, app/views/photos/show.html.haml, app/views/photos/show.mobile.haml, app/views/profiles/edit.html.haml, app/views/services/index.html.haml, app/views/shared/_add_remove_services.haml, app/views/shared/_author_info.html.haml, app/views/shared/_public_explain.haml, app/views/shared/_publisher.html.haml, app/views/shared/_settings_nav.haml, app/views/shared/_stream.haml, app/views/status_messages/new.haml, app/views/tags/show.haml, app/views/users/edit.html.haml, lib/diaspora/user.rb, lib/diaspora/user/connecting.rb, lib/fake.rb]","[app/controllers/aspects_controller.rb, app/models/jobs/base.rb, app/models/jobs/delete_account.rb, app/models/jobs/http_multi.rb, app/models/jobs/http_post.rb, app/models/jobs/invite_user_by_email.rb, app/models/jobs/mail_also_commented.rb, app/models/jobs/mail_comment_on_post.rb, app/models/jobs/mail_liked.rb, app/models/jobs/mail_mentioned.rb, app/models/jobs/mail_private_message.rb, app/models/jobs/mail_started_sharing.rb, app/models/jobs/notify_local_users.rb, app/models/jobs/post_to_service.rb, app/models/jobs/process_photo.rb, app/models/jobs/publish_to_hub.rb, app/models/jobs/receive_local_batch.rb, app/models/jobs/receive_salmon.rb, app/models/jobs/resend_invitation.rb, app/models/jobs/socket_webfinger.rb, app/models/jobs/update_service_users.rb, app/views/aspects/_aspect_listings.haml, app/views/aspects/_selected_contacts.html.haml, app/views/aspects/index.html.haml, app/views/people/show.html.haml, app/views/shared/_publisher.html.haml, app/views/shared/_stream_element.html.haml]","0.0566037736","0.1111111111","3.0.3","2","[]","30","43","[app/controllers/activity_streams/photos_controller.rb, app/controllers/aspects_controller.rb, app/controllers/conversations_controller.rb, app/controllers/home_controller.rb, app/controllers/people_controller.rb, app/controllers/photos_controller.rb, app/controllers/profiles_controller.rb, app/controllers/services_controller.rb, app/controllers/status_messages_controller.rb, app/controllers/tags_controller.rb, app/controllers/users_controller.rb, app/helpers/application_helper.rb, app/helpers/stream_helper.rb, app/views/aspect_memberships/_aspect_dropdown.html.haml, app/views/aspects/new.haml, app/views/comments/_comment.html.haml, app/views/comments/_comments.haml, app/views/conversations/new.haml, app/views/home/show.html.haml, app/views/home/show.mobile.haml, app/views/likes/_likes.haml, app/views/people/_index.html.haml, app/views/people/_profile_sidebar.html.haml, app/views/people/show.html.haml, app/views/people/show.mobile.haml, app/views/photos/_index.html.haml, app/views/photos/_new_photo.haml, app/views/photos/_new_profile_photo.haml, app/views/photos/_photo.haml, app/views/photos/edit.html.haml, app/views/photos/show.html.haml, app/views/photos/show.mobile.haml, app/views/profiles/edit.html.haml, app/views/services/index.html.haml, app/views/shared/_add_remove_services.haml, app/views/shared/_author_info.html.haml, app/views/shared/_public_explain.haml, app/views/shared/_publisher.html.haml, app/views/shared/_settings_nav.haml, app/views/shared/_stream.haml, app/views/status_messages/new.haml, app/views/tags/show.haml, app/views/users/edit.html.haml]","[Factory, aspects, invite_user, create!, reload, connect_users_with_aspects, username, post, aspects, where, count, to_i, to_i, person, times, person, Factory, photos, aspects, sleep, click_button, silence_warnings, sleep, click_button, silence_warnings, click_link, rows_hash, each, page, have_content, has_content?, have_no_content, has_no_content?, current_url, path, assert_equal, within, send, person, invitation_token, sender, posts, find_by_text, raise, are_you_sure, services.index.really_disconnect, find, click, evaluate_script, wait_until, evaluate_script, sleep, within, page, diaspora_handle, has_content?, wait_until]","","[app/views/shared/_reshare.haml]","[accept_user_invitation, app/views/home/_show.html.haml, aspects_manage, export_photos_user, export_user, getting_started, person_contacts, photo_make_profile_photo, send]","9","1.717 seconds","true","50","24","[app/controllers/activity_streams/photos_controller.rb, app/controllers/conversations_controller.rb, app/controllers/home_controller.rb, app/controllers/people_controller.rb, app/controllers/photos_controller.rb, app/controllers/profiles_controller.rb, app/controllers/services_controller.rb, app/controllers/status_messages_controller.rb, app/controllers/tags_controller.rb, app/controllers/users_controller.rb, app/helpers/application_helper.rb, app/helpers/stream_helper.rb, app/models/activity_streams/photo.rb, app/models/contact.rb, app/models/conversation.rb, app/models/invitation.rb, app/models/photo.rb, app/models/request.rb, app/models/user.rb, app/views/aspect_memberships/_aspect_dropdown.html.haml, app/views/aspects/new.haml, app/views/comments/_comment.html.haml, app/views/comments/_comments.haml, app/views/conversations/new.haml, app/views/home/show.html.haml, app/views/home/show.mobile.haml, app/views/likes/_likes.haml, app/views/people/_index.html.haml, app/views/people/_profile_sidebar.html.haml, app/views/people/show.mobile.haml, app/views/photos/_index.html.haml, app/views/photos/_new_photo.haml, app/views/photos/_new_profile_photo.haml, app/views/photos/_photo.haml, app/views/photos/edit.html.haml, app/views/photos/show.html.haml, app/views/photos/show.mobile.haml, app/views/profiles/edit.html.haml, app/views/services/index.html.haml, app/views/shared/_add_remove_services.haml, app/views/shared/_author_info.html.haml, app/views/shared/_public_explain.haml, app/views/shared/_settings_nav.haml, app/views/shared/_stream.haml, app/views/status_messages/new.haml, app/views/tags/show.haml, app/views/users/edit.html.haml, lib/diaspora/user.rb, lib/diaspora/user/connecting.rb, lib/fake.rb]","[app/models/jobs/base.rb, app/models/jobs/delete_account.rb, app/models/jobs/http_multi.rb, app/models/jobs/http_post.rb, app/models/jobs/invite_user_by_email.rb, app/models/jobs/mail_also_commented.rb, app/models/jobs/mail_comment_on_post.rb, app/models/jobs/mail_liked.rb, app/models/jobs/mail_mentioned.rb, app/models/jobs/mail_private_message.rb, app/models/jobs/mail_started_sharing.rb, app/models/jobs/notify_local_users.rb, app/models/jobs/post_to_service.rb, app/models/jobs/process_photo.rb, app/models/jobs/publish_to_hub.rb, app/models/jobs/receive_local_batch.rb, app/models/jobs/receive_salmon.rb, app/models/jobs/resend_invitation.rb, app/models/jobs/socket_webfinger.rb, app/models/jobs/update_service_users.rb, app/views/aspects/_aspect_listings.haml, app/views/aspects/_selected_contacts.html.haml, app/views/aspects/index.html.haml, app/views/shared/_stream_element.html.haml]","3","[app/controllers/aspects_controller.rb, app/views/people/show.html.haml, app/views/shared/_publisher.html.haml]","0.09316770186528298"
"2539","[31-07-2011]","1","1","[ba98043412d288a1089392649613409ed59d41cf]","3","4","9","1","[app/controllers/home_controller.rb, app/models/aspect.rb, app/models/conversation.rb, app/models/user.rb, app/views/home/show.html.haml, app/views/home/show.mobile.haml, lib/diaspora/user.rb, lib/diaspora/user/querying.rb, lib/fake.rb]","[app/views/photos/_new_photo.haml]","0.0","0.0","3.0.9","1","[]","2","3","[app/controllers/home_controller.rb, app/views/home/show.html.haml, app/views/home/show.mobile.haml]","[page, execute_script, find, include, page, execute_script, evaluate_script, wait_until, evaluate_script, be_nil, Factory, aspects, aspects, create!, reload, person, find_by_name, connect_users, fill_in, within]","","[]","[app/views/home/_show.html.haml, send]","2","0.400 seconds","false","9","1","[app/controllers/home_controller.rb, app/models/aspect.rb, app/models/conversation.rb, app/models/user.rb, app/views/home/show.html.haml, app/views/home/show.mobile.haml, lib/diaspora/user.rb, lib/diaspora/user/querying.rb, lib/fake.rb]","[app/views/photos/_new_photo.haml]","0","[]","0.0"
"2545","[01-08-2011]","3","5","[2a0df9841a0b378149c859b7536e7b916b6f734f, 31ea1227a43e23ecf8cf70a0ec9fd72e3ec0424b, 6daf7f5ad9f5acc0cf0be5fe76ed0f5e85ea23ec, 756a20ecd4d3b7342605026489f6be2334c47e2c, 3d88095ba2f934be92263275e3206b2cbfd47786]","3","0","6","6","[app/controllers/home_controller.rb, app/models/aspect_membership.rb, app/models/contact.rb, app/views/home/show.html.haml, app/views/home/show.mobile.haml, lib/fake.rb]","[app/helpers/application_helper.rb, app/views/aspects/_aspect_stream.haml, app/views/aspects/_no_posts_message.haml, app/views/aspects/_selected_contacts.html.haml, app/views/layouts/_header.html.haml, lib/rake_helpers.rb]","0.0","0.0","3.0.9","1","[]","2","3","[app/controllers/home_controller.rb, app/views/home/show.html.haml, app/views/home/show.mobile.haml]","[page, diaspora_handle, has_content?, wait_until, to_i, contacts, count, times, id, each, aspects, click_link, page, have_content, has_content?, have_no_content, has_no_content?, within]","","[]","[app/views/home/_show.html.haml, send]","2","0.321 seconds","false","6","6","[app/controllers/home_controller.rb, app/models/aspect_membership.rb, app/models/contact.rb, app/views/home/show.html.haml, app/views/home/show.mobile.haml, lib/fake.rb]","[app/helpers/application_helper.rb, app/views/aspects/_aspect_stream.haml, app/views/aspects/_no_posts_message.haml, app/views/aspects/_selected_contacts.html.haml, app/views/layouts/_header.html.haml, lib/rake_helpers.rb]","0","[]","0.0"
"2566","[27-07-2011]","2","4","[7b572bf40b27995df146ab251f79faf714fe3d14, 73f96273385e1f0cb325ce27c506de021af3547e, e8bde11a92a17eb9578762589be30511f7f07c70, d94f806a50aa505aaff18ed44f3341dad26518d4]","3","0","43","1","[app/controllers/activity_streams/photos_controller.rb, app/controllers/home_controller.rb, app/controllers/likes_controller.rb, app/controllers/photos_controller.rb, app/controllers/posts_controller.rb, app/controllers/profiles_controller.rb, app/controllers/tags_controller.rb, app/controllers/users_controller.rb, app/helpers/stream_helper.rb, app/models/activity_streams/photo.rb, app/models/aspect.rb, app/models/conversation.rb, app/models/photo.rb, app/models/request.rb, app/models/status_message.rb, app/models/user.rb, app/views/comments/_comment.html.haml, app/views/comments/_comments.haml, app/views/home/show.html.haml, app/views/home/show.mobile.haml, app/views/likes/_likes_container.haml, app/views/likes/index.html.haml, app/views/people/_index.html.haml, app/views/photos/_index.html.haml, app/views/photos/_new_photo.haml, app/views/photos/_new_profile_photo.haml, app/views/photos/_photo.haml, app/views/photos/edit.html.haml, app/views/photos/show.html.haml, app/views/photos/show.mobile.haml, app/views/posts/show.html.haml, app/views/posts/show.mobile.haml, app/views/profiles/edit.html.haml, app/views/reshares/_reshare.haml, app/views/shared/_author_info.html.haml, app/views/shared/_settings_nav.haml, app/views/shared/_stream.haml, app/views/shared/_stream_element.html.haml, app/views/status_messages/_status_message.haml, app/views/tags/show.haml, app/views/users/edit.html.haml, lib/diaspora/user.rb, lib/fake.rb]","[app/views/aspects/index.html.haml]","0.0","0.0","3.0.9","2","[{path=diaspora_diaspora/features/step_definitions/user_steps.rb, line=-1}]","25","34","[app/controllers/activity_streams/photos_controller.rb, app/controllers/home_controller.rb, app/controllers/likes_controller.rb, app/controllers/photos_controller.rb, app/controllers/posts_controller.rb, app/controllers/profiles_controller.rb, app/controllers/tags_controller.rb, app/controllers/users_controller.rb, app/helpers/stream_helper.rb, app/views/comments/_comment.html.haml, app/views/comments/_comments.haml, app/views/home/show.html.haml, app/views/home/show.mobile.haml, app/views/likes/_likes_container.haml, app/views/likes/index.html.haml, app/views/people/_index.html.haml, app/views/photos/_index.html.haml, app/views/photos/_new_photo.haml, app/views/photos/_new_profile_photo.haml, app/views/photos/_photo.haml, app/views/photos/edit.html.haml, app/views/photos/show.html.haml, app/views/photos/show.mobile.haml, app/views/posts/show.html.haml, app/views/posts/show.mobile.haml, app/views/profiles/edit.html.haml, app/views/reshares/_reshare.haml, app/views/shared/_author_info.html.haml, app/views/shared/_settings_nav.haml, app/views/shared/_stream.haml, app/views/shared/_stream_element.html.haml, app/views/status_messages/_status_message.haml, app/views/tags/show.haml, app/views/users/edit.html.haml]","[page, diaspora_handle, has_content?, wait_until, password, within, page, evaluate_script, page, has_css?, be_true, wait_until, within, sleep, click_button, silence_warnings, click_link, click_link, click_link, fill_in, have_content, has_content?, current_url, path, assert_equal, within, send, person, invitation_token, sender, posts, find_by_text, raise, are_you_sure, Factory, profile, update_attributes, aspects, connect_users, deliveries, body, blank?, html_part, raw_source, Nokogiri, css, detect, attributes, request_uri, reload, aspects, post]","","[]","[accept_user_invitation, app/views/home/_show.html.haml, export_photos_user, export_user, getting_started, person, photo_make_profile_photo, post_visibility, send]","9","1.812 seconds","false","43","1","[app/controllers/activity_streams/photos_controller.rb, app/controllers/home_controller.rb, app/controllers/likes_controller.rb, app/controllers/photos_controller.rb, app/controllers/posts_controller.rb, app/controllers/profiles_controller.rb, app/controllers/tags_controller.rb, app/controllers/users_controller.rb, app/helpers/stream_helper.rb, app/models/activity_streams/photo.rb, app/models/aspect.rb, app/models/conversation.rb, app/models/photo.rb, app/models/request.rb, app/models/status_message.rb, app/models/user.rb, app/views/comments/_comment.html.haml, app/views/comments/_comments.haml, app/views/home/show.html.haml, app/views/home/show.mobile.haml, app/views/likes/_likes_container.haml, app/views/likes/index.html.haml, app/views/people/_index.html.haml, app/views/photos/_index.html.haml, app/views/photos/_new_photo.haml, app/views/photos/_new_profile_photo.haml, app/views/photos/_photo.haml, app/views/photos/edit.html.haml, app/views/photos/show.html.haml, app/views/photos/show.mobile.haml, app/views/posts/show.html.haml, app/views/posts/show.mobile.haml, app/views/profiles/edit.html.haml, app/views/reshares/_reshare.haml, app/views/shared/_author_info.html.haml, app/views/shared/_settings_nav.haml, app/views/shared/_stream.haml, app/views/shared/_stream_element.html.haml, app/views/status_messages/_status_message.haml, app/views/tags/show.haml, app/views/users/edit.html.haml, lib/diaspora/user.rb, lib/fake.rb]","[app/views/aspects/index.html.haml]","0","[]","0.0"
"2511","[20-08-2011, 21-08-2011]","5","11","[cad14bcdfc09237b86ebd7cf7b1cca966828a8fd, b772b8354dad6dcc4e05a7796a1c8217a5c87bae, 163ac103cd8fe17789c56577fdccdee49864f51a, 4ccb5f778add572b3edfaad43e01dfba67271ebd, c39e8bb64f712d798661655d03e26c9707f0ff5a, bd3683d0d19ba1a61a313330e8fc815a0cda983b, 395df041dbf04d30073de77400c62cf724b5d2da, 2a52face1202692e1b9697c3ddd81026b7c94c9d, 50f32ce5ac5949bdfdc5026e5abb1507f6ec84f7, 1b5698c1f5c94b455cf57ff29bfd75426e8060e2, e5391c1d21845787d1be06a1ca9f352d81cb479e]","2","1","2","2","[app/models/user.rb, lib/diaspora/user.rb]","[app/views/people/_sub_header.html.haml, app/views/shared/_stream_element.html.haml]","0.0","0.0","3.0.9","0","[]","0","0","[]","[find, be_nil, within, page, have_content, has_content?, have_no_content, has_no_content?, Factory, aspects, create, profile, update_attributes, aspects, connect_users]","","[]","","0","0.191 seconds","true","2","2","[app/models/user.rb, lib/diaspora/user.rb]","[app/views/people/_sub_header.html.haml, app/views/shared/_stream_element.html.haml]","0","[]","0.0"
"2547","[30-07-2011, 31-07-2011]","2","3","[790c74d1a63e1b7f366b54b71cd85f3bac066470, b7b1c6b2769df2d1674fdceb21b02ea5c28244a3, 1a350c16fdd66e0e04221fffd9123cdcc7c7497c]","2","0","42","1","[app/controllers/activity_streams/photos_controller.rb, app/controllers/home_controller.rb, app/controllers/likes_controller.rb, app/controllers/photos_controller.rb, app/controllers/posts_controller.rb, app/controllers/profiles_controller.rb, app/controllers/tags_controller.rb, app/controllers/users_controller.rb, app/helpers/stream_helper.rb, app/models/activity_streams/photo.rb, app/models/conversation.rb, app/models/invitation.rb, app/models/photo.rb, app/models/request.rb, app/models/user.rb, app/views/comments/_comment.html.haml, app/views/comments/_comments.haml, app/views/home/show.html.haml, app/views/home/show.mobile.haml, app/views/likes/_likes_container.haml, app/views/likes/index.html.haml, app/views/people/_index.html.haml, app/views/photos/_index.html.haml, app/views/photos/_new_photo.haml, app/views/photos/_new_profile_photo.haml, app/views/photos/_photo.haml, app/views/photos/edit.html.haml, app/views/photos/show.html.haml, app/views/photos/show.mobile.haml, app/views/posts/show.html.haml, app/views/posts/show.mobile.haml, app/views/profiles/edit.html.haml, app/views/reshares/_reshare.haml, app/views/shared/_author_info.html.haml, app/views/shared/_settings_nav.haml, app/views/shared/_stream.haml, app/views/shared/_stream_element.html.haml, app/views/status_messages/_status_message.haml, app/views/tags/show.haml, app/views/users/edit.html.haml, lib/diaspora/user.rb, lib/fake.rb]","[lib/i18n_interpolation_fallbacks.rb]","0.0","0.0","3.0.9","1","[]","25","34","[app/controllers/activity_streams/photos_controller.rb, app/controllers/home_controller.rb, app/controllers/likes_controller.rb, app/controllers/photos_controller.rb, app/controllers/posts_controller.rb, app/controllers/profiles_controller.rb, app/controllers/tags_controller.rb, app/controllers/users_controller.rb, app/helpers/stream_helper.rb, app/views/comments/_comment.html.haml, app/views/comments/_comments.haml, app/views/home/show.html.haml, app/views/home/show.mobile.haml, app/views/likes/_likes_container.haml, app/views/likes/index.html.haml, app/views/people/_index.html.haml, app/views/photos/_index.html.haml, app/views/photos/_new_photo.haml, app/views/photos/_new_profile_photo.haml, app/views/photos/_photo.haml, app/views/photos/edit.html.haml, app/views/photos/show.html.haml, app/views/photos/show.mobile.haml, app/views/posts/show.html.haml, app/views/posts/show.mobile.haml, app/views/profiles/edit.html.haml, app/views/reshares/_reshare.haml, app/views/shared/_author_info.html.haml, app/views/shared/_settings_nav.haml, app/views/shared/_stream.haml, app/views/shared/_stream_element.html.haml, app/views/status_messages/_status_message.haml, app/views/tags/show.haml, app/views/users/edit.html.haml]","[Factory, aspects, invite_user, sleep, click_button, silence_warnings, sleep, click_button, silence_warnings, click_link, rows_hash, each, page, have_content, has_content?, have_no_content, has_no_content?, current_url, path, assert_equal, within, send, person, invitation_token, sender, posts, find_by_text, raise, are_you_sure]","","[]","[accept_user_invitation, app/views/home/_show.html.haml, export_photos_user, export_user, getting_started, person, photo_make_profile_photo, post_visibility]","8","1.616 seconds","false","42","1","[app/controllers/activity_streams/photos_controller.rb, app/controllers/home_controller.rb, app/controllers/likes_controller.rb, app/controllers/photos_controller.rb, app/controllers/posts_controller.rb, app/controllers/profiles_controller.rb, app/controllers/tags_controller.rb, app/controllers/users_controller.rb, app/helpers/stream_helper.rb, app/models/activity_streams/photo.rb, app/models/conversation.rb, app/models/invitation.rb, app/models/photo.rb, app/models/request.rb, app/models/user.rb, app/views/comments/_comment.html.haml, app/views/comments/_comments.haml, app/views/home/show.html.haml, app/views/home/show.mobile.haml, app/views/likes/_likes_container.haml, app/views/likes/index.html.haml, app/views/people/_index.html.haml, app/views/photos/_index.html.haml, app/views/photos/_new_photo.haml, app/views/photos/_new_profile_photo.haml, app/views/photos/_photo.haml, app/views/photos/edit.html.haml, app/views/photos/show.html.haml, app/views/photos/show.mobile.haml, app/views/posts/show.html.haml, app/views/posts/show.mobile.haml, app/views/profiles/edit.html.haml, app/views/reshares/_reshare.haml, app/views/shared/_author_info.html.haml, app/views/shared/_settings_nav.haml, app/views/shared/_stream.haml, app/views/shared/_stream_element.html.haml, app/views/status_messages/_status_message.haml, app/views/tags/show.haml, app/views/users/edit.html.haml, lib/diaspora/user.rb, lib/fake.rb]","[lib/i18n_interpolation_fallbacks.rb]","0","[]","0.0"
"2495","[30-08-2011, 31-08-2011]","1","4","[624e7277e8edc6f64d19ead39b00d79d81fb6db9, 7e20cece42e97f365631eb74ee0d3f87f43e9dec, f788de17fd7e02be0fbe6b5d361a6140b23aac50, dc947e449b7b4a3724fc858c4262212cdd37be62]","1","0","2","2","[app/models/user.rb, lib/diaspora/user.rb]","[app/views/comments/_comments.haml, app/views/likes/_likes_container.haml]","0.0","0.0","3.0.9","1","[]","0","0","[]","[sleep, click_button, silence_warnings, click_link, fill_in, page, have_content, has_content?, within, find, click, evaluate_script, wait_until, profile, update_attributes!, aspects, create!, connect_users, person, Factory, photos, aspects]","","[]","[person]","1","0.243 seconds","false","2","2","[app/models/user.rb, lib/diaspora/user.rb]","[app/views/comments/_comments.haml, app/views/likes/_likes_container.haml]","0","[]","0.0"
"2512","[11-08-2011]","1","1","[2e9040e2278c2570585ece04fa711897858386d2]","1","0","3","6","[app/models/conversation.rb, app/models/user.rb, lib/diaspora/user.rb]","[app/controllers/comments_controller.rb, app/views/comments/_comment.html.haml, app/views/layouts/application.html.haml, app/views/layouts/application.mobile.haml, app/views/status_messages/bookmarklet.html.haml, app/views/users/getting_started.haml]","0.0","0.0","3.0.9","1","[]","0","0","[]","[sleep, click_button, silence_warnings, fill_in, page, have_content, has_content?, have_no_content, has_no_content?, within, find, click, page, execute_script, evaluate_script, wait_until, to_i, Factory, profile, update_attributes, aspects, connect_users, person, Factory, photos, aspects]","","[app/views/layouts/_debug.haml, app/views/requests/_manage_aspect_contacts.haml, app/views/shared/_add_contact.html.haml]","[person]","1","0.237 seconds","false","3","6","[app/models/conversation.rb, app/models/user.rb, lib/diaspora/user.rb]","[app/controllers/comments_controller.rb, app/views/comments/_comment.html.haml, app/views/layouts/application.html.haml, app/views/layouts/application.mobile.haml, app/views/status_messages/bookmarklet.html.haml, app/views/users/getting_started.haml]","0","[]","0.0"
"2513","[18-08-2011, 19-08-2011, 20-08-2011]","5","21","[f1cf81772b54efdc371a80daf0ea6d19e183527e, 234af2a15b88427fe08ad475e737c0692a953243, a74080e27d676b7a08052d312c334a7d23460ac1, a5ab8a80d8777a94b6ab067c4794647759f625e9, 735a37ffe02b91bad7a5897401ee05936f852216, bb5ada6533abec59a93f0415ce14e71422994444, e4062bf5fd03481f1e4a21da034120f1d9c23701, 70fe2cf10fbb37f01394da5f6684c355a693fd97, 32368a16dd9258859589699369d4a107d11b1fde, 834c75894c1e36016469991e719535193d2cc8aa, e100032244fec9de9cd143bead7a3e36bc8b30f3, 3cee58939717e1bcc5c2e39118877f0e04669412, fe78a69161897efdb555142f18ae8751cf694e0d, 6f20e11a676e96bc64a2c21025892d2cd4116760, f2e25c5fc56aea2d826e6a1b7b0e0bc5114b8ee9, 96d183a041d6a9fe9b0956895c80e83021ecf725, ecf38305b494306b59db3bdf4e7edd9f50287861, 3d7297ba5e18a08beda30f7659a0b4462e357c50, 6beeecefd8a7e24e0ca66755af9bf077f28433e3, 2c47262d5432744848da6ae0e738346ec42b6bc6, c3bcb9c9621fc21cc038d56a88d0d284a5208b92]","1","2","6","26","[app/controllers/home_controller.rb, app/models/user.rb, app/views/home/show.html.haml, app/views/home/show.mobile.haml, lib/diaspora/user.rb, lib/diaspora/user/querying.rb]","[app/controllers/invitations_controller.rb, app/controllers/people_controller.rb, app/controllers/services_controller.rb, app/helpers/aspect_global_helper.rb, app/helpers/notifier_helper.rb, app/mailers/diaspora_devise_mailer.rb, app/models/invitation.rb, app/models/message.rb, app/models/service_user.rb, app/views/aspects/_aspect_stream.haml, app/views/aspects/index.mobile.haml, app/views/contacts/sharing.haml, app/views/conversations/_show.haml, app/views/devise/mailer/_inviter.erb, app/views/devise/mailer/invitation_instructions.erb, app/views/layouts/application.html.haml, app/views/notifications/index.html.haml, app/views/people/_aspect_membership_dropdown.haml, app/views/people/_relationship_action.haml, app/views/people/_sub_header.html.haml, app/views/services/_remote_friend.html.haml, app/views/services/finder.html.haml, app/views/shared/_aspect_dropdown.html.haml, app/views/shared/_publisher.html.haml, app/views/status_messages/bookmarklet.html.haml, app/views/status_messages/new.haml]","0.0","0.0","3.0.9","3","[]","2","3","[app/controllers/home_controller.rb, app/views/home/show.html.haml, app/views/home/show.mobile.haml]","[click_link, page, have_content, has_content?, have_no_content, has_no_content?, within, find, click, aspects, where, id, find, click, evaluate_script, wait_until, page, execute_script, Factory, aspects, create, aspects, create!, reload, person, find_by_name, connect_users]","","[app/views/aspect_memberships/_aspect_dropdown.html.haml, app/views/aspect_memberships/_aspect_dropdown_list_item.haml, app/views/devise/mailer/_batch_invites.erb, app/views/devise/mailer/_inviters.haml, app/views/devise/mailer/invitation_instructions.haml]","[app/views/home/_show.html.haml, person, send]","3","0.629 seconds","true","6","26","[app/controllers/home_controller.rb, app/models/user.rb, app/views/home/show.html.haml, app/views/home/show.mobile.haml, lib/diaspora/user.rb, lib/diaspora/user/querying.rb]","[app/controllers/invitations_controller.rb, app/controllers/people_controller.rb, app/controllers/services_controller.rb, app/helpers/aspect_global_helper.rb, app/helpers/notifier_helper.rb, app/mailers/diaspora_devise_mailer.rb, app/models/invitation.rb, app/models/message.rb, app/models/service_user.rb, app/views/aspects/_aspect_stream.haml, app/views/aspects/index.mobile.haml, app/views/contacts/sharing.haml, app/views/conversations/_show.haml, app/views/devise/mailer/_inviter.erb, app/views/devise/mailer/invitation_instructions.erb, app/views/layouts/application.html.haml, app/views/notifications/index.html.haml, app/views/people/_aspect_membership_dropdown.haml, app/views/people/_relationship_action.haml, app/views/people/_sub_header.html.haml, app/views/services/_remote_friend.html.haml, app/views/services/finder.html.haml, app/views/shared/_aspect_dropdown.html.haml, app/views/shared/_publisher.html.haml, app/views/status_messages/bookmarklet.html.haml, app/views/status_messages/new.haml]","0","[]","0.0"
"2514","[18-08-2011]","1","1","[a407f124636e234a5217fc6b5e2a24c3acc91c2e]","1","0","6","14","[app/controllers/home_controller.rb, app/models/user.rb, app/views/home/show.html.haml, app/views/home/show.mobile.haml, lib/diaspora/user.rb, lib/diaspora/user/querying.rb]","[app/controllers/people_controller.rb, app/helpers/aspect_global_helper.rb, app/views/aspect_memberships/_aspect_dropdown.html.haml, app/views/aspect_memberships/_aspect_dropdown_list_item.haml, app/views/aspects/_aspect_stream.haml, app/views/aspects/index.mobile.haml, app/views/contacts/sharing.haml, app/views/notifications/index.html.haml, app/views/people/_relationship_action.haml, app/views/people/_sub_header.html.haml, app/views/services/_remote_friend.html.haml, app/views/shared/_publisher.html.haml, app/views/status_messages/bookmarklet.html.haml, app/views/status_messages/new.haml]","0.0","0.0","3.0.9","3","[]","2","3","[app/controllers/home_controller.rb, app/views/home/show.html.haml, app/views/home/show.mobile.haml]","[click_link, page, have_content, has_content?, have_no_content, has_no_content?, within, evaluate_script, wait_until, page, execute_script, Factory, aspects, create, aspects, create!, reload, person, find_by_name, connect_users]","","[app/views/people/_aspect_membership_dropdown.haml, app/views/shared/_aspect_dropdown.html.haml]","[app/views/home/_show.html.haml, person, send]","3","0.366 seconds","false","6","14","[app/controllers/home_controller.rb, app/models/user.rb, app/views/home/show.html.haml, app/views/home/show.mobile.haml, lib/diaspora/user.rb, lib/diaspora/user/querying.rb]","[app/controllers/people_controller.rb, app/helpers/aspect_global_helper.rb, app/views/aspect_memberships/_aspect_dropdown.html.haml, app/views/aspect_memberships/_aspect_dropdown_list_item.haml, app/views/aspects/_aspect_stream.haml, app/views/aspects/index.mobile.haml, app/views/contacts/sharing.haml, app/views/notifications/index.html.haml, app/views/people/_relationship_action.haml, app/views/people/_sub_header.html.haml, app/views/services/_remote_friend.html.haml, app/views/shared/_publisher.html.haml, app/views/status_messages/bookmarklet.html.haml, app/views/status_messages/new.haml]","0","[]","0.0"
"2519","[16-08-2011, 17-08-2011, 18-08-2011]","5","29","[c7331230bcff3b0d7cc869ea1618af2ff5e6343d, b11bd23da24544193bbb24ded5f03a8c9b4e00c2, 0473037d1ba8ba8d257121316dfb5fad9c89f7f0, 7969b52035fd709c6b14d87a9f658b5d940b1206, a6eb275c7acc93cc42bc1a4e365d111ab516ff83, 2c6559357904dbcb2646e8598f55a01e6047f41d, f3932132d33109608ee851b66d4f1e953e53e3ae, fca2be5c5d1cac4cfc5ba2c27d357e1a33074736, 419707412adde75e634ef0e18c58d2867221607a, 2d54d9a97e408de3f64be8e180e396dc1a4973a2, 8231ce22395245f5e271ed834d32dbf5efcc9ce1, a99e69edd64218431296f448505ec69d9cb90235, 57ee4cd8a93286d8291395af582e846b94b88054, ad1b122e20f2fea7116617dcc38d0794a8df9076, e0fb8a08cba45b4042e5a0a7d19145112ec4aa08, 4ed684491d8a8f22bd318c6acea8140d2982d8c2, 19eb5498893b91688d4920167de2d326779d2a9e, e039aabeeffc3c7cce6f6808915d5875fb33a9c0, eb8c540ac116d96880cff29d6b54d64413db441a, cc6618d294741b267345c19599a9c09dfb7f67c8, 159fce3ef2955234d500ed56b8fdb6d800e69535, bf0eb3dac3c0d1aae94c025777ba10bcc3c5acb7, 4d4d11b90b0225f6b3af1f683482d46d3548df8a, 1da481d3628427b33677aae94e3c3879092264af, 88b317f0c132373abbe7852918b8638a4326d383, 97ab077e04a11765c6dbc849d44922ea2c65f20a, a5d9d6d212d5793af21b13587e5c895f6016b628, f2e079f53240a406650c8d0fdd21ff7abec1408b, 25752e9f93a48bdeb292438208bba0e51f6fed0c]","1","2","3","22","[app/models/invitation.rb, app/models/user.rb, lib/diaspora/user.rb]","[app/controllers/admins_controller.rb, app/controllers/comments_controller.rb, app/controllers/conversations_controller.rb, app/controllers/invitations_controller.rb, app/controllers/messages_controller.rb, app/controllers/notifications_controller.rb, app/controllers/services_controller.rb, app/helpers/notifications_helper.rb, app/models/invitation.rb, app/models/job/http_multi.rb, app/models/job/mail/invite_user_by_email.rb, app/models/job/receive_local_batch.rb, app/models/job/resend_invitation.rb, app/models/message.rb, app/models/person.rb, app/models/service_user.rb, app/models/services/facebook.rb, app/models/user.rb, app/uploaders/processed_image.rb, app/uploaders/unprocessed_image.rb, app/views/devise/mailer/invitation_instructions.haml, lib/rake_helpers.rb]","0.6666666667","0.0909090909","3.0.9","0","[]","0","0","[]","[page, have_no_content, has_no_content?, within, Factory, aspects, create, profile, update_attributes, aspects, connect_users]","","[]","","0","0.542 seconds","true","1","20","[lib/diaspora/user.rb]","[app/controllers/admins_controller.rb, app/controllers/comments_controller.rb, app/controllers/conversations_controller.rb, app/controllers/invitations_controller.rb, app/controllers/messages_controller.rb, app/controllers/notifications_controller.rb, app/controllers/services_controller.rb, app/helpers/notifications_helper.rb, app/models/job/http_multi.rb, app/models/job/mail/invite_user_by_email.rb, app/models/job/receive_local_batch.rb, app/models/job/resend_invitation.rb, app/models/message.rb, app/models/person.rb, app/models/service_user.rb, app/models/services/facebook.rb, app/uploaders/processed_image.rb, app/uploaders/unprocessed_image.rb, app/views/devise/mailer/invitation_instructions.haml, lib/rake_helpers.rb]","2","[app/models/invitation.rb, app/models/user.rb]","0.1098901098796643"
"2520","[17-08-2011]","1","5","[888ad0a31c30ae139fca64d50e88100af049c025, 805a9eb921a3402032e1300aa5d52a1185fb9b05, 736b179888ac90bd1007ca64bed194651f861348, b87c7bb4890647a38646b38d9ed38030b57d50fc, 03127cd592e86839a9a0f2acbb561976b7b18b74]","1","0","5","3","[app/controllers/home_controller.rb, app/models/user.rb, app/views/home/show.html.haml, app/views/home/show.mobile.haml, lib/diaspora/user.rb]","[app/helpers/markdownify_helper.rb, app/views/status_messages/_status_message.haml, lib/diaspora/markdownify.rb]","0.0","0.0","3.0.9","3","[]","2","3","[app/controllers/home_controller.rb, app/views/home/show.html.haml, app/views/home/show.mobile.haml]","[sleep, click_button, silence_warnings, click_link, page, have_content, has_content?, within, Factory, aspects, create, post, evaluate_script, wait_until, execute_script]","","[]","[app/views/home/_show.html.haml, send]","2","0.236 seconds","false","5","3","[app/controllers/home_controller.rb, app/models/user.rb, app/views/home/show.html.haml, app/views/home/show.mobile.haml, lib/diaspora/user.rb]","[app/helpers/markdownify_helper.rb, app/views/status_messages/_status_message.haml, lib/diaspora/markdownify.rb]","0","[]","0.0"
"2525","[07-08-2011, 11-08-2011, 16-08-2011]","2","8","[140268365cf2dae0b854cd71865ff5454da9ab78, 56fc409a394a47f9be32d05f2fa3919454da65bb, e2b16ab16f2a40662bea2c7827ef9cbf1d0a71a5, 8b99ae9cb6617cd31ffd13838e61dbff4fe2d630, 79d0dfc7bb46cb3ed62ffc74c5b1b5212111773f, 08ae8d23cc8195943e778ed2496f839bab5b9185, d9484e3dd5979f1969f726aca11f47b547b0903e, fead6032f716c9c7459e4deec5f7083de8de0392]","1","2","7","13","[app/controllers/home_controller.rb, app/models/conversation.rb, app/models/user.rb, app/views/home/show.html.haml, app/views/home/show.mobile.haml, lib/diaspora/user.rb, lib/diaspora/user/querying.rb]","[app/controllers/people_controller.rb, app/helpers/aspect_global_helper.rb, app/views/aspects/_aspect_stream.haml, app/views/aspects/index.mobile.haml, app/views/contacts/sharing.haml, app/views/notifications/index.html.haml, app/views/people/_relationship_action.haml, app/views/people/_sub_header.html.haml, app/views/people/aspect_membership_dropdown.haml, app/views/shared/_aspect_dropdown.html.haml, app/views/shared/_publisher.html.haml, app/views/status_messages/bookmarklet.html.haml, app/views/status_messages/new.haml]","0.0","0.0","3.0.9","3","[]","2","3","[app/controllers/home_controller.rb, app/views/home/show.html.haml, app/views/home/show.mobile.haml]","[click_link, page, have_content, has_content?, have_no_content, has_no_content?, within, find, click, aspects, where, id, find, click, evaluate_script, wait_until, page, execute_script, Factory, aspects, aspects, create!, reload, person, find_by_name, connect_users]","","[app/views/aspect_memberships/_aspect_dropdown.html.haml, app/views/aspect_memberships/_aspect_dropdown_list_item.haml, app/views/people/_aspect_membership_dropdown.haml, app/views/shared/_aspect_dropdown_list_item.haml]","[app/views/home/_show.html.haml, person, send]","3","0.297 seconds","false","7","13","[app/controllers/home_controller.rb, app/models/conversation.rb, app/models/user.rb, app/views/home/show.html.haml, app/views/home/show.mobile.haml, lib/diaspora/user.rb, lib/diaspora/user/querying.rb]","[app/controllers/people_controller.rb, app/helpers/aspect_global_helper.rb, app/views/aspects/_aspect_stream.haml, app/views/aspects/index.mobile.haml, app/views/contacts/sharing.haml, app/views/notifications/index.html.haml, app/views/people/_relationship_action.haml, app/views/people/_sub_header.html.haml, app/views/people/aspect_membership_dropdown.haml, app/views/shared/_aspect_dropdown.html.haml, app/views/shared/_publisher.html.haml, app/views/status_messages/bookmarklet.html.haml, app/views/status_messages/new.haml]","0","[]","0.0"
"2526","[16-08-2011]","1","2","[6e248c2d5ca7d136d309ef28f7d1e7ece4d44ee9, 2303686e310a5d1d23255ed82d10b63fa5c3ecc7]","1","0","6","3","[app/controllers/home_controller.rb, app/models/conversation.rb, app/models/user.rb, app/views/home/show.html.haml, app/views/home/show.mobile.haml, lib/diaspora/user.rb]","[app/helpers/markdownify_helper.rb, app/views/status_messages/_status_message.haml, lib/diaspora/markdownify.rb]","0.0","0.0","3.0.9","3","[]","2","3","[app/controllers/home_controller.rb, app/views/home/show.html.haml, app/views/home/show.mobile.haml]","[sleep, click_button, silence_warnings, click_link, page, have_content, has_content?, within, Factory, aspects, post, evaluate_script, wait_until, execute_script]","","[]","[app/views/home/_show.html.haml, send]","2","0.222 seconds","false","6","3","[app/controllers/home_controller.rb, app/models/conversation.rb, app/models/user.rb, app/views/home/show.html.haml, app/views/home/show.mobile.haml, lib/diaspora/user.rb]","[app/helpers/markdownify_helper.rb, app/views/status_messages/_status_message.haml, lib/diaspora/markdownify.rb]","0","[]","0.0"
"2528","[12-08-2011, 13-08-2011, 14-08-2011, 15-08-2011]","6","23","[511517b3c7415287db4ba4c48ef023333c116f62, 32ae21a213b3c9fb713e8ceb202416aede355300, 669cd8578e86d75e3c140cfc46cfcba57dfe8d83, 78aa6d0943950abe12f468f7ca33f29ddfee13d8, a9312daf6995f50900a65da3293fb447cced2f28, e7f1c3d25110d00e20f56525902e0d29f343ee3b, 2cea39672ef749023950a54004867b165746c701, a3ac384aa5840cdbc5dd02396209366d1ea7b62c, a2f7fed8f488d581fa81f3256f991eb74956dbcc, b7b20b241f22ab00151ee18767c03eff87508e70, 3f1e8f0b6ea733f4b88e1b56edbdb6ad82c0460d, 8dc1b70621a733a1cb783c5f2fa2988cd74caf13, ba11bb6d890708061bb7ebdb3e37003efc215080, 657a9f96efbf8ad36660975a2a51e99c2e79c2cb, 4fe61892e1c2a7ec30c75f87ec46348935f8afd7, 7e59193e2cf22af8aba7ea71b7d7dcefc954420c, d228f50557adaea85e1791a53f2de85f7c06732a, 3a180448215519b361bbbe277cf89d5babd3f898, f60ce932b1967d419f519af04473c159b80a7c0d, f0583de36c2d07987a8331baca9856fdf457d296, b85df7303befad55df9201d40f7c4b49324f23c7, 48282e3402e849afbc8cfb7a3dc057082d229fa5, 9c99331bb7df3647c2c3a0425b8db47d61a20e54]","1","2","3","19","[app/models/conversation.rb, app/models/user.rb, lib/diaspora/user.rb]","[app/controllers/admins_controller.rb, app/controllers/invitations_controller.rb, app/controllers/people_controller.rb, app/controllers/registrations_controller.rb, app/helpers/aspect_global_helper.rb, app/helpers/services_helper.rb, app/models/contact.rb, app/models/invitation.rb, app/models/job/mail/invite_user_by_email.rb, app/models/services/facebook.rb, app/models/user.rb, app/views/admins/user_search.html.haml, app/views/invitations/new.mobile.haml, app/views/layouts/application.mobile.haml, app/views/services/_remote_friend.html.haml, app/views/services/finder.html.haml, app/views/shared/_stream_element.html.haml, app/views/tags/_followed_tags_listings.haml, app/views/tags/show.haml]","0.3333333333","0.0526315789","3.0.9","0","[]","0","0","[]","[find, be_nil, within, page, have_content, has_content?, Factory, aspects, profile, update_attributes, aspects, connect_users]","","[app/models/job/invite_user_by_email.rb]","","0","0.145 seconds","false","2","18","[app/models/conversation.rb, lib/diaspora/user.rb]","[app/controllers/admins_controller.rb, app/controllers/invitations_controller.rb, app/controllers/people_controller.rb, app/controllers/registrations_controller.rb, app/helpers/aspect_global_helper.rb, app/helpers/services_helper.rb, app/models/contact.rb, app/models/invitation.rb, app/models/job/mail/invite_user_by_email.rb, app/models/services/facebook.rb, app/views/admins/user_search.html.haml, app/views/invitations/new.mobile.haml, app/views/layouts/application.mobile.haml, app/views/services/_remote_friend.html.haml, app/views/services/finder.html.haml, app/views/shared/_stream_element.html.haml, app/views/tags/_followed_tags_listings.haml, app/views/tags/show.haml]","1","[app/models/user.rb]","0.06329113918546707"
"2532","[10-08-2011, 11-08-2011]","6","36","[3594d3ba8b81e5901dfdae8287beb51eb2693fba, 6e0630c43f65e36893a7331bef26c05e0543e861, 0b00616b8c266c5c5f2a90fc0ed1f78f15b0d286, 7021cd79c85691c8ff27e8836d9bce614844c33c, a2043671ce41096c0a80ad655cdc13ee0cc75cf5, ad5bd90b639e2ca0030abda2d1f7ece74110b247, db645e8da8f3ead4ace1d5cc51b29d7fc835309d, 90a5cd2254656763064284c83b1751edf23b8bc9, 20523f99afc3b4fc4b403f086c904a43f2f0e63a, 8086b9a9d4afa789b308ad3b4c0fe7434842b15a, 350a4b4f6d082ffb095950eafdc937c277f776ac, 3431cd94fb3937feebcc61b5fe71f7637b2fbffe, 091cdd6f94ba3a7f8aafa7c908047edff55451bd, 3658481c3800713afabe7c28667d15e6de51b045, e0051eaba89582d2025f7c9abf578ec0c7761739, b6c26611ef1a1adc468fb93cb4300cdd61ffa14d, 1e7a2f327b41ac999aaa8a6ff947bc6b1d0b74ea, a904b59a03d01171356e579d36f141526ad41b96, 2f924e2e8a62847466d22a21bd075df1c0c88c9d, e1dd1e28768833f723520c99cb515e4ce9efd9ed, f30df2c88d621a73783276ab56a5e49f2031f6dd, 118d3720c4b7888959ba8525cf2302d7d00a4eef, 938b633c672a945cbe7de23aacdf15c9465e3445, 46f940621dd7ecffb6fab45b7f6f4fb7e39a4d29, 1df654d416b833382ec58c3d6ab8a7c29ee401f9, a2bfc4a487a60203fef34cce8f62c0d2c353716b, aa3d626ada2a2665b908d08bf5cbe872c6a94ffb, f51b71b7dbb3b727eb80b09be6588d8da77526ab, cd0fca8462e1bc861b0640459b88153de147a6fb, ccecf32f9b631fb4079069a2b3a12de0885d440f, cc3702d733a9f15da43856443d6cdc8fe4436308, 8df5ba0c77883c8d4d47ec7fb7d37f4e49419d8c, 4bff560a309e28d767ed75ce23201a82132bf066, 2d6a69cdc868fcb76ea7b22aa4cded901b96e20d, 685165d1339510888d9c5bedd76772ce302c9e49, d22e5e75982b3f50158d453840acc29afece1770]","1","0","6","50","[app/controllers/home_controller.rb, app/models/conversation.rb, app/models/user.rb, app/views/home/show.html.haml, app/views/home/show.mobile.haml, lib/diaspora/user.rb]","[app/controllers/aspect_memberships_controller.rb, app/controllers/contacts_controller.rb, app/controllers/posts_controller.rb, app/controllers/publics_controller.rb, app/controllers/status_messages_controller.rb, app/helpers/notifier_helper.rb, app/helpers/people_helper.rb, app/mailers/notifier.rb, app/models/activity_streams/photo.rb, app/models/invitation.rb, app/models/jobs/http_multi.rb, app/models/jobs/mail/also_commented.rb, app/models/jobs/mail/comment_on_post.rb, app/models/jobs/mail/confirm_email.rb, app/models/jobs/mail/liked.rb, app/models/jobs/mail/mentioned.rb, app/models/jobs/mail/private_message.rb, app/models/jobs/mail/started_sharing.rb, app/models/message.rb, app/models/notifications/also_commented.rb, app/models/notifications/comment_on_post.rb, app/models/notifications/liked.rb, app/models/notifications/mentioned.rb, app/models/notifications/private_message.rb, app/models/notifications/request_accepted.rb, app/models/notifications/started_sharing.rb, app/models/post.rb, app/models/reshare.rb, app/models/status_message.rb, app/models/user.rb, app/views/comments/_comment.html.haml, app/views/comments/_comments.haml, app/views/contacts/index.mobile.haml, app/views/devise/passwords/edit.haml, app/views/devise/passwords/new.haml, app/views/notifier/also_commented.html.haml, app/views/notifier/comment_on_post.html.haml, app/views/notifier/liked.html.haml, app/views/notifier/mentioned.html.haml, app/views/notifier/private_message.html.haml, app/views/people/_person.mobile.haml, app/views/posts/_photo.html.haml, app/views/posts/show.html.haml, app/views/shared/_stream_element.html.haml, app/views/status_messages/_status_message.haml, app/views/users/getting_started.haml, lib/diaspora/user/connecting.rb, lib/diaspora/user/querying.rb, lib/rake_helpers.rb, lib/resque_job_logging.rb]","0.1666666667","0.02","3.0.9","3","[]","2","3","[app/controllers/home_controller.rb, app/views/home/show.html.haml, app/views/home/show.mobile.haml]","[sleep, click_button, silence_warnings, click_link, page, have_content, has_content?, have_no_content, has_no_content?, within, page, execute_script, evaluate_script, wait_until, execute_script, Factory, aspects, post]","","[app/models/jobs/mail_also_commented.rb, app/models/jobs/mail_comment_on_post.rb, app/models/jobs/mail_confirm_email.rb, app/models/jobs/mail_liked.rb, app/models/jobs/mail_mentioned.rb, app/models/jobs/mail_private_message.rb, app/models/jobs/mail_started_sharing.rb, app/views/devise/passwords/edit.html.haml, app/views/devise/passwords/new.html.haml, app/views/publics/activity_streams/photo.haml, app/views/publics/photo.haml, app/views/publics/status_message.haml]","[app/views/home/_show.html.haml, send]","2","0.322 seconds","false","5","49","[app/controllers/home_controller.rb, app/models/conversation.rb, app/views/home/show.html.haml, app/views/home/show.mobile.haml, lib/diaspora/user.rb]","[app/controllers/aspect_memberships_controller.rb, app/controllers/contacts_controller.rb, app/controllers/posts_controller.rb, app/controllers/publics_controller.rb, app/controllers/status_messages_controller.rb, app/helpers/notifier_helper.rb, app/helpers/people_helper.rb, app/mailers/notifier.rb, app/models/activity_streams/photo.rb, app/models/invitation.rb, app/models/jobs/http_multi.rb, app/models/jobs/mail/also_commented.rb, app/models/jobs/mail/comment_on_post.rb, app/models/jobs/mail/confirm_email.rb, app/models/jobs/mail/liked.rb, app/models/jobs/mail/mentioned.rb, app/models/jobs/mail/private_message.rb, app/models/jobs/mail/started_sharing.rb, app/models/message.rb, app/models/notifications/also_commented.rb, app/models/notifications/comment_on_post.rb, app/models/notifications/liked.rb, app/models/notifications/mentioned.rb, app/models/notifications/private_message.rb, app/models/notifications/request_accepted.rb, app/models/notifications/started_sharing.rb, app/models/post.rb, app/models/reshare.rb, app/models/status_message.rb, app/views/comments/_comment.html.haml, app/views/comments/_comments.haml, app/views/contacts/index.mobile.haml, app/views/devise/passwords/edit.haml, app/views/devise/passwords/new.haml, app/views/notifier/also_commented.html.haml, app/views/notifier/comment_on_post.html.haml, app/views/notifier/liked.html.haml, app/views/notifier/mentioned.html.haml, app/views/notifier/private_message.html.haml, app/views/people/_person.mobile.haml, app/views/posts/_photo.html.haml, app/views/posts/show.html.haml, app/views/shared/_stream_element.html.haml, app/views/status_messages/_status_message.haml, app/views/users/getting_started.haml, lib/diaspora/user/connecting.rb, lib/diaspora/user/querying.rb, lib/rake_helpers.rb, lib/resque_job_logging.rb]","1","[app/models/user.rb]","0.024271844660335565"
"2535","[09-08-2011]","1","3","[05fb2c3e7acb897aa0e05ffc72c5a42ea2bf9fec, bddd7c717b6778e7aebe54138dd486fa53e9e98a, 2a970145c811ba63b903c092f63f800af600b392]","1","0","6","3","[app/controllers/home_controller.rb, app/models/conversation.rb, app/models/user.rb, app/views/home/show.html.haml, app/views/home/show.mobile.haml, lib/diaspora/user.rb]","[app/controllers/tag_followings_controller.rb, app/views/aspects/index.html.haml, app/views/tags/_followed_tags_listings.haml]","0.0","0.0","3.0.9","3","[]","2","3","[app/controllers/home_controller.rb, app/views/home/show.html.haml, app/views/home/show.mobile.haml]","[sleep, click_button, silence_warnings, click_link, page, have_content, has_content?, have_no_content, has_no_content?, within, page, execute_script, evaluate_script, wait_until, execute_script, Factory, aspects, post]","","[]","[app/views/home/_show.html.haml, send]","2","0.436 seconds","false","6","3","[app/controllers/home_controller.rb, app/models/conversation.rb, app/models/user.rb, app/views/home/show.html.haml, app/views/home/show.mobile.haml, lib/diaspora/user.rb]","[app/controllers/tag_followings_controller.rb, app/views/aspects/index.html.haml, app/views/tags/_followed_tags_listings.haml]","0","[]","0.0"
"2549","[28-07-2011]","3","6","[33cecf111dfd903651cff32c3b3b5dfeea2c7985, 68dafdbf0d35dcd817f4f7e29d2c3c0ecb3974d1, 8ce5e72519ca24e6d540f3685389d072f1dd30f9, ee95def580165b425ffb8ed828d72e4033a34da1, 71ae8e5fcd440fe8781f6665e834f3883ea7e772, dfa5824dc1d2751efc2d7e0cfc33b419ec79c15d]","1","0","6","3","[app/controllers/home_controller.rb, app/models/conversation.rb, app/models/user.rb, app/views/home/show.html.haml, app/views/home/show.mobile.haml, lib/diaspora/user.rb]","[app/views/aspects/_aspect_listings.haml, app/views/aspects/index.html.haml, app/views/reshares/_reshare.haml]","0.0","0.0","3.0.9","1","[]","2","3","[app/controllers/home_controller.rb, app/views/home/show.html.haml, app/views/home/show.mobile.haml]","[aspects, post, page, evaluate_script, page, has_css?, be_true, wait_until, within, click_link, click_link, have_content, has_content?, within, Factory, profile, update_attributes, aspects, connect_users]","","[]","[app/views/home/_show.html.haml, send]","2","0.240 seconds","false","6","3","[app/controllers/home_controller.rb, app/models/conversation.rb, app/models/user.rb, app/views/home/show.html.haml, app/views/home/show.mobile.haml, lib/diaspora/user.rb]","[app/views/aspects/_aspect_listings.haml, app/views/aspects/index.html.haml, app/views/reshares/_reshare.haml]","0","[]","0.0"
"2617","[01-07-2011]","3","5","[0d8f548440e708fe84e6c86adfd50b6fae084933, 24e3617c669f1ae49c9d81bf51f2642dcd152058, 1bbfa97e5f4ef33016b61159b54a9c82bafe8232, 948a7c5d558bf91fe45a54f29422eea3ca14aefd, b495e71c7758d7d7ff8277dfdb252a1a934203eb]","1","1","50","1","[app/controllers/activity_streams/photos_controller.rb, app/controllers/aspects_controller.rb, app/controllers/conversations_controller.rb, app/controllers/home_controller.rb, app/controllers/people_controller.rb, app/controllers/photos_controller.rb, app/controllers/profiles_controller.rb, app/controllers/services_controller.rb, app/controllers/status_messages_controller.rb, app/helpers/application_helper.rb, app/helpers/stream_helper.rb, app/models/activity_streams/photo.rb, app/models/aspect.rb, app/models/conversation.rb, app/models/photo.rb, app/models/user.rb, app/views/aspect_memberships/_aspect_dropdown.html.haml, app/views/aspects/new.haml, app/views/comments/_comment.html.haml, app/views/comments/_comments.haml, app/views/conversations/_conversation.haml, app/views/conversations/_show.haml, app/views/conversations/index.haml, app/views/conversations/new.haml, app/views/home/show.html.haml, app/views/home/show.mobile.haml, app/views/likes/_likes.haml, app/views/messages/_message.haml, app/views/people/_profile_sidebar.html.haml, app/views/people/show.html.haml, app/views/people/show.mobile.haml, app/views/photos/_index.html.haml, app/views/photos/_new_photo.haml, app/views/photos/_new_profile_photo.haml, app/views/photos/_photo.haml, app/views/photos/edit.html.haml, app/views/photos/show.html.haml, app/views/photos/show.mobile.haml, app/views/profiles/edit.html.haml, app/views/services/index.html.haml, app/views/shared/_add_remove_services.haml, app/views/shared/_author_info.html.haml, app/views/shared/_public_explain.haml, app/views/shared/_publisher.html.haml, app/views/shared/_settings_nav.haml, app/views/shared/_stream.haml, app/views/status_messages/new.haml, lib/diaspora/user.rb, lib/diaspora/user/querying.rb, lib/fake.rb]","[app/views/photos/_new_photo.haml]","0.02","1.0","3.0.3","2","[]","31","42","[app/controllers/activity_streams/photos_controller.rb, app/controllers/aspects_controller.rb, app/controllers/conversations_controller.rb, app/controllers/home_controller.rb, app/controllers/people_controller.rb, app/controllers/photos_controller.rb, app/controllers/profiles_controller.rb, app/controllers/services_controller.rb, app/controllers/status_messages_controller.rb, app/helpers/application_helper.rb, app/helpers/stream_helper.rb, app/views/aspect_memberships/_aspect_dropdown.html.haml, app/views/aspects/new.haml, app/views/comments/_comment.html.haml, app/views/comments/_comments.haml, app/views/conversations/_conversation.haml, app/views/conversations/_show.haml, app/views/conversations/index.haml, app/views/conversations/new.haml, app/views/home/show.html.haml, app/views/home/show.mobile.haml, app/views/likes/_likes.haml, app/views/messages/_message.haml, app/views/people/_profile_sidebar.html.haml, app/views/people/show.html.haml, app/views/people/show.mobile.haml, app/views/photos/_index.html.haml, app/views/photos/_new_photo.haml, app/views/photos/_new_profile_photo.haml, app/views/photos/_photo.haml, app/views/photos/edit.html.haml, app/views/photos/show.html.haml, app/views/photos/show.mobile.haml, app/views/profiles/edit.html.haml, app/views/services/index.html.haml, app/views/shared/_add_remove_services.haml, app/views/shared/_author_info.html.haml, app/views/shared/_public_explain.haml, app/views/shared/_publisher.html.haml, app/views/shared/_settings_nav.haml, app/views/shared/_stream.haml, app/views/status_messages/new.haml]","[page, execute_script, page, has_css?, be_true, evaluate_script, wait_until, within, find, include, sleep, click_button, silence_warnings, click_link, are_you_sure, button, services.index.really_disconnect, Factory, aspects, aspects, create!, reload, person, find_by_name, connect_users]","","[]","[app/views/home/_show.html.haml, aspects_manage, conversation_visibility, person_contacts, photo_make_profile_photo, send]","6","1.542 seconds","true","49","0","[app/controllers/activity_streams/photos_controller.rb, app/controllers/aspects_controller.rb, app/controllers/conversations_controller.rb, app/controllers/home_controller.rb, app/controllers/people_controller.rb, app/controllers/photos_controller.rb, app/controllers/profiles_controller.rb, app/controllers/services_controller.rb, app/controllers/status_messages_controller.rb, app/helpers/application_helper.rb, app/helpers/stream_helper.rb, app/models/activity_streams/photo.rb, app/models/aspect.rb, app/models/conversation.rb, app/models/photo.rb, app/models/user.rb, app/views/aspect_memberships/_aspect_dropdown.html.haml, app/views/aspects/new.haml, app/views/comments/_comment.html.haml, app/views/comments/_comments.haml, app/views/conversations/_conversation.haml, app/views/conversations/_show.haml, app/views/conversations/index.haml, app/views/conversations/new.haml, app/views/home/show.html.haml, app/views/home/show.mobile.haml, app/views/likes/_likes.haml, app/views/messages/_message.haml, app/views/people/_profile_sidebar.html.haml, app/views/people/show.html.haml, app/views/people/show.mobile.haml, app/views/photos/_index.html.haml, app/views/photos/_new_profile_photo.haml, app/views/photos/_photo.haml, app/views/photos/edit.html.haml, app/views/photos/show.html.haml, app/views/photos/show.mobile.haml, app/views/profiles/edit.html.haml, app/views/services/index.html.haml, app/views/shared/_add_remove_services.haml, app/views/shared/_author_info.html.haml, app/views/shared/_public_explain.haml, app/views/shared/_publisher.html.haml, app/views/shared/_settings_nav.haml, app/views/shared/_stream.haml, app/views/status_messages/new.haml, lib/diaspora/user.rb, lib/diaspora/user/querying.rb, lib/fake.rb]","[]","1","[app/views/photos/_new_photo.haml]","0.09259259259259259"
