"Repository","https://github.com/alphagov/whitehall.git"
"TASK","HASH","RUBY","RAILS","COVERAGE","TESTS"
"3301","0419af7162a6c07326ec87551b5ade81d0ac8cef","","3.1.12","simplecov","features/topical_events.feature(14)"
"3308","18a5e24afe6e0e4d4b3542b4185a9a3e099c864b","","3.1.12","simplecov","features/administering-organisations.feature(12)"
"3315","1ddebec66ab6a07b08d41b91140012ee01720f48","","3.1.12","simplecov","features/managing-contact-details-on-homepages.feature(12);features/managing-contact-details-on-homepages.feature(18);features/managing-contact-details-on-homepages.feature(23);features/managing-contact-details-on-homepages.feature(29)"
"3320","0efce103b3c9fc31d78820348b540c54ab233bda","","3.1.12","simplecov","features/html-versions-of-publications.feature(27)"
"3321","2307b3ee0342d283782ba4a06084b8f31942b8ba","","3.1.12","simplecov","features/document-series.feature(16)"
"3325","3845dfe4cb75d29b7f75a1faf8e965a62a8328f0","","3.1.12","simplecov","features/administering-cabinet-ministers-and-whips.feature(9);features/administering-cabinet-ministers-and-whips.feature(17)"
"3345","cc1e65f792b56162d290ab252281e98087f3abb0","","3.1.12","simplecov","features/administering-world-locations.feature(40)"
"3360","b8ca9d294c7626bfa679780ac55c8ead0f9cdb3e","","3.1.12","simplecov","features/administering-take-part-pages.feature(22);features/administering-take-part-pages.feature(30)"
"3376","f30ba208da63ae55a4a411f0ec79a19f84b2dfe6","","3.1.12","simplecov","features/viewing-historic-appointments.feature(7);features/administering-historical-accounts.feature(8);features/administering-people.feature(35)"
"3391","e9da78baee93fe193764e392a2289b34388dd281","","3.1.12","simplecov","features/viewing-minister-pages.feature(47)"
"3395","33a2eea41851854f95dd8b94f91c22996a2fc2f0","","3.1.12","simplecov","features/editing-draft-speeches.feature(51)"
"3406","63908418a5f3afca21d25f0bd292a044a625dd53","","3.1.12","simplecov","features/email-curation-queue.feature(17);features/email-curation-queue.feature(26)"
"3410","743201b18549d9255ac798d13686d7359dfa3655","","3.1.12","simplecov","features/editing-draft-speeches.feature(3);features/editing-draft-speeches.feature(8);features/editing-draft-speeches.feature(14);features/editing-draft-speeches.feature(20);features/editing-draft-speeches.feature(27);features/editing-draft-speeches.feature(37);features/editing-draft-speeches.feature(44);features/editing-draft-speeches.feature(51)"
"3412","880fd023d5f83010398ef8856d0d436c94167e97","","3.1.12","simplecov","features/policy-advisory-groups.feature(53)"
"3433","2b2ac8457b09d54f9eca16de105710bbf028d625","","3.1.12","simplecov","features/viewing-minister-pages.feature(47)"
"3440","482d138aa3b8da9c1ed36c29a53652f33df48043","","3.1.12","simplecov","features/administering-cabinet-ministers.feature(6)"
"3442","c093d8806a2d850b10b579c01b2ad7e49354d562","","3.1.12","simplecov","features/administering-featured-topics-and-policies-on-an-org.feature(22);features/administering-featured-topics-and-policies-on-an-org.feature(29)"
"3451","54092387e9b5978c46c1fc2ab52536e5dddc525c","","3.1.12","simplecov","features/viewing-worldwide-organisations.feature(2)"
"3452","1d207442a97d6b116e86d76b5a0c1868abb90a68","","3.1.12","simplecov","features/administering-organisations.feature(46);features/administering-worldwide-organisations.feature(30)"
"3469","16f93cf941430414f6d3dd7315f70f0fe5ed72da","","3.1.12","simplecov","features/speed-tagging-editions.feature(30);features/speed-tagging-editions.feature(42)"
"3474","e0fbbf98d9d78b3e00aefbc58df240dfd71ca3b3","","3.1.12","simplecov","features/administering-world-locations.feature(33)"
"3476","75c0bd9658df3b8949555d85e82841eff3f09419","","3.1.12","simplecov","features/importing-new-editions.feature(152)"
"3481","b736ba801baa5621939fe8cb39d92c9ca8b3f1ff","","3.1.12","simplecov","features/importing-new-editions.feature(156)"
"3482","848f35bbfe973b911cad683f901a4689e486f227","","3.1.12","simplecov","features/administering-world-locations.feature(27);features/administering-world-locations.feature(33)"
"3498","02cdafaa00763e2b1a03076973f184f30ebcc0cb","","3.1.12","simplecov","features/administering-world-locations.feature(6);features/administering-world-locations.feature(13);features/administering-world-locations.feature(27);features/administering-world-locations.feature(39);features/administering-worldwide-organisations.feature(84);features/speed-tagging-editions.feature(48);features/viewing-published-publications.feature(16);features/viewing-world-locations.feature(3);features/viewing-world-locations.feature(9);features/viewing-world-locations.feature(15);features/viewing-world-locations.feature(27);features/viewing-world-locations.feature(33);features/world-location-news.feature(53)"
"3508","ff99cb4d18058e8da15080aa1eef51e6c95d699f","","3.1.12","simplecov","features/administering-worldwide-organisations.feature(61);features/administering-worldwide-organisations.feature(67);features/administering-worldwide-organisations.feature(72)"
"3511","f9b0b7c0397139a337a6a574b400695688a18474","","3.1.12","simplecov","features/administering-corporate-information-pages.feature(11)"
"3513","d244d9e82c6fefbac71d68232a2da78f5081c387","","3.1.12","simplecov","features/editing-draft-statistical-data-sets.feature(9)"
"3514","1f6c19c4bdeb6fc98c982fb0200aa3006f84a082","","3.1.12","simplecov","features/viewing-organisations.feature(25)"
