"Repository","https://github.com/BTHUNTERCN/bsmi.git"
"TASK","HASH","RUBY","RAILS","COVERAGE","TESTS"
"157","25624ef39dc416d77ad237ec38d4ed1553a25c4f","","3.2.7","simplecov","features/mentor_teacher_schedule.feature(10)"
"232","8f1199d112275a768bf703f37b46d81359b1bec5","","3.2.7","simplecov","features/registration_login.feature(7);features/registration_login.feature(19);features/registration_login.feature(55);features/registration_login.feature(67);features/registration_login.feature(81)"
