"Repository","https://github.com/AgileVentures/MetPlus_PETS.git"
"Precision mean (RT)",""
"Precision median (RT)",""
"Precision standard deviation (RT)",""
"Recall mean (RT)",""
"Recall median (RT)",""
"Recall standard deviation (RT)",""
"F2 mean (RT)",""
"F2 median (RT)",""
"F2 standard deviation (RT)",""
"Correlation #Test-Precision",""
"Correlation #Test-Recall",""
"Task","Dates","#Devs","#Commits","Hashes","#Gherkin_Tests","#Sted_defs","#TestI","#TaskI","TestI","TaskI","Precision","Recall","Rails","#visit_call","Lost_visit_call","#Views_TestI","#Code_View_Analysis","Code_View_Analysis","Methods_Unknown_Type","Renamed_Files","Deleted_Files","NotFound_Views","#NotFound_Views","Timestamp","Has_Merge","#FP","#FN","FP","FN","#Hits","Hits","f2"
"297","[13-08-2015, 14-08-2015, 17-08-2015, 18-08-2015, 25-08-2015, 04-09-2015]","2","20","[bceb72450dff0cb6d13bbe81cc954621a8861155, e73afc5f06add6a0171075b09b02dc88457c3b3c, 49409cc6bd32eb4dd410ce510297269fa8aa413d, befbcdbd6c66481ce4a4ee2b2e2baef47d1e0403, a320a49961360719330028e266742eae24bd02b1, b0af7e0a9abd8ec1eb74a67c7b8ffec3369bf920, 6a08aaf6bc06c6f707e823144b931a3b9fcd9214, 3823aa4264bd6065b1b386fc9758a5503d0f1ccd, e8b50647c245345d6a41d4eb860ad6ec701f617c, 3f9f6b249b3f712e2a8280c8a969beeec871f46e, 974f426196d0c6df6854570178f8c99e50783e23, 0ac7e89803ff2514273bcc08d7cde996f1db661b, c916d5cf192b1b6961c99d110306d8e090421797, 56f9cc3089a5b29a95a0b7169aadbf1a7339891a, c1842114dbf5e158517a7a453da82fbd31d58bea, fe3aff48b8a128d3c71ba504a058d0c4a9f7c883, 66aee8e72625e7c52897a5f348c8fadb6d70181e, b2fe51e933cd1294c821670f54ce28ede8c3cc1c, 34de0cdc98c6a0ced950700c6faae69983d9dab9, 77e63a9ae7dc2ffa4fb0b582e3df1c0f693d8766]","9","3","2","2","[app/controllers/main_controller.rb, app/controllers/user_controller.rb]","[app/controllers/session_controller.rb, app/controllers/user_controller.rb]","0.5","0.5","4.2.3","36","[]","0","6","[app/controllers/main_controller.rb, app/controllers/user_controller.rb, app/views/jobs/_list.html.haml, app/views/main/index.html.haml, app/views/user/_form.html.haml, app/views/user/new.html.haml]","[activation_token, click_on, click_on, is_a?, page, have_content, require, sleep, hashes, each, raw, fill_in, each, be, reset_mailer, unread_emails_for, parse_email_count, eql]","","[app/views/session/create.html.haml, app/views/session/destroy.html.haml, app/views/session/new.html.haml]","[activate_user]","1","0.542 seconds","true","1","1","[app/controllers/main_controller.rb]","[app/controllers/session_controller.rb]","1","[app/controllers/user_controller.rb]","0.5"
