Given /^I am logged in as "([^\"]*)" with password "([^\"]*)"$/ do |login, password|
  user = User.find_by_login(login)
  if user.blank?
    user = Factory.create(:user, {:login => login, :password => password})
    user.activate
  else
    user.password = password
    user.password_confirmation = password
    user.save
  end
  visit login_path
  fill_in "User name", :with => login
  fill_in "Password", :with => password
  check "Remember me"
  click_button "Log in"
  assert UserSession.find
end
When /^I post the work "([^\"]*)"$/ do |title|
  work = Work.find_by_title(title)
  if work.blank?
    Given "the draft \"#{title}\""
    work = Work.find_by_title(title)
  end
  visit preview_work_url(work)
  click_button("Post")
  Then "I should see \"Work was successfully posted.\""
end
When /^(?:|I )press "([^"]*)"(?: within "([^"]*)")?$/ do |button, selector|
  with_scope(selector) do
    click_button(button)
  end
end
When /^(?:|I )follow "([^"]*)"(?: within "([^"]*)")?$/ do |link, selector|
  with_scope(selector) do
    click_link(link)
  end
end
When /^(?:|I )fill in "([^"]*)" with "([^"]*)"(?: within "([^"]*)")?$/ do |field, value, selector|
  with_scope(selector) do
    fill_in(field, :with => value)
  end
end
Then /^(?:|I )should see "([^"]*)"(?: within "([^"]*)")?$/ do |text, selector|
  with_scope(selector) do
    if page.respond_to? :should
      page.should have_content(text)
    else
      assert page.has_content?(text)
    end
  end
end
  def with_scope(locator)
    locator ? within(locator) { yield } : yield
  end
