"Repository","https://github.com/ministryofjustice/Claim-for-Crown-Court-Defence.git"
"Tasks with empty IReal","0"
"Tasks with no-empty IReal","3"
"Tasks with relevant AST error","0"
"Tasks with AST error of Gherkin files","0"
"Tasks with AST error of StepDef files","0"
"Tasks with AST error of production files","0"
"Tasks with AST error of unit test files","0"
"Tasks with step match error","3"
"Tasks without required gems","0"
"Tasks with changed stepdef","3"
"Tasks with changed Gherkin","3"
"Tasks with implemented Gherkin scenarios","1"
"All invalid tasks","3"
"All valid tasks (Gherkin scenario, no empty IReal, no error)","0"
"Valid tasks, but empty ITest","0"
"Valid tasks, no empty ITest, but zero precision-recall","0"
"Valid tasks, no empty ITest, no zero precision-recall","0"
"Project","Task","Date","#Days","#Commits","Commit_Message","#Devs","#Gherkin_Tests","#Impl_Gherkin_Tests","#StepDef","#Impl_StepDef","Methods_Unknown_Type","#Step_Call","Step_Match_Errors","#Step_Match_Error","AST_Errors","#AST_Errors","Gherkin_AST_Errors","#Gherkin_AST_Errors","Steps_AST_Errors","#Steps_AST_Errors","Renamed_Files","Deleted_Files","NotFound_Views","#Views","#TestI","#TaskI","TestI","TaskI","Precision","Recall","Hashes","Timestamp","Rails","Gems","#Visit_Call","Lost_visit_call","#Views_ITest","#Code_View_Analysis","Code_View_Analysis","Has_Merge","F2","#Multiple_Step_Matches","Multiple_Step_Matches","#Generic_Step_Keyword","Generic_Step_Keyword"
"claim-for-crown-court-defence","1746","[27-07-2015]","1","1","[add fixed fee case type  changes this commit include:   * added and amended missing fixed fee type of Contempt   * added case type of Fixed fee   * modified calculate_fees_total to accept arg fo category and spec'd   * added cukes for conditional logic   * added model spec   * added javascript ]","1","6","4","11","11","[create, fill_in, click_on, select, fill_in, rand, days, ago, strftime, choose, within, find, check, attach_file, click_on, page, eq, have_content, to_f, eql, misc_fees, fixed_fees, nil?, gsub, method, have_selector, within, id, post]","0","[path:features/advocate_new_claim.feature, size:1]","1","","0","","0","","0","","[]","[advocates_dmin, new_confirmation, new_password, new_registration, new_session, new_unlock, omniauth_authorize]","7","48","5","[app/controllers/advocates/admin/advocates_controller.rb, app/controllers/advocates/claims_controller.rb, app/controllers/case_workers/claims_controller.rb, app/controllers/documents_controller.rb, app/interfaces/api/v1/advocates/claim.rb, app/models/advocate.rb, app/models/claim.rb, app/models/claims/calculations.rb, app/models/scheme.rb, app/models/user.rb, app/views/advocates/admin/advocates/_form.html.haml, app/views/advocates/admin/advocates/edit.html.haml, app/views/advocates/admin/advocates/index.html.haml, app/views/advocates/admin/advocates/new.html.haml, app/views/advocates/admin/advocates/show.html.haml, app/views/advocates/claims/_basic_fee_fields.html.haml, app/views/advocates/claims/_claims.html.haml, app/views/advocates/claims/_cracked_trial_fields.html.haml, app/views/advocates/claims/_date_attended_fields.html.haml, app/views/advocates/claims/_defendant_fields.html.haml, app/views/advocates/claims/_document_fields.html.haml, app/views/advocates/claims/_dynamic_offence_fields.html.haml, app/views/advocates/claims/_evidence_checklist.html.haml, app/views/advocates/claims/_expense_fields.html.haml, app/views/advocates/claims/_financial_summary.html.haml, app/views/advocates/claims/_fixed_fee_fields.html.haml, app/views/advocates/claims/_form.html.haml, app/views/advocates/claims/_misc_fee_fields.html.haml, app/views/advocates/claims/_nav_tabs.html.haml, app/views/advocates/claims/_representation_order_fields.html.haml, app/views/advocates/claims/_search_form.html.haml, app/views/advocates/claims/authorised.html.haml, app/views/advocates/claims/confirmation.html.haml, app/views/advocates/claims/edit.html.haml, app/views/advocates/claims/index.html.haml, app/views/advocates/claims/new.html.haml, app/views/advocates/claims/outstanding.html.haml, app/views/advocates/claims/show.html.haml, app/views/devise/sessions/new.html.erb, app/views/devise/shared/_links.html.erb, app/views/shared/_claim.html.haml, app/views/shared/_claim_status.html.haml, app/views/shared/_evidence_checklist.html.haml, app/views/shared/_evidence_list.html.haml, app/views/shared/_message.html.haml, app/views/shared/_messages.html.haml, app/views/shared/_search_summary.html.haml, app/views/shared/_summary.html.haml]","[app/controllers/advocates/claims_controller.rb, app/models/claim.rb, app/models/claims/calculations.rb, app/views/advocates/claims/_form.html.haml, app/views/case_workers/admin/allocations/new.html.haml]","0.0833333333","0.8","[3d63757e71c50f4b6de69467db92aad5443f8009]","2.085 seconds","4.1.8","[cucumber-rails, rspec-rails, simplecov, factory_girl]","4","[]","38","41","[app/controllers/advocates/admin/advocates_controller.rb, app/controllers/advocates/claims_controller.rb, app/controllers/documents_controller.rb, app/views/advocates/admin/advocates/_form.html.haml, app/views/advocates/admin/advocates/edit.html.haml, app/views/advocates/admin/advocates/index.html.haml, app/views/advocates/admin/advocates/new.html.haml, app/views/advocates/admin/advocates/show.html.haml, app/views/advocates/claims/_basic_fee_fields.html.haml, app/views/advocates/claims/_claims.html.haml, app/views/advocates/claims/_cracked_trial_fields.html.haml, app/views/advocates/claims/_date_attended_fields.html.haml, app/views/advocates/claims/_defendant_fields.html.haml, app/views/advocates/claims/_document_fields.html.haml, app/views/advocates/claims/_dynamic_offence_fields.html.haml, app/views/advocates/claims/_evidence_checklist.html.haml, app/views/advocates/claims/_expense_fields.html.haml, app/views/advocates/claims/_financial_summary.html.haml, app/views/advocates/claims/_fixed_fee_fields.html.haml, app/views/advocates/claims/_form.html.haml, app/views/advocates/claims/_misc_fee_fields.html.haml, app/views/advocates/claims/_nav_tabs.html.haml, app/views/advocates/claims/_representation_order_fields.html.haml, app/views/advocates/claims/_search_form.html.haml, app/views/advocates/claims/authorised.html.haml, app/views/advocates/claims/confirmation.html.haml, app/views/advocates/claims/edit.html.haml, app/views/advocates/claims/index.html.haml, app/views/advocates/claims/new.html.haml, app/views/advocates/claims/outstanding.html.haml, app/views/advocates/claims/show.html.haml, app/views/devise/sessions/new.html.erb, app/views/devise/shared/_links.html.erb, app/views/shared/_claim.html.haml, app/views/shared/_claim_status.html.haml, app/views/shared/_evidence_checklist.html.haml, app/views/shared/_evidence_list.html.haml, app/views/shared/_message.html.haml, app/views/shared/_messages.html.haml, app/views/shared/_search_summary.html.haml, app/views/shared/_summary.html.haml]","false","0.2941176469757786","0","","0",""
"claim-for-crown-court-defence","1786","[03-07-2015]","1","2","[Merge pull request #287 from ministryofjustice/apply-new-date-format  amend all date fields to use adp_date_fields and separate cracked tri…, amend all date fields to use adp_date_fields and separate cracked trial feature tests. ]","2","1","0","2","2","[nil?, gsub, page, method, have_content, each, click, set, find, within]","0","[path:features/cracked_trial.feature, size:1]","1","","0","","0","","0","","[]","","0","1","2","[app/models/doc_type.rb]","[app/views/advocates/claims/_cracked_trial_fields.html.haml, app/views/advocates/claims/_form.html.haml]","0.0","0.0","[3d2400078874fb54157a18230404a525fcdcc758, 41a593bf985c049ed9cb9e787dd36e48fff00d89]","0.052 seconds","4.1.8","[cucumber-rails, rspec-rails, simplecov, factory_girl]","0","[]","0","0","[]","true","0.0","0","","0",""
"claim-for-crown-court-defence","1793","[02-07-2015]","1","1","[add cracked trial details  user request that cracked trial case types have additional fields for relevant details ]","1","1","0","2","2","[nil?, gsub, page, method, have_content, each, click, set, find, within]","0","[path:features/advocate_new_claim.feature, size:1]","1","","0","","0","","0","","[]","","0","1","4","[app/models/doc_type.rb]","[app/controllers/advocates/claims_controller.rb, app/models/claim.rb, app/views/advocates/claims/_cracked_trial_fields.html.haml, app/views/advocates/claims/_form.html.haml]","0.0","0.0","[159d35ba3968eb42e2438834a79bab315476cbda]","0.048 seconds","4.1.8","[cucumber-rails, rspec-rails, simplecov, factory_girl]","0","[]","0","0","[]","false","0.0","0","","0",""
