"Repository","https://github.com/cul-it/blacklight-cornell.git"
"Tasks with empty IReal","0"
"Tasks with no-empty IReal","30"
"Tasks with relevant AST error","0"
"Tasks with AST error of Gherkin files","0"
"Tasks with AST error of StepDef files","0"
"Tasks with AST error of production files","0"
"Tasks with AST error of unit test files","0"
"Tasks with step match error","0"
"Tasks without required gems","0"
"Tasks with changed stepdef","6"
"Tasks with changed Gherkin","30"
"Tasks with implemented Gherkin scenarios","30"
"All invalid tasks","0"
"All valid tasks (Gherkin scenario, no empty IReal, no error)","30"
"Valid tasks, but empty ITest","0"
"Valid tasks, no empty ITest, but zero precision-recall","23"
"Valid tasks, no empty ITest, no zero precision-recall","7"
"Project","Task","Date","#Days","#Commits","Commit_Message","#Devs","#Gherkin_Tests","#Impl_Gherkin_Tests","#StepDef","#Impl_StepDef","Methods_Unknown_Type","#Step_Call","Step_Match_Errors","#Step_Match_Error","AST_Errors","#AST_Errors","Gherkin_AST_Errors","#Gherkin_AST_Errors","Steps_AST_Errors","#Steps_AST_Errors","Renamed_Files","Deleted_Files","NotFound_Views","#Views","#TestI","#TaskI","TestI","TaskI","Precision","Recall","Hashes","Timestamp","Rails","Gems","#Visit_Call","Lost_visit_call","#Views_ITest","#Code_View_Analysis","Code_View_Analysis","Has_Merge","F2","#Multiple_Step_Matches","Multiple_Step_Matches","#Generic_Step_Keyword","Generic_Step_Keyword"
"blacklight-cornell","338","[07-08-2017, 08-08-2017]","2","2","[update styles, add tooltip for info on styles , adding DVD to media parsing ]","1","8","8","0","0","[click_link, page, have_content, within, url_for, sleep, body, xpath, text, nil?]","0","","0","","0","","0","","0","","[]","[librarian_view_solr_document]","1","10","4","[app/controllers/catalog_controller.rb, app/views/catalog/_callnumber.html.erb, app/views/catalog/_constraints.html.erb, app/views/catalog/_holdings.html.erb, app/views/catalog/_location.html.erb, app/views/catalog/_previous_next_doc.html.erb, app/views/catalog/_show_metadata.html.erb, app/views/catalog/_status.html.erb, app/views/catalog/show.html.erb, lib/maybe.rb]","[app/models/concerns/blacklight/solr/document/marc_export.rb, app/views/catalog/_citation.html.erb, lib/blacklight/solr/document/ris.rb, lib/blacklight/solr/document/zotero.rb]","0.0","0.0","[ac9df2fabb95b859626354f84f299a57fee18349, a621f160235ca00804423c3ba8f07c067166949c]","0.871 seconds","4.2.7.1","[cucumber-rails, rspec-rails]","10","[]","8","9","[app/controllers/catalog_controller.rb, app/views/catalog/_callnumber.html.erb, app/views/catalog/_constraints.html.erb, app/views/catalog/_holdings.html.erb, app/views/catalog/_location.html.erb, app/views/catalog/_previous_next_doc.html.erb, app/views/catalog/_show_metadata.html.erb, app/views/catalog/_status.html.erb, app/views/catalog/show.html.erb]","false","0.0","0","","0",""
"blacklight-cornell","341","[04-08-2017, 07-08-2017]","4","2","[add council of science editors , set medium more correctly ]","1","8","8","0","0","[click_link, page, have_content, within, url_for, sleep, body, xpath, text, nil?]","0","","0","","0","","0","","0","","[]","[librarian_view_solr_document]","1","10","3","[app/controllers/catalog_controller.rb, app/views/catalog/_callnumber.html.erb, app/views/catalog/_constraints.html.erb, app/views/catalog/_holdings.html.erb, app/views/catalog/_location.html.erb, app/views/catalog/_previous_next_doc.html.erb, app/views/catalog/_show_metadata.html.erb, app/views/catalog/_status.html.erb, app/views/catalog/show.html.erb, lib/maybe.rb]","[app/models/concerns/blacklight/solr/document/marc_export.rb, app/views/catalog/_citation.html.erb, lib/blacklight/solr/document/zotero.rb]","0.0","0.0","[112867836b14419664e5a03265f3e5db0b7761aa, abdf375b2473a69d1965103a86f8cf4e2a8de46d]","0.806 seconds","4.2.7.1","[cucumber-rails, rspec-rails]","10","[]","8","9","[app/controllers/catalog_controller.rb, app/views/catalog/_callnumber.html.erb, app/views/catalog/_constraints.html.erb, app/views/catalog/_holdings.html.erb, app/views/catalog/_location.html.erb, app/views/catalog/_previous_next_doc.html.erb, app/views/catalog/_show_metadata.html.erb, app/views/catalog/_status.html.erb, app/views/catalog/show.html.erb]","false","0.0","0","","0",""
"blacklight-cornell","348","[03-08-2017]","1","4","[Discoveryaccess 3501 (#386)  * add libguides bento box  * simple libguides test , fix test for cleansing of corporate author DISCOVERYACCESS-3544 , fix test for cleansing of corporate author , normalize location of link to catalog.  Remove qualifiers like (U.S.) from organization names as authors ]","2","18","18","0","0","[fill_in, page, find, click, click_button, sleep, page, have_content, page, have_content, click_link, pending, body, xpath, text, nil?, have_selector, all, find, css, be_nil, click_link, sleep, gsub!, click_link, within, url_for]","0","","0","","0","","0","","0","","[]","[librarian_view_solr_document, page_entries, search, summary]","4","10","7","[app/controllers/catalog_controller.rb, app/views/catalog/_callnumber.html.erb, app/views/catalog/_constraints.html.erb, app/views/catalog/_holdings.html.erb, app/views/catalog/_location.html.erb, app/views/catalog/_previous_next_doc.html.erb, app/views/catalog/_show_metadata.html.erb, app/views/catalog/_status.html.erb, app/views/catalog/show.html.erb, lib/maybe.rb]","[app/controllers/search_controller.rb, app/models/concerns/blacklight/solr/document/marc_export.rb, app/search_engines/bento_search/libguides_engine.rb, app/search_engines/bento_search/solr_engine.rb, app/views/single_search/_pane_results.html.erb, app/views/single_search/index.html.erb, lib/blacklight/solr/document/zotero.rb]","0.0","0.0","[28d17baf2c2a3bd0a816157b912fe08a25e6f008, f463ad79b4775f83d9935667d7b155ced865e159, 0d23910ce471ea0d19e7eff6677f96b750038eec, f3d19ec3da909a34e53be9df1616c0042c12fdbb]","1.107 seconds","4.2.7.1","[cucumber-rails, rspec-rails]","23","[]","8","9","[app/controllers/catalog_controller.rb, app/views/catalog/_callnumber.html.erb, app/views/catalog/_constraints.html.erb, app/views/catalog/_holdings.html.erb, app/views/catalog/_location.html.erb, app/views/catalog/_previous_next_doc.html.erb, app/views/catalog/_show_metadata.html.erb, app/views/catalog/_status.html.erb, app/views/catalog/show.html.erb]","false","0.0","0","","0",""
"blacklight-cornell","352","[02-08-2017, 03-08-2017]","2","4","[Merge pull request #382 from cul-it/DISCOVERYACCESS-3612  DISCOVERYACCESS-3612: make ask and chat buttons stand out more in foo…, DISCOVERYACCESS-3612: make ask and chat buttons stand out more in footer since we removed ask link from the header , make test less sensitive , update cassettes ]","3","16","16","0","0","[fill_in, fill_in, page, find, click, click_button, sleep, pending, page, have_selector, all, find, select_option, select_option, have_selector, click_link, have_link, have_content]","0","","0","","0","","0","","0","","[]","[advanced]","1","1","1","[lib/maybe.rb]","[app/views/shared/_footer.html.erb]","0.0","0.0","[e4de13221683bde760ed68767e207c6f3148a0ed, de94f7d11334013e69ee5f240c46c3eceffb21d5, c2b24089bb5b2ee6aa488d578a2ce718c8780bc1, b65ea1d27272a0b057865b7fade3bbed3a1d37e4]","0.226 seconds","4.2.7.1","[cucumber-rails, rspec-rails]","1","[]","0","0","[]","true","0.0","0","","0",""
"blacklight-cornell","354","[02-08-2017]","1","1","[Merge zotero changes ]","1","52","52","3","3","[fill_in, fill_in, page, find, click, click_button, page, find, click, click_button, sleep, sleep, pending, have_selector, have_content, all, select_option, select_option, find, select_option, have_selector, click_link, click_link, have_link, each, __method__, url_for, gsub!, gsub!, fill_in, have_css, within]","0","","0","","0","","0","","0","","[]","[advanced, app/views/catalog/_did_you_mean.html.erb, app/views/catalog/_home.html.erb, app/views/catalog/_paginate_compact.html.erb, app/views/catalog/_search_sidebar.html.erb, librarian_view_solr_document]","6","14","2","[app/controllers/catalog_controller.rb, app/views/catalog/_callnumber.html.erb, app/views/catalog/_constraints.html.erb, app/views/catalog/_holdings.html.erb, app/views/catalog/_location.html.erb, app/views/catalog/_previous_next_doc.html.erb, app/views/catalog/_results_pagination.html.erb, app/views/catalog/_select_all.html.erb, app/views/catalog/_show_metadata.html.erb, app/views/catalog/_sort_and_per_page.html.erb, app/views/catalog/_status.html.erb, app/views/catalog/index.html.erb, app/views/catalog/show.html.erb, lib/maybe.rb]","[app/views/catalog/_document.html.erb, lib/blacklight/solr/document/zotero.rb]","0.0","0.0","[3f8413327fb272c89ec61d1a4ea22d9e722569ee]","1.239 seconds","4.2.7.1","[cucumber-rails, rspec-rails]","23","[]","12","13","[app/controllers/catalog_controller.rb, app/views/catalog/_callnumber.html.erb, app/views/catalog/_constraints.html.erb, app/views/catalog/_holdings.html.erb, app/views/catalog/_location.html.erb, app/views/catalog/_previous_next_doc.html.erb, app/views/catalog/_results_pagination.html.erb, app/views/catalog/_select_all.html.erb, app/views/catalog/_show_metadata.html.erb, app/views/catalog/_sort_and_per_page.html.erb, app/views/catalog/_status.html.erb, app/views/catalog/index.html.erb, app/views/catalog/show.html.erb]","false","0.0","0","","0",""
"blacklight-cornell","355","[01-08-2017, 02-08-2017]","2","5","[Discoveryaccess 3089 (#381)  * create digital collections search engine   Former-commit-id: 0bd62c06c15480c11f06cf627d1041a6703164d1  * thumbnails for portal results   Former-commit-id: c1b300f3764c5b2eb6338cffa073b852b532d4e8  * fix class   Former-commit-id: 59742ee391cead2c2c5c32c20c4b251531b8cc71  * add digital collections bento box , Merge pull request #380 from cul-it/DISCOVERYACCESS-3411  add sanitize method to cornell_catalog.rb. Short term fix, add sanitize method to cornell_catalog.rb. Short term fix , Merge pull request #379 from cul-it/DISCOVERYACCESS-3111  DISCOVERYACCESS-3111: change release notes back to sentence case so t…, DISCOVERYACCESS-3111: change release notes back to sentence case so test will pass ]","4","9","9","0","0","[fill_in, page, find, click, click_button, click_link, pending, page, have_content, page, have_content, have_selector, all, text, find, css, be_nil, click_link, sleep, gsub!]","0","","0","","0","","0","","0","","[]","[page_entries, search, summary]","3","1","9","[lib/maybe.rb]","[app/controllers/search_controller.rb, app/item_decorators/bento_search/digital_collections.rb, app/search_engines/bento_search/digital_collections_engine.rb, app/search_engines/bento_search/solr_engine_single.rb, app/views/bento_search/_std_item.html.erb, app/views/shared/_footer.html.erb, app/views/single_search/_pane_results.html.erb, app/views/single_search/index.html.erb, lib/blacklight_cornell/cornell_catalog.rb]","0.0","0.0","[ef1d520c547435600524547bddbe16ee7883d746, 8a2edabbe65276b548b978362ebddfe6b9cf9cf4, 694cfa1d630bbcf7e8fe843ab4ee07b49a420448, 45c4aca73bb0aac52d58648b2995f54225441375, 04df358c94f07ea6226e35feda6d903a8eb07b0c]","0.399 seconds","4.2.7.1","[cucumber-rails, rspec-rails]","13","[]","0","0","[]","true","0.0","0","","0",""
"blacklight-cornell","356","[01-08-2017]","1","5","[Merge pull request #378 from cul-it/DISCOVERYACCESS-3111  DISCOVERYACCESS-3111: add web accessibility help link to footer, DISCOVERYACCESS-3111: add web accessibility help link to footer , Discoveryaccess 3601 (#377)  * remove all google web search code  * update tooltip language , Merge pull request #376 from cul-it/DISCOVERYACCESS-3612  DISCOVERYACCESS-3612: add tooltip and piwik even to hamburger menu, DISCOVERYACCESS-3612: add tooltip and piwik even to hamburger menu ]","3","8","8","0","0","[fill_in, page, find, click, click_button, click_link, pending, page, have_content, page, have_selector, all, text, have_content, find, css, be_nil, click_link, sleep, gsub!]","0","","0","","0","","0","","0","","[app/item_decorators/bento_search/web_decorator.rb, app/search_engines/bento_search/google_site_search_engine.rb, app/views/single_search/single_search.html.erb]","[page_entries, search, summary]","3","1","6","[lib/maybe.rb]","[app/controllers/search_controller.rb, app/helpers/display_helper.rb, app/views/shared/_footer.html.erb, app/views/shared/_header_navbar.html.erb, app/views/single_search/_pane_results.html.erb, app/views/single_search/index.html.erb]","0.0","0.0","[f1a9cc9a436ef4f699c9fcb3e9cc34db234a5f93, 1063e8a88631116b29ba6eec25c32746183d7018, 2ae8bc134f34b9a3d11db34c73224f01e2e5071e, e32de81285b500b27d6c03a48c435013fbd549a2, 3d766cd22ba4cebdffebae74457561f493ccc348]","0.646 seconds","4.2.7.1","[cucumber-rails, rspec-rails]","13","[]","0","0","[]","true","0.0","0","","0",""
"blacklight-cornell","357","[26-06-2017, 27-06-2017, 18-07-2017, 24-07-2017, 27-07-2017, 31-07-2017, 01-08-2017]","37","11","[Update cassettes, and tests for citeproc usage. , Fixing tests to correspond to use of citeproc , Start using citeproc for formatting citations , Add MLA 8th edition, and add lots of citation tests , update chicago citation format to use relator information more effectively. , Correct a definition of test script template , add tests, and support for rdf_zotero , Changes for rdf zotero format , updating to use zotero native rdf format , Improve RIS citation format data extraction , improve zotero interface ]","1","17","17","5","5","[click_link, page, have_content, within, url_for, sleep, body, xpath, text, nil?]","0","","0","","0","","0","","0","","[]","[librarian_view_solr_document]","1","10","6","[app/controllers/catalog_controller.rb, app/views/catalog/_callnumber.html.erb, app/views/catalog/_constraints.html.erb, app/views/catalog/_holdings.html.haml, app/views/catalog/_location.html.erb, app/views/catalog/_previous_next_doc.html.erb, app/views/catalog/_show_metadata.html.erb, app/views/catalog/_status.html.haml, app/views/catalog/show.html.erb, lib/maybe.rb]","[app/models/concerns/blacklight/solr/document/marc_export.rb, app/models/solr_document.rb, app/views/catalog/_citation.html.erb, lib/bl_monkeys.rb, lib/blacklight/solr/document/ris.rb, lib/blacklight/solr/document/zotero.rb]","0.0","0.0","[c01f74cb856e720967560c42e65868870d5c5779, b79878aff349875014ca06732ddd6d73525b366a, 4829be4df13127ea1c2311359239be58394f6161, cdbb73886d0eafcbfdf1b83489a87bb75bfca73c, beaa93a09c68783495eea56ff7d39268b7ee77a6, 6084e49a630dab6a7f270bb5d531d6ea74bd050b, d35bd9d429bea6cdf2e3e75f12f36712234e720e, 3d48574d64c441a80c6bf9874e5111fe10d0e7f3, 0e3d1f8cc4d4d29c9cfb46701ba62252cf9d4fbb, b8d2098d725e57a81ac76b405498860d50549cb9, 85c6306715f44176b6fdb1cfabea34239c1476aa]","1.715 seconds","4.2.7.1","[cucumber-rails, rspec-rails]","17","[]","8","9","[app/controllers/catalog_controller.rb, app/views/catalog/_callnumber.html.erb, app/views/catalog/_constraints.html.erb, app/views/catalog/_holdings.html.haml, app/views/catalog/_location.html.erb, app/views/catalog/_previous_next_doc.html.erb, app/views/catalog/_show_metadata.html.erb, app/views/catalog/_status.html.haml, app/views/catalog/show.html.erb]","false","0.0","0","","0",""
"blacklight-cornell","378","[06-04-2017, 07-04-2017, 17-04-2017, 26-04-2017, 01-05-2017]","26","9","[Add delay before checking for clock icon.   Former-commit-id: 18687ecbd45f49a516080cb5ea193359c4b5368d, One record disappeared so test case failed.  Search results were differntly ordered.   Former-commit-id: 46c234e0e850340e6e69e8e418df84bafe0a6c10, escape colon in query for advanced and simple search   Former-commit-id: d46d1c31d9675b96cdb1987826b36f849404348e, DISCOVERYACCESS-3449 update locations.yml for blacklight-cornell.   Former-commit-id: 3ba5caaea3eb51beb16cdd5d62950f621e9a1649, DISCOVERYACCESS-3413 - Fix any SPIF blocks request button   Former-commit-id: e59d36ed15759d5c590a78eff64b18591a7cab94, Merge pull request #354 from cul-it/fix-piwik-events  only do array work on formats that are arrays  Former-commit-id: 04f883067452ff51117e279542373410c6312d36, only do array work on formats that are arrays   Former-commit-id: 2b7bf7c836032c8bfdd0de2ec1b87d4129d27afa, Merge pull request #353 from cul-it/remove-multi-tou  remove multiple tou links. update test  Former-commit-id: dd8 [TOO_LONG]","4","45","45","0","0","[fill_in, fill_in, page, find, click, click_button, page, find, click, click_button, sleep, sleep, select_option, find, select_option, select_option, have_selector, gsub!, fill_in, gsub!, all, have_css, within, click_link, click_link, have_link, have_content, each, __method__, url_for, pending, page, have_selector]","0","","0","","0","","0","","0","","[]","[advanced, app/views/catalog/_did_you_mean.html.erb, app/views/catalog/_home.html.erb, app/views/catalog/_paginate_compact.html.erb, app/views/catalog/_search_sidebar.html.erb, librarian_view_solr_document]","6","14","8","[app/controllers/catalog_controller.rb, app/views/catalog/_callnumber.html.erb, app/views/catalog/_constraints.html.erb, app/views/catalog/_holdings.html.haml, app/views/catalog/_location.html.erb, app/views/catalog/_previous_next_doc.html.erb, app/views/catalog/_results_pagination.html.erb, app/views/catalog/_select_all.html.erb, app/views/catalog/_show_metadata.html.erb, app/views/catalog/_sort_and_per_page.html.erb, app/views/catalog/_status.html.haml, app/views/catalog/index.html.erb, app/views/catalog/show.html.erb, lib/maybe.rb]","[app/controllers/catalog_controller.rb, app/helpers/display_helper.rb, app/models/search_builder.rb, app/views/bento_search/_item_title.html.erb, app/views/catalog/_holdings.html.haml, app/views/catalog/_show_metadata.html.erb, lib/blacklight/solr/document/ris.rb, lib/blacklight_cornell/cornell_catalog.rb]","0.2142857143","0.375","[a272c2786bd7fd4c6b88077371c43911f8e6e40b, 419d1d29188c89ecda0eb57e28170422caf05810, 6043d3f116c4fedb9d9408da05b5e9c305726b79, 9f099f1ddf5f0b96b24638792c693dcc1797fb8b, b22483e5c4131b9091d2a90c10a900ac45a89ad1, d0541783dbf3bf4fbbac339e4193bca9ce1dc646, e65051a6302a74faa0dd806e911a7763cff26dd7, cfae20ba3ea7e523bf12b937c7b08e16bd8bf23f, d88390cc744e9527fbd4a69fff0f7bb51177dab6]","1.938 seconds","4.2.7.1","[cucumber-rails, rspec-rails]","17","[]","12","13","[app/controllers/catalog_controller.rb, app/views/catalog/_callnumber.html.erb, app/views/catalog/_constraints.html.erb, app/views/catalog/_holdings.html.haml, app/views/catalog/_location.html.erb, app/views/catalog/_previous_next_doc.html.erb, app/views/catalog/_results_pagination.html.erb, app/views/catalog/_select_all.html.erb, app/views/catalog/_show_metadata.html.erb, app/views/catalog/_sort_and_per_page.html.erb, app/views/catalog/_status.html.haml, app/views/catalog/index.html.erb, app/views/catalog/show.html.erb]","true","0.3260869565283554","0","","0",""
"blacklight-cornell","380","[05-04-2017]","1","3","[More delays hoping to fix failures in tests.   Former-commit-id: a9245e89f6965b32cf10b46b7a709fa843ba2f28, fix test.   Former-commit-id: b91b19742f0e8fd25bd9e2b84d933018877e060e, DISCOVERYACCESS-3389 -- some sort of problem with log for tou.   Former-commit-id: b12751d991e0f5f79860c6b0a313e33599e0a646]","1","15","15","0","0","[page, find, click, click_button, sleep, sleep, gsub!, fill_in, gsub!, fill_in, page, all, have_css, within, have_selector, select_option, find, select_option, click, have_link, have_content]","0","","0","","0","","0","","0","","[]","[app/views/catalog/_did_you_mean.html.erb, app/views/catalog/_home.html.erb, app/views/catalog/_paginate_compact.html.erb, app/views/catalog/_search_sidebar.html.erb, databases, subject/Images]","6","6","1","[app/controllers/catalog_controller.rb, app/views/catalog/_results_pagination.html.erb, app/views/catalog/_select_all.html.erb, app/views/catalog/_sort_and_per_page.html.erb, app/views/catalog/index.html.erb, lib/maybe.rb]","[app/controllers/databases_controller.rb]","0.0","0.0","[d57b2b55510c619a656710cd4cd8b698fa936bd5, 58664316967fbddf54f81eaee330db9c2a98b697, 1a60c677843d5f850e4b5117d28c4f27a6c0581b]","0.464 seconds","4.2.7.1","[cucumber-rails, rspec-rails]","3","[]","4","5","[app/controllers/catalog_controller.rb, app/views/catalog/_results_pagination.html.erb, app/views/catalog/_select_all.html.erb, app/views/catalog/_sort_and_per_page.html.erb, app/views/catalog/index.html.erb]","false","0.0","0","","0",""
"blacklight-cornell","387","[04-04-2017, 05-04-2017]","2","4","[Align tests with data.   Former-commit-id: 42e1b4de337bd77d73b6c9e6e62146d074acaaaf, Test failure due to undefined references in erb file   Former-commit-id: e72870a8b05ab2c729dd3fcbed0ba0c24ebc9a08, Add b4 in integration.   Former-commit-id: 460885d2541cd0c8064d840f179d38e415bd12d1, Update changed test.   Former-commit-id: df7d0755d8d59fd522bd986c04e8279d797b86bb]","1","37","37","0","0","[fill_in, fill_in, page, find, click, click_button, page, find, click, click_button, sleep, pending, have_selector, have_content, all, select_option, select_option, have_selector, click_link, click_link, have_link, each, __method__, url_for, gsub!, have_css, within]","0","","0","","0","","0","","0","","[]","[advanced, app/views/catalog/_did_you_mean.html.erb, app/views/catalog/_home.html.erb, app/views/catalog/_paginate_compact.html.erb, app/views/catalog/_search_sidebar.html.erb, librarian_view_solr_document]","6","14","1","[app/controllers/catalog_controller.rb, app/views/catalog/_callnumber.html.erb, app/views/catalog/_constraints.html.erb, app/views/catalog/_holdings.html.haml, app/views/catalog/_location.html.erb, app/views/catalog/_previous_next_doc.html.erb, app/views/catalog/_results_pagination.html.erb, app/views/catalog/_select_all.html.erb, app/views/catalog/_show_metadata.html.erb, app/views/catalog/_sort_and_per_page.html.erb, app/views/catalog/_status.html.haml, app/views/catalog/index.html.erb, app/views/catalog/show.html.erb, lib/maybe.rb]","[app/views/catalog/_show_metadata.html.erb]","0.0714285714","1.0","[5d9ef00d0def83089f2bf46266bd51cd07458bbe, 13a02168d99d2fc0174b50311ce6776b3308ffaa, 2800f71badc145bfde3039b7b91d7a47c8585582, 0e9332e8134f2b14f438486a1131e3eadddacb1d]","1.093 seconds","4.2.7.1","[cucumber-rails, rspec-rails]","16","[]","12","13","[app/controllers/catalog_controller.rb, app/views/catalog/_callnumber.html.erb, app/views/catalog/_constraints.html.erb, app/views/catalog/_holdings.html.haml, app/views/catalog/_location.html.erb, app/views/catalog/_previous_next_doc.html.erb, app/views/catalog/_results_pagination.html.erb, app/views/catalog/_select_all.html.erb, app/views/catalog/_show_metadata.html.erb, app/views/catalog/_sort_and_per_page.html.erb, app/views/catalog/_status.html.haml, app/views/catalog/index.html.erb, app/views/catalog/show.html.erb]","false","0.27777777769135803","0","","0",""
"blacklight-cornell","407","[29-03-2017]","1","2","[so i can do a pull   Former-commit-id: 257c6bc37f8c727a196b04fad65793b98e4477a0, fix quoted begins with advanced search add tests to tou and advanced search   Former-commit-id: e45c66430d380764137ba52fcb972cd0d30fbbee]","1","14","14","0","0","[fill_in, fill_in, page, find, click, click_button, sleep, present?, page, have_selector, all, find, select_option, select_option, have_selector, click_link, have_link, have_content]","0","","0","","0","","0","","0","","[]","[advanced, databases, subject/Anthropology]","3","4","2","[app/controllers/databases_controller.rb, app/views/databases/_databases_search_form.html.erb, app/views/databases/tou.html.erb, lib/maybe.rb]","[app/helpers/advanced_helper.rb, app/models/search_builder.rb]","0.0","0.0","[9973f97a07e40c459e2b2d6372cb0322b69be728, ec5ccaa95480be7ee7e43c12d92221366f8c6f3d]","1.565 seconds","4.2.7.1","[cucumber-rails, rspec-rails]","4","[]","2","3","[app/controllers/databases_controller.rb, app/views/databases/_databases_search_form.html.erb, app/views/databases/tou.html.erb]","false","0.0","0","","0",""
"blacklight-cornell","413","[28-03-2017]","1","1","[DISCOVERYACCESS-3325 - show holding record notes for online records. Restore functionality of returning marcxml records when /catalog/num.marcxml entered.   Former-commit-id: 952fd977840919cbca58d8da21809e119961524d]","1","16","16","0","0","[click_link, page, have_link, have_selector, have_content, each, __method__, url_for]","0","","0","","0","","0","","0","","[]","[librarian_view_solr_document]","1","9","2","[app/controllers/catalog_controller.rb, app/views/catalog/_callnumber.html.erb, app/views/catalog/_constraints.html.erb, app/views/catalog/_holdings.html.haml, app/views/catalog/_location.html.erb, app/views/catalog/_previous_next_doc.html.erb, app/views/catalog/_show_metadata.html.erb, app/views/catalog/_status.html.haml, app/views/catalog/show.html.erb]","[app/views/catalog/_show_metadata.html.erb, lib/blacklight_cornell/cornell_catalog.rb]","0.1111111111","0.5","[06590e26345166045c3f12a9847eb6b2dc9a622d]","0.916 seconds","4.2.7.1","[cucumber-rails, rspec-rails]","14","[]","8","9","[app/controllers/catalog_controller.rb, app/views/catalog/_callnumber.html.erb, app/views/catalog/_constraints.html.erb, app/views/catalog/_holdings.html.haml, app/views/catalog/_location.html.erb, app/views/catalog/_previous_next_doc.html.erb, app/views/catalog/_show_metadata.html.erb, app/views/catalog/_status.html.haml, app/views/catalog/show.html.erb]","false","0.2941176470432526","0","","0",""
"blacklight-cornell","418","[23-03-2017]","1","1","[DISCOVERYACCESS-3271 call number search should by default sort on call number. Add a check on user override of sort order so this does not disable sorting on call number searches by something OTHER than call number   Former-commit-id: f59ced7d3634a9a0f399b2515dc1b7a16bf87a48]","1","16","16","0","0","[click_link, page, have_link, have_selector, have_content, each, __method__, url_for, pending]","0","","0","","0","","0","","0","","[]","[librarian_view_solr_document]","1","9","1","[app/controllers/catalog_controller.rb, app/views/catalog/_callnumber.html.erb, app/views/catalog/_constraints.html.erb, app/views/catalog/_holdings.html.haml, app/views/catalog/_location.html.erb, app/views/catalog/_previous_next_doc.html.erb, app/views/catalog/_show_metadata.html.erb, app/views/catalog/_status.html.haml, app/views/catalog/show.html.erb]","[app/models/search_builder.rb]","0.0","0.0","[cb84b9c8d0fc0e3c8bbae9527d722ac77420f545]","1.246 seconds","4.2.7.1","[cucumber-rails, rspec-rails]","14","[]","8","9","[app/controllers/catalog_controller.rb, app/views/catalog/_callnumber.html.erb, app/views/catalog/_constraints.html.erb, app/views/catalog/_holdings.html.haml, app/views/catalog/_location.html.erb, app/views/catalog/_previous_next_doc.html.erb, app/views/catalog/_show_metadata.html.erb, app/views/catalog/_status.html.haml, app/views/catalog/show.html.erb]","false","0.0","0","","0",""
"blacklight-cornell","424","[20-03-2017]","1","4","[Fix an log.   Former-commit-id: 69894c3873715e7071578f038107c661dc4e30dd, Allow data to be fetches as gzip from holding server. DISCOVERYACCESS-2690   Former-commit-id: b857856ae56b0567bdf7a2356e574261c8170e73, Fix typo in logger.   Former-commit-id: 8da7a5b4fa86a096137068c72373a76eb11965fa, Add more tests for different advanced search fields, and conditions.   Former-commit-id: e53cc7139e89741a25513dfb89ad75b02fc9aa1f]","1","12","12","0","0","[fill_in, fill_in, page, find, click, click_button, sleep, page, have_selector, all, find, select_option, select_option, have_selector, click_link, have_link, have_content]","0","","0","","0","","0","","0","","[]","[advanced]","1","1","2","[lib/maybe.rb]","[app/controllers/backend_controller.rb, app/models/search_builder.rb]","0.0","0.0","[9fe45902c33ed278738c2534c62d310fcf8b6f63, f1ba97c44da9ddb5deb4e8fd6a7703297e877edf, e9b00ec717be56d455d8f1ca42d41483e9571fba, ef18ee53467486f6e3e150a026929ec33551a506]","0.346 seconds","4.2.7.1","[cucumber-rails, rspec-rails]","1","[]","0","0","[]","false","0.0","0","","0",""
"blacklight-cornell","429","[01-03-2017, 02-03-2017]","2","4","[ DISCOVERYACCESS-3298   Former-commit-id: 4b8b358b406d97c78a653053fe76741c9e86225d, Url shortener fixes, and adv search fix.   Former-commit-id: 956f0a11a2759edcf97786f5e9cd9ea823db568d, DISCOVERYACCESS-3287 sms fails when tinyurl is not reachable/out of service. add env variable config parameter for shortener.   Former-commit-id: 5904b5208bcecf6747af6b371bdafdf7a5f01725, DISCOVERYACCESS-3287 sms fails when tinyurl is not reachable/out of service. Add date and time, and severity, and process number  to logs.   Former-commit-id: 6ce2f568269c771d3b15d9c1df5292a8bafd7426]","1","9","9","0","0","[fill_in, fill_in, page, find, click, click_button, sleep, page, have_selector, all, find, select_option, select_option, have_selector, click_link, have_content]","0","","0","","0","","0","","0","","[]","[advanced]","1","1","2","[lib/maybe.rb]","[app/models/search_builder.rb, lib/blacklight_cornell/cornell_catalog.rb]","0.0","0.0","[ba5ebf71f2b64583f9127821d0af7bb1b95eabfd, 315bd6f9fc7e873e2e112893e6eb65a0d6d86642, cc61a093327a81dfd085cb65980fd8750b541aae, 8351a61039f385472dabc8efe3d9bec181244ddd]","0.892 seconds","4.2.7.1","[cucumber-rails, rspec-rails]","1","[]","0","0","[]","false","0.0","0","","0",""
"blacklight-cornell","433","[28-02-2017]","1","1","[DISCOVERYACCESS-3271 -  call number search should by default sort on call number.   Former-commit-id: 0a61b406494c25559a180ef82e94c32fdfe11cf1]","1","20","20","0","0","[fill_in, page, find, click, click_button, sleep, sleep, gsub!, page, all, have_css, within, have_selector, select_option, click, pending, have_content, have_content, page, have_content, text, find, css, be_nil, click_link, gsub!, click_link]","0","","0","","0","","0","","0","","[]","[app/views/catalog/_did_you_mean.html.erb, app/views/catalog/_home.html.erb, app/views/catalog/_paginate_compact.html.erb, app/views/catalog/_search_sidebar.html.erb, page_entries, search, summary, web-count]","8","6","1","[app/controllers/catalog_controller.rb, app/views/catalog/_results_pagination.html.erb, app/views/catalog/_select_all.html.erb, app/views/catalog/_sort_and_per_page.html.erb, app/views/catalog/index.html.erb, lib/maybe.rb]","[app/models/search_builder.rb]","0.0","0.0","[4043fb8fd108738f83dc497c1f9666bd9b5b3a1d]","0.554 seconds","4.2.7.1","[cucumber-rails, rspec-rails]","18","[]","4","5","[app/controllers/catalog_controller.rb, app/views/catalog/_results_pagination.html.erb, app/views/catalog/_select_all.html.erb, app/views/catalog/_sort_and_per_page.html.erb, app/views/catalog/index.html.erb]","false","0.0","0","","0",""
"blacklight-cornell","436","[27-02-2017, 28-02-2017]","2","3","[Add delays to make failing tests pass.   Former-commit-id: 6bf184f819bfd84b83e08bbdbcc04458fc6f3c48, Delay a bit in the simple search 'Next'. Make sure we do not have a null object in params helper.   Former-commit-id: 3677832c6bff6ebb5772b2d9de4d8a58acc22332, DISCOVERYACCESS-3251  Previous and next links are not stepping through results correctly   Former-commit-id: 0c1991675784b5bbdc23627b52f1061dfa6a7d73]","1","29","29","0","0","[fill_in, fill_in, page, find, click, click_button, sleep, pending, have_selector, page, have_content, have_content, page, have_content, all, click, select_option, find, select_option, have_selector, click_link, text, css, be_nil, click_link, sleep, gsub!, gsub!, have_css, within]","0","","0","","0","","0","","0","","[]","[advanced, app/views/catalog/_did_you_mean.html.erb, app/views/catalog/_home.html.erb, app/views/catalog/_paginate_compact.html.erb, app/views/catalog/_search_sidebar.html.erb, page_entries, search, summary, web-count]","9","6","2","[app/controllers/catalog_controller.rb, app/views/catalog/_results_pagination.html.erb, app/views/catalog/_select_all.html.erb, app/views/catalog/_sort_and_per_page.html.erb, app/views/catalog/index.html.erb, lib/maybe.rb]","[app/helpers/cornell_params_helper.rb, lib/blacklight_cornell/cornell_catalog.rb]","0.0","0.0","[4aefb335d6883d9133faa502beeba61eba4378a0, 2b1c42fb6f118984b5fe928058cb0bbc6541cfda, b45af1d6dcb33d35f3a6868e0ed695ffbab18fe1]","0.608 seconds","4.2.7.1","[cucumber-rails, rspec-rails]","19","[]","4","5","[app/controllers/catalog_controller.rb, app/views/catalog/_results_pagination.html.erb, app/views/catalog/_select_all.html.erb, app/views/catalog/_sort_and_per_page.html.erb, app/views/catalog/index.html.erb]","false","0.0","0","","0",""
"blacklight-cornell","438","[16-02-2017]","1","2","[Replace pesky ""do not rewrite regexp""  with better expression.   Former-commit-id: 887322c394f5e30a6ece087cb6f118dd2fd3bcf5, Improve tests to eliminate false failures, add a quoted, and non-quoted call number search test.   Former-commit-id: 50a54725792604688a96fe83f9e699cf2aad34e5]","1","23","23","2","2","[fill_in, fill_in, page, find, click, click_button, page, find, click, click_button, sleep, pending, have_selector, have_content, page, have_content, have_content, all, select_option, select_option, have_selector, click_link, text, css, be_nil, click_link, gsub!]","0","","0","","0","","0","","0","","[]","[advanced, page_entries, search, summary, web-count]","5","1","1","[lib/maybe.rb]","[app/controllers/search_controller.rb]","0.0","0.0","[495893ca219e010abc25289445f311018208d6dc, 6a10679643c22b7c217791bf2ec8a7bc02b1c774]","0.433 seconds","4.2.7.1","[cucumber-rails, rspec-rails]","18","[]","0","0","[]","false","0.0","0","","0",""
"blacklight-cornell","446","[08-02-2017]","1","4","[DISCOVERYACCESS-3175 Chicgo citation lack author when corporate author is present.   Former-commit-id: e9175a8854dca4ba3d96f94ddefc01e35ead9832, I made the same typo in two places in the RIS output.   Former-commit-id: 6a2c8b444320fe053b4c972e7ee416b06d96b584, Fix typo in ris output.   Former-commit-id: d33d90f7979eec1c6a593c8de491c87a8f6266d8, Remove duplicate definition of method in marc_export, and update RIS to use corporate author.   Former-commit-id: 44f46f9b40af432895501521d53e395298d76fd3]","1","8","8","0","0","[click_link, page, have_content, within, url_for, sleep, pending]","0","","0","","0","","0","","0","","[]","[librarian_view_solr_document]","1","10","2","[app/controllers/catalog_controller.rb, app/views/catalog/_callnumber.html.erb, app/views/catalog/_constraints.html.erb, app/views/catalog/_holdings.html.haml, app/views/catalog/_location.html.erb, app/views/catalog/_previous_next_doc.html.erb, app/views/catalog/_show_metadata.html.erb, app/views/catalog/_status.html.haml, app/views/catalog/show.html.erb, lib/maybe.rb]","[app/models/concerns/blacklight/solr/document/marc_export.rb, lib/blacklight/solr/document/ris.rb]","0.0","0.0","[99574349310f4c870186a455f3f0b3a68acee6de, 693f59275f7c70ef0e638e00a8e35e402a6dedf6, 8e6f4f346110da80935f1d98a1a391b2e10014a7, 397b92cd0359108cffe207c5e1a1bfb86904d5bb]","1.127 seconds","4.2.7.1","[cucumber-rails, rspec-rails]","8","[]","8","9","[app/controllers/catalog_controller.rb, app/views/catalog/_callnumber.html.erb, app/views/catalog/_constraints.html.erb, app/views/catalog/_holdings.html.haml, app/views/catalog/_location.html.erb, app/views/catalog/_previous_next_doc.html.erb, app/views/catalog/_show_metadata.html.erb, app/views/catalog/_status.html.haml, app/views/catalog/show.html.erb]","false","0.0","0","","0",""
"blacklight-cornell","448","[06-02-2017]","1","3","[Prepare for running coverage by updating .gitignore.   Former-commit-id: 2f39257f330e169b1c82ba75795454682d3161c7, Correct the checking of results for phrase search.   Former-commit-id: 3aa5cb15fbff973478f702a2d362331719492aa8, line 810 fix warning about assignment instead of conditional.   Former-commit-id: c3b1b00a9a88d9764b826878641826d443f1c9d8]","1","9","9","0","0","[fill_in, fill_in, page, find, click, click_button, sleep, page, have_selector, all, find, select_option, select_option, have_selector, click_link, have_content]","0","","0","","0","","0","","0","","[]","[advanced]","1","1","1","[lib/maybe.rb]","[app/models/search_builder.rb]","0.0","0.0","[d0157892515ece32fca4850c4e480ac4167865c1, a52df1c33f942b2000b2ae4729e457165011c8a9, 0f67308c2fff79697a51b3952ed340e72a25244e]","0.292 seconds","4.2.7.1","[cucumber-rails, rspec-rails]","1","[]","0","0","[]","false","0.0","0","","0",""
"blacklight-cornell","476","[27-01-2017]","1","1","[Update test with additional waiting, and correct for latest use of all fields search field.   Former-commit-id: 25e21b879581288bc0d9b444274e1c525f8c8c54]","1","5","5","0","0","[page, find, click, click_button, sleep, gsub!, fill_in, page, all, have_css, within, have_selector, click, have_content]","0","","0","","0","","0","","0","","[]","[app/views/catalog/_did_you_mean.html.erb, app/views/catalog/_home.html.erb, app/views/catalog/_paginate_compact.html.erb, app/views/catalog/_search_sidebar.html.erb]","4","6","1","[app/controllers/catalog_controller.rb, app/views/catalog/_results_pagination.html.erb, app/views/catalog/_select_all.html.erb, app/views/catalog/_sort_and_per_page.html.erb, app/views/catalog/index.html.erb, lib/maybe.rb]","[app/controllers/search_controller.rb]","0.0","0.0","[de2fdbd45d704dd00964501a8d9523b12cd578bf]","0.465 seconds","4.2.7.1","[cucumber-rails, rspec-rails]","1","[]","4","5","[app/controllers/catalog_controller.rb, app/views/catalog/_results_pagination.html.erb, app/views/catalog/_select_all.html.erb, app/views/catalog/_sort_and_per_page.html.erb, app/views/catalog/index.html.erb]","false","0.0","0","","0",""
"blacklight-cornell","492","[18-01-2017, 19-01-2017]","2","2","[DISCOVERYACCESS-2873 -- Remove the location, Technical servies review shelf from display of PDA.   Former-commit-id: 6855667a5fe78b2efafdc3e035ebad4d01d2e694, Update some tests for updated data, and to account for use of _display field in results, and _json in item view.   Former-commit-id: 747a30d1fea9d7c36202145887595fac942ee00d]","1","23","23","2","2","[click_link, page, click, have_selector, have_link, have_content, each, __method__, url_for, page, find, click, click_button, gsub!, fill_in, gsub!, fill_in, all, have_css, within]","0","","0","","0","","0","","0","","[app/views/backend/holdings_short.html.haml]","[app/views/catalog/_did_you_mean.html.erb, app/views/catalog/_home.html.erb, app/views/catalog/_paginate_compact.html.erb, app/views/catalog/_search_sidebar.html.erb, librarian_view_solr_document]","5","13","1","[app/controllers/catalog_controller.rb, app/views/catalog/_callnumber.html.haml, app/views/catalog/_constraints.html.erb, app/views/catalog/_holdings.html.haml, app/views/catalog/_location.html.haml, app/views/catalog/_previous_next_doc.html.erb, app/views/catalog/_results_pagination.html.erb, app/views/catalog/_select_all.html.erb, app/views/catalog/_show_metadata.html.erb, app/views/catalog/_sort_and_per_page.html.erb, app/views/catalog/_status.html.haml, app/views/catalog/index.html.erb, app/views/catalog/show.html.erb]","[app/views/backend/holdings_short.html.erb]","0.0","0.0","[7650f69218871d00697243a5eff2605ca0e24cf1, 04382fccf531a0815d6a14a6217565cf41f6e5cc]","1.404 seconds","4.2.7.1","[cucumber-rails, rspec-rails]","15","[]","12","13","[app/controllers/catalog_controller.rb, app/views/catalog/_callnumber.html.haml, app/views/catalog/_constraints.html.erb, app/views/catalog/_holdings.html.haml, app/views/catalog/_location.html.haml, app/views/catalog/_previous_next_doc.html.erb, app/views/catalog/_results_pagination.html.erb, app/views/catalog/_select_all.html.erb, app/views/catalog/_show_metadata.html.erb, app/views/catalog/_sort_and_per_page.html.erb, app/views/catalog/_status.html.haml, app/views/catalog/index.html.erb, app/views/catalog/show.html.erb]","false","0.0","0","","0",""
"blacklight-cornell","514","[28-10-2016, 29-10-2016]","2","7","[DISCOVERYACCESS-2994 next/prev after standard search does not work   Former-commit-id: b69766cb65c56cc81f12e82e691e3ad9f5095519, Update test to match catalog.   Former-commit-id: a56d59490e66cbd7c86f5f7b996766cc4179db01, Update cassettes.   Former-commit-id: 546b65c40e5270e25e8c99cdc0c04d1c37e64c82, Remove lots of logger lines -- they made it impossible to actually read the code.   Former-commit-id: 3250d53382e4d59c630b3584502c70c7153ec8f1, Update rails minor version based on brakeman recommendations.   Former-commit-id: 15d5ab787f037d06e893a22791858ef16e05522b, DISCOVERYACCESS-2993 unable to request some boxes from Annex for a collection Fix some failing tests.   Former-commit-id: 3ecb138fa7dcebd2f6acfde0ba173a01421da7a2, Now that begins with works properly, the result set is different, and must be accounted for in tests.   Former-commit-id: 8d8b9371dbd38b96124ea7eb3f29b233c253376b]","1","45","45","0","0","[fill_in, page, find, click, click_button, sleep, gsub!, page, all, have_css, within, have_selector, select_option, click_link, click, have_link, have_content, each, url_for, pending, have_selector, have_content, text, find, css, be_nil, click_link, sleep, gsub!]","0","","0","","0","","0","","0","","[]","[advanced, app/views/catalog/_did_you_mean.html.erb, app/views/catalog/_home.html.erb, app/views/catalog/_paginate_compact.html.erb, app/views/catalog/_search_sidebar.html.erb, librarian_view_solr_document, page_entries, search, summary, web-count]","10","14","4","[app/controllers/catalog_controller.rb, app/views/catalog/_callnumber.html.haml, app/views/catalog/_constraints.html.erb, app/views/catalog/_holdings.html.haml, app/views/catalog/_location.html.haml, app/views/catalog/_previous_next_doc.html.erb, app/views/catalog/_results_pagination.html.erb, app/views/catalog/_select_all.html.erb, app/views/catalog/_show_metadata.html.erb, app/views/catalog/_sort_and_per_page.html.erb, app/views/catalog/_status.html.haml, app/views/catalog/index.html.erb, app/views/catalog/show.html.erb, lib/maybe.rb]","[app/helpers/cornell_catalog_helper.rb, app/helpers/cornell_params_helper.rb, app/models/databases.rb, app/models/erm_data.rb]","0.0","0.0","[545722e3150cf20326dab413a32080fcb84f21c1, 0e114112425970a52d12f2eaaaf3e251724c3d78, bf7e06aac351e57f3e497fd66fc00c30c94a60fb, 52556bda47380ad1ecf5f64238fe465375251a97, 0a651fa437ae86fb7646803c32b708678d210571, fa6a0a1d7180eaef4f47724ac7520f23e6413204, 3266eb89f60a0a05edfe9e7b99c44c2dd04d89f7]","1.507 seconds","4.2.7.1","[cucumber-rails, rspec-rails]","34","[]","12","13","[app/controllers/catalog_controller.rb, app/views/catalog/_callnumber.html.haml, app/views/catalog/_constraints.html.erb, app/views/catalog/_holdings.html.haml, app/views/catalog/_location.html.haml, app/views/catalog/_previous_next_doc.html.erb, app/views/catalog/_results_pagination.html.erb, app/views/catalog/_select_all.html.erb, app/views/catalog/_show_metadata.html.erb, app/views/catalog/_sort_and_per_page.html.erb, app/views/catalog/_status.html.haml, app/views/catalog/index.html.erb, app/views/catalog/show.html.erb]","false","0.0","0","","0",""
"blacklight-cornell","517","[26-10-2016]","1","3","[remove concurrency to file circular load error. :(   Former-commit-id: 1919d4cc595bd49f7fad2b346c6092e94b0e5c0a, Remove failing test.   Former-commit-id: f1c0f61399dab8dc1ededa740656dcf42a7818f6, Try to fix circular reference error.   Former-commit-id: 651ace382d628a6f6676832e32799b66408e7b07]","1","5","5","0","0","[pending, page, find, click, click_button, gsub!, fill_in, page, all, have_css, within, have_selector, click]","0","","0","","0","","0","","0","","[]","[app/views/catalog/_did_you_mean.html.erb, app/views/catalog/_home.html.erb, app/views/catalog/_paginate_compact.html.erb, app/views/catalog/_search_sidebar.html.erb]","4","5","1","[app/controllers/catalog_controller.rb, app/views/catalog/_results_pagination.html.erb, app/views/catalog/_select_all.html.erb, app/views/catalog/_sort_and_per_page.html.erb, app/views/catalog/index.html.erb]","[lib/blacklight_cornell/cornell_catalog.rb]","0.0","0.0","[9cefa8223c9f07587bd74588f3d0fd74efe5e2c5, 9796c12c7eae11f79395d8c1cbc93f77531ca739, a58e071779cb850b419e9b155a651dac72448640]","0.426 seconds","4.2.1","[cucumber-rails, rspec-rails]","1","[]","4","5","[app/controllers/catalog_controller.rb, app/views/catalog/_results_pagination.html.erb, app/views/catalog/_select_all.html.erb, app/views/catalog/_sort_and_per_page.html.erb, app/views/catalog/index.html.erb]","false","0.0","0","","0",""
"blacklight-cornell","528","[21-10-2016]","1","3","[Modify tests to match advanced search behavior.   Former-commit-id: 87531f4198f4be9a65550b64510b1ace64a0bb72, add test for DISCOVERYACCESS-2794 Link to Ives Hall in availability box goes to Hotel   Former-commit-id: 041ebb08922d5d7c9f667a6250736d3304bc9094, DISCOVERYACCESS-2926 Extend timeout from 20 minutes to 4 hours   Former-commit-id: 68cf878a9465184e64518f4c59a6b052d1acc573]","1","26","26","0","0","[fill_in, page, find, click, click_button, sleep, have_selector, page, all, click, select_option, have_selector, click_link, click_link, have_link, have_content, each, url_for]","0","","0","","0","","0","","0","","[]","[advanced, librarian_view_solr_document]","2","10","1","[app/controllers/catalog_controller.rb, app/views/catalog/_callnumber.html.haml, app/views/catalog/_constraints.html.erb, app/views/catalog/_holdings.html.haml, app/views/catalog/_location.html.haml, app/views/catalog/_previous_next_doc.html.erb, app/views/catalog/_show_metadata.html.erb, app/views/catalog/_status.html.haml, app/views/catalog/show.html.erb, lib/maybe.rb]","[app/models/location.rb]","0.0","0.0","[ee4c690c7f88d381e4ba9c48dffa993776f9f1d4, 4da3e1a5842d032a220ac91b836e921882499909, 76c9a76f218f53c0a84fd63d9ad33495677109eb]","1.322 seconds","4.2.1","[cucumber-rails, rspec-rails]","14","[]","8","9","[app/controllers/catalog_controller.rb, app/views/catalog/_callnumber.html.haml, app/views/catalog/_constraints.html.erb, app/views/catalog/_holdings.html.haml, app/views/catalog/_location.html.haml, app/views/catalog/_previous_next_doc.html.erb, app/views/catalog/_show_metadata.html.erb, app/views/catalog/_status.html.haml, app/views/catalog/show.html.erb]","false","0.0","0","","0",""
"blacklight-cornell","536","[20-10-2016]","1","1","[Merge remote-tracking branch 'origin/blacklight6' into blacklight6   Former-commit-id: 02742d0ff72eaa67a9985960b9ce694d3210b40e]","1","25","25","1","1","[fill_in, page, find, click, click_button, sleep, page, click_link, dismiss_confirm, click_link, accept_confirm, have_content, within, downcase!, have_css, click, each, url_for, pending, find, set, open_email, current_email, body, include]","0","","0","","0","","0","","0","","[]","[app/views/catalog/_did_you_mean.html.erb, app/views/catalog/_home.html.erb, app/views/catalog/_paginate_compact.html.erb, app/views/catalog/_search_sidebar.html.erb, librarian_view_solr_document]","5","14","22","[app/controllers/catalog_controller.rb, app/views/catalog/_callnumber.html.haml, app/views/catalog/_constraints.html.erb, app/views/catalog/_holdings.html.haml, app/views/catalog/_location.html.haml, app/views/catalog/_previous_next_doc.html.erb, app/views/catalog/_results_pagination.html.erb, app/views/catalog/_select_all.html.erb, app/views/catalog/_show_metadata.html.erb, app/views/catalog/_sort_and_per_page.html.erb, app/views/catalog/_status.html.haml, app/views/catalog/index.html.erb, app/views/catalog/show.html.erb, lib/maybe.rb]","[app/controllers/backend_controller.rb, app/controllers/catalog_controller.rb, app/helpers/cornell_catalog_helper.rb, app/helpers/cornell_params_helper.rb, app/helpers/display_helper.rb, app/models/databases.rb, app/models/location.rb, app/models/record_mailer.rb, app/models/search_builder.rb, app/views/browse/_heading.html.erb, app/views/catalog/_holdings.html.haml, app/views/catalog/_location.html.haml, app/views/catalog/_select_all.html.erb, app/views/catalog/_sort_and_per_page.html.erb, app/views/catalog/index.html.erb, app/views/databases/show.html.erb, app/views/databases/tou.html.erb, app/views/search_history/index.html.erb, app/views/single_search/_pane_results.html.haml, app/views/single_search/index.html.haml, lib/blacklight/solr/document/ris.rb, lib/blacklight_cornell/cornell_catalog.rb]","0.4285714286","0.2727272727","[52124e25921a0913337873da392dcf19c8badf30]","1.380 seconds","4.2.1","[cucumber-rails, rspec-rails]","21","[]","12","13","[app/controllers/catalog_controller.rb, app/views/catalog/_callnumber.html.haml, app/views/catalog/_constraints.html.erb, app/views/catalog/_holdings.html.haml, app/views/catalog/_location.html.haml, app/views/catalog/_previous_next_doc.html.erb, app/views/catalog/_results_pagination.html.erb, app/views/catalog/_select_all.html.erb, app/views/catalog/_show_metadata.html.erb, app/views/catalog/_sort_and_per_page.html.erb, app/views/catalog/_status.html.haml, app/views/catalog/index.html.erb, app/views/catalog/show.html.erb]","true","0.29411764703613996","0","","0",""
"blacklight-cornell","537","[20-10-2016]","1","1","[DISCOVERYACCESS-2795 Refactor location displays to all use the same data source   Former-commit-id: 02bdb73ce141c140e2cccf26e255d18dd9f225e4]","1","14","14","0","0","[page, have_link, have_content, each, url_for]","0","","0","","0","","0","","0","","[]","[librarian_view_solr_document]","1","9","4","[app/controllers/catalog_controller.rb, app/views/catalog/_callnumber.html.haml, app/views/catalog/_constraints.html.erb, app/views/catalog/_holdings.html.haml, app/views/catalog/_location.html.haml, app/views/catalog/_previous_next_doc.html.erb, app/views/catalog/_show_metadata.html.erb, app/views/catalog/_status.html.haml, app/views/catalog/show.html.erb]","[app/helpers/cornell_catalog_helper.rb, app/helpers/display_helper.rb, app/models/location.rb, app/views/catalog/_location.html.haml]","0.1111111111","0.25","[c78a664eb389acd105c55621bfc6e0d461ac0cd6]","1.014 seconds","4.2.1","[cucumber-rails, rspec-rails]","13","[]","8","9","[app/controllers/catalog_controller.rb, app/views/catalog/_callnumber.html.haml, app/views/catalog/_constraints.html.erb, app/views/catalog/_holdings.html.haml, app/views/catalog/_location.html.haml, app/views/catalog/_previous_next_doc.html.erb, app/views/catalog/_show_metadata.html.erb, app/views/catalog/_status.html.haml, app/views/catalog/show.html.erb]","false","0.19999999999280005","0","","0",""
"blacklight-cornell","538","[14-10-2016, 17-10-2016, 18-10-2016]","5","6","[(Branch is misnamed) DISCOVERYACCESS-2795 Refactor location displays to all use the same data source   Former-commit-id: a605dfa5ec015004ad52c639e7ead8f0d789cce5, Initialize location data -- Create Location model   Former-commit-id: eeb456a279c8576a73be77905be6a38107ce2393, add aeon_elibible to location model   Former-commit-id: ce55046b0c96b7ed13f6640023a6de7b3355715a, Use location aeon_eligible instead of catalog helper.   Former-commit-id: 20d0275e997c4e03524f0564486a38a84f8f5eb6, Syntax error in backend controller.   Former-commit-id: 7c52efddce24d08f94004dd527efb1472e090707, Pull location(library) information from one source   Former-commit-id: 057b98ad33c1a1546de479a6d1c1aa528d055b6d]","1","13","13","1","1","[page, have_content, each, within, url_for]","0","","0","","0","","0","","0","","[]","[librarian_view_solr_document]","1","9","4","[app/controllers/catalog_controller.rb, app/views/catalog/_callnumber.html.haml, app/views/catalog/_constraints.html.erb, app/views/catalog/_holdings.html.haml, app/views/catalog/_location.html.haml, app/views/catalog/_previous_next_doc.html.erb, app/views/catalog/_show_metadata.html.erb, app/views/catalog/_status.html.haml, app/views/catalog/show.html.erb]","[app/controllers/backend_controller.rb, app/helpers/cornell_catalog_helper.rb, app/models/location.rb, app/views/catalog/_holdings.html.haml]","0.1111111111","0.25","[04e7654de0385d5e8ad6726e1f5cb9c83c5f4d0c, df8520e09f8fd609b53972d7cbeea5dcd434e9c1, 8b4b0434f0ababd84c702e52824d66a7e1676f4b, ad6d6b78994b2aaea16bbe655c0374ed66cb3795, a30ee7d55eb85b37de308be08ca5d0de10fb9445, a587f66bd1c698b9077320973de1bd51ca1f04fd]","1.020 seconds","4.2.1","[cucumber-rails, rspec-rails]","12","[]","8","9","[app/controllers/catalog_controller.rb, app/views/catalog/_callnumber.html.haml, app/views/catalog/_constraints.html.erb, app/views/catalog/_holdings.html.haml, app/views/catalog/_location.html.haml, app/views/catalog/_previous_next_doc.html.erb, app/views/catalog/_show_metadata.html.erb, app/views/catalog/_status.html.haml, app/views/catalog/show.html.erb]","false","0.19999999999280005","0","","0",""
"blacklight-cornell","540","[14-10-2016]","1","4","[Merge pull request #296 from cul-it/DISCOVERYACCESS-2925  Discoveryaccess 2925  Former-commit-id: bc4b665d4c1caf473175dd12ecf9e842b76c22e6, update facets that show   Former-commit-id: 027731481096efb6836a62a71258216053bd568f, update facets that show   Former-commit-id: acb3f068cc6a45fe2f8b776035bf127e3557dfae, only show facets when a search has been done   Former-commit-id: 17256ea113dd5d67c92e1d8e4f4b38fe99acd0f8]","2","2","2","0","0","[page, have_content, within, downcase!, have_css]","0","","0","","0","","0","","0","","[]","[app/views/catalog/_did_you_mean.html.erb, app/views/catalog/_home.html.erb, app/views/catalog/_paginate_compact.html.erb, app/views/catalog/_search_sidebar.html.erb]","4","5","1","[app/controllers/catalog_controller.rb, app/views/catalog/_results_pagination.html.erb, app/views/catalog/_select_all.html.erb, app/views/catalog/_sort_and_per_page.html.erb, app/views/catalog/index.html.erb]","[app/controllers/catalog_controller.rb]","0.2","1.0","[a639180d6cfc98c65d1bd972a371663527c394d5, f34c6b04f8365a5ef887a360f974b836170ae537, fbd3b9d0292e6484dddae6b0b2dad7a931df0129, ca6b8d5286749915726c50c5fe0eb4e1d6f7e281]","0.314 seconds","4.2.1","[cucumber-rails, rspec-rails]","1","[]","4","5","[app/controllers/catalog_controller.rb, app/views/catalog/_results_pagination.html.erb, app/views/catalog/_select_all.html.erb, app/views/catalog/_sort_and_per_page.html.erb, app/views/catalog/index.html.erb]","true","0.5555555555555556","0","","0",""
