[path:/features/step_definitions/ability_adhoc_pm_step.rb, methods:[0, 5, 12, 21]]
[path:/features/step_definitions/ability_cm_step.rb, methods:[0, 4, 194, 136, 174, 206, 202, 144, 148, 83, 190, 198, 165, 170, 178, 182, 218, 186, 12, 222, 225, 229, 233, 237, 241, 245, 249, 253, 257, 261, 265, 270, 274, 278, 210, 214, 282]]
[path:/features/step_definitions/ability_pm_step.rb, methods:[63, 27, 22, 67, 1, 5, 187, 183, 179]]
[path:/features/step_definitions/ability_user_step.rb, methods:[22, 29, 42, 34, 38, 55, 72, 82, 110, 143, 147, 152, 156, 1, 5]]
[path:/features/support/hooks.rb, methods:[[name:create_customer_manager, step:Given ], [name:create_time_sheet, step:Then ], [name:create_expense_records, step:Then ], [name:create_task, step:Given ], [name:create_week, step:Given ], [name:create_expense_records, step:Given ], [name:create_status, step:Given ], [name:create_customers, step:Given ], [name:create_project, step:Given ], [name:create_employment_type, step:Given ], [name:create_user, step:Given ], [name:create_first_week, step:Then ], [name:create_second_week, step:Then ], [name:create_second_time_sheet, step:Then ], [name:create_projects_user, step:Given ], [name:create_project_manager, step:Given ], [name:create_adhoc_pm, step:Given ]]]
