"Repository","https://github.com/hashrocket/hr-til.git"
"Tasks with empty IReal","0"
"Tasks with no-empty IReal","5"
"Tasks with relevant AST error","0"
"Tasks with AST error of Gherkin files","0"
"Tasks with AST error of StepDef files","0"
"Tasks with AST error of production files","0"
"Tasks with AST error of unit test files","0"
"Tasks with step match error","4"
"Tasks without required gems","0"
"Tasks with changed stepdef","1"
"Tasks with changed Gherkin","5"
"Tasks with implemented Gherkin scenarios","0"
"All invalid tasks","5"
"All valid tasks (Gherkin scenario, no empty IReal, no error)","0"
"Valid tasks, but empty ITest","0"
"Valid tasks, no empty ITest, but zero precision-recall","0"
"Valid tasks, no empty ITest, no zero precision-recall","0"
"Project","Task","Date","#Days","#Commits","Commit_Message","#Devs","#Gherkin_Tests","#Impl_Gherkin_Tests","#StepDef","#Impl_StepDef","Methods_Unknown_Type","#Step_Call","Step_Match_Errors","#Step_Match_Error","AST_Errors","#AST_Errors","Gherkin_AST_Errors","#Gherkin_AST_Errors","Steps_AST_Errors","#Steps_AST_Errors","Renamed_Files","Deleted_Files","NotFound_Views","#Views","#TestI","#TaskI","TestI","TaskI","Precision","Recall","Hashes","Timestamp","Rails","Gems","#Visit_Call","Lost_visit_call","#Views_ITest","#Code_View_Analysis","Code_View_Analysis","Has_Merge","F2","#Multiple_Step_Matches","Multiple_Step_Matches","#Generic_Step_Keyword","Generic_Step_Keyword"
"hr-til","15","[19-09-2016, 21-09-2016]","3","2","[Merge pull request #107 from hashrocket/feature/canonical-links  Add canonical link for each post, Add canonical link for each post ]","2","3","0","0","0","[]","0","[path:features/visitor_views_post.feature, size:1]","1","","0","","0","","0","","[]","","0","0","2","[]","[app/views/layouts/application.html.haml, app/views/posts/show.html.haml]","0.0","0.0","[149fb7639ca98cf92b53e6e925c6b58b351df1d7, aefd63e3a6bc5e2a503f8a1c4338bb4228422867]","0.091 seconds","4.2.6","[cucumber-rails, rspec-rails, simplecov, factory_girl]","0","[]","0","0","[]","true","0.0","0","","0",""
"hr-til","20","[22-07-2016, 23-07-2016]","2","3","[Reuse step definitions to cleanup steps , Refactor `twitter_handle=` , Remove booleans, adding errors == invalid ]","1","3","0","0","0","[]","0","[path:features/visitor_views_post.feature, size:1]","1","","0","","0","","0","","[]","","0","0","2","[]","[app/models/developer.rb, app/models/post.rb]","0.0","0.0","[4767631a5fe66670a0c2fa6ba308ac26a4db6b3e, 4ca338d8d168d720c1085dff769fe5e0cc09791b, 2641a19c61358c34570a546464f277f9a131f65e]","0.059 seconds","4.2.6","[cucumber-rails, rspec-rails, simplecov, factory_girl]","0","[]","0","0","[]","false","0.0","0","","0",""
"hr-til","23","[01-07-2016]","1","5","[Change need help to more info , Add channel-specific 'need help' partials , Fix test around need help callout , Style and adjust wording of Need Help callout , Display channel specific 'need help' test for post ]","3","3","0","0","0","[]","0","","0","","0","","0","","0","","[app/views/need_help/_elixir.html.haml, app/views/need_help/_emberjs.html.haml, app/views/need_help/_rails.html.haml, app/views/need_help/_ruby.html.haml, app/views/need_help/_sql.html.haml, app/views/need_help/_vim.html.haml]","","0","0","7","[]","[app/views/more_info/_elixir.html.haml, app/views/more_info/_emberjs.html.haml, app/views/more_info/_rails.html.haml, app/views/more_info/_ruby.html.haml, app/views/more_info/_sql.html.haml, app/views/more_info/_vim.html.haml, app/views/posts/show.html.haml]","0.0","0.0","[df73b6e13ec7ea89092fdc297d14cb9ee496d882, 36346bc1201a22b6e8b8972be24e04d3d713d08a, 295953cd10d98e72ed60da6dcbe0cd80ccda8706, 28e850b5dceb48c64777fc0ac750f72640f4bd5a, 2824e4b5c451f40343609fd3d359fcb3d07976dc]","0.029 seconds","4.2.6","[cucumber-rails, rspec-rails, simplecov, factory_girl]","0","[]","0","0","[]","false","0.0","0","","0",""
"hr-til","53","[05-02-2016, 06-02-2016]","2","3","[decouples rspec and cucumber specs from the application config , decouples the twitter spec from the application config , gets the host from the config file instead of hardcoding it ]","1","1","0","0","0","[]","0","[path:features/developer_visits_profile_page.feature, size:1]","1","","0","","0","","0","","[]","","0","0","1","[]","[app/models/developer.rb]","0.0","0.0","[ab41437e1c6d0b721daabc29fe3165d77ed9bd6d, 7d6814fc5df7e8593ad7eef1813342e70a83237a, 1826bb74461a2de03ea7b88c0d636e577dd198b1]","0.076 seconds","4.2.5","[cucumber-rails, rspec-rails, simplecov, factory_girl]","0","[]","0","0","[]","false","0.0","0","","0",""
"hr-til","59","[07-10-2015]","1","1","[Published is unchecked by default ]","1","4","0","1","1","[check]","0","[path:features/developer_creates_post.feature, size:1]","1","","0","","0","","0","","[]","","0","0","1","[]","[app/views/posts/_form.html.haml]","0.0","0.0","[fe1d8db255c2c192608c0d3a7019b60f21ae2714]","0.023 seconds","4.2.4","[cucumber-rails, rspec-rails, simplecov, factory_girl]","0","[]","0","0","[]","false","0.0","0","","0",""
