"Repository","https://github.com/jpatel531/folioapp.git"
"Tasks with empty IReal","0"
"Tasks with no-empty IReal","1"
"Tasks with relevant AST error","0"
"Tasks with AST error of Gherkin files","0"
"Tasks with AST error of StepDef files","0"
"Tasks with AST error of production files","0"
"Tasks with AST error of unit test files","0"
"Tasks with step match error","1"
"Tasks without required gems","0"
"Tasks with changed stepdef","0"
"Tasks with changed Gherkin","1"
"Tasks with implemented Gherkin scenarios","0"
"All invalid tasks","1"
"All valid tasks (Gherkin scenario, no empty IReal, no error)","0"
"Valid tasks, but empty ITest","0"
"Valid tasks, no empty ITest, but zero precision-recall","0"
"Valid tasks, no empty ITest, no zero precision-recall","0"
"Project","Task","Date","#Days","#Commits","Commit_Message","#Devs","#Gherkin_Tests","#Impl_Gherkin_Tests","#StepDef","#Impl_StepDef","Methods_Unknown_Type","#Step_Call","Step_Match_Errors","#Step_Match_Error","AST_Errors","#AST_Errors","Gherkin_AST_Errors","#Gherkin_AST_Errors","Steps_AST_Errors","#Steps_AST_Errors","Renamed_Files","Deleted_Files","NotFound_Views","#Views","#TestI","#TaskI","TestI","TaskI","Precision","Recall","Hashes","Timestamp","Rails","Gems","#Visit_Call","Lost_visit_call","#Views_ITest","#Code_View_Analysis","Code_View_Analysis","Has_Merge","F2","#Multiple_Step_Matches","Multiple_Step_Matches","#Generic_Step_Keyword","Generic_Step_Keyword"
"folioapp","46","[24-07-2014]","1","2","[Merge pull request #2 from codepreneur/profilecreation  dragging and dropping avatar now automatically updates profile picture, dragging and dropping avatar now automatically updates profile picture ]","2","1","0","0","0","[]","0","[path:features/profile_creation.feature, size:1]","1","","0","","0","","0","","[]","","0","0","3","[]","[app/controllers/users_controller.rb, app/views/layouts/application.html.erb, app/views/users/show.html.erb]","0.0","0.0","[ed0db366e523e5f8e6485f2ae335e11b305c5447, 59a1ffddf132011a086d903cd9a7aa0a61551e00]","0.010 seconds","4.1.2","[cucumber-rails, rspec-rails]","0","[]","0","0","[]","true","0.0","0","","0",""
