"Repository","https://github.com/opengovernment/opengovernment.git"
"Precision mean (RT)","0.10317460316666667"
"Precision median (RT)","0.0238095238"
"Precision standard deviation (RT)","0.15853162186271635"
"Recall mean (RT)","0.6666666666666666"
"Recall median (RT)","1.0"
"Recall standard deviation (RT)","0.5773502691896258"
"F2 mean (RT)","0.25845410626177556"
"F2 median (RT)","0.10869565213421549"
"F2 standard deviation (RT)","0.3576755611485545"
"Correlation #Test-Precision","0.0"
"Correlation #Test-Recall","0.5"
"Task","Dates","#Devs","#Commits","Hashes","#Gherkin_Tests","#Sted_defs","#TestI","#TaskI","TestI","TaskI","Precision","Recall","Rails","#visit_call","Lost_visit_call","#Views_TestI","#Code_View_Analysis","Code_View_Analysis","Methods_Unknown_Type","Renamed_Files","Deleted_Files","NotFound_Views","#NotFound_Views","Timestamp","Has_Merge","#FP","#FN","FP","FN","#Hits","Hits","f2"
"176","[28-01-2011, 29-01-2011]","1","3","[56aa328cabdd407607f072cbdf279aed90815b4a, 5fc07567a5f04242e3ae31317e0c79e65bddb336, c639b90d2414ffc44b3c66879f03504cd20a9e15]","3","1","42","1","[app/controllers/admin/people_controller.rb, app/controllers/admin/states_controller.rb, app/controllers/pages_controller.rb, app/controllers/people_controller.rb, app/controllers/sigs_controller.rb, app/controllers/states_controller.rb, app/models/person.rb, app/models/rating.rb, app/models/roll_call.rb, app/views/admin/states/edit.html.haml, app/views/admin/states/index.html.haml, app/views/devise/sessions/new.html.haml, app/views/devise/shared/_links.haml, app/views/pages/about.html.haml, app/views/pages/badges.html.haml, app/views/pages/comparisons.html.haml, app/views/pages/contact.html.haml, app/views/pages/developer.html.haml, app/views/pages/help.html.haml, app/views/pages/privacy.html.haml, app/views/pages/resources.html.haml, app/views/pages/site-help.html.haml, app/views/pages/wish-list.html.haml, app/views/people/_links.html.haml, app/views/people/_mug.html.haml, app/views/people/_nav.html.haml, app/views/people/_person.html.haml, app/views/people/_wrapper.html.haml, app/views/people/committees.html.haml, app/views/people/ratings.html.haml, app/views/people/show.html.haml, app/views/people/social.html.haml, app/views/people/sponsored_bills.html.haml, app/views/people/votes.html.haml, app/views/shared/_address.html.haml, app/views/shared/_appeal.html.haml, app/views/shared/_find_my_rep_form.haml, app/views/shared/_share_tools.html.haml, app/views/shared/_view_counts.html.haml, app/views/sigs/show.html.haml, app/views/states/show.html.haml, lib/trackable.rb]","[app/controllers/states_controller.rb]","0.0238095238","1.0","","2","[]","32","38","[app/controllers/admin/people_controller.rb, app/controllers/admin/states_controller.rb, app/controllers/pages_controller.rb, app/controllers/people_controller.rb, app/controllers/sigs_controller.rb, app/controllers/states_controller.rb, app/views/admin/states/edit.html.haml, app/views/admin/states/index.html.haml, app/views/devise/sessions/new.html.haml, app/views/devise/shared/_links.haml, app/views/pages/about.html.haml, app/views/pages/badges.html.haml, app/views/pages/comparisons.html.haml, app/views/pages/contact.html.haml, app/views/pages/developer.html.haml, app/views/pages/help.html.haml, app/views/pages/privacy.html.haml, app/views/pages/resources.html.haml, app/views/pages/site-help.html.haml, app/views/pages/wish-list.html.haml, app/views/people/_links.html.haml, app/views/people/_mug.html.haml, app/views/people/_nav.html.haml, app/views/people/_person.html.haml, app/views/people/_wrapper.html.haml, app/views/people/committees.html.haml, app/views/people/ratings.html.haml, app/views/people/show.html.haml, app/views/people/social.html.haml, app/views/people/sponsored_bills.html.haml, app/views/people/votes.html.haml, app/views/shared/_address.html.haml, app/views/shared/_appeal.html.haml, app/views/shared/_find_my_rep_form.haml, app/views/shared/_share_tools.html.haml, app/views/shared/_view_counts.html.haml, app/views/sigs/show.html.haml, app/views/states/show.html.haml]","[click_button, fill_in, have_content, has_content?, current_url, path, assert_equal, within, send, raise, sign in]","","[]","[app/views/people/_roll_call.html.haml, app/views/people/_sponsorship.html.haml, app/views/sigs/_rating.html.haml, app/views/states/_key_vote.html.haml, app/views/states/_recent_bill.html.haml, bill, bills, committee, joint_committees, new_confirmation, new_password, new_registration, new_session, new_unlock, people, sign_up, vote]","17","2.593 seconds","false","41","0","[app/controllers/admin/people_controller.rb, app/controllers/admin/states_controller.rb, app/controllers/pages_controller.rb, app/controllers/people_controller.rb, app/controllers/sigs_controller.rb, app/models/person.rb, app/models/rating.rb, app/models/roll_call.rb, app/views/admin/states/edit.html.haml, app/views/admin/states/index.html.haml, app/views/devise/sessions/new.html.haml, app/views/devise/shared/_links.haml, app/views/pages/about.html.haml, app/views/pages/badges.html.haml, app/views/pages/comparisons.html.haml, app/views/pages/contact.html.haml, app/views/pages/developer.html.haml, app/views/pages/help.html.haml, app/views/pages/privacy.html.haml, app/views/pages/resources.html.haml, app/views/pages/site-help.html.haml, app/views/pages/wish-list.html.haml, app/views/people/_links.html.haml, app/views/people/_mug.html.haml, app/views/people/_nav.html.haml, app/views/people/_person.html.haml, app/views/people/_wrapper.html.haml, app/views/people/committees.html.haml, app/views/people/ratings.html.haml, app/views/people/show.html.haml, app/views/people/social.html.haml, app/views/people/sponsored_bills.html.haml, app/views/people/votes.html.haml, app/views/shared/_address.html.haml, app/views/shared/_appeal.html.haml, app/views/shared/_find_my_rep_form.haml, app/views/shared/_share_tools.html.haml, app/views/shared/_view_counts.html.haml, app/views/sigs/show.html.haml, app/views/states/show.html.haml, lib/trackable.rb]","[]","1","[app/controllers/states_controller.rb]","0.10869565213421549"
"182","[26-01-2011]","1","5","[32d8c98fe8e22cbe1df34e40e7f450184e8f9ca7, 41cf3337e9df4a72e627bbf55029db66b55bae64, 6e55afd3c0a3206d50048cc8f964677c7dee10e8, a47c27734cde2da44f3031de633d830737f202cd, b5159c29f34e20024dee49167dc12e53867b51d6]","2","22","18","2","[app/controllers/admin/states_controller.rb, app/controllers/pages_controller.rb, app/controllers/states_controller.rb, app/views/pages/about.html.haml, app/views/pages/badges.html.haml, app/views/pages/comparisons.html.haml, app/views/pages/contact.html.haml, app/views/pages/developer.html.haml, app/views/pages/help.html.haml, app/views/pages/privacy.html.haml, app/views/pages/resources.html.haml, app/views/pages/site-help.html.haml, app/views/pages/wish-list.html.haml, app/views/people/_mug.html.haml, app/views/shared/_appeal.html.haml, app/views/shared/_find_my_rep_form.haml, app/views/states/show.html.haml, lib/trackable.rb]","[app/controllers/application_controller.rb, app/controllers/districts_controller.rb]","0.0","0.0","","1","[]","14","17","[app/controllers/admin/states_controller.rb, app/controllers/pages_controller.rb, app/controllers/states_controller.rb, app/views/pages/about.html.haml, app/views/pages/badges.html.haml, app/views/pages/comparisons.html.haml, app/views/pages/contact.html.haml, app/views/pages/developer.html.haml, app/views/pages/help.html.haml, app/views/pages/privacy.html.haml, app/views/pages/resources.html.haml, app/views/pages/site-help.html.haml, app/views/pages/wish-list.html.haml, app/views/people/_mug.html.haml, app/views/shared/_appeal.html.haml, app/views/shared/_find_my_rep_form.haml, app/views/states/show.html.haml]","[click_button, click_link, fill_in, rows_hash, each, select, check, uncheck, choose, attach_file, require, response, body, have_content, has_content?, have_xpath, has_xpath?, have_no_content, has_no_content?, have_no_xpath, has_no_xpath?, find_field, tag_name, text, assert_match, assert_no_match, be_true, be_false, current_url, query, rows_hash, each_pair, assert_equal, within, all, be_blank, be_present]","","[]","[app/views/states/_key_vote.html.haml, app/views/states/_recent_bill.html.haml, bills, joint_committees, people]","5","0.989 seconds","false","18","2","[app/controllers/admin/states_controller.rb, app/controllers/pages_controller.rb, app/controllers/states_controller.rb, app/views/pages/about.html.haml, app/views/pages/badges.html.haml, app/views/pages/comparisons.html.haml, app/views/pages/contact.html.haml, app/views/pages/developer.html.haml, app/views/pages/help.html.haml, app/views/pages/privacy.html.haml, app/views/pages/resources.html.haml, app/views/pages/site-help.html.haml, app/views/pages/wish-list.html.haml, app/views/people/_mug.html.haml, app/views/shared/_appeal.html.haml, app/views/shared/_find_my_rep_form.haml, app/views/states/show.html.haml, lib/trackable.rb]","[app/controllers/application_controller.rb, app/controllers/districts_controller.rb]","0","[]","0.0"
"186","[23-01-2011]","1","3","[f2be7cdf34ee92246482028b6bb5950e017fbbce, 7bf540973ee76aed28b939ddff1c8d9c8be9c111, 7062317ba003164badb214c8919befd136951fe9]","2","33","7","2","[app/controllers/admin/states_controller.rb, app/models/user.rb, app/views/admin/states/edit.html.haml, app/views/admin/states/index.html.haml, app/views/devise/sessions/new.html.haml, app/views/devise/shared/_links.haml, lib/subdomain.rb]","[app/models/user.rb, app/views/devise/sessions/new.html.haml]","0.2857142857","1.0","","1","[]","4","5","[app/controllers/admin/states_controller.rb, app/views/admin/states/edit.html.haml, app/views/admin/states/index.html.haml, app/views/devise/sessions/new.html.haml, app/views/devise/shared/_links.haml]","[assert_nil, Factory, response, have_selector, click_button, click_link, click_link_within, fill_in, select, select_datetime, select_time, select_date, check, uncheck, choose, attach_file, contain, assert_contain, failure_message, within, response_body, assert_match, assert_not_contain, negative_failure_message, assert_no_match, field_labeled, be_checked, checked?, current_url, path, assert_equal, query, rows_hash, each_pair, send, raise, sign in]","","[]","[new_confirmation, new_password, new_registration, new_session, new_unlock, sign_up]","6","0.667 seconds","false","5","0","[app/controllers/admin/states_controller.rb, app/views/admin/states/edit.html.haml, app/views/admin/states/index.html.haml, app/views/devise/shared/_links.haml, lib/subdomain.rb]","[]","2","[app/models/user.rb, app/views/devise/sessions/new.html.haml]","0.6666666666511112"
