"https://github.com/esambo/TimeFliesBy.git"
"MERGE","LEFT","RIGHT","BASE","LEFT_COMMITS","RIGHT_COMMITS"
"8f45d840e33516713bd0c4f95f87f7464ca53fcb","85e7e7177b5f8a40eaf5ecfaeb5c9a7f2d59b306","552c820f76325917e6aab50596f292ce5a057318","632b491b70ee994adf51e43a1e969c4500f61b05","[85e7e7177b5f8a40eaf5ecfaeb5c9a7f2d59b306, b4dd196672ac060b13f7972ec45f6726b030ee9e]","[552c820f76325917e6aab50596f292ce5a057318]"
