"https://github.com/mhartl/sample_app.git"
"MERGE","LEFT","RIGHT","BASE","LEFT_COMMITS","RIGHT_COMMITS"
"5f506e8e66a99c06189b7e4818b7157625749f7a","25ae019ba6944ccda1e9ea728eded0f5d850ba8d","94d55ea4608ea0bd5650d611eb795151253b9457","512dc11afeedb7eb49f9d984b1f903cec3b7de6c","[25ae019ba6944ccda1e9ea728eded0f5d850ba8d]","[94d55ea4608ea0bd5650d611eb795151253b9457]"
