"Repository","https://github.com/alphagov/whitehall.git"
"TASK","HASH","RUBY","RAILS","COVERAGE","TESTS"
"1568","bc519cb486bac133b327e110739658004d13c814","","4.2.5.1","simplecov","features/topical_events.feature(76)"
"1583","67d97a70faf69f07ac02adab86b0143cbbb20e26","","4.2.2","simplecov","features/take-part-pages.feature(22)"
"1617","ea084ccffc8a296d02524504bc632f7f19152291","","4.2.2","simplecov","features/consultations.feature(37)"
"1628","eb1cb15e51b69fbfcd4383de3d3071eee30bd3b9","","4.2.2","simplecov","features/filtering-documents.feature(56);features/filtering-documents.feature(64)"
"1716","25295eeee331741fcdd4113a0263bba7b7dcc0c9","","4.2.2","simplecov","features/governments.feature(7);features/governments.feature(19)"
"1718","fd296a08ff11bf5a4d97252c9a31bf042437d162","","4.2.2","simplecov","features/organisations.feature(217);features/organisations.feature(230)"
"1723","a2b9090126140fe323918bd781cfacd05699b7e9","","4.2.2","simplecov","features/admin-users.feature(10);features/linking-to-public-website-from-administration-screens.feature(9);features/news-articles.feature(45);features/publications.feature(13);features/speeches.feature(21);features/unpublishing-published-documents.feature(7);features/unpublishing-published-documents.feature(39);features/unpublishing-published-documents.feature(46)"
"1752","114600047d4265763a4bca9aaf3138bc648c9c69","","4.2.1","simplecov","features/unpublishing-published-documents.feature(39);features/unpublishing-published-documents.feature(46)"
"1792","b19b696a693cfb8122c39e8c9e51eef9aa839fb8","","4.1.10","simplecov","features/filtering-documents.feature(56);features/filtering-documents.feature(64)"
"1796","ffb4ba5dee2d9e2f402891818de8e05eaebb263d","","4.1.10","simplecov","features/featured-topics-and-policies-on-an-org.feature(22);features/featured-topics-and-policies-on-an-org.feature(29)"
"1803","b2bd6300d5d4d379586dd6d4e1c7a03cf34264b9","","4.1.10","simplecov","features/governments.feature(32)"
"1819","43b286affc6ed135502ca17d98887179b5b5990a","","4.1.10","simplecov","features/admin-policy-tagging.feature(11);features/admin-policy-tagging.feature(17)"
"1826","aec0ef49127b24ee528fb69ec1d795d7d136a1fc","","4.1.10","simplecov","features/topics.feature(45);features/topics.feature(51);features/topics.feature(58)"
"1828","96c413198c8e5dd95e2595b0b5af0f7aed7c40b4","","4.1.10","simplecov","features/policy-groups.feature(23);features/policy-groups.feature(30);features/admin-filtering-documents.feature(13);features/force-publishing-editions.feature(7);features/force-publishing-editions.feature(14);features/preview-unpublished-editions.feature(9)"
"1832","f825ef8ca057207a96d3572c6a071077a8fc8f0d","","4.1.10","simplecov","features/organisations.feature(146);features/organisations.feature(151)"
"1840","d14f7ae7944a3649ea470082df536e9bdd92dce3","","4.1.10","simplecov","features/governments.feature(25)"
"1855","3f32af5d7186051bfbe32c9ca23206b41d3f3ae6","","4.1.10","simplecov","features/roles.feature(21);features/roles.feature(28)"
"1857","bd8f1d338c003c17c60e7086abc6caf80f58febf","","4.1.9","simplecov","features/admin-policy-tagging.feature(10)"
"1868","bc189e5ed8d4b52acb34d0e1e2ebb7ed904d414d","","4.1.10","simplecov","features/people.feature(16);features/people.feature(70)"
"1882","c6fcd6664d9fd78d9ed3ac64a9de4dd8e658c47e","","4.1.9","simplecov","features/governments.feature(12)"
"1900","5c13d95e6c4917159ca2f62a2484716906f2c5e4","","4.1.9","simplecov","features/history-mode.feature(6)"
"1936","0263460c869c29300c7c5871f98d6f9351b3926c","","4.0.13","simplecov","features/governments.feature(7);features/governments.feature(12)"
