"Repository","https://github.com/alphagov/whitehall.git"
"Precision mean (RT)","0.05244377412631579"
"Precision median (RT)","0.0"
"Precision standard deviation (RT)","0.08725740609051094"
"Recall mean (RT)","0.17982456139999997"
"Recall median (RT)","0.0"
"Recall standard deviation (RT)","0.29431752753750406"
"F2 mean (RT)","0.11576529682034747"
"F2 median (RT)","0.0"
"F2 standard deviation (RT)","0.18783353324662955"
"Correlation #Test-Precision","0.09"
"Correlation #Test-Recall","0.17"
"Task","Dates","#Devs","#Commits","Hashes","#Gherkin_Tests","#Sted_defs","#TestI","#TaskI","TestI","TaskI","Precision","Recall","Rails","#visit_call","Lost_visit_call","#Views_TestI","#Code_View_Analysis","Code_View_Analysis","Methods_Unknown_Type","Renamed_Files","Deleted_Files","NotFound_Views","#NotFound_Views","Timestamp","Has_Merge","#FP","#FN","FP","FN","#Hits","Hits","f2"
"4020","[25-09-2012, 26-09-2012]","2","4","[984a73e151cbcfc3d3ab5d2736eb8ee230d8508a, 3bbbbb4f24da952a4b651bfd10c046c48c527840, d307ef86009349d3349c1d8f5a957b03e5d3c680, e3362119e779bfa8151e9970ee54c8c9bb0993db]","11","26","23","6","[app/controllers/admin/consultations_controller.rb, app/controllers/admin/countries_controller.rb, app/controllers/admin/detailed_guides_controller.rb, app/controllers/admin/document_series_controller.rb, app/controllers/admin/edition_workflow_controller.rb, app/controllers/admin/international_priorities_controller.rb, app/controllers/admin/organisations_controller.rb, app/controllers/admin/policies_controller.rb, app/controllers/admin/publications_controller.rb, app/controllers/admin/topics_controller.rb, app/controllers/announcements_controller.rb, app/controllers/api/detailed_guides_controller.rb, app/controllers/consultations_controller.rb, app/controllers/countries_controller.rb, app/controllers/detailed_guides_controller.rb, app/controllers/document_series_controller.rb, app/controllers/home_controller.rb, app/controllers/international_priorities_controller.rb, app/controllers/ministerial_roles_controller.rb, app/controllers/organisations_controller.rb, app/controllers/policies_controller.rb, app/controllers/publications_controller.rb, app/controllers/topics_controller.rb]","[app/controllers/admin/detailed_guides_controller.rb, app/controllers/admin/topics_controller.rb, app/controllers/api/detailed_guides_controller.rb, app/controllers/detailed_guides_controller.rb, app/controllers/mainstream_categories_controller.rb, app/controllers/topics_controller.rb]","0.2173913043","0.8333333333","3.1.7","41","[{path=alphagov_whitehall/features/step_definitions/detailed_guide_steps.rb, line=-1}]","0","65","[app/controllers/admin/consultations_controller.rb, app/controllers/admin/countries_controller.rb, app/controllers/admin/detailed_guides_controller.rb, app/controllers/admin/document_series_controller.rb, app/controllers/admin/international_priorities_controller.rb, app/controllers/admin/organisations_controller.rb, app/controllers/admin/policies_controller.rb, app/controllers/admin/publications_controller.rb, app/controllers/admin/topics_controller.rb, app/controllers/announcements_controller.rb, app/controllers/api/detailed_guides_controller.rb, app/controllers/consultations_controller.rb, app/controllers/countries_controller.rb, app/controllers/detailed_guides_controller.rb, app/controllers/document_series_controller.rb, app/controllers/home_controller.rb, app/controllers/international_priorities_controller.rb, app/controllers/ministerial_roles_controller.rb, app/controllers/organisations_controller.rb, app/controllers/policies_controller.rb, app/controllers/publications_controller.rb, app/controllers/topics_controller.rb, app/helpers/filter_routes_helper.rb, app/helpers/public_document_routes_helper.rb, app/models/speech.rb, app/presenters/role_appointment_presenter.rb, app/views/announcements/index.html.erb, app/views/consultations/index.html.erb, app/views/countries/_grouped_list.html.erb, app/views/countries/_list.html.erb, app/views/countries/_navigation.html.erb, app/views/countries/index.html.erb, app/views/countries/show.html.erb, app/views/detailed_guides/index.html.erb, app/views/document_series/show.html.erb, app/views/documents/_filter_form.html.erb, app/views/documents/_recently_changed_documents.html.erb, app/views/home/show.html.erb, app/views/home/tour.html.erb, app/views/international_priorities/_grouped_list.html.erb, app/views/international_priorities/index.html.erb, app/views/ministerial_roles/_role.html.erb, app/views/ministerial_roles/index.html.erb, app/views/organisations/_grouped_list.html.erb, app/views/organisations/_header.html.erb, app/views/organisations/_navigation.html.erb, app/views/organisations/_organisations_logo_list.html.erb, app/views/organisations/_organisations_name_list.html.erb, app/views/organisations/_sidebar.html.erb, app/views/organisations/_social_media_accounts.html.erb, app/views/organisations/alphabetical.html.erb, app/views/organisations/chiefs_of_staff.html.erb, app/views/organisations/index.html.erb, app/views/organisations/show.html.erb, app/views/policies/_list_description.html.erb, app/views/policies/index.html.erb, app/views/publications/_list_description.html.erb, app/views/publications/index.html.erb, app/views/shared/_hero_rotator.html.erb, app/views/shared/_recently_updated.html.erb, app/views/topics/_list.html.erb, app/views/topics/_list_description.html.erb, app/views/topics/_related_topics.html.erb, app/views/topics/index.html.erb, app/views/topics/show.html.erb]","[create, click_link, visible?, document, to_i, times, create, begin_drafting_document, click_button, select, begin_drafting_document, attach_file, within, has_css?, within, all, length, assert_equal, find_by_title!, record_css_selector, find_by_title, title, click_link, class, raise, title, gsub, find_by_title, has_css?, refute, organisations, build, update_attributes!, records_from_elements, sort_by]","","[app/controllers/admin/specialist_guides_controller.rb, app/controllers/api/specialist_guides_controller.rb, app/controllers/specialist_guides_controller.rb, app/helpers/specialist_guides_helper.rb, app/models/specialist_guide.rb, app/presenters/api/specialist_guide_presenter.rb, app/presenters/specialist_guide_filter_json_presenter.rb, app/views/admin/specialist_guides/_edition.html.erb, app/views/admin/specialist_guides/_form.html.erb, app/views/layouts/specialist.html.erb, app/views/specialist_guides/_document_content.html.erb, app/views/specialist_guides/_document_contextual.html.erb, app/views/specialist_guides/_list.html.erb, app/views/specialist_guides/_title.html.erb, app/views/specialist_guides/index.html.erb, app/views/specialist_guides/search.html.erb, app/views/specialist_guides/show.html.erb]","","0","4.981 seconds","false","18","1","[app/controllers/admin/consultations_controller.rb, app/controllers/admin/countries_controller.rb, app/controllers/admin/document_series_controller.rb, app/controllers/admin/edition_workflow_controller.rb, app/controllers/admin/international_priorities_controller.rb, app/controllers/admin/organisations_controller.rb, app/controllers/admin/policies_controller.rb, app/controllers/admin/publications_controller.rb, app/controllers/announcements_controller.rb, app/controllers/consultations_controller.rb, app/controllers/countries_controller.rb, app/controllers/document_series_controller.rb, app/controllers/home_controller.rb, app/controllers/international_priorities_controller.rb, app/controllers/ministerial_roles_controller.rb, app/controllers/organisations_controller.rb, app/controllers/policies_controller.rb, app/controllers/publications_controller.rb]","[app/controllers/mainstream_categories_controller.rb]","5","[app/controllers/admin/detailed_guides_controller.rb, app/controllers/admin/topics_controller.rb, app/controllers/api/detailed_guides_controller.rb, app/controllers/detailed_guides_controller.rb, app/controllers/topics_controller.rb]","0.5319148935488909"
"4142","[06-07-2012]","1","1","[93fb3042ac5ff27f2a2803180cd84bb51fde95db]","6","3","2","0","[app/controllers/admin/specialist_guides_controller.rb, app/controllers/specialist_guides_controller.rb]","[]","0.0","0.0","3.1.6","5","[]","0","5","[app/controllers/admin/specialist_guides_controller.rb, app/controllers/specialist_guides_controller.rb, app/helpers/public_document_routes_helper.rb, app/views/specialist_guides/index.html.erb, app/views/specialist_guides/show.html.erb]","[create, nil?, click_link, page, find, visible?, document, published_specialist_guides, record_css_selector, has_css?, refute, begin_drafting_document, check, select, click_button]","","[]","[app/views/documents/_show.html.erb]","1","0.423 seconds","false","2","0","[app/controllers/admin/specialist_guides_controller.rb, app/controllers/specialist_guides_controller.rb]","[]","0","[]","0"
"3980","[11-10-2012, 12-10-2012, 14-10-2012]","1","9","[7e0c65e318104659b09dd34478f8f02e2fc16f0d, be07654d38764111caefb4734156e9de51ad2b41, cfb220bbe9816a33f414c92d57f06c49ac25b0cf, 3d748f0c1f992594a151a98cab8ec077ca56770d, 0882236d7654c8e0deecc5a5ba7b98c443298683, 8a846ec4a51b4098f85fdf562675f1c6157c13b0, c95cfc790fce4bc707bd6b44e828c77e17a42072, c09415f85fc19ff5cdf2e0926bc8d1ea2deaf77d, fb30df3fc82cf0ec3dcd2bb6e27ff2e4fe5942ff]","5","8","18","3","[app/controllers/admin/consultations_controller.rb, app/controllers/admin/countries_controller.rb, app/controllers/admin/document_series_controller.rb, app/controllers/admin/edition_workflow_controller.rb, app/controllers/admin/organisations_controller.rb, app/controllers/admin/people_controller.rb, app/controllers/admin/publications_controller.rb, app/controllers/admin/topics_controller.rb, app/controllers/announcements_controller.rb, app/controllers/consultations_controller.rb, app/controllers/countries_controller.rb, app/controllers/document_series_controller.rb, app/controllers/home_controller.rb, app/controllers/ministerial_roles_controller.rb, app/controllers/organisations_controller.rb, app/controllers/people_controller.rb, app/controllers/publications_controller.rb, app/controllers/topics_controller.rb]","[app/controllers/admin/editions_controller.rb, app/controllers/application_controller.rb, app/controllers/ministerial_roles_controller.rb]","0.0555555556","0.3333333333","3.1.7","7","[{path=alphagov_whitehall/features/step_definitions/person_steps.rb, line=-1}]","0","59","[app/controllers/admin/consultations_controller.rb, app/controllers/admin/countries_controller.rb, app/controllers/admin/document_series_controller.rb, app/controllers/admin/organisations_controller.rb, app/controllers/admin/people_controller.rb, app/controllers/admin/publications_controller.rb, app/controllers/admin/topics_controller.rb, app/controllers/announcements_controller.rb, app/controllers/consultations_controller.rb, app/controllers/countries_controller.rb, app/controllers/document_series_controller.rb, app/controllers/home_controller.rb, app/controllers/ministerial_roles_controller.rb, app/controllers/organisations_controller.rb, app/controllers/people_controller.rb, app/controllers/publications_controller.rb, app/controllers/topics_controller.rb, app/helpers/filter_routes_helper.rb, app/helpers/public_document_routes_helper.rb, app/models/edition/appointment.rb, app/presenters/role_appointment_presenter.rb, app/views/announcements/index.html.erb, app/views/consultations/index.html.erb, app/views/countries/_grouped_list.html.erb, app/views/countries/_list.html.erb, app/views/countries/_navigation.html.erb, app/views/countries/index.html.erb, app/views/countries/show.html.erb, app/views/document_series/show.html.erb, app/views/documents/_filter_form.html.erb, app/views/documents/_recently_changed_documents.html.erb, app/views/home/show.html.erb, app/views/home/tour.html.erb, app/views/ministerial_roles/_policies.html.erb, app/views/ministerial_roles/_role.html.erb, app/views/ministerial_roles/index.html.erb, app/views/organisations/_grouped_list.html.erb, app/views/organisations/_header.html.erb, app/views/organisations/_navigation.html.erb, app/views/organisations/_organisations_logo_list.html.erb, app/views/organisations/_organisations_name_list.html.erb, app/views/organisations/_sidebar.html.erb, app/views/organisations/_social_media_accounts.html.erb, app/views/organisations/alphabetical.html.erb, app/views/organisations/chiefs_of_staff.html.erb, app/views/organisations/index.html.erb, app/views/organisations/show.html.erb, app/views/people/_announcment_list.html.erb, app/views/people/show.html.erb, app/views/policies/_list_description.html.erb, app/views/publications/_list_description.html.erb, app/views/publications/index.html.erb, app/views/shared/_hero_rotator.html.erb, app/views/shared/_recently_updated.html.erb, app/views/topics/_list.html.erb, app/views/topics/_list_description.html.erb, app/views/topics/_related_topics.html.erb, app/views/topics/index.html.erb, app/views/topics/show.html.erb]","[create, ministerial_roles, ago, click_link, captures, raise, title, organisations, begin_drafting_document, fill_in, attach_file, within, click_button, select, has_css?, click_button, role_appointments, id, find_by_title!, title, record_css_selector, gsub, find_by_title, has_css?, refute, captures, raise]","","[]","","0","3.124 seconds","false","17","2","[app/controllers/admin/consultations_controller.rb, app/controllers/admin/countries_controller.rb, app/controllers/admin/document_series_controller.rb, app/controllers/admin/edition_workflow_controller.rb, app/controllers/admin/organisations_controller.rb, app/controllers/admin/people_controller.rb, app/controllers/admin/publications_controller.rb, app/controllers/admin/topics_controller.rb, app/controllers/announcements_controller.rb, app/controllers/consultations_controller.rb, app/controllers/countries_controller.rb, app/controllers/document_series_controller.rb, app/controllers/home_controller.rb, app/controllers/organisations_controller.rb, app/controllers/people_controller.rb, app/controllers/publications_controller.rb, app/controllers/topics_controller.rb]","[app/controllers/admin/editions_controller.rb, app/controllers/application_controller.rb]","1","[app/controllers/ministerial_roles_controller.rb]","0.16666666673999997"
"4034","[13-09-2012]","1","1","[3d4fc9ac9c87166accdbb9a59e613845923400af]","5","3","0","1","[]","[app/controllers/policies_controller.rb]","0.0","0.0","3.1.7","1","[]","0","0","[]","[create, to_i, times, select, click_button, evaluate_script, wait_until, execute_script, evaluate_script, wait_until, record_css_selector, has_css?, refute, gsub]","","[]","[/government/policies]","1","0.576 seconds","false","0","1","[]","[app/controllers/policies_controller.rb]","0","[]","0"
"4155","[03-07-2012, 04-07-2012]","3","8","[c039ad02cade328e32dc25a2e3e20d6690ebf30f, ccd023004533a322c803145e1552877e91da1bbb, 4b474da190eaee868c8f0a96a7fce2864fc2edea, 01e0bf50890c3ff7b946a63a5154c63684947bd0, b03f129651244ba21409a1368cca3d764f836c47, a7b6303b757ccf6ece0a7ad02301ff401c06be93, 4ad1e5fced989f5c8bf79ff9f467518e09e850b3, 67b05f5ab110b7f9d14a44ead24be742bb278687]","5","0","2","2","[app/controllers/admin/specialist_guides_controller.rb, app/controllers/specialist_guides_controller.rb]","[app/controllers/policies_controller.rb, app/controllers/supporting_pages_controller.rb]","0.0","0.0","3.1.3","5","[]","0","5","[app/controllers/admin/specialist_guides_controller.rb, app/controllers/specialist_guides_controller.rb, app/helpers/public_document_routes_helper.rb, app/views/specialist_guides/index.html.erb, app/views/specialist_guides/show.html.erb]","[create, click_link, document, published_specialist_guides, record_css_selector, has_css?, refute]","","[]","[app/views/documents/_show.html.erb]","1","0.342 seconds","false","2","2","[app/controllers/admin/specialist_guides_controller.rb, app/controllers/specialist_guides_controller.rb]","[app/controllers/policies_controller.rb, app/controllers/supporting_pages_controller.rb]","0","[]","0"
"4026","[19-09-2012, 20-09-2012]","6","23","[8a98eb909ff054af7e0110eb05f5bf7dd6debb2b, ee116e57ab1dcd8293af1dfc1ff182860d458c6e, 1af62b236703b02fd9ffe65cacecf1b9e81d79fe, 0dae9a0494023faf39a30640c3dcd8752b576b6d, 99aaf758c73f96a817227d769da26f4e11e0c466, 142c81e221480a091f10c20c51e0e121756d2ec4, 4afda751118be54bda0cd1b54db0159f59a57981, 9a73bd4d79eadcd09134a3cae2927eda682f4388, af90d85f767ed9f8b6995a12db3d83d28910f2a0, 090a5db035c6b367045050e290be421f2a1f2c92, 542d93a3913257ae5ac4dbd98c9701ebd2aef1fb, 137f530bc97282f3ffbffca486c4e65a8c060d42, 717f49b89854c2cea7c0e2ba37f5d79be2865df3, f4dde00b462f27d5eec70405e3f665e97704e405, 47ab50461f82abffbcadb53e71cb575b1c04c7e9, ba18b640e6a64cfb7582bcc550ec3c0988e27167, b484896bd6fa05c844af34fae78cfc0fe65b425f, 1ac67bd41e4a7686f4915d6276b6c1f862a02b86, 3a1054062b338265abca037424868b1ddc253e1c, 13c0706cf40b7a105adb07994bdc6bb51c20bda0, 9564640e865871929c8e7cdb9f63572eb7f43d95, 6151ecd2a9f563d8de43ba9f50f87bd84c61b43d, daaa458c399339dbb0b50c659aefdacffe270e46]","3","5","18","4","[app/controllers/admin/case_studies_controller.rb, app/controllers/admin/consultations_controller.rb, app/controllers/admin/corporate_information_pages_controller.rb, app/controllers/admin/countries_controller.rb, app/controllers/admin/document_series_controller.rb, app/controllers/admin/edition_organisations_controller.rb, app/controllers/admin/editions_controller.rb, app/controllers/admin/international_priorities_controller.rb, app/controllers/admin/news_articles_controller.rb, app/controllers/admin/organisations_controller.rb, app/controllers/admin/policies_controller.rb, app/controllers/admin/publications_controller.rb, app/controllers/admin/specialist_guides_controller.rb, app/controllers/admin/speeches_controller.rb, app/controllers/admin/topics_controller.rb, app/controllers/countries_controller.rb, app/controllers/organisations_controller.rb, app/controllers/topics_controller.rb]","[app/controllers/admin/edition_organisations_controller.rb, app/controllers/admin/edition_workflow_controller.rb, app/controllers/admin/organisations_controller.rb, app/controllers/organisations_controller.rb]","0.1666666667","0.75","3.1.7","5","[]","0","75","[app/controllers/admin/case_studies_controller.rb, app/controllers/admin/consultations_controller.rb, app/controllers/admin/corporate_information_pages_controller.rb, app/controllers/admin/countries_controller.rb, app/controllers/admin/document_series_controller.rb, app/controllers/admin/edition_organisations_controller.rb, app/controllers/admin/editions_controller.rb, app/controllers/admin/international_priorities_controller.rb, app/controllers/admin/news_articles_controller.rb, app/controllers/admin/organisations_controller.rb, app/controllers/admin/policies_controller.rb, app/controllers/admin/publications_controller.rb, app/controllers/admin/specialist_guides_controller.rb, app/controllers/admin/speeches_controller.rb, app/controllers/admin/topics_controller.rb, app/controllers/countries_controller.rb, app/controllers/organisations_controller.rb, app/controllers/topics_controller.rb, app/helpers/admin/edition_routes_helper.rb, app/helpers/filter_routes_helper.rb, app/helpers/public_document_routes_helper.rb, app/views/admin/case_studies/_form.html.erb, app/views/admin/consultations/_additional_significant_fields.html.erb, app/views/admin/consultations/_edition.html.erb, app/views/admin/consultations/_form.html.erb, app/views/admin/corporate_information_pages/_form.html.erb, app/views/admin/corporate_information_pages/edit.html.erb, app/views/admin/corporate_information_pages/new.html.erb, app/views/admin/document_series/_form.html.erb, app/views/admin/document_series/edit.html.erb, app/views/admin/document_series/new.html.erb, app/views/admin/document_series/show.html.erb, app/views/admin/edition_organisations/edit.html.erb, app/views/admin/editions/_attachment_fields.html.erb, app/views/admin/editions/index.html.erb, app/views/admin/international_priorities/_form.html.erb, app/views/admin/news_articles/_form.html.erb, app/views/admin/organisations/_contacts_form.html.erb, app/views/admin/organisations/_form.html.erb, app/views/admin/organisations/_sidebar.html.erb, app/views/admin/organisations/edit.html.erb, app/views/admin/organisations/show.html.erb, app/views/admin/organisations/tabs/_about_us.html.erb, app/views/admin/organisations/tabs/_contacts.html.erb, app/views/admin/organisations/tabs/_corporate_information_pages.html.erb, app/views/admin/organisations/tabs/_details.html.erb, app/views/admin/organisations/tabs/_document_series.html.erb, app/views/admin/organisations/tabs/_documents.html.erb, app/views/admin/organisations/tabs/_people.html.erb, app/views/admin/policies/_form.html.erb, app/views/admin/publications/_additional_significant_fields.html.erb, app/views/admin/publications/_edition.html.erb, app/views/admin/publications/_form.html.erb, app/views/admin/specialist_guides/_edition.html.erb, app/views/admin/specialist_guides/_form.html.erb, app/views/admin/speeches/_form.html.erb, app/views/countries/_navigation.html.erb, app/views/countries/show.html.erb, app/views/documents/_attachment.html.erb, app/views/documents/_attachments.html.erb, app/views/documents/_recently_changed_documents.html.erb, app/views/organisations/_header.html.erb, app/views/organisations/_navigation.html.erb, app/views/organisations/_organisations_logo_list.html.erb, app/views/organisations/_sidebar.html.erb, app/views/organisations/_social_media_accounts.html.erb, app/views/organisations/chiefs_of_staff.html.erb, app/views/organisations/show.html.erb, app/views/policies/_list_description.html.erb, app/views/publications/_list_description.html.erb, app/views/shared/_hero_rotator.html.erb, app/views/shared/_recently_updated.html.erb, app/views/topics/_list_description.html.erb, app/views/topics/_related_topics.html.erb, app/views/topics/show.html.erb]","[create, ministerial_roles, roles, record_css_selector, click_link, within, attach_file, fill_in, click_button, rows, each_with_index, board_member_roles, has_css?, each, ministerial_roles, featured_documents_selector, all, text, collect, diff!, title, summary, feature, record_css_selector, has_css?, gsub]","","[]","[admin_ssociation, app/views/admin/case_studies/_related_policy_fields.html.erb, app/views/admin/consultations/_attachment_fields.html.erb, app/views/admin/consultations/_minister_fields.html.erb, app/views/admin/consultations/_nation_fields.html.erb, app/views/admin/consultations/_organisation_fields.html.erb, app/views/admin/consultations/_related_policy_fields.html.erb, app/views/admin/consultations/_standard_elements.html.erb, app/views/admin/international_priorities/_country_fields.html.erb, app/views/admin/international_priorities/_organisation_fields.html.erb, app/views/admin/news_articles/_country_fields.html.erb, app/views/admin/news_articles/_first_published_at.html.erb, app/views/admin/news_articles/_minister_fields.html.erb, app/views/admin/news_articles/_organisation_fields.html.erb, app/views/admin/news_articles/_related_policy_fields.html.erb, app/views/admin/organisations/tabs/_url.html.erb, app/views/admin/policies/_country_fields.html.erb, app/views/admin/policies/_minister_fields.html.erb, app/views/admin/policies/_nation_fields.html.erb, app/views/admin/policies/_organisation_fields.html.erb, app/views/admin/policies/_policy_team_fields.html.erb, app/views/admin/policies/_topic_fields.html.erb, app/views/admin/publications/_attachment_fields.html.erb, app/views/admin/publications/_country_fields.html.erb, app/views/admin/publications/_document_series_fields.html.erb, app/views/admin/publications/_minister_fields.html.erb, app/views/admin/publications/_nation_fields.html.erb, app/views/admin/publications/_organisation_fields.html.erb, app/views/admin/publications/_related_policy_fields.html.erb, app/views/admin/publications/_standard_elements.html.erb, app/views/admin/specialist_guides/_attachment_fields.html.erb, app/views/admin/specialist_guides/_nation_fields.html.erb, app/views/admin/specialist_guides/_organisation_fields.html.erb, app/views/admin/specialist_guides/_topic_fields.html.erb, app/views/admin/speeches/_country_fields.html.erb, app/views/admin/speeches/_first_published_at.html.erb, app/views/admin/speeches/_related_policy_fields.html.erb]","37","3.332 seconds","false","15","1","[app/controllers/admin/case_studies_controller.rb, app/controllers/admin/consultations_controller.rb, app/controllers/admin/corporate_information_pages_controller.rb, app/controllers/admin/countries_controller.rb, app/controllers/admin/document_series_controller.rb, app/controllers/admin/editions_controller.rb, app/controllers/admin/international_priorities_controller.rb, app/controllers/admin/news_articles_controller.rb, app/controllers/admin/policies_controller.rb, app/controllers/admin/publications_controller.rb, app/controllers/admin/specialist_guides_controller.rb, app/controllers/admin/speeches_controller.rb, app/controllers/admin/topics_controller.rb, app/controllers/countries_controller.rb, app/controllers/topics_controller.rb]","[app/controllers/admin/edition_workflow_controller.rb]","3","[app/controllers/admin/edition_organisations_controller.rb, app/controllers/admin/organisations_controller.rb, app/controllers/organisations_controller.rb]","0.44117647063494814"
"4048","[04-09-2012]","2","7","[35854c64ac0e1ac47ad051195359ae044254660b, e1e20305477f03febc4de6d61cbbd320fb3b5f8a, 52281e7a0011214319f1e70bb33a24d9b4325da0, 51f623f04e9338a101d34c5f8cc1de2c355e83dc, a2cbac35ba44a742ab830a0e2f5136cbaa318fe6, 4a1057a2df5e4fd12c309c18ecc857713b37200b, 6152086a85bcf34e712668ea75fa5a4988510b2f]","3","6","10","1","[app/controllers/admin/case_studies_controller.rb, app/controllers/admin/consultations_controller.rb, app/controllers/admin/editions_controller.rb, app/controllers/admin/international_priorities_controller.rb, app/controllers/admin/news_articles_controller.rb, app/controllers/admin/policies_controller.rb, app/controllers/admin/publications_controller.rb, app/controllers/admin/specialist_guides_controller.rb, app/controllers/admin/speeches_controller.rb, app/controllers/admin/topics_controller.rb]","[app/controllers/documents_controller.rb]","0.0","0.0","3.1.7","4","[]","0","30","[app/controllers/admin/case_studies_controller.rb, app/controllers/admin/consultations_controller.rb, app/controllers/admin/editions_controller.rb, app/controllers/admin/international_priorities_controller.rb, app/controllers/admin/news_articles_controller.rb, app/controllers/admin/policies_controller.rb, app/controllers/admin/publications_controller.rb, app/controllers/admin/specialist_guides_controller.rb, app/controllers/admin/speeches_controller.rb, app/controllers/admin/topics_controller.rb, app/helpers/admin/edition_routes_helper.rb, app/helpers/public_document_routes_helper.rb, app/models/topic.rb, app/views/admin/case_studies/_form.html.erb, app/views/admin/consultations/_additional_significant_fields.html.erb, app/views/admin/consultations/_edition.html.erb, app/views/admin/consultations/_form.html.erb, app/views/admin/editions/index.html.erb, app/views/admin/international_priorities/_form.html.erb, app/views/admin/news_articles/_form.html.erb, app/views/admin/policies/_form.html.erb, app/views/admin/publications/_additional_attachment_fields.html.erb, app/views/admin/publications/_additional_significant_fields.html.erb, app/views/admin/publications/_edition.html.erb, app/views/admin/publications/_form.html.erb, app/views/admin/specialist_guides/_edition.html.erb, app/views/admin/specialist_guides/_form.html.erb, app/views/admin/speeches/_form.html.erb, app/views/documents/_attachment.html.erb, app/views/documents/_attachments.html.erb]","[create, find_by_title!, record_css_selector, has_css?, page, gsub, returns, click_button, create, merge, fill_in, click_link, select, title, to_i, status_code, assert_equal]","","[]","[app/views/admin/case_studies/_related_policy_fields.html.erb, app/views/admin/consultations/_attachment_fields.html.erb, app/views/admin/consultations/_minister_fields.html.erb, app/views/admin/consultations/_nation_fields.html.erb, app/views/admin/consultations/_organisation_fields.html.erb, app/views/admin/consultations/_related_policy_fields.html.erb, app/views/admin/consultations/_standard_elements.html.erb, app/views/admin/international_priorities/_country_fields.html.erb, app/views/admin/international_priorities/_organisation_fields.html.erb, app/views/admin/news_articles/_country_fields.html.erb, app/views/admin/news_articles/_first_published_at.html.erb, app/views/admin/news_articles/_minister_fields.html.erb, app/views/admin/news_articles/_organisation_fields.html.erb, app/views/admin/news_articles/_related_policy_fields.html.erb, app/views/admin/policies/_country_fields.html.erb, app/views/admin/policies/_minister_fields.html.erb, app/views/admin/policies/_nation_fields.html.erb, app/views/admin/policies/_organisation_fields.html.erb, app/views/admin/policies/_policy_team_fields.html.erb, app/views/admin/policies/_topic_fields.html.erb, app/views/admin/publications/_attachment_fields.html.erb, app/views/admin/publications/_country_fields.html.erb, app/views/admin/publications/_document_series_fields.html.erb, app/views/admin/publications/_minister_fields.html.erb, app/views/admin/publications/_nation_fields.html.erb, app/views/admin/publications/_organisation_fields.html.erb, app/views/admin/publications/_related_policy_fields.html.erb, app/views/admin/publications/_standard_elements.html.erb, app/views/admin/specialist_guides/_attachment_fields.html.erb, app/views/admin/specialist_guides/_nation_fields.html.erb, app/views/admin/specialist_guides/_organisation_fields.html.erb, app/views/admin/specialist_guides/_topic_fields.html.erb, app/views/admin/speeches/_country_fields.html.erb, app/views/admin/speeches/_first_published_at.html.erb, app/views/admin/speeches/_related_policy_fields.html.erb]","35","1.650 seconds","false","10","1","[app/controllers/admin/case_studies_controller.rb, app/controllers/admin/consultations_controller.rb, app/controllers/admin/editions_controller.rb, app/controllers/admin/international_priorities_controller.rb, app/controllers/admin/news_articles_controller.rb, app/controllers/admin/policies_controller.rb, app/controllers/admin/publications_controller.rb, app/controllers/admin/specialist_guides_controller.rb, app/controllers/admin/speeches_controller.rb, app/controllers/admin/topics_controller.rb]","[app/controllers/documents_controller.rb]","0","[]","0"
"4101","[23-07-2012, 24-07-2012]","5","14","[c513eeaf43bb5247161684351f68d036d89b1f3a, 2fa58f7675147a7d2ded8b32786cb22e94733202, 3ad5762fb2c7475182a13d6414d666c005ee9492, 0520c0d2001a57e4794d6e18d690e2c722255d9c, 6ea8dbbfccc897b6b371ee37b827a6eda29cc825, 338d321c44a9ebdb69ef1dc59861461b02e0449f, 25af41b697bc26bc6e3dcdf2b6806340e59f946b, f3fdb3a4979d15c1314f4b707f598b8a1867807d, a8f618cdacbf130a68ef0b710d27c1373ac2c15a, ed06f46e1b116d593d632530d3651bb3b4f23a9a, be62bb56dba5c428f57b14dd19ad23e66fef3c7e, 7f420d6c4ff940ad62506a4f48a9d60a7a90cc02, f6aefd0e847a59d8b9220e02d72a4d829b88143d, ea89c14507ca1cf2868fc6c70b1de1b9df26e8ae]","2","5","2","0","[app/controllers/admin/specialist_guides_controller.rb, app/controllers/specialist_guides_controller.rb]","[]","0.0","0.0","3.1.6","3","[]","0","4","[app/controllers/admin/specialist_guides_controller.rb, app/controllers/specialist_guides_controller.rb, app/helpers/public_document_routes_helper.rb, app/views/specialist_guides/index.html.erb]","[create, record_css_selector, has_css?, gsub, document, begin_drafting_document, select, click_button, click_link, within, find_by_title, published_specialist_guides]","","[]","","0","0.448 seconds","false","2","0","[app/controllers/admin/specialist_guides_controller.rb, app/controllers/specialist_guides_controller.rb]","[]","0","[]","0"
"4135","[09-07-2012, 10-07-2012]","3","6","[0f0bf39c0b1544286a18e0317bd9efe89f06ebb4, 799637cca12cc26c5b9a080956184cafcf620e11, 5d6aaf32752781853047a345fed9276cf921073d, a5c809bb4a1030a8df5442e26e6edb9a2f54c717, 40af118023f5392db97cf4b2051dfbf836274002, c859767ab07dfcee0301288f5d160dea2040bb9a]","2","6","0","0","[]","[]","0.0","0.0","3.1.6","1","[]","0","0","[]","[begin_drafting_policy, click_button, create, page, has_css?, find_by_title!, record_css_selector, gsub, begin_drafting_document, fill_in, attach_file, within, click_link]","","[app/models/edition/video.rb]","","0","0.415 seconds","false","0","0","[]","[]","0","[]","0"
"4031","[14-09-2012, 15-09-2012, 17-09-2012, 18-09-2012]","6","36","[70419974a2be4812c752a965683025aaa2c41bfe, 019d2871de414969ae5b194ac52c2abfe88e4779, 84d61d6765dfb81d0b7105d5dc3f6406a2a28bcf, 62af1fbcce4ffdabcc7bd93feadd2aa499d2a1b2, 40ca2fad92d206b23e406e0be0325ba7b43a49bb, e4b2dd291c10e48d76a1a2179cf06ba2f4f77af5, bda3ff009a9e7a6a1afc71b308f4f8aeaa5debb7, 5584a6aa6febd6897a44bf802c4b16277a1da74d, 33292d228304457331bb8ac626619f7eb795a045, f324b16dc3bab53e84be2c0c5c413f098dd00c34, c1894ab929a52a73775a7175928d58288747e7fa, fccee0ca5e4ca096987608fa54010e8b7c6af1f8, c05586c1ab0097cd841dce3cfea0aa359074e66e, 2688eb4c0cd28723061634890529aaa27544172d, 6214b3c23554bf5bfff244034bfd788305a246ab, c1fd61f4185ac72127f3ab7f853accc01fe1027d, c9eb355834eefb86d281055fad0fc9a6be709831, 83afa111d195754b20aa408b931471dc60f626bd, cb9fcfd0a3c5bb3affebd4625dcfa60b3a28c47a, 0dfad379a70e5bb94d134c72591c0689f61af48f, 81e5e47ef6c8758e96018e26edc06c09f7d97f88, 59a24c8450fec729180804e004d472eb722efc0e, 2985eef3fc7f49f0f794c50389abba08727cd099, ad89a4348cacae0c48439a80873fc88d7935a172, 457a64776fe917b718de7e704260c893aee6f4cf, 79704ae2a0daed1c890a0028db903f676b17db0d, d17a7ed9dc0de6017995d17b4415dcbd5245f249, 8b8204d26dace9c3d2afbd18b795b51a0d565618, eb553966f03a9ec0fe8a1dd1d8c1c1a277324007, e93ef8da51a949ff52350e0211561458f050e7c0, b7a4b8aa6b0cc7d452f58e0b3c70dcc8c7836b52, 27db58140f387ca99577b101331b9a355c909aa9, 3b8397651daea2cd0185868f8d40f2c07d7a11d3, 10347f7d1df82486c5cac3da04ec568e8af1d502, 99bff87a7c667ff1cd69239003b1c7bfff1ec37c, 41376e65b2ca41e678d03fcc21e82d1d8cb5c86c]","1","3","1","4","[app/controllers/admin/edition_workflow_controller.rb]","[app/controllers/mainstream_categories_controller.rb, app/controllers/organisations_controller.rb, app/controllers/publications_controller.rb, app/controllers/topics_controller.rb]","0.0","0.0","3.1.7","3","[{path=alphagov_whitehall/features/step_definitions/specialist_guide_steps.rb, line=-1}]","0","0","[]","[create, find_by_title!, record_css_selector, has_css?, title, find_by_title, click_button, has_css?, refute]","","[app/models/announcement_presenter.rb, app/views/organisations/policies.html.erb]","","0","0.485 seconds","false","1","4","[app/controllers/admin/edition_workflow_controller.rb]","[app/controllers/mainstream_categories_controller.rb, app/controllers/organisations_controller.rb, app/controllers/publications_controller.rb, app/controllers/topics_controller.rb]","0","[]","0"
"4033","[13-09-2012, 14-09-2012]","4","15","[1961bd6e077c305f9eb6c6d832a28016fac31b1d, 689b42d70374ca862d53556819b1b0aea62786c1, a2e4e31674905b5e17a191c3324e9762ca50fb36, e7cd3f837394a6003622071abd366ada8f68a46d, 611e56cbb16dc4b075cef684947d35908209ee9c, dd12485baa939ab63baa42fd458084b7f2f72338, 0fb469b19038c40cc89b30599a066d0cff221295, a90087a5ae1fc0e6dda89ad3b25e70db654d9b16, 0fe5f1cf57b731eef84c8b5efc998831cb69788b, bbfe9d299ef36c3e19760bcc524ddec84662d43f, 4420c178cccae7fbf526a2e31fe314ad12042a96, e83776440f7361b3cd83d330c78ed6e46bf3a173, 613c68c0892182108a75fa4c63d6c3824a69f692, 1d884dd06bd592415b33ca3cdabdf0e0d4a01c5e, aec0605554e3491f96d144709abf0da495de32d2]","1","1","4","3","[app/controllers/admin/organisations_controller.rb, app/controllers/admin/topics_controller.rb, app/controllers/organisations_controller.rb, app/controllers/topics_controller.rb]","[app/controllers/api/responder.rb, app/controllers/api/specialist_guides_controller.rb, app/controllers/organisations_controller.rb]","0.25","0.3333333333","3.1.7","1","[]","0","22","[app/controllers/admin/organisations_controller.rb, app/controllers/admin/topics_controller.rb, app/controllers/organisations_controller.rb, app/controllers/topics_controller.rb, app/helpers/filter_routes_helper.rb, app/helpers/public_document_routes_helper.rb, app/views/documents/_recently_changed_documents.html.erb, app/views/organisations/_header.html.erb, app/views/organisations/_navigation.html.erb, app/views/organisations/_organisations_logo_list.html.erb, app/views/organisations/_sidebar.html.erb, app/views/organisations/_social_media_accounts.html.erb, app/views/organisations/chiefs_of_staff.html.erb, app/views/organisations/management_team.html.erb, app/views/organisations/show.html.erb, app/views/policies/_list_description.html.erb, app/views/publications/_list_description.html.erb, app/views/shared/_hero_rotator.html.erb, app/views/shared/_recently_updated.html.erb, app/views/topics/_list_description.html.erb, app/views/topics/_related_topics.html.erb, app/views/topics/show.html.erb]","[create, ministerial_roles, roles, ministerial_roles, record_css_selector, has_css?, each, title, summary]","","[]","","0","1.236 seconds","true","3","2","[app/controllers/admin/organisations_controller.rb, app/controllers/admin/topics_controller.rb, app/controllers/topics_controller.rb]","[app/controllers/api/responder.rb, app/controllers/api/specialist_guides_controller.rb]","1","[app/controllers/organisations_controller.rb]","0.3124999999765625"
"4040","[10-09-2012]","3","16","[7c99017e6eb763da22070dfb9c86ca82b306e7f8, cb7b6aa25a56e0e0d813db83e96b5c3cbde5febc, c9b34539a9af63e51c5748df0b1d4c5d9305c3f0, 94fb5400d9ab6554e21232a2db99d5e6407c0949, ea0350e6e4e1b05a8b11726d135f3019ce38e5f8, 8dedbcdf931a2f134d27a71b2883c053b5403c6b, ce5e54b90fe2895cfd08191e2f89c42c5fa2dc47, 54319c1353f9fce978da8c1b85289f7916747b64, 8d8fedcc2e6ca69c0d1bc1d0d9e9ab3d52adcf93, 9935ca55ee41f2f53ba1f89e451c16d5a37dd28c, f6a36365b676bb7a543097e21671d926fc5ba2ee, 8872677560800f3499ec6361a1a11b1d6bf4ff4c, b54ee9a6e0164d7d5c2f376fb8bebbdac9a36c66, ee3680738a9a4436666fc187eebaa802d513157d, e1cc115d2d6d2d1ae20f1bf6004f1130621024e1, 77e046cb3712d495d9715e0f99ec688cf4054b97]","1","0","15","2","[app/controllers/admin/case_studies_controller.rb, app/controllers/admin/consultations_controller.rb, app/controllers/admin/corporate_information_pages_controller.rb, app/controllers/admin/document_series_controller.rb, app/controllers/admin/editions_controller.rb, app/controllers/admin/international_priorities_controller.rb, app/controllers/admin/news_articles_controller.rb, app/controllers/admin/organisations_controller.rb, app/controllers/admin/policies_controller.rb, app/controllers/admin/publications_controller.rb, app/controllers/admin/specialist_guides_controller.rb, app/controllers/admin/speeches_controller.rb, app/controllers/admin/topics_controller.rb, app/controllers/organisations_controller.rb, app/controllers/topics_controller.rb]","[app/controllers/api/specialist_guides_controller.rb, app/controllers/public_facing_controller.rb]","0.0","0.0","3.1.7","2","[]","0","71","[app/controllers/admin/case_studies_controller.rb, app/controllers/admin/consultations_controller.rb, app/controllers/admin/corporate_information_pages_controller.rb, app/controllers/admin/document_series_controller.rb, app/controllers/admin/editions_controller.rb, app/controllers/admin/international_priorities_controller.rb, app/controllers/admin/news_articles_controller.rb, app/controllers/admin/organisations_controller.rb, app/controllers/admin/policies_controller.rb, app/controllers/admin/publications_controller.rb, app/controllers/admin/specialist_guides_controller.rb, app/controllers/admin/speeches_controller.rb, app/controllers/admin/topics_controller.rb, app/controllers/organisations_controller.rb, app/controllers/topics_controller.rb, app/helpers/admin/edition_routes_helper.rb, app/helpers/filter_routes_helper.rb, app/helpers/public_document_routes_helper.rb, app/models/topic.rb, app/views/admin/case_studies/_form.html.erb, app/views/admin/consultations/_additional_significant_fields.html.erb, app/views/admin/consultations/_edition.html.erb, app/views/admin/consultations/_form.html.erb, app/views/admin/corporate_information_pages/_form.html.erb, app/views/admin/corporate_information_pages/edit.html.erb, app/views/admin/corporate_information_pages/new.html.erb, app/views/admin/document_series/_form.html.erb, app/views/admin/document_series/edit.html.erb, app/views/admin/document_series/new.html.erb, app/views/admin/document_series/show.html.erb, app/views/admin/editions/index.html.erb, app/views/admin/international_priorities/_form.html.erb, app/views/admin/news_articles/_form.html.erb, app/views/admin/organisations/_contacts_form.html.erb, app/views/admin/organisations/_form.html.erb, app/views/admin/organisations/_sidebar.html.erb, app/views/admin/organisations/edit.html.erb, app/views/admin/organisations/show.html.erb, app/views/admin/organisations/tabs/_about_us.html.erb, app/views/admin/organisations/tabs/_contacts.html.erb, app/views/admin/organisations/tabs/_corporate_information_pages.html.erb, app/views/admin/organisations/tabs/_details.html.erb, app/views/admin/organisations/tabs/_document_series.html.erb, app/views/admin/organisations/tabs/_documents.html.erb, app/views/admin/organisations/tabs/_people.html.erb, app/views/admin/policies/_form.html.erb, app/views/admin/publications/_additional_attachment_fields.html.erb, app/views/admin/publications/_additional_significant_fields.html.erb, app/views/admin/publications/_edition.html.erb, app/views/admin/publications/_form.html.erb, app/views/admin/specialist_guides/_edition.html.erb, app/views/admin/specialist_guides/_form.html.erb, app/views/admin/speeches/_form.html.erb, app/views/documents/_attachment.html.erb, app/views/documents/_attachments.html.erb, app/views/documents/_recently_changed_documents.html.erb, app/views/documents/_topics.html.erb, app/views/organisations/_header.html.erb, app/views/organisations/_navigation.html.erb, app/views/organisations/_organisations_logo_list.html.erb, app/views/organisations/_sidebar.html.erb, app/views/organisations/_social_media_accounts.html.erb, app/views/organisations/chiefs_of_staff.html.erb, app/views/organisations/management_team.html.erb, app/views/organisations/ministers.html.erb, app/views/organisations/show.html.erb, app/views/shared/_hero_rotator.html.erb, app/views/shared/_recently_updated.html.erb, app/views/topics/_list.html.erb, app/views/topics/_related_topics.html.erb, app/views/topics/show.html.erb]","[create, title, summary, click_link, fill_in, select, click_button, click_link, has_css?, title, summary]","","[]","[admin_ssociation, app/views/admin/case_studies/_related_policy_fields.html.erb, app/views/admin/consultations/_attachment_fields.html.erb, app/views/admin/consultations/_minister_fields.html.erb, app/views/admin/consultations/_nation_fields.html.erb, app/views/admin/consultations/_organisation_fields.html.erb, app/views/admin/consultations/_related_policy_fields.html.erb, app/views/admin/consultations/_standard_elements.html.erb, app/views/admin/international_priorities/_country_fields.html.erb, app/views/admin/international_priorities/_organisation_fields.html.erb, app/views/admin/news_articles/_country_fields.html.erb, app/views/admin/news_articles/_first_published_at.html.erb, app/views/admin/news_articles/_minister_fields.html.erb, app/views/admin/news_articles/_organisation_fields.html.erb, app/views/admin/news_articles/_related_policy_fields.html.erb, app/views/admin/organisations/tabs/_url.html.erb, app/views/admin/policies/_country_fields.html.erb, app/views/admin/policies/_minister_fields.html.erb, app/views/admin/policies/_nation_fields.html.erb, app/views/admin/policies/_organisation_fields.html.erb, app/views/admin/policies/_policy_team_fields.html.erb, app/views/admin/policies/_topic_fields.html.erb, app/views/admin/publications/_attachment_fields.html.erb, app/views/admin/publications/_country_fields.html.erb, app/views/admin/publications/_document_series_fields.html.erb, app/views/admin/publications/_minister_fields.html.erb, app/views/admin/publications/_nation_fields.html.erb, app/views/admin/publications/_organisation_fields.html.erb, app/views/admin/publications/_related_policy_fields.html.erb, app/views/admin/publications/_standard_elements.html.erb, app/views/admin/specialist_guides/_attachment_fields.html.erb, app/views/admin/specialist_guides/_nation_fields.html.erb, app/views/admin/specialist_guides/_organisation_fields.html.erb, app/views/admin/specialist_guides/_topic_fields.html.erb, app/views/admin/speeches/_country_fields.html.erb, app/views/admin/speeches/_first_published_at.html.erb, app/views/admin/speeches/_related_policy_fields.html.erb]","37","4.059 seconds","false","15","2","[app/controllers/admin/case_studies_controller.rb, app/controllers/admin/consultations_controller.rb, app/controllers/admin/corporate_information_pages_controller.rb, app/controllers/admin/document_series_controller.rb, app/controllers/admin/editions_controller.rb, app/controllers/admin/international_priorities_controller.rb, app/controllers/admin/news_articles_controller.rb, app/controllers/admin/organisations_controller.rb, app/controllers/admin/policies_controller.rb, app/controllers/admin/publications_controller.rb, app/controllers/admin/specialist_guides_controller.rb, app/controllers/admin/speeches_controller.rb, app/controllers/admin/topics_controller.rb, app/controllers/organisations_controller.rb, app/controllers/topics_controller.rb]","[app/controllers/api/specialist_guides_controller.rb, app/controllers/public_facing_controller.rb]","0","[]","0"
"4043","[06-09-2012]","3","6","[29a73f6c2612ce93b23bb970dad8d40bbb860f26, 1345dcd43dfa5b3c38bd46ac4292aa1fde476e1b, ef4f74c50fe7f398862fcb8a514872f97567c126, 533b215ae67bc7c51580fe1406052968d8cceafd, 89a058a3a51a523ace3841c51cce05ba5376fc39, 0854bf153a5bd490a0107982dc284b5c30b0f025]","1","3","11","3","[app/controllers/admin/document_series_controller.rb, app/controllers/admin/editions_controller.rb, app/controllers/admin/organisations_controller.rb, app/controllers/admin/publications_controller.rb, app/controllers/admin/specialist_guides_controller.rb, app/controllers/admin/topics_controller.rb, app/controllers/document_series_controller.rb, app/controllers/organisations_controller.rb, app/controllers/publications_controller.rb, app/controllers/specialist_guides_controller.rb, app/controllers/topics_controller.rb]","[app/controllers/announcements_controller.rb, app/controllers/publications_controller.rb, app/controllers/specialist_guides_controller.rb]","0.1818181818","0.6666666667","3.1.7","1","[]","0","33","[app/controllers/admin/document_series_controller.rb, app/controllers/admin/organisations_controller.rb, app/controllers/admin/publications_controller.rb, app/controllers/admin/specialist_guides_controller.rb, app/controllers/admin/topics_controller.rb, app/controllers/document_series_controller.rb, app/controllers/organisations_controller.rb, app/controllers/publications_controller.rb, app/controllers/specialist_guides_controller.rb, app/controllers/topics_controller.rb, app/helpers/application_helper.rb, app/helpers/public_document_routes_helper.rb, app/views/document_series/show.html.erb, app/views/documents/_filter_form.html.erb, app/views/documents/_recently_changed_documents.html.erb, app/views/documents/_topics.html.erb, app/views/organisations/_beta_warning.html.erb, app/views/organisations/_header.html.erb, app/views/organisations/_navigation.html.erb, app/views/organisations/_organisations_logo_list.html.erb, app/views/organisations/_sidebar.html.erb, app/views/organisations/_social_media_accounts.html.erb, app/views/organisations/chiefs_of_staff.html.erb, app/views/organisations/management_team.html.erb, app/views/organisations/ministers.html.erb, app/views/organisations/show.html.erb, app/views/publications/index.html.erb, app/views/shared/_hero_rotator.html.erb, app/views/shared/_recently_updated.html.erb, app/views/specialist_guides/index.html.erb, app/views/topics/_list.html.erb, app/views/topics/_related_topics.html.erb, app/views/topics/show.html.erb]","[create, record_css_selector, page, has_css?, within, title, summary, to_i, times, click_link, select, click_button, page, evaluate_script, wait_until]","","[]","[/]","1","1.726 seconds","true","9","1","[app/controllers/admin/document_series_controller.rb, app/controllers/admin/editions_controller.rb, app/controllers/admin/organisations_controller.rb, app/controllers/admin/publications_controller.rb, app/controllers/admin/specialist_guides_controller.rb, app/controllers/admin/topics_controller.rb, app/controllers/document_series_controller.rb, app/controllers/organisations_controller.rb, app/controllers/topics_controller.rb]","[app/controllers/announcements_controller.rb]","2","[app/controllers/publications_controller.rb, app/controllers/specialist_guides_controller.rb]","0.43478260868620033"
"4058","[29-08-2012]","1","1","[b75ed8bdbcab35abfdcb5e9a848aeeb2c57101c5]","1","1","8","2","[app/controllers/admin/organisations_controller.rb, app/controllers/admin/publications_controller.rb, app/controllers/admin/specialist_guides_controller.rb, app/controllers/admin/topics_controller.rb, app/controllers/organisations_controller.rb, app/controllers/publications_controller.rb, app/controllers/specialist_guides_controller.rb, app/controllers/topics_controller.rb]","[app/controllers/document_series_controller.rb, app/controllers/organisations_controller.rb]","0.125","0.5","3.1.7","1","[]","0","29","[app/controllers/admin/organisations_controller.rb, app/controllers/admin/publications_controller.rb, app/controllers/admin/specialist_guides_controller.rb, app/controllers/admin/topics_controller.rb, app/controllers/organisations_controller.rb, app/controllers/publications_controller.rb, app/controllers/specialist_guides_controller.rb, app/controllers/topics_controller.rb, app/helpers/application_helper.rb, app/helpers/public_document_routes_helper.rb, app/views/documents/_recently_changed_documents.html.erb, app/views/documents/_topics.html.erb, app/views/organisations/_beta_warning.html.erb, app/views/organisations/_header.html.erb, app/views/organisations/_navigation.html.erb, app/views/organisations/_organisations_logo_list.html.erb, app/views/organisations/_sidebar.html.erb, app/views/organisations/_social_media_accounts.html.erb, app/views/organisations/chiefs_of_staff.html.erb, app/views/organisations/management_team.html.erb, app/views/organisations/ministers.html.erb, app/views/organisations/show.html.erb, app/views/publications/index.html.erb, app/views/shared/_hero_rotator.html.erb, app/views/shared/_recently_updated.html.erb, app/views/specialist_guides/index.html.erb, app/views/topics/_list.html.erb, app/views/topics/_related_topics.html.erb, app/views/topics/show.html.erb]","[create, page, has_css?, click_link, within, title, summary, record_css_selector]","","[]","","0","1.605 seconds","false","7","1","[app/controllers/admin/organisations_controller.rb, app/controllers/admin/publications_controller.rb, app/controllers/admin/specialist_guides_controller.rb, app/controllers/admin/topics_controller.rb, app/controllers/publications_controller.rb, app/controllers/specialist_guides_controller.rb, app/controllers/topics_controller.rb]","[app/controllers/document_series_controller.rb]","1","[app/controllers/organisations_controller.rb]","0.3125"
"4069","[21-08-2012, 22-08-2012]","3","6","[195a2d230290268290836a55a38fe4b16ea6e4eb, ab98981c6bf24dd23457dd381e7547ec10e1110f, e1ce30ca52b968f749e2b5adf415b84f3b83a379, 839c104e2b1829fee5a17fef9d03e7969e99cbc4, 8871498c90c240663f01f33518aa00d65aeadf16, 5b7fbbc9eeb7a1ed2333955b9947fa3b39b2dbd9]","1","1","2","0","[app/controllers/admin/specialist_guides_controller.rb, app/controllers/specialist_guides_controller.rb]","[]","0.0","0.0","3.1.7","1","[]","0","4","[app/controllers/admin/specialist_guides_controller.rb, app/controllers/specialist_guides_controller.rb, app/helpers/public_document_routes_helper.rb, app/views/specialist_guides/index.html.erb]","[create, to_i, times, page, evaluate_script, select, click_button, wait_until, has_css?, page, find, text, execute_script, evaluate_script, wait_until, record_css_selector]","","[]","","0","0.294 seconds","false","2","0","[app/controllers/admin/specialist_guides_controller.rb, app/controllers/specialist_guides_controller.rb]","[]","0","[]","0"
"4070","[20-08-2012]","1","2","[763d60536edcb78d39fd29f0918e3b134d84c8aa, 710a5b487177a820887dee3900a198689be972a8]","1","2","2","0","[app/controllers/admin/specialist_guides_controller.rb, app/controllers/specialist_guides_controller.rb]","[]","0.0","0.0","3.1.7","1","[]","0","4","[app/controllers/admin/specialist_guides_controller.rb, app/controllers/specialist_guides_controller.rb, app/helpers/public_document_routes_helper.rb, app/views/specialist_guides/index.html.erb]","[create, to_i, times, page, evaluate_script, select, click_button, wait_until, to_i, has_css?, page, execute_script, evaluate_script, wait_until, record_css_selector]","","[]","","0","0.550 seconds","false","2","0","[app/controllers/admin/specialist_guides_controller.rb, app/controllers/specialist_guides_controller.rb]","[]","0","[]","0"
"4077","[10-08-2012, 13-08-2012]","2","15","[36bb7c1fb396996abc18395621a7f42a978c6e6d, df6f8776fc9d3f83d8bc3e3144780cac98a35565, c30ac02eaf785a818ba94440915606345f8c13ba, 2c8e8ca06d1fc0c934c50e0848f5b0dae6cb05cb, 532785180e067640750beaf36033d837d7bca5f4, ad9ff31ca2ce9d422424cc89504b731e74f115e3, 9c53e23692d80ec6dc84e1df827efa42ff850461, cf21ab0d21aaf53513b2b9c1f37aff80c850b1b5, 9206f934be787115aaf014659fef1fdd859e3c23, fc0272b82de0df97d32f28a9625fcd126e0beed3, 874f48ca0ea2dcf44edaa459b20922741d89c8dd, 5189408a1c138f072809f1a0628ec321b071ff27, 08aeffa4eb1f9fa5b97553edb543548873fa48f5, 5f99f307b543ef1871b29057319782f28c572df5, 3dafdce2c03730ed1919118042650cf89b25940d]","1","3","1","1","[app/controllers/admin/organisations_controller.rb]","[app/controllers/admin/preview_controller.rb]","0.0","0.0","3.1.7","3","[]","0","5","[app/controllers/admin/organisations_controller.rb, app/views/admin/organisations/_contacts_form.html.erb, app/views/admin/organisations/_form.html.erb, app/views/admin/organisations/_sidebar.html.erb, app/views/admin/organisations/edit.html.erb]","[create, fill_in, click_button, page, has_css?, find_by_title!, record_css_selector, gsub]","","[]","","0","0.528 seconds","true","1","1","[app/controllers/admin/organisations_controller.rb]","[app/controllers/admin/preview_controller.rb]","0","[]","0"
"4112","[16-07-2012, 17-07-2012]","1","14","[b09ac51be10e537e7521964b93db83395e8451d9, 6f0cc3c1a94100de1980574666c8eca3375f5e62, 541fb2664254816389935e0cf9fad93e248f639d, 9ee4be70e00561a0962c75b129c1fa440208c834, 9b8fb56e4d789638520725ff53cf861869ada9af, b570beb4baa5f0a5fbacfc27e4ac5c170575b57f, 7f73f7a98344240dc7299627f84f93890ede0e5f, 3fc2dd02a1509ba98976ddeaef77b2d40a862c50, 626d89811b48b32278fcbb1ce8ff62806213024e, 0d51d0bdb634fe5e4577d5dd303bc8bbff572451, 13553aba9b4cd0133b55fbff90c08acac3280196, 20b22d1879a67593571a5e3207539a53980b8833, 47f8aa13d773e2a45ff9451eae05ccef72dfcb06, e71df3b71668e5dbdc069047fc28c7a30499076d]","1","9","0","0","[]","[]","0.0","0.0","3.1.6","2","[]","0","0","[]","[build, create, fill_in, attach_file, within, click_button, fill_in, click_button, page, has_no_css?, has_css?, begin_drafting_document, select, select_date, record_css_selector, click_link, attach_file, within, click_link, find_by_title]","","[]","","0","0.504 seconds","false","0","0","[]","[]","0","[]","0"
"4169","[03-07-2012]","1","3","[03a4d72cf75268fc058fe5ff386c345b6841fb09, c33b3aa427b8c2acf03f454f52b456601934e287, 46a492089038b887f1148caadc24a06eec9f1602]","1","5","0","0","[]","[]","0.0","0.0","3.1.3","0","[]","0","0","[]","[begin_drafting_document, attach_file, within, page, all, length, assert_equal, create]","","[]","","0","0.139 seconds","false","0","0","[]","[]","0","[]","0"
