"Repository","https://github.com/alphagov/whitehall.git"
"Precision mean (RT)","0.15552138305862073"
"Precision median (RT)","0.0"
"Precision standard deviation (RT)","0.2773615749459728"
"Recall mean (RT)","0.3554187192137931"
"Recall median (RT)","0.0"
"Recall standard deviation (RT)","0.4337204373575134"
"F2 mean (RT)","0.2122903884206985"
"F2 median (RT)","0.0"
"F2 standard deviation (RT)","0.2549334842261384"
"Correlation #Test-Precision","0.66"
"Correlation #Test-Recall","0.55"
"Task","Dates","#Devs","#Commits","Hashes","#Gherkin_Tests","#Sted_defs","#TestI","#TaskI","TestI","TaskI","Precision","Recall","Rails","#visit_call","Lost_visit_call","#Views_TestI","#Code_View_Analysis","Code_View_Analysis","Methods_Unknown_Type","Renamed_Files","Deleted_Files","NotFound_Views","#NotFound_Views","Timestamp","Has_Merge","#FP","#FN","FP","FN","#Hits","Hits","f2"
"2558","[24-01-2014]","2","35","[5b2ad9eb35071b054ff7c4bb2dd227938216a8ed, 6726eff7521b8495f43c7df07e869164fa209500, 23e4f132d72982d6ef3a666a5f5b4b3ed2a7f1dd, 39bdaa637cc350771dcecf7b03fce309f01fe0e6, d4f6a160a1911d48113ca2c819e24b72e991c199, ece3c3772c08bd0ace695993da53b6d9f5d972b1, 1ee21ff9f9daf4701501e00fa68a28cf709e0a1c, aa8ad8032047ec856a31c061f4313730ad2be673, 902097d36956169dc842a2b7dbe7996ce57e3dac, 9943004db2d87225bddcae6c09629de88546c54d, ade98827c35ade5e234d45e11cb634fa37089d85, e977fd61d9266750420311d3d242702ca56c90ad, 37235dde56bea236ebee7518a5e6a1c94948339f, 0c1c88cf25c388980bb7176ea66635a08ce74c1d, a373b4d9888e26a6f8ef516aa9afc38d371424f4, a1bb56f86a1fc831111f9c88108a245e2e6113f3, d28fb055f00ca433e8b90befa1375ab18d2686c5, 9ca5688595c74308111104b72c80637962b930d2, 12619a1d97345ab949fcfcd959d200c43faf4e14, 09f07024867e2713d128f15895caeb35075a0d2c, b0641fd5834feb9b0424da17986ed8cf6a737d6b, c0ff8a6c6aa8faebd6bc1f16da0d8f0343e3b813, 2394ed5017ec1cc7a80e0e7f7d60a025cdd97fae, e482933f9607e447b00f1339dbf1fa7983972820, 7f39d327d4a56bd06605e3409baf4a7905b9c2f2, 1ac80d80ccad958d1d273dd01d17da1b3001e1e1, 58e4a4cae68ac81783be830faec7894e892d61b1, 52cc68a3697bd3945bf81d31c89fef0a0fdd64d0, 02adaea52351d943f56a6f75fd782b5b2264aa20, 29cdb54eb33acd735287a2a36a7c558fd4efc539, c04df1901e0acfbde7e1e19a1471d971e3eada02, 2e65e15ab6ae19f23691257f65464926f149279e, 478da5332695aa4f2610bc26dded1354fcc3e509, 1ad0431010d067857ddffb703e4e97cde6ce9499, 1ce7db661db244e1a43bc55c27cf519e357b35d0]","13","26","22","2","[app/controllers/admin/corporate_information_pages_controller.rb, app/controllers/admin/dashboard_controller.rb, app/controllers/admin/edition_workflow_controller.rb, app/controllers/admin/editions_controller.rb, app/controllers/admin/email_curation_queue_items_controller.rb, app/controllers/admin/find_in_admin_bookmarklet_controller.rb, app/controllers/admin/organisations_controller.rb, app/controllers/admin/policies_controller.rb, app/controllers/admin/publications_controller.rb, app/controllers/admin/supporting_pages_controller.rb, app/controllers/admin/topics_controller.rb, app/controllers/admin/world_locations_controller.rb, app/controllers/announcements_controller.rb, app/controllers/api/organisations_controller.rb, app/controllers/api/world_locations_controller.rb, app/controllers/corporate_information_pages_controller.rb, app/controllers/email_signups_controller.rb, app/controllers/organisations_controller.rb, app/controllers/policies_controller.rb, app/controllers/publications_controller.rb, app/controllers/topics_controller.rb, app/controllers/world_locations_controller.rb]","[app/controllers/admin/email_curation_queue_items_controller.rb, app/controllers/email_signups_controller.rb]","0.0909090909","1.0","3.2.16","22","[{path=alphagov_whitehall/features/step_definitions/person_steps.rb, line=-1}]","0","96","[app/controllers/admin/corporate_information_pages_controller.rb, app/controllers/admin/dashboard_controller.rb, app/controllers/admin/editions_controller.rb, app/controllers/admin/email_curation_queue_items_controller.rb, app/controllers/admin/find_in_admin_bookmarklet_controller.rb, app/controllers/admin/organisations_controller.rb, app/controllers/admin/policies_controller.rb, app/controllers/admin/publications_controller.rb, app/controllers/admin/supporting_pages_controller.rb, app/controllers/admin/topics_controller.rb, app/controllers/admin/world_locations_controller.rb, app/controllers/announcements_controller.rb, app/controllers/api/organisations_controller.rb, app/controllers/api/world_locations_controller.rb, app/controllers/corporate_information_pages_controller.rb, app/controllers/email_signups_controller.rb, app/controllers/organisations_controller.rb, app/controllers/policies_controller.rb, app/controllers/publications_controller.rb, app/controllers/topics_controller.rb, app/controllers/world_locations_controller.rb, app/helpers/admin/edition_routes_helper.rb, app/helpers/filter_routes_helper.rb, app/helpers/mainstream_category_routes_helper.rb, app/helpers/public_document_routes_helper.rb, app/models/admin/edition_filter.rb, app/models/edition/appointment.rb, app/presenters/role_appointment_presenter.rb, app/services/service_listeners/author_notifier.rb, app/views/admin/dashboard/_document_table.html.erb, app/views/admin/dashboard/index.html.erb, app/views/admin/editions/_filter_options.html.erb, app/views/admin/editions/_search_results.html.erb, app/views/admin/editions/index.html.erb, app/views/admin/email_curation_queue_items/_email_curation_queue_item.html.erb, app/views/admin/email_curation_queue_items/index.html.erb, app/views/admin/find_in_admin_bookmarklet/_bookmarklet.erb, app/views/admin/find_in_admin_bookmarklet/ie.html.erb, app/views/admin/find_in_admin_bookmarklet/index.html.erb, app/views/admin/find_in_admin_bookmarklet/other.html.erb, app/views/admin/policies/_form.html.erb, app/views/admin/policies/_local_government_fields.html.erb, app/views/admin/shared/bootstrap/_button_dropdown.html.erb, app/views/admin/supporting_pages/_edition_view_edit_buttons.html.erb, app/views/admin/supporting_pages/_extra_metadata.html.erb, app/views/admin/supporting_pages/_form.html.erb, app/views/admin/supporting_pages/_related_policy_fields.html.erb, app/views/announcements/index.html.erb, app/views/classifications/_list_description.html.erb, app/views/contacts/_contact.html.erb, app/views/corporate_information_pages/show.html.erb, app/views/corporate_information_pages/show_worldwide_organisation.html.erb, app/views/documents/_archive_notice.html.erb, app/views/documents/_change_notes.html.erb, app/views/documents/_document_extra_metadata.html.erb, app/views/documents/_filter_form.html.erb, app/views/documents/_filter_results.html.erb, app/views/documents/_header.html.erb, app/views/documents/_metadata.html.erb, app/views/email_signups/new.html.erb, app/views/mainstream_categories/_list_description.html.erb, app/views/organisations/_alternate_style_top_tasks.html.erb, app/views/organisations/_corporate_information.html.erb, app/views/organisations/_featured_items.html.erb, app/views/organisations/_header.html.erb, app/views/organisations/_index_section.html.erb, app/views/organisations/_organisations_name_list.html.erb, app/views/organisations/_promotional_feature_item.html.erb, app/views/organisations/_transition_state_visualisation.html.erb, app/views/organisations/about.html.erb, app/views/organisations/index.html.erb, app/views/organisations/show-executive-office.html.erb, app/views/organisations/show.html.erb, app/views/people/_person.html.erb, app/views/policies/_list_description.html.erb, app/views/policies/_policy_navigation.html.erb, app/views/policies/activity.html.erb, app/views/publications/index.html.erb, app/views/shared/_available_languages.html.erb, app/views/shared/_featured.html.erb, app/views/shared/_featured_news.html.erb, app/views/shared/_feeds.html.erb, app/views/shared/_govspeak_header_contents.html.erb, app/views/shared/_heading.html.erb, app/views/shared/_list_description.html.erb, app/views/shared/_recently_updated.html.erb, app/views/shared/_recently_updated_documents.html.erb, app/views/shared/_social_media_accounts.html.erb, app/views/shared/_top_tasks.html.erb, app/views/topics/show.html.erb, app/views/world_locations/show.html.erb, app/views/worldwide_organisations/_header.html.erb, app/views/worldwide_organisations/_worldwide_organisation.html.erb, app/workers/import_row_worker.rb, lib/whitehall/uploader/fatality_notice_row.rb, lib/whitehall/uploader/row.rb]","[create, all_announcements_link, expects, current_url, returns, once, includes, anything, Not, click_on, within, polymorphic_url, all_of, polymorphic_url, stubs, expects, includes, all_of, anything, never, mock, stubs, fail, query, captures, raise, click_link, has_css?, fill_in, click_button, has_no_css?, gsub, all_announcements_link, worldwide_organisation, fill_in_news_article_fields, begin_drafting_news_article, visible?, select_option, captures, raise, click, find_field, evaluate_script, execute_script, to_json, begin_drafting_publication, begin_drafting_document, fill_in_publication_fields, ago, is_a?, values, merge, check, title, assert_equal, summary, within, title, summary, assert_equal, has_link?, has_no_link?, stub_everything, never, gsub, create, select_date]","","[app/helpers/email_signup_helper.rb, app/models/email_signup/alert.rb, app/models/email_signup/feed_url_extractor.rb, app/models/email_signup/gov_uk_delivery_redirect_url_extractor.rb, app/models/email_signup/invalid_slug_error.rb, app/models/email_signup/title_extractor.rb, app/views/email_signups/show.html.erb, app/views/people/_announcment_list.html.erb, app/workers/gov_uk_delivery_notification_job.rb, lib/whitehall/gov_uk_delivery.rb, lib/whitehall/gov_uk_delivery/email_curation_queue_end_point.rb, lib/whitehall/gov_uk_delivery/gov_uk_delivery_end_point.rb, lib/whitehall/gov_uk_delivery/notification_end_point.rb]","[app/views/admin/policies/_minister_fields.html.erb, app/views/admin/policies/_nation_fields.html.erb, app/views/admin/policies/_organisation_fields.html.erb, app/views/admin/policies/_policy_advisory_group_fields.html.erb, app/views/admin/policies/_policy_team_fields.html.erb, app/views/admin/policies/_topic_fields.html.erb, app/views/admin/policies/_topical_event_fields.html.erb, app/views/admin/policies/_world_location_fields.html.erb, app/views/admin/policies/_worldwide_priority_fields.html.erb, app/views/admin/supporting_pages/_first_published_at.html.erb, app/views/admin/supporting_pages/_inline_attachments_info.html.erb, app/views/policies/_recently_changed_documents.html.erb, app/views/topics/_document_list.html.erb, atom, link, polymorphic]","16","7.579 seconds","false","20","0","[app/controllers/admin/corporate_information_pages_controller.rb, app/controllers/admin/dashboard_controller.rb, app/controllers/admin/edition_workflow_controller.rb, app/controllers/admin/editions_controller.rb, app/controllers/admin/find_in_admin_bookmarklet_controller.rb, app/controllers/admin/organisations_controller.rb, app/controllers/admin/policies_controller.rb, app/controllers/admin/publications_controller.rb, app/controllers/admin/supporting_pages_controller.rb, app/controllers/admin/topics_controller.rb, app/controllers/admin/world_locations_controller.rb, app/controllers/announcements_controller.rb, app/controllers/api/organisations_controller.rb, app/controllers/api/world_locations_controller.rb, app/controllers/corporate_information_pages_controller.rb, app/controllers/organisations_controller.rb, app/controllers/policies_controller.rb, app/controllers/publications_controller.rb, app/controllers/topics_controller.rb, app/controllers/world_locations_controller.rb]","[]","2","[app/controllers/admin/email_curation_queue_items_controller.rb, app/controllers/email_signups_controller.rb]","0.3333333333088889"
"2310","[29-05-2014]","2","3","[94aef61aa92f81b3820102e82423ee01c3944c8a, c7ea470f3033157c5aad69541af2c8e5c18cd27d, 948dfa5435db4eac90d5f869e019ea2416eff36f]","8","29","17","7","[app/controllers/about_pages_controller.rb, app/controllers/admin/about_pages_controller.rb, app/controllers/admin/classification_featurings_controller.rb, app/controllers/admin/corporate_information_pages_controller.rb, app/controllers/admin/offsite_links_controller.rb, app/controllers/admin/organisations_controller.rb, app/controllers/admin/topical_events_controller.rb, app/controllers/admin/topics_controller.rb, app/controllers/admin/world_locations_controller.rb, app/controllers/api/organisations_controller.rb, app/controllers/api/world_locations_controller.rb, app/controllers/corporate_information_pages_controller.rb, app/controllers/email_signups_controller.rb, app/controllers/organisations_controller.rb, app/controllers/topical_events_controller.rb, app/controllers/topics_controller.rb, app/controllers/world_locations_controller.rb]","[app/controllers/admin/classification_featurings_controller.rb, app/controllers/admin/features_controller.rb, app/controllers/admin/offsite_links_controller.rb, app/controllers/admin/organisations_controller.rb, app/controllers/admin/world_locations_controller.rb, app/controllers/topical_events_controller.rb, app/controllers/topics_controller.rb]","0.3529411765","0.8571428571","3.2.18","33","[]","0","88","[app/controllers/about_pages_controller.rb, app/controllers/admin/about_pages_controller.rb, app/controllers/admin/classification_featurings_controller.rb, app/controllers/admin/corporate_information_pages_controller.rb, app/controllers/admin/offsite_links_controller.rb, app/controllers/admin/organisations_controller.rb, app/controllers/admin/topical_events_controller.rb, app/controllers/admin/topics_controller.rb, app/controllers/admin/world_locations_controller.rb, app/controllers/api/organisations_controller.rb, app/controllers/api/world_locations_controller.rb, app/controllers/corporate_information_pages_controller.rb, app/controllers/email_signups_controller.rb, app/controllers/organisations_controller.rb, app/controllers/topical_events_controller.rb, app/controllers/topics_controller.rb, app/controllers/world_locations_controller.rb, app/helpers/admin/edition_routes_helper.rb, app/helpers/classification_routes_helper.rb, app/helpers/filter_routes_helper.rb, app/helpers/mainstream_category_routes_helper.rb, app/helpers/public_document_routes_helper.rb, app/models/admin/edition_filter.rb, app/models/edition/appointment.rb, app/presenters/role_appointment_presenter.rb, app/services/service_listeners/author_notifier.rb, app/views/about_pages/show.html.erb, app/views/admin/classification_featurings/_classification_featuring.html.erb, app/views/admin/classification_featurings/_featurable_offsite_links.html.erb, app/views/admin/classification_featurings/_featured_documents.html.erb, app/views/admin/classification_featurings/index.html.erb, app/views/admin/classifications/_tab_wrapper.html.erb, app/views/admin/editions/_filter_options.html.erb, app/views/admin/offsite_links/_form.html.erb, app/views/admin/offsite_links/edit.html.erb, app/views/admin/offsite_links/new.html.erb, app/views/admin/organisations/_form.html.erb, app/views/admin/organisations/_sidebar.html.erb, app/views/admin/organisations/edit.html.erb, app/views/admin/organisations/features.html.erb, app/views/admin/organisations/show.html.erb, app/views/admin/shared/_default_news_image_fields.html.erb, app/views/admin/shared/_featured_link_fields.html.erb, app/views/admin/topics/_table_header.html.erb, app/views/admin/topics/_topic.html.erb, app/views/admin/world_locations/features.html.erb, app/views/admin/world_locations/show.html.erb, app/views/classifications/_classification_featuring.html.erb, app/views/classifications/_list_description.html.erb, app/views/contacts/_contact.html.erb, app/views/corporate_information_pages/index.html.erb, app/views/corporate_information_pages/show.html.erb, app/views/corporate_information_pages/show_worldwide_organisation.html.erb, app/views/email_signups/_form.html.erb, app/views/email_signups/new.html.erb, app/views/mainstream_categories/_list_description.html.erb, app/views/organisations/_alternate_style_top_tasks.html.erb, app/views/organisations/_corporate_information.html.erb, app/views/organisations/_documents.html.erb, app/views/organisations/_featured_items.html.erb, app/views/organisations/_header.html.erb, app/views/organisations/_index_section.html.erb, app/views/organisations/_organisations_name_list.html.erb, app/views/organisations/_promotional_feature_item.html.erb, app/views/organisations/_transition_state_visualisation.html.erb, app/views/organisations/index.html.erb, app/views/organisations/show-promotional.html.erb, app/views/organisations/show.html.erb, app/views/people/_person.html.erb, app/views/policies/_list_description.html.erb, app/views/shared/_available_languages.html.erb, app/views/shared/_featured.html.erb, app/views/shared/_featured_links.html.erb, app/views/shared/_feeds.html.erb, app/views/shared/_govspeak_header_contents.html.erb, app/views/shared/_heading.html.erb, app/views/shared/_list_description.html.erb, app/views/shared/_recently_updated.html.erb, app/views/shared/_recently_updated_documents.html.erb, app/views/shared/_social_media_accounts.html.erb, app/views/topical_events/show.html.erb, app/views/topics/show.html.erb, app/views/world_locations/show.html.erb, app/views/worldwide_organisations/_header.html.erb, app/views/worldwide_organisations/_worldwide_organisation.html.erb, app/workers/import_row_worker.rb, lib/whitehall/uploader/fatality_notice_row.rb, lib/whitehall/uploader/row.rb]","[create, click_link, code, fill_in, record_css_selector, within, attach_file, click_button, click_on, featured_documents_selector, all, text, collect, diff!, has_link?, assert_no_selector, visible?, select_option, find_field, evaluate_script, execute_script, to_json, text, see_all_link, record_css_selector, has_css?, major_change_published_at, has_content?, within, gsub, click_link, worldwide_organisation]","","[app/presenters/featured_edition_presenter.rb, app/views/shared/_featured_news.html.erb]","[admin_classification, app/views/admin/organisations/_feature_list.html.erb, app/views/admin/world_locations/_feature_list.html.erb, app/views/topical_events/_document_list.html.erb, app/views/topics/_document_list.html.erb, atom, link, polymorphic]","8","7.605 seconds","true","11","1","[app/controllers/about_pages_controller.rb, app/controllers/admin/about_pages_controller.rb, app/controllers/admin/corporate_information_pages_controller.rb, app/controllers/admin/topical_events_controller.rb, app/controllers/admin/topics_controller.rb, app/controllers/api/organisations_controller.rb, app/controllers/api/world_locations_controller.rb, app/controllers/corporate_information_pages_controller.rb, app/controllers/email_signups_controller.rb, app/controllers/organisations_controller.rb, app/controllers/world_locations_controller.rb]","[app/controllers/admin/features_controller.rb]","6","[app/controllers/admin/classification_featurings_controller.rb, app/controllers/admin/offsite_links_controller.rb, app/controllers/admin/organisations_controller.rb, app/controllers/admin/world_locations_controller.rb, app/controllers/topical_events_controller.rb, app/controllers/topics_controller.rb]","0.6666666666669137"
"2360","[08-04-2014, 16-04-2014, 17-04-2014, 23-04-2014, 25-04-2014, 28-04-2014, 29-04-2014, 30-04-2014, 01-05-2014]","3","66","[3e9ac8678b0beed9f216e39c10c4c20dc3f1969a, b977cd4222e2dbfd078e9528cc7764dff2ff2c03, 86fcd7a0557a79933be3b99d915a577f85f13583, 1d285f2913a8e2a20fab37238c9e876571cd4c4c, af1fd77f246d95c17d309960c47de3ed1b7344f3, 30780b7de460ddc3e7ed6829e30558fc1608d3c6, 179cf118959dfdc8e1fdcf9bb005206dce134b27, 9aa181fa6d8e3a2272f051d3c368fc5132b7515a, de7d1900c4c1ecfc3643d3025da3ad2b57e09971, 61f68802af79206244ca38784e53cfd26fffef40, 0202897217be3f268cd8bd70eb9783070a306ae1, 51862be3890a82c707dbffd480557a50b27bfe89, 68b95942803863547776b3200747650800ed1fb8, df5d507f2b508e839bf476177b6364b7e26facba, 0438b64c157599e28d190fa3819d41017ed2ec37, b8a4d9d90c90b3fe0c84f43e29bc066143fe44f9, 3dbc6b741eb69c9b7c6641ab7b91468f7d698d8d, b33dc9ea53e3d7a4f0854205d6e6dbe6cbeba8c3, d94842e64ac0be2c1b82c152ddc52c7fb482eaa2, fe75d5f434ff3777e8d13a118017063723cd468e, 67b1ef81415c386ffb85634813b641450fa2d080, 0cf08cc5d8b32236b10d9eda4bd888bfc568d63a, d9bda61b5a2848a037ff81c733bd2df535309119, 659fe2d229ea2d249488c595c3ab95e0c8096446, 1dc6f3a9864fc30a073dab3915d76a0857090c36, a638b4444bec420c66a1efb99fc124ee87ef5fa6, 7232589841be72285ec598b60adcd360b87322aa, 3c882f27fe91f2c1c7312afe17236adbe6874755, c3d0208aed28c8a203988f59c201c20a7985c9aa, bbc182d969738a18140542e580a0e561839d8178, d66a2a05c8cf9bfe9a9c63de644a4bc994b45742, 5b6f09baf6d094993b3cfee96863c42910b8b910, 3789df98dc28127a4f9444f04ce4a149fd12f321, 2799141acec981aed599179e19beee62a1554588, 76d9838d9448539ee37fa157c3ae6b658da484df, 51544b9f1d432de11e2b804a4de4e2330f20542e, 0ab5f18d356b731066c49952170e3b988b1edc5d, b60c898c5394a8321b90d6f7e2c2395951978dbf, 0a8fa4fc15f39c61cc7a7209e7b6c1eb9101bf8b, 258aabbb1c09742dc59d684ca152cfa89e6d5d9a, 650415b9ce5fd4df705db713db0cb7113979485e, b663f8fa5e1f42dfe5c5138aa1b4b4beb318b57c, 5b97d909bbdcb51e60c615bffa39887604e59c6b, de3fb8e956c497ba2e4d3cdbeb9382f1a893078f, 7c05cdd5eaeb55f9f2d533644660cd125febf6d3, 5c1dc7954d63e33380eb1499d3380ade94a80bbe, 9039f165eae51feccae101000b73b43ad475f461, 1c029693ab1e9e23f427385dedda42582701f321, 1e1010ef7d0c372fda3324c2b8043881c0313d3f, b48b45c53128f81daf14decdd36c98e92e442039, d7a3b5bd3900db4f131ccbc9307525a521e4015e, 8b4c761263ae219760ed7b3e2297c5d30c4b6802, ffd254a843a1251d27b375236ed18eb972a6a8e5, 29536c9af159bae95372846a6f082db1ecef9415, 54316390f93e6d29c3b57a798a3466dc0a291e6a, ae38dac7848cd7f2c45ed5e0725c624f7fe514cd, 6f497feb0fb32030122d90f7c6e8cc181ecd4f32, 2e1d8c85e8386f8680d3bdbfc852291158b01cb3, 655bca9b4189c8f2d3d0aa9c685328f24d1c1bd2, 37e0707ee75903fcc7c52341db8c6a940c881eec, 9891f6cd814daf84d8236abab51c763642705022, d6c33cb3489992f4c060f21ee02afd5a0b3274a6, 4029582ed2c8a8ec8068489df91f6ac0b46ae5cb, 40d55d1d333526203c648d50cbecef1b3dbb6a83, 955d0c8ffc5ffdb33e8d9e367d806c883d30d069, ef38b0bb5b0089c8ea238aa59cb2226879b81957]","5","6","12","3","[app/controllers/admin/corporate_information_pages_controller.rb, app/controllers/admin/organisations_controller.rb, app/controllers/admin/topics_controller.rb, app/controllers/admin/worldwide_organisations_controller.rb, app/controllers/api/organisations_controller.rb, app/controllers/api/worldwide_organisations_controller.rb, app/controllers/attachments_controller.rb, app/controllers/corporate_information_pages_controller.rb, app/controllers/email_signups_controller.rb, app/controllers/organisations_controller.rb, app/controllers/topics_controller.rb, app/controllers/worldwide_organisations_controller.rb]","[app/controllers/admin/corporate_information_pages_controller.rb, app/controllers/admin/editions_controller.rb, app/controllers/corporate_information_pages_controller.rb]","0.1666666667","0.6666666667","3.2.17","17","[]","0","69","[app/controllers/admin/corporate_information_pages_controller.rb, app/controllers/admin/organisations_controller.rb, app/controllers/admin/topics_controller.rb, app/controllers/admin/worldwide_organisations_controller.rb, app/controllers/api/organisations_controller.rb, app/controllers/api/worldwide_organisations_controller.rb, app/controllers/corporate_information_pages_controller.rb, app/controllers/email_signups_controller.rb, app/controllers/organisations_controller.rb, app/controllers/topics_controller.rb, app/controllers/worldwide_organisations_controller.rb, app/helpers/filter_routes_helper.rb, app/helpers/mainstream_category_routes_helper.rb, app/helpers/public_document_routes_helper.rb, app/models/admin/edition_filter.rb, app/models/edition/appointment.rb, app/presenters/role_appointment_presenter.rb, app/services/service_listeners/author_notifier.rb, app/uploaders/whitehall_uploader.rb, app/views/admin/organisations/_form.html.erb, app/views/admin/organisations/_sidebar.html.erb, app/views/admin/organisations/edit.html.erb, app/views/admin/organisations/show.html.erb, app/views/admin/shared/_default_news_image_fields.html.erb, app/views/admin/shared/_top_tasks_fields.html.erb, app/views/admin/worldwide_organisations/_form.html.erb, app/views/admin/worldwide_organisations/_sidebar.html.erb, app/views/admin/worldwide_organisations/edit.html.erb, app/views/admin/worldwide_organisations/show.html.erb, app/views/classifications/_list_description.html.erb, app/views/contacts/_contact.html.erb, app/views/corporate_information_pages/show.html.erb, app/views/corporate_information_pages/show_worldwide_organisation.html.erb, app/views/email_signups/_form.html.erb, app/views/email_signups/new.html.erb, app/views/mainstream_categories/_list_description.html.erb, app/views/organisations/_alternate_style_top_tasks.html.erb, app/views/organisations/_corporate_information.html.erb, app/views/organisations/_documents.html.erb, app/views/organisations/_featured_items.html.erb, app/views/organisations/_header.html.erb, app/views/organisations/_index_section.html.erb, app/views/organisations/_organisations_name_list.html.erb, app/views/organisations/_promotional_feature_item.html.erb, app/views/organisations/_transition_state_visualisation.html.erb, app/views/organisations/about.html.erb, app/views/organisations/index.html.erb, app/views/organisations/show-promotional.html.erb, app/views/organisations/show.html.erb, app/views/people/_person.html.erb, app/views/policies/_list_description.html.erb, app/views/shared/_available_languages.html.erb, app/views/shared/_featured.html.erb, app/views/shared/_featured_news.html.erb, app/views/shared/_feeds.html.erb, app/views/shared/_govspeak_header_contents.html.erb, app/views/shared/_heading.html.erb, app/views/shared/_list_description.html.erb, app/views/shared/_recently_updated.html.erb, app/views/shared/_recently_updated_documents.html.erb, app/views/shared/_social_media_accounts.html.erb, app/views/shared/_top_tasks.html.erb, app/views/topics/show.html.erb, app/views/worldwide_organisations/_corporate_information.html.erb, app/views/worldwide_organisations/_header.html.erb, app/views/worldwide_organisations/show.html.erb, app/workers/import_row_worker.rb, lib/whitehall/uploader/fatality_notice_row.rb, lib/whitehall/uploader/row.rb]","[create, text, see_all_link, click_link, fill_in, click_button, click_link, has_css?, text, fill_in, click_button, corporate_information_pages, has_content?, click_link, click_on, find_by_corporate_information_page_type_id, file, visible?, select_option, has_css?, within, organisation, title, save_page, body, fill_in, click_button, each, find_field, evaluate_script, execute_script, to_json, has_no_css?, attach_file, url_for, see_all_link]","","[app/controllers/admin/corporate_information_pages_translations_controller.rb, app/views/admin/corporate_information_pages/edit.html.erb]","[app/views/topics/_document_list.html.erb, atom, link]","3","5.117 seconds","false","10","1","[app/controllers/admin/organisations_controller.rb, app/controllers/admin/topics_controller.rb, app/controllers/admin/worldwide_organisations_controller.rb, app/controllers/api/organisations_controller.rb, app/controllers/api/worldwide_organisations_controller.rb, app/controllers/attachments_controller.rb, app/controllers/email_signups_controller.rb, app/controllers/organisations_controller.rb, app/controllers/topics_controller.rb, app/controllers/worldwide_organisations_controller.rb]","[app/controllers/admin/editions_controller.rb]","2","[app/controllers/admin/corporate_information_pages_controller.rb, app/controllers/corporate_information_pages_controller.rb]","0.41666666671874997"
"2397","[03-04-2014]","2","14","[91ac9bb60fe27c287fbe9e7a1b4fd7dfaef9e7db, a6b9a6359a7e0348bf432fd0f9bd780925d9d393, 820e81f9d95e369691fba356a1cea0616420189b, 840edbe3b901699ee2ca14a7039a27e831ac2704, 1547a87f02b37198fc3dacad70f895ba12a318fc, 36158497749f0a2a61408ef438cf5ecbde02c3b3, 537dc5c63593e24159171e3da7ee7e6dc5b5ba6e, 21e7e4ed06ce516bc397337aa2e1cf4afe12ab05, 2b06a7d3b8ed55df1f23cfc2fecc1ae61a0ffdf2, 8e65776f3b120af2cee984ca4d441b1d75a5a67d, e363c0540655e51578e720dc9fbaf9236e866d75, 7d473bbb8d251ac75809e0744839988373ede3fb, 980143c22b639516c9bedca64b5bc1ced12ae808, f79288a0d72fa7f94fbd4f3f95d6195c176ff5d7]","5","9","2","3","[app/controllers/admin/policy_groups_controller.rb, app/controllers/policy_groups_controller.rb]","[app/controllers/admin/editions_controller.rb, app/controllers/admin/policy_groups_controller.rb, app/controllers/policy_groups_controller.rb]","1.0","0.6666666667","3.2.17","11","[]","0","11","[app/controllers/admin/policy_groups_controller.rb, app/controllers/policy_groups_controller.rb, app/helpers/public_document_routes_helper.rb, app/services/service_listeners/author_notifier.rb, app/views/admin/attachments/_markdown_codes.html.erb, app/views/admin/policy_groups/_form.html.erb, app/views/admin/policy_groups/edit.html.erb, app/views/admin/policy_groups/index.html.erb, app/views/admin/policy_groups/new.html.erb, app/views/policy_groups/show.html.erb, app/views/shared/_heading.html.erb]","[create, click_button, has_text?, has_css?, record_css_selector, within, has_no_content?, within, click_link, visible?, select_option, click_link, fill_in, click_button, find_field, evaluate_script, execute_script, to_json, attach_file, text, merge!, find_by_title!, record_css_selector, has_no_css?, gsub, has_css?, fill_in, has_no_css?]","","[app/controllers/admin/policy_advisory_groups_controller.rb, app/controllers/admin/policy_teams_controller.rb, app/controllers/policy_advisory_groups_controller.rb, app/controllers/policy_teams_controller.rb, app/helpers/policy_advisory_groups_helper.rb, app/models/policy_advisory_group.rb, app/models/policy_team.rb, app/views/admin/editions/_policy_advisory_group_fields.html.erb, app/views/admin/editions/_policy_team_fields.html.erb, app/views/admin/policy_advisory_groups/_form.html.erb, app/views/admin/policy_advisory_groups/edit.html.erb, app/views/admin/policy_advisory_groups/index.html.erb, app/views/admin/policy_advisory_groups/new.html.erb, app/views/admin/policy_teams/_form.html.erb, app/views/admin/policy_teams/edit.html.erb, app/views/admin/policy_teams/index.html.erb, app/views/admin/policy_teams/new.html.erb, app/views/policy_advisory_groups/index.html.erb, app/views/policy_advisory_groups/show.html.erb, app/views/policy_teams/index.html.erb, app/views/policy_teams/show.html.erb, lib/whitehall/authority/rules/policy_advisory_group_rules.rb]","","0","2.097 seconds","true","0","1","[]","[app/controllers/admin/editions_controller.rb]","2","[app/controllers/admin/policy_groups_controller.rb, app/controllers/policy_groups_controller.rb]","0.7142857143163264"
"2324","[22-05-2014]","2","4","[af119a104ab0300775dc4f9d64a140d633b1f59f, 04a833a617ae3919291dc22b2cb731f42e6b58ac, 5acd02654c2507187ab2efb98fc5e602fef1daa2, 8044a68976bdbfd71de218aa0551b3f8cdea749a]","4","4","1","4","[app/controllers/ministerial_roles_controller.rb]","[app/controllers/admin/sitewide_settings_controller.rb, app/controllers/home_controller.rb, app/controllers/ministerial_roles_controller.rb, app/controllers/public_facing_controller.rb]","1.0","0.25","3.2.18","2","[]","0","6","[app/controllers/ministerial_roles_controller.rb, app/models/edition/appointment.rb, app/presenters/role_appointment_presenter.rb, app/views/ministerial_roles/index.html.erb, app/views/people/_person.html.erb, app/views/shared/_heading.html.erb]","[save!, has_css?, refute, has_content?, record_css_selector, has_no_css?]","","[]","[/government/how-government-works]","1","1.742 seconds","false","0","3","[]","[app/controllers/admin/sitewide_settings_controller.rb, app/controllers/home_controller.rb, app/controllers/public_facing_controller.rb]","1","[app/controllers/ministerial_roles_controller.rb]","0.29411764705882354"
"2342","[25-04-2014, 28-04-2014, 01-05-2014, 08-05-2014, 09-05-2014]","3","9","[10b9badf510180921f553b244e48317859edc8fe, 9b1e11c5f09fde11fd653da9d776d12c23e04b95, 4b9f942a0f52b552d054798a679b9b7aa0f3b518, adcacb2dc522af74c7190c6eb8428f25451f3713, a66f11f9d16088b94f8399b0b65fbef35da7ec3d, 6d2b3475791942e40406bc17538b7750bc371542, 0ef3e6e0b0597f4f30ee1de2bfca8acda5e6bdd1, da19066ad0c8e3588260b6c5d71e9a06fa0dca10, 8814d3067647df04c4e9410529b7f34d502dc756]","4","10","0","1","[]","[app/controllers/admin/classification_featurings_controller.rb]","0.0","0.0","3.2.17","1","[{path=alphagov_whitehall/features/step_definitions/filtering_featured_documents_on_a_topic_steps.rb, line=-1}]","0","0","[]","[create, click_on, fill_in, authors, has_content?, has_no_content?, visible?, select_option, find_field, evaluate_script, execute_script, to_json]","","[]","","0","1.336 seconds","false","0","1","[]","[app/controllers/admin/classification_featurings_controller.rb]","0","[]","0"
"2408","[27-03-2014, 28-03-2014]","1","11","[d6932c1d5dc62d2bc804ecfd59305a2abd660348, 7a26096e8e8a73d8a693e73402da2898746e3c6e, 5b362aad16b0fd8d3cf5e9f6dec362992fd94c3e, 67da296b0b30bca7171af9eb0bc92c1c0e7406cc, cf7572d0a51e8bc93364d51baf9b73a5d160d934, 57dcd1df0a09ebb7f53ca3ea064d8d5693f8ae4c, 88ca77885f6b0b86e24be2cb90081d2477c8d9a0, 920a28986a8c2d30fd8fd2dde2c96b2ef93b254c, b05b1d93ec621ec66ee06ef1dc924140d6acc118, e53caf5040494fbf4cfb342f47571190bb343ebe, f5b131b721dce735b6c07a85e870b63458d7a4bd]","4","10","9","3","[app/controllers/admin/attachments_controller.rb, app/controllers/admin/base_controller.rb, app/controllers/admin/bulk_uploads_controller.rb, app/controllers/admin/news_articles_controller.rb, app/controllers/admin/people_controller.rb, app/controllers/admin/policies_controller.rb, app/controllers/admin/publications_controller.rb, app/controllers/admin/statistics_announcements_controller.rb, app/controllers/policies_controller.rb]","[app/controllers/admin/base_controller.rb, app/controllers/admin/statistics_announcement_date_changes_controller.rb, app/controllers/admin/statistics_announcements_controller.rb]","0.2222222222","0.6666666667","3.2.17","5","[]","0","44","[app/controllers/admin/attachments_controller.rb, app/controllers/admin/base_controller.rb, app/controllers/admin/bulk_uploads_controller.rb, app/controllers/admin/news_articles_controller.rb, app/controllers/admin/people_controller.rb, app/controllers/admin/policies_controller.rb, app/controllers/admin/publications_controller.rb, app/controllers/admin/statistics_announcements_controller.rb, app/controllers/policies_controller.rb, app/helpers/admin/edition_routes_helper.rb, app/helpers/mainstream_category_routes_helper.rb, app/helpers/public_document_routes_helper.rb, app/services/service_listeners/author_notifier.rb, app/views/admin/attachments/_attachments.html.erb, app/views/admin/attachments/index.html.erb, app/views/admin/bulk_uploads/new.html.erb, app/views/admin/news_articles/_form.html.erb, app/views/admin/news_articles/_news_article_type_fields.html.erb, app/views/admin/news_articles/_required_fields_for_imported_editions.html.erb, app/views/admin/news_articles/_subtype_fields.html.erb, app/views/admin/people/show.html.erb, app/views/admin/publications/_form.html.erb, app/views/admin/publications/_required_fields_for_imported_editions.html.erb, app/views/admin/publications/_subtype_fields.html.erb, app/views/admin/statistics_announcements/_document_linker.html.erb, app/views/admin/statistics_announcements/_document_status.html.erb, app/views/admin/statistics_announcements/_form.html.erb, app/views/admin/statistics_announcements/index.html.erb, app/views/admin/statistics_announcements/new.html.erb, app/views/admin/statistics_announcements/show.html.erb, app/views/case_studies/_case_studies.html.erb, app/views/documents/_archive_notice.html.erb, app/views/documents/_change_notes.html.erb, app/views/documents/_document_extra_metadata.html.erb, app/views/documents/_document_footer_meta.html.erb, app/views/documents/_header.html.erb, app/views/documents/_metadata.html.erb, app/views/organisations/_organisations_name_list.html.erb, app/views/policies/_document_content.html.erb, app/views/policies/_document_contextual.html.erb, app/views/policies/_policy_navigation.html.erb, app/views/policies/show.html.erb, app/views/shared/_available_languages.html.erb, app/views/shared/_heading.html.erb]","[create, click_on, fill_in, click, title, has_content?, select, from_now, select_date, select_datetime, check, choose, has_css?, record_css_selector, has_link?, within, url_for, click_on, zip_file, document]","","[]","[app/views/admin/news_articles/_appointment_fields.html.erb, app/views/admin/news_articles/_first_published_at.html.erb, app/views/admin/news_articles/_inline_attachments_info.html.erb, app/views/admin/news_articles/_organisation_fields.html.erb, app/views/admin/news_articles/_related_policy_fields.html.erb, app/views/admin/news_articles/_specialist_sector_fields.html.erb, app/views/admin/news_articles/_topic_fields.html.erb, app/views/admin/news_articles/_topical_event_fields.html.erb, app/views/admin/news_articles/_world_location_fields.html.erb, app/views/admin/news_articles/_worldwide_priority_fields.html.erb, app/views/admin/publications/_external_fields.html.erb, app/views/admin/publications/_first_published_at.html.erb, app/views/admin/publications/_html_version_fields.html.erb, app/views/admin/publications/_inline_attachments_info.html.erb, app/views/admin/publications/_minister_fields.html.erb, app/views/admin/publications/_nation_fields.html.erb, app/views/admin/publications/_organisation_fields.html.erb, app/views/admin/publications/_publication_type_fields.html.erb, app/views/admin/publications/_related_policy_fields.html.erb, app/views/admin/publications/_specialist_sector_fields.html.erb, app/views/admin/publications/_statistical_data_set_fields.html.erb, app/views/admin/publications/_topic_fields.html.erb, app/views/admin/publications/_topical_event_fields.html.erb, app/views/admin/publications/_world_location_fields.html.erb, app/views/admin/publications/_worldwide_priority_fields.html.erb, new_admin_statistics_announcement_change, new_polymorphic]","27","2.604 seconds","false","7","1","[app/controllers/admin/attachments_controller.rb, app/controllers/admin/bulk_uploads_controller.rb, app/controllers/admin/news_articles_controller.rb, app/controllers/admin/people_controller.rb, app/controllers/admin/policies_controller.rb, app/controllers/admin/publications_controller.rb, app/controllers/policies_controller.rb]","[app/controllers/admin/statistics_announcement_date_changes_controller.rb]","2","[app/controllers/admin/base_controller.rb, app/controllers/admin/statistics_announcements_controller.rb]","0.4761904761836734"
"2440","[19-03-2014, 20-03-2014, 21-03-2014, 24-03-2014]","1","31","[2acc4da9c7acece2ead7b39cd26bed11e8eeb0ef, 565d997be9928f4c5f3a72d4dff084648e816410, 606031b04c8150cf04af5a6df677e33c053f5761, 68f50b2a2957d636acb2611cd120640e900bffe4, 4656d5902a468958091558314e0e2be684265c11, ad202942d6f3a82647ce4f35c45546b81fecc929, daedc241608bc9256b4e778555e77c6e5dcf072d, 1eea361f6b23b0c08a1c938eb8ac9b8463a6745c, 2d559cf989ef6e56d676279324e2a36b46814f85, 58d885d66baf319fad3fd153401d862ca0c52ba0, ac0842129facadb7c67b9397f152620954626f85, 7c0120a8888f993af44ddd2d53852c575cf97754, f6ad39224a77f53bd39e14a635072bcdc01f6441, 0b5d6ef04ade22ec28bf0c3266308ca9d11c0c92, 1046bae13713461d1174b0e483abdb5b1d1fb61e, 630aad4de99fd81063882862d90c336a91964a68, 6a1dcb59eb417c155a0fa3e4252525839992fb07, 9bd603f09c8d079fae3c58b781538d479b3a2be0, faa627961d272c6b4a4dcb4fd015849ae526bc2b, 1d258abef469d59db4be98f6135b7c4f878ac5d6, 0c944199089d35226350f6284cfb00953eb4d853, b33e8ab9fef1a9efa80905e345e740b481f0eaf0, bd783076f3045dff7c68784cc17f4496a052fc11, a8a1bcf38cc80d66e21775873418af2f06d716f0, fce0ff782636a372a6e832f0f42616b8033e1c26, c18dabda490bb96fb9ad511cad19dc0e0c1337ae, 4c0d59b079e4eddc76a6ff29b275d8eabe985a88, 65797e65edcdf9b9f689dc01b674c6fc285d0219, d796392247197d776ffa8a7105db3ed490f9126d, a5a4569a9f0be1fba9b1ece9760280060c58e797, 6e8bb7e0ed084339a659f765e6ff5ebfa96207c9]","3","13","10","1","[app/controllers/admin/corporate_information_pages_controller.rb, app/controllers/admin/organisations_controller.rb, app/controllers/admin/statistics_announcements_controller.rb, app/controllers/admin/topics_controller.rb, app/controllers/api/organisations_controller.rb, app/controllers/corporate_information_pages_controller.rb, app/controllers/email_signups_controller.rb, app/controllers/organisations_controller.rb, app/controllers/statistics_announcements_controller.rb, app/controllers/topics_controller.rb]","[app/controllers/statistics_announcements_controller.rb]","0.1","1.0","3.2.17","1","[]","0","59","[app/controllers/admin/corporate_information_pages_controller.rb, app/controllers/admin/organisations_controller.rb, app/controllers/admin/statistics_announcements_controller.rb, app/controllers/admin/topics_controller.rb, app/controllers/api/organisations_controller.rb, app/controllers/corporate_information_pages_controller.rb, app/controllers/email_signups_controller.rb, app/controllers/organisations_controller.rb, app/controllers/statistics_announcements_controller.rb, app/controllers/topics_controller.rb, app/helpers/filter_routes_helper.rb, app/helpers/mainstream_category_routes_helper.rb, app/helpers/public_document_routes_helper.rb, app/models/admin/edition_filter.rb, app/models/edition/appointment.rb, app/presenters/role_appointment_presenter.rb, app/services/service_listeners/author_notifier.rb, app/views/classifications/_list_description.html.erb, app/views/contacts/_contact.html.erb, app/views/corporate_information_pages/show.html.erb, app/views/corporate_information_pages/show_worldwide_organisation.html.erb, app/views/email_signups/_form.html.erb, app/views/email_signups/new.html.erb, app/views/mainstream_categories/_list_description.html.erb, app/views/organisations/_alternate_style_top_tasks.html.erb, app/views/organisations/_corporate_information.html.erb, app/views/organisations/_documents.html.erb, app/views/organisations/_featured_items.html.erb, app/views/organisations/_header.html.erb, app/views/organisations/_index_section.html.erb, app/views/organisations/_organisations_name_list.html.erb, app/views/organisations/_promotional_feature_item.html.erb, app/views/organisations/_transition_state_visualisation.html.erb, app/views/organisations/about.html.erb, app/views/organisations/index.html.erb, app/views/organisations/show-executive-office.html.erb, app/views/organisations/show.html.erb, app/views/people/_person.html.erb, app/views/policies/_list_description.html.erb, app/views/shared/_available_languages.html.erb, app/views/shared/_featured.html.erb, app/views/shared/_featured_news.html.erb, app/views/shared/_feeds.html.erb, app/views/shared/_govspeak_header_contents.html.erb, app/views/shared/_heading.html.erb, app/views/shared/_list_description.html.erb, app/views/shared/_recently_updated.html.erb, app/views/shared/_recently_updated_documents.html.erb, app/views/shared/_social_media_accounts.html.erb, app/views/shared/_top_tasks.html.erb, app/views/statistics_announcements/_filter_results.html.erb, app/views/statistics_announcements/_upcoming_calendar_tabs.html.erb, app/views/statistics_announcements/index.html.erb, app/views/statistics_announcements/show.html.erb, app/views/topics/show.html.erb, app/views/worldwide_organisations/_header.html.erb, app/workers/import_row_worker.rb, lib/whitehall/uploader/fatality_notice_row.rb, lib/whitehall/uploader/row.rb]","[create, click_on, fill_in, within, name, has_content?, has_no_content?, all, length, assert_equal, has_content?, all, length, assert_equal, current_path, has_link?, visible?, select_option, find_field, evaluate_script, execute_script, to_json, refresh results, text, see_all_link]","","[app/controllers/release_announcements_controller.rb, app/controllers/statistical_release_announcements_controller.rb, app/helpers/statistical_release_announcement_filter_helper.rb, app/models/frontend/organisation_metadata.rb, app/models/frontend/release_announcement.rb, app/models/frontend/release_announcements_filter.rb, app/models/frontend/statistical_release_announcement.rb, app/models/frontend/statistical_release_announcements_filter.rb, app/models/frontend/topic_metadata.rb, app/providers/frontend/release_announcement_provider.rb, app/providers/frontend/statistical_release_announcement_provider.rb, app/views/release_announcements/_release_announcement.html.erb, app/views/release_announcements/_upcoming_calendar_tabs.html.erb, app/views/release_announcements/index.html.erb, app/views/statistical_release_announcements/_statistical_release_announcement.html.erb, app/views/statistical_release_announcements/_upcoming_calendar_tabs.html.erb, app/views/statistical_release_announcements/index.html.erb]","[app/views/statistics_announcements/_filter.html.erb, app/views/topics/_document_list.html.erb, atom, link]","4","2.759 seconds","false","9","0","[app/controllers/admin/corporate_information_pages_controller.rb, app/controllers/admin/organisations_controller.rb, app/controllers/admin/statistics_announcements_controller.rb, app/controllers/admin/topics_controller.rb, app/controllers/api/organisations_controller.rb, app/controllers/corporate_information_pages_controller.rb, app/controllers/email_signups_controller.rb, app/controllers/organisations_controller.rb, app/controllers/topics_controller.rb]","[]","1","[app/controllers/statistics_announcements_controller.rb]","0.3571428571428572"
"2441","[24-03-2014]","1","15","[7e3dabecbc76a81fd655690c55e74c8c137331c6, edceee11f988db1649bbec9101fdfe6fc9212ef3, d69e08aa4111e958678fc590e3b82e8b413c90e9, 55d9fd1ab1f2db7b482ce97dc3bd331a069e8e6a, f2829ebafedf200bdb3ab98c50b7a2291d4db0b0, 5faa94f6ff86944300b0f016a26e19902d7a21b7, 9408ade172297129299f11c8ba1bbc3aab35f259, 561ee5aa9f6c980f714f979111f2ea9f00609547, b4be693206ddea80d2a0d0aae4c4d336ae811e82, 05213d1de15fd25a86557e71f72aa2904e07d9c9, a8fe897803de5508dcea03adc6402be8d597fb0b, 7d8b1846a0cdc694732f14897243ab5b0ee9f62d, 4fa569a36acc8b6e2476fdb004843aad7b5d890b, 2a62254ba9f8cb079d428b0e052bb3effc6c3aab, f16320611fe0f901c709fa4884606d316d029870]","3","6","3","5","[app/controllers/admin/people_controller.rb, app/controllers/admin/publications_controller.rb, app/controllers/admin/statistics_announcements_controller.rb]","[app/controllers/admin/document_searches_controller.rb, app/controllers/admin/editions_controller.rb, app/controllers/admin/publications_controller.rb, app/controllers/admin/statistics_announcement_date_changes_controller.rb, app/controllers/admin/statistics_announcements_controller.rb]","0.6666666667","0.4","3.2.17","3","[]","0","13","[app/controllers/admin/people_controller.rb, app/controllers/admin/publications_controller.rb, app/controllers/admin/statistics_announcements_controller.rb, app/views/admin/people/show.html.erb, app/views/admin/publications/_form.html.erb, app/views/admin/publications/_required_fields_for_imported_editions.html.erb, app/views/admin/publications/_subtype_fields.html.erb, app/views/admin/statistics_announcements/_document_linker.html.erb, app/views/admin/statistics_announcements/_document_status.html.erb, app/views/admin/statistics_announcements/_form.html.erb, app/views/admin/statistics_announcements/index.html.erb, app/views/admin/statistics_announcements/new.html.erb, app/views/admin/statistics_announcements/show.html.erb]","[create, click_on, select, fill_in, from_now, select_date, select_datetime, check, choose, has_css?, record_css_selector, has_link?, within, has_content?, url_for]","","[app/controllers/admin/statistics_announcement_dates_controller.rb, app/views/admin/statistics_announcement_dates/new.html.erb]","[app/views/admin/publications/_external_fields.html.erb, app/views/admin/publications/_first_published_at.html.erb, app/views/admin/publications/_html_version_fields.html.erb, app/views/admin/publications/_inline_attachments_info.html.erb, app/views/admin/publications/_minister_fields.html.erb, app/views/admin/publications/_nation_fields.html.erb, app/views/admin/publications/_organisation_fields.html.erb, app/views/admin/publications/_publication_type_fields.html.erb, app/views/admin/publications/_related_policy_fields.html.erb, app/views/admin/publications/_specialist_sector_fields.html.erb, app/views/admin/publications/_statistical_data_set_fields.html.erb, app/views/admin/publications/_topic_fields.html.erb, app/views/admin/publications/_topical_event_fields.html.erb, app/views/admin/publications/_world_location_fields.html.erb, app/views/admin/publications/_worldwide_priority_fields.html.erb, new_admin_statistics_announcement_change]","16","1.675 seconds","false","1","3","[app/controllers/admin/people_controller.rb]","[app/controllers/admin/document_searches_controller.rb, app/controllers/admin/editions_controller.rb, app/controllers/admin/statistics_announcement_date_changes_controller.rb]","2","[app/controllers/admin/publications_controller.rb, app/controllers/admin/statistics_announcements_controller.rb]","0.4347826086984877"
"2494","[07-03-2014]","1","14","[da727b304772890b142f046c8c85275748511f2b, bdf8e387425bf397a843d976877760de390174da, 88f4d1480ef72f2fda692394913314cacc7b6b89, 0f5ca916794a818e82a95cde3d195ac512ee1ef2, a6a0843e0b3f0d1135b2b6f51df5ddca38a3e977, fb29220b34436b0816f484a60ae91a58371d226b, e5059dea5fe67198943464616a9bce30269a69a1, 4de43ec50851b53964a813fdd8132eaa61cf4ff5, 3f8b0b4e5bd3096e5373163f0622d22873fff9b4, 39eab8ac472aed1ec6e4cdad214965c2a341b7f7, 0be7939bc7a857bcbb73fd0ca2ff663daaf20435, 973c67ff6e374284a1ea02aacee4d44e010d6bae, b40b3c912467e418b2f3b1e2d1ba8a964492935e, 5ff4938e9026a1c5547f9356ee091f8e71f89a1a]","2","8","8","1","[app/controllers/about_pages_controller.rb, app/controllers/admin/about_pages_controller.rb, app/controllers/admin/topical_events_controller.rb, app/controllers/admin/topics_controller.rb, app/controllers/email_signups_controller.rb, app/controllers/latest_controller.rb, app/controllers/topical_events_controller.rb, app/controllers/topics_controller.rb]","[app/controllers/latest_controller.rb]","0.125","1.0","3.2.17","2","[]","0","29","[app/controllers/about_pages_controller.rb, app/controllers/admin/about_pages_controller.rb, app/controllers/admin/topical_events_controller.rb, app/controllers/admin/topics_controller.rb, app/controllers/email_signups_controller.rb, app/controllers/latest_controller.rb, app/controllers/topical_events_controller.rb, app/controllers/topics_controller.rb, app/helpers/filter_routes_helper.rb, app/helpers/public_document_routes_helper.rb, app/models/unpublishing.rb, app/services/service_listeners/author_notifier.rb, app/views/about_pages/show.html.erb, app/views/email_signups/_form.html.erb, app/views/email_signups/new.html.erb, app/views/latest/index.html.erb, app/views/organisations/_organisations_name_list.html.erb, app/views/policies/_list_description.html.erb, app/views/shared/_featured_news.html.erb, app/views/shared/_feeds.html.erb, app/views/shared/_govspeak_header_contents.html.erb, app/views/shared/_heading.html.erb, app/views/shared/_recently_updated.html.erb, app/views/shared/_recently_updated_documents.html.erb, app/views/shared/_social_media_accounts.html.erb, app/views/shared/_top_tasks.html.erb, app/views/topical_events/show.html.erb, app/views/topics/show.html.erb, lib/whitehall/exporters/mappings.rb]","[create, days, ago, with_index, see_all_link, has_css?, has_link?, within, click_link, scan, length, assert_equal, see_all_link]","","[]","[app/views/topical_events/_document_list.html.erb, app/views/topics/_document_list.html.erb, atom]","3","2.234 seconds","false","7","0","[app/controllers/about_pages_controller.rb, app/controllers/admin/about_pages_controller.rb, app/controllers/admin/topical_events_controller.rb, app/controllers/admin/topics_controller.rb, app/controllers/email_signups_controller.rb, app/controllers/topical_events_controller.rb, app/controllers/topics_controller.rb]","[]","1","[app/controllers/latest_controller.rb]","0.41666666666666663"
"2497","[03-03-2014]","1","4","[fda9b2a500a50303f92202da8d7a72d868127a56, 24e1c72b4a2b42e365b0766bf6ecabacaf591ad0, fa58deedf4cac18ab0f2c5912aede170bf60bbbd, a9b7360597be3cbac5c95385d3342c06b6d58e57]","2","7","8","2","[app/controllers/admin/corporate_information_pages_controller.rb, app/controllers/admin/organisations_controller.rb, app/controllers/admin/topics_controller.rb, app/controllers/api/organisations_controller.rb, app/controllers/corporate_information_pages_controller.rb, app/controllers/email_signups_controller.rb, app/controllers/organisations_controller.rb, app/controllers/topics_controller.rb]","[app/controllers/admin/organisations_controller.rb, app/controllers/organisations_controller.rb]","0.25","1.0","3.2.17","5","[]","0","59","[app/controllers/admin/corporate_information_pages_controller.rb, app/controllers/admin/organisations_controller.rb, app/controllers/admin/topics_controller.rb, app/controllers/api/organisations_controller.rb, app/controllers/corporate_information_pages_controller.rb, app/controllers/email_signups_controller.rb, app/controllers/organisations_controller.rb, app/controllers/topics_controller.rb, app/helpers/filter_routes_helper.rb, app/helpers/mainstream_category_routes_helper.rb, app/helpers/public_document_routes_helper.rb, app/models/admin/edition_filter.rb, app/models/edition/appointment.rb, app/presenters/role_appointment_presenter.rb, app/services/service_listeners/author_notifier.rb, app/views/admin/organisations/_form.html.erb, app/views/admin/organisations/_sidebar.html.erb, app/views/admin/organisations/edit.html.erb, app/views/admin/organisations/show.html.erb, app/views/admin/shared/_default_news_image_fields.html.erb, app/views/admin/shared/_top_tasks_fields.html.erb, app/views/classifications/_list_description.html.erb, app/views/contacts/_contact.html.erb, app/views/corporate_information_pages/show.html.erb, app/views/corporate_information_pages/show_worldwide_organisation.html.erb, app/views/email_signups/_form.html.erb, app/views/email_signups/new.html.erb, app/views/mainstream_categories/_list_description.html.erb, app/views/organisations/_alternate_style_top_tasks.html.erb, app/views/organisations/_corporate_information.html.erb, app/views/organisations/_documents.html.erb, app/views/organisations/_featured_items.html.erb, app/views/organisations/_header.html.erb, app/views/organisations/_index_section.html.erb, app/views/organisations/_organisations_name_list.html.erb, app/views/organisations/_promotional_feature_item.html.erb, app/views/organisations/_transition_state_visualisation.html.erb, app/views/organisations/about.html.erb, app/views/organisations/index.html.erb, app/views/organisations/show-executive-office.html.erb, app/views/organisations/show.html.erb, app/views/people/_person.html.erb, app/views/policies/_list_description.html.erb, app/views/shared/_available_languages.html.erb, app/views/shared/_featured.html.erb, app/views/shared/_featured_news.html.erb, app/views/shared/_feeds.html.erb, app/views/shared/_govspeak_header_contents.html.erb, app/views/shared/_heading.html.erb, app/views/shared/_list_description.html.erb, app/views/shared/_recently_updated.html.erb, app/views/shared/_recently_updated_documents.html.erb, app/views/shared/_social_media_accounts.html.erb, app/views/shared/_top_tasks.html.erb, app/views/topics/show.html.erb, app/views/worldwide_organisations/_header.html.erb, app/workers/import_row_worker.rb, lib/whitehall/uploader/fatality_notice_row.rb, lib/whitehall/uploader/row.rb]","[create, click_on, has_xpath?, has_content?, name, title, visible?, select_option, find_field, evaluate_script, execute_script, to_json, text, all_announcements_link]","","[]","[app/views/topics/_document_list.html.erb, atom, link]","3","2.653 seconds","false","6","0","[app/controllers/admin/corporate_information_pages_controller.rb, app/controllers/admin/topics_controller.rb, app/controllers/api/organisations_controller.rb, app/controllers/corporate_information_pages_controller.rb, app/controllers/email_signups_controller.rb, app/controllers/topics_controller.rb]","[]","2","[app/controllers/admin/organisations_controller.rb, app/controllers/organisations_controller.rb]","0.625"
"2504","[27-02-2014]","1","1","[be9378ecc2affdf43387a8ea07fc7f41746b4bb7]","2","3","13","0","[app/controllers/about_pages_controller.rb, app/controllers/admin/about_pages_controller.rb, app/controllers/admin/classification_featurings_controller.rb, app/controllers/admin/dashboard_controller.rb, app/controllers/admin/editions_controller.rb, app/controllers/admin/find_in_admin_bookmarklet_controller.rb, app/controllers/admin/policies_controller.rb, app/controllers/admin/supporting_pages_controller.rb, app/controllers/admin/topical_events_controller.rb, app/controllers/admin/topics_controller.rb, app/controllers/email_signups_controller.rb, app/controllers/topical_events_controller.rb, app/controllers/topics_controller.rb]","[]","0.0","0.0","3.2.17","6","[]","0","51","[app/controllers/about_pages_controller.rb, app/controllers/admin/about_pages_controller.rb, app/controllers/admin/classification_featurings_controller.rb, app/controllers/admin/dashboard_controller.rb, app/controllers/admin/editions_controller.rb, app/controllers/admin/find_in_admin_bookmarklet_controller.rb, app/controllers/admin/policies_controller.rb, app/controllers/admin/supporting_pages_controller.rb, app/controllers/admin/topical_events_controller.rb, app/controllers/admin/topics_controller.rb, app/controllers/email_signups_controller.rb, app/controllers/topical_events_controller.rb, app/controllers/topics_controller.rb, app/helpers/admin/edition_routes_helper.rb, app/helpers/classification_routes_helper.rb, app/helpers/filter_routes_helper.rb, app/helpers/public_document_routes_helper.rb, app/services/service_listeners/author_notifier.rb, app/views/about_pages/show.html.erb, app/views/admin/classification_featurings/index.html.erb, app/views/admin/classifications/_tab_wrapper.html.erb, app/views/admin/dashboard/_document_table.html.erb, app/views/admin/dashboard/index.html.erb, app/views/admin/editions/_filter_options.html.erb, app/views/admin/editions/_search_results.html.erb, app/views/admin/editions/index.html.erb, app/views/admin/find_in_admin_bookmarklet/_bookmarklet.erb, app/views/admin/find_in_admin_bookmarklet/ie.html.erb, app/views/admin/find_in_admin_bookmarklet/index.html.erb, app/views/admin/find_in_admin_bookmarklet/other.html.erb, app/views/admin/policies/_form.html.erb, app/views/admin/policies/_local_government_fields.html.erb, app/views/admin/shared/bootstrap/_button_dropdown.html.erb, app/views/admin/supporting_pages/_edition_view_edit_buttons.html.erb, app/views/admin/supporting_pages/_extra_metadata.html.erb, app/views/admin/supporting_pages/_form.html.erb, app/views/admin/supporting_pages/_related_policy_fields.html.erb, app/views/email_signups/_form.html.erb, app/views/email_signups/new.html.erb, app/views/organisations/_organisations_name_list.html.erb, app/views/policies/_list_description.html.erb, app/views/shared/_featured_news.html.erb, app/views/shared/_feeds.html.erb, app/views/shared/_govspeak_header_contents.html.erb, app/views/shared/_heading.html.erb, app/views/shared/_recently_updated.html.erb, app/views/shared/_recently_updated_documents.html.erb, app/views/shared/_social_media_accounts.html.erb, app/views/shared/_top_tasks.html.erb, app/views/topical_events/show.html.erb, app/views/topics/show.html.erb]","[create, click_button, record_css_selector, click_link, within, attach_file, fill_in, all, text, collect, diff!, fill_in_news_article_fields, visible?, select_option, click, find_field, evaluate_script, execute_script, to_json, has_css?, all_announcements_link, record_css_selector, has_css?, has_no_css?]","","[]","[admin_classification, app/views/admin/policies/_minister_fields.html.erb, app/views/admin/policies/_nation_fields.html.erb, app/views/admin/policies/_organisation_fields.html.erb, app/views/admin/policies/_policy_advisory_group_fields.html.erb, app/views/admin/policies/_policy_team_fields.html.erb, app/views/admin/policies/_specialist_sector_fields.html.erb, app/views/admin/policies/_topic_fields.html.erb, app/views/admin/policies/_topical_event_fields.html.erb, app/views/admin/policies/_world_location_fields.html.erb, app/views/admin/policies/_worldwide_priority_fields.html.erb, app/views/admin/supporting_pages/_first_published_at.html.erb, app/views/admin/supporting_pages/_inline_attachments_info.html.erb, app/views/admin/supporting_pages/_specialist_sector_fields.html.erb, app/views/topical_events/_document_list.html.erb, app/views/topics/_document_list.html.erb, atom, polymorphic]","18","2.530 seconds","false","13","0","[app/controllers/about_pages_controller.rb, app/controllers/admin/about_pages_controller.rb, app/controllers/admin/classification_featurings_controller.rb, app/controllers/admin/dashboard_controller.rb, app/controllers/admin/editions_controller.rb, app/controllers/admin/find_in_admin_bookmarklet_controller.rb, app/controllers/admin/policies_controller.rb, app/controllers/admin/supporting_pages_controller.rb, app/controllers/admin/topical_events_controller.rb, app/controllers/admin/topics_controller.rb, app/controllers/email_signups_controller.rb, app/controllers/topical_events_controller.rb, app/controllers/topics_controller.rb]","[]","0","[]","0"
"2312","[29-05-2014]","1","1","[157d51909c92e838bed47b066ea4ce8150f9312a]","1","1","2","0","[app/controllers/admin/topical_events_controller.rb, app/controllers/admin/topics_controller.rb]","[]","0.0","0.0","3.2.18","2","[]","0","8","[app/controllers/admin/topical_events_controller.rb, app/controllers/admin/topics_controller.rb, app/presenters/feature_presenter.rb, app/views/admin/topical_events/_custom_form_fields.html.erb, app/views/admin/topical_events/_table_header.html.erb, app/views/admin/topical_events/_topical_event.html.erb, app/views/admin/topics/_table_header.html.erb, app/views/admin/topics/_topic.html.erb]","[create, click_on, click_button]","","[]","","0","1.307 seconds","false","2","0","[app/controllers/admin/topical_events_controller.rb, app/controllers/admin/topics_controller.rb]","[]","0","[]","0"
"2326","[15-05-2014]","1","1","[c5c0ec6dd033a2724fa533b5c399dd896449d18b]","1","2","7","0","[app/controllers/about_pages_controller.rb, app/controllers/admin/about_pages_controller.rb, app/controllers/admin/topical_events_controller.rb, app/controllers/admin/topics_controller.rb, app/controllers/email_signups_controller.rb, app/controllers/topical_events_controller.rb, app/controllers/topics_controller.rb]","[]","0.0","0.0","3.2.18","4","[]","0","25","[app/controllers/about_pages_controller.rb, app/controllers/admin/about_pages_controller.rb, app/controllers/admin/topical_events_controller.rb, app/controllers/admin/topics_controller.rb, app/controllers/email_signups_controller.rb, app/controllers/topical_events_controller.rb, app/controllers/topics_controller.rb, app/helpers/filter_routes_helper.rb, app/helpers/public_document_routes_helper.rb, app/services/service_listeners/author_notifier.rb, app/views/about_pages/show.html.erb, app/views/email_signups/_form.html.erb, app/views/email_signups/new.html.erb, app/views/organisations/_organisations_name_list.html.erb, app/views/policies/_list_description.html.erb, app/views/shared/_featured_links.html.erb, app/views/shared/_featured_news.html.erb, app/views/shared/_feeds.html.erb, app/views/shared/_govspeak_header_contents.html.erb, app/views/shared/_heading.html.erb, app/views/shared/_recently_updated.html.erb, app/views/shared/_recently_updated_documents.html.erb, app/views/shared/_social_media_accounts.html.erb, app/views/topical_events/show.html.erb, app/views/topics/show.html.erb]","[create, begin_drafting_world_location_news_article, click_button, has_link?, within, visible?, select_option, find_field, evaluate_script, execute_script, to_json, see_all_link, click_on, click_link, visible?, select_option, find_field, evaluate_script, execute_script, to_json, click_link, has_css?, fill_in, within, has_no_css?, create]","","[]","[app/views/topical_events/_document_list.html.erb, app/views/topics/_document_list.html.erb, atom]","3","2.078 seconds","false","7","0","[app/controllers/about_pages_controller.rb, app/controllers/admin/about_pages_controller.rb, app/controllers/admin/topical_events_controller.rb, app/controllers/admin/topics_controller.rb, app/controllers/email_signups_controller.rb, app/controllers/topical_events_controller.rb, app/controllers/topics_controller.rb]","[]","0","[]","0"
"2332","[12-05-2014, 13-05-2014, 14-05-2014]","2","15","[e14d6d3a32f898d9f53ca8fea91e9cc74d398f25, 4041e551930ea03edc7f16cc0c602c6858c985d8, 69591e1595934e54c8ba3c8525c99da4dc1b2245, b1b06f02b79670ce4d90ff8b9c0caa7602bdec34, fa9035891a75b2bd91396ff196041f9a50bd3673, 3f10d33b9d55a54b5b93faf01be26f4d8591a33b, 50256fb046b2762807749c3da184735e210ed9dc, 5fadd1e8157ae13ed1652bf25277c287cc115595, 1be1339088f6dd7fdd814ac926cb7abfe2334741, 54d880eb5a9565942e6634ff0e8f415d92fa844b, 42d6201a187213be91e3d0ebd2ff3da624bea507, e32e48b6c4b6eb3d013ef8f7dbe38444ebf3ae57, cffc7ff6e9db2bae9ce6a40aaed1440472ae44b8, 3712c58454999c19d6bf1a2407894c5383104206, b12e7bf5cbc6161e9cb28810373c204767be2a54]","1","7","14","5","[app/controllers/admin/corporate_information_pages_controller.rb, app/controllers/admin/organisations_controller.rb, app/controllers/admin/topics_controller.rb, app/controllers/admin/world_locations_controller.rb, app/controllers/admin/worldwide_organisations_controller.rb, app/controllers/api/organisations_controller.rb, app/controllers/api/world_locations_controller.rb, app/controllers/api/worldwide_organisations_controller.rb, app/controllers/corporate_information_pages_controller.rb, app/controllers/email_signups_controller.rb, app/controllers/organisations_controller.rb, app/controllers/topics_controller.rb, app/controllers/world_locations_controller.rb, app/controllers/worldwide_organisations_controller.rb]","[app/controllers/admin/organisation_translations_controller.rb, app/controllers/admin/organisations_controller.rb, app/controllers/admin/worldwide_organisations_controller.rb, app/controllers/corporate_information_pages_controller.rb, app/controllers/organisations_controller.rb]","0.2857142857","0.8","3.2.18","11","[]","0","72","[app/controllers/admin/corporate_information_pages_controller.rb, app/controllers/admin/organisations_controller.rb, app/controllers/admin/topics_controller.rb, app/controllers/admin/world_locations_controller.rb, app/controllers/admin/worldwide_organisations_controller.rb, app/controllers/api/organisations_controller.rb, app/controllers/api/world_locations_controller.rb, app/controllers/api/worldwide_organisations_controller.rb, app/controllers/corporate_information_pages_controller.rb, app/controllers/email_signups_controller.rb, app/controllers/organisations_controller.rb, app/controllers/topics_controller.rb, app/controllers/world_locations_controller.rb, app/controllers/worldwide_organisations_controller.rb, app/helpers/filter_routes_helper.rb, app/helpers/mainstream_category_routes_helper.rb, app/helpers/public_document_routes_helper.rb, app/models/admin/edition_filter.rb, app/models/edition/appointment.rb, app/presenters/role_appointment_presenter.rb, app/services/service_listeners/author_notifier.rb, app/views/admin/organisations/_form.html.erb, app/views/admin/organisations/_sidebar.html.erb, app/views/admin/organisations/new.html.erb, app/views/admin/shared/_default_news_image_fields.html.erb, app/views/admin/shared/_featured_link_fields.html.erb, app/views/admin/worldwide_organisations/_form.html.erb, app/views/admin/worldwide_organisations/_sidebar.html.erb, app/views/admin/worldwide_organisations/edit.html.erb, app/views/admin/worldwide_organisations/new.html.erb, app/views/classifications/_list_description.html.erb, app/views/contacts/_contact.html.erb, app/views/corporate_information_pages/index.html.erb, app/views/corporate_information_pages/show.html.erb, app/views/corporate_information_pages/show_worldwide_organisation.html.erb, app/views/email_signups/_form.html.erb, app/views/email_signups/new.html.erb, app/views/mainstream_categories/_list_description.html.erb, app/views/organisations/_alternate_style_top_tasks.html.erb, app/views/organisations/_corporate_information.html.erb, app/views/organisations/_documents.html.erb, app/views/organisations/_featured_items.html.erb, app/views/organisations/_header.html.erb, app/views/organisations/_index_section.html.erb, app/views/organisations/_organisations_name_list.html.erb, app/views/organisations/_promotional_feature_item.html.erb, app/views/organisations/_transition_state_visualisation.html.erb, app/views/organisations/index.html.erb, app/views/organisations/show-promotional.html.erb, app/views/organisations/show.html.erb, app/views/people/_person.html.erb, app/views/policies/_list_description.html.erb, app/views/shared/_available_languages.html.erb, app/views/shared/_featured.html.erb, app/views/shared/_featured_links.html.erb, app/views/shared/_featured_news.html.erb, app/views/shared/_feeds.html.erb, app/views/shared/_govspeak_header_contents.html.erb, app/views/shared/_heading.html.erb, app/views/shared/_list_description.html.erb, app/views/shared/_recently_updated.html.erb, app/views/shared/_recently_updated_documents.html.erb, app/views/shared/_social_media_accounts.html.erb, app/views/topics/show.html.erb, app/views/world_locations/show.html.erb, app/views/worldwide_organisations/_corporate_information.html.erb, app/views/worldwide_organisations/_header.html.erb, app/views/worldwide_organisations/_worldwide_organisation.html.erb, app/views/worldwide_organisations/show.html.erb, app/workers/import_row_worker.rb, lib/whitehall/uploader/fatality_notice_row.rb, lib/whitehall/uploader/row.rb]","[create, create, fill_in, collect, within, click_button, rows_hash, click_link, record_css_selector, has_css?, within, visible?, select_option, find_field, evaluate_script, execute_script, to_json, text, see_all_link, click_on, has_title?, logo_formatted_name, assert_raise, click_link, see_all_link, worldwide_organisation]","","[app/views/admin/organisations/about.html.erb, app/views/organisations/about.html.erb]","[app/views/topics/_document_list.html.erb, atom, link, polymorphic]","4","4.215 seconds","false","10","1","[app/controllers/admin/corporate_information_pages_controller.rb, app/controllers/admin/topics_controller.rb, app/controllers/admin/world_locations_controller.rb, app/controllers/api/organisations_controller.rb, app/controllers/api/world_locations_controller.rb, app/controllers/api/worldwide_organisations_controller.rb, app/controllers/email_signups_controller.rb, app/controllers/topics_controller.rb, app/controllers/world_locations_controller.rb, app/controllers/worldwide_organisations_controller.rb]","[app/controllers/admin/organisation_translations_controller.rb]","4","[app/controllers/admin/organisations_controller.rb, app/controllers/admin/worldwide_organisations_controller.rb, app/controllers/corporate_information_pages_controller.rb, app/controllers/organisations_controller.rb]","0.5882352941055363"
"2340","[09-05-2014]","1","2","[b6a8bd91a884806a64f1d1d73260c507c0b36a0c, 143b8d8e8321cd0caa8961801e8184a65449bfc9]","1","3","0","1","[]","[app/controllers/admin/edition_unpublishing_controller.rb]","0.0","0.0","3.2.17","3","[]","0","0","[]","[create, record_css_selector, has_css?, gsub, click_on, choose, fill_in, click_button, current_state, assert_equal, click_on, fill_in, click_button, has_content?, unpublishing, explanation]","","[]","","0","0.909 seconds","false","0","1","[]","[app/controllers/admin/edition_unpublishing_controller.rb]","0","[]","0"
"2341","[08-05-2014, 09-05-2014]","2","7","[90399b54a49abb0488ee280ef533e6051f9b27dc, 05efa1edb51aec4faaaa2ab0faa199c775942c2c, 15482860e7c2d45e67548bd5ec8912144e61f134, c9c714f0b8854aedd3ef17a88773c7f9f8548e00, 8e3401a86f5c5e51c1e614c488919c87551fc4af, b7a347edd14c8de5d913b31f6c07f40ee3ef43f0, cd76ee928b1ff1847253abd73f5bd648e7d2b3f6]","1","3","8","1","[app/controllers/admin/corporate_information_pages_controller.rb, app/controllers/admin/organisations_controller.rb, app/controllers/admin/topics_controller.rb, app/controllers/api/organisations_controller.rb, app/controllers/corporate_information_pages_controller.rb, app/controllers/email_signups_controller.rb, app/controllers/organisations_controller.rb, app/controllers/topics_controller.rb]","[app/controllers/admin/organisations_controller.rb]","0.125","1.0","3.2.17","2","[]","0","58","[app/controllers/admin/corporate_information_pages_controller.rb, app/controllers/admin/organisations_controller.rb, app/controllers/admin/topics_controller.rb, app/controllers/api/organisations_controller.rb, app/controllers/corporate_information_pages_controller.rb, app/controllers/email_signups_controller.rb, app/controllers/organisations_controller.rb, app/controllers/topics_controller.rb, app/helpers/filter_routes_helper.rb, app/helpers/mainstream_category_routes_helper.rb, app/helpers/public_document_routes_helper.rb, app/models/admin/edition_filter.rb, app/models/edition/appointment.rb, app/presenters/role_appointment_presenter.rb, app/services/service_listeners/author_notifier.rb, app/views/admin/organisations/_form.html.erb, app/views/admin/organisations/_sidebar.html.erb, app/views/admin/organisations/edit.html.erb, app/views/admin/shared/_default_news_image_fields.html.erb, app/views/admin/shared/_featured_link_fields.html.erb, app/views/classifications/_list_description.html.erb, app/views/contacts/_contact.html.erb, app/views/corporate_information_pages/show.html.erb, app/views/corporate_information_pages/show_worldwide_organisation.html.erb, app/views/email_signups/_form.html.erb, app/views/email_signups/new.html.erb, app/views/mainstream_categories/_list_description.html.erb, app/views/organisations/_alternate_style_top_tasks.html.erb, app/views/organisations/_corporate_information.html.erb, app/views/organisations/_documents.html.erb, app/views/organisations/_featured_items.html.erb, app/views/organisations/_header.html.erb, app/views/organisations/_index_section.html.erb, app/views/organisations/_organisations_name_list.html.erb, app/views/organisations/_promotional_feature_item.html.erb, app/views/organisations/_transition_state_visualisation.html.erb, app/views/organisations/about.html.erb, app/views/organisations/index.html.erb, app/views/organisations/show-promotional.html.erb, app/views/organisations/show.html.erb, app/views/people/_person.html.erb, app/views/policies/_list_description.html.erb, app/views/shared/_available_languages.html.erb, app/views/shared/_featured.html.erb, app/views/shared/_featured_links.html.erb, app/views/shared/_featured_news.html.erb, app/views/shared/_feeds.html.erb, app/views/shared/_govspeak_header_contents.html.erb, app/views/shared/_heading.html.erb, app/views/shared/_list_description.html.erb, app/views/shared/_recently_updated.html.erb, app/views/shared/_recently_updated_documents.html.erb, app/views/shared/_social_media_accounts.html.erb, app/views/topics/show.html.erb, app/views/worldwide_organisations/_header.html.erb, app/workers/import_row_worker.rb, lib/whitehall/uploader/fatality_notice_row.rb, lib/whitehall/uploader/row.rb]","[click_on, create, has_content?, name, title, visible?, select_option, find_field, evaluate_script, execute_script, to_json, text, see_all_link]","","[]","[app/views/topics/_document_list.html.erb, atom, link]","3","3.055 seconds","false","7","0","[app/controllers/admin/corporate_information_pages_controller.rb, app/controllers/admin/topics_controller.rb, app/controllers/api/organisations_controller.rb, app/controllers/corporate_information_pages_controller.rb, app/controllers/email_signups_controller.rb, app/controllers/organisations_controller.rb, app/controllers/topics_controller.rb]","[]","1","[app/controllers/admin/organisations_controller.rb]","0.41666666666666663"
"2374","[11-04-2014]","2","4","[2c00982c2dfc8999f2d116a0e2b8ce5ef8706cc2, 54c71c69324e5771e0f33544f54b2bda539e69e6, 6a306c6365a5eaba47a19f4585e8fbf97018d87f, 5b44f42e75b8e33549ab3a5c96dff0f2f0f10c42]","1","0","8","1","[app/controllers/admin/corporate_information_pages_controller.rb, app/controllers/admin/organisations_controller.rb, app/controllers/admin/topics_controller.rb, app/controllers/api/organisations_controller.rb, app/controllers/corporate_information_pages_controller.rb, app/controllers/email_signups_controller.rb, app/controllers/organisations_controller.rb, app/controllers/topics_controller.rb]","[app/controllers/admin/promotional_feature_items_controller.rb]","0.0","0.0","3.2.17","1","[]","0","59","[app/controllers/admin/corporate_information_pages_controller.rb, app/controllers/admin/organisations_controller.rb, app/controllers/admin/topics_controller.rb, app/controllers/api/organisations_controller.rb, app/controllers/corporate_information_pages_controller.rb, app/controllers/email_signups_controller.rb, app/controllers/organisations_controller.rb, app/controllers/topics_controller.rb, app/helpers/filter_routes_helper.rb, app/helpers/mainstream_category_routes_helper.rb, app/helpers/public_document_routes_helper.rb, app/models/admin/edition_filter.rb, app/models/edition/appointment.rb, app/presenters/role_appointment_presenter.rb, app/services/service_listeners/author_notifier.rb, app/views/admin/organisations/_form.html.erb, app/views/admin/organisations/_sidebar.html.erb, app/views/admin/organisations/edit.html.erb, app/views/admin/organisations/show.html.erb, app/views/admin/shared/_default_news_image_fields.html.erb, app/views/admin/shared/_featured_link_fields.html.erb, app/views/classifications/_list_description.html.erb, app/views/contacts/_contact.html.erb, app/views/corporate_information_pages/show.html.erb, app/views/corporate_information_pages/show_worldwide_organisation.html.erb, app/views/email_signups/_form.html.erb, app/views/email_signups/new.html.erb, app/views/mainstream_categories/_list_description.html.erb, app/views/organisations/_alternate_style_top_tasks.html.erb, app/views/organisations/_corporate_information.html.erb, app/views/organisations/_documents.html.erb, app/views/organisations/_featured_items.html.erb, app/views/organisations/_header.html.erb, app/views/organisations/_index_section.html.erb, app/views/organisations/_organisations_name_list.html.erb, app/views/organisations/_promotional_feature_item.html.erb, app/views/organisations/_transition_state_visualisation.html.erb, app/views/organisations/about.html.erb, app/views/organisations/index.html.erb, app/views/organisations/show-promotional.html.erb, app/views/organisations/show.html.erb, app/views/people/_person.html.erb, app/views/policies/_list_description.html.erb, app/views/shared/_available_languages.html.erb, app/views/shared/_featured.html.erb, app/views/shared/_featured_links.html.erb, app/views/shared/_featured_news.html.erb, app/views/shared/_feeds.html.erb, app/views/shared/_govspeak_header_contents.html.erb, app/views/shared/_heading.html.erb, app/views/shared/_list_description.html.erb, app/views/shared/_recently_updated.html.erb, app/views/shared/_recently_updated_documents.html.erb, app/views/shared/_social_media_accounts.html.erb, app/views/topics/show.html.erb, app/views/worldwide_organisations/_header.html.erb, app/workers/import_row_worker.rb, lib/whitehall/uploader/fatality_notice_row.rb, lib/whitehall/uploader/row.rb]","[create, promotional_feature, click_link, record_css_selector, click_button, within, admin_organisation_promotional_features_url, record_css_selector, has_no_css?, create, current_url, assert_equal, text, see_all_link]","","[]","[app/views/topics/_document_list.html.erb, atom, link]","3","2.808 seconds","false","8","1","[app/controllers/admin/corporate_information_pages_controller.rb, app/controllers/admin/organisations_controller.rb, app/controllers/admin/topics_controller.rb, app/controllers/api/organisations_controller.rb, app/controllers/corporate_information_pages_controller.rb, app/controllers/email_signups_controller.rb, app/controllers/organisations_controller.rb, app/controllers/topics_controller.rb]","[app/controllers/admin/promotional_feature_items_controller.rb]","0","[]","0"
"2378","[09-04-2014]","1","3","[0afaaaa8001bbb1b20d32f894ddc9ac1f2eea2ff, bbb5c6c628395ca0e8a9cf405ae3d05a0fd10198, b1110cb1362588375477429c42bfb139ff47287f]","1","2","8","1","[app/controllers/admin/corporate_information_pages_controller.rb, app/controllers/admin/organisations_controller.rb, app/controllers/admin/topics_controller.rb, app/controllers/api/organisations_controller.rb, app/controllers/corporate_information_pages_controller.rb, app/controllers/email_signups_controller.rb, app/controllers/organisations_controller.rb, app/controllers/topics_controller.rb]","[app/controllers/admin/organisations_controller.rb]","0.125","1.0","3.2.17","3","[]","0","59","[app/controllers/admin/corporate_information_pages_controller.rb, app/controllers/admin/organisations_controller.rb, app/controllers/admin/topics_controller.rb, app/controllers/api/organisations_controller.rb, app/controllers/corporate_information_pages_controller.rb, app/controllers/email_signups_controller.rb, app/controllers/organisations_controller.rb, app/controllers/topics_controller.rb, app/helpers/filter_routes_helper.rb, app/helpers/mainstream_category_routes_helper.rb, app/helpers/public_document_routes_helper.rb, app/models/admin/edition_filter.rb, app/models/edition/appointment.rb, app/presenters/role_appointment_presenter.rb, app/services/service_listeners/author_notifier.rb, app/views/admin/organisations/_form.html.erb, app/views/admin/organisations/_sidebar.html.erb, app/views/admin/organisations/edit.html.erb, app/views/admin/organisations/show.html.erb, app/views/admin/shared/_default_news_image_fields.html.erb, app/views/admin/shared/_featured_link_fields.html.erb, app/views/classifications/_list_description.html.erb, app/views/contacts/_contact.html.erb, app/views/corporate_information_pages/show.html.erb, app/views/corporate_information_pages/show_worldwide_organisation.html.erb, app/views/email_signups/_form.html.erb, app/views/email_signups/new.html.erb, app/views/mainstream_categories/_list_description.html.erb, app/views/organisations/_alternate_style_top_tasks.html.erb, app/views/organisations/_corporate_information.html.erb, app/views/organisations/_documents.html.erb, app/views/organisations/_featured_items.html.erb, app/views/organisations/_header.html.erb, app/views/organisations/_index_section.html.erb, app/views/organisations/_organisations_name_list.html.erb, app/views/organisations/_promotional_feature_item.html.erb, app/views/organisations/_transition_state_visualisation.html.erb, app/views/organisations/about.html.erb, app/views/organisations/index.html.erb, app/views/organisations/show-promotional.html.erb, app/views/organisations/show.html.erb, app/views/people/_person.html.erb, app/views/policies/_list_description.html.erb, app/views/shared/_available_languages.html.erb, app/views/shared/_featured.html.erb, app/views/shared/_featured_links.html.erb, app/views/shared/_featured_news.html.erb, app/views/shared/_feeds.html.erb, app/views/shared/_govspeak_header_contents.html.erb, app/views/shared/_heading.html.erb, app/views/shared/_list_description.html.erb, app/views/shared/_recently_updated.html.erb, app/views/shared/_recently_updated_documents.html.erb, app/views/shared/_social_media_accounts.html.erb, app/views/topics/show.html.erb, app/views/worldwide_organisations/_header.html.erb, app/workers/import_row_worker.rb, lib/whitehall/uploader/fatality_notice_row.rb, lib/whitehall/uploader/row.rb]","[create, click_link, fill_in, within, click_button, has_css?, within, text, see_all_link]","","[app/models/has_top_tasks.rb, app/views/admin/shared/_top_tasks_fields.html.erb, app/views/shared/_top_tasks.html.erb]","[app/views/topics/_document_list.html.erb, atom, link]","3","2.444 seconds","false","7","0","[app/controllers/admin/corporate_information_pages_controller.rb, app/controllers/admin/topics_controller.rb, app/controllers/api/organisations_controller.rb, app/controllers/corporate_information_pages_controller.rb, app/controllers/email_signups_controller.rb, app/controllers/organisations_controller.rb, app/controllers/topics_controller.rb]","[]","1","[app/controllers/admin/organisations_controller.rb]","0.41666666666666663"
"2387","[01-04-2014, 04-04-2014, 07-04-2014]","1","4","[50b9076fccf2c1c79a490b5f1e9affcabd522fbb, 2f559f3fa3236c1335e235c32f750cf088bafb5f, 7dca565d6f3300e375790b96144d85300f1adfb3, 36e1e9cb85cbd644163c03fb3025940332396590]","1","0","0","0","[]","[]","0.0","0.0","3.2.17","1","[]","0","0","[]","[create, merge!, gsub, gsub, has_css?, text]","","[]","","0","1.216 seconds","false","0","0","[]","[]","0","[]","0"
"2402","[31-03-2014, 01-04-2014]","1","5","[1de17b786ab730f833e20de73dbac2e9323fed93, 0c530e05102a88b42c95e16cbd69abfd9fe95985, 280cf300db2a6dc7308e76d839ddd28ee143e286, bcf11da8b06da9cd513e4066003b015587f56249, 6ba92c77c8b4fe4f8e92ae1c04e24b9090d25ff8]","1","0","1","0","[app/controllers/admin/imports_controller.rb]","[]","0.0","0.0","3.2.17","9","[{path=alphagov_whitehall/features/support/import_helpers.rb, line=-1}]","0","9","[app/controllers/admin/imports_controller.rb, app/helpers/admin/edition_routes_helper.rb, app/views/admin/imports/error_list.html.erb, app/views/admin/imports/force_publish_log.html.erb, app/views/admin/imports/import_log.html.erb, app/views/admin/imports/index.html.erb, app/views/admin/imports/new.html.erb, app/views/admin/imports/new_document_list.html.erb, app/views/admin/imports/show.html.erb]","[id, has_no_button?, within, click_on, most_recent_force_publication_attempt, has_xpath?, has_css?, attach_file, click_button, current_path, has_css?, click_on, has_no_css?, within, close, path, unlink, create, visible?, select_option, find_field, evaluate_script, execute_script, to_json, click_link, click_button, fill_in]","","[]","","0","2.936 seconds","false","1","0","[app/controllers/admin/imports_controller.rb]","[]","0","[]","0"
"2407","[27-03-2014, 28-03-2014, 31-03-2014]","1","7","[c120b06ba6ab404b99d66c185597095790434c69, 09fbc0fb9b619eb94b54790be7fc1ee0cbfeb929, 35d6e59bcce12df14c9d63f3efb913e5164a1574, 7520669160adfe524d880e748530873b0788fd40, 21dfd9681a40d26cc7eb97c748abdce3d274c5e9, ba9dae5cb8a8ff37e99d18f13bcc771b00a53e9e, 79dc459a2d4bef8f14dfa8490b218927e0f2cb50]","1","2","10","0","[app/controllers/admin/corporate_information_pages_controller.rb, app/controllers/admin/organisations_controller.rb, app/controllers/admin/statistics_announcements_controller.rb, app/controllers/admin/topics_controller.rb, app/controllers/api/organisations_controller.rb, app/controllers/corporate_information_pages_controller.rb, app/controllers/email_signups_controller.rb, app/controllers/organisations_controller.rb, app/controllers/statistics_announcements_controller.rb, app/controllers/topics_controller.rb]","[]","0.0","0.0","3.2.17","1","[]","0","59","[app/controllers/admin/corporate_information_pages_controller.rb, app/controllers/admin/organisations_controller.rb, app/controllers/admin/statistics_announcements_controller.rb, app/controllers/admin/topics_controller.rb, app/controllers/api/organisations_controller.rb, app/controllers/corporate_information_pages_controller.rb, app/controllers/email_signups_controller.rb, app/controllers/organisations_controller.rb, app/controllers/statistics_announcements_controller.rb, app/controllers/topics_controller.rb, app/helpers/filter_routes_helper.rb, app/helpers/mainstream_category_routes_helper.rb, app/helpers/public_document_routes_helper.rb, app/models/admin/edition_filter.rb, app/models/edition/appointment.rb, app/presenters/role_appointment_presenter.rb, app/services/service_listeners/author_notifier.rb, app/views/classifications/_list_description.html.erb, app/views/contacts/_contact.html.erb, app/views/corporate_information_pages/show.html.erb, app/views/corporate_information_pages/show_worldwide_organisation.html.erb, app/views/email_signups/_form.html.erb, app/views/email_signups/new.html.erb, app/views/mainstream_categories/_list_description.html.erb, app/views/organisations/_alternate_style_top_tasks.html.erb, app/views/organisations/_corporate_information.html.erb, app/views/organisations/_documents.html.erb, app/views/organisations/_featured_items.html.erb, app/views/organisations/_header.html.erb, app/views/organisations/_index_section.html.erb, app/views/organisations/_organisations_name_list.html.erb, app/views/organisations/_promotional_feature_item.html.erb, app/views/organisations/_transition_state_visualisation.html.erb, app/views/organisations/about.html.erb, app/views/organisations/index.html.erb, app/views/organisations/show-executive-office.html.erb, app/views/organisations/show.html.erb, app/views/people/_person.html.erb, app/views/policies/_list_description.html.erb, app/views/shared/_available_languages.html.erb, app/views/shared/_featured.html.erb, app/views/shared/_featured_news.html.erb, app/views/shared/_feeds.html.erb, app/views/shared/_govspeak_header_contents.html.erb, app/views/shared/_heading.html.erb, app/views/shared/_list_description.html.erb, app/views/shared/_recently_updated.html.erb, app/views/shared/_recently_updated_documents.html.erb, app/views/shared/_social_media_accounts.html.erb, app/views/shared/_top_tasks.html.erb, app/views/statistics_announcements/_filter_results.html.erb, app/views/statistics_announcements/_upcoming_calendar_tabs.html.erb, app/views/statistics_announcements/index.html.erb, app/views/statistics_announcements/show.html.erb, app/views/topics/show.html.erb, app/views/worldwide_organisations/_header.html.erb, app/workers/import_row_worker.rb, lib/whitehall/uploader/fatality_notice_row.rb, lib/whitehall/uploader/row.rb]","[build, create, click_on, within, current_path, assert_equal, has_content?, has_link?, refresh results, text, see_all_link]","","[]","[app/views/statistics_announcements/_filter.html.erb, app/views/topics/_document_list.html.erb, atom, link]","4","3.102 seconds","false","10","0","[app/controllers/admin/corporate_information_pages_controller.rb, app/controllers/admin/organisations_controller.rb, app/controllers/admin/statistics_announcements_controller.rb, app/controllers/admin/topics_controller.rb, app/controllers/api/organisations_controller.rb, app/controllers/corporate_information_pages_controller.rb, app/controllers/email_signups_controller.rb, app/controllers/organisations_controller.rb, app/controllers/statistics_announcements_controller.rb, app/controllers/topics_controller.rb]","[]","0","[]","0"
"2431","[26-03-2014]","2","3","[a99289e9774f48684b257f3c5a73bf468b32fe38, ae4ad746f198395cfb96813c2445e30fe68068ca, c0380678ce29694ed53a56478a64a20604854a62]","1","3","0","0","[]","[]","0.0","0.0","3.2.17","1","[]","0","0","[]","[artefact_for_slug_with_a_child_tags, content_api_has_an_artefact, create, has_content?, has_css?, record_css_selector]","","[]","","0","2.213 seconds","false","0","0","[]","[]","0","[]","0"
"2442","[24-03-2014]","1","4","[400f110b3ca7080db960dea3d19218927f17b7a3, 57bec2ece6bef16066be55a9d33b49252b0b5616, d39d26fbddc4b2a442e7e1d682836bf5b3c5ab59, cc361d9542714332440995327e33f24e1090ede2]","1","3","0","0","[]","[]","0.0","0.0","3.2.17","2","[]","0","0","[]","[create, merge!, gsub, gsub, has_css?, text]","","[]","","0","1.102 seconds","false","0","0","[]","[]","0","[]","0"
"2495","[05-03-2014, 06-03-2014, 07-03-2014]","4","8","[8a21c8e441f2762e134fb80b561dfb49084adba8, 0f0b026118f1255c65b277a577a7193e72808284, a228148afb70b20f2b73d219de2873b9abeffa87, d87dc27b0ee7cf5306f70e2f524866df9e29897f, 12720a890cbf4b1e27b54f7c7eb3f71c232457b1, 55a5c94be390835913d5551b699a4bcc23970ba6, 17b6fd8e16a9e4add32e2ced68e391cc1e861a90, 3dc0f4ed541402d9e1dcd9d1adce66ab7521af75]","1","0","0","2","[]","[app/controllers/admin/detailed_guides_controller.rb, app/controllers/admin/editions_controller.rb]","0.0","0.0","3.2.17","0","[]","0","0","[]","[create, begin_drafting_document, click_button, record_css_selector, has_css?]","","[app/controllers/admin/user_needs_controller.rb, app/models/edition/user_needs.rb, app/models/edition_user_need.rb, app/models/user_need.rb, app/views/admin/editions/_user_needs_fields.html.erb]","","0","0.916 seconds","true","0","2","[]","[app/controllers/admin/detailed_guides_controller.rb, app/controllers/admin/editions_controller.rb]","0","[]","0"
"2509","[24-02-2014]","1","1","[94a665c971695cc6958ef1ad6914641e8c67cdc2]","1","0","1","0","[app/controllers/admin/imports_controller.rb]","[]","0.0","0.0","3.2.17","4","[{path=alphagov_whitehall/features/support/import_helpers.rb, line=-1}]","0","4","[app/controllers/admin/imports_controller.rb, app/helpers/admin/edition_routes_helper.rb, app/views/admin/imports/new.html.erb, app/views/admin/imports/new_document_list.html.erb]","[update_attributes!, create, to_i, count, assert_equal, assert_kind_of, assert_nil, has_css?, click_on, reload, draft?, click_on, attach_file, click_button, current_path, click_link, visible?, select_option, close, path, unlink, find_field, evaluate_script, execute_script, to_json, merge, captures, raise, create]","","[]","","0","1.452 seconds","false","1","0","[app/controllers/admin/imports_controller.rb]","[]","0","[]","0"
"2525","[13-02-2014, 17-02-2014]","2","19","[68494900068208c353296e58eb8afc93c07c967e, bceeef249739ac4f97bf40aad2bb9ef08b0a902a, 230ee96e3bf35628e6098d4b4f7a622e29bd6652, fb6c9f58d893ef07a03126316eee2329a99afdd7, ea7f23cd5853001f1092b05368867a00155ccc9b, d8d93589ad5b6bf84f550f38338a609054647691, f82499450449780a8129e4c90e6dece58d886fb3, 19531c5f0cd7567be12ee5ccad39dfeed6d2ced5, 65b0700e72e1029d558fb5a236a7095d6964d7cf, 39be8a21fe05aa25a2593a015d3ec046ec0dd5f5, dbb582926ab083f339d23aaf0e9b252881a3180e, 775d915359367121032f64ebdf5a2daf10103276, a55625120be55ab926867175da03990bea7cd56a, 01790ca63ba874dbe145ea354d212a0ad919a1fc, 49540507344cd1d1e47e48e2f025316ce3bc4e3c, 53fb7c96215ecc7fcf816ad3f58267a7b75d2c7f, d5fdde9be6410efcdaa41fc643438c0ffd376984, 2408f189d8f53791acdc085582a96caae0cdb46b, 16628b82c6ba374a47a0f181e039c8501adfae2d]","1","3","0","2","[]","[app/controllers/admin/editions_controller.rb, app/controllers/detailed_guides_controller.rb]","0.0","0.0","3.2.16","0","[]","0","0","[]","[create, content_api_has_tags, has_css?, click_on, find_field, assert_equal, click_button, begin_drafting_document, fill_in_publication_fields, visible?, select_option, evaluate_script, execute_script, to_json]","","[]","","0","1.184 seconds","false","0","2","[]","[app/controllers/admin/editions_controller.rb, app/controllers/detailed_guides_controller.rb]","0","[]","0"
"2531","[13-02-2014]","1","3","[02379ca418201ab891016ddf493e94ed7dc71ef0, d690a1da34ad7bbe244396f980a05fb6ae13de58, e43213e1d33b288d50214ede9a7033040bb468bc]","1","2","1","1","[app/controllers/admin/publications_controller.rb]","[app/controllers/admin/attachments_controller.rb]","0.0","0.0","3.2.16","0","[]","0","4","[app/controllers/admin/publications_controller.rb, app/views/admin/publications/_form.html.erb, app/views/admin/publications/_required_fields_for_imported_editions.html.erb, app/views/admin/publications/_subtype_fields.html.erb]","[create, gsub, click_on, attach_file, fill_in, click_on, count, assert_equal]","","[]","[app/views/admin/publications/_external_fields.html.erb, app/views/admin/publications/_first_published_at.html.erb, app/views/admin/publications/_html_version_fields.html.erb, app/views/admin/publications/_inline_attachments_info.html.erb, app/views/admin/publications/_minister_fields.html.erb, app/views/admin/publications/_nation_fields.html.erb, app/views/admin/publications/_organisation_fields.html.erb, app/views/admin/publications/_publication_type_fields.html.erb, app/views/admin/publications/_related_policy_fields.html.erb, app/views/admin/publications/_statistical_data_set_fields.html.erb, app/views/admin/publications/_topic_fields.html.erb, app/views/admin/publications/_topical_event_fields.html.erb, app/views/admin/publications/_world_location_fields.html.erb, app/views/admin/publications/_worldwide_priority_fields.html.erb]","14","0.938 seconds","false","1","1","[app/controllers/admin/publications_controller.rb]","[app/controllers/admin/attachments_controller.rb]","0","[]","0"
"2538","[04-02-2014, 07-02-2014]","1","3","[98ab3b634cc92da185bce1aa4e87bec049a15478, d2e0c379cae79791fd0926289d9cd9f9f9d4450f, 33bce7fac76d2c00776974d50217f9a12087c9fb]","1","2","1","1","[app/controllers/admin/publications_controller.rb]","[app/controllers/admin/attachments_controller.rb]","0.0","0.0","3.2.16","0","[]","0","4","[app/controllers/admin/publications_controller.rb, app/views/admin/publications/_form.html.erb, app/views/admin/publications/_required_fields_for_imported_editions.html.erb, app/views/admin/publications/_subtype_fields.html.erb]","[create, gsub, click_on, attach_file, fill_in, click_on, count, assert_equal]","","[]","[app/views/admin/publications/_external_fields.html.erb, app/views/admin/publications/_first_published_at.html.erb, app/views/admin/publications/_html_version_fields.html.erb, app/views/admin/publications/_inline_attachments_info.html.erb, app/views/admin/publications/_minister_fields.html.erb, app/views/admin/publications/_nation_fields.html.erb, app/views/admin/publications/_organisation_fields.html.erb, app/views/admin/publications/_publication_type_fields.html.erb, app/views/admin/publications/_related_policy_fields.html.erb, app/views/admin/publications/_statistical_data_set_fields.html.erb, app/views/admin/publications/_topic_fields.html.erb, app/views/admin/publications/_topical_event_fields.html.erb, app/views/admin/publications/_world_location_fields.html.erb, app/views/admin/publications/_worldwide_priority_fields.html.erb]","14","0.962 seconds","false","1","1","[app/controllers/admin/publications_controller.rb]","[app/controllers/admin/attachments_controller.rb]","0","[]","0"
