[path:/features/step_definitions/generic_steps.rb, methods:[198, 88, 100, 84, 72, 193]]
[path:/features/step_definitions/tag_set_steps.rb, methods:[30, 43, 55, 63, 73, 97, 117, 85, 79]]
[path:/features/step_definitions/tag_steps.rb, methods:[32]]
[path:/features/step_definitions/user_steps.rb, methods:[46, 27, 74]]
[path:/features/step_definitions/web_steps.rb, methods:[106, 32, 22, 75, 162, [name:with_scope, step:When ], [name:with_scope, step:Then ], [name:with_scope, step:Given ]]]
