"Repository","https://github.com/AgileVentures/WebsiteOne.git"
"Tasks with empty IReal","0"
"Tasks with no-empty IReal","7"
"Tasks with relevant AST error","6"
"Tasks with AST error of Gherkin files","0"
"Tasks with AST error of StepDef files","0"
"Tasks with AST error of production files","6"
"Tasks with AST error of unit test files","0"
"Tasks with step match error","2"
"Tasks without required gems","0"
"Tasks with changed stepdef","6"
"Tasks with changed Gherkin","7"
"Tasks with implemented Gherkin scenarios","7"
"All invalid tasks","7"
"All valid tasks (Gherkin scenario, no empty IReal, no error)","0"
"Valid tasks, but empty ITest","0"
"Valid tasks, no empty ITest, but zero precision-recall","0"
"Valid tasks, no empty ITest, no zero precision-recall","0"
"Project","Task","Date","#Days","#Commits","Commit_Message","#Devs","#Gherkin_Tests","#Impl_Gherkin_Tests","#StepDef","#Impl_StepDef","Methods_Unknown_Type","#Step_Call","Step_Match_Errors","#Step_Match_Error","AST_Errors","#AST_Errors","Gherkin_AST_Errors","#Gherkin_AST_Errors","Steps_AST_Errors","#Steps_AST_Errors","Renamed_Files","Deleted_Files","NotFound_Views","#Views","#TestI","#TaskI","TestI","TaskI","Precision","Recall","Hashes","Timestamp","Rails","Gems","#Visit_Call","Lost_visit_call","#Views_ITest","#Code_View_Analysis","Code_View_Analysis","Has_Merge","F2","#Multiple_Step_Matches","Multiple_Step_Matches","#Generic_Step_Keyword","Generic_Step_Keyword"
"websiteone","1","[18-10-2018]","1","3","[Add link to upgrade on premium mob events, test (#2727)  Add link to upgrade on premium mob events, test, Bump apipie-rails from 0.5.11 to 0.5.12 (#2731)  Bumps [apipie-rails](https://github.com/Apipie/apipie-rails) from 0.5.11 to 0.5.12. - [Release notes](https://github.com/Apipie/apipie-rails/releases) - [Changelog](https://github.com/Apipie/apipie-rails/blob/master/CHANGELOG.md) - [Commits](https://github.com/Apipie/apipie-rails/compare/v0.5.11...v0.5.12)  Signed-off-by: dependabot[bot] <support@dependabot.com>, Update documentation for c9 install (#2722)  Updated ruby version.  Run bundle install without production gems. No need to install production gems in the development environment.  Wrapped inline code with backtick.  Added fix for db encoding issue.  [ci skip]]","3","1","1","1","1","[hashes, blank?, id, delete, each, send message, story_type, estimate, id, owners, current_state, sign up, sign in, whodunnit, event, fill_in, click_button, within, generate_card_token, subscriptions, create, sign in, transpose, page, have_no_link, have_link, Integer]","0","","0","[[path:app/services/slack_service.rb, msgs:[unexpected '[']]]","1","","0","","0","","[]","[app/views/users/profile/_edit_card.html.erb, new_password, new_registration, new_session, pivotaltracker]","5","79","1","[app/controllers/api/subscriptions_controller.rb, app/controllers/articles_controller.rb, app/controllers/cards_controller.rb, app/controllers/dashboard_controller.rb, app/controllers/documents_controller.rb, app/controllers/event_instances_controller.rb, app/controllers/events_controller.rb, app/controllers/projects_controller.rb, app/controllers/registrations_controller.rb, app/controllers/static_pages_controller.rb, app/controllers/subscriptions_controller.rb, app/controllers/users_controller.rb, app/controllers/visitors_controller.rb, app/helpers/event_helper.rb, app/helpers/static_pages_helper.rb, app/models/event.rb, app/models/event_instance.rb, app/models/payment_source.rb, app/models/plan.rb, app/models/project.rb, app/models/source_repository.rb, app/models/static_page.rb, app/models/subscription.rb, app/models/user.rb, app/presenters/event_instance_presenter.rb, app/presenters/users/user_presenter.rb, app/views/dashboard/index.html.erb, app/views/devise/registrations/_destroy_modal.html.erb, app/views/devise/registrations/edit.html.erb, app/views/devise/registrations/new.html.erb, app/views/devise/sessions/new.html.erb, app/views/disqus/_disqus.html.erb, app/views/documents/show.html.erb, app/views/event_instances/_hangout_button.html.erb, app/views/event_instances/_hangout_status.html.erb, app/views/event_instances/_hangouts.html.erb, app/views/event_instances/_index_basic_info.html.erb, app/views/event_instances/_index_extra_info.html.erb, app/views/event_instances/_index_header.html.erb, app/views/event_instances/edit.html.erb, app/views/event_instances/index.html.erb, app/views/events/_videos.html.erb, app/views/events/edit.html.erb, app/views/events/index.html.erb, app/views/events/new.html.erb, app/views/events/show.html.erb, app/views/layouts/_escalating_call_to_action.html.erb, app/views/layouts/_event_link.html.erb, app/views/layouts/_flash.html.erb, app/views/layouts/_footer.html.erb, app/views/layouts/_head.html.erb, app/views/layouts/_hire_me.html.erb, app/views/layouts/_meta_tags.html.erb, app/views/layouts/_navbar.html.erb, app/views/layouts/_require_users_profile.html.erb, app/views/layouts/_round_banners.html.erb, app/views/projects/_activity.html.erb, app/views/projects/_connections.html.erb, app/views/projects/_documents_list.html.erb, app/views/projects/_highlight_box.html.erb, app/views/projects/_listing.html.erb, app/views/projects/_members_list.html.erb, app/views/projects/_videos_list.html.erb, app/views/projects/index.html.erb, app/views/projects/show.html.erb, app/views/static_pages/show.html.erb, app/views/subscriptions/new.html.erb, app/views/users/_user_avatar.html.erb, app/views/users/_user_list.html.erb, app/views/users/index.html.erb, app/views/users/profile/_detail.html.erb, app/views/users/profile/_modal.html.erb, app/views/users/profile/_premium_mob_upgrade.html.erb, app/views/users/profile/_premium_upgrade.html.erb, app/views/users/profile/_set_level.html.erb, app/views/users/profile/_summary.html.erb, app/views/users/profile/_videos.html.erb, app/views/users/show.html.erb, app/views/visitors/index.html.erb]","[app/views/events/show.html.erb]","0.0126582278","1.0","[51a569a8a17436dc74cca88fd2eb635dfb1020f0, f8f10f57719740da018093e7d1dc52338595e8e3, e4961efbd4ade78921f59ecf4624b94ab6ef0377]","4.851 seconds","5.1","[cucumber-rails, rspec-rails, simplecov]","7","[]","53","70","[app/controllers/api/subscriptions_controller.rb, app/controllers/articles_controller.rb, app/controllers/cards_controller.rb, app/controllers/dashboard_controller.rb, app/controllers/documents_controller.rb, app/controllers/event_instances_controller.rb, app/controllers/events_controller.rb, app/controllers/projects_controller.rb, app/controllers/registrations_controller.rb, app/controllers/static_pages_controller.rb, app/controllers/subscriptions_controller.rb, app/controllers/users_controller.rb, app/controllers/visitors_controller.rb, app/helpers/event_helper.rb, app/helpers/static_pages_helper.rb, app/models/project.rb, app/presenters/users/user_presenter.rb, app/views/dashboard/index.html.erb, app/views/devise/registrations/_destroy_modal.html.erb, app/views/devise/registrations/edit.html.erb, app/views/devise/registrations/new.html.erb, app/views/devise/sessions/new.html.erb, app/views/disqus/_disqus.html.erb, app/views/documents/show.html.erb, app/views/event_instances/_hangout_button.html.erb, app/views/event_instances/_hangout_status.html.erb, app/views/event_instances/_hangouts.html.erb, app/views/event_instances/_index_basic_info.html.erb, app/views/event_instances/_index_extra_info.html.erb, app/views/event_instances/_index_header.html.erb, app/views/event_instances/edit.html.erb, app/views/event_instances/index.html.erb, app/views/events/_videos.html.erb, app/views/events/edit.html.erb, app/views/events/index.html.erb, app/views/events/new.html.erb, app/views/events/show.html.erb, app/views/layouts/_escalating_call_to_action.html.erb, app/views/layouts/_event_link.html.erb, app/views/layouts/_flash.html.erb, app/views/layouts/_footer.html.erb, app/views/layouts/_head.html.erb, app/views/layouts/_hire_me.html.erb, app/views/layouts/_meta_tags.html.erb, app/views/layouts/_navbar.html.erb, app/views/layouts/_require_users_profile.html.erb, app/views/layouts/_round_banners.html.erb, app/views/projects/_activity.html.erb, app/views/projects/_connections.html.erb, app/views/projects/_documents_list.html.erb, app/views/projects/_highlight_box.html.erb, app/views/projects/_listing.html.erb, app/views/projects/_members_list.html.erb, app/views/projects/_videos_list.html.erb, app/views/projects/index.html.erb, app/views/projects/show.html.erb, app/views/static_pages/show.html.erb, app/views/subscriptions/new.html.erb, app/views/users/_user_avatar.html.erb, app/views/users/_user_list.html.erb, app/views/users/index.html.erb, app/views/users/profile/_detail.html.erb, app/views/users/profile/_modal.html.erb, app/views/users/profile/_premium_mob_upgrade.html.erb, app/views/users/profile/_premium_upgrade.html.erb, app/views/users/profile/_set_level.html.erb, app/views/users/profile/_summary.html.erb, app/views/users/profile/_videos.html.erb, app/views/users/show.html.erb, app/views/visitors/index.html.erb]","false","0.06024096363753811","0","","0",""
"websiteone","3","[10-10-2018, 12-10-2018, 16-10-2018, 17-10-2018]","8","21","[premium mob events should not ping public channels (#2710)  * fixes #2677  * Edit private event hangout url pings slack appropriately  * sorts the unit tests on slack services  * Unit tests, implement post premium mob notification  * Acceptance, unit tests for editing private event youtube links  * test that we do not post hangout updates during youtube updates and fix that  * Update acceptance tests , Add intermittent failing test tag (#2719)  , Refactor GitHub languages job (#2642)  * Refactor Github languages job  * Refactor  * Update vcr cassette , Update rubocop.yml to latest release (#2698)  , Make entire hovered home page circles clickable (#2658)  * Make entire hovered home page circles clickable  * Update _round_banners.html.erb  * Update _round_banners.html.erb  * Update _round_banners.html.erb , Fix issue 2682  Better spacing between embedded video and video links (#2700)  Better spacing between embedded video and video links, 2705 refactor cucumber sponsors banners, fixes [TOO_LONG]","11","10","10","9","9","[fill_in, click_button, within, login_as, hashes, each, current_path, eq, generate_card_token, subscriptions, delete, create, id, merge, page, raise, hangout_url, change my password, sign up, sign in, story_type, estimate, owners, current_state, send message, whodunnit, event, blank?, send message, story_type, estimate, id, owners, current_state, sign up, sign in, whodunnit, event, page, execute_script, fill_in, find, trigger, allow, receive, have_received, not_to, notifications, present?, Integer, all, click_button, sleep, click_link_or_button, have_text, to_not, has_link?, be_falsey, be_truthy, to_i, update, save!, times, have_selector, within, each, friendly_id]","0","","0","[[path:app/services/slack_service.rb, msgs:[unexpected '[']]]","1","","0","","0","","[]","[app/views/users/profile/_edit_card.html.erb, new_password, new_registration, new_session, pivotaltracker, scrums_index]","6","94","14","[app/controllers/api/subscriptions_controller.rb, app/controllers/articles_controller.rb, app/controllers/av_dashboard_tokens_controller.rb, app/controllers/cards_controller.rb, app/controllers/dashboard_controller.rb, app/controllers/documents_controller.rb, app/controllers/event_instances_controller.rb, app/controllers/events_controller.rb, app/controllers/hookups_controller.rb, app/controllers/projects_controller.rb, app/controllers/registrations_controller.rb, app/controllers/static_pages_controller.rb, app/controllers/subscriptions_controller.rb, app/controllers/users_controller.rb, app/controllers/visitors_controller.rb, app/helpers/event_helper.rb, app/helpers/features.rb, app/helpers/static_pages_helper.rb, app/models/article.rb, app/models/event.rb, app/models/event_instance.rb, app/models/payment_source.rb, app/models/plan.rb, app/models/project.rb, app/models/source_repository.rb, app/models/static_page.rb, app/models/subscription.rb, app/models/user.rb, app/presenters/event_instance_presenter.rb, app/presenters/users/user_presenter.rb, app/services/slack_service.rb, app/views/articles/_article.html.erb, app/views/articles/index.html.erb, app/views/articles/show.html.erb, app/views/av_dashboard_tokens/create.html.erb, app/views/dashboard/index.html.erb, app/views/devise/passwords/edit.html.erb, app/views/devise/registrations/_destroy_modal.html.erb, app/views/devise/registrations/edit.html.erb, app/views/devise/registrations/new.html.erb, app/views/devise/sessions/new.html.erb, app/views/disqus/_disqus.html.erb, app/views/documents/show.html.erb, app/views/event_instances/_hangout_button.html.erb, app/views/event_instances/_hangout_status.html.erb, app/views/event_instances/_hangouts.html.erb, app/views/event_instances/_index_basic_info.html.erb, app/views/event_instances/_index_extra_info.html.erb, app/views/event_instances/_index_header.html.erb, app/views/event_instances/edit.html.erb, app/views/event_instances/index.html.erb, app/views/events/_videos.html.erb, app/views/events/edit.html.erb, app/views/events/index.html.erb, app/views/events/new.html.erb, app/views/events/show.html.erb, app/views/hookups/index.html.erb, app/views/layouts/_escalating_call_to_action.html.erb, app/views/layouts/_event_link.html.erb, app/views/layouts/_flash.html.erb, app/views/layouts/_footer.html.erb, app/views/layouts/_head.html.erb, app/views/layouts/_hire_me.html.erb, app/views/layouts/_meta_tags.html.erb, app/views/layouts/_navbar.html.erb, app/views/layouts/_require_users_profile.html.erb, app/views/layouts/_round_banners.html.erb, app/views/projects/_activity.html.erb, app/views/projects/_connections.html.erb, app/views/projects/_documents_list.html.erb, app/views/projects/_form.html.erb, app/views/projects/_highlight_box.html.erb, app/views/projects/_listing.html.erb, app/views/projects/_members_list.html.erb, app/views/projects/_source_repository_fields.html.erb, app/views/projects/_videos_list.html.erb, app/views/projects/edit.html.erb, app/views/projects/index.html.erb, app/views/projects/new.html.erb, app/views/projects/show.html.erb, app/views/static_pages/show.html.erb, app/views/subscriptions/new.html.erb, app/views/users/_user_avatar.html.erb, app/views/users/_user_list.html.erb, app/views/users/index.html.erb, app/views/users/profile/_detail.html.erb, app/views/users/profile/_modal.html.erb, app/views/users/profile/_premium_mob_upgrade.html.erb, app/views/users/profile/_premium_upgrade.html.erb, app/views/users/profile/_set_level.html.erb, app/views/users/profile/_summary.html.erb, app/views/users/profile/_videos.html.erb, app/views/users/show.html.erb, app/views/visitors/index.html.erb]","[app/controllers/projects_controller.rb, app/helpers/event_helper.rb, app/jobs/github_languages_job.rb, app/models/event_instance.rb, app/models/null_user.rb, app/models/project.rb, app/services/slack_service.rb, app/views/application/_edit_card.html.erb, app/views/cards/edit.html.erb, app/views/events/show.html.erb, app/views/layouts/_round_banners.html.erb, app/views/layouts/_sponsors.html.erb, app/views/projects/_listing.html.erb, app/views/users/profile/_summary.html.erb]","0.0957446809","0.6428571429","[5f5c3e195f894d87a73b08308cdcdf08eebbf2ae, 53358a2b51b33825af00005114e5e53b1bb3384a, 8cffa1e9bce8cb6c7e8cae583d1d1d8cf4e87f4a, e6c9a515a463141b2690fa406bbec09c20a86a63, fd94f191705b675e17df4ccf3c697b7b3148b501, ffc002c472c3d39b5f0280d8e0fbb3f6742c3a76, 13e3d8e5b51bbb1b7a1983c23e399dd3db7fb079, 73fdcc5ced478ecce44c01e3bbc98c8abe32c4be, ce33e226bc399411ac64d204bf379ac6b3485662, 563e9b7600c86cb5fc01d983d929faf22cbba915, 28c5ce36580416eddc40e119fabd5f112964bb18, 1025f5add57e9b5d641f28cad614f4fc90cd5cfa, c0f20f8ae7e7feb95c752c7e6165ce931fa3f094, 6ea2e21a960f4187a937d7228fd469647e4cc359, ecb68b9f272f9c90491e15ed7aaffdbe9fbac8f0, be705a7306e4f43417c348f44618e50e635413fd, f572105c8e64ff344bd21f184b947787d94b1610, bd93902dc18aad839265d122110c0a697366b9bd, 57c1a6725c26f2669711ba527f5672302d36998a, 8d7f8213aaa9b96c754040e5feb50619ef523517, 20736dbf941ae721ba8fe709971c43a4014fe9fb]","15.555 seconds","5.1","[cucumber-rails, rspec-rails, simplecov]","14","[]","63","82","[app/controllers/api/subscriptions_controller.rb, app/controllers/articles_controller.rb, app/controllers/av_dashboard_tokens_controller.rb, app/controllers/cards_controller.rb, app/controllers/dashboard_controller.rb, app/controllers/documents_controller.rb, app/controllers/event_instances_controller.rb, app/controllers/events_controller.rb, app/controllers/hookups_controller.rb, app/controllers/projects_controller.rb, app/controllers/registrations_controller.rb, app/controllers/static_pages_controller.rb, app/controllers/subscriptions_controller.rb, app/controllers/users_controller.rb, app/controllers/visitors_controller.rb, app/helpers/event_helper.rb, app/helpers/static_pages_helper.rb, app/models/project.rb, app/presenters/users/user_presenter.rb, app/views/articles/_article.html.erb, app/views/articles/index.html.erb, app/views/articles/show.html.erb, app/views/av_dashboard_tokens/create.html.erb, app/views/dashboard/index.html.erb, app/views/devise/passwords/edit.html.erb, app/views/devise/registrations/_destroy_modal.html.erb, app/views/devise/registrations/edit.html.erb, app/views/devise/registrations/new.html.erb, app/views/devise/sessions/new.html.erb, app/views/disqus/_disqus.html.erb, app/views/documents/show.html.erb, app/views/event_instances/_hangout_button.html.erb, app/views/event_instances/_hangout_status.html.erb, app/views/event_instances/_hangouts.html.erb, app/views/event_instances/_index_basic_info.html.erb, app/views/event_instances/_index_extra_info.html.erb, app/views/event_instances/_index_header.html.erb, app/views/event_instances/edit.html.erb, app/views/event_instances/index.html.erb, app/views/events/_videos.html.erb, app/views/events/edit.html.erb, app/views/events/index.html.erb, app/views/events/new.html.erb, app/views/events/show.html.erb, app/views/hookups/index.html.erb, app/views/layouts/_escalating_call_to_action.html.erb, app/views/layouts/_event_link.html.erb, app/views/layouts/_flash.html.erb, app/views/layouts/_footer.html.erb, app/views/layouts/_head.html.erb, app/views/layouts/_hire_me.html.erb, app/views/layouts/_meta_tags.html.erb, app/views/layouts/_navbar.html.erb, app/views/layouts/_require_users_profile.html.erb, app/views/layouts/_round_banners.html.erb, app/views/projects/_activity.html.erb, app/views/projects/_connections.html.erb, app/views/projects/_documents_list.html.erb, app/views/projects/_form.html.erb, app/views/projects/_highlight_box.html.erb, app/views/projects/_listing.html.erb, app/views/projects/_members_list.html.erb, app/views/projects/_source_repository_fields.html.erb, app/views/projects/_videos_list.html.erb, app/views/projects/edit.html.erb, app/views/projects/index.html.erb, app/views/projects/new.html.erb, app/views/projects/show.html.erb, app/views/static_pages/show.html.erb, app/views/subscriptions/new.html.erb, app/views/users/_user_avatar.html.erb, app/views/users/_user_list.html.erb, app/views/users/index.html.erb, app/views/users/profile/_detail.html.erb, app/views/users/profile/_modal.html.erb, app/views/users/profile/_premium_mob_upgrade.html.erb, app/views/users/profile/_premium_upgrade.html.erb, app/views/users/profile/_set_level.html.erb, app/views/users/profile/_summary.html.erb, app/views/users/profile/_videos.html.erb, app/views/users/show.html.erb, app/views/visitors/index.html.erb]","false","0.30000000010355554","0","","0",""
"websiteone","6","[01-05-2018, 02-05-2018]","2","8","[Emails for project joins are missing user name (#2328)  * Update alert Mailer method to use email instead of username  * Update mailer spec , Bump puffing-billy from 1.0.0 to 1.1.0 (#2317)  Bumps [puffing-billy](https://github.com/oesmith/puffing-billy) from 1.0.0 to 1.1.0. - [Release notes](https://github.com/oesmith/puffing-billy/releases) - [Changelog](https://github.com/oesmith/puffing-billy/blob/master/CHANGELOG.md) - [Commits](https://github.com/oesmith/puffing-billy/commits)  Signed-off-by: dependabot[bot] <support@dependabot.com>, Bump apipie-rails from 0.5.7 to 0.5.8 (#2318)  Bumps [apipie-rails](https://github.com/Apipie/apipie-rails) from 0.5.7 to 0.5.8. - [Release notes](https://github.com/Apipie/apipie-rails/releases) - [Changelog](https://github.com/Apipie/apipie-rails/blob/master/CHANGELOG.md) - [Commits](https://github.com/Apipie/apipie-rails/compare/v0.5.7...v0.5.8)  Signed-off-by: dependabot[bot] <support@dependabot.com>, Bump webmock from 3.3.0 to 3.4.0 (#2319)  Bu [TOO_LONG]","3","1","1","0","0","[current_path, fill_in, click_button, within, sign in, hashes, present?, id, merge, projects, new, source_repositories, build, tag_list, save!, each, user_id, email, nil?, eq, subject, include, nil?, body, click_link_or_button]","0","","0","[[path:app/services/slack_service.rb, msgs:[unexpected '[']]]","1","","0","","0","","[]","[new_password, new_registration]","2","3","1","[app/models/project.rb, app/models/user.rb, app/views/devise/sessions/new.html.erb]","[app/mailers/mailer.rb]","0.0","0.0","[a38cc476b2d0d98c78facccf1c667bc851d0918a, 237b510a49448e8e85c0641498e9568781c3f365, d26cc558a8a0e7272d865f230030849c8d99c885, cf3aad0416848c1d9692893ad431840239724625, b837c7546b1dfe5781e5109550dec89571e86ee3, aa684f4315da07c7754f57ee7ee2404ae1e6464a, 88436b456bf1f7700477e9d53b15e234fa532940, 06d7e7afb2ab72f2a6b7862b1b0283b2092374e0]","0.887 seconds","5.1","[cucumber-rails, rspec-rails, simplecov]","2","[]","1","1","[app/views/devise/sessions/new.html.erb]","false","0.0","0","","0",""
"websiteone","7","[27-04-2018]","1","2","[add cucumber non logged in scenario , add cucumber test for karma js link to activity ]","1","2","2","3","3","[hashes, each, downcase!, pending, fill_in, click_button, within, sign in, send message, story_type, estimate, id, owners, current_state, whodunnit, event, sign up, click_link, page, have_content, not_to, present?, id, merge, projects, new, source_repositories, build, tag_list, save!, nil?, to_i, follow]","0","","0","[[path:app/services/slack_service.rb, msgs:[unexpected '[']]]","1","","0","","0","","[]","[new_password, new_registration, new_session, pivotaltracker]","4","77","3","[app/controllers/articles_controller.rb, app/controllers/cards_controller.rb, app/controllers/dashboard_controller.rb, app/controllers/documents_controller.rb, app/controllers/event_instances_controller.rb, app/controllers/events_controller.rb, app/controllers/newsletters_controller.rb, app/controllers/projects_controller.rb, app/controllers/registrations_controller.rb, app/controllers/static_pages_controller.rb, app/controllers/subscriptions_controller.rb, app/controllers/users_controller.rb, app/controllers/visitors_controller.rb, app/helpers/event_helper.rb, app/models/commit_count.rb, app/models/event_instance.rb, app/models/newsletter.rb, app/models/project.rb, app/models/source_repository.rb, app/models/user.rb, app/presenters/event_instance_presenter.rb, app/presenters/users/user_presenter.rb, app/views/dashboard/index.html.erb, app/views/devise/registrations/_destroy_modal.html.erb, app/views/devise/registrations/edit.html.erb, app/views/devise/registrations/new.html.erb, app/views/devise/sessions/new.html.erb, app/views/disqus/_disqus.html.erb, app/views/documents/show.html.erb, app/views/event_instances/_hangout_button.html.erb, app/views/event_instances/_hangout_status.html.erb, app/views/event_instances/_hangouts.html.erb, app/views/event_instances/_index_basic_info.html.erb, app/views/event_instances/_index_extra_info.html.erb, app/views/event_instances/_index_header.html.erb, app/views/event_instances/edit.html.erb, app/views/event_instances/index.html.erb, app/views/events/edit.html.erb, app/views/events/index.html.erb, app/views/events/new.html.erb, app/views/events/show.html.erb, app/views/layouts/_escalating_call_to_action.html.erb, app/views/layouts/_event_link.html.erb, app/views/layouts/_flash.html.erb, app/views/layouts/_footer.html.erb, app/views/layouts/_head.html.erb, app/views/layouts/_hire_me.html.erb, app/views/layouts/_meta_tags.html.erb, app/views/layouts/_navbar.html.erb, app/views/layouts/_require_users_profile.html.erb, app/views/layouts/_round_banners.html.erb, app/views/newsletters/_form.html.erb, app/views/newsletters/edit.html.erb, app/views/newsletters/index.html.erb, app/views/newsletters/new.html.erb, app/views/newsletters/show.html.erb, app/views/projects/_activity.html.erb, app/views/projects/_connections.html.erb, app/views/projects/_documents_list.html.erb, app/views/projects/_highlight_box.html.erb, app/views/projects/_listing.html.erb, app/views/projects/_members_list.html.erb, app/views/projects/_videos_list.html.erb, app/views/projects/index.html.erb, app/views/projects/show.html.erb, app/views/static_pages/show.html.erb, app/views/users/_user_avatar.html.erb, app/views/users/_user_list.html.erb, app/views/users/index.html.erb, app/views/users/profile/_detail.html.erb, app/views/users/profile/_modal.html.erb, app/views/users/profile/_premium_mob_upgrade.html.erb, app/views/users/profile/_premium_upgrade.html.erb, app/views/users/profile/_summary.html.erb, app/views/users/profile/_videos.html.erb, app/views/users/show.html.erb, app/views/visitors/index.html.erb]","[app/views/users/profile/_detail.html.erb, app/views/users/profile/_summary.html.erb, app/views/users/show.html.erb]","0.038961039","1.0","[50999cbcc4b5da8e9e24fc2cab7862b9d184d09c, 13fa07356990560638164ca4f82baccc195894da]","3.560 seconds","5.1","[cucumber-rails, rspec-rails, simplecov]","4","[]","55","70","[app/controllers/articles_controller.rb, app/controllers/cards_controller.rb, app/controllers/dashboard_controller.rb, app/controllers/documents_controller.rb, app/controllers/event_instances_controller.rb, app/controllers/events_controller.rb, app/controllers/newsletters_controller.rb, app/controllers/projects_controller.rb, app/controllers/registrations_controller.rb, app/controllers/static_pages_controller.rb, app/controllers/subscriptions_controller.rb, app/controllers/users_controller.rb, app/controllers/visitors_controller.rb, app/helpers/event_helper.rb, app/presenters/users/user_presenter.rb, app/views/dashboard/index.html.erb, app/views/devise/registrations/_destroy_modal.html.erb, app/views/devise/registrations/edit.html.erb, app/views/devise/registrations/new.html.erb, app/views/devise/sessions/new.html.erb, app/views/disqus/_disqus.html.erb, app/views/documents/show.html.erb, app/views/event_instances/_hangout_button.html.erb, app/views/event_instances/_hangout_status.html.erb, app/views/event_instances/_hangouts.html.erb, app/views/event_instances/_index_basic_info.html.erb, app/views/event_instances/_index_extra_info.html.erb, app/views/event_instances/_index_header.html.erb, app/views/event_instances/edit.html.erb, app/views/event_instances/index.html.erb, app/views/events/edit.html.erb, app/views/events/index.html.erb, app/views/events/new.html.erb, app/views/events/show.html.erb, app/views/layouts/_escalating_call_to_action.html.erb, app/views/layouts/_event_link.html.erb, app/views/layouts/_flash.html.erb, app/views/layouts/_footer.html.erb, app/views/layouts/_head.html.erb, app/views/layouts/_hire_me.html.erb, app/views/layouts/_meta_tags.html.erb, app/views/layouts/_navbar.html.erb, app/views/layouts/_require_users_profile.html.erb, app/views/layouts/_round_banners.html.erb, app/views/newsletters/_form.html.erb, app/views/newsletters/edit.html.erb, app/views/newsletters/index.html.erb, app/views/newsletters/new.html.erb, app/views/newsletters/show.html.erb, app/views/projects/_activity.html.erb, app/views/projects/_connections.html.erb, app/views/projects/_documents_list.html.erb, app/views/projects/_highlight_box.html.erb, app/views/projects/_listing.html.erb, app/views/projects/_members_list.html.erb, app/views/projects/_videos_list.html.erb, app/views/projects/index.html.erb, app/views/projects/show.html.erb, app/views/static_pages/show.html.erb, app/views/users/_user_avatar.html.erb, app/views/users/_user_list.html.erb, app/views/users/index.html.erb, app/views/users/profile/_detail.html.erb, app/views/users/profile/_modal.html.erb, app/views/users/profile/_premium_mob_upgrade.html.erb, app/views/users/profile/_premium_upgrade.html.erb, app/views/users/profile/_summary.html.erb, app/views/users/profile/_videos.html.erb, app/views/users/show.html.erb, app/views/visitors/index.html.erb]","false","0.16853932598851154","0","","0",""
"websiteone","8","[26-04-2018]","1","3","[Bump airbrake from 7.2.1 to 7.3.0 (#2314)  Bumps [airbrake](https://github.com/airbrake/airbrake) from 7.2.1 to 7.3.0. - [Release notes](https://github.com/airbrake/airbrake/releases) - [Changelog](https://github.com/airbrake/airbrake/blob/master/docs/CHANGELOG-pre-v5.txt) - [Commits](https://github.com/airbrake/airbrake/compare/v7.2.1...v7.3.0)  Signed-off-by: dependabot[bot] <support@dependabot.com>, Bump uglifier from 4.1.9 to 4.1.10 (#2306)  Bumps [uglifier](https://github.com/lautis/uglifier) from 4.1.9 to 4.1.10. - [Release notes](https://github.com/lautis/uglifier/releases) - [Changelog](https://github.com/lautis/uglifier/blob/master/CHANGELOG.md) - [Commits](https://github.com/lautis/uglifier/compare/v4.1.9...v4.1.10)  Signed-off-by: dependabot[bot] <support@dependabot.com>, Notify project creator when new people join project (#2294)  * Add cucumber test for notify project creator feature  * Update test steps for notify project creator feature  * Add mailer model method for a [TOO_LONG]","2","1","1","2","2","[current_path, fill_in, click_button, within, sign in, hashes, present?, id, merge, projects, new, source_repositories, build, tag_list, save!, each, user_id, email, nil?, eq, subject, include, nil?, body, click_link_or_button]","0","","0","[[path:app/services/slack_service.rb, msgs:[unexpected '[']]]","1","","0","","0","","[]","[new_password, new_registration]","2","3","3","[app/models/project.rb, app/models/user.rb, app/views/devise/sessions/new.html.erb]","[app/controllers/projects_controller.rb, app/mailers/mailer.rb, app/views/mailer/alert_project_creator_about_new_member.erb]","0.0","0.0","[456a07a4718b8f7784136d507f824f11bd6ba23a, 1238a909a32194705c62ecb74463f1168e3beee8, 1e89450dca60d858b6fb6ded855ba036c8f07d1c]","0.629 seconds","5.1","[cucumber-rails, rspec-rails, simplecov]","3","[]","1","1","[app/views/devise/sessions/new.html.erb]","false","0.0","0","","0",""
"websiteone","16","[23-11-2017, 24-11-2017, 27-11-2017, 28-11-2017, 29-11-2017, 30-11-2017, 04-12-2017, 05-12-2017, 06-12-2017, 07-12-2017, 11-12-2017, 12-12-2017, 13-12-2017, 14-12-2017, 19-12-2017, 20-12-2017, 21-12-2017, 22-12-2017, 02-01-2018, 03-01-2018, 04-01-2018, 05-01-2018, 08-01-2018, 09-01-2018, 10-01-2018]","49","56","[chore(dependencies): Bump font-awesome-rails from 4.7.0.2 to 4.7.0.3 (#2070)  Bumps [font-awesome-rails](https://github.com/bokmann/font-awesome-rails) from 4.7.0.2 to 4.7.0.3. - [Release notes](https://github.com/bokmann/font-awesome-rails/releases/tag/v4.7.0.3) - [Changelog](https://github.com/bokmann/font-awesome-rails/blob/master/CHANGELOG.md) - [Commits](https://github.com/bokmann/font-awesome-rails/compare/v4.7.0.2...v4.7.0.3), chore(dependencies): Bump turbolinks from 5.0.1 to 5.1.0 (#2063)  Bumps [turbolinks](https://github.com/turbolinks/turbolinks) from 5.0.1 to 5.1.0. - [Release notes](https://github.com/turbolinks/turbolinks/releases) - [Commits](https://github.com/turbolinks/turbolinks/compare/v5.0.1...v5.1.0), chore(dependencies): Bump uglifier from 4.1.2 to 4.1.3 (#2059)  Bumps [uglifier](https://github.com/lautis/uglifier) from 4.1.2 to 4.1.3. - [Changelog](https://github.com/lautis/uglifier/blob/master/CHANGELOG.md) - [Commits](https://github.com/lautis/uglifier/comp [TOO_LONG]","4","23","23","5","5","[click_link_or_button, click_link_or_button, eq, page, have_text, to_not, page, have_text, to_not, page, have_css, raise, current_url, request_uri, hangout_url, change my password, sign up, sign in, story_type, estimate, id, owned_by, current_state, send message, whodunnit, event, have_content, hashes, each, current_path, fill_in, click_button, within, generate_card_token, subscriptions, create, id, sign in, send message, story_type, estimate, owned_by, current_state, whodunnit, event, sign up, current_path, pending, to_i, update, save!, times, sign up, sign in, story_type, estimate, id, owned_by, current_state, send message, whodunnit, event, present?, Integer, delete, post, page, driver, cookies, set_cookie, last_response, body, include, all, fill_in, click_button, sleep, driver, within_frame, driver, within_frame, within, subject, nil?, present?, merge, projects, new, source_repositories, build, tag_list, delete_all, nil?, have_text, within, blank?, have_css, not_to]","7","[path:features/step_definitions/projects_steps.rb, size:1]","1","[[path:app/services/slack_service.rb, msgs:[unexpected '[']]]","1","","0","","0","","[]","[new, new_password, new_registration, new_session, pivotaltracker, scrums_index, subscriptions]","7","94","13","[app/controllers/api/subscriptions_controller.rb, app/controllers/articles_controller.rb, app/controllers/cards_controller.rb, app/controllers/dashboard_controller.rb, app/controllers/documents_controller.rb, app/controllers/event_instances_controller.rb, app/controllers/events_controller.rb, app/controllers/hookups_controller.rb, app/controllers/newsletters_controller.rb, app/controllers/projects_controller.rb, app/controllers/registrations_controller.rb, app/controllers/static_pages_controller.rb, app/controllers/subscriptions_controller.rb, app/controllers/users_controller.rb, app/controllers/visitors_controller.rb, app/helpers/event_helper.rb, app/models/article.rb, app/models/event.rb, app/models/event_instance.rb, app/models/newsletter.rb, app/models/payment_source.rb, app/models/plan.rb, app/models/project.rb, app/models/source_repository.rb, app/models/static_page.rb, app/models/subscription.rb, app/models/user.rb, app/presenters/event_instance_presenter.rb, app/presenters/users/user_presenter.rb, app/views/articles/_article.html.erb, app/views/articles/index.html.erb, app/views/articles/show.html.erb, app/views/dashboard/index.html.erb, app/views/devise/passwords/edit.html.erb, app/views/devise/registrations/_destroy_modal.html.erb, app/views/devise/registrations/edit.html.erb, app/views/devise/registrations/new.html.erb, app/views/devise/sessions/new.html.erb, app/views/disqus/_disqus.html.erb, app/views/documents/show.html.erb, app/views/event_instances/_hangout_button.html.erb, app/views/event_instances/_hangout_status.html.erb, app/views/event_instances/_hangouts.html.erb, app/views/event_instances/_index_basic_info.html.erb, app/views/event_instances/_index_extra_info.html.erb, app/views/event_instances/_index_header.html.erb, app/views/event_instances/edit.html.erb, app/views/event_instances/index.html.erb, app/views/events/edit.html.erb, app/views/events/index.html.erb, app/views/events/new.html.erb, app/views/events/show.html.erb, app/views/hookups/index.html.erb, app/views/layouts/_escalating_call_to_action.html.erb, app/views/layouts/_event_link.html.erb, app/views/layouts/_flash.html.erb, app/views/layouts/_footer.html.erb, app/views/layouts/_head.html.erb, app/views/layouts/_hire_me.html.erb, app/views/layouts/_meta_tags.html.erb, app/views/layouts/_navbar.html.erb, app/views/layouts/_require_users_profile.html.erb, app/views/layouts/_round_banners.html.erb, app/views/newsletters/_form.html.erb, app/views/newsletters/edit.html.erb, app/views/newsletters/index.html.erb, app/views/newsletters/new.html.erb, app/views/newsletters/show.html.erb, app/views/projects/_activity.html.erb, app/views/projects/_connections.html.erb, app/views/projects/_documents_list.html.erb, app/views/projects/_form.html.erb, app/views/projects/_highlight_box.html.erb, app/views/projects/_listing.html.erb, app/views/projects/_members_list.html.erb, app/views/projects/_source_repository_fields.html.erb, app/views/projects/_videos_list.html.erb, app/views/projects/edit.html.erb, app/views/projects/index.html.erb, app/views/projects/new.html.erb, app/views/projects/show.html.erb, app/views/static_pages/show.html.erb, app/views/subscriptions/new.html.erb, app/views/users/_user_avatar.html.erb, app/views/users/_user_list.html.erb, app/views/users/index.html.erb, app/views/users/profile/_detail.html.erb, app/views/users/profile/_modal.html.erb, app/views/users/profile/_premium_mob_upgrade.html.erb, app/views/users/profile/_premium_upgrade.html.erb, app/views/users/profile/_summary.html.erb, app/views/users/profile/_videos.html.erb, app/views/users/show.html.erb, app/views/visitors/index.html.erb]","[app/controllers/application_controller.rb, app/controllers/event_instances_controller.rb, app/controllers/subscriptions_controller.rb, app/models/event.rb, app/models/source_repository.rb, app/models/subscription.rb, app/services/slack_service.rb, app/views/events/index.html.erb, app/views/layouts/_footer.html.erb, app/views/layouts/_head.html.erb, app/views/mailer/send_welcome_message.html.erb, app/views/projects/_connections.html.erb, lib/custom_errors.rb]","0.0957446809","0.6923076923","[5b11cabbecc7ec56038eb4928b7aa764cc0c1139, 64f1ebaf7b1f455cd7510df08a58183643cf19e2, af641cab61a61014ee4fa1603138a1e7f7f70e8c, 95b93418742b2c162f9d5ca5fffc582db5f9fec1, da8963d665cddce332e961de0467727304997962, 7d5bc76ca3bc3b3652956bb5a38d73834506fd42, c403204674d30b5de49a777fa69a219c478327e2, 7e120b68ee1797e0c58792b8e2caa1e507c5fd1e, c78f38a8eb95a23d1d0c86f650683de36da1c89b, b1aa2bcffe5b84301261382b403f0ecb253e17f4, 44a8f8a49a047a5ebef6513c37832794020386e7, 022d53f8220420345c8f1bb6c7973594824e0f8d, 106744bfc1be09d782dca16dabb61348f7cdf6a0, f1bdc16de2fb703b2d3002b6e1db025dedc36151, 394128b7a5c232cd8a28bc667d87825580be8a90, 0fb210103649c8f61322919e963bdeab10fced64, 8448e2582474d1be226ce4801f6d53fd5ab07f3a, 7f68d7b42fc57d3577a091bc77ba555421b115de, 571f398a4993c453eda05eedff410530ee880741, 08a88e40868c585ee0ba70d9bac8bb146102e04c, 0dad3d13b531461acfdb10fc51aa9558e364dd5a, 7baa8bbd71731552ac393214e0b3f6a9bc14e146, 75e2e223dc21578f55fe3ca3fe85e2a815717323, aaa60749ba9bcf62e4dbc1fdc80272aed4ce5244, 8d7c0e7bed054966bc2301911cea6a2579594d7b, 3841cdedd46af81fd48c6eb949ae9b809debbf69, 0f87dd1ca0b51892f733b36b6bcf7faec6d7e58c, 5522841bf24c725030bac6910a94d9855f90e9d0, b2fbf5dc909f09a96c91d94b81413b86c662c7c9, 5b6741c3d91cd7f902778a29e77f2387c46fd1b2, 94d3da98095b812f31810471354302516a1ad3d8, dc8356415632d44ed5c925e5e0ed230ce3c7bb3d, 1fea9f8c74d8393b51e9b44eca0d0521a7a832db, 447ac06446fe4103ff7f7dd9452df5553aa1e6ce, 8af216ac6cca96ed06c6998e9d6d0dc2b789d007, 9f6eae88141dfbce3469120e4f612c6eb8d2ce98, 5f6427216e9793d2f7774dc6648673bc97dcaef6, bda6ba3a382e7021071acf46595d91ae9f22e636, f62e8749ab8b6b02c64bfc59ef914072e652192d, d3572909336db7252cd6230742287df44918416d, baacbe5f8a561c0ec76b289a3d1d38afde5ca4ce, 1206bfbf454fda89d8431ec77b5022e18bae0a99, f08d48b976cc2b9584cc7eb89effb964a9a1fe26, b2f16795536c89b1e95c6dba62ebe6202da154a0, e49ffcba0c6d8f5ff8cc1d293234ec5f42618904, c8a5ecbba20a85eb259ef2a6808b869cecb1a6b5, 9719b953b82670aecbdfd26d8a24e17f8afca88f, d6518e811e3e3e2d3afac1b95abb31a635336d2e, 4cffbccb0447ecf47d9f19ce783169187cf277f0, 341caeb154dd4571485d4c68a4511b8e446bfdf6, 0f34c5ab8ddd1ee253314252ec3e34458ff071d6, 782ad176693d660d01578196e6b39ed283a92fe8, 9c5f314f607a6f87a78e7cad125b605bfa4a5ced, 1668a76c017b976f8daf9a823d5fac02f0a084b2, f13b1ef7abe905c8bfd820a3f4012f6bd187baa5, 1e23f68c3ad3044a8222337c3a6a704db9c04b73]","15.281 seconds","4.2.10","[cucumber-rails, rspec-rails, simplecov, coveralls, factory_girl]","28","[]","65","82","[app/controllers/api/subscriptions_controller.rb, app/controllers/articles_controller.rb, app/controllers/cards_controller.rb, app/controllers/dashboard_controller.rb, app/controllers/documents_controller.rb, app/controllers/event_instances_controller.rb, app/controllers/events_controller.rb, app/controllers/hookups_controller.rb, app/controllers/newsletters_controller.rb, app/controllers/projects_controller.rb, app/controllers/registrations_controller.rb, app/controllers/static_pages_controller.rb, app/controllers/subscriptions_controller.rb, app/controllers/users_controller.rb, app/controllers/visitors_controller.rb, app/helpers/event_helper.rb, app/presenters/users/user_presenter.rb, app/views/articles/_article.html.erb, app/views/articles/index.html.erb, app/views/articles/show.html.erb, app/views/dashboard/index.html.erb, app/views/devise/passwords/edit.html.erb, app/views/devise/registrations/_destroy_modal.html.erb, app/views/devise/registrations/edit.html.erb, app/views/devise/registrations/new.html.erb, app/views/devise/sessions/new.html.erb, app/views/disqus/_disqus.html.erb, app/views/documents/show.html.erb, app/views/event_instances/_hangout_button.html.erb, app/views/event_instances/_hangout_status.html.erb, app/views/event_instances/_hangouts.html.erb, app/views/event_instances/_index_basic_info.html.erb, app/views/event_instances/_index_extra_info.html.erb, app/views/event_instances/_index_header.html.erb, app/views/event_instances/edit.html.erb, app/views/event_instances/index.html.erb, app/views/events/edit.html.erb, app/views/events/index.html.erb, app/views/events/new.html.erb, app/views/events/show.html.erb, app/views/hookups/index.html.erb, app/views/layouts/_escalating_call_to_action.html.erb, app/views/layouts/_event_link.html.erb, app/views/layouts/_flash.html.erb, app/views/layouts/_footer.html.erb, app/views/layouts/_head.html.erb, app/views/layouts/_hire_me.html.erb, app/views/layouts/_meta_tags.html.erb, app/views/layouts/_navbar.html.erb, app/views/layouts/_require_users_profile.html.erb, app/views/layouts/_round_banners.html.erb, app/views/newsletters/_form.html.erb, app/views/newsletters/edit.html.erb, app/views/newsletters/index.html.erb, app/views/newsletters/new.html.erb, app/views/newsletters/show.html.erb, app/views/projects/_activity.html.erb, app/views/projects/_connections.html.erb, app/views/projects/_documents_list.html.erb, app/views/projects/_form.html.erb, app/views/projects/_highlight_box.html.erb, app/views/projects/_listing.html.erb, app/views/projects/_members_list.html.erb, app/views/projects/_source_repository_fields.html.erb, app/views/projects/_videos_list.html.erb, app/views/projects/edit.html.erb, app/views/projects/index.html.erb, app/views/projects/new.html.erb, app/views/projects/show.html.erb, app/views/static_pages/show.html.erb, app/views/subscriptions/new.html.erb, app/views/users/_user_avatar.html.erb, app/views/users/_user_list.html.erb, app/views/users/index.html.erb, app/views/users/profile/_detail.html.erb, app/views/users/profile/_modal.html.erb, app/views/users/profile/_premium_mob_upgrade.html.erb, app/views/users/profile/_premium_upgrade.html.erb, app/views/users/profile/_summary.html.erb, app/views/users/profile/_videos.html.erb, app/views/users/show.html.erb, app/views/visitors/index.html.erb]","false","0.30821917818239825","0","","0",""
"websiteone","53","[11-07-2016, 12-07-2016]","2","3","[sort by karma and add icon (#1212)  * sort by karma and add icon  * beefs up karma to include starting hangouts that at least one other person joined and github commits and authentication hookups , Refactors filter by title to go with grain of existing (#1207)  * adds mentor page  * Adding support for premium view  * has title of directory and #users adjust according to title search  * fixes view spec failures  * get filtering by title to go with grain of current system , 759 allow non pivotal links in project management (#1194)  * test case for non pivotal tracker  * removed feature test for invalid pivotal tracker  * validation change to accomodate non pt project tracker  * extra variable for activity message  * project tracker message  * removed validator spec for invalid pt url  * view specs  * minor changes  * reapplying changes after refactor ]","2","3","3","1","1","[fill_in, click_button, within, sign in, click_link_or_button, fill_in, rows, flatten, page, have_text, send, each, to_not, have_css, current_path, url_for_title, eq, find, select_option, click, hashes, present?, id, merge, projects, new, tag_list, save!, each, github_url, nil?, rows, fill_in, each, within, raise]","7","[path:features/step_definitions/projects_steps.rb, size:1]","1","","0","","0","","0","","[]","[new_password, new_registration]","2","4","8","[app/models/project.rb, app/models/user.rb, app/presenters/event_instance_presenter.rb, app/views/devise/sessions/new.html.erb]","[app/controllers/projects_controller.rb, app/controllers/users_controller.rb, app/models/user.rb, app/services/karma_calculator.rb, app/views/projects/_activity.html.erb, app/views/projects/_form.html.erb, app/views/users/_user_list.html.erb, lib/validators/pivotal_tracker_url_validator.rb]","0.25","0.125","[16d9707f2226b8123b0502fdcd4bd936f324cb75, dbde2cf477a37a8b29f130c6d12766df09bf3075, 5d6ad6e6a83a2b89dc474de1079598b01ac46edd]","0.756 seconds","4.2.6","[cucumber-rails, rspec-rails, simplecov, coveralls, factory_girl]","3","[]","1","1","[app/views/devise/sessions/new.html.erb]","false","0.1388888888888889","0","","0",""
