"Repository","https://github.com/alphagov/whitehall.git"
"Tasks with empty IReal","0"
"Tasks with no-empty IReal","16"
"Tasks with relevant AST error","0"
"Tasks with AST error of Gherkin files","0"
"Tasks with AST error of StepDef files","0"
"Tasks with AST error of production files","0"
"Tasks with AST error of unit test files","0"
"Tasks with step match error","0"
"Tasks without required gems","0"
"Tasks with changed stepdef","15"
"Tasks with changed Gherkin","16"
"Tasks with implemented Gherkin scenarios","16"
"All invalid tasks","0"
"All valid tasks (Gherkin scenario, no empty IReal, no error)","16"
"Valid tasks, but empty ITest","0"
"Valid tasks, no empty ITest, but zero precision-recall","3"
"Valid tasks, no empty ITest, no zero precision-recall","13"
"Project","Task","Date","#Days","#Commits","Commit_Message","#Devs","#Gherkin_Tests","#Impl_Gherkin_Tests","#StepDef","#Impl_StepDef","Methods_Unknown_Type","#Step_Call","Step_Match_Errors","#Step_Match_Error","AST_Errors","#AST_Errors","Gherkin_AST_Errors","#Gherkin_AST_Errors","Steps_AST_Errors","#Steps_AST_Errors","Renamed_Files","Deleted_Files","NotFound_Views","#Views","#TestI","#TaskI","TestI","TaskI","Precision","Recall","Hashes","Timestamp","Rails","Gems","#Visit_Call","Lost_visit_call","#Views_ITest","#Code_View_Analysis","Code_View_Analysis","Has_Merge","F2","#Multiple_Step_Matches","Multiple_Step_Matches","#Generic_Step_Keyword","Generic_Step_Keyword"
"whitehall","1000","[12-05-2017, 15-05-2017]","4","7","[Update warning text for foreign language only news articles , Toggle foreign language field visibility based on news article type , Refactor admin edition form js test  One of the problems with the fixture in this file is that it’s very generic and does not represent any specific page in Whitehall. We attempt to split up the fixture into separate parts so that the tests can load only the HTML fixtures that they are testing and to make the fixture more adaptable and configurable. This is in preparation for adding tests specific to News Articles. , Add model validations to News Article for foreign language only  The model should refuse and NewsArticles that are _not_ of type ‘WorldLocationNews’ with a foreign language as primary locale. Eventually the functionality to select a foreign language will only be revealed when the correct news type is selected in the UI via Javascript. , Add brackets to news_article_step definitions  To make it easier for code editors to do syntax highlightin [TOO_LONG]","1","5","5","7","7","[begin_drafting_news_article, click_button, has_content?, record_css_selector, within, has_no_css?, nil?, refute, find, visible?, select_option, fill_in_news_article_fields, click_link, has_css?, fill_in, within, find_field, evaluate_script, execute_script, to_json, click, choose, has_no_css?, see_all_link, worldwide_organisation, create, gsub, code, save!, has_css?, find_by]","0","","0","","0","","0","","0","","[]","[atom]","1","69","4","[app/controllers/admin/dashboard_controller.rb, app/controllers/admin/edition_workflow_controller.rb, app/controllers/admin/editions_controller.rb, app/controllers/admin/find_in_admin_bookmarklet_controller.rb, app/controllers/admin/world_locations_controller.rb, app/controllers/api/world_locations_controller.rb, app/controllers/world_locations_controller.rb, app/helpers/admin/edition_routes_helper.rb, app/helpers/email_signup_helper.rb, app/helpers/filter_routes_helper.rb, app/helpers/public_document_routes_helper.rb, app/models/admin/edition_filter.rb, app/models/admin/statistics_announcement_filter.rb, app/models/classification.rb, app/models/classification_featuring.rb, app/models/corporate_information_page.rb, app/models/document.rb, app/models/edition.rb, app/models/feature.rb, app/models/feature_list.rb, app/models/featured_policy.rb, app/models/frontend/statistics_announcements_filter.rb, app/models/news_article.rb, app/models/offsite_link.rb, app/models/organisation.rb, app/models/person.rb, app/models/role.rb, app/models/sitewide_setting.rb, app/models/speech_type.rb, app/models/topic.rb, app/models/user.rb, app/models/world_location.rb, app/presenters/api/paginator.rb, app/presenters/email_signup_information_presenter.rb, app/presenters/feature_presenter.rb, app/presenters/promotional_feature_item_presenter.rb, app/presenters/role_presenter.rb, app/services/service_listeners/author_notifier.rb, app/views/admin/dashboard/_document_table.html.erb, app/views/admin/dashboard/index.html.erb, app/views/admin/editions/_filter_options.html.erb, app/views/admin/editions/_search_results.html.erb, app/views/admin/editions/index.html.erb, app/views/admin/find_in_admin_bookmarklet/_bookmarklet.erb, app/views/admin/find_in_admin_bookmarklet/ie.html.erb, app/views/admin/find_in_admin_bookmarklet/index.html.erb, app/views/admin/find_in_admin_bookmarklet/other.html.erb, app/views/contacts/_contact.html.erb, app/views/shared/_available_languages.html.erb, app/views/shared/_featured.html.erb, app/views/shared/_featured_links.html.erb, app/views/shared/_feeds.html.erb, app/views/shared/_heading.html.erb, app/views/shared/_list_description.html.erb, app/views/shared/_recently_updated.html.erb, app/views/shared/_recently_updated_documents.html.erb, app/views/world_locations/show.html.erb, app/views/worldwide_organisations/_worldwide_organisation.html.erb, app/workers/publishing_api_corporate_information_pages_worker.rb, app/workers/publishing_api_html_attachments_worker.rb, app/workers/publishing_api_publications_worker.rb, lib/data_hygiene/publishing_api_sync_check.rb, lib/locale.rb, lib/localised_model.rb, lib/publish_static_pages.rb, lib/sync_checker/failure.rb, lib/whitehall/data_migration.rb, lib/whitehall/decorators/collection_decorator.rb, lib/whitehall/document_filter/options.rb]","[app/helpers/admin/editions_helper.rb, app/models/news_article.rb, app/views/admin/editions/_locale_fields.html.erb, app/views/admin/editions/_standard_fields.html.erb]","0.0144927536","0.25","[3a54d9cc80f72418b75b15e3221e9e8aba920a73, d30f14babea892fb63ac3495b11fdbd00d940178, 7bcaaa11ab9b724cfc0ef77f2258d708230e497a, 10e83da7ad592b97c672a72e87cbb88e20553489, 2a3101b349cbef94f0302a2e5d2cb03a0d15245c, cddc4f86c9c554bb61fcf9bcc4080c8fbbd4e84f, b1a198ec27a198c243496b9572ea9f4d8ec3d564]","5.781 seconds","4.2.8","[cucumber-rails, simplecov, factory_girl]","7","[]","20","31","[app/controllers/admin/dashboard_controller.rb, app/controllers/admin/editions_controller.rb, app/controllers/admin/find_in_admin_bookmarklet_controller.rb, app/controllers/admin/world_locations_controller.rb, app/controllers/api/world_locations_controller.rb, app/controllers/world_locations_controller.rb, app/helpers/admin/edition_routes_helper.rb, app/helpers/email_signup_helper.rb, app/helpers/filter_routes_helper.rb, app/helpers/public_document_routes_helper.rb, app/services/service_listeners/author_notifier.rb, app/views/admin/dashboard/_document_table.html.erb, app/views/admin/dashboard/index.html.erb, app/views/admin/editions/_filter_options.html.erb, app/views/admin/editions/_search_results.html.erb, app/views/admin/editions/index.html.erb, app/views/admin/find_in_admin_bookmarklet/_bookmarklet.erb, app/views/admin/find_in_admin_bookmarklet/ie.html.erb, app/views/admin/find_in_admin_bookmarklet/index.html.erb, app/views/admin/find_in_admin_bookmarklet/other.html.erb, app/views/contacts/_contact.html.erb, app/views/shared/_available_languages.html.erb, app/views/shared/_featured.html.erb, app/views/shared/_featured_links.html.erb, app/views/shared/_feeds.html.erb, app/views/shared/_heading.html.erb, app/views/shared/_list_description.html.erb, app/views/shared/_recently_updated.html.erb, app/views/shared/_recently_updated_documents.html.erb, app/views/world_locations/show.html.erb, app/views/worldwide_organisations/_worldwide_organisation.html.erb]","false","0.05882352933536332","2","[path:features/news-article.feature, text:I should see the news article listed in admin with an indication that it is in French], [path:features/news-article.feature, text:I publish the French-only news article]","0",""
"whitehall","1001","[16-05-2017]","1","2","[Merge pull request #3227 from alphagov/revert-3214-remove-worldwide-service  Revert ""Remove worldwide services"", Revert ""Remove worldwide services"" ]","1","1","1","2","2","[create, create, click_link, fill_in_contact_details, sample, check, click_on, joins, where, record_css_selector, contact, has_css?, street_address, has_content?, within, contact_numbers, number, services, uncheck, click_on, has_unchecked_field?, find, visible?, select_option, find_field, evaluate_script, execute_script, to_json, url_for, gsub]","0","","0","","0","","0","","0","","[]","[app/views/admin/worldwide_offices/_worldwide_organisation.html.erb]","1","55","6","[app/controllers/admin/worldwide_offices_controller.rb, app/controllers/admin/worldwide_organisations_controller.rb, app/controllers/api/worldwide_organisations_controller.rb, app/controllers/email_signup_information_controller.rb, app/controllers/worldwide_organisations_controller.rb, app/models/admin/edition_filter.rb, app/models/admin/statistics_announcement_filter.rb, app/models/attachment_visibility.rb, app/models/classification_featuring.rb, app/models/corporate_information_page.rb, app/models/corporate_information_page_type.rb, app/models/document_history.rb, app/models/edition.rb, app/models/edition/appointment.rb, app/models/email_signup_pages_finder.rb, app/models/embassy.rb, app/models/featured_policy.rb, app/models/frontend/statistics_announcements_filter.rb, app/models/organisation_brand_colour.rb, app/models/organisation_logo_type.rb, app/models/person.rb, app/models/policy.rb, app/models/role.rb, app/models/sitewide_setting.rb, app/models/speech_type.rb, app/models/user.rb, app/models/worldwide_office.rb, app/models/worldwide_office_type.rb, app/models/worldwide_organisation.rb, app/presenters/api/paginator.rb, app/presenters/edition_collection_presenter.rb, app/presenters/email_signup_information_presenter.rb, app/presenters/embassy_presenter.rb, app/presenters/feature_presenter.rb, app/presenters/featured_policies_presenter.rb, app/presenters/promotional_feature_item_presenter.rb, app/presenters/role_appointment_presenter.rb, app/presenters/role_presenter.rb, app/views/admin/contacts/_contact_type_details_form.html.erb, app/views/admin/contacts/_embed_details_for_form.html.erb, app/views/admin/contacts/_form_fields.html.erb, app/views/admin/worldwide_offices/_form.html.erb, app/views/admin/worldwide_offices/edit.html.erb, app/views/admin/worldwide_offices/index.html.erb, app/views/admin/worldwide_offices/new.html.erb, app/views/contacts/_contact.html.erb, app/views/people/_person.html.erb, app/views/shared/_available_languages.html.erb, app/views/shared/_social_media_accounts.html.erb, app/views/worldwide_organisations/_corporate_information.html.erb, app/views/worldwide_organisations/_header.html.erb, app/views/worldwide_organisations/show.html.erb, lib/whitehall/broken_link_reporter.rb, lib/whitehall/data_migration.rb, lib/whitehall/document_filter/options.rb]","[app/models/worldwide_office.rb, app/models/worldwide_office_worldwide_service.rb, app/models/worldwide_service.rb, app/models/worldwide_service_type.rb, app/presenters/api/worldwide_organisation_presenter.rb, app/views/admin/worldwide_offices/_form.html.erb]","0.0363636364","0.3333333333","[17a514b0d4b0e4f59282bec30c998197e0873ed1, edbf7c7bdcf7d037c5d5581397fc0776f48ef6fb]","2.826 seconds","4.2.8","[cucumber-rails, simplecov, factory_girl]","7","[]","14","25","[app/controllers/admin/worldwide_offices_controller.rb, app/controllers/admin/worldwide_organisations_controller.rb, app/controllers/api/worldwide_organisations_controller.rb, app/controllers/email_signup_information_controller.rb, app/controllers/worldwide_organisations_controller.rb, app/models/admin/edition_filter.rb, app/models/admin/statistics_announcement_filter.rb, app/models/edition/appointment.rb, app/presenters/embassy_presenter.rb, app/presenters/role_appointment_presenter.rb, app/views/admin/contacts/_contact_type_details_form.html.erb, app/views/admin/contacts/_embed_details_for_form.html.erb, app/views/admin/contacts/_form_fields.html.erb, app/views/admin/worldwide_offices/_form.html.erb, app/views/admin/worldwide_offices/edit.html.erb, app/views/admin/worldwide_offices/index.html.erb, app/views/admin/worldwide_offices/new.html.erb, app/views/contacts/_contact.html.erb, app/views/people/_person.html.erb, app/views/shared/_available_languages.html.erb, app/views/shared/_social_media_accounts.html.erb, app/views/worldwide_organisations/_corporate_information.html.erb, app/views/worldwide_organisations/_header.html.erb, app/views/worldwide_organisations/show.html.erb, lib/whitehall/broken_link_reporter.rb]","true","0.12658227856529403","0","","0",""
"whitehall","1008","[11-05-2017]","1","1","[Remove worldwide services  This commit removes worldwide services. These were connected to offices of worldwide organisations but not publicly displayed anywhere except in the whitehall API, and were not used for any purpose. ]","1","1","1","1","1","[create, click_link, fill_in_contact_details, sample, click_on, joins, where, record_css_selector, contact, has_css?, street_address, has_content?, within, contact_numbers, number, find, visible?, select_option, find_field, evaluate_script, execute_script, to_json, gsub]","0","","0","","0","","0","","0","","[app/models/worldwide_office_worldwide_service.rb, app/models/worldwide_service.rb, app/models/worldwide_service_type.rb]","[app/views/admin/worldwide_offices/_worldwide_organisation.html.erb]","1","49","3","[app/controllers/admin/worldwide_offices_controller.rb, app/controllers/admin/worldwide_organisations_controller.rb, app/controllers/api/worldwide_organisations_controller.rb, app/controllers/email_signup_information_controller.rb, app/controllers/worldwide_organisations_controller.rb, app/models/admin/edition_filter.rb, app/models/admin/statistics_announcement_filter.rb, app/models/classification_featuring.rb, app/models/corporate_information_page.rb, app/models/corporate_information_page_type.rb, app/models/edition.rb, app/models/edition/appointment.rb, app/models/email_signup_pages_finder.rb, app/models/embassy.rb, app/models/featured_policy.rb, app/models/frontend/statistics_announcements_filter.rb, app/models/organisation_brand_colour.rb, app/models/organisation_logo_type.rb, app/models/person.rb, app/models/policy.rb, app/models/role.rb, app/models/sitewide_setting.rb, app/models/speech_type.rb, app/models/user.rb, app/models/worldwide_office_type.rb, app/models/worldwide_organisation.rb, app/presenters/api/paginator.rb, app/presenters/email_signup_information_presenter.rb, app/presenters/embassy_presenter.rb, app/presenters/feature_presenter.rb, app/presenters/promotional_feature_item_presenter.rb, app/presenters/role_appointment_presenter.rb, app/presenters/role_presenter.rb, app/views/admin/contacts/_contact_type_details_form.html.erb, app/views/admin/contacts/_embed_details_for_form.html.erb, app/views/admin/contacts/_form_fields.html.erb, app/views/admin/worldwide_offices/_form.html.erb, app/views/admin/worldwide_offices/index.html.erb, app/views/admin/worldwide_offices/new.html.erb, app/views/contacts/_contact.html.erb, app/views/people/_person.html.erb, app/views/shared/_available_languages.html.erb, app/views/shared/_social_media_accounts.html.erb, app/views/worldwide_organisations/_corporate_information.html.erb, app/views/worldwide_organisations/_header.html.erb, app/views/worldwide_organisations/show.html.erb, lib/whitehall/broken_link_reporter.rb, lib/whitehall/data_migration.rb, lib/whitehall/document_filter/options.rb]","[app/models/worldwide_office.rb, app/presenters/api/worldwide_organisation_presenter.rb, app/views/admin/worldwide_offices/_form.html.erb]","0.0204081633","0.3333333333","[bb1bb9abba6de3e198f3ea3017bb65e23b7528e7]","2.957 seconds","4.2.8","[cucumber-rails, simplecov, factory_girl]","3","[]","13","24","[app/controllers/admin/worldwide_offices_controller.rb, app/controllers/admin/worldwide_organisations_controller.rb, app/controllers/api/worldwide_organisations_controller.rb, app/controllers/email_signup_information_controller.rb, app/controllers/worldwide_organisations_controller.rb, app/models/admin/edition_filter.rb, app/models/admin/statistics_announcement_filter.rb, app/models/edition/appointment.rb, app/presenters/embassy_presenter.rb, app/presenters/role_appointment_presenter.rb, app/views/admin/contacts/_contact_type_details_form.html.erb, app/views/admin/contacts/_embed_details_for_form.html.erb, app/views/admin/contacts/_form_fields.html.erb, app/views/admin/worldwide_offices/_form.html.erb, app/views/admin/worldwide_offices/index.html.erb, app/views/admin/worldwide_offices/new.html.erb, app/views/contacts/_contact.html.erb, app/views/people/_person.html.erb, app/views/shared/_available_languages.html.erb, app/views/shared/_social_media_accounts.html.erb, app/views/worldwide_organisations/_corporate_information.html.erb, app/views/worldwide_organisations/_header.html.erb, app/views/worldwide_organisations/show.html.erb, lib/whitehall/broken_link_reporter.rb]","false","0.08196721322507389","0","","0",""
"whitehall","1025","[05-05-2017]","1","1","[Allow news articles to be created as translations only  Mirrors the cucumber test introduced in https://github.com/alphagov/whitehall/pull/576 (https://github.com/alphagov/whitehall/blob/master/features/non-english-world-location-news.feature), but excludes the last line 'And I should only be able to view the news article article in French' as news articles are rendered in government-frontend now. Also remove references to world organisations as these do not (yet) associate to news articles. ]","1","1","1","5","5","[gsub, create, code, save!, begin_drafting_news_article, click_button, has_content?, record_css_selector, within, has_no_css?, find, visible?, select_option, fill_in_news_article_fields, click_link, has_css?, fill_in, within, find_field, evaluate_script, execute_script, to_json, click, choose, has_no_css?, see_all_link, worldwide_organisation, has_css?, find_by]","0","","0","","0","","0","","0","","[]","[atom]","1","61","1","[app/controllers/admin/dashboard_controller.rb, app/controllers/admin/edition_workflow_controller.rb, app/controllers/admin/editions_controller.rb, app/controllers/admin/find_in_admin_bookmarklet_controller.rb, app/controllers/admin/world_locations_controller.rb, app/controllers/api/world_locations_controller.rb, app/controllers/world_locations_controller.rb, app/helpers/admin/edition_routes_helper.rb, app/helpers/email_signup_helper.rb, app/helpers/filter_routes_helper.rb, app/helpers/public_document_routes_helper.rb, app/models/admin/edition_filter.rb, app/models/admin/statistics_announcement_filter.rb, app/models/classification_featuring.rb, app/models/corporate_information_page.rb, app/models/document.rb, app/models/edition.rb, app/models/featured_policy.rb, app/models/frontend/statistics_announcements_filter.rb, app/models/news_article.rb, app/models/organisation.rb, app/models/person.rb, app/models/sitewide_setting.rb, app/models/speech_type.rb, app/models/topic.rb, app/models/user.rb, app/models/world_location.rb, app/presenters/api/paginator.rb, app/presenters/email_signup_information_presenter.rb, app/presenters/feature_presenter.rb, app/presenters/promotional_feature_item_presenter.rb, app/presenters/role_presenter.rb, app/services/service_listeners/author_notifier.rb, app/views/admin/dashboard/_document_table.html.erb, app/views/admin/dashboard/index.html.erb, app/views/admin/editions/_filter_options.html.erb, app/views/admin/editions/_search_results.html.erb, app/views/admin/editions/index.html.erb, app/views/admin/find_in_admin_bookmarklet/_bookmarklet.erb, app/views/admin/find_in_admin_bookmarklet/ie.html.erb, app/views/admin/find_in_admin_bookmarklet/index.html.erb, app/views/admin/find_in_admin_bookmarklet/other.html.erb, app/views/contacts/_contact.html.erb, app/views/shared/_available_languages.html.erb, app/views/shared/_featured.html.erb, app/views/shared/_featured_links.html.erb, app/views/shared/_feeds.html.erb, app/views/shared/_heading.html.erb, app/views/shared/_list_description.html.erb, app/views/shared/_recently_updated.html.erb, app/views/shared/_recently_updated_documents.html.erb, app/views/world_locations/show.html.erb, app/views/worldwide_organisations/_worldwide_organisation.html.erb, app/workers/publishing_api_corporate_information_pages_worker.rb, app/workers/publishing_api_html_attachments_worker.rb, app/workers/publishing_api_publications_worker.rb, lib/locale.rb, lib/localised_model.rb, lib/publish_static_pages.rb, lib/whitehall/data_migration.rb, lib/whitehall/document_filter/options.rb]","[app/models/news_article.rb]","0.0163934426","1.0","[aa8553a4a310e86276113e848452281ede0b0ab8]","4.778 seconds","4.2.8","[cucumber-rails, simplecov, factory_girl]","7","[]","20","31","[app/controllers/admin/dashboard_controller.rb, app/controllers/admin/editions_controller.rb, app/controllers/admin/find_in_admin_bookmarklet_controller.rb, app/controllers/admin/world_locations_controller.rb, app/controllers/api/world_locations_controller.rb, app/controllers/world_locations_controller.rb, app/helpers/admin/edition_routes_helper.rb, app/helpers/email_signup_helper.rb, app/helpers/filter_routes_helper.rb, app/helpers/public_document_routes_helper.rb, app/services/service_listeners/author_notifier.rb, app/views/admin/dashboard/_document_table.html.erb, app/views/admin/dashboard/index.html.erb, app/views/admin/editions/_filter_options.html.erb, app/views/admin/editions/_search_results.html.erb, app/views/admin/editions/index.html.erb, app/views/admin/find_in_admin_bookmarklet/_bookmarklet.erb, app/views/admin/find_in_admin_bookmarklet/ie.html.erb, app/views/admin/find_in_admin_bookmarklet/index.html.erb, app/views/admin/find_in_admin_bookmarklet/other.html.erb, app/views/contacts/_contact.html.erb, app/views/shared/_available_languages.html.erb, app/views/shared/_featured.html.erb, app/views/shared/_featured_links.html.erb, app/views/shared/_feeds.html.erb, app/views/shared/_heading.html.erb, app/views/shared/_list_description.html.erb, app/views/shared/_recently_updated.html.erb, app/views/shared/_recently_updated_documents.html.erb, app/views/world_locations/show.html.erb, app/views/worldwide_organisations/_worldwide_organisation.html.erb]","false","0.07692307682201183","2","[path:features/non-english-news-article.feature, text:I should see the news article listed in admin with an indication that it is in French], [path:features/non-english-news-article.feature, text:I publish the French-only news article]","0",""
"whitehall","1040","[18-04-2017]","1","1","[Separates ""ISBN"" into ""Web ISBN"" and ""Print ISBN""  [Trello card](https://trello.com/c/OEZIdXTE/135-separate-file-attachment-form-and-html-attachment-form)  This will separate the ""ISBN"" field into ""Print ISBN"" and ""Web ISBN"", as it was causing confusion. Going forward, both fields are optional and will appear (if they are filled in) when an HTML Attachment is printed. ]","1","1","1","2","2","[create, click_button, begin_drafting_document, fill_in_publication_fields, click_on, fill_in, check, update!, has_content?]","0","","0","","0","","0","","0","","[]","","0","24","6","[app/controllers/admin/attachments_controller.rb, app/controllers/html_attachments_controller.rb, app/helpers/public_document_routes_helper.rb, app/models/document_collection_group.rb, app/models/edition.rb, app/models/frontend/statistics_announcements_filter.rb, app/models/html_attachment.rb, app/models/news_article_type.rb, app/models/policy.rb, app/models/publication.rb, app/models/publication_type.rb, app/models/speech_type.rb, app/models/user.rb, app/models/world_location_type.rb, app/models/worldwide_office_type.rb, app/models/worldwide_service_type.rb, app/presenters/api/paginator.rb, app/services/service_listeners/author_notifier.rb, app/views/html_attachments/_print_meta_data.html.erb, app/views/html_attachments/show.html.erb, lib/sync_checker/formats/html_attachment_check.rb, lib/whitehall/document_filter/options.rb, lib/whitehall/filter_option.rb, lib/whitehall/whip_organisation.rb]","[app/controllers/admin/attachments_controller.rb, app/controllers/admin/bulk_uploads_controller.rb, app/views/admin/attachments/_form.html.erb, app/views/admin/attachments/_reference_fields.html.erb, app/views/admin/bulk_uploads/set_titles.html.erb, app/views/html_attachments/_print_meta_data.html.erb]","0.0833333333","0.3333333333","[9deb239c100f2f13d7f82dfe70095b4208460f5a]","1.874 seconds","4.2.7.1","[cucumber-rails, simplecov, factory_girl]","3","[]","2","5","[app/controllers/html_attachments_controller.rb, app/helpers/public_document_routes_helper.rb, app/services/service_listeners/author_notifier.rb, app/views/html_attachments/_print_meta_data.html.erb, app/views/html_attachments/show.html.erb]","false","0.20833333328124998","1","[path:features/edition-attachments.feature, text:I publish the draft edition for publication ""Standard Beard Lengths""]","0",""
"whitehall","1080","[09-03-2017, 16-03-2017, 22-03-2017]","14","4","[Fix routes helper test  Fixes a test that was previously using `Speech` as an example of an unmigrated format. Switching the rendering app for `Speech` now updates its preview-url to use draft origin.  This commit updates the test to use the last non-migrated edition (`CorporateInfoPage`). The test can be removed when that format is migrated. , Switch rendering app to government-frontend , Amend features to omit rendering based assertions , Remove (public) speech rendering from Whitehall ]","2","4","4","2","2","[create, detect, click_button, select, assert_equal, create, ago, select_date, fill_in, find, visible?, select_option, merge, click, click_link, within, choose, find_field, evaluate_script, execute_script, to_json, captures, raise, has_css?, record_css_selector, has_css?, gsub, find_by, has_no_css?, ago, is_a?, values, merge, captures, raise]","0","","0","","0","","0","","0","","[app/controllers/speeches_controller.rb, app/views/speeches/_document_extra_metadata.html.erb, app/views/speeches/_document_sidebar.html.erb, app/views/speeches/show.html.erb]","","0","56","1","[app/controllers/admin/dashboard_controller.rb, app/controllers/admin/edition_workflow_controller.rb, app/controllers/admin/editions_controller.rb, app/controllers/admin/find_in_admin_bookmarklet_controller.rb, app/controllers/ministerial_roles_controller.rb, app/helpers/admin/edition_routes_helper.rb, app/models/admin/edition_filter.rb, app/models/admin/statistics_announcement_filter.rb, app/models/classification.rb, app/models/classification_featuring.rb, app/models/corporate_information_page.rb, app/models/document.rb, app/models/edition.rb, app/models/edition/appointment.rb, app/models/edition/related_policies.rb, app/models/feature.rb, app/models/feature_list.rb, app/models/featured_policy.rb, app/models/frontend/statistics_announcements_filter.rb, app/models/ministerial_role.rb, app/models/offsite_link.rb, app/models/organisation.rb, app/models/person.rb, app/models/role.rb, app/models/sitewide_setting.rb, app/models/speech.rb, app/models/speech_type.rb, app/models/topic.rb, app/models/topical_event.rb, app/models/user.rb, app/models/world_location.rb, app/presenters/api/paginator.rb, app/presenters/email_signup_information_presenter.rb, app/presenters/feature_presenter.rb, app/presenters/promotional_feature_item_presenter.rb, app/presenters/role_appointment_presenter.rb, app/presenters/role_presenter.rb, app/views/admin/dashboard/_document_table.html.erb, app/views/admin/dashboard/index.html.erb, app/views/admin/editions/_filter_options.html.erb, app/views/admin/editions/_search_results.html.erb, app/views/admin/editions/index.html.erb, app/views/admin/find_in_admin_bookmarklet/_bookmarklet.erb, app/views/admin/find_in_admin_bookmarklet/ie.html.erb, app/views/admin/find_in_admin_bookmarklet/index.html.erb, app/views/admin/find_in_admin_bookmarklet/other.html.erb, app/views/ministerial_roles/index.html.erb, app/views/people/_person.html.erb, app/views/shared/_heading.html.erb, app/workers/publishing_api_html_attachments_worker.rb, lib/data_hygiene/publishing_api_sync_check.rb, lib/publish_static_pages.rb, lib/sync_checker/failure.rb, lib/whitehall/data_migration.rb, lib/whitehall/decorators/collection_decorator.rb, lib/whitehall/document_filter/options.rb]","[app/models/speech.rb]","0.0178571429","1.0","[7aeadc2373da00b0fba8a20bdda0a453bc65cab5, 363dbfd768dbf68c1714349fb7378281ad1928cb, d2e650953df0c374aac9d1b71344fdd9832f751e, 50718c1471811ae3ab50a3108265b8fba45b4875]","6.041 seconds","4.2.7.1","[cucumber-rails, simplecov, factory_girl]","4","[]","12","19","[app/controllers/admin/dashboard_controller.rb, app/controllers/admin/editions_controller.rb, app/controllers/admin/find_in_admin_bookmarklet_controller.rb, app/controllers/ministerial_roles_controller.rb, app/helpers/admin/edition_routes_helper.rb, app/models/edition/appointment.rb, app/presenters/role_appointment_presenter.rb, app/views/admin/dashboard/_document_table.html.erb, app/views/admin/dashboard/index.html.erb, app/views/admin/editions/_filter_options.html.erb, app/views/admin/editions/_search_results.html.erb, app/views/admin/editions/index.html.erb, app/views/admin/find_in_admin_bookmarklet/_bookmarklet.erb, app/views/admin/find_in_admin_bookmarklet/ie.html.erb, app/views/admin/find_in_admin_bookmarklet/index.html.erb, app/views/admin/find_in_admin_bookmarklet/other.html.erb, app/views/ministerial_roles/index.html.erb, app/views/people/_person.html.erb, app/views/shared/_heading.html.erb]","false","0.08333333352","2","[path:features/speeches.feature, text:I should see the speech ""Stubble to be Outlawed"" in the list of published documents], [path:features/topical_events.feature, text:I should see the speech ""A speech"" in the announcements section of the topical event ""An Event""]","0",""
"whitehall","1084","[14-03-2017]","1","4","[Merge pull request #3115 from alphagov/analytics-meta  Add analytics meta tags to navigation pages, Add analytics meta tags to navigation pages  Add meta tag component to pages which are used for navigation: organisations, policy areas, topical events and the organisations homepage.  The meta tag component requires a content item, so this change also loads the content item on each of those pages.  This will help us track users' journeys through the navigation and content elements of the site to work out whether they find the content they're looking for. , Merge pull request #3121 from alphagov/remove-throttling  Only throttle test step, not the whole CI build, Only throttle the test step, not the whole CI build  Delete the `ThrottleJobProperty` config from the Jenkinsfile. The Throttle Concurrent Builds plugin isn't fully compatible with pipeline jobs. The `maxConcurrentPerNode` setting is ignored, and the `limitOneJobWithMatchingParams` setting was causing schema test builds to pile [TOO_LONG]","1","2","2","26","26","[create, attachments, click_link, content_store_has_item, record_css_selector, has_css?, create_org_and_stub_content_store, groups, find, within, add_contact_to_home_page!, detect, ministerial_roles, roles, code, rows_hash, stringify_keys, click_on, code, fill_in, visible?, select_option, find_field, evaluate_script, execute_script, to_json, create_topic_and_stub_content_store, click_button, see_all_link, create_topical_event_and_stub_in_content_store, ago, days, ago, with_index, see_all_link]","0","","0","","0","","0","","0","","[]","[app/views/govuk_component/_beta_label.html.erb, app/views/topical_events/_document_list.html.erb, app/views/topics/_document_list.html.erb, atom, custom_jobs]","5","100","7","[app/controllers/admin/about_pages_controller.rb, app/controllers/admin/dashboard_controller.rb, app/controllers/admin/editions_controller.rb, app/controllers/admin/find_in_admin_bookmarklet_controller.rb, app/controllers/admin/organisations_controller.rb, app/controllers/admin/topical_events_controller.rb, app/controllers/admin/topics_controller.rb, app/controllers/api/organisations_controller.rb, app/controllers/latest_controller.rb, app/controllers/organisations_controller.rb, app/controllers/topical_events_controller.rb, app/controllers/topics_controller.rb, app/helpers/admin/edition_routes_helper.rb, app/helpers/email_signup_helper.rb, app/helpers/public_document_routes_helper.rb, app/models/admin/edition_filter.rb, app/models/attachment.rb, app/models/classification.rb, app/models/corporate_information_page.rb, app/models/corporate_information_page_type.rb, app/models/detailed_guide.rb, app/models/document_collection.rb, app/models/document_history.rb, app/models/edition.rb, app/models/feature.rb, app/models/feature_list.rb, app/models/frontend/statistics_announcements_filter.rb, app/models/latest_documents_filter.rb, app/models/offsite_link.rb, app/models/organisation.rb, app/models/person.rb, app/models/role.rb, app/models/sitewide_setting.rb, app/models/speech_type.rb, app/models/topic.rb, app/models/topical_event.rb, app/models/user.rb, app/models/world_location.rb, app/presenters/api/paginator.rb, app/presenters/document_filter_presenter.rb, app/presenters/edition_collection_presenter.rb, app/presenters/feature_presenter.rb, app/presenters/publishing_api/consultation_presenter.rb, app/presenters/publishing_api/html_attachment_presenter.rb, app/presenters/publishing_api/payload_builder/polymorphic_path.rb, app/presenters/publishing_api/payload_builder/public_document_path.rb, app/presenters/publishing_api/publication_presenter.rb, app/presenters/publishing_api/services_and_information_presenter.rb, app/presenters/publishing_api/topical_event_about_page_presenter.rb, app/presenters/role_presenter.rb, app/services/draft_edition_updater.rb, app/services/draft_translation_updater.rb, app/services/edition_service.rb, app/services/edition_service_coordinator.rb, app/services/service_listeners/author_notifier.rb, app/views/admin/dashboard/_document_table.html.erb, app/views/admin/dashboard/index.html.erb, app/views/admin/editions/_filter_options.html.erb, app/views/admin/editions/_search_results.html.erb, app/views/admin/editions/index.html.erb, app/views/admin/find_in_admin_bookmarklet/_bookmarklet.erb, app/views/admin/find_in_admin_bookmarklet/ie.html.erb, app/views/admin/find_in_admin_bookmarklet/index.html.erb, app/views/admin/find_in_admin_bookmarklet/other.html.erb, app/views/admin/organisations/_form.html.erb, app/views/admin/organisations/_sidebar.html.erb, app/views/admin/organisations/edit.html.erb, app/views/admin/organisations/show.html.erb, app/views/admin/shared/_default_news_image_fields.html.erb, app/views/admin/shared/_featured_link_fields.html.erb, app/views/admin/topical_events/_custom_form_fields.html.erb, app/views/admin/topical_events/_table_header.html.erb, app/views/admin/topical_events/_topical_event.html.erb, app/views/admin/topics/_table_header.html.erb, app/views/admin/topics/_topic.html.erb, app/views/classifications/_classification_featuring.html.erb, app/views/organisations/_index_section.html.erb, app/views/organisations/_organisations_name_list.html.erb, app/views/organisations/index.html.erb, app/views/shared/_featured_links.html.erb, app/views/shared/_feeds.html.erb, app/views/shared/_heading.html.erb, app/views/shared/_recently_updated.html.erb, app/views/shared/_recently_updated_documents.html.erb, app/views/shared/_social_media_accounts.html.erb, app/views/topical_events/show.html.erb, app/views/topics/show.html.erb, lib/data_hygiene/policy_tagger.rb, lib/data_hygiene/publishing_api_document_republisher.rb, lib/data_hygiene/publishing_api_sync_check.rb, lib/locale.rb, lib/sync_checker/failure.rb, lib/sync_checker/formats/html_attachment_check.rb, lib/whitehall.rb, lib/whitehall/data_migration.rb, lib/whitehall/decorators/collection_decorator.rb, lib/whitehall/document_filter/fake_search.rb, lib/whitehall/document_filter/filterer.rb, lib/whitehall/document_filter/options.rb, lib/whitehall/document_filter/rummager.rb]","[app/controllers/organisations_controller.rb, app/controllers/topical_events_controller.rb, app/controllers/topics_controller.rb, app/models/classification.rb, app/models/organisation.rb, app/models/topical_event.rb, app/views/layouts/_frontend_base.html.erb]","0.06","0.8571428571","[51677354e9358e09671c400ce6acdb0a7d9f4b8a, 05eb1cb0a479d1709362f23724c42c0e35703cb8, 16dc81455474fc17572ad75ffe77f4838805c6e5, 20d1d2a523343e05be1f7e853e938ca5764fdbe2]","7.318 seconds","4.2.7.1","[cucumber-rails, simplecov, factory_girl]","4","[]","32","56","[app/controllers/admin/about_pages_controller.rb, app/controllers/admin/dashboard_controller.rb, app/controllers/admin/editions_controller.rb, app/controllers/admin/find_in_admin_bookmarklet_controller.rb, app/controllers/admin/organisations_controller.rb, app/controllers/admin/topical_events_controller.rb, app/controllers/admin/topics_controller.rb, app/controllers/api/organisations_controller.rb, app/controllers/organisations_controller.rb, app/controllers/topical_events_controller.rb, app/controllers/topics_controller.rb, app/helpers/admin/edition_routes_helper.rb, app/helpers/email_signup_helper.rb, app/helpers/public_document_routes_helper.rb, app/models/classification.rb, app/models/organisation.rb, app/models/topical_event.rb, app/presenters/feature_presenter.rb, app/presenters/publishing_api/html_attachment_presenter.rb, app/presenters/publishing_api/payload_builder/polymorphic_path.rb, app/presenters/publishing_api/payload_builder/public_document_path.rb, app/presenters/publishing_api/services_and_information_presenter.rb, app/presenters/publishing_api/topical_event_about_page_presenter.rb, app/services/service_listeners/author_notifier.rb, app/views/admin/dashboard/_document_table.html.erb, app/views/admin/dashboard/index.html.erb, app/views/admin/editions/_filter_options.html.erb, app/views/admin/editions/_search_results.html.erb, app/views/admin/editions/index.html.erb, app/views/admin/find_in_admin_bookmarklet/_bookmarklet.erb, app/views/admin/find_in_admin_bookmarklet/ie.html.erb, app/views/admin/find_in_admin_bookmarklet/index.html.erb, app/views/admin/find_in_admin_bookmarklet/other.html.erb, app/views/admin/organisations/_form.html.erb, app/views/admin/organisations/_sidebar.html.erb, app/views/admin/organisations/edit.html.erb, app/views/admin/organisations/show.html.erb, app/views/admin/shared/_default_news_image_fields.html.erb, app/views/admin/shared/_featured_link_fields.html.erb, app/views/admin/topical_events/_custom_form_fields.html.erb, app/views/admin/topical_events/_table_header.html.erb, app/views/admin/topical_events/_topical_event.html.erb, app/views/admin/topics/_table_header.html.erb, app/views/admin/topics/_topic.html.erb, app/views/classifications/_classification_featuring.html.erb, app/views/organisations/_index_section.html.erb, app/views/organisations/_organisations_name_list.html.erb, app/views/organisations/index.html.erb, app/views/shared/_featured_links.html.erb, app/views/shared/_feeds.html.erb, app/views/shared/_heading.html.erb, app/views/shared/_recently_updated.html.erb, app/views/shared/_recently_updated_documents.html.erb, app/views/shared/_social_media_accounts.html.erb, app/views/topical_events/show.html.erb, app/views/topics/show.html.erb]","true","0.2343749999974365","2","[path:features/publications.feature, text:I should see the summary of the publication ""Lamb chops on baker's faces""], [path:features/statistical-data-sets.feature, text:I should see the ""Vehicle speeds 2010"" statistical data set]","0",""
"whitehall","1091","[03-03-2017, 06-03-2017]","4","5","[Merge pull request #3104 from alphagov/mb-cucumber-fix  Put cucumber gems into test group, Put cucumber gems into test group , Merge pull request #3075 from alphagov/print-styles-metadata  [WIP] Adds Metadata page to HTML attachment print, Adds metadata fields for HTMLAttachment form  For: https://trello.com/c/88zaXS8J/47-create-print-styles-for-official-documents  This commit adds a `:meta_data_contact_address` field to the HtmlAttachment form.  It also renamed ISBN to Web ISBN to make it clear that this is the ISBN it's referring to.  An assumption was made regarding classifying the ISBN field as a Web ISBN. This is because in the PDF version there are two ISBNs present in the Metadata page: the Print ISBN and the Web ISBN. Checking the database, we can find 10 distinct ISBNs assigned to 74 different HtmlAttachment documents. Through a google lookup, we can identify at least 4 that are marked as Web ISBNs on pdf documents belonging to gov.uk. Two others are just marked as ISBN.  He [TOO_LONG]","3","1","1","4","4","[create, click_button, begin_drafting_document, fill_in_publication_fields, click_on, fill_in, check, update!, has_content?]","0","","0","","0","","0","","0","","[]","","0","24","5","[app/controllers/admin/attachments_controller.rb, app/controllers/html_attachments_controller.rb, app/helpers/public_document_routes_helper.rb, app/models/document_collection_group.rb, app/models/edition.rb, app/models/frontend/statistics_announcements_filter.rb, app/models/html_attachment.rb, app/models/news_article_type.rb, app/models/policy.rb, app/models/publication.rb, app/models/publication_type.rb, app/models/speech_type.rb, app/models/user.rb, app/models/world_location_type.rb, app/models/worldwide_office_type.rb, app/models/worldwide_service_type.rb, app/presenters/api/paginator.rb, app/services/service_listeners/author_notifier.rb, app/views/html_attachments/_print_meta_data.html.erb, app/views/html_attachments/show.html.erb, lib/sync_checker/formats/html_attachment_check.rb, lib/whitehall/document_filter/options.rb, lib/whitehall/filter_option.rb, lib/whitehall/whip_organisation.rb]","[app/controllers/admin/attachments_controller.rb, app/controllers/admin/bulk_uploads_controller.rb, app/views/admin/attachments/_reference_fields.html.erb, app/views/html_attachments/_print_meta_data.html.erb, app/views/html_attachments/show.html.erb]","0.125","0.6","[57b7b0a92ef2ade55385de052b61825c90388c0f, 02260d844494d919d5c1ec9cfefb6a5a31140b35, 5896b5fb744c55b2737c6c2ed02f0d9c9ba273e2, 072d107581c98a97f5d0a6eff6232821892f4099, 55d81039b4cffd262f581e5033d99ef247798181]","2.332 seconds","4.2.7.1","[cucumber-rails, simplecov, factory_girl]","3","[]","2","5","[app/controllers/html_attachments_controller.rb, app/helpers/public_document_routes_helper.rb, app/services/service_listeners/author_notifier.rb, app/views/html_attachments/_print_meta_data.html.erb, app/views/html_attachments/show.html.erb]","true","0.3409090909090909","1","[path:features/edition-attachments.feature, text:I publish the draft edition for publication ""Standard Beard Lengths""]","0",""
"whitehall","1122","[22-02-2017]","1","3","[Merge pull request #3067 from alphagov/revert-3006-remove-consultation-templates  Revert ""Remove Consultation presentation"", Fix lint errors  Reverting #3006 has angered the linter. , Revert ""Remove Consultation presentation"" ]","1","5","5","4","4","[create, click_link, click_button, record_css_selector, has_css?, gsub, find_by, has_css?, fill_in, within, raise, has_no_css?, has_content?, within, refute, attach_file, click_link, from_now, select_date, find, visible?, select_option, click, choose, find_field, evaluate_script, execute_script, to_json]","0","","0","","0","","0","","0","","[]","[app/views/admin/consultations/_appointment_fields.html.erb, app/views/admin/consultations/_html_version_fields.html.erb, app/views/admin/consultations/_inline_attachments_info.html.erb, app/views/admin/consultations/_nation_fields.html.erb, app/views/admin/consultations/_organisation_fields.html.erb, app/views/admin/consultations/_specialist_sector_fields.html.erb, app/views/admin/consultations/_topic_fields.html.erb, app/views/admin/consultations/_topical_event_fields.html.erb, atom, external]","10","90","5","[app/controllers/admin/consultations_controller.rb, app/controllers/admin/dashboard_controller.rb, app/controllers/admin/detailed_guides_controller.rb, app/controllers/admin/edition_workflow_controller.rb, app/controllers/admin/editions_controller.rb, app/controllers/admin/find_in_admin_bookmarklet_controller.rb, app/controllers/admin/publications_controller.rb, app/controllers/announcements_controller.rb, app/controllers/consultations_controller.rb, app/controllers/publications_controller.rb, app/helpers/admin/edition_routes_helper.rb, app/helpers/attachments_helper.rb, app/helpers/email_signup_helper.rb, app/models/admin/edition_filter.rb, app/models/admin/statistics_announcement_filter.rb, app/models/attachment.rb, app/models/classification.rb, app/models/classification_featuring.rb, app/models/consultation.rb, app/models/consultation_outcome.rb, app/models/consultation_public_feedback.rb, app/models/corporate_information_page.rb, app/models/detailed_guide.rb, app/models/document.rb, app/models/edition.rb, app/models/feature.rb, app/models/feature_list.rb, app/models/featured_policy.rb, app/models/frontend/statistics_announcements_filter.rb, app/models/news_article.rb, app/models/offsite_link.rb, app/models/organisation.rb, app/models/person.rb, app/models/publication.rb, app/models/role.rb, app/models/sitewide_setting.rb, app/models/speech.rb, app/models/speech_type.rb, app/models/topic.rb, app/models/topical_event.rb, app/models/user.rb, app/models/world_location.rb, app/presenters/api/paginator.rb, app/presenters/email_signup_information_presenter.rb, app/presenters/feature_presenter.rb, app/presenters/promotional_feature_item_presenter.rb, app/presenters/role_presenter.rb, app/views/admin/consultations/_additional_significant_fields.html.erb, app/views/admin/consultations/_date_fields.html.erb, app/views/admin/consultations/_first_published_at.html.erb, app/views/admin/consultations/_form.html.erb, app/views/admin/consultations/_required_fields_for_imported_editions.html.erb, app/views/admin/dashboard/_document_table.html.erb, app/views/admin/dashboard/index.html.erb, app/views/admin/editions/_filter_options.html.erb, app/views/admin/editions/_search_results.html.erb, app/views/admin/editions/index.html.erb, app/views/admin/find_in_admin_bookmarklet/_bookmarklet.erb, app/views/admin/find_in_admin_bookmarklet/ie.html.erb, app/views/admin/find_in_admin_bookmarklet/index.html.erb, app/views/admin/find_in_admin_bookmarklet/other.html.erb, app/views/admin/shared/_policy_fields.html.erb, app/views/announcements/index.html.erb, app/views/consultations/_document_summary.html.erb, app/views/consultations/show.html.erb, app/views/documents/_attachment.html.erb, app/views/documents/_attachment_full_width.html.erb, app/views/documents/_change_notes.html.erb, app/views/documents/_document_extra_metadata.html.erb, app/views/documents/_document_footer_meta.html.erb, app/views/documents/_filter_form.html.erb, app/views/documents/_filter_results.html.erb, app/views/documents/_header.html.erb, app/views/documents/_history_notice.html.erb, app/views/documents/_metadata.html.erb, app/views/documents/_share_links.html.erb, app/views/documents/_withdrawn_notice.html.erb, app/views/publications/index.html.erb, app/views/shared/_available_languages.html.erb, app/views/shared/_feeds.html.erb, app/views/shared/_heading.html.erb, app/workers/publishing_api_html_attachments_worker.rb, lib/data_hygiene/policy_tagger.rb, lib/data_hygiene/publishing_api_sync_check.rb, lib/publish_static_pages.rb, lib/sync_checker/failure.rb, lib/sync_checker/formats/html_attachment_check.rb, lib/whitehall/data_migration.rb, lib/whitehall/decorators/collection_decorator.rb, lib/whitehall/document_filter/options.rb]","[app/controllers/consultations_controller.rb, app/helpers/cache_control_helper.rb, app/helpers/consultations_helper.rb, app/views/consultations/_document_summary.html.erb, app/views/consultations/show.html.erb]","0.0333333333","0.6","[dc00e14cda55da84ee2bf673cfa5b6c4fd3d240a, d656c2d1fe44b1ea5e54824bc0e58f7bb419cb60, ab68597dbe013962c46a4209d43f9e67eb3f0a1f]","6.058 seconds","4.2.7.1","[cucumber-rails, simplecov, factory_girl]","16","[]","34","46","[app/controllers/admin/consultations_controller.rb, app/controllers/admin/dashboard_controller.rb, app/controllers/admin/detailed_guides_controller.rb, app/controllers/admin/editions_controller.rb, app/controllers/admin/find_in_admin_bookmarklet_controller.rb, app/controllers/admin/publications_controller.rb, app/controllers/announcements_controller.rb, app/controllers/consultations_controller.rb, app/controllers/publications_controller.rb, app/helpers/admin/edition_routes_helper.rb, app/helpers/attachments_helper.rb, app/helpers/email_signup_helper.rb, app/views/admin/consultations/_additional_significant_fields.html.erb, app/views/admin/consultations/_date_fields.html.erb, app/views/admin/consultations/_first_published_at.html.erb, app/views/admin/consultations/_form.html.erb, app/views/admin/consultations/_required_fields_for_imported_editions.html.erb, app/views/admin/dashboard/_document_table.html.erb, app/views/admin/dashboard/index.html.erb, app/views/admin/editions/_filter_options.html.erb, app/views/admin/editions/_search_results.html.erb, app/views/admin/editions/index.html.erb, app/views/admin/find_in_admin_bookmarklet/_bookmarklet.erb, app/views/admin/find_in_admin_bookmarklet/ie.html.erb, app/views/admin/find_in_admin_bookmarklet/index.html.erb, app/views/admin/find_in_admin_bookmarklet/other.html.erb, app/views/admin/shared/_policy_fields.html.erb, app/views/announcements/index.html.erb, app/views/consultations/_document_summary.html.erb, app/views/consultations/show.html.erb, app/views/documents/_attachment.html.erb, app/views/documents/_attachment_full_width.html.erb, app/views/documents/_change_notes.html.erb, app/views/documents/_document_extra_metadata.html.erb, app/views/documents/_document_footer_meta.html.erb, app/views/documents/_filter_form.html.erb, app/views/documents/_filter_results.html.erb, app/views/documents/_header.html.erb, app/views/documents/_history_notice.html.erb, app/views/documents/_metadata.html.erb, app/views/documents/_share_links.html.erb, app/views/documents/_withdrawn_notice.html.erb, app/views/publications/index.html.erb, app/views/shared/_available_languages.html.erb, app/views/shared/_feeds.html.erb, app/views/shared/_heading.html.erb]","true","0.13636363625206613","2","[path:features/consultations.feature, text:I should see the consultation ""Beard Length Review"" in the list of published documents], [path:features/topical_events.feature, text:I should see the consultation ""A Consultation"" in the consultations section of the topical event ""An Event""]","0",""
"whitehall","1151","[09-02-2017, 10-02-2017]","2","7","[Merge pull request #3006 from alphagov/remove-consultation-templates  Remove Consultation presentation, Remove Consultation presentation  Consultations have been migrated and are now rendered by Government Frontend. This removes the frontend code that is no longer needed. , Merge pull request #2986 from alphagov/switch-publication-rendering-app  Switch publication rendering app, Fix expected URL in cucumber feature  Preview for `Publication`s has not been switched over yet but the URL helper uses the rendering app to construct the URL. This commit hard codes it until preview has switched. , Change non-migrated format test  Publications rendering has been switched so they can no longer be used as an example of a non-migrated format. , Update `Publication` sync check  Updates the sync check to check for government-frontend as the rendering app. , Switch `Publication` rendering to government-frontend  Switches the rendering of the `Publication` document type to government-frontend as pa [TOO_LONG]","2","4","4","2","2","[create, click_link, click_button, record_css_selector, has_css?, gsub, find_by, has_css?, fill_in, within, has_no_css?, attach_file, from_now, select_date, find, visible?, select_option, click, choose, find_field, evaluate_script, execute_script, to_json, assert_equal]","0","","0","","0","","0","","0","","[app/helpers/consultations_helper.rb, app/views/consultations/_document_summary.html.erb, app/views/consultations/show.html.erb]","[app/views/admin/consultations/_appointment_fields.html.erb, app/views/admin/consultations/_html_version_fields.html.erb, app/views/admin/consultations/_inline_attachments_info.html.erb, app/views/admin/consultations/_nation_fields.html.erb, app/views/admin/consultations/_organisation_fields.html.erb, app/views/admin/consultations/_specialist_sector_fields.html.erb, app/views/admin/consultations/_topic_fields.html.erb, app/views/admin/consultations/_topical_event_fields.html.erb]","8","63","5","[app/controllers/admin/consultations_controller.rb, app/controllers/admin/dashboard_controller.rb, app/controllers/admin/edition_workflow_controller.rb, app/controllers/admin/editions_controller.rb, app/controllers/admin/find_in_admin_bookmarklet_controller.rb, app/helpers/admin/edition_routes_helper.rb, app/helpers/public_document_routes_helper.rb, app/models/admin/edition_filter.rb, app/models/admin/statistics_announcement_filter.rb, app/models/attachment.rb, app/models/classification.rb, app/models/classification_featuring.rb, app/models/consultation.rb, app/models/corporate_information_page.rb, app/models/corporate_information_page_type.rb, app/models/document.rb, app/models/edition.rb, app/models/email_signup_pages_finder.rb, app/models/feature.rb, app/models/feature_list.rb, app/models/featured_policy.rb, app/models/frontend/statistics_announcements_filter.rb, app/models/offsite_link.rb, app/models/organisation.rb, app/models/organisation_brand_colour.rb, app/models/organisation_logo_type.rb, app/models/person.rb, app/models/policy.rb, app/models/publication.rb, app/models/role.rb, app/models/sitewide_setting.rb, app/models/speech_type.rb, app/models/topic.rb, app/models/topical_event.rb, app/models/user.rb, app/models/world_location.rb, app/presenters/api/paginator.rb, app/presenters/email_signup_information_presenter.rb, app/presenters/feature_presenter.rb, app/presenters/promotional_feature_item_presenter.rb, app/presenters/role_presenter.rb, app/views/admin/consultations/_additional_significant_fields.html.erb, app/views/admin/consultations/_date_fields.html.erb, app/views/admin/consultations/_first_published_at.html.erb, app/views/admin/consultations/_form.html.erb, app/views/admin/consultations/_required_fields_for_imported_editions.html.erb, app/views/admin/dashboard/_document_table.html.erb, app/views/admin/dashboard/index.html.erb, app/views/admin/editions/_filter_options.html.erb, app/views/admin/editions/_search_results.html.erb, app/views/admin/editions/index.html.erb, app/views/admin/find_in_admin_bookmarklet/_bookmarklet.erb, app/views/admin/find_in_admin_bookmarklet/ie.html.erb, app/views/admin/find_in_admin_bookmarklet/index.html.erb, app/views/admin/find_in_admin_bookmarklet/other.html.erb, app/views/admin/shared/_policy_fields.html.erb, app/workers/publishing_api_html_attachments_worker.rb, lib/data_hygiene/publishing_api_sync_check.rb, lib/publish_static_pages.rb, lib/sync_checker/failure.rb, lib/whitehall/data_migration.rb, lib/whitehall/decorators/collection_decorator.rb, lib/whitehall/document_filter/options.rb]","[app/controllers/consultations_controller.rb, app/helpers/cache_control_helper.rb, app/models/publication.rb, app/presenters/publishing_api/publication_presenter.rb, lib/sync_checker/formats/publication_check.rb]","0.0158730159","0.2","[3977c39cdbcd47e63bc31d144d0e3861c586f16e, c37c06eae641e9f6cc86c3a13caf637db1c81f52, 4634416a6efa3be19f20fca658c707cb17416235, b1b8576a3f997afb3ab1cfe0d0efa732fc30c8c5, 13a0b389098d720d126b2f11998c69df33ce0a06, 6a81ff5aacd62f5e5a18ae78e388cb0237596d71, 6a0c04e93ee40ee57559470ae70ea4afb0bdbb20]","3.432 seconds","4.2.7.1","[cucumber-rails, simplecov, factory_girl]","5","[]","15","20","[app/controllers/admin/consultations_controller.rb, app/controllers/admin/dashboard_controller.rb, app/controllers/admin/editions_controller.rb, app/controllers/admin/find_in_admin_bookmarklet_controller.rb, app/helpers/admin/edition_routes_helper.rb, app/views/admin/consultations/_additional_significant_fields.html.erb, app/views/admin/consultations/_date_fields.html.erb, app/views/admin/consultations/_first_published_at.html.erb, app/views/admin/consultations/_form.html.erb, app/views/admin/consultations/_required_fields_for_imported_editions.html.erb, app/views/admin/dashboard/_document_table.html.erb, app/views/admin/dashboard/index.html.erb, app/views/admin/editions/_filter_options.html.erb, app/views/admin/editions/_search_results.html.erb, app/views/admin/editions/index.html.erb, app/views/admin/find_in_admin_bookmarklet/_bookmarklet.erb, app/views/admin/find_in_admin_bookmarklet/ie.html.erb, app/views/admin/find_in_admin_bookmarklet/index.html.erb, app/views/admin/find_in_admin_bookmarklet/other.html.erb, app/views/admin/shared/_policy_fields.html.erb]","true","0.0602409639331543","2","[path:features/consultations.feature, text:I should see the consultation ""Beard Length Review"" in the list of published documents], [path:features/topical_events.feature, text:I should see the consultation ""A Consultation"" in the consultations section of the topical event ""An Event""]","0",""
"whitehall","1251","[02-12-2016, 05-12-2016]","4","3","[Merge pull request #2899 from alphagov/fix-consultations  Fix unopened consultations, Indicate when a consultation is unopened  Consultations can be published with an open date in the future. This back-ports the unopened consultation fixes that have been applied to government-frontend, which will be used after migration. , Switch consultations to GOV.UK blue  The dark purple is left over from older inside gov branding. ]","1","1","1","3","3","[create, has_content?, refute]","0","","0","","0","","0","","0","","[]","[external]","1","24","1","[app/controllers/admin/consultations_controller.rb, app/controllers/consultations_controller.rb, app/helpers/attachments_helper.rb, app/models/consultation.rb, app/models/edition.rb, app/models/speech_type.rb, app/models/user.rb, app/presenters/feature_presenter.rb, app/views/consultations/_document_summary.html.erb, app/views/consultations/show.html.erb, app/views/documents/_attachment.html.erb, app/views/documents/_attachment_full_width.html.erb, app/views/documents/_change_notes.html.erb, app/views/documents/_document_extra_metadata.html.erb, app/views/documents/_document_footer_meta.html.erb, app/views/documents/_header.html.erb, app/views/documents/_history_notice.html.erb, app/views/documents/_metadata.html.erb, app/views/documents/_share_links.html.erb, app/views/documents/_withdrawn_notice.html.erb, app/views/shared/_available_languages.html.erb, app/views/shared/_heading.html.erb, lib/data_hygiene/policy_tagger.rb, lib/sync_checker/formats/html_attachment_check.rb]","[app/views/consultations/show.html.erb]","0.0416666667","1.0","[8bd84d52edf521153fe8d5689910bbac10843f84, b4ff36a2ce3d2ecbe10b0e3f4654d398bd5405a4, c916ad6ef86d83cf843740fa20268a96d7512a38]","2.556 seconds","4.2.7.1","[cucumber-rails, simplecov, factory_girl]","1","[]","14","17","[app/controllers/admin/consultations_controller.rb, app/controllers/consultations_controller.rb, app/helpers/attachments_helper.rb, app/views/consultations/_document_summary.html.erb, app/views/consultations/show.html.erb, app/views/documents/_attachment.html.erb, app/views/documents/_attachment_full_width.html.erb, app/views/documents/_change_notes.html.erb, app/views/documents/_document_extra_metadata.html.erb, app/views/documents/_document_footer_meta.html.erb, app/views/documents/_header.html.erb, app/views/documents/_history_notice.html.erb, app/views/documents/_metadata.html.erb, app/views/documents/_share_links.html.erb, app/views/documents/_withdrawn_notice.html.erb, app/views/shared/_available_languages.html.erb, app/views/shared/_heading.html.erb]","true","0.17857142869387754","0","","0",""
"whitehall","1258","[30-11-2016, 01-12-2016]","2","3","[Not every controller needs a ""navigation path""  This test assumes the majority of controllers in whitehall have index actions, and it assumes there is some value in being able to define a ""navigation path"" for any controller serving whitehall pages. There isn't. We use this to tell if a button should be highlighted. , Remove references to topics_path  Whitehall no longer serves an index page for topics and topical events.  This conflicts with a lot of code (mostly tests) that thinks these should exist.  `ApplicationHelper` contains a method `current_main_navigation_path` that atempts to work out a home for various pages, based on the controller handling them and the query params.  The only placed it's used is when comparing to the various top level nav pages in whitehall (to tell whether to highlight a button)  So the only useful return values are the ones corresponding to these: - Departments - Worldwide - How government works - Get involved - Policies - Publications - Consultations [TOO_LONG]","1","1","1","0","0","[ago, create_topical_event, record_css_selector, has_css?, create]","0","","0","","0","","0","","0","","[app/views/classifications/index.html.erb]","","0","14","3","[app/models/admin/edition_filter.rb, app/models/classification.rb, app/models/edition.rb, app/models/feature.rb, app/models/feature_list.rb, app/models/offsite_link.rb, app/models/organisation.rb, app/models/role.rb, app/models/speech_type.rb, app/models/user.rb, app/models/world_location.rb, lib/data_hygiene/publishing_api_sync_check.rb, lib/sync_checker/failure.rb, lib/whitehall/decorators/collection_decorator.rb]","[app/controllers/classifications_controller.rb, app/controllers/topical_events_controller.rb, app/helpers/application_helper.rb]","0.0","0.0","[8dfe1adda0c4803725cffc1670b64dcfa099b961, a2a494dc40b0c06c2534ae37c02998663507cae9, b2b565e857e5970d7f003d491bfc32caee59bbf6]","1.510 seconds","4.2.7.1","[cucumber-rails, simplecov, factory_girl]","0","[]","0","0","[]","false","0.0","2","[path:features/topical_events.feature, text:I should see the topical event ""An Event"" in the admin interface], [path:features/topical_events.feature, text:I should see the topical event ""An Event"" on the frontend is archived]","0",""
"whitehall","1280","[23-11-2016]","1","1","[Sort and group world locations to respect accented characters  In 3c0eb7e2a9f4ef791a9403c6d3f2fda8bad0590b we changed the sort order of world locations on the public index page to ignore ""The"" prefixes, so that places like ""The Occupied Palestinian Territories"" appear under ""O"" not ""T"".  Unfortunately this meant sorting in ruby and this didn't respect accented characters, meaning places like ""São Tomé and Principe"" appeared at the end of ""S"" rather than inbetween ""San Marino"" and ""Saudi Arabia"".  The order before we account for ""The"" prefixes is correct for accented characters, because it comes from the DB which has the correct collation settings.  The version of the name without the prefix does not live in the DB so we have to do the sort in memory, and this breaks the ordering for accented characters.  The solution, much like that used in Frontend (https://github.com/alphagov/frontend/pull/1053) is to use `ActiveSupport::Inflector.transliterate` to convert accented characters to th [TOO_LONG]","1","1","1","1","1","[gsub, create, raw, all, assert_equal, within, see_all_link, worldwide_organisation, record_css_selector, has_css?]","0","","0","","0","","0","","0","","[]","[atom]","1","26","1","[app/controllers/admin/world_locations_controller.rb, app/controllers/api/world_locations_controller.rb, app/controllers/world_locations_controller.rb, app/helpers/email_signup_helper.rb, app/helpers/filter_routes_helper.rb, app/helpers/public_document_routes_helper.rb, app/models/edition.rb, app/models/frontend/statistics_announcements_filter.rb, app/models/speech_type.rb, app/models/user.rb, app/models/world_location.rb, app/presenters/api/paginator.rb, app/services/service_listeners/author_notifier.rb, app/views/contacts/_contact.html.erb, app/views/shared/_available_languages.html.erb, app/views/shared/_featured.html.erb, app/views/shared/_featured_links.html.erb, app/views/shared/_feeds.html.erb, app/views/shared/_heading.html.erb, app/views/shared/_list_description.html.erb, app/views/shared/_recently_updated.html.erb, app/views/shared/_recently_updated_documents.html.erb, app/views/world_locations/_world_location.html.erb, app/views/world_locations/index.html.erb, app/views/world_locations/show.html.erb, app/views/worldwide_organisations/_worldwide_organisation.html.erb]","[app/helpers/world_location_helper.rb]","0.0","0.0","[da9f9ed032d7e580a2b4e29df0ecc65f30d4a74d]","1.987 seconds","4.2.7.1","[cucumber-rails, simplecov, factory_girl]","1","[]","13","20","[app/controllers/admin/world_locations_controller.rb, app/controllers/api/world_locations_controller.rb, app/controllers/world_locations_controller.rb, app/helpers/email_signup_helper.rb, app/helpers/filter_routes_helper.rb, app/helpers/public_document_routes_helper.rb, app/services/service_listeners/author_notifier.rb, app/views/contacts/_contact.html.erb, app/views/shared/_available_languages.html.erb, app/views/shared/_featured.html.erb, app/views/shared/_featured_links.html.erb, app/views/shared/_feeds.html.erb, app/views/shared/_heading.html.erb, app/views/shared/_list_description.html.erb, app/views/shared/_recently_updated.html.erb, app/views/shared/_recently_updated_documents.html.erb, app/views/world_locations/_world_location.html.erb, app/views/world_locations/index.html.erb, app/views/world_locations/show.html.erb, app/views/worldwide_organisations/_worldwide_organisation.html.erb]","false","0.0","2","[path:features/world-locations.feature, text:I should see the following world locations grouped under ""E"" in order:], [path:features/world-locations.feature, text:I should see the following world locations grouped under ""S"" in order:]","0",""
"whitehall","1492","[21-04-2016, 22-04-2016]","2","16","[Add further unit tests to SpecialistTagFinder , SpecialistTagFinder refactor - extract common content item logic. , Clarify the role of the grandparent / top-level topic  - Add a comment in SpecialistTagFinder explaining why this method   exists. - Rename grandparent topic to top-level topic, as it's meaning is   slightly clearer. , Add a SpecialistTagFinder::Null object  - Has canned (empty) responses to #topics and #grandparent_topic. - Use in DocumentHelper to remove check on nil. - Use in test support files to simplify stubbing. , Remove unused specialist sector helper in feature support files , Memoize methods in SpecialistTagFinder  So that #topics and #grandparent_topic don't make repeat network calls when called multiple times on same instance. , Rework topic tagging integration tests  - Rewrite the specialist sectors feature to test retrieval and display   of topic tags. - Remove unnecessary integration test. , Add SpecialistTagFinder stubs in cucumber features , Remove unus [TOO_LONG]","1","1","1","2","2","[create, merge!, content_store_has_item, has_content?, has_css?, record_css_selector]","0","","0","","0","","0","","0","","[]","[content_item_for_base]","1","14","6","[app/models/corporate_information_page_type.rb, app/models/document.rb, app/models/email_signup_pages_finder.rb, app/models/organisation_brand_colour.rb, app/models/organisation_logo_type.rb, app/models/policy.rb, app/presenters/publishing_api_presenters.rb, app/presenters/publishing_api_presenters/coming_soon.rb, app/presenters/publishing_api_presenters/edition.rb, app/presenters/publishing_api_presenters/html_attachment.rb, app/presenters/publishing_api_presenters/item.rb, app/presenters/publishing_api_presenters/topical_event_about_page.rb, app/presenters/publishing_api_presenters/unpublishing.rb, lib/specialist_tag_finder.rb]","[app/helpers/document_helper.rb, app/helpers/specialist_sector_helper.rb, app/presenters/publishing_api_presenters/edition.rb, app/views/documents/_header.html.erb, lib/specialist_tag_finder.rb, lib/whitehall.rb]","0.1428571429","0.3333333333","[595b48cc4d887bed22573f0827372f45462362ee, 149c6a3207adc04f56cb59c37a5c34c45ff6c951, 47501d36b9d86c0cc0fc74c0815c6a6b606371c2, bf784b05c467d3ce576fc8729810d21078cbc69c, 820a351f9fba0a294c3e2c77746ee2cf20694ce6, aa2f7f9aced7030f6a06168d6d6579e852196b1f, a15628e2c34de9245e0f984ef8609255a8fafa5e, 99336d15a9f29add76b7fa4a8da23a86d4df4861, a9aa2b17cff698af77193ce495adf291e3992966, 497702b13d92e806b6f297cb7da3e5d9b2a14840, 4747df94f59ecbb2457ca07c29566d3a9c85d4d5, 0299fc34a09ab742657f8681aac9ed41191413c7, ae3c3a8387065dcdd17577bd0972f684e955aff9, 6c3519eff4e6e20ca2385230b3abf303ba6f28d2, f6d5aaaf55980ef9bd31ce67c44b5a9e5b9ea697, 40fe0d0ff810e16064ca00cdd3e40cdaffc07171]","1.409 seconds","4.2.5.2","[cucumber-rails, simplecov, factory_girl]","1","[]","0","6","[app/presenters/publishing_api_presenters/coming_soon.rb, app/presenters/publishing_api_presenters/edition.rb, app/presenters/publishing_api_presenters/html_attachment.rb, app/presenters/publishing_api_presenters/item.rb, app/presenters/publishing_api_presenters/topical_event_about_page.rb, app/presenters/publishing_api_presenters/unpublishing.rb]","false","0.2631578947493075","1","[path:features/specialist-sectors.feature, text:I should see the specialist sub-sector and its parent sector]","0",""
"whitehall","1497","[15-04-2016, 18-04-2016]","4","3","[Merge pull request #2526 from alphagov/delete-policy-working-groups  Delete policy groups frontend parts, Remove check attachment shows in group  We can no longer check the rendered policy group from within Whitehall. Corresponding tests are now performed in the publishing API steps here: https://github.com/alphagov/whitehall/blob/19e8c9c4af711a777ed6e16d933d8 e2b8781c70a/test/unit/presenters/publishing_api_presenters/working_group _test.rb#L43-L51 , Delete policy groups front-end parts  * Remove styles and view * Simplify show method in controller, leave in place redirect and test * Leave route in place while we need it to generate paths for content * Update associated tests to look for presence of group in index list, but no longer visit the group itself, as that’s no longer served by Whitehall ]","1","1","1","3","3","[create, has_text?, click, fill_in, click_button, click_link, attach_file, text, record_css_selector, has_css?]","0","","0","","0","","0","","0","","[app/views/policy_groups/show.html.erb]","","0","30","1","[app/controllers/admin/policy_groups_controller.rb, app/controllers/policy_groups_controller.rb, app/models/attachment.rb, app/models/classification.rb, app/models/corporate_information_page_type.rb, app/models/edition.rb, app/models/email_signup_pages_finder.rb, app/models/feature.rb, app/models/feature_list.rb, app/models/frontend/statistics_announcements_filter.rb, app/models/group.rb, app/models/offsite_link.rb, app/models/organisation.rb, app/models/organisation_brand_colour.rb, app/models/organisation_logo_type.rb, app/models/policy.rb, app/models/policy_group.rb, app/models/role.rb, app/models/speech_type.rb, app/models/user.rb, app/models/world_location.rb, app/presenters/api/paginator.rb, app/presenters/publishing_api_presenters/edition.rb, app/views/admin/attachments/_markdown_codes.html.erb, app/views/admin/policy_groups/_form.html.erb, app/views/admin/policy_groups/edit.html.erb, app/views/policy_groups/index.html.erb, app/views/shared/_heading.html.erb, lib/data_hygiene/publishing_api_sync_check.rb, lib/whitehall/decorators/collection_decorator.rb]","[app/controllers/policy_groups_controller.rb]","0.0333333333","1.0","[b80f7c2f5d319396e3575950f7691db269c5b9e4, 4b1d47eff50d799d51bff00d2afa88d0cb92ebbd, 17c1451e3c21293d15223a43dd952407e1b7078f]","1.998 seconds","4.2.5.2","[cucumber-rails, simplecov, factory_girl]","3","[]","5","7","[app/controllers/admin/policy_groups_controller.rb, app/controllers/policy_groups_controller.rb, app/views/admin/attachments/_markdown_codes.html.erb, app/views/admin/policy_groups/_form.html.erb, app/views/admin/policy_groups/edit.html.erb, app/views/policy_groups/index.html.erb, app/views/shared/_heading.html.erb]","true","0.14705882339965398","1","[path:features/policy-groups.feature, text:I should see the policy group ""ABC Advisories"" in the index]","0",""
"whitehall","1544","[10-03-2016]","1","3","[Remove rake task for unwithdrawing editions  This is no longer needed as managing editors can self-serve unwithdrawals. , Allow managing editors to unwithdraw editions  This was previously only possible as a rake task, which meant only a developer with production access could unwithdraw Whitehall content.  https://trello.com/c/jkI34gB3/303-build-a-self-service-option-for-un-withdrawing-documents-in-whitehall-for-managing-editors-medium , Update cucumber step so that it forms a sentence ]","1","3","3","4","4","[create, record_css_selector, has_css?, gsub, click_on, choose, fill_in, click_button, current_state, assert_equal, has_content?, unpublishing, explanation, editorial_remarks, assert_equal, click_link, published_edition, reload, click_on, title]","0","","0","","0","","0","","0","","[]","","0","34","5","[app/helpers/admin/edition_routes_helper.rb, app/helpers/public_document_routes_helper.rb, app/models/admin/edition_filter.rb, app/models/admin/statistics_announcement_filter.rb, app/models/classification_featuring.rb, app/models/corporate_information_page.rb, app/models/edition.rb, app/models/featured_policy.rb, app/models/frontend/statistics_announcements_filter.rb, app/models/has_corporate_information_pages.rb, app/models/person.rb, app/models/publication.rb, app/models/registerable_edition.rb, app/models/sitewide_setting.rb, app/models/speech_type.rb, app/models/user.rb, app/presenters/api/paginator.rb, app/presenters/email_signup_information_presenter.rb, app/presenters/feature_presenter.rb, app/presenters/promotional_feature_item_presenter.rb, app/presenters/publishing_api_presenters/case_study.rb, app/presenters/publishing_api_presenters/coming_soon.rb, app/presenters/publishing_api_presenters/edition.rb, app/presenters/publishing_api_presenters/placeholder.rb, app/presenters/publishing_api_presenters/take_part.rb, app/presenters/publishing_api_presenters/topical_event_about_page.rb, app/presenters/publishing_api_presenters/unpublishing.rb, app/presenters/publishing_api_presenters/working_group.rb, app/presenters/role_presenter.rb, app/services/service_listeners/author_notifier.rb, lib/data_hygiene/policy_tagger.rb, lib/data_hygiene/specialist_sector_tagger.rb, lib/data_hygiene/tag_changes_processor.rb, lib/whitehall/data_migration.rb]","[app/controllers/admin/edition_workflow_controller.rb, app/views/admin/edition_workflow/_unwithdraw_modal.html.erb, app/views/admin/edition_workflow/confirm_unwithdraw.html.erb, app/views/admin/editions/show.html.erb, lib/whitehall/authority/rules/edition_rules.rb]","0.0","0.0","[4d5505f6d46a1bba5742a5aa68f0d6df25350ba7, e55cdecb035549ffd31157eba769be3d0f7ab618, d0a1c88c756a77a12f6036ae054586064965e814]","1.873 seconds","4.2.5.2","[cucumber-rails, simplecov, factory_girl]","4","[]","0","3","[app/helpers/admin/edition_routes_helper.rb, app/helpers/public_document_routes_helper.rb, app/services/service_listeners/author_notifier.rb]","false","0.0","1","[path:features/unpublishing-published-documents.feature, text:I should see the updated explanation on the public site]","0",""
