"Repository","https://github.com/alphagov/whitehall.git"
"TASK","HASH","RUBY","RAILS","COVERAGE","TESTS"
"1000","3a54d9cc80f72418b75b15e3221e9e8aba920a73","","4.2.8","simplecov","features/news-article.feature(5);features/news-article.feature(9);features/news-article.feature(13);features/news-article.feature(17);features/news-article.feature(21)"
"1001","17a514b0d4b0e4f59282bec30c998197e0873ed1","","4.2.8","simplecov","features/worldwide-organisations.feature(39)"
"1008","bb1bb9abba6de3e198f3ea3017bb65e23b7528e7","","4.2.8","simplecov","features/worldwide-organisations.feature(38)"
"1025","aa8553a4a310e86276113e848452281ede0b0ab8","","4.2.8","simplecov","features/non-english-news-article.feature(16)"
"1040","9deb239c100f2f13d7f82dfe70095b4208460f5a","","4.2.7.1","simplecov","features/edition-attachments.feature(58)"
"1080","7aeadc2373da00b0fba8a20bdda0a453bc65cab5","","4.2.7.1","simplecov","features/speeches.feature(14);features/speeches.feature(49);features/speeches.feature(55);features/topical_events.feature(19)"
"1084","51677354e9358e09671c400ce6acdb0a7d9f4b8a","","4.2.7.1","simplecov","features/publications.feature(73);features/statistical-data-sets.feature(9)"
"1091","57b7b0a92ef2ade55385de052b61825c90388c0f","","4.2.7.1","simplecov","features/edition-attachments.feature(58)"
"1122","dc00e14cda55da84ee2bf673cfa5b6c4fd3d240a","","4.2.7.1","simplecov","features/consultations.feature(15);features/consultations.feature(22);features/consultations.feature(28);features/consultations.feature(35);features/topical_events.feature(40)"
"1151","3977c39cdbcd47e63bc31d144d0e3861c586f16e","","4.2.7.1","simplecov","features/consultations.feature(15);features/consultations.feature(21);features/consultations.feature(28);features/topical_events.feature(40)"
"1251","8bd84d52edf521153fe8d5689910bbac10843f84","","4.2.7.1","simplecov","features/consultations.feature(22)"
"1258","8dfe1adda0c4803725cffc1670b64dcfa099b961","","4.2.7.1","simplecov","features/topical_events.feature(14)"
"1280","da9f9ed032d7e580a2b4e29df0ecc65f30d4a74d","","4.2.7.1","simplecov","features/world-locations.feature(86)"
"1492","595b48cc4d887bed22573f0827372f45462362ee","","4.2.5.2","simplecov","features/specialist-sectors.feature(13)"
"1497","b80f7c2f5d319396e3575950f7691db269c5b9e4","","4.2.5.2","simplecov","features/policy-groups.feature(23)"
"1544","4d5505f6d46a1bba5742a5aa68f0d6df25350ba7","","4.2.5.2","simplecov","features/unwithdrawing-withdrawn-documents.feature(6);features/unpublishing-published-documents.feature(39);features/unpublishing-published-documents.feature(46)"
