"Repository","https://github.com/alphagov/whitehall.git"
"Tasks with empty IReal","3"
"Tasks with no-empty IReal","0"
"Tasks with relevant AST error","0"
"Tasks with AST error of Gherkin files","0"
"Tasks with AST error of StepDef files","0"
"Tasks with AST error of production files","0"
"Tasks with AST error of unit test files","0"
"Tasks with step match error","0"
"Tasks without required gems","0"
"Tasks with changed stepdef","3"
"Tasks with changed Gherkin","3"
"Tasks with implemented Gherkin scenarios","3"
"All invalid tasks","3"
"All valid tasks (Gherkin scenario, no empty IReal, no error)","0"
"Valid tasks, but empty ITest","0"
"Valid tasks, no empty ITest, but zero precision-recall","0"
"Valid tasks, no empty ITest, no zero precision-recall","0"
"Project","Task","Date","#Days","#Commits","Commit_Message","#Devs","#Gherkin_Tests","#Impl_Gherkin_Tests","#StepDef","#Impl_StepDef","Methods_Unknown_Type","#Step_Call","Step_Match_Errors","#Step_Match_Error","AST_Errors","#AST_Errors","Gherkin_AST_Errors","#Gherkin_AST_Errors","Steps_AST_Errors","#Steps_AST_Errors","Renamed_Files","Deleted_Files","NotFound_Views","#Views","#TestI","#TaskI","TestI","TaskI","Precision","Recall","Hashes","Timestamp","Rails","Gems","#Visit_Call","Lost_visit_call","#Views_ITest","#Code_View_Analysis","Code_View_Analysis","Has_Merge","F2","#Multiple_Step_Matches","Multiple_Step_Matches","#Generic_Step_Keyword","Generic_Step_Keyword"
"whitehall","1077","[22-03-2017]","1","2","[Remove other NewsArticle front-end code , Remove presenting news articles ]","2","1","1","1","1","[create, add_translation_to_world_location, click_link, find_by, select, click_button, within, record_css_selector, attach_file, fill_in, find_by!, record_css_selector, has_css?, gsub]","0","","0","","0","","0","","0","","[app/controllers/news_articles_controller.rb, app/views/news_articles/_document_sidebar.html.erb, app/views/news_articles/show.html.erb]","","0","9","0","[app/controllers/admin/world_locations_controller.rb, app/models/edition.rb, app/models/news_article.rb, app/models/speech_type.rb, app/models/user.rb, app/models/world_location.rb, app/views/admin/world_locations/show.html.erb, lib/locale.rb, lib/localised_model.rb]","[]","0.0","0.0","[3ce2e64371e176ea2b137519ccb13103e9442af5, d9042dc61d79c7cb586581cb3af9bc089290a42d]","9.246 seconds","4.2.7.1","[cucumber-rails, simplecov, factory_girl]","2","[]","1","2","[app/controllers/admin/world_locations_controller.rb, app/views/admin/world_locations/show.html.erb]","false","0.0","2","[path:features/world-locations.feature, text:I should see ""Barbes"" as the title of the featured item on the french ""Jamestopia"" admin page], [path:features/world-locations.feature, text:I should see ""Barbes"" as the title of the feature on the french ""Jamestopia"" page]","0",""
"whitehall","1223","[15-12-2016]","1","2","[Use news articles for slimmer header exclusion test  After deleting the statistical data sets controller these tests were failing. , Remove statistical data sets front-end parts  * Remove styles, template and controller * Remove controller test * Update statistical data sets feature * Add `todo` regarding not removing route entry for now ]","1","1","1","1","1","[create, groups, find, click_link, within, has_css?, record_css_selector]","0","","0","","0","","0","","0","","[app/controllers/statistical_data_sets_controller.rb, app/views/statistical_data_sets/show.html.erb]","","0","26","0","[app/controllers/admin/organisations_controller.rb, app/controllers/api/organisations_controller.rb, app/controllers/latest_controller.rb, app/controllers/organisations_controller.rb, app/models/document_collection.rb, app/models/frontend/statistics_announcements_filter.rb, app/models/latest_documents_filter.rb, app/models/speech_type.rb, app/presenters/api/paginator.rb, app/presenters/document_filter_presenter.rb, app/presenters/feature_presenter.rb, app/presenters/publishing_api/consultation_presenter.rb, app/presenters/publishing_api/publication_presenter.rb, app/services/draft_edition_updater.rb, app/services/draft_translation_updater.rb, app/services/edition_service.rb, app/services/edition_service_coordinator.rb, app/views/organisations/_index_section.html.erb, app/views/organisations/index.html.erb, lib/data_hygiene/policy_tagger.rb, lib/data_hygiene/publishing_api_document_republisher.rb, lib/sync_checker/formats/html_attachment_check.rb, lib/whitehall.rb, lib/whitehall/document_filter/fake_search.rb, lib/whitehall/document_filter/filterer.rb, lib/whitehall/document_filter/rummager.rb]","[]","0.0","0.0","[fa5b5ea9cc929b9c3f3fb3497b34502bdea4da7d, 5711d236902bb4c1ebdf7d7209b050d13d1073ac]","0.916 seconds","4.2.7.1","[cucumber-rails, simplecov, factory_girl]","1","[]","2","5","[app/controllers/admin/organisations_controller.rb, app/controllers/api/organisations_controller.rb, app/controllers/organisations_controller.rb, app/views/organisations/_index_section.html.erb, app/views/organisations/index.html.erb]","false","0.0","1","[path:features/statistical-data-sets.feature, text:I should see the ""Vehicle speeds 2010"" statistical data set]","0",""
"whitehall","1344","[12-10-2016]","1","7","[Merge pull request #2777 from alphagov/remove-fatality-notice-presentation  Remove fatality notice presentation, Remove pluralisation locales for Fatality Notices , Remove Fatality Notice frontend scenarios  These are no longer needed as the format has been migrated and is now rendered by government-frontend. , Delete Fatality Notices controller  This is no longer needed as the format has been migrated and is now rendered using government-frontend. , Remove Fatality Notice crest images , Remove unused field of operation translations  These are no longer needed now we have removed Field of Operation frontend views. , Remove Fatality Notice frontend views ]","1","1","1","1","1","[click_link, has_content?, create, begin_drafting_document, fill_in, click_button, click_link, has_css?, within, find, visible?, select_option, has_no_css?, find_field, evaluate_script, execute_script, to_json, create]","0","","0","","0","","0","","0","","[app/controllers/fatality_notices_controller.rb, app/views/fatality_notices/_document_extra_metadata.html.erb, app/views/fatality_notices/_document_sidebar.html.erb, app/views/fatality_notices/show.html.erb]","","0","21","0","[app/controllers/admin/organisations_controller.rb, app/controllers/api/organisations_controller.rb, app/controllers/organisations_controller.rb, app/models/admin/edition_filter.rb, app/models/admin/statistics_announcement_filter.rb, app/models/classification_featuring.rb, app/models/corporate_information_page.rb, app/models/edition.rb, app/models/fatality_notice.rb, app/models/featured_policy.rb, app/models/frontend/statistics_announcements_filter.rb, app/models/organisation.rb, app/models/registerable_edition.rb, app/models/user.rb, app/presenters/api/paginator.rb, app/presenters/email_signup_information_presenter.rb, app/presenters/feature_presenter.rb, app/presenters/promotional_feature_item_presenter.rb, app/views/organisations/_index_section.html.erb, app/views/organisations/index.html.erb, lib/whitehall/document_filter/options.rb]","[]","0.0","0.0","[8bdcf9d41be370b322f55e3606315b31abcc4421, d19c3259d98c1dc93d6c199f554ee1a922cde2ee, b7f45b88f988e131ffda577cc3f55ce0de70899b, 5bf822ce51226ce46383c58de5358d7519fe26de, 5126ed73834e704b9098274368ff884a1e9e5a3b, 86c4bc60befbb12f7283ef906214024345aeed1f, c8257692aced7fef3a90340957a5d8ed39780080]","2.991 seconds","4.2.7.1","[cucumber-rails, simplecov, factory_girl]","1","[]","2","5","[app/controllers/admin/organisations_controller.rb, app/controllers/api/organisations_controller.rb, app/controllers/organisations_controller.rb, app/views/organisations/_index_section.html.erb, app/views/organisations/index.html.erb]","true","0.0","0","","0",""
