"Repository","https://github.com/alphagov/whitehall.git"
"TASK","HASH","RUBY","RAILS","COVERAGE","TESTS"
"3523","daa268314c417333c87ceac3cd5af64d9e3fd88b","","3.1.12","simplecov","features/publishing-worldwide-priorities.feature(3);features/translated-content.feature(11)"
"3533","6e6abb5a367455748c92a42760f33508e6514c7c","","3.1.12","simplecov","features/viewing-published-worldwide-priorities.feature(15);features/editing-draft-policies.feature(37)"
"3542","4978ee40b2ecb0de34bfea6ccc1998d8a3fba988","","3.1.11","simplecov","features/administering-worldwide-organisations.feature(41)"
"3549","1d458f6c75ff4410ac614317444625f5c9c45c24","","3.1.11","simplecov","features/html-versions-of-publications.feature(27);features/html-versions-of-publications.feature(34)"
"3555","e9b50853d6b1870a3d5753b503beb80eaf2013d8","","3.1.11","simplecov","features/editing-draft-consultations.feature(14);features/editing-draft-publications.feature(10);features/editing-draft-publications.feature(15);features/editing-draft-speeches.feature(15);features/editing-draft-speeches.feature(20);features/publishing-news-articles.feature(11);features/publishing-news-articles.feature(17);features/html-versions-of-publications.feature(24)"
"3562","384d158c0ec6c04ed8a131520215e7a859e26be8","","3.1.11","simplecov","features/administering-organisations.feature(46);features/administering-organisations.feature(63)"
"3567","262aa420927c404e771a0c6d12438409e72ad9aa","","3.1.11","simplecov","features/html-publications.feature(24)"
"3576","dcf361d413d21e73206ad259351a63c22ad8a211","","3.1.11","simplecov","features/importing-new-editions.feature(254)"
"3586","a7bfa39d868dc1ff2dd672effcb4d7d8e7bfea0e","","3.1.11","simplecov","features/world-location-news.feature(37);features/world-location-news.feature(41);features/world-location-news.feature(48);features/world-location-news.feature(52);features/world-location-news.feature(60);features/world-location-news.feature(70)"
"3588","97b678930696deb1341ab8a7d9e5cd2d3ab75e64","","3.1.11","simplecov","features/unpublishing-published-documents.feature(18)"
"3591","c168c9cd5cdbc929b19b67435e45451c727efbe5","","3.1.11","simplecov","features/viewing-minister-pages.feature(34)"
"3595","8f30a4276f33c44c6dbc60640b8c2f1d4c16fa48","","3.1.11","simplecov","features/importing-new-editions.feature(240)"
"3604","adaa7e8f346153fae95b3a6fc74a1d46f2dc3af3","","3.1.11","simplecov","features/importing-new-editions.feature(99);features/importing-new-editions.feature(203)"
"3606","65271c874a179d0504b4d4199101556761587d76","","3.1.11","simplecov","features/administering-roles.feature(37);features/administering-people.feature(20);features/administering-people.feature(27)"
"3610","40adc3b7d08a8581b1ec172fbe0ac32677a1205b","","3.1.11","simplecov","features/speed-tagging-editions.feature(18);features/speed-tagging-editions.feature(42);features/speed-tagging-editions.feature(65);features/speed-tagging-editions.feature(69);features/speed-tagging-editions.feature(73)"
"3612","48b6f7f84e5521d40ebb7f3544099530f8215f89","","3.1.11","simplecov","features/administering-worldwide-organisations.feature(94)"
"3632","d6ee1bcfe2e21b8899ebe7a21ce3a54b10212c69","","3.1.11","simplecov","features/speed-tagging-editions.feature(54)"
"3636","1f4fd022233e6cb7acf746d2b1d5ab2d37d9f5f5","","3.1.11","simplecov","features/administering-worldwide-organisations.feature(62);features/administering-corporate-information-pages.feature(3)"
"3639","72444b273b03fc869c91ae7f1a3da00f6983b2f7","","3.1.11","simplecov","features/unpublishing-published-documents.feature(12)"
"3640","ad16591bdef4f6bb66f99a85918a16b106b3394b","","3.1.11","simplecov","features/translated-content.feature(6);features/administering-world-locations.feature(27);features/administering-world-locations.feature(39);features/administering-worldwide-organisations.feature(63);features/administering-worldwide-organisations.feature(77)"
"3649","b361410273f06cef788edd4607102f617594f1c4","","3.1.11","simplecov","features/viewing-people-pages.feature(18);features/administering-worldwide-organisations.feature(19);features/administering-worldwide-organisations.feature(30);features/administering-worldwide-organisations.feature(36);features/administering-worldwide-organisations.feature(41);features/administering-worldwide-organisations.feature(46);features/administering-worldwide-organisations.feature(53);features/administering-worldwide-organisations.feature(63);features/administering-worldwide-organisations.feature(77);features/administering-roles.feature(21);features/administering-roles.feature(29);features/viewing-published-worldwide-priorities.feature(9)"
"3653","f176b67bb5ba0e1c5bd90bcc1bcf68b7fec87774","","3.1.11","simplecov","features/viewing-people-pages.feature(18)"
"3676","973a01a947db7ca51a2eb37a2aecd3efcd9ecc28","","3.1.11","simplecov","features/viewing-minister-pages.feature(27);features/viewing-minister-pages.feature(34)"
"3681","dd65cbbbabbf0a2d0364f0f8153925d29d2681f9","","3.1.11","simplecov","features/editing-draft-worldwide-priorities.feature(6);features/editing-draft-worldwide-priorities.feature(10);features/publishing-worldwide-priorities.feature(3);features/viewing-published-worldwide-priorities.feature(3);features/viewing-published-worldwide-priorities.feature(9);features/viewing-world-locations.feature(21)"
"3685","14ad92fd0fdf6c525f889a8b783da463f9830b3d","","3.1.11","simplecov","features/administering-worldwide-offices.feature(62);features/administering-worldwide-offices.feature(76)"
"3686","720e4193f041bf700f1b7487de74192b2bd5a402","","3.1.11","simplecov","features/editing-draft-international-priorities.feature(10)"
"3698","9680962ba05327e3342861bbb25e127079fba7c1","","3.1.11","simplecov","features/unpublishing-published-documents.feature(6)"
