"REPO_URL","TASK_ID","#HASHES","HASHES","#PROD_FILES","#TEST_FILES","LAST"
"https://github.com/opf/openproject-ce.git","7733","11","[c59e3a59012542ebc39b16d63a31708bf21e2844, 5b18c79a14fa1972a7441ad86ec7270ca362a676, 12db97de8c9c24fa925e9695a43a77f00d65afad, 9d72eb9488a171ea0440c907265464ac17a1e1ba, e18c18ccf0b9249a7d1133478a5d6796f483c99d, 411b3a3527f4a138952ee4158cdce3995da3e76b, 2f8596533fb697f419f6ad77be359967093a3517, 0d282d2392d473a26c78f50afc80f85ef5416c84, ef179d96acccccbdcc5454246672686580b51404, 34d6ea150a820e937a1b0135cf570cd66ca94ac7, c12cd86b7ec6feb9e475f726325d94a2491556ec]","2","6","c59e3a59012542ebc39b16d63a31708bf21e2844","413914d25388cf7903ae373bca9ba74ea3fd09fd","bededadda25389ecf7fdf5253ab44b666dbbab3c"
"https://github.com/opf/openproject-ce.git","7751","38","[4b2269f44350681c4658be3cf73e1828772b7777, 6c8f96fa4b00bfc7373c9054add1635d97428e8b, 04b7311f10cb45e16b679d053696188f6d891374, 6c32879adbdac86d968e77afcf267b0f475cb697, 555d2af0ed6c2880b2045a20cffac567c4ec2524, 6db32fb04fa641e32028094c29f87cf4f0ca29a8, 650769890b0297273ff737761926c6f71b34fb6e, 15ce39898c51250a319ff561568519d17affb2af, d3edf0098329d5a492cd793467339cde4008e62b, 5c9b0231e6e7a476e148a36fb94033fc71379bff, 53aaae6a566d98a02dcefe0198f95eb6285f8a68, f60f5ce9dea8189486403a2855638e98c98550ad, ba76a482f27a6caf55c74c5b108bbbeb166d5050, 8f44bd1a7290ca5c280ce3275424edd413e020f9, 623028267f9f0ba6b146995dd8a806e9f02b66f3, b6d11b516326aa5e0f3108387a8b6aefabc06ac8, 30858407d71f925c5458c7e0c2c7dcf5bb2e068b, 0fc26d40fd1c471aff4953041557bbaa6504dd03, c5be8ae5768d69ac63a4c031a2c4afc5095d8ef8, 3a0af51c83af121a012e4ed522a63b48269ea8d2, 51c7685e24f717f2f72694cc44d77d4fd3d8c99b, 45767f8af6db6d3a6ea0570e0d7e26e6115623e0, 757a4e156c44698bc79191087151c648cc16e925, 1a954278adcafe1e99a811130f0504ce814efd78, 6c378fc79b002196b29092f57cfdd0a66d2645c1, 95049cae33421a123d40e35f2f0420a640378ad9, cdb73fd2d1b1dfd730d667a7e72da839c3977f28, 276d91f32934c9966fdd92af0a41cfd3a422d0fe, a57c12756db9d919677496d986f206d00637110a, f3d3935b7311e5f28433cef18b609373fe8f6b65, baacf131fd5d2d871b5bdf87ad6fd12f64e7cd25, 343bac41822868027dbfd33e5c5011db3443dcb9, 5598d181b429fb41202b31d6a45bf21661e3c1dc, c261d06324bc4943e2532b50d48f7510ada65b72, 64e6c29eb0af42ab3a8b070d58339f3f070e409c, ad038629f5e4c7049e033ea8016d78cf27c254b1, 73cfd8d53cd6f33e57177f2d69a4e0ecb837b912, aee6f3aa46c93394ca6d3b2c7707f0716710c086]","5","6","4b2269f44350681c4658be3cf73e1828772b7777","d00823f0f6c9860481571fd9b19ad568144603ff","89f28ddd50b36a89f6a417da6722d294c07e0fdd"
"https://github.com/opf/openproject-ce.git","7761","6","[d7e8dc4d24839f0fbe204b4dc9f4c3b306c89b26, 41b99dd5281b9a7e0024e539923ffafcd8864e6d, 3349c6936278792b6a569ff354fb3c4b95817afc, eecf30afbc29824ee806c1aa0850dc31f41694ce, 40e74bba43a50376c8bb45fdcf59ee1dc63ecbf6, 6537d8aaaa430fa8807b5c6e953a7834b8ad6fe0]","21","2","d7e8dc4d24839f0fbe204b4dc9f4c3b306c89b26","3d2cd470874e609a2c3bb80975212b4a33b602d7","9b7044578e9025ae2bdfd09ebee3ca2cf978f606"
"https://github.com/opf/openproject-ce.git","7763","12","[745f596725c2c3b3ab9188935121a5d61abc4283, 8e962e1f76a15ccc33fa210482073dab259e1da1, bdf19298c68dcabad5e39039403d1b2bed44eb02, f91a6f90b67ab87c4a98aca7b3f7b6b5e2477bda, c50dc253fbd188c65357fe22a8ac75bd298a45af, 6f4d1c84a5699bd8762157fee99274a96e29ce5a, 1f48da0d297b96c220492d1214b5a544f4bf8650, 32534bcdfe1c84558e5207174ce69460d41acfbf, e910dda4f17d127388740bcb1d0223ff3bdc5b28, 474d01de1e684311488027baa4211ac4507e94ed, 9931ab2e3135b779e298bbe96350b5f9ca0427ad, 75667eaf850c6990e2a87ef7fd3c1658ba3f0c11]","11","2","745f596725c2c3b3ab9188935121a5d61abc4283","c7021aebb43d68952784fb12ee01a87763abb935","f92248498affa63f87ef8653e20bddc8ba091bfc"
"https://github.com/opf/openproject-ce.git","7769","4","[32b8ac920cdff9d096ce403fcdadeb476b6731ec, c10c03f1dad34cac1d81615d845237d63b62c17b, 1cd3597157e896fe81fa768dca6147d10758dc5b, 77310b40f30ba16a2de5f393e8ee8259e18568eb]","1","1","32b8ac920cdff9d096ce403fcdadeb476b6731ec","59f4381d5cd3c1e3291820100297563bef0a29ec","06610e08ef978c1775e00f342b6adeff8f16e1e0"
"https://github.com/opf/openproject-ce.git","7773","27","[9be0d9fc97f2fcabb79823a1f0530f6ed833691c, 9f8d7ee676283c404a08410394b9cddfd95d0f4b, 558cd3a25c6435573d99827086ae0660a407e139, bac5ce0f6e4380ca9b3085915ef5daa1262956be, 326ab3b45a4e1e24a6e076f627c673dbc4a957e9, 9a07a4f534e74ff347a5340dee2d9949fbe13101, 63d7ab4747e4f2001ab21c36d0b08feea1765c0e, 99c89691156cc479d4c0ab80f9d902c90543724c, e30ad5e1c598b9da6bba8f1eef63b2dbd4949620, 3633a44a62424ab142fbb34bf771151ad27546ae, bcabd5bca190764f9dd395318dc1a6932c34221a, 4899367d8c772b34454cd19e1cf0fae3e039d145, dc009103851c20eeceefda0492cc8530bc3d383d, e90961d0731a2b7b12bcc7670c47e17dc575f72a, ab7dd219dbf75e9247a3e7dced6259f40cd227de, 8ca88d1834acbdd763a78cb04b8c6c50576a45b2, fd7de92f7cd3c3adc7826e2e11cb6c5ed349c360, 453439259f55b9ae6e762868a0290ac0a565db3e, ba31a928a1b6cdc045f60569940ba105f7146fe5, e74287fbd117cdec8d656c29588c5e3707450b46, 6d4e70040bbf243bb193a17af05896b8bc078b46, 31ca1a3d6248d8c6a9a5f199f02e2b88742e6db3, 533796b91c61a38d6e90169082a3ec7fc5d52cd1, 820569fac9df31d4b4997b48c31e43d0f7603533, 4465477a27d3ce8b60c1d509342d56eb2c1f4dbf, a7ac1112d6fd60ef3ee32c29036355e80d9dd4d6, 1240aa74e6488f1d5fdf64c652fadb70d4a9504b]","8","8","9be0d9fc97f2fcabb79823a1f0530f6ed833691c","c16121da7fb2e2d99337b79ff6080a41cb20097d","4df000766aecd9606cad5f1f23105a0dcc17353d"
"https://github.com/opf/openproject-ce.git","7775","6","[5146803d3746405f9579798e062c6c1ff239fa2c, e3c3fd0bbf20fb0ad7b444ee51323ef6de1cefb9, 06c971fb6bde49d2862e6867c5239eb28b171f7f, 81c56ba33b5f5d287d3b558a795918100116ab0c, 2d29cc980fef70a892f2de751f4a97d653ad5db1, acffdc96c81ad8c29797f1e4ea7673783250130f]","1","1","5146803d3746405f9579798e062c6c1ff239fa2c","4df000766aecd9606cad5f1f23105a0dcc17353d","fe96d1e58225e6fb94219f65ef24822a6b8efb2d"
"https://github.com/opf/openproject-ce.git","7780","9","[c0ce2659e51a98b5606adfb7a892a156dc747129, aa2d6817e0b8de667e4e10a7037fd22935ad99c8, a1e67dd4607ce9fb975044977a54cf65ad848e89, d08f44ff834b79149959a76feeae26e10d7cf81d, c23e991625552119464b1d7d1167805e5598cffc, 0d582d3b9f217323cb72b697d0155d9ebd403957, 8723abd33eb25cb5225517a48e3ef50d4bc02bf6, 1559de038188bb8091b1e50c8fa79c0f5029648d, 12af1745306662cd673abf5baf0afcbadaf7a9f2]","674","81","c0ce2659e51a98b5606adfb7a892a156dc747129","34c433b05c6ff096100fb7dc6891069069d6878f","55ec6480761167001e8d7410543eaf5f016b4cfc"
"https://github.com/opf/openproject-ce.git","7781","4","[463456cf36926aac4a8eb301359d02f499535273, 7c7abdff2029864a0618208c94dd205c2180e978, 85cb665db0382259dc056f0cf2a883291b24a1c2, 4c9bea0776587c6dc30b69b9ab509b7eeb3fc7bb]","3","1","463456cf36926aac4a8eb301359d02f499535273","6671bab443fc716fb73462f0363788fab8518a2d","ad628c836135dfbf58ef8b1a0204e61210d50611"
"https://github.com/opf/openproject-ce.git","7783","4","[a9f5dab790ff3f7dd4a193be20f668322b6249df, 5ae64741e7ba9536a1d6a30e27515fc3d013e232, a303ea7175e9e611495c6afe45a865f9fecf942b, 795b228b5f255d960cc3c9ec6804021ab7aa3bac]","3","2","a9f5dab790ff3f7dd4a193be20f668322b6249df","0693df22b317e55fa06af5d7f6d9bcf03cf154e5","acc7343a7cc376df9b3d3ff2416546de3e01e31b"
"https://github.com/opf/openproject-ce.git","7784","11","[acc7343a7cc376df9b3d3ff2416546de3e01e31b, f376076092c81a8d92110ecd2d42f0201896e372, 3c630ce8d04929ecb1c0f8d8b8f3cfc5261d1bc8, 75a49c990d432a54d2a27e589b9cd04c3980accc, bc6e51e19c3838d31bf02bdc1c3fac0867154539, 7093a6830edabff3203726559c25ba71755ae80d, a12bbb2fa14af54127c8d365b7fed259985b08ad, 02dc2ecc034871080c2609c6b156949c028ead66, f36cc6a94a245fa693fb93bbac9f823a82c8591a, 28827124b9b39acb703ad05348a3a161b4c06f1c, 231b9a7f9c16d309aa435852f885abd761edd6e4]","5","2","acc7343a7cc376df9b3d3ff2416546de3e01e31b","ad628c836135dfbf58ef8b1a0204e61210d50611","8851028152ef461fcf7cfadf10d6601f4dbd34ed"
"https://github.com/opf/openproject-ce.git","7794","4","[66c663487c606986d405c7adee898a18718a753c, 1f3a3b84f9c8741d34296417b42575c704f45ba2, 20fa50bde1b73bdf1827824d7a36d5a3c4a3c2de, 5c21a807ceb36c286f71b12d0f9930be1c0b25a5]","1","1","66c663487c606986d405c7adee898a18718a753c","b5ef1351618ca0885c568ec2217ab67bba13bdbf","d80063e7d9998fa8e334ef8cb3d861b90ca3f936"
"https://github.com/opf/openproject-ce.git","7795","4","[ae17ccc212d2ecea8847e994df3309f7041ca12b, acbc978b038070a77baff44d5d53c04ac3fc58f8, be934e975745ffe395f97402aa51f7221921c800, 3244eb455b86a4229fc1e9c4a32b8fb68e82d631]","3","1","ae17ccc212d2ecea8847e994df3309f7041ca12b","b5ef1351618ca0885c568ec2217ab67bba13bdbf","d80063e7d9998fa8e334ef8cb3d861b90ca3f936"
"https://github.com/opf/openproject-ce.git","7797","13","[1afa0a34fb9c12ff5adc9c9a6e7323a2375ffd1d, 4c849f8915bdfc605065d6c42294f1a862d0d8c8, 7f5ffc7e0821fecc58b131df493efaae3525b724, 6344a68a1261fdc41282e63ebf94cac941e42584, f3eb87c3e48f652676471840f349eaae39a70ac9, ee9cbcade1fbefaf1ad29365bff109ce045508c0, 7737c5b08759829773a8e1893759c81526f217c4, be07ab33d70c7bdfe1384cc652032bc7d4702e6d, 798c617679c3ea2d6ea712b2dcc1dfd2895aa24d, 7c5dbaaf8fd81aa8101899bce441497978efa0ef, a57179978d00780703a80aec71e2d40e5984ca3c, db79b04ffb5704e09051469ea2260f5b0fe446ad, 8ab5a1515b0fdc68309adf9b56d14bc562c3edca]","1","1","1afa0a34fb9c12ff5adc9c9a6e7323a2375ffd1d","69157e52ad2f2dcbe54bdc197e1e59083c2ba903","30a6dfc0f7fd00e2cb9a788e048b18357e457abc"
"https://github.com/opf/openproject-ce.git","7798","19","[ee985c840794e2e08d585198c8b7552b395e5e1a, 78429054f269bdd1cae4eac6861aaf4f23bfded9, 9d7c72cd6856509f6780b68bd7662a57501ce767, 38cb51f6ceb17945a3d417c02f3d25706430cb24, 21366d5fe8ef32b12d43d7f2ea69f4ac249bdf01, b952ceb538437e482324e88f47afe621624d273c, 131866d9c2ce57f3109bdbcd82d848697b121630, 9500fbdaf014e5e5aa4aa8df2ea807d6f761892c, 0d4f08a43a2e01afaa72f4261a63db8addb7b234, a2fbf08d536f16d69cb5412bb4aa181a640492ac, 9f1bc1fadafea5b946d3a395ad3cc38933fb40db, 7494300e4f9f727b3c8bf159f7f038b32fd62ce8, 7ce4c186095add9ce5755aa1352221bbb972c3d4, 972f4c91ba9f6586b24baa6a8f9960a378ec4a0d, f79aba0045e8a0a97e777c36801257fa34912ef4, 5d7c7ad59be5d38d14b839b217f27f6863635cd6, bba42a46516e101d73afa30cea876c54a5d5274b, e4a2fe2bf0ebcf9af69978b2d0dd4d45727e7dc4, 18a3e2d068075d798358aee97c8075eeb0eaf1dc]","32","1","ee985c840794e2e08d585198c8b7552b395e5e1a","eedb22a2843bd7d2d81e71f036f3fd9bdcb6b94e","f1620f3aab7eee52c8e6a970ed7ecd51c1ff17a0"
"https://github.com/opf/openproject-ce.git","7805","2","[acc0d64eff2108b4fc34c8ccb3fecd561326e3be, 1b1720ef082fc04401d07c9d23545c9d31ffd7c6]","5","1","acc0d64eff2108b4fc34c8ccb3fecd561326e3be","55bb6ddbc21754201ab3c86f32758652846d5576","2392ac9f0fa52823d49fc75dcf349f81eddebfd4"
"https://github.com/opf/openproject-ce.git","7806","6","[2392ac9f0fa52823d49fc75dcf349f81eddebfd4, 58a056e398d2112e073eb36f7f12ef2f70989e67, cddc8b0d1409c46f82cd0c093fe3747912185e32, a1815590eb5192526589a17f8303d153f8fbd674, 86e5301beaafebc11ee8248acefe9864f9afb764, 5608d826b92d7756457b8894d216d5bd5f76558b]","4","2","2392ac9f0fa52823d49fc75dcf349f81eddebfd4","0e4796134c4101dfdc3ba02ebfb57504dbc740c6","b963ebc85f5fbdaa64af3086837f8133de69561e"
"https://github.com/opf/openproject-ce.git","7807","18","[804f23bc6bd11b7678e6ad380f2ba3743aa53152, 428e2263c5c765acd618687943f77403795836e8, 411e6fa133d39620f52efb460e3ac5aca77b63c4, ed2ad319c26e32478c0a90000327b9467190642b, 80c6927b6106eda271aa47c2fea4dd1ad0f579fd, b513129518df077bcf26074461325c1731a4fb8b, d36fdf7abdbd20f40cddcb20481860534bbabf1f, 49ce8cd802f5ae29eaa99f2007e7ebd8c1399ec7, 7791c10644ad62f645f484d93f24ec21d215797e, 45834a3bbe6949846bebad5fa646d6f578526e95, 1035531b10fe81282995ddcc4379b64c0e5c959c, 4167a1397aa5a54d1748b3624956e80d4051733d, a4c6e1dba7e7f799971ab37f3ded56b5e6fe9a76, 54a4bbaf7dad08386fe85b3ad860286421cc3a5b, d7f399ab8db059153d2792f9db94450150c7ffdb, fd5a3a29d08ec21b746f3f0c05e29c6216b712c5, f51fd7332f1dc1a3c6df9161ce0ac3e353c08982, 256861c8c40a8fe31a5ca4e9fb0f20b3b869c0aa]","12","14","804f23bc6bd11b7678e6ad380f2ba3743aa53152","0e4796134c4101dfdc3ba02ebfb57504dbc740c6","fd7c8a6a01df11d79be364f740de822d95f6a522"
"https://github.com/opf/openproject-ce.git","7808","3","[d56d6b8045bbf2beb8133b7c8e592c64ba67fa83, e1341b3a31dcd58386aedd9010af6d830684830d, 14d10b760d528af4993da59e1a2bed50b1ca5459]","1","1","d56d6b8045bbf2beb8133b7c8e592c64ba67fa83","b963ebc85f5fbdaa64af3086837f8133de69561e","8d6af38a2df1e6b4589d719f62416e1be0e6b21e"
"https://github.com/opf/openproject-ce.git","7809","23","[3c80763652e310aa568ed060f790efa009f97431, 543c77232a3359e8b6e7e3126f154bb8592110fa, 12791dab3d697b3c06592cd10a541eadb6e5da73, 8d129f9d9a392f6886080852d056c493e8a4f2d4, f94dab0f6f6f9fc3c4c015dbda0d7aa13f2cd932, f877b2c1b6189729c756d531997de865dc655e37, 66fd5c170d815b508660850f952714b915b0b2db, 1a29603db0a3b465a27a788a209b69852097fa93, 2c90177bb87f5c562c85f300ebbbb9df1a25ca72, 4e661061767025dd557bc736eaf385ad2dd95f6d, 6c33da00ad22bc4c9ad18f1e29d877db3ddcaeda, 30784cf465f094c8d0c975a3f161f8af0f236cff, 68e7d6d818ceccc355fbb7b7af6e32cd5726002d, a76caf0b55235e1ed902bfa8b038924007594622, 9279b55ebda6e9a6c7a5e86b4de98c2ac1a8e6b1, 12de17431bad0f53c1dcf01690438de1a343ebf9, a773ef8fec6b5813a83336a9a14f17f7db0f560c, b3912dfe07b14b90fe002cbb180f074c341b1d5c, 3946a0239f8925ff75773c00c1a197d043a43c93, 539457cb5955f70e2598b8bf49c3b19ece79b8ef, baf72c5fee649e6a5f8a94c1f3530383ec3ac56f, ea4d95ccfc21c786e7897d7d5cafd2abbd5b3713, 90c972adbea2f15d8adf11c0460586b9fcf54cac]","4","1","3c80763652e310aa568ed060f790efa009f97431","8d6af38a2df1e6b4589d719f62416e1be0e6b21e","05dc2d5732efd9d407fd858573e1119bdb6e1d5e"
"https://github.com/opf/openproject-ce.git","7813","1","[f935c9e25395ed4406bb4c62a2807d44aa043614]","15","3","f935c9e25395ed4406bb4c62a2807d44aa043614","7735dd8b93452690426c535bf94cdc4955f2434b","9b18b240f6d5b9b509918fe4620d947e1d426f61"
"https://github.com/opf/openproject-ce.git","7824","3","[57c54a5dff219138f8afbd4ca6a616d954a63582, 060f5e1ce97250fde42b6100d31746a632d74d42, 60e6ea46dd9b5b7c298bd869dfc9bc687a473b3c]","1","2","57c54a5dff219138f8afbd4ca6a616d954a63582","fd7c8a6a01df11d79be364f740de822d95f6a522","4845aa752e70cf9855d5072c84d5c96b7f470b13"
"https://github.com/opf/openproject-ce.git","7832","16","[7d6c63989b07dfc287feff8b33995d7dab395478, 7e9e104561711d54953c02e4a454aaf072c824b1, d830d7e91d56d8bda8f8049be6e8950c05935d5a, 97810c28ccb8b0013bd789858f0a1bf3ebe0230d, 366bc3177d2a1223476bf9379847936fe017354b, a033d36ebd9ce102893a372a5a6f6cc7544b2f6b, e9cac5378ed91a8e8d098ded4db05cf2ed49598a, 5f84c153bb8d73320a1bfdf9163940db633497c0, 1aa285ef74959bc518850c96e77eec2dd6159316, 7ac54615424bf7308d29884a4c3c1acfec3b1422, 310f780edd74791af3e6d5bd1c1e29f25ec1ee68, 05bbaf7c24a30cabf7085929e474d1d931e788b1, 8c33323a49e2624ea0dbe2dd211ce9e531d18924, f9b83f5a4e3f23da040029598a1fd1262f49f7c3, 63e2840e1cb6261e77714d227b11a0d1b1d4905b, a09b21b57c507b0fe72e938870afa83fecde19b5]","23","6","7d6c63989b07dfc287feff8b33995d7dab395478","9a51ff7ac88781df0f7edefbb5e8dc86f6312c58","bd1636dac4f85664aa9a088e87c212069f0b5543"
"https://github.com/opf/openproject-ce.git","7847","3","[7269a398983d1a9221f28ccea519d35fc060df15, 97144cc96ebbcfc2c021019b365e7a2fb7d48578, 035fd75634d7d0fd2fe68292f7e825acef8e681d]","3","1","7269a398983d1a9221f28ccea519d35fc060df15","23ffef8d667920af7933be0e3bbf6f8e61aaf73b","d50000faa94e7ad1a37c537e5c05e4d7f65f5c3d"
"https://github.com/opf/openproject-ce.git","7849","1","[e31b804c228750f3463bf7b0e24fb852ff0f5d67]","6","1","e31b804c228750f3463bf7b0e24fb852ff0f5d67","d50000faa94e7ad1a37c537e5c05e4d7f65f5c3d","f409049e8a439423a114a4351c513099593b57ce"
