"Repository","https://github.com/rails3book/ticketee.git"
"TASK","HASH","RUBY","RAILS","COVERAGE","TESTS"
"3","dddeb7379fce420b4c92bf79d443149a526ba7c8","","31","","features/github_auth.feature(9);features/twitter_auth.feature(9)"
