"Repository","https://github.com/rails3book/ticketee.git"
"Precision mean (RT)","0.0"
"Precision median (RT)","0.0"
"Precision standard deviation (RT)","0.0"
"Recall mean (RT)","0.0"
"Recall median (RT)","0.0"
"Recall standard deviation (RT)","0.0"
"F2 mean (RT)","0.0"
"F2 median (RT)","0.0"
"F2 standard deviation (RT)","0.0"
"Correlation #Test-Precision","null"
"Correlation #Test-Recall","null"
"Task","Dates","#Devs","#Commits","Hashes","#Gherkin_Tests","#Sted_defs","#TestI","#TaskI","TestI","TaskI","Precision","Recall","Rails","#visit_call","Lost_visit_call","#Views_TestI","#Code_View_Analysis","Code_View_Analysis","Methods_Unknown_Type","Renamed_Files","Deleted_Files","NotFound_Views","#NotFound_Views","Timestamp","Has_Merge","#FP","#FN","FP","FN","#Hits","Hits","f2"
"3","[06-06-2011, 07-06-2011, 08-06-2011]","1","7","[dddeb7379fce420b4c92bf79d443149a526ba7c8, f9fa156aa5548a8633cfc57023ddc612e4cf52c1, 0f3d5032e0c8c7543c990b3e1eefa296957868d4, 719fe92e28b5c0832bb213236e6be2810382f7b1, f1f219abf5b78e0cb5b283b82b523fe6daf4526c, 713299bea21a56c9d12dad15986ce6b021d7f52b, ea7109e8cfd169d95ffbf9f1fd25da14a6bc71ee]","2","2","6","8","[app/controllers/api/v1/projects_controller.rb, app/controllers/api/v2/projects_controller.rb, app/controllers/projects_controller.rb, app/models/project.rb, app/views/projects/index.html.erb, app/views/projects/new.html.erb]","[app/controllers/users/omniauth_callbacks_controller.rb, app/helpers/oauth_helper.rb, app/helpers/users/omniauth_callbacks_helper.rb, app/models/user.rb, app/models/user/omniauth_callbacks.rb, app/views/admin/permissions/index.html.erb, app/views/layouts/application.html.erb, app/views/tickets/show.html.erb]","0.0","0.0","31","1","[]","2","5","[app/controllers/api/v1/projects_controller.rb, app/controllers/api/v2/projects_controller.rb, app/controllers/projects_controller.rb, app/views/projects/index.html.erb, app/views/projects/new.html.erb]","[click_link, click_link, page, have_content, has_content?, mock_auth]","","[]","","0","0.352 seconds","false","6","8","[app/controllers/api/v1/projects_controller.rb, app/controllers/api/v2/projects_controller.rb, app/controllers/projects_controller.rb, app/models/project.rb, app/views/projects/index.html.erb, app/views/projects/new.html.erb]","[app/controllers/users/omniauth_callbacks_controller.rb, app/helpers/oauth_helper.rb, app/helpers/users/omniauth_callbacks_helper.rb, app/models/user.rb, app/models/user/omniauth_callbacks.rb, app/views/admin/permissions/index.html.erb, app/views/layouts/application.html.erb, app/views/tickets/show.html.erb]","0","[]","0.0"
