"Repository","https://github.com/rails3book/ticketee.git"
"Tasks with empty IReal","0"
"Tasks with no-empty IReal","1"
"Tasks with relevant AST error","0"
"Tasks with AST error of Gherkin files","0"
"Tasks with AST error of StepDef files","0"
"Tasks with AST error of production files","0"
"Tasks with AST error of unit test files","0"
"Tasks with step match error","0"
"Tasks without required gems","0"
"Tasks with changed stepdef","1"
"Tasks with changed Gherkin","1"
"Tasks with implemented Gherkin scenarios","1"
"All invalid tasks","0"
"All valid tasks (Gherkin scenario, no empty IReal, no error)","1"
"Valid tasks, but empty ITest","0"
"Valid tasks, no empty ITest, but zero precision-recall","1"
"Valid tasks, no empty ITest, no zero precision-recall","0"
"Project","Task","Date","#Days","#Commits","Commit_Message","#Devs","#Gherkin_Tests","#Impl_Gherkin_Tests","#StepDef","#Impl_StepDef","Methods_Unknown_Type","#Step_Call","Step_Match_Errors","#Step_Match_Error","AST_Errors","#AST_Errors","Gherkin_AST_Errors","#Gherkin_AST_Errors","Steps_AST_Errors","#Steps_AST_Errors","Renamed_Files","Deleted_Files","NotFound_Views","#Views","#TestI","#TaskI","TestI","TaskI","Precision","Recall","Hashes","Timestamp","Rails","Gems","#Visit_Call","Lost_visit_call","#Views_ITest","#Code_View_Analysis","Code_View_Analysis","Has_Merge","F2","#Multiple_Step_Matches","Multiple_Step_Matches","#Generic_Step_Keyword","Generic_Step_Keyword"
"ticketee","3","[06-06-2011, 07-06-2011, 08-06-2011]","3","7","[Added GitHub OAuth authentication , Bump to 3.1.0.rc2 , Added OmniAuth-driven support for signing in with Twitter , Remove vendored jquery crap , Use correct Twitter icon , Update gem dependencies , Added OmniAuth-driven support for signing in with Twitter ]","1","2","2","2","2","[click_link, click_link, page, have_content, has_content?, mock_auth]","0","","0","","0","","0","","0","","[]","","0","6","8","[app/controllers/api/v1/projects_controller.rb, app/controllers/api/v2/projects_controller.rb, app/controllers/projects_controller.rb, app/models/project.rb, app/views/projects/index.html.erb, app/views/projects/new.html.erb]","[app/controllers/users/omniauth_callbacks_controller.rb, app/helpers/oauth_helper.rb, app/helpers/users/omniauth_callbacks_helper.rb, app/models/user.rb, app/models/user/omniauth_callbacks.rb, app/views/admin/permissions/index.html.erb, app/views/layouts/application.html.erb, app/views/tickets/show.html.erb]","0.0","0.0","[dddeb7379fce420b4c92bf79d443149a526ba7c8, f9fa156aa5548a8633cfc57023ddc612e4cf52c1, 0f3d5032e0c8c7543c990b3e1eefa296957868d4, 719fe92e28b5c0832bb213236e6be2810382f7b1, f1f219abf5b78e0cb5b283b82b523fe6daf4526c, 713299bea21a56c9d12dad15986ce6b021d7f52b, ea7109e8cfd169d95ffbf9f1fd25da14a6bc71ee]","0.352 seconds","31","[cucumber-rails, rspec-rails, factory_girl]","1","[]","2","5","[app/controllers/api/v1/projects_controller.rb, app/controllers/api/v2/projects_controller.rb, app/controllers/projects_controller.rb, app/views/projects/index.html.erb, app/views/projects/new.html.erb]","false","0.0","0","","0",""
