"Repository","https://github.com/oneclickorgs/one-click-orgs.git"
"TASK","HASH","RUBY","RAILS","COVERAGE","TESTS"
"167","311a83dcfca675b7ace078b774350f2cb7060259","","3.0.6","","features/miscellaneous/setting_up_an_installation.feature(6);features/miscellaneous/setting_up_an_installation.feature(12);features/organisation_founding/accepting_a_founding_member_invitation.feature(11);features/organisation_founding/amending_draft_organisation_settings.feature(10);features/organisation_founding/creating_an_organisation.feature(10);features/organisation_founding/holding_the_founding_vote.feature(15);features/organisation_founding/holding_the_founding_vote.feature(19);features/organisation_founding/holding_the_founding_vote.feature(25);features/organisation_founding/inviting_founding_members.feature(10);features/organisation_founding/starting_the_founding_vote.feature(12);features/organisation_founding/viewing_draft_organisation_details.feature(13);features/organisation_founding/viewing_draft_organisation_details.feature(17);features/organisation_running/accepting_an_invitation.feature(12);features/organisation_running/amending_organisation_settings.feature(13);features/organisation_running/editing_profile.feature(13);features/organisation_running/making_a_proposal.feature(14);features/organisation_running/making_decisions.feature(13);features/organisation_running/making_decisions.feature(20);features/organisation_running/making_decisions.feature(30);features/organisation_running/making_decisions.feature(40);features/organisation_running/proposing_a_new_member.feature(14);features/organisation_running/proposing_ejection_of_a_member.feature(13);features/organisation_running/viewing_organisation_details.feature(13);features/organisation_running/viewing_organisation_details.feature(19);features/organisation_running/viewing_organisation_details.feature(23);features/organisation_running/viewing_organisation_details.feature(30);features/organisation_running/voting.feature(13)"
"169","53030b67d4835640cfea07228a016b07bc89e16a","","3.0.6","","features/organisation_founding/amending_draft_organisation_settings.feature(10);features/organisation_running/amending_organisation_settings.feature(13)"
