Feature: Managing hangouts of scrums and PairProgramming sessions
In order to manage hangouts of scrums and PP sessions  easily
As a site user
I would like to have means of creating, joining, editing and watching hangouts
Background:
Given following events exist:
| name          | description          | category      | start_datetime          | duration | repeats | time_zone |
| Scrum         | Daily scrum meeting  | Scrum         | 2014/02/03 07:00:00 UTC | 150      | never   | UTC       |
| Retrospective | Weekly retrospective | ClientMeeting | 2014/02/03 07:00:00 UTC | 150      | never   | UTC       |
And the following projects exist:
| title       | description          | status |
| WebsiteOne  | greetings earthlings | active |
| Autograders | greetings earthlings | active |
And the following users exist
| first_name | last_name | email                  | password | gplus   |
| Alice      | Jones     | alice@btinternet.co.uk | 12345678 | yt_id_1 |
| Bob        | Anchous   | bob@btinternet.co.uk   | 12345678 | yt_id_2 |
| Jane       | Anchous   | jan@btinternet.co.uk   | 12345678 | yt_id_3 |
Scenario: Display live sessions - basic info
Given the date is "2014/02/01 11:10:00 UTC"
And the following hangouts exist:
| Start time | Title        | Project     | Event         | Category        | Host  | EventInstance url            | Youtube video id | End time |
| 11:15      | HangoutsFlow | WebsiteOne  | Scrum         | PairProgramming | Alice | http://hangout.test    | QWERT55          | 11:25    |
| 11:11      | GithubClone  | Autograders | Retrospective | ClientMeeting   | Bob   | http://hangout.session | TGI345           | 12:42    |
When I visit "/hangouts"
Then I should see:
| Started at   |
| Title        |
| Project      |
| Host         |
| Join         |
| Watch        |
And I should see:
| 11:15           |
| 01/02           |
| HangoutsFlow    |
| WebsiteOne      |
And I should see the avatar for "Alice"
And I should see link "Join" with "http://hangout.test"
And I should see link "Watch" with "http://www.youtube.com/watch?v=QWERT55&feature=youtube_gdata"
And I should see:
| 11:11         |
| 01/02         |
| GithubClone   |
| Autograders   |
And I should see the avatar for "Bob"
And I should see link "Join" with "http://hangout.session"
And I should see link "Watch" with "http://www.youtube.com/watch?v=TGI345&feature=youtube_gdata"
Scenario: Display live sessions - extra info
Given the date is "2014/02/01 11:10:00 UTC"
And the following hangouts exist:
| Start time | Title        | Project     | Event         | Category        | Host  | Hangout url            | Youtube video id | Participants | End time |
| 11:15      | HangoutsFlow | WebsiteOne  | Scrum         | PairProgramming | Alice | http://hangout.test    | QWERT55          | Jane, Bob    | 11:25    |
| 11:11      | GithubClone  | Autograders | Retrospective | ClientMeeting   | Bob   | http://hangout.session | TGI345           | Greg, Jake   | 12:42    |
When I visit "/hangouts"
Then I should see:
| Event        |
| Category     |
| Participants |
| Duration     |
Then I should see:
| Scrum           |
| PairProgramming |
| 10 min          |
And I should see the avatar for "Jane"
And I should see the avatar for "Bob"
And I should see:
| Retrospective |
| ClientMeeting |
| about 2 hours |
