"REPO_URL","TASK_ID","#HASHES","HASHES","#PROD_FILES","#TEST_FILES","LAST"
"https://github.com/otwcode/otwarchive.git","1","4","[b9dadb8021599d4b780de2406e179fabc2d58d7a, e2e2485a3f8886d9efbcaace0ee903f87cc634ed, be4a84a53499d2997056ca8c2fa02d45c91d04b8, 024b29707c02bdceb5a2ed21a9bc1f7c250a183d]","3","1","b9dadb8021599d4b780de2406e179fabc2d58d7a","a13b73c1d87c131051e1ab7490674bda61abd187","df6ce85db5cb1a857186215e43cd0cafba3234a2"
"https://github.com/otwcode/otwarchive.git","3","3","[7d1c5f0435bdeee4e8a1cbb04d010ef21e5e27b5, 95d80e9a57ac5df5bd3046d48baff3ff093e26fd, efe5b00a11def2ea43b729d4c1348157846eb3d7]","2","2","7d1c5f0435bdeee4e8a1cbb04d010ef21e5e27b5","bef8ff92ff032ed08b05f385ddf10d112988f3e2","0666dd857e9693bec2d15d96ab052294cc6f2ab1"
"https://github.com/otwcode/otwarchive.git","5","1","[b6d6328d8c268b4779df50341703abe5e3ede67b]","226","82","b6d6328d8c268b4779df50341703abe5e3ede67b","154341d8c2686fcbd0f4e3e6f21c768d398d7d99","0666dd857e9693bec2d15d96ab052294cc6f2ab1"
"https://github.com/otwcode/otwarchive.git","7","23","[b3667d4d809019ed5e6129427ca351859682ba5e, 4644f3448287159d06e1f6575c04afa52b6d34fc, 4ac7b653d4e0f0609957d76a3967e95a12b12515, b8002fef391db3f3a3cf57241f60eb61b7cfe8b0, 68f4d5d027325ac0e243ed9a44f097d8473be1fd, 5e5b4be42eeff09914d97047276a551164bdff58, 61436f2346955eecf924091b4b25c36e17b4c588, 1b24662189541c22be1ec56ef5dfbe1a42086a84, 854440a5cfa9b4d0484e7568aa48796f97a9ddf7, 570f885aabe9dbcc924a31eb4b1ddfc81d88166e, 2cfca14a838543caa13161b9ff0723df68d1c759, 4de5811d95dc0187635fbb8393c993088156ad8a, 38af53993e4aa73df89c66e63a7ad017bf4b7b9d, 6f1d23cde938f4d2610a2792161bf6ad60a61651, 891ccdcfb1659b0a9ff29c34737c230155c3aeaf, 015ad2e22cdbfca36d270eb30bd507095b5095c3, e08124b8c210064370770bed86202f816a6fd626, 71720e495f3f366d56b67217534016f72bf3f244, 0ca18db580021d59accbc373966bb11711254ea4, 231f88a944522220b92c302cabb7b1df308817d1, 56b225bf40f40015d25116871ca032558054976a, 39b653be9aea625d3a1e493c9fa815f3a290b6d8, ab9ce5a58361eeea01e4e61157e6189067016f6d]","33","6","b3667d4d809019ed5e6129427ca351859682ba5e","0ffcfbd4e9e5bb24b97eb970fbe087e01443837e","0cde76cfe6152db3fba76f399388eee06632bec4"
"https://github.com/otwcode/otwarchive.git","9","1","[ffceb210943a8abf51767e687ae69209d925aca6]","1","1","ffceb210943a8abf51767e687ae69209d925aca6","ab34a369a4dcd1cd9be0980677be7aafc3c998e8","a3a6e49829bd30f5b2f4212a320243573ac21e00"
"https://github.com/otwcode/otwarchive.git","17","3","[53f48d006d45f196f2735a471a0b67b840da22fb, 7c4b2b5c2b0661ba1126c795c097b6cfa0275d0a, 10a97bb07a5f3803b072cdc3b874031e0a9f03d2]","1","1","53f48d006d45f196f2735a471a0b67b840da22fb","e3f058ce90184e83d3f0717fdf86da3d26faae2e","847634c2d35986789cf790e42286c4cf829958a1"
"https://github.com/otwcode/otwarchive.git","18","8","[b0ce43166acd9c4b137851fbcff82e283ef32d0a, f201e2170937deb42969bf3eb5c131a9b9ac3cca, c4668c997e6ceb856e41daa0cd07722863714b0b, 9201c9bb313d96133ab0be04c74094a107836061, 778c9c302c5ae883f296d966cb0449158380e23a, 21a8a140e69d552b193f80fd798091e02e87e5bd, d34044b0a6a46aceed8f931367abe818ce62cb5f, 63808b95c8b9da1ccf465d27b6d230ea0730c526]","4","1","b0ce43166acd9c4b137851fbcff82e283ef32d0a","0267a66525427f23a607e3ee88901a0b81f45014","a1b27af4a553f03a6344f2d6d67ed9121d245559"
"https://github.com/otwcode/otwarchive.git","20","1","[c431278c1889ebcf626405252a53eb19147bac8f]","1","1","c431278c1889ebcf626405252a53eb19147bac8f","fdbb5606a286feb198a00b1cb93053cc0e4ab1cc","d1858d91cfacd9b6c23d3079538bd61db2859e44"
"https://github.com/otwcode/otwarchive.git","21","13","[5850c9628160691e04b6911c0345818f5dce3b6c, 3c3deaf7fc5d01473966670ddefb14b7fd63868e, 46b187c367c0b74100c0a6afb4cbe1e15b9c2141, e98423f7043ccb2aec4fa0ed87c926d69133e306, 72580c3c7d0637caea9f325d9793a89af468b443, 3cb4d7e740ac5ea3e0870fcd3ea962fdd66d7dfe, a7ef6bc3f5667dde119ed1e948d9f4be03f17f6d, 3ad91263401224574ce1b1cb2f77a344b9534790, d4bfedce8ee0d87d69a089ea27e9cafbd5d7cec7, 59c908f5ef52cbca6070dc11da34760b7170c5b0, 11da0ee274a06490b7f4c945b4289befbd666062, c6524e0a7cb66c1b0baf13caf61f9b70a8a0738f, 88c1263e5729f91f4a6db2be8fbfdaa0e8f1a1fc]","4","6","5850c9628160691e04b6911c0345818f5dce3b6c","dd68f14c7cbd96d9aff46ee8e4c678400a73b235","82d77c16137fe42d921a57069b77f522a97beb72"
"https://github.com/otwcode/otwarchive.git","24","7","[2ac4a3e566e3cc1d3f0d08ba1495be056f321226, 41de49d8de58f06b5e502e4308b82eac8ea80a27, 7f508b4be2b792c7959ebb2be26aee7843596480, 44dfedfee534351d12b10f23d77adb538de07c9a, 03dbccd85975d1faa6c8159eacb4658fe5cb6d1b, df0e8ea1752817793da38b7ef4fd3dca3005ea4a, 367411a63562d4eeb6438c92b50e4fbcaefe5b50]","2","3","2ac4a3e566e3cc1d3f0d08ba1495be056f321226","f33940eae9ac1687c4c0d43cfcbe1d512a9c6957","ccb63b5e94ac3a3dc6b4ecec80c23afac20ca3af"
"https://github.com/otwcode/otwarchive.git","29","4","[087f319cce24d75bb73231321cd108ae588b92df, 16a2f89f88fed8e50fc20c474830c0e1a5299ba1, b30335d1aa056bc831f74e7fcdcf24fb0b705eae, a6850748a7e55ab2495f91d43b99860bb8a23a94]","1","1","087f319cce24d75bb73231321cd108ae588b92df","520f1c945832c6e1ee6c7471aee584716a5cd6b5","5e9b4dca224e886795c90ce600165a43f414efca"
"https://github.com/otwcode/otwarchive.git","30","3","[d72e4cf215577b460f39c8abcd1afb31881a1e9b, 6b5178206792de29407c17fc2d980018bcd5d4ec, 396b402f49e27da68b696a7b334deecb988ee8b4]","1","1","d72e4cf215577b460f39c8abcd1afb31881a1e9b","520f1c945832c6e1ee6c7471aee584716a5cd6b5","d14d45a5e3d9d0d428923c7488aa9977d665715a"
"https://github.com/otwcode/otwarchive.git","39","11","[28b77d243a4811cac2600ffb8f9e2e5e1fc4fd5a, 26ab9c24646c68978fb342d05e2bedfbd1539233, 19da3152c42f938435aea8ba602fedd652af1fac, 5eb3be48f9cd4b356b17838db7a3e25999cf2687, bc6357b8c79dbea9eba87df554036a3274d34e46, 15b0cb2ce4c8ccb8aa21a048372fbb96c9150528, bb7713b9f03d9d063ef931c5b10a0d656dadb5e9, dc1b0398582f39e10301e3d135b82988777b479c, 6add70ab766a11266c166dc833264e7e957b61b2, 1304784ece4c3fff16d9f6a4bb113708049da29b, 39a9a90ef290e29875d9ce71bfd938245b248aa0]","2","3","28b77d243a4811cac2600ffb8f9e2e5e1fc4fd5a","88ff590a30dcb419871acb5ccc319820ccafbde5","d5070e9f4203cd25dd448e5f9047de9124121e4c"
"https://github.com/otwcode/otwarchive.git","42","6","[4e89c8bd0e4e156445066f1da34a9c9b9562ecc7, 9c7f81148bd31b81ba61313cf8fbde0dcd0a9fe6, 9091d0c5c6dbcbd6eda35063d13c7455c50f6b71, 51de3d24f41c4dca85ff82c144cb724633690fac, 279c31a2cf0b65383488374b8760f64be48b3d3f, 2c6ce205d004bdf9d8d1434279a4b0f81dbe09c7]","5","1","4e89c8bd0e4e156445066f1da34a9c9b9562ecc7","522a013e35ee489972ade0d2c857cc7177f0f643","b509491dc5f7b9939b46c9dc7e3495c725bd0bc3"
"https://github.com/otwcode/otwarchive.git","47","4","[ac4050822327d1843258f5e3e63b38f503cb05ae, cfbbe11792b5ad1a4416ae111f0476c2b2a96d8f, 9baa2da474a94dd269df2a33fab620439a64ab4b, f26372012b5b10e63012d83d1cdff60aaa46bb11]","1","1","ac4050822327d1843258f5e3e63b38f503cb05ae","6af581c149cf87100068e4499e4cb5df14f13a0b","4b94a4e2cb6967411771c1c6449f8a956b92e023"
"https://github.com/otwcode/otwarchive.git","51","6","[076b1b5ff995795f5f2793335bc0c2a8f984b5bf, b6fb08e74fb9e289367cb7faf8b1b09cd9dd4096, 2f9e73166ee6f0bf8485f40978b80a02670d503e, 6d6a754575276ef53b297e70c374303794b867e2, 698aed44a837dcbde5749f042ad4a0aa0e733c0b, 81fd2c037b9debfc8b09afb8258548bed16ca60a]","2","1","076b1b5ff995795f5f2793335bc0c2a8f984b5bf","4b94a4e2cb6967411771c1c6449f8a956b92e023","88fa278aecbd601947760c7f70df0447fb8f51b3"
"https://github.com/otwcode/otwarchive.git","55","4","[f3ae1220ad41a5bc1f4a4c84b5e7ac69bcedc77d, 3ed1ecb30ce926151f33859410657fab79480cb4, 7f620ddd8e56a38c02f15a2bc2739f3642e29579, f8b613266606a03bd04ae4ff3400261f3869681b]","1","1","f3ae1220ad41a5bc1f4a4c84b5e7ac69bcedc77d","6d749c0238f6d1b5196371a93215f634bea83868","d47c584faebf2107dba9cd2619fc534313d3c15b"
"https://github.com/otwcode/otwarchive.git","66","2","[4e34a983699c16e48133f4935fc9708de633f254, 0a9048901ae6cdbf251801f8bc41672c2c9d058f]","1","1","4e34a983699c16e48133f4935fc9708de633f254","072ba3096d079c4f03ddad58f242d5c1e04d09eb","c014549df42bb94eb3b8abac17acd18c53a6eac8"
"https://github.com/otwcode/otwarchive.git","68","2","[17b20a1df552f9ca6d785e5c986bbf88552fac86, 37f79f1ff9cfe39d2708cac9e69ce69302138687]","1","1","17b20a1df552f9ca6d785e5c986bbf88552fac86","28721f840c3ca78d2899e89035c9147afb073eb0","68c231b1918641b15c4e7a8d692f0253aa78d2af"
"https://github.com/otwcode/otwarchive.git","72","9","[997ed498782d17965b7e7e4bbd26ab2b4df45c8d, 61b8dcfc086d75b3863f3e30f85dcd5a654deaa2, 88489d1bb3662f5081c15d6913523f75ace39707, cce3ec1fa04132bbd7b383bfc3f4745235520c1d, 59fe5ed0744f6024ff273498a256b001f29889c5, c5478ab437648066537cc766e27869fa056718c0, bb369dbfa75b973305e10294abcc1aea8d13e2f0, 8e112db109b861f31bc6632ce1c57fe33c90c17e, a098a1851208e7ac33e8d55228cd5a5c49078e64]","6","5","997ed498782d17965b7e7e4bbd26ab2b4df45c8d","6b2e68e20f5e57d99a301c030705c9aaf36bfca5","a960185a46f0248fe17d8aec3dfe7dc5cf292098"
"https://github.com/otwcode/otwarchive.git","74","3","[ceee8472cf8f75e2ac36f947774a5cddf3b3a528, 84a9ee0f6d0fc970e6e7e639638e60adc6633c3e, 7f56738863f34d06029cc2d8a0e6b49f9ca58704]","1","1","ceee8472cf8f75e2ac36f947774a5cddf3b3a528","a960185a46f0248fe17d8aec3dfe7dc5cf292098","c5e76701bb4baad0cd744d520fe29fb1ecde0191"
"https://github.com/otwcode/otwarchive.git","76","2","[0f586c4774c19df35c9750281d6c8d4c6587abab, 40bce3aa59b799d5f6724d80f88197e08dc8bb85]","1","1","0f586c4774c19df35c9750281d6c8d4c6587abab","e3532ea64b3728139d69f8075de0b04af59e5efa","c3e6754159016dae02a351d542aa71f8eee2cd7b"
"https://github.com/otwcode/otwarchive.git","78","3","[907c1c7cc1ecc624fd71f7f939183f91301dc449, 5e2081437ad865e5a240635710c8f032e90fe142, 74f131e752d6fed6226ce1a30e2ae05978c9b413]","2","1","907c1c7cc1ecc624fd71f7f939183f91301dc449","58b43f228f41af507a65fc5bf8b13c82a51e315f","0c6d79f7b97ddb207b48395a9d47f682f7ed33c2"
"https://github.com/otwcode/otwarchive.git","83","18","[4f37666d8776ce8c926785b9eba5334dc1e79540, e96d7c6b6d8cdbf4188b735b2258bdd46416e84c, 5d0e004a5e4468dfab9061ed8c8bd298771e156c, ef1fc43bbabd51c00a3506b42dd72e12a86cd5ff, 7e4b866738a572d30c4e0bf2922cf9844fb23452, 98ba5eeab34a3b613d293fa686521e5f279a28aa, 560fb730c628a7409d64ff7165f369d7a0187365, d4b97d25c7445c40ea7f513cd17cf0a4337423c1, 01cfec9de5df8f2250489105e08ffd7f4a2e1450, ce7cc0423e7265fae5ef23629de8af3baf6b9fc4, 57e4fb0e3c47e63ef98b9778a0a20dd2f829b26e, 4c25702bde0d8db06b0b45b7f8bfffa50ddbc2f3, b2413ea4ff7597edc20c63303d9036bbd1a91f56, 7409ae648d4ea601290b3cb20dc0c5f638e9576d, 89e6e4c54fb395fa5d60d7a20c75f5278287825a, 15884c19d123f688c8b2baac40aa369d6e66f170, 1c0ab646cdccc14ef152d4e031dad0283ec1f843, 6db7b5b352ee50f26baed8c9f3bde6bf9a2b9ad0]","21","1","4f37666d8776ce8c926785b9eba5334dc1e79540","f35ffd7ff7a40aa4fc8ce710804089d9bf28fb47","c1e4bf14ade86b345e78e705d2caffb8643948ff"
"https://github.com/otwcode/otwarchive.git","92","17","[4712d41c4cfcba96e52b7b79734b9ddc1eac8683, 3fdcc1bb1a8942723ea3d879d2b9b9ca8b8a9f7c, 4672f928c5e49905b394e477dfced2db3f0615c8, a967e78d55f293994894ab1168ffbbe2f8c01dc4, 3c193c1fa818ef1e0d011468f3459c1a0515ac86, 38d6c0525d8fbbd3e5fabae79204981eb89e0b9b, 53cb1365edfae345cf13eab57b2c9aaecb2158f8, ff3aad581a792dcbe6c4b46e1ff5572fb1abf36f, c77c6aaae7e45c28506f7f1dcdd71f95cc6de682, 6e741a6e5b98f235c697364fba75a16a12d6e830, d413caa5087f996d1a1e4cbf8de66411f4f7249a, 8ab52eb2dbaf0cd4e12935c6fc3b2322fd30a702, 145a76ab37e6bd897ac4f5dd86a0df9d0be5c667, 86ec17aaf0909f673829ee091199e6de95f32459, 0f5af884a92552b1261ac957514aa0c43b4cea88, b9be503f3bda45f374d2abeba36994af1a85575b, 8d97c68cad553a6d49825c41015daeaa4a2b842f]","9","2","4712d41c4cfcba96e52b7b79734b9ddc1eac8683","6f0f3cbb5a8cf4afa36fa79a490b6b48352ea7e2","9a11f0e6a87a59db1a9884a0b71f3c1d9195f298"
"https://github.com/otwcode/otwarchive.git","101","1","[e528da491e953fa50a652a7db59fbe9381294361]","3","1","e528da491e953fa50a652a7db59fbe9381294361","e0ee7e70a6de967997840b2783f5cfd61b665ce2","de58cd69fee2d054915b8f69f753bd0a9f1f24cd"
"https://github.com/otwcode/otwarchive.git","108","1","[cc1d666654245b313f6f4d9d38aebbc63f0ff7b5]","2","1","cc1d666654245b313f6f4d9d38aebbc63f0ff7b5","e968cbe6ee7e367393c155cd736e65ff90e9f99b","acc0b08f94087b3fb95b93e22aa555e2c108b9e2"
"https://github.com/otwcode/otwarchive.git","110","5","[f4850d7d4cd912070d9a705732ebc291f6599430, 49b83335ee2631f7de0941d399e65e11483ef295, 554722c95bd5fb67b31dc1ee6b4ebdee82783a2a, f61a76a198b2c4291ac9ebb079a621d61f35db87, 7ed786a88e47dd47a1258f661f4fe84bd992ef44]","3","1","f4850d7d4cd912070d9a705732ebc291f6599430","01358ab9775d7c10d8f4dc726068823c4f4ef4f1","8a344e7324a2066b59ddec6e27625a0248e2e68b"
