"Repository","https://github.com/AgileVentures/WebsiteOne.git"
"Tasks with empty IReal","0"
"Tasks with no-empty IReal","18"
"Tasks with relevant AST error","0"
"Tasks with AST error of Gherkin files","0"
"Tasks with AST error of StepDef files","0"
"Tasks with AST error of production files","0"
"Tasks with AST error of unit test files","0"
"Tasks with step match error","0"
"Tasks without required gems","0"
"Tasks with changed stepdef","15"
"Tasks with changed Gherkin","18"
"Tasks with implemented Gherkin scenarios","18"
"All invalid tasks","0"
"All valid tasks (Gherkin scenario, no empty IReal, no error)","18"
"Valid tasks, but empty ITest","0"
"Valid tasks, no empty ITest, but zero precision-recall","3"
"Valid tasks, no empty ITest, no zero precision-recall","15"
"Project","Task","Date","#Days","#Commits","Commit_Message","#Devs","#Gherkin_Tests","#Impl_Gherkin_Tests","#StepDef","#Impl_StepDef","Methods_Unknown_Type","#Step_Call","Step_Match_Errors","#Step_Match_Error","AST_Errors","#AST_Errors","Gherkin_AST_Errors","#Gherkin_AST_Errors","Steps_AST_Errors","#Steps_AST_Errors","Renamed_Files","Deleted_Files","NotFound_Views","#Views","#TestI","#TaskI","TestI","TaskI","Precision","Recall","Hashes","Timestamp","Rails","Gems","#Visit_Call","Lost_visit_call","#Views_ITest","#Code_View_Analysis","Code_View_Analysis","Has_Merge","F2","#Multiple_Step_Matches","Multiple_Step_Matches","#Generic_Step_Keyword","Generic_Step_Keyword"
"websiteone","388","[17-07-2014, 18-07-2014]","2","11","[Merge pull request #462 from YaroSpace/hangouts_restart_ui  Hangouts flow on events show page, restart travis, code review changes , code review changes , Increased timeout for capybara javascript tests , added feature for UTC in events schedule , added changes to hangout features to account for UI changes  minor fix for hangout.feature , added UTC to schedule , added expiration time for started? and live? , UI cleanup extracted css into an asset file , renamed .css files to .css.scss replaced sprockets require with sass @import ]","3","11","11","3","3","[hashes, each, rows, page, have_content, each, click_link_or_button, click_link_or_button, page, find, trigger, fill_in, have_link, flatten, have_text, send, be_false, be_true, has_link?, has_button?, fill_in, click_button, within, sign in, sign up, sign in, title, user, created_at, whodunnit, event, story_type, estimate, id, name, owned_by, current_state, send message, find, be_visible, not_to, transpose, id, stub_request, to_return]","0","","0","","0","","0","","0","","[]","[github, new_registration, new_session, pivotaltracker]","4","47","5","[app/controllers/articles_controller.rb, app/controllers/documents_controller.rb, app/controllers/events_controller.rb, app/controllers/hangouts_controller.rb, app/controllers/projects_controller.rb, app/controllers/registrations_controller.rb, app/controllers/static_pages_controller.rb, app/controllers/users_controller.rb, app/controllers/visitors_controller.rb, app/models/article.rb, app/models/event.rb, app/models/hangout.rb, app/models/user.rb, app/views/articles/_article.html.erb, app/views/articles/index.html.erb, app/views/articles/show.html.erb, app/views/devise/registrations/edit.html.erb, app/views/devise/registrations/new.html.erb, app/views/devise/sessions/new.html.erb, app/views/disqus/_disqus.html.erb, app/views/documents/show.html.erb, app/views/events/edit.html.erb, app/views/events/index.html.erb, app/views/events/new.html.erb, app/views/events/show.html.erb, app/views/hangouts/_hangout_button.html.erb, app/views/hangouts/_hangout_status.html.erb, app/views/layouts/_contact_form.html.erb, app/views/layouts/_flash.html.erb, app/views/layouts/_footer.html.erb, app/views/layouts/_head.html.erb, app/views/layouts/_hire_me.html.erb, app/views/layouts/_meta_tags.html.erb, app/views/layouts/_navbar.html.erb, app/views/layouts/_round_banners.html.erb, app/views/projects/_activity.html.erb, app/views/projects/_listing.html.erb, app/views/projects/_members_list.html.erb, app/views/projects/index.html.erb, app/views/projects/show.html.erb, app/views/static_pages/show.html.erb, app/views/users/index.html.erb, app/views/users/profile/_detail.html.erb, app/views/users/profile/_summary.html.erb, app/views/users/profile/_videos.html.erb, app/views/users/show.html.erb, app/views/visitors/index.html.erb]","[app/helpers/event_helper.rb, app/models/hangout.rb, app/views/disqus/_disqus.html.erb, app/views/events/show.html.erb, app/views/hangouts/_hangout_status.html.erb]","0.085106383","0.8","[d229ac4c2503f5ce6f1f5383f81882a7b5d174c3, 481eb9fcb6bc25e5609937416ca1aac8150b2bf7, 2e91ccde06afba2e9cfd10d27020e451014e1811, e9c1aa277003a0ae974955b3c7bb9395c9651f0a, 3a54f7200214040f01a6ad67915e6bed088d82ef, d317948c8c56ef6735bd77a530625a20cdcb7834, 295d2886f7535db7eea79d2e8a5533edad014834, 5379c3e97627cf965eaeae59f4784cdd5fe59f32, 4e78b557c775eb77b2ae72278960ea127a7fb93b, 7047574ab9d7a5c9b31af745cef935399c63c7a8, 387e0505b8d42f56b96ec85bd63ec68ac2d77a75]","1.463 seconds","4.1.0","[cucumber-rails, rspec-rails, coveralls, factory_girl]","4","[]","34","43","[app/controllers/articles_controller.rb, app/controllers/documents_controller.rb, app/controllers/events_controller.rb, app/controllers/hangouts_controller.rb, app/controllers/projects_controller.rb, app/controllers/registrations_controller.rb, app/controllers/static_pages_controller.rb, app/controllers/users_controller.rb, app/controllers/visitors_controller.rb, app/views/articles/_article.html.erb, app/views/articles/index.html.erb, app/views/articles/show.html.erb, app/views/devise/registrations/edit.html.erb, app/views/devise/registrations/new.html.erb, app/views/devise/sessions/new.html.erb, app/views/disqus/_disqus.html.erb, app/views/documents/show.html.erb, app/views/events/edit.html.erb, app/views/events/index.html.erb, app/views/events/new.html.erb, app/views/events/show.html.erb, app/views/hangouts/_hangout_button.html.erb, app/views/hangouts/_hangout_status.html.erb, app/views/layouts/_contact_form.html.erb, app/views/layouts/_flash.html.erb, app/views/layouts/_footer.html.erb, app/views/layouts/_head.html.erb, app/views/layouts/_hire_me.html.erb, app/views/layouts/_meta_tags.html.erb, app/views/layouts/_navbar.html.erb, app/views/layouts/_round_banners.html.erb, app/views/projects/_activity.html.erb, app/views/projects/_listing.html.erb, app/views/projects/_members_list.html.erb, app/views/projects/index.html.erb, app/views/projects/show.html.erb, app/views/static_pages/show.html.erb, app/views/users/index.html.erb, app/views/users/profile/_detail.html.erb, app/views/users/profile/_summary.html.erb, app/views/users/profile/_videos.html.erb, app/views/users/show.html.erb, app/views/visitors/index.html.erb]","true","0.2985074627389173","0","","0",""
"websiteone","389","[09-07-2014, 16-07-2014]","8","3","[ code review update  Please enter the commit message for your changes. Lines starting , modified Event#next_event_occurrence to include current event added code and specs to event index view , added feature to show events in progress ]","1","1","1","0","0","[hashes, each, page, have_text]","0","","0","","0","","0","","0","","[]","","0","8","2","[app/controllers/events_controller.rb, app/models/event.rb, app/views/events/edit.html.erb, app/views/events/index.html.erb, app/views/events/new.html.erb, app/views/events/show.html.erb, app/views/hangouts/_hangout_button.html.erb, app/views/hangouts/_hangout_status.html.erb]","[app/models/event.rb, app/views/events/index.html.erb]","0.25","1.0","[58610c603ddf460b280ca0fe0a077fd486ffe5e0, 52040f3de5900755036f57fedba47ce867fe8ac4, 26727b359e9ce4906cbdc2003af3e4e548d894ab]","0.332 seconds","4.1.0","[cucumber-rails, rspec-rails, coveralls, factory_girl]","1","[]","6","7","[app/controllers/events_controller.rb, app/views/events/edit.html.erb, app/views/events/index.html.erb, app/views/events/new.html.erb, app/views/events/show.html.erb, app/views/hangouts/_hangout_button.html.erb, app/views/hangouts/_hangout_status.html.erb]","false","0.625","0","","0",""
"websiteone","394","[24-06-2014, 29-06-2014, 30-06-2014, 01-07-2014, 08-07-2014]","15","72","[refactor scrum index view to use a partial , remove empty lines , spec changes for Youtube Helper and remove scrum model spec , move videodata privat method to youtube helper , move YouTubeHelper module to its own file and rename.  move api key constant to module in initializer , Changes to Gemfile and Gemfile.lock after Rebase , have travis print cucumber documentation , add file youtube.rb and config cucumber for documantation mode on travis so we can see where the messages come from , move youtube api key to youtube.rb and make it an environment variable , Debugging , do not allow http requests , spurious comment , rename scrums.css.scss to timeline.css.scss amd add comments to Gemfile , reset record new episodes to none , move youtube API key to initializer , Taking out Debugging Messages and Fixing Gemfile issues , tweak tests and configure vcr to not record new videos , move sorting by most recent to query , more refinements to query , try to make API query more general , allow [TOO_LONG]","6","3","3","9","9","[page, text, scan, all, count, eq, sort, page, click_link, find, body, gsub, have_selector, evaluate_script, flatten, click, page, body, gsub, scan, flatten, find, trigger, click, have, items]","0","","0","","0","","0","","0","","[]","","0","3","16","[app/helpers/youtube_helper.rb, app/views/scrums/_scrum.html.erb, app/views/scrums/index.html.erb]","[app/controllers/authentications_controller.rb, app/controllers/projects_controller.rb, app/controllers/scrums_controller.rb, app/controllers/static_pages_controller.rb, app/controllers/users_controller.rb, app/controllers/visitors_controller.rb, app/helpers/scrums_helper.rb, app/helpers/users_helper.rb, app/helpers/youtube_helper.rb, app/models/scrum.rb, app/views/documents/index.html.erb, app/views/layouts/_round_banners.html.erb, app/views/layouts/application.html.erb, app/views/scrums/_scrum.html.erb, app/views/scrums/index.html.erb, app/views/users/show.html.erb]","1.0","0.1875","[87bd13d068bd4da2405e4ba7d56864869e60144d, b1e217df9da7232c0fadaf997dc95024feb32fd3, 0d2024ff65d4eb230508229c8c906d9d02d09875, a0e00f3397e288645b404017e5f24df7eafbab03, d65a8b3e6727be6e7e725d453dd4561614c79276, 837dac8b9456924a259434138bc1c183ada4a23a, 78a3760efec3edf60c29862370e41b6e500d046b, 52e24f15972f83080388d14ee701ce9bc6df60d6, ef02d7579d8d9b83cd2150d54a2fe26fa2948890, 78b997533b012dbd189c5dbda45f79509bfd1e42, 4f781266ad36281fbfcdb20ce2062cbd9f865616, 1670b2bc5d56a3beee17ae91f8844a087e2c50e2, e95b464fb5d60d8de42ea461f07a94bdf5c07386, 647f0387b7a590f87e5e7f4ef81b1c52f1e8c19e, 92c4257a73113c7fd04315b05556df096aec608f, 0166941c75eb6cc0a8ce8d0cef6d16ece19048ba, 30cfb7154c4182e173ce133db09f984294dc34b0, a82acba5130aca5c48841c6cc2139bd58dac6822, e110be90c0760673ab514a9586278f16da9966ca, e3f28d2a7349c2a9d2ce5766e8a382bec226c902, 8c7d6fa15a31d752d394056a94b8a011e484ed55, 81193fa93769e3e48d7415666b9bc9b9b6af43c7, 4103ad6bf06ef41b48ac762c03d871c7eab2cbcc, 124b09fc6915d8059ef3c53dcaa8c84d4cc9b1be, 359a71eab397a824673e5083f0de21f66dada9b8, 08e56b0bf14f3abe3ef6b8e5b6d22625fa953b8d, 81969e7dee425d4884b4e725d85eae2c601c2dbb, eb0fd3eec9349b682a0e73d701f0b0d4208aff65, c70b07e200e22a1c2418bac9b8fbcc45b2c2e864, 95fa03b19907acd5a808b4321a79e0e18c800f10, b2b14cde18114b4ab5e051bd71be85d01ab7cffa, 5e8f25436475214f828dbd54e265073d8db6fedb, 722eeeea23a6c31ed2aab1c50c862b050798bb29, 080c9ba2053f920802f43ce00029797f52641946, e2362230841eddba9edece393a3f58c9e8958a30, 35b70d1959b48383b5fae9a564a5eae24aa59576, 53c772c8aaf360c3d703c80e9f18ec5398aafea6, 80a3fa7829b04df0c2756cbf53f742a29d804dd1, f915791663ec5845b07da27769d6a9ed2c458318, 7cc921ee6a0ad6dcb4a013cc1abe178768da1565, 6c0762c29fcd487fe0993d88683030ddc69c6452, 563ca440b71e5f9557f8479b294ccb35a052c160, f263c6a7beeb201ab81a8eb41100e2d3cd3bb8ef, 45f3efc1bd70ec8fc61d6b582b90dec8c031c31e, 78066685da4922d4694ffe1e427cdb3da2836ae7, 9bd1cd8256d508483410a7c907c9bfc4b9dbaf4a, 3ea3bb66e2dcd22a26d7460a33717661818dc96b, 9d1fd972c2d1ea358a4b83128fdbdcf64f005b37, 7eafcfb1e310df2a58208c0862ee83fdc73115e8, 595a0bad7e582c0f9f136999b0a188933e633c36, ee2ea3428e5a186e915683c550c9e83db370ff60, 2e83880eb05db997608cfdfcee1bdb7488adcb8d, 6d15b5c5f4ddc53cbf633e519a37062a8d1e026d, cfcdd30835e8c19064b7b3df96b24b9a7782b886, fb67d54da4e34d7f9d8123fbf8e6ac05752fdc40, 188691f800d990811d86ccb0354506a80d58bbe2, fd3cbcddb7fa185b317f08d94988396fd55d7d60, 3f2b1904b73a0ff9fd39d80a186bdd659edfee38, cafc90a95152b62c96ee5688e6b4125fb9280da6, 80d32dc14d3d2f02d49e110c47a3bb927a85d0cc, d4236f4fec56012be099939f8af53ad720ebc942, c3ca651e0accc2144e7a4183de1a9c4165b54bff, b606f1af1ca45b9dc81772edf01280739f1284db, 076517b4c5d8cc301651641d2db9e4a56926f05f, 3af13bb1b009f35f466eeeb56025f6a33650d356, 967cd01498403d3394d86e43b1b4dd33aac6aec6, 580584324a00d9fa12f3522dd22f3f40944b85a0, fc5b0fec4fe9add8d983393f9b70a4a1b2f77e50, 207317c34cf3fcd92ca0fe90cd8459dd7e6179a7, 5229928d47ebda3e0d1e627c2c7658425fe3e13d, d2bf47cef547b686d52ee604c57d5c79e2a6e752, 53d3c74f4488a898c040b9a9841ba50316fccb38]","0.195 seconds","4.1.0","[cucumber-rails, rspec-rails, coveralls, factory_girl]","2","[]","2","2","[app/views/scrums/_scrum.html.erb, app/views/scrums/index.html.erb]","false","0.22388059701492535","0","","0",""
"websiteone","395","[22-06-2014]","1","1","[Merge pull request #453 from AgileVentures/staging  Pushing Staging to Production]","1","4","4","12","12","[hashes, squish, gsub, each_pair, present?, except!, articles, new, save!, each, nil?, page, driver, within_frame, to_i, page, has_css?, sleep, click_link_or_button, save_and_open_page, save_screenshot, id, merge, projects, tag_list, project_id, to_i, days, ago, user_id, create!, sign up, sign in, title, user, created_at, whodunnit, event, story_type, estimate, id, name, owned_by, current_state, send message, find, have_link, transpose, fill_in, click_button, within, sign in, tr]","2","","0","","0","","0","","0","","[lib/user_sanitizer.rb]","[app/views/events/_url.html.erb, github, new_registration, new_session, pivotaltracker]","5","51","21","[app/controllers/articles_controller.rb, app/controllers/documents_controller.rb, app/controllers/events_controller.rb, app/controllers/hangouts_controller.rb, app/controllers/projects_controller.rb, app/controllers/registrations_controller.rb, app/controllers/static_pages_controller.rb, app/controllers/users_controller.rb, app/controllers/visitors_controller.rb, app/helpers/documents_helper.rb, app/helpers/features.rb, app/models/article.rb, app/models/document.rb, app/models/event.rb, app/models/hangout.rb, app/models/project.rb, app/models/user.rb, app/views/articles/_article.html.erb, app/views/articles/index.html.erb, app/views/articles/show.html.erb, app/views/devise/registrations/edit.html.erb, app/views/devise/registrations/new.html.erb, app/views/devise/sessions/new.html.erb, app/views/disqus/_disqus.html.erb, app/views/documents/show.html.erb, app/views/events/edit.html.erb, app/views/events/index.html.erb, app/views/events/new.html.erb, app/views/events/show.html.erb, app/views/hangouts/_hangout_button.html.erb, app/views/hangouts/_hangout_status.html.erb, app/views/layouts/_contact_form.html.erb, app/views/layouts/_flash.html.erb, app/views/layouts/_footer.html.erb, app/views/layouts/_head.html.erb, app/views/layouts/_hire_me.html.erb, app/views/layouts/_meta_tags.html.erb, app/views/layouts/_navbar.html.erb, app/views/layouts/_round_banners.html.erb, app/views/projects/_activity.html.erb, app/views/projects/_listing.html.erb, app/views/projects/_members_list.html.erb, app/views/projects/index.html.erb, app/views/projects/show.html.erb, app/views/static_pages/show.html.erb, app/views/users/index.html.erb, app/views/users/profile/_detail.html.erb, app/views/users/profile/_summary.html.erb, app/views/users/profile/_videos.html.erb, app/views/users/show.html.erb, app/views/visitors/index.html.erb]","[app/controllers/application_controller.rb, app/controllers/events_controller.rb, app/controllers/hangouts_controller.rb, app/controllers/static_pages_controller.rb, app/helpers/documents_helper.rb, app/helpers/event_helper.rb, app/helpers/features.rb, app/models/event.rb, app/models/hangout.rb, app/models/user.rb, app/services/event_creator_service.rb, app/services/slack_service.rb, app/views/articles/show.html.erb, app/views/disqus/_disqus.html.erb, app/views/documents/show.html.erb, app/views/events/show.html.erb, app/views/hangouts/_hangout_button.html.erb, app/views/hangouts/_hangout_status.html.erb, app/views/projects/show.html.erb, app/views/users/index.html.erb, lib/custom_errors.rb]","0.3137254902","0.7619047619","[68793b90fef4fdecd0f4e609ea9cf8f360543f87]","1.745 seconds","4.1.0","[cucumber-rails, rspec-rails, coveralls, factory_girl]","5","[]","34","43","[app/controllers/articles_controller.rb, app/controllers/documents_controller.rb, app/controllers/events_controller.rb, app/controllers/hangouts_controller.rb, app/controllers/projects_controller.rb, app/controllers/registrations_controller.rb, app/controllers/static_pages_controller.rb, app/controllers/users_controller.rb, app/controllers/visitors_controller.rb, app/views/articles/_article.html.erb, app/views/articles/index.html.erb, app/views/articles/show.html.erb, app/views/devise/registrations/edit.html.erb, app/views/devise/registrations/new.html.erb, app/views/devise/sessions/new.html.erb, app/views/disqus/_disqus.html.erb, app/views/documents/show.html.erb, app/views/events/edit.html.erb, app/views/events/index.html.erb, app/views/events/new.html.erb, app/views/events/show.html.erb, app/views/hangouts/_hangout_button.html.erb, app/views/hangouts/_hangout_status.html.erb, app/views/layouts/_contact_form.html.erb, app/views/layouts/_flash.html.erb, app/views/layouts/_footer.html.erb, app/views/layouts/_head.html.erb, app/views/layouts/_hire_me.html.erb, app/views/layouts/_meta_tags.html.erb, app/views/layouts/_navbar.html.erb, app/views/layouts/_round_banners.html.erb, app/views/projects/_activity.html.erb, app/views/projects/_listing.html.erb, app/views/projects/_members_list.html.erb, app/views/projects/index.html.erb, app/views/projects/show.html.erb, app/views/static_pages/show.html.erb, app/views/users/index.html.erb, app/views/users/profile/_detail.html.erb, app/views/users/profile/_summary.html.erb, app/views/users/profile/_videos.html.erb, app/views/users/show.html.erb, app/views/visitors/index.html.erb]","true","0.5925925925930865","0","","0",""
"websiteone","397","[23-06-2014, 24-06-2014, 25-06-2014, 26-06-2014]","4","25","[Merge pull request #454 from YaroSpace/hangout  Hangouts feature - hangout setup flow cleanup, moved general steps to basic_steps , addded active_model_mocks , refactoring after code review , added Slack_notifications feature to Settings , extracted events js into a separate file , more new tests , added a couple of tests for case when hangout has not started for signed in users.  Also, rubymine doesn't like: Time.stub(now: Time.parse('10:30:00')), but I left it alone. , removed unnecessary comma from button definition , added a stub for SlackService , minor refactoring , removed outdated features from events , refactored show view and partials , added manual update for hangout link , added warning text and restart button to show view and specs , added feature for restart hangout and steps , refactored show view and specs , refactored featurs and steps , changes to events (hangouts) view to satisfy tests , new rspec tests for hangouts , new cuc tests for hangouts , modified show view [TOO_LONG]","3","8","8","6","6","[hashes, each, click_link_or_button, click_link_or_button, fill_in, page, have_link, rows, flatten, have_text, send, each, be_false, be_true, has_link?, has_button?, fill_in, click_button, within, sign in, find, have_css, not_to, transpose, id, stub_request, to_return]","0","","0","","0","","0","","0","","[]","[new_registration]","1","11","6","[app/controllers/events_controller.rb, app/models/event.rb, app/models/hangout.rb, app/models/user.rb, app/views/devise/sessions/new.html.erb, app/views/events/edit.html.erb, app/views/events/index.html.erb, app/views/events/new.html.erb, app/views/events/show.html.erb, app/views/hangouts/_hangout_button.html.erb, app/views/hangouts/_hangout_status.html.erb]","[app/controllers/hangouts_controller.rb, app/services/slack_service.rb, app/views/events/show.html.erb, app/views/hangouts/_hangout_button.html.erb, app/views/hangouts/_hangout_status.html.erb, app/views/projects/show.html.erb]","0.2727272727","0.5","[fbbe799d1b9c64962e706d65a572ddad26e3f5b3, ef1f149ef691b57a2ad5b1baf8ea21ca583b5ddc, effc0e335de38385b63dc7e5aa449235db7f6c2e, 7f4c8f097c3afdafe84e773228f6d9efc3f99259, 12166d912d7966ea9cb0b3dc9e33282ed9925a2a, 0c9c2c904c55c20bc5dea03919c74708335c8508, b2b3e2fc397e9bd9d5dcc9543259f0b54b163673, e841df1f7f1b81dfde5258aa843f1e0bfdb3d5a2, bc677ddc0dd81b279ff53fed5c30f159495082b5, 1b5dbf0c91e060aa65f8c951b29b04b5637f0d12, 671b8405e3777a9f3082aabd09d962c3445e1dfc, 26195de047323efee74f4b87b8d2c5bc36a8af3f, 5bf5687af157738a40508b53e1f4f3e70c2d0be6, ceddd19fd1e1b1e7cb00dad847f6b79976d9eace, 379b6b1207746763e662fee60d700c968660796f, 817c00d9076879053bc9571016657fba812ad400, 2e928d3f61402e6875f16ebc73f0765dd9d10530, 514e387f33ff586c05f2b519980257ff661191d7, 0aea0d70e87da44a1dfa2cc5906f6be328a7b698, abd2dc487c534491a1a75393c2c6b26c48875e7e, 333c3dc251b4f2183c36af8ed73b564f24ff048d, 2d626e8b29c82c4b6225685a6d68a99cf47938b6, cafe48a82e598b0357b596770c7dfb838406562f, f367a64187ceb9ae6d4cac6c96026c1ca5c654f0, 247db8c0e21ce5c83bb3cb3f32136faeaf655653]","0.498 seconds","4.1.0","[cucumber-rails, rspec-rails, coveralls, factory_girl]","3","[]","7","8","[app/controllers/events_controller.rb, app/views/devise/sessions/new.html.erb, app/views/events/edit.html.erb, app/views/events/index.html.erb, app/views/events/new.html.erb, app/views/events/show.html.erb, app/views/hangouts/_hangout_button.html.erb, app/views/hangouts/_hangout_status.html.erb]","true","0.4285714285579592","0","","0",""
"websiteone","400","[21-06-2014]","1","10","[changed the @custom_error hook to use Features , Added new cucumber feature for Omniauth without email , Replaced super with the method definion in build_resource , replaced stubs for stdout and stderr , Fix for Mercury Missing Image , added silence-omniauth hook to cucumber , rspec syntax fix , silenced expected exception on requesting unexistent page in profile_privacy feature silenced the output of bulk mailer to console , silenced the output of omniauth performing authentications in specs , fixed tabs and visitors specs ]","3","1","1","3","3","[click_link_or_button, page, have_text, has_css?, sleep, have_css, sign up, all, text, collect, sort, page, driver, submit, sign in]","1","","0","","0","","0","","0","","[]","[new_registration, new_session]","2","2","2","[app/views/devise/registrations/new.html.erb, app/views/devise/sessions/new.html.erb]","[app/controllers/registrations_controller.rb, lib/agile_ventures/bulk_mailer.rb]","0.0","0.0","[cfd8ce649b06b60ffb07763e0ea9965ade6c06a2, 45a38f2e147ba43c516521909182c4e75a6d4600, 92c1a05d2c5dc49be32d7ebc6e5a81c020253826, aa8890f8f9fe9bd87b33bbf5ee69582779163816, 29ed9bd5a2187b0ff72ae03a3a435bda1314b1d7, b4a02d006dc31aaff872a928c92b0f92bab4298d, 125fb60ef18eac184ee2ae72cb2259c29ed55e5f, 1e97c7c17132b76d2b599318199d23c559dbff40, 3f134c0e9969901c6c38da9747216721959c56fe, 05537753a8ef973c497b2de2c1624188fb4135ff]","0.134 seconds","4.1.0","[cucumber-rails, rspec-rails, coveralls, factory_girl]","1","[]","2","2","[app/views/devise/registrations/new.html.erb, app/views/devise/sessions/new.html.erb]","false","0.0","0","","0",""
"websiteone","401","[22-06-2014]","1","1","[Merge pull request #449 from AgileVentures/develop  Pushing Develop to Staging]","1","4","4","12","12","[hashes, squish, gsub, each_pair, present?, except!, articles, new, save!, each, nil?, page, driver, within_frame, to_i, page, has_css?, sleep, click_link_or_button, save_and_open_page, save_screenshot, id, merge, projects, tag_list, project_id, to_i, days, ago, user_id, create!, sign up, sign in, title, user, created_at, whodunnit, event, story_type, estimate, id, name, owned_by, current_state, send message, find, have_link, transpose, fill_in, click_button, within, sign in, tr]","2","","0","","0","","0","","0","","[lib/user_sanitizer.rb]","[app/views/events/_url.html.erb, github, new_registration, new_session, pivotaltracker]","5","51","21","[app/controllers/articles_controller.rb, app/controllers/documents_controller.rb, app/controllers/events_controller.rb, app/controllers/hangouts_controller.rb, app/controllers/projects_controller.rb, app/controllers/registrations_controller.rb, app/controllers/static_pages_controller.rb, app/controllers/users_controller.rb, app/controllers/visitors_controller.rb, app/helpers/documents_helper.rb, app/helpers/features.rb, app/models/article.rb, app/models/document.rb, app/models/event.rb, app/models/hangout.rb, app/models/project.rb, app/models/user.rb, app/views/articles/_article.html.erb, app/views/articles/index.html.erb, app/views/articles/show.html.erb, app/views/devise/registrations/edit.html.erb, app/views/devise/registrations/new.html.erb, app/views/devise/sessions/new.html.erb, app/views/disqus/_disqus.html.erb, app/views/documents/show.html.erb, app/views/events/edit.html.erb, app/views/events/index.html.erb, app/views/events/new.html.erb, app/views/events/show.html.erb, app/views/hangouts/_hangout_button.html.erb, app/views/hangouts/_hangout_status.html.erb, app/views/layouts/_contact_form.html.erb, app/views/layouts/_flash.html.erb, app/views/layouts/_footer.html.erb, app/views/layouts/_head.html.erb, app/views/layouts/_hire_me.html.erb, app/views/layouts/_meta_tags.html.erb, app/views/layouts/_navbar.html.erb, app/views/layouts/_round_banners.html.erb, app/views/projects/_activity.html.erb, app/views/projects/_listing.html.erb, app/views/projects/_members_list.html.erb, app/views/projects/index.html.erb, app/views/projects/show.html.erb, app/views/static_pages/show.html.erb, app/views/users/index.html.erb, app/views/users/profile/_detail.html.erb, app/views/users/profile/_summary.html.erb, app/views/users/profile/_videos.html.erb, app/views/users/show.html.erb, app/views/visitors/index.html.erb]","[app/controllers/application_controller.rb, app/controllers/events_controller.rb, app/controllers/hangouts_controller.rb, app/controllers/static_pages_controller.rb, app/helpers/documents_helper.rb, app/helpers/event_helper.rb, app/helpers/features.rb, app/models/event.rb, app/models/hangout.rb, app/models/user.rb, app/services/event_creator_service.rb, app/services/slack_service.rb, app/views/articles/show.html.erb, app/views/disqus/_disqus.html.erb, app/views/documents/show.html.erb, app/views/events/show.html.erb, app/views/hangouts/_hangout_button.html.erb, app/views/hangouts/_hangout_status.html.erb, app/views/projects/show.html.erb, app/views/users/index.html.erb, lib/custom_errors.rb]","0.3137254902","0.7619047619","[aae8c6b668be90d68f56f81277e49a25d8d8fdd5]","2.050 seconds","4.1.0","[cucumber-rails, rspec-rails, coveralls, factory_girl]","5","[]","34","43","[app/controllers/articles_controller.rb, app/controllers/documents_controller.rb, app/controllers/events_controller.rb, app/controllers/hangouts_controller.rb, app/controllers/projects_controller.rb, app/controllers/registrations_controller.rb, app/controllers/static_pages_controller.rb, app/controllers/users_controller.rb, app/controllers/visitors_controller.rb, app/views/articles/_article.html.erb, app/views/articles/index.html.erb, app/views/articles/show.html.erb, app/views/devise/registrations/edit.html.erb, app/views/devise/registrations/new.html.erb, app/views/devise/sessions/new.html.erb, app/views/disqus/_disqus.html.erb, app/views/documents/show.html.erb, app/views/events/edit.html.erb, app/views/events/index.html.erb, app/views/events/new.html.erb, app/views/events/show.html.erb, app/views/hangouts/_hangout_button.html.erb, app/views/hangouts/_hangout_status.html.erb, app/views/layouts/_contact_form.html.erb, app/views/layouts/_flash.html.erb, app/views/layouts/_footer.html.erb, app/views/layouts/_head.html.erb, app/views/layouts/_hire_me.html.erb, app/views/layouts/_meta_tags.html.erb, app/views/layouts/_navbar.html.erb, app/views/layouts/_round_banners.html.erb, app/views/projects/_activity.html.erb, app/views/projects/_listing.html.erb, app/views/projects/_members_list.html.erb, app/views/projects/index.html.erb, app/views/projects/show.html.erb, app/views/static_pages/show.html.erb, app/views/users/index.html.erb, app/views/users/profile/_detail.html.erb, app/views/users/profile/_summary.html.erb, app/views/users/profile/_videos.html.erb, app/views/users/show.html.erb, app/views/visitors/index.html.erb]","true","0.5925925925930865","0","","0",""
"websiteone","409","[16-06-2014, 19-06-2014]","4","19","[restart travis , moved APP_ID constant out of module some minor refactoring , added global load_hangout function and specs , minor refactoring after code review , refactored javascript added js specs , minor refactoring after code review , added jasmine tests for hangout button js , refactored button loading javascript , added Events <- Hangouts association , include javascript with content_for moved WSO secrvice connection application id to initializer extracted hangout button spec to a shared example extracted event topic to  a helper method , moved hangout specific code to partials moved javadcript into js file , changed type of foreign key for events renamed the Hangouts controller added routes for :options preflight check of cors , minor refactoring , moved partials into hangouts directory , added hangoutsController and route , added table and model for Hangouts , added code and specs to EventsController ,  added Event show view specs and code , added Hangout feature and steps ]","1","2","2","4","4","[hashes, each, sign up, sign in, title, user, created_at, whodunnit, event, story_type, estimate, id, name, owned_by, current_state, send message, page, find, have_link, transpose, id, fill_in, click_button, within, sign in]","0","","0","","0","","0","","0","","[]","[app/views/events/_url.html.erb, github, new_registration, new_session, pivotaltracker]","5","46","10","[app/controllers/articles_controller.rb, app/controllers/documents_controller.rb, app/controllers/events_controller.rb, app/controllers/hangouts_controller.rb, app/controllers/projects_controller.rb, app/controllers/registrations_controller.rb, app/controllers/static_pages_controller.rb, app/controllers/users_controller.rb, app/controllers/visitors_controller.rb, app/models/article.rb, app/models/event.rb, app/models/hangout.rb, app/models/user.rb, app/views/articles/_article.html.erb, app/views/articles/index.html.erb, app/views/articles/show.html.erb, app/views/devise/registrations/edit.html.erb, app/views/devise/registrations/new.html.erb, app/views/devise/sessions/new.html.erb, app/views/documents/show.html.erb, app/views/events/edit.html.erb, app/views/events/index.html.erb, app/views/events/new.html.erb, app/views/events/show.html.erb, app/views/hangouts/_hangout_button.html.erb, app/views/hangouts/_hangout_status.html.erb, app/views/layouts/_contact_form.html.erb, app/views/layouts/_flash.html.erb, app/views/layouts/_footer.html.erb, app/views/layouts/_head.html.erb, app/views/layouts/_hire_me.html.erb, app/views/layouts/_meta_tags.html.erb, app/views/layouts/_navbar.html.erb, app/views/layouts/_round_banners.html.erb, app/views/projects/_activity.html.erb, app/views/projects/_listing.html.erb, app/views/projects/_members_list.html.erb, app/views/projects/index.html.erb, app/views/projects/show.html.erb, app/views/static_pages/show.html.erb, app/views/users/index.html.erb, app/views/users/profile/_detail.html.erb, app/views/users/profile/_summary.html.erb, app/views/users/profile/_videos.html.erb, app/views/users/show.html.erb, app/views/visitors/index.html.erb]","[app/controllers/events_controller.rb, app/controllers/hangouts_controller.rb, app/helpers/event_helper.rb, app/models/event.rb, app/models/hangout.rb, app/views/events/index.html.erb, app/views/events/show.html.erb, app/views/hangouts/_hangout_button.html.erb, app/views/hangouts/_hangout_status.html.erb, app/views/layouts/_head.html.erb]","0.1956521739","0.9","[aaf775231d4f9e450bd3c58858c752dde80760a5, 417021fecd74e7cc3055579ea14adfe491fad413, 164f47d2c4fa7a1097f5e19f56694c710d9b2b17, b5787ca66d48dee680989c2123a6a17e2dcfcc04, 653fb2ac4ed049c484bee7c6a22f81f1892f628a, a24de8b5274f471b09a3ca54bc79904cba98d737, 6809911ddf6e62069062879bf0fd295bc27e7558, 7ff9aa18449685b3b8c9312462b23dfa110d03bd, df1f9c06fb47e27a29b2ff085eeb598775c603a6, 2994c5e1d30d0504f1fe51f782c49555391061d8, 5d1273b45f7a977d87897c4d777dcb0ac8d389f2, 47a5f02c527cd80f854f3fd25dbe3f2ef814614a, 276e3bce920de053019bcac34718f15b2aff90fd, 697e978155d4defdcb85dad522bef3cdbc7628e7, 00a45fa34cfa8876330025652e4b5a9165c05398, 5eb6f74c37aac77533867837ed7728e576f4f150, 0dfb000900b6ff723af5d8166d7e9c22e15a7666, caa6050dd127ea9941ab109c38164b5c85afd9f4, 60534b4154eb03b754a902f31f5061706759fce9]","1.635 seconds","4.1.0","[cucumber-rails, rspec-rails, coveralls, factory_girl]","3","[]","33","42","[app/controllers/articles_controller.rb, app/controllers/documents_controller.rb, app/controllers/events_controller.rb, app/controllers/hangouts_controller.rb, app/controllers/projects_controller.rb, app/controllers/registrations_controller.rb, app/controllers/static_pages_controller.rb, app/controllers/users_controller.rb, app/controllers/visitors_controller.rb, app/views/articles/_article.html.erb, app/views/articles/index.html.erb, app/views/articles/show.html.erb, app/views/devise/registrations/edit.html.erb, app/views/devise/registrations/new.html.erb, app/views/devise/sessions/new.html.erb, app/views/documents/show.html.erb, app/views/events/edit.html.erb, app/views/events/index.html.erb, app/views/events/new.html.erb, app/views/events/show.html.erb, app/views/hangouts/_hangout_button.html.erb, app/views/hangouts/_hangout_status.html.erb, app/views/layouts/_contact_form.html.erb, app/views/layouts/_flash.html.erb, app/views/layouts/_footer.html.erb, app/views/layouts/_head.html.erb, app/views/layouts/_hire_me.html.erb, app/views/layouts/_meta_tags.html.erb, app/views/layouts/_navbar.html.erb, app/views/layouts/_round_banners.html.erb, app/views/projects/_activity.html.erb, app/views/projects/_listing.html.erb, app/views/projects/_members_list.html.erb, app/views/projects/index.html.erb, app/views/projects/show.html.erb, app/views/static_pages/show.html.erb, app/views/users/index.html.erb, app/views/users/profile/_detail.html.erb, app/views/users/profile/_summary.html.erb, app/views/users/profile/_videos.html.erb, app/views/users/show.html.erb, app/views/visitors/index.html.erb]","false","0.5232558139348297","0","","0",""
"websiteone","410","[15-06-2014, 17-06-2014]","3","8","[Merge pull request #426 from YaroSpace/disqus  Adding Disqus commenting engine, moved inline js into a file , changed directory structure for partials and initializer , refactored show views and specs , refactored features and steps , refactored disqus_embed into a partial adjusted show views and specs for documents and articles , Added show view and specs for Documents and Articles , Added feature and steps for Disqus Added Disqus account settings to initializers/disqus.rb ]","2","2","2","7","7","[hashes, squish, gsub, each_pair, present?, except!, articles, new, save!, each, nil?, page, driver, within_frame, to_i, page, has_css?, sleep, click_link_or_button, save_and_open_page, save_screenshot, id, merge, projects, tag_list, project_id, to_i, days, ago, user_id, create!]","2","","0","","0","","0","","0","","[app/helpers/disqus_helper.rb, app/views/shared/_disqus.html.erb]","","0","4","4","[app/helpers/documents_helper.rb, app/models/document.rb, app/models/project.rb, app/models/user.rb]","[app/helpers/documents_helper.rb, app/views/articles/show.html.erb, app/views/disqus/_disqus.html.erb, app/views/documents/show.html.erb]","0.25","0.25","[ff2be455ddabac311155e3d4ccfd56a697098652, e57d8b819eabb6a5d6610a898f7ad0780468b0d1, 6a0b02292c2e28bb849a34abf8222fe9dda87357, bead3eed77880b319c3018ef46a8145df4f84d41, 0e5c4bc1ac97ee52988ae520b134ef11c96552cf, 16e1a53bf40cd358c26ed1af83de27f814cc5b0a, 269e3e1c9a01a167a9f76ae2c354ca127428aae0, 1d880e03fd6a4c5176cc36290a99b73496edfc63]","0.136 seconds","4.1.0","[cucumber-rails, rspec-rails, coveralls, factory_girl]","2","[]","0","0","[]","true","0.25","0","","0",""
"websiteone","417","[30-05-2014]","1","3","[Merge pull request #419 from antonydenyer/airpair_sponsor  Added AirPair supporter banner and footer  Good work Anthony!  Reviewed by: @yggie, @johnnymo87, added airpair supporter footer , added airpair supporter ]","2","1","1","0","0","[page, has_link?, be_false, be_true, title, user, created_at, sign up, sign in, whodunnit, event, story_type, estimate, id, name, owned_by, current_state, send message, have_selector, have_css, hashes, each, to_i, update, save!, times]","0","","0","","0","","0","","0","","[]","[app/views/events/_url.html.erb, github, new_registration, new_session, pivotaltracker]","5","40","2","[app/controllers/articles_controller.rb, app/controllers/documents_controller.rb, app/controllers/events_controller.rb, app/controllers/projects_controller.rb, app/controllers/registrations_controller.rb, app/controllers/static_pages_controller.rb, app/controllers/users_controller.rb, app/controllers/visitors_controller.rb, app/models/article.rb, app/models/event.rb, app/models/static_page.rb, app/views/articles/_article.html.erb, app/views/articles/index.html.erb, app/views/articles/show.html.erb, app/views/devise/registrations/_preview.html.erb, app/views/devise/registrations/edit.html.erb, app/views/devise/registrations/new.html.erb, app/views/devise/sessions/new.html.erb, app/views/documents/show.html.erb, app/views/events/edit.html.erb, app/views/events/index.html.erb, app/views/events/new.html.erb, app/views/events/show.html.erb, app/views/layouts/_contact_form.html.erb, app/views/layouts/_flash.html.erb, app/views/layouts/_footer.html.erb, app/views/layouts/_head.html.erb, app/views/layouts/_hire_me.html.erb, app/views/layouts/_meta_tags.html.erb, app/views/layouts/_navbar.html.erb, app/views/layouts/_round_banners.html.erb, app/views/projects/_activity.html.erb, app/views/projects/_listing.html.erb, app/views/projects/_members_list.html.erb, app/views/projects/index.html.erb, app/views/projects/show.html.erb, app/views/static_pages/show.html.erb, app/views/users/index.html.erb, app/views/users/show.html.erb, app/views/visitors/index.html.erb]","[app/views/layouts/_footer.html.erb, app/views/layouts/_sponsors.html.erb]","0.025","0.5","[48814a8e92d446380d32e6e435122ab11dbd9c8c, 72de169e8ad0734937902bea53aa184bd23c12dc, 3066d30b939b61393a3a7938318385dcabba4c4d]","2.806 seconds","4.1.0","[cucumber-rails, rspec-rails, coveralls, factory_girl]","2","[]","29","37","[app/controllers/articles_controller.rb, app/controllers/documents_controller.rb, app/controllers/events_controller.rb, app/controllers/projects_controller.rb, app/controllers/registrations_controller.rb, app/controllers/static_pages_controller.rb, app/controllers/users_controller.rb, app/controllers/visitors_controller.rb, app/views/articles/_article.html.erb, app/views/articles/index.html.erb, app/views/articles/show.html.erb, app/views/devise/registrations/_preview.html.erb, app/views/devise/registrations/edit.html.erb, app/views/devise/registrations/new.html.erb, app/views/devise/sessions/new.html.erb, app/views/documents/show.html.erb, app/views/events/edit.html.erb, app/views/events/index.html.erb, app/views/events/new.html.erb, app/views/events/show.html.erb, app/views/layouts/_contact_form.html.erb, app/views/layouts/_flash.html.erb, app/views/layouts/_footer.html.erb, app/views/layouts/_head.html.erb, app/views/layouts/_hire_me.html.erb, app/views/layouts/_meta_tags.html.erb, app/views/layouts/_navbar.html.erb, app/views/layouts/_round_banners.html.erb, app/views/projects/_activity.html.erb, app/views/projects/_listing.html.erb, app/views/projects/_members_list.html.erb, app/views/projects/index.html.erb, app/views/projects/show.html.erb, app/views/static_pages/show.html.erb, app/views/users/index.html.erb, app/views/users/show.html.erb, app/views/visitors/index.html.erb]","true","0.10416666666666669","0","","0",""
"websiteone","445","[14-04-2014, 15-04-2014, 16-04-2014]","3","6","[Merge pull request #370 from erpe/mailing_opt_out  Mailing opt out, remove empy line - just to kick off merge-branch in travis , console mailer specs , WIP , mailing opt-out in user settings , Add attribute to User 'receive_mailings' ]","2","3","3","2","2","[hashes, each, downcase!, pending, downcase!, pending, check, uncheck, find, be_checked, page, find, be_checked, fill_in, click_button, within, delete, merge, gsub, tr, title, sign in, user, created_at, send message, story_type, estimate, id, name, owned_by, current_state, click_link_or_button]","0","","0","","0","","0","","0","","[]","[github, github_profile, new_registration, pivotaltracker]","4","17","6","[app/controllers/articles_controller.rb, app/controllers/documents_controller.rb, app/controllers/events_controller.rb, app/controllers/projects_controller.rb, app/controllers/registrations_controller.rb, app/controllers/users_controller.rb, app/models/user.rb, app/views/devise/registrations/_preview.html.erb, app/views/devise/registrations/edit.html.erb, app/views/devise/sessions/new.html.erb, app/views/documents/show.html.erb, app/views/layouts/_hire_me.html.erb, app/views/projects/_activity.html.erb, app/views/projects/_listing.html.erb, app/views/projects/index.html.erb, app/views/projects/show.html.erb, app/views/users/show.html.erb]","[app/mailers/console_mailer.rb, app/views/console_mailer/newsletter.html.erb, app/views/devise/registrations/edit.html.erb, lib/agile_ventures.rb, lib/agile_ventures/bulk_mailer.rb, lib/user_sanitizer.rb]","0.0588235294","0.1666666667","[85f701de470760cc406aa3343dede77cfdc7e110, fe5fd43f3d018d781e93f948269337a90741365b, df628a810be26955baced3742b6fd37ca85aadc9, cb7e216f88682a951559f3b7bdd822fd58011627, 758d7e9f577f297cfcb86f70142199340ce9e28f, 6212993387fd87c6ec5ad163ba98779a39eb8cb3]","0.780 seconds","4.0.4","[cucumber-rails, rspec-rails, coveralls, factory_girl]","6","[]","10","16","[app/controllers/articles_controller.rb, app/controllers/documents_controller.rb, app/controllers/events_controller.rb, app/controllers/projects_controller.rb, app/controllers/registrations_controller.rb, app/controllers/users_controller.rb, app/views/devise/registrations/_preview.html.erb, app/views/devise/registrations/edit.html.erb, app/views/devise/sessions/new.html.erb, app/views/documents/show.html.erb, app/views/layouts/_hire_me.html.erb, app/views/projects/_activity.html.erb, app/views/projects/_listing.html.erb, app/views/projects/index.html.erb, app/views/projects/show.html.erb, app/views/users/show.html.erb]","true","0.12195121951635932","0","","0",""
"websiteone","449","[06-04-2014, 07-04-2014, 08-04-2014, 09-04-2014, 10-04-2014, 11-04-2014]","6","32","[add scrollto behaviour when clicking user videos, adjusted css in event show/index and users show page , changed become a supporter button css, adjusted padding in index pages , fixed bad css with tokenfields and datepicker, updated articles/projects/users index page to include a short text, updated event show page to include helpful info about links , updated documents show page and projects show page , updated projects show page , fixed rspec tests , updated event_datepicker.js, users.js, projects.js to use the new WSO.define method for modules , updated video layout , updated projects index page UI , awesome new form helpers implemented, add lib directory to autoload paths , switched to using Ubuntu fonts , back to the old look , minor changes, resized gravatar image , modularized all JavaScript code in application.js , fixed footer css, rewrote text on round banners, preparing top content for modification , reintroduced round banners, tidy up and fix css , extracted event countdo [TOO_LONG]","1","5","5","6","6","[page, have_selector, find, page, have_text, within, driver, within_frame, within, driver, within_frame, pending, click_link_or_button, rows, flatten, have_text, send, each, has_link?, be_false, be_true, have_link, hashes, each, current_path, eq, to_i, update, save!, times, present?, id, merge, projects, new, tag_list, click, stub_request, to_return, have_css]","4","","0","","0","","0","","0","","[]","[root]","1","5","33","[app/controllers/static_pages_controller.rb, app/models/project.rb, app/models/static_page.rb, app/models/user.rb, app/views/static_pages/show.html.erb]","[app/controllers/application_controller.rb, app/controllers/events_controller.rb, app/controllers/projects_controller.rb, app/controllers/visitors_controller.rb, app/helpers/application_helper.rb, app/helpers/articles_helper.rb, app/helpers/users_helper.rb, app/views/articles/_article.html.erb, app/views/articles/_form.html.erb, app/views/articles/index.html.erb, app/views/documents/show.html.erb, app/views/events/_form.html.erb, app/views/events/index.html.erb, app/views/events/show.html.erb, app/views/layouts/_contact_form.html.erb, app/views/layouts/_flash.html.erb, app/views/layouts/_footer.html.erb, app/views/layouts/_navbar.html.erb, app/views/layouts/_round_banners.html.erb, app/views/layouts/_sponsors.html.erb, app/views/layouts/application.html.erb, app/views/layouts/articles_layout.html.erb, app/views/layouts/with_sidebar.html.erb, app/views/projects/_activity.html.erb, app/views/projects/_form.html.erb, app/views/projects/_listing.html.erb, app/views/projects/_members_list.html.erb, app/views/projects/index.html.erb, app/views/projects/show.html.erb, app/views/static_pages/show.html.erb, app/views/users/index.html.erb, app/views/users/show.html.erb, app/views/visitors/index.html.erb]","0.2","0.0303030303","[f4e966581c990efc292c9fecfeaa36f9e744f305, 2efdfab9bfc4f2ad5296aec427d318b6c920a1e8, 863180b8e0435d1845c8f8af118859dc74f9c17d, cf86232823aea99c36491285d8c0ce379eebb02f, 7a84c7baee07b5039bd9b69bd8aeb95532a4fc47, a4ae6425ef2cee6e9c0fa51d14e495d1bc18766f, fd3c87d4a81e4a5b6e84fb4cc4f3bd586507a1d0, a9f2e16d76c4a82671345b3f80584db2a5a53c7e, 9d09162a08495640041f970c1cd31a59712a1840, 3e0a2a128009986ef313ace1145146a89559e7c8, a0799335f6c8f2465196bc689973c663dca47bc2, acf9e6857499da325912bd0b3290bd1ee0c9a939, d2ef96b475c45fe9e5a1240579a6933717da3b6a, e5e44283dd80670ba00c0b01eb56f2e9719ca2b0, 6d0c24548ffeb091e40df8da8785377c1e1294b8, 5323d9e8a699a5b0d053fbb0087a3b9499ec27e7, d89adbcc473277467993a98f776654b095eec1e1, 6d115e185051477b5bd867354e8851b9295f68b0, 0b56179ec89201915029bfa9371a5e58f7830146, 42cc2643732811573d4beb65c1a5b088ac131f02, e9e6a5967406381a8fc9d657b9d800f85c9e0cad, 98666fd3772d467cf94f63560746787f3ea1f4f6, 3d1015e0c82e455c658067d77ff43beaa9a9324d, b96dde6df5ee7fbeb63cb704a81348e3dcf24321, 08177ba255e0e1ccd494b3bc631e9448ca59d22f, 306d398ac7122d713077ad6b225400ea6ec3d93e, 2db76ee4d232ccbdc3c724ba785cb0057d825f75, 858e0c3225e4eadc966211a492dd7577b594c59c, 582c1fc876157cb6048100520f54da0f0d47d2b8, 749c137f27781a775b124e40f8453192805645ba, 7a59b1adbbb4a26a31e690e43b71b4f95154b1a2, 4d5ca3ab3c6aefa2ea0e087776caeb411df61636]","0.235 seconds","4.0.4","[cucumber-rails, rspec-rails, coveralls, factory_girl]","3","[]","1","2","[app/controllers/static_pages_controller.rb, app/views/static_pages/show.html.erb]","false","0.036496350361447064","0","","0",""
"websiteone","455","[07-04-2014]","1","10","[Merge pull request #360 from sampritipanda/events2  Event Countdown Fixes , Added More Features for Plural  Countdowns , Bug Fixes , Refactoring , Implemented event countdown pluralization , Corrected Spec to match new functionality , Corrected Feature to match new functionality , 0 hours now working , Added Features of Event Pluralization , Added Specs for Event Pluralization and 0days 0hours ]","2","3","3","0","0","[hashes, each, rows, page, have_content, each, have_text]","0","","0","","0","","0","","0","","[]","","0","2","1","[app/models/event.rb, app/views/application/index.html.erb]","[app/helpers/visitors_helper.rb]","0.0","0.0","[e05e5156631c155b271a6e8a53d993044086ceaf, 6d3eab98826a6716fb8293a6c5fff598568eaf0b, 164567259acd5bf2c2eaefd851f883ca53434dbb, 2904270b17e707c706036f52b20f68af059bddf1, d7875d2db93fb54bc8b35a0c7a628516b8d46dac, 9d9f93e3d203dec7176bbf1fa1a9bb197891b111, 632effdcf866d84c29ed93ed98b314adf39462b9, 4d5d8aaaa5f295c64892e84476e740c23d9ef739, 86e27fdf358773751f4d47d23057b842b6eb6901, 7971b363eb4116ddcd73c36c4a5068ddf8ed6de9]","0.126 seconds","4.0.4","[cucumber-rails, rspec-rails, coveralls, factory_girl]","1","[]","1","1","[app/views/application/index.html.erb]","true","0.0","0","","0",""
"websiteone","467","[04-04-2014]","1","1","[Merge pull request #347 from coddeys/pivotal-stories  Pivotaltracker stories]","1","3","3","2","2","[stub_request, to_return, stub, click_link_or_button, click_link_or_button, fill_in, rows, flatten, page, have_text, send, each, have_css, hashes, present?, id, merge, projects, new, tag_list, save!, each, click_button, within, sign in]","0","","0","","0","","0","","0","","[]","[new_registration]","1","3","5","[app/models/project.rb, app/models/user.rb, app/views/devise/sessions/new.html.erb]","[app/controllers/projects_controller.rb, app/models/project.rb, app/views/projects/_activity.html.erb, app/views/projects/show.html.erb, lib/url_validator.rb]","0.3333333333","0.2","[0dbe1f552f7a0a59d07f5b4cc7a2e0274fc556d8]","0.148 seconds","4.0.4","[cucumber-rails, rspec-rails, coveralls, factory_girl]","3","[]","1","1","[app/views/devise/sessions/new.html.erb]","true","0.21739130434499057","0","","0",""
"websiteone","468","[03-04-2014, 04-04-2014]","2","12","[Fixed tests , add a little helpful comments , add a URL validator class for Pivotal Tracker URLs , Ping to Bryan, removed pivtoaltracker_id , fixed failing cuke step , refactored viewspec for PV story , added viewspecs for project PV stories , Ping Bryan, written few rspec for project controller (pivotal tracker) , ping to Dima, completed project_pivotal_stories.feature , Ping for Bryan , Cleaned directory (phantomjs) , Merge conflict between branches ]","2","3","3","2","2","[fill_in, click_button, within, sign in, click_link_or_button, click_link_or_button, rows, flatten, page, have_text, send, each, have_css, hashes, present?, id, merge, projects, new, tag_list, save!, each, stub_request, to_return, stub]","0","","0","","0","","0","","0","","[]","[new_registration]","1","3","6","[app/models/project.rb, app/models/user.rb, app/views/devise/sessions/new.html.erb]","[app/controllers/projects_controller.rb, app/models/project.rb, app/views/projects/_activity.html.erb, app/views/projects/_form.html.erb, app/views/projects/show.html.erb, lib/url_validator.rb]","0.3333333333","0.1666666667","[739494276bb796b3f4f0595189158270f18c250b, 7b3a36b9fc25c3d66d23323b1e4f13a99699300f, e74b667f1ea7e15380033d529599ac59133b4f5e, a7efee6837f543f6933d3942be1888cd9f2a35ed, bc387866d79ca499b7edc310daaad98d0ec0e3ed, f48e82851c81596352cd1835c6ba0eae7d36d273, eb5b107762f6c94ebeb39341eed1e4b68cca8428, cba457a4549c58e3c10e1d9b55a4879ef23396a2, 4833e4d684b4d519ddd79942b0cd45ee035b4ac8, 7240f5048c436ef4172b2b6e983e3d37cf279a59, 1da64c7c7e5865d6910cc00a42ac037c6354a96f, 38022509ba39a70c0b65923a604e1ed5f7c36ab6]","0.242 seconds","4.0.4","[cucumber-rails, rspec-rails, coveralls, factory_girl]","3","[]","1","1","[app/views/devise/sessions/new.html.erb]","false","0.18518518521604937","0","","0",""
"websiteone","477","[01-04-2014]","1","8","[Merge pull request #334 from sampritipanda/dependencies  Dependencies Update, Moved font and font-awesome imports to application.html.erb from css files , Changed scenario name , Removed unrequired restrictions on most gems , Update capybara-webkit to latest , Updated bootstrap rails , Upgraded jbuilder , Removed restrictions on coffeescript ]","2","1","1","2","2","[hashes, present?, id, merge, projects, new, tag_list, save!, each, project_id, to_i, days, ago, user_id, create!, raw, flatten, page, all, collect, eq, except!, update, times, stub_request, to_return]","0","","0","","0","","0","","0","","[]","","0","4","1","[app/helpers/documents_helper.rb, app/models/document.rb, app/models/project.rb, app/models/user.rb]","[app/views/layouts/application.html.erb]","0.0","0.0","[ec23c5740a0053f5374ac2995998c505a5b3147f, 9381e39d710ae7de1484240aa91ba5bbb39c45b5, a1a99e2526240854e3b8daf7ba7ee0e3cf01eb7b, f187488f8f5cbf3dbc5e83b5f19599835813ca2d, 765d44fb5a4f37af2179e4a41af367b8ad734609, 53940c8116cda0b3a1e6af848c50912fcd9ac1ea, 26cee0b1d42194ad6e5ab76a0761c8aae4659b9c, 2ea73261437c865cbb082dcabdef5e2907ae22be]","0.259 seconds","4.0.4","[cucumber-rails, rspec-rails, coveralls, factory_girl]","1","[]","0","0","[]","true","0.0","0","","0",""
"websiteone","483","[31-03-2014]","1","4","[Merge pull request #325 from sampritipanda/static_pages  Editable Static Pages, Improved Specs for Static Page Controllers , readded pending step, add test for mercury_update and mercury_saved paths , Schema Migrations Conflict ]","3","15","15","10","10","[hashes, present?, id, merge, projects, new, tag_list, save!, each, project_id, user_id, create!, title, user, created_at, send message, fill_in, click_button, within, sign in, page, driver, find, set, execute_script, within_frame, current_path, url_for_title, current_path, page, driver, has_link?, be_false, be_true, within_frame, click_link, click_link_or_button, have_text, have_link, url_for_title, eq, click, title, user, created_at, send message, except!, to_i, update, times, stub_request, to_return, pending, current_path, eq, pending, versions, count, hashes, id, each, have_content, each, within, have_selector, have_css]","0","","0","","0","","0","","0","","[app/views/pages/internal_error.html.erb, app/views/pages/not_found.html.erb]","[/editor, app/views/events/_url.html.erb, github, github_profile, new_registration, pivotaltracker]","6","28","43","[app/controllers/articles_controller.rb, app/controllers/documents_controller.rb, app/controllers/events_controller.rb, app/controllers/projects_controller.rb, app/controllers/registrations_controller.rb, app/controllers/static_pages_controller.rb, app/controllers/users_controller.rb, app/controllers/visitors_controller.rb, app/helpers/documents_helper.rb, app/models/document.rb, app/models/event.rb, app/models/project.rb, app/models/static_page.rb, app/models/user.rb, app/views/devise/registrations/_preview.html.erb, app/views/devise/registrations/edit.html.erb, app/views/devise/sessions/new.html.erb, app/views/documents/show.html.erb, app/views/events/edit.html.erb, app/views/events/show.html.erb, app/views/layouts/_hire_me.html.erb, app/views/layouts/_round_banners.html.erb, app/views/projects/_listing.html.erb, app/views/projects/index.html.erb, app/views/projects/show.html.erb, app/views/static_pages/show.html.erb, app/views/users/show.html.erb, app/views/visitors/index.html.erb]","[app/controllers/application_controller.rb, app/controllers/errors_controller.rb, app/controllers/projects_controller.rb, app/controllers/static_pages_controller.rb, app/models/article.rb, app/models/document.rb, app/models/static_page.rb, app/views/documents/show.html.erb, app/views/layouts/_navbar.html.erb, app/views/layouts/_round_banners.html.erb, app/views/layouts/_sponsors.html.erb, app/views/pages/about-us.html.erb, app/views/pages/berkeley-fall-2012-projects.html.erb, app/views/pages/code.html.erb, app/views/pages/cs-degree-online.html.erb, app/views/pages/getting-started.html.erb, app/views/pages/grow.html.erb, app/views/pages/guides.html.erb, app/views/pages/learn1.html.erb, app/views/pages/pair.html.erb, app/views/pages/personal-tuition-service.html.erb, app/views/pages/remote-pair-programming.html.erb, app/views/pages/remote-pair-programming/analysis.html.erb, app/views/pages/remote-pair-programming/c9-howto.html.erb, app/views/pages/remote-pair-programming/creating-a-pp-event-on-g.html.erb, app/views/pages/remote-pair-programming/example-videos.html.erb, app/views/pages/remote-pair-programming/gnu-screen-pairing-notes.html.erb, app/views/pages/remote-pair-programming/pair-programming-calendar.html.erb, app/views/pages/remote-pair-programming/pair-programming-form.html.erb, app/views/pages/remote-pair-programming/pair-programming-help-videos.html.erb, app/views/pages/remote-pair-programming/pair-programming-protocols.html.erb, app/views/pages/remote-pair-programming/pair-programming-protocols/classroom-guidelines.html.erb, app/views/pages/remote-pair-programming/pair-programming-protocols/github-pong.html.erb, app/views/pages/saas-ells-screencasts.html.erb, app/views/pages/sortable-ells-errata.html.erb, app/views/pages/sponsors.html.erb, app/views/pages/ubuntu-bash-help.html.erb, app/views/static_pages/internal_error.html.erb, app/views/static_pages/not_found.html.erb, app/views/static_pages/show.html.erb, lib/act_as_page.rb, lib/custom_errors.rb, lib/mercury/authentication.rb]","0.25","0.1627906977","[b902cc0ae74a7b55c3500efc8b47e205cba0067f, ea42113c05e15b6936a872228190d6387c5bc32e, 5895bcb6cb7838793d02d70d965ae465094403e0, 02fd23834fd2ed075fb2331e6ae39d72fc255d69]","2.991 seconds","4.0.2","[cucumber-rails, rspec-rails, coveralls, factory_girl]","17","[{path=AgileVentures_WebsiteOne/features/step_definitions/mercury_steps.rb, line=37}]","14","22","[app/controllers/articles_controller.rb, app/controllers/documents_controller.rb, app/controllers/events_controller.rb, app/controllers/projects_controller.rb, app/controllers/registrations_controller.rb, app/controllers/static_pages_controller.rb, app/controllers/users_controller.rb, app/controllers/visitors_controller.rb, app/views/devise/registrations/_preview.html.erb, app/views/devise/registrations/edit.html.erb, app/views/devise/sessions/new.html.erb, app/views/documents/show.html.erb, app/views/events/edit.html.erb, app/views/events/show.html.erb, app/views/layouts/_hire_me.html.erb, app/views/layouts/_round_banners.html.erb, app/views/projects/_listing.html.erb, app/views/projects/index.html.erb, app/views/projects/show.html.erb, app/views/static_pages/show.html.erb, app/views/users/show.html.erb, app/views/visitors/index.html.erb]","true","0.17500000002365","0","","0",""
"websiteone","491","[28-03-2014, 29-03-2014, 30-03-2014]","3","14","[Readded Deleted Pages , View Specs for ancestry show feature , Controller Specs for ancestry show feature , Added Agile Ventures to beginning of ancestry show , Added Cucumber Tests for Ancstry Show feature , Ancestry is now shown on static page show , Fix failing Custom Error Specs , Remove Unnecessary Pages , Fix for Ruby Injection on Guides , Added Rake Tasks for Pair Programming Protocols Pages , Added Rake Tasks for Remote Pair Programming Pages , Added Rake Tasks for Root Pages and Moved Error Pages to static_pages directory , All Tests Passing :green_heart: , Tests for StaticPage url for me ]","1","1","1","1","1","[hashes, each, current_path, eq, pending, to_i, update, save!, times, id, page, have_content, each, within, title, user, created_at, send message]","0","","0","","0","","0","","0","","[app/views/pages/code.html.erb, app/views/pages/grow.html.erb, app/views/pages/internal_error.html.erb, app/views/pages/learn1.html.erb, app/views/pages/not_found.html.erb, app/views/pages/pair.html.erb]","[app/views/events/_url.html.erb, github, github_profile, pivotaltracker]","4","23","34","[app/controllers/articles_controller.rb, app/controllers/documents_controller.rb, app/controllers/events_controller.rb, app/controllers/projects_controller.rb, app/controllers/registrations_controller.rb, app/controllers/static_pages_controller.rb, app/controllers/users_controller.rb, app/controllers/visitors_controller.rb, app/models/event.rb, app/models/static_page.rb, app/views/devise/registrations/_preview.html.erb, app/views/devise/registrations/edit.html.erb, app/views/documents/show.html.erb, app/views/events/edit.html.erb, app/views/events/show.html.erb, app/views/layouts/_hire_me.html.erb, app/views/layouts/_round_banners.html.erb, app/views/projects/_listing.html.erb, app/views/projects/index.html.erb, app/views/projects/show.html.erb, app/views/static_pages/show.html.erb, app/views/users/show.html.erb, app/views/visitors/index.html.erb]","[app/controllers/errors_controller.rb, app/controllers/static_pages_controller.rb, app/helpers/documents_helper.rb, app/models/static_page.rb, app/views/pages/about-us.html.erb, app/views/pages/berkeley-fall-2012-projects.html.erb, app/views/pages/code.html.erb, app/views/pages/cs-degree-online.html.erb, app/views/pages/getting-started.html.erb, app/views/pages/grow.html.erb, app/views/pages/guides.html.erb, app/views/pages/learn1.html.erb, app/views/pages/pair.html.erb, app/views/pages/personal-tuition-service.html.erb, app/views/pages/remote-pair-programming.html.erb, app/views/pages/remote-pair-programming/analysis.html.erb, app/views/pages/remote-pair-programming/c9-howto.html.erb, app/views/pages/remote-pair-programming/creating-a-pp-event-on-g.html.erb, app/views/pages/remote-pair-programming/example-videos.html.erb, app/views/pages/remote-pair-programming/gnu-screen-pairing-notes.html.erb, app/views/pages/remote-pair-programming/pair-programming-calendar.html.erb, app/views/pages/remote-pair-programming/pair-programming-form.html.erb, app/views/pages/remote-pair-programming/pair-programming-help-videos.html.erb, app/views/pages/remote-pair-programming/pair-programming-protocols.html.erb, app/views/pages/remote-pair-programming/pair-programming-protocols/classroom-guidelines.html.erb, app/views/pages/remote-pair-programming/pair-programming-protocols/github-pong.html.erb, app/views/pages/saas-ells-screencasts.html.erb, app/views/pages/sortable-ells-errata.html.erb, app/views/pages/sponsors.html.erb, app/views/pages/ubuntu-bash-help.html.erb, app/views/static_pages/internal_error.html.erb, app/views/static_pages/not_found.html.erb, app/views/static_pages/show.html.erb, lib/custom_errors.rb]","0.1304347826","0.0882352941","[7eb2a70ca868412149d2244804934879cc121f7e, bbcd42922a2dd5ed993fc72675db27dff3ef7008, 5af509d112e09132e43d28831313192063b9594e, 3513de5df90d3b086d1aa8844602f9effaebf67b, 8f44b0903f874441da3e31101202e11ff634b4b8, a4de9d99dab14c0e0203a3679e323a757333feb8, d2ea3a36251141efba6c4f9d58470509ea86a190, 1052765745821fa556418207ff22d732f2bdada1, 51b13e8c29d39fbceaf7585a412c83735334a289, c6aee7bf8ac54076eefbcd0fbbb9c88fce3b46d8, ed7dfa70dfcccd973b721a47d2abfdbace44ed64, 8ef8825e7abf5b3dd2509fc7f2854824da26843e, 480d1e77149fc8d458c2beaca58569dacb67954b, 07a51f086258fde8c649ced4cfe21cc8b9677527]","1.745 seconds","4.0.2","[cucumber-rails, rspec-rails, coveralls, factory_girl]","2","[]","13","21","[app/controllers/articles_controller.rb, app/controllers/documents_controller.rb, app/controllers/events_controller.rb, app/controllers/projects_controller.rb, app/controllers/registrations_controller.rb, app/controllers/static_pages_controller.rb, app/controllers/users_controller.rb, app/controllers/visitors_controller.rb, app/views/devise/registrations/_preview.html.erb, app/views/devise/registrations/edit.html.erb, app/views/documents/show.html.erb, app/views/events/edit.html.erb, app/views/events/show.html.erb, app/views/layouts/_hire_me.html.erb, app/views/layouts/_round_banners.html.erb, app/views/projects/_listing.html.erb, app/views/projects/index.html.erb, app/views/projects/show.html.erb, app/views/static_pages/show.html.erb, app/views/users/show.html.erb, app/views/visitors/index.html.erb]","false","0.09433962262446105","0","","0",""
