[path:/features/step_definitions/admin_steps.rb, methods:[40, 123, 133, 143, 241, 58]]
[path:/features/step_definitions/challenge_promptmeme_steps.rb, methods:[7, 28, 361, 80, 100, 178, 186, 167, 199, 311, 335, 155, 324]]
[path:/features/step_definitions/challenge_steps.rb, methods:[166, 184, 23, 108]]
[path:/features/step_definitions/email_steps.rb, methods:[53, 17, 12]]
[path:/features/step_definitions/fixtures_steps.rb, methods:[0]]
[path:/features/step_definitions/generic_steps.rb, methods:[117, 192, 152, 164, 172, 74, 187]]
[path:/features/step_definitions/pickle_steps.rb, methods:[3, 38]]
[path:/features/step_definitions/reading_steps.rb, methods:[9]]
[path:/features/step_definitions/search_steps.rb, methods:[7, 0]]
[path:/features/step_definitions/tag_set_steps.rb, methods:[10]]
[path:/features/step_definitions/tag_steps.rb, methods:[2, 7, 61]]
[path:/features/step_definitions/user_steps.rb, methods:[30, 57, 188, 258, 38, 105, 152, 6]]
[path:/features/step_definitions/web_steps.rb, methods:[22, 38, 26, 106, 32, 87, 69, 75, 18, [name:with_scope, step:When ], [name:with_scope, step:Then ], 81, [name:with_scope, step:Given ]]]
[path:/features/step_definitions/work_search_steps.rb, methods:[28, 16, 22, 10]]
[path:/features/step_definitions/work_steps.rb, methods:[188, 153, 86, 377, 308, 159, 176, 230, 208, 215]]
