"Repository","https://github.com/otwcode/otwarchive.git"
"Tasks with empty IReal","0"
"Tasks with no-empty IReal","2"
"Tasks with relevant AST error","0"
"Tasks with AST error of Gherkin files","0"
"Tasks with AST error of StepDef files","0"
"Tasks with AST error of production files","0"
"Tasks with AST error of unit test files","0"
"Tasks with step match error","0"
"Tasks without required gems","0"
"Tasks with changed stepdef","0"
"Tasks with changed Gherkin","2"
"Tasks with implemented Gherkin scenarios","2"
"All invalid tasks","0"
"All valid tasks (Gherkin scenario, no empty IReal, no error)","2"
"Valid tasks, but empty ITest","0"
"Valid tasks, no empty ITest, but zero precision-recall","1"
"Valid tasks, no empty ITest, no zero precision-recall","1"
"Project","Task","Date","#Days","#Commits","Commit_Message","#Devs","#Gherkin_Tests","#Impl_Gherkin_Tests","#StepDef","#Impl_StepDef","Methods_Unknown_Type","#Step_Call","Step_Match_Errors","#Step_Match_Error","AST_Errors","#AST_Errors","Gherkin_AST_Errors","#Gherkin_AST_Errors","Steps_AST_Errors","#Steps_AST_Errors","Renamed_Files","Deleted_Files","NotFound_Views","#Views","#TestI","#TaskI","TestI","TaskI","Precision","Recall","Hashes","Timestamp","Rails","Gems","#Visit_Call","Lost_visit_call","#Views_ITest","#Code_View_Analysis","Code_View_Analysis","Has_Merge","F2","#Multiple_Step_Matches","Multiple_Step_Matches","#Generic_Step_Keyword","Generic_Step_Keyword"
"otwarchive","2731","[12-02-2011]","1","1","[Fix for issue 2189: admins could not remove roles from users, or update email addresses.  Includes tests, but form needs more refactoring due to potential duplicate ids. ]","1","4","4","0","0","[save, fill_in, check, click_button, .participant_confirm_delete, are you sure?, url_for, translated_post, single_comment, comment, series, hashes, each, capture_model, capture_fields, create_model, capture_model, model!, capture_predicate, gsub, send, click_link, select, uncheck, choose, page, have_content, has_content?, have_no_content, has_no_content?, within, translated_post, url_for, .participant_confirm_delete, are you sure?, single_comment, series, comment, capture_email, email, body, find_field, node, xpath, inner_html, silence_warnings]","0","","0","","0","","0","","0","","[]","[app/views/chapters/_work.html.erb, app/views/pseuds/_pseud.html.erb, post_draft_work]","3","201","5","[app/controllers/abuse_reports_controller.rb, app/controllers/admin/admin_users_controller.rb, app/controllers/admin/skins_controller.rb, app/controllers/admin_posts_controller.rb, app/controllers/admin_sessions_controller.rb, app/controllers/admins_controller.rb, app/controllers/archive_faqs_controller.rb, app/controllers/bookmarks_controller.rb, app/controllers/chapters_controller.rb, app/controllers/collection_items_controller.rb, app/controllers/collection_participants_controller.rb, app/controllers/collections_controller.rb, app/controllers/external_works_controller.rb, app/controllers/fandoms_controller.rb, app/controllers/feedbacks_controller.rb, app/controllers/home_controller.rb, app/controllers/invitations_controller.rb, app/controllers/invite_requests_controller.rb, app/controllers/known_issues_controller.rb, app/controllers/media_controller.rb, app/controllers/orphans_controller.rb, app/controllers/passwords_controller.rb, app/controllers/people_controller.rb, app/controllers/pseuds_controller.rb, app/controllers/readings_controller.rb, app/controllers/related_works_controller.rb, app/controllers/serial_works_controller.rb, app/controllers/series_controller.rb, app/controllers/skins_controller.rb, app/controllers/static/collections_controller.rb, app/controllers/static/fandoms_controller.rb, app/controllers/static/media_controller.rb, app/controllers/static/works_controller.rb, app/controllers/user_invite_requests_controller.rb, app/controllers/user_sessions_controller.rb, app/controllers/users_controller.rb, app/controllers/works_controller.rb, app/controllers/yuletide2010_controller.rb, app/helpers/bookmarks_helper.rb, app/helpers/works_helper.rb, app/models/abuse_report.rb, app/models/admin_post.rb, app/models/admin_session.rb, app/models/archive_faq.rb, app/models/character.rb, app/models/collection.rb, app/models/fandom.rb, app/models/feedback.rb, app/models/invite_request.rb, app/models/known_issue.rb, app/models/media.rb, app/models/prompt.rb, app/models/rating.rb, app/models/series.rb, app/models/tag.rb, app/models/user.rb, app/models/user_invite_request.rb, app/models/user_session.rb, app/models/warning.rb, app/models/work.rb, app/views/abuse_reports/new.html.erb, app/views/admin/_admin_nav.html.erb, app/views/admin/_admin_options.html.erb, app/views/admin_posts/_admin_index.html.erb, app/views/admin_posts/_admin_post_form.html.erb, app/views/admin_posts/edit.html.erb, app/views/admin_posts/index.html.erb, app/views/admin_posts/new.html.erb, app/views/admin_posts/show.html.erb, app/views/admin_sessions/new.html.erb, app/views/admins/show.html.erb, app/views/archive_faqs/_admin_index.html.erb, app/views/archive_faqs/_archive_faq_form.html.erb, app/views/archive_faqs/_archive_faq_order.html.erb, app/views/archive_faqs/edit.html.erb, app/views/archive_faqs/index.html.erb, app/views/archive_faqs/manage.html.erb, app/views/archive_faqs/new.html.erb, app/views/archive_faqs/show.html.erb, app/views/bookmarks/_bookmark.html.erb, app/views/bookmarks/_bookmark_form.html.erb, app/views/bookmarks/_bookmark_full_info.html.erb, app/views/bookmarks/_bookmark_owner_navi.html.erb, app/views/bookmarks/_bookmark_user_info.html.erb, app/views/bookmarks/_bookmarks.html.erb, app/views/bookmarks/edit.html.erb, app/views/bookmarks/index.html.erb, app/views/bookmarks/show.html.erb, app/views/chapters/_chapter.html.erb, app/views/chapters/_chapter_form.html.erb, app/views/chapters/_chapter_management.html.erb, app/views/chapters/manage.html.erb, app/views/chapters/new.html.erb, app/views/collection_items/_item_form.html.erb, app/views/collection_items/index.html.erb, app/views/collection_participants/_add_participants_form.html.erb, app/views/collection_participants/_participant_form.html.erb, app/views/collection_participants/index.html.erb, app/views/collections/_bookmarks_module.html.erb, app/views/collections/_collection_blurb.html.erb, app/views/collections/_filters.html.erb, app/views/collections/_form.html.erb, app/views/collections/_header.html.erb, app/views/collections/_works_module.html.erb, app/views/collections/edit.html.erb, app/views/collections/index.html.erb, app/views/collections/list_challenges.html.erb, app/views/collections/new.html.erb, app/views/collections/show.html.erb, app/views/comments/_comment_form.html.erb, app/views/comments/_comment_thread.html.erb, app/views/comments/_commentable.html.erb, app/views/comments/_confirm_delete.html.erb, app/views/comments/_single_comment.html.erb, app/views/external_works/_external_work_blurb.html.erb, app/views/external_works/new.html.erb, app/views/fandoms/index.html.erb, app/views/feedbacks/new.html.erb, app/views/gifts/_gift_search.html.erb, app/views/home/_tos.html.erb, app/views/home/index.html.erb, app/views/home/tos.html.erb, app/views/home/tos_faq.html.erb, app/views/invitations/index.html.erb, app/views/invite_requests/index.html.erb, app/views/known_issues/_admin_index.html.erb, app/views/known_issues/_known_issues_form.html.erb, app/views/known_issues/edit.html.erb, app/views/known_issues/index.html.erb, app/views/known_issues/new.html.erb, app/views/kudos/_kudos.html.erb, app/views/media/index.html.erb, app/views/orphans/about.html.erb, app/views/passwords/new.html.erb, app/views/people/_author_blurb.html.erb, app/views/people/_search_form.html.erb, app/views/people/index.html.erb, app/views/people/search.html.erb, app/views/pseuds/_byline.html.erb, app/views/pseuds/_pseud_blurb.html.erb, app/views/pseuds/_pseuds_form.html.erb, app/views/pseuds/index.html.erb, app/views/pseuds/new.html.erb, app/views/pseuds/show.html.erb, app/views/series/_series_blurb.html.erb, app/views/series/_series_order.html.erb, app/views/series/edit.html.erb, app/views/series/index.html.erb, app/views/series/manage.html.erb, app/views/skins/_form.html.erb, app/views/skins/_skin_navigation.html.erb, app/views/skins/_skin_style_block.html.erb, app/views/skins/_skin_top_navigation.html.erb, app/views/skins/_wizard_form.html.erb, app/views/skins/edit.html.erb, app/views/skins/index.html.erb, app/views/skins/new.html.erb, app/views/skins/new_wizard.html.erb, app/views/user_invite_requests/new.html.erb, app/views/user_sessions/_greeting.html.erb, app/views/user_sessions/_login.html.erb, app/views/user_sessions/_openid.html.erb, app/views/user_sessions/_openid_small.html.erb, app/views/user_sessions/_passwd.html.erb, app/views/user_sessions/_passwd_small.html.erb, app/views/user_sessions/new.html.erb, app/views/users/_contents.html.erb, app/views/users/_header.html.erb, app/views/users/_legal.html.erb, app/views/users/_openid.html.erb, app/views/users/_passwd.html.erb, app/views/users/_sidebar.html.erb, app/views/users/browse.html.erb, app/views/users/change_openid.html.erb, app/views/users/change_password.html.erb, app/views/users/change_username.html.erb, app/views/users/confirmation.html.erb, app/views/users/delete_confirmation.html.erb, app/views/users/delete_preview.html.erb, app/views/users/edit.html.erb, app/views/users/new.html.erb, app/views/users/show.html.erb, app/views/works/_edit_multiple_controls.html.erb, app/views/works/_filters.html.erb, app/views/works/_meta.html.erb, app/views/works/_search_box.html.erb, app/views/works/_series_links.html.erb, app/views/works/_standard_form.html.erb, app/views/works/_work_blurb.html.erb, app/views/works/_work_footer.html.erb, app/views/works/_work_header.html.erb, app/views/works/_work_tags_form.html.erb, app/views/works/edit.html.erb, app/views/works/edit_multiple.html.erb, app/views/works/edit_tags.html.erb, app/views/works/index.html.erb, app/views/works/navigate.html.erb, app/views/works/new.html.erb, app/views/works/new_import.html.erb, app/views/works/show.html.erb, app/views/works/show_multiple.html.erb]","[app/controllers/admin/admin_users_controller.rb, app/models/role.rb, app/models/user.rb, app/views/admin/admin_users/_user_form.html.erb, app/views/admin/admin_users/index.html.erb]","0.0099502488","0.4","[6ff29e5607314a7eb0d0c7abeb71649070faf691]","42.449 seconds","3.0.3","[cucumber-rails, rspec-rails, factory_girl]","15","[{path=otwcode_otwarchive/features/step_definitions/tag_steps.rb, line=-1}, {path=otwcode_otwarchive/features/step_definitions/work_steps.rb, line=-1}]","141","178","[app/controllers/abuse_reports_controller.rb, app/controllers/admin/skins_controller.rb, app/controllers/admin_posts_controller.rb, app/controllers/admin_sessions_controller.rb, app/controllers/admins_controller.rb, app/controllers/archive_faqs_controller.rb, app/controllers/bookmarks_controller.rb, app/controllers/chapters_controller.rb, app/controllers/collection_items_controller.rb, app/controllers/collection_participants_controller.rb, app/controllers/collections_controller.rb, app/controllers/external_works_controller.rb, app/controllers/fandoms_controller.rb, app/controllers/feedbacks_controller.rb, app/controllers/home_controller.rb, app/controllers/invitations_controller.rb, app/controllers/invite_requests_controller.rb, app/controllers/known_issues_controller.rb, app/controllers/media_controller.rb, app/controllers/orphans_controller.rb, app/controllers/passwords_controller.rb, app/controllers/people_controller.rb, app/controllers/pseuds_controller.rb, app/controllers/serial_works_controller.rb, app/controllers/series_controller.rb, app/controllers/skins_controller.rb, app/controllers/static/collections_controller.rb, app/controllers/static/fandoms_controller.rb, app/controllers/static/media_controller.rb, app/controllers/static/works_controller.rb, app/controllers/user_invite_requests_controller.rb, app/controllers/user_sessions_controller.rb, app/controllers/users_controller.rb, app/controllers/works_controller.rb, app/controllers/yuletide2010_controller.rb, app/helpers/bookmarks_helper.rb, app/helpers/works_helper.rb, app/views/abuse_reports/new.html.erb, app/views/admin/_admin_nav.html.erb, app/views/admin/_admin_options.html.erb, app/views/admin_posts/_admin_index.html.erb, app/views/admin_posts/_admin_post_form.html.erb, app/views/admin_posts/edit.html.erb, app/views/admin_posts/index.html.erb, app/views/admin_posts/new.html.erb, app/views/admin_posts/show.html.erb, app/views/admin_sessions/new.html.erb, app/views/admins/show.html.erb, app/views/archive_faqs/_admin_index.html.erb, app/views/archive_faqs/_archive_faq_form.html.erb, app/views/archive_faqs/_archive_faq_order.html.erb, app/views/archive_faqs/edit.html.erb, app/views/archive_faqs/index.html.erb, app/views/archive_faqs/manage.html.erb, app/views/archive_faqs/new.html.erb, app/views/archive_faqs/show.html.erb, app/views/bookmarks/_bookmark.html.erb, app/views/bookmarks/_bookmark_form.html.erb, app/views/bookmarks/_bookmark_full_info.html.erb, app/views/bookmarks/_bookmark_owner_navi.html.erb, app/views/bookmarks/_bookmark_user_info.html.erb, app/views/bookmarks/_bookmarks.html.erb, app/views/bookmarks/edit.html.erb, app/views/bookmarks/index.html.erb, app/views/bookmarks/show.html.erb, app/views/chapters/_chapter.html.erb, app/views/chapters/_chapter_form.html.erb, app/views/chapters/_chapter_management.html.erb, app/views/chapters/manage.html.erb, app/views/chapters/new.html.erb, app/views/collection_items/_item_form.html.erb, app/views/collection_items/index.html.erb, app/views/collection_participants/_add_participants_form.html.erb, app/views/collection_participants/_participant_form.html.erb, app/views/collection_participants/index.html.erb, app/views/collections/_bookmarks_module.html.erb, app/views/collections/_collection_blurb.html.erb, app/views/collections/_filters.html.erb, app/views/collections/_form.html.erb, app/views/collections/_header.html.erb, app/views/collections/_works_module.html.erb, app/views/collections/edit.html.erb, app/views/collections/index.html.erb, app/views/collections/list_challenges.html.erb, app/views/collections/new.html.erb, app/views/collections/show.html.erb, app/views/comments/_comment_form.html.erb, app/views/comments/_comment_thread.html.erb, app/views/comments/_commentable.html.erb, app/views/comments/_confirm_delete.html.erb, app/views/comments/_single_comment.html.erb, app/views/external_works/_external_work_blurb.html.erb, app/views/external_works/new.html.erb, app/views/fandoms/index.html.erb, app/views/feedbacks/new.html.erb, app/views/gifts/_gift_search.html.erb, app/views/home/_tos.html.erb, app/views/home/index.html.erb, app/views/home/tos.html.erb, app/views/home/tos_faq.html.erb, app/views/invitations/index.html.erb, app/views/invite_requests/index.html.erb, app/views/known_issues/_admin_index.html.erb, app/views/known_issues/_known_issues_form.html.erb, app/views/known_issues/edit.html.erb, app/views/known_issues/index.html.erb, app/views/known_issues/new.html.erb, app/views/kudos/_kudos.html.erb, app/views/media/index.html.erb, app/views/orphans/about.html.erb, app/views/passwords/new.html.erb, app/views/people/_author_blurb.html.erb, app/views/people/_search_form.html.erb, app/views/people/index.html.erb, app/views/people/search.html.erb, app/views/pseuds/_byline.html.erb, app/views/pseuds/_pseud_blurb.html.erb, app/views/pseuds/_pseuds_form.html.erb, app/views/pseuds/index.html.erb, app/views/pseuds/new.html.erb, app/views/pseuds/show.html.erb, app/views/series/_series_blurb.html.erb, app/views/series/_series_order.html.erb, app/views/series/edit.html.erb, app/views/series/index.html.erb, app/views/series/manage.html.erb, app/views/skins/_form.html.erb, app/views/skins/_skin_navigation.html.erb, app/views/skins/_skin_style_block.html.erb, app/views/skins/_skin_top_navigation.html.erb, app/views/skins/_wizard_form.html.erb, app/views/skins/edit.html.erb, app/views/skins/index.html.erb, app/views/skins/new.html.erb, app/views/skins/new_wizard.html.erb, app/views/user_invite_requests/new.html.erb, app/views/user_sessions/_greeting.html.erb, app/views/user_sessions/_login.html.erb, app/views/user_sessions/_openid.html.erb, app/views/user_sessions/_openid_small.html.erb, app/views/user_sessions/_passwd.html.erb, app/views/user_sessions/_passwd_small.html.erb, app/views/user_sessions/new.html.erb, app/views/users/_contents.html.erb, app/views/users/_header.html.erb, app/views/users/_legal.html.erb, app/views/users/_openid.html.erb, app/views/users/_passwd.html.erb, app/views/users/_sidebar.html.erb, app/views/users/browse.html.erb, app/views/users/change_openid.html.erb, app/views/users/change_password.html.erb, app/views/users/change_username.html.erb, app/views/users/confirmation.html.erb, app/views/users/delete_confirmation.html.erb, app/views/users/delete_preview.html.erb, app/views/users/edit.html.erb, app/views/users/new.html.erb, app/views/users/show.html.erb, app/views/works/_edit_multiple_controls.html.erb, app/views/works/_filters.html.erb, app/views/works/_meta.html.erb, app/views/works/_search_box.html.erb, app/views/works/_series_links.html.erb, app/views/works/_standard_form.html.erb, app/views/works/_work_blurb.html.erb, app/views/works/_work_footer.html.erb, app/views/works/_work_header.html.erb, app/views/works/_work_tags_form.html.erb, app/views/works/edit.html.erb, app/views/works/edit_multiple.html.erb, app/views/works/edit_tags.html.erb, app/views/works/index.html.erb, app/views/works/navigate.html.erb, app/views/works/new.html.erb, app/views/works/new_import.html.erb, app/views/works/show.html.erb, app/views/works/show_multiple.html.erb]","false","0.04524886895935791","14","[path:features/admin_tasks.feature, text:the following admin exists], [path:features/admin_tasks.feature, text:the following activated user exists], [path:features/admin_tasks.feature, text:the ""user_email"" field should contain ""dizmo@fake.com""], [path:features/admin_tasks.feature, text:the ""user_roles_1"" checkbox should be checked], [path:features/admin_tasks.feature, text:the ""user_roles_1"" checkbox should not be checked], [path:features/archivist.feature, text:the following admin exists], [path:features/archivist.feature, text:the following activated user exists], [path:features/tag_wrangling.feature, text:the following admin exists], [path:features/tag_wrangling.feature, text:the following activated user exists], [path:features/tag_wrangling_more.feature, text:the following admin exists], [path:features/tag_wrangling_more.feature, text:the following activated user exists], [path:features/tag_wrangling_more.feature, text:the following activated tag wrangler exists], [path:features/tag_wrangling_more.feature, text:""TV Shows"" should be selected within ""media_id""], [path:features/tag_wrangling_more.feature, text:""dizmo"" should be selected within ""wrangler_id""]","0",""
"otwarchive","2739","[09-02-2011]","1","3","[Merge pull request #8 from Enigel/otwarchive  ---  Notification emails of comments on tags includes info that its a tag, in body and in spirit, er, subject.  http://code.google.com/p/otwarchive/issues/detail?id=1907 , Subject of tag comments includes ""the tag"" for proper filtering. , Specify that the comment is on a tag for email filtering and clarity ]","2","1","1","0","0","[capture_model, capture_fields, create_model, save, fill_in, check, click_button, tag_wranglers_url, .participant_confirm_delete, are you sure?, url_for, translated_post, single_comment, comment, series, save, fill_in, check, click_button, click_link, uncheck, page, have_content, has_content?, within, url_for, series, are you sure?, translated_post, .participant_confirm_delete, single_comment, comment, emails, to_i, capture_email, email, visit_in_email, capture_email, email, body, capture_model, model]","0","","0","","0","","0","","0","","[]","[app/views/chapters/_work.html.erb, app/views/pseuds/_pseud.html.erb, post_draft_work]","3","197","6","[app/controllers/abuse_reports_controller.rb, app/controllers/admin/admin_users_controller.rb, app/controllers/admin/skins_controller.rb, app/controllers/admin_posts_controller.rb, app/controllers/admin_sessions_controller.rb, app/controllers/admins_controller.rb, app/controllers/archive_faqs_controller.rb, app/controllers/bookmarks_controller.rb, app/controllers/chapters_controller.rb, app/controllers/collection_items_controller.rb, app/controllers/collection_participants_controller.rb, app/controllers/collections_controller.rb, app/controllers/external_works_controller.rb, app/controllers/fandoms_controller.rb, app/controllers/feedbacks_controller.rb, app/controllers/home_controller.rb, app/controllers/invitations_controller.rb, app/controllers/invite_requests_controller.rb, app/controllers/known_issues_controller.rb, app/controllers/media_controller.rb, app/controllers/orphans_controller.rb, app/controllers/passwords_controller.rb, app/controllers/people_controller.rb, app/controllers/pseuds_controller.rb, app/controllers/readings_controller.rb, app/controllers/related_works_controller.rb, app/controllers/serial_works_controller.rb, app/controllers/series_controller.rb, app/controllers/skins_controller.rb, app/controllers/static/collections_controller.rb, app/controllers/static/fandoms_controller.rb, app/controllers/static/media_controller.rb, app/controllers/static/works_controller.rb, app/controllers/user_invite_requests_controller.rb, app/controllers/user_sessions_controller.rb, app/controllers/users_controller.rb, app/controllers/works_controller.rb, app/controllers/yuletide2010_controller.rb, app/helpers/bookmarks_helper.rb, app/helpers/works_helper.rb, app/models/abuse_report.rb, app/models/admin_post.rb, app/models/admin_session.rb, app/models/archive_faq.rb, app/models/collection.rb, app/models/fandom.rb, app/models/feedback.rb, app/models/invite_request.rb, app/models/known_issue.rb, app/models/prompt.rb, app/models/series.rb, app/models/tag.rb, app/models/user.rb, app/models/user_invite_request.rb, app/models/user_session.rb, app/models/work.rb, app/views/abuse_reports/new.html.erb, app/views/admin/_admin_nav.html.erb, app/views/admin/_admin_options.html.erb, app/views/admin_posts/_admin_index.html.erb, app/views/admin_posts/_admin_post_form.html.erb, app/views/admin_posts/edit.html.erb, app/views/admin_posts/index.html.erb, app/views/admin_posts/new.html.erb, app/views/admin_posts/show.html.erb, app/views/admin_sessions/new.html.erb, app/views/admins/show.html.erb, app/views/archive_faqs/_admin_index.html.erb, app/views/archive_faqs/_archive_faq_form.html.erb, app/views/archive_faqs/_archive_faq_order.html.erb, app/views/archive_faqs/edit.html.erb, app/views/archive_faqs/index.html.erb, app/views/archive_faqs/manage.html.erb, app/views/archive_faqs/new.html.erb, app/views/archive_faqs/show.html.erb, app/views/bookmarks/_bookmark.html.erb, app/views/bookmarks/_bookmark_form.html.erb, app/views/bookmarks/_bookmark_full_info.html.erb, app/views/bookmarks/_bookmark_owner_navi.html.erb, app/views/bookmarks/_bookmark_user_info.html.erb, app/views/bookmarks/_bookmarks.html.erb, app/views/bookmarks/edit.html.erb, app/views/bookmarks/index.html.erb, app/views/bookmarks/show.html.erb, app/views/chapters/_chapter.html.erb, app/views/chapters/_chapter_form.html.erb, app/views/chapters/_chapter_management.html.erb, app/views/chapters/manage.html.erb, app/views/chapters/new.html.erb, app/views/collection_items/_item_form.html.erb, app/views/collection_items/index.html.erb, app/views/collection_participants/_add_participants_form.html.erb, app/views/collection_participants/_participant_form.html.erb, app/views/collection_participants/index.html.erb, app/views/collections/_bookmarks_module.html.erb, app/views/collections/_collection_blurb.html.erb, app/views/collections/_filters.html.erb, app/views/collections/_form.html.erb, app/views/collections/_header.html.erb, app/views/collections/_works_module.html.erb, app/views/collections/edit.html.erb, app/views/collections/index.html.erb, app/views/collections/list_challenges.html.erb, app/views/collections/new.html.erb, app/views/collections/show.html.erb, app/views/comments/_comment_form.html.erb, app/views/comments/_comment_thread.html.erb, app/views/comments/_commentable.html.erb, app/views/comments/_confirm_delete.html.erb, app/views/comments/_single_comment.html.erb, app/views/external_works/_external_work_blurb.html.erb, app/views/external_works/new.html.erb, app/views/fandoms/index.html.erb, app/views/feedbacks/new.html.erb, app/views/gifts/_gift_search.html.erb, app/views/home/_tos.html.erb, app/views/home/index.html.erb, app/views/home/tos.html.erb, app/views/home/tos_faq.html.erb, app/views/invitations/index.html.erb, app/views/invite_requests/index.html.erb, app/views/known_issues/_admin_index.html.erb, app/views/known_issues/_known_issues_form.html.erb, app/views/known_issues/edit.html.erb, app/views/known_issues/index.html.erb, app/views/known_issues/new.html.erb, app/views/kudos/_kudos.html.erb, app/views/media/index.html.erb, app/views/orphans/about.html.erb, app/views/passwords/new.html.erb, app/views/people/_author_blurb.html.erb, app/views/people/_search_form.html.erb, app/views/people/index.html.erb, app/views/people/search.html.erb, app/views/pseuds/_byline.html.erb, app/views/pseuds/_pseud_blurb.html.erb, app/views/pseuds/_pseuds_form.html.erb, app/views/pseuds/index.html.erb, app/views/pseuds/new.html.erb, app/views/pseuds/show.html.erb, app/views/series/_series_blurb.html.erb, app/views/series/_series_order.html.erb, app/views/series/edit.html.erb, app/views/series/index.html.erb, app/views/series/manage.html.erb, app/views/skins/_form.html.erb, app/views/skins/_skin_navigation.html.erb, app/views/skins/_skin_style_block.html.erb, app/views/skins/_skin_top_navigation.html.erb, app/views/skins/_wizard_form.html.erb, app/views/skins/edit.html.erb, app/views/skins/index.html.erb, app/views/skins/new.html.erb, app/views/skins/new_wizard.html.erb, app/views/user_invite_requests/new.html.erb, app/views/user_sessions/_greeting.html.erb, app/views/user_sessions/_login.html.erb, app/views/user_sessions/_openid.html.erb, app/views/user_sessions/_openid_small.html.erb, app/views/user_sessions/_passwd.html.erb, app/views/user_sessions/_passwd_small.html.erb, app/views/user_sessions/new.html.erb, app/views/users/_contents.html.erb, app/views/users/_header.html.erb, app/views/users/_legal.html.erb, app/views/users/_openid.html.erb, app/views/users/_passwd.html.erb, app/views/users/_sidebar.html.erb, app/views/users/browse.html.erb, app/views/users/change_openid.html.erb, app/views/users/change_password.html.erb, app/views/users/change_username.html.erb, app/views/users/confirmation.html.erb, app/views/users/delete_confirmation.html.erb, app/views/users/delete_preview.html.erb, app/views/users/edit.html.erb, app/views/users/new.html.erb, app/views/users/show.html.erb, app/views/works/_edit_multiple_controls.html.erb, app/views/works/_filters.html.erb, app/views/works/_meta.html.erb, app/views/works/_search_box.html.erb, app/views/works/_series_links.html.erb, app/views/works/_standard_form.html.erb, app/views/works/_work_blurb.html.erb, app/views/works/_work_footer.html.erb, app/views/works/_work_header.html.erb, app/views/works/_work_tags_form.html.erb, app/views/works/edit.html.erb, app/views/works/edit_multiple.html.erb, app/views/works/edit_tags.html.erb, app/views/works/index.html.erb, app/views/works/navigate.html.erb, app/views/works/new.html.erb, app/views/works/new_import.html.erb, app/views/works/show.html.erb, app/views/works/show_multiple.html.erb]","[app/mailers/comment_mailer.rb, app/views/comment_mailer/comment_notification.html.erb, app/views/comment_mailer/comment_reply_notification.html.erb, app/views/comment_mailer/comment_sent_notification.html.erb, app/views/comment_mailer/edited_comment_notification.html.erb, app/views/comment_mailer/edited_comment_reply_notification.html.erb]","0.0","0.0","[ce76bcc86608fc08d2a6d77e7f6ebb654499894b, 5fa58a27d076229a3afc8e1c23b59d7532f62028, ed22c74af3135a9cc1e958e268311918b6e79e4b]","1 minutes, 3.149 seconds","3.0.3","[cucumber-rails, rspec-rails, factory_girl]","12","[{path=otwcode_otwarchive/features/step_definitions/tag_steps.rb, line=-1}]","141","178","[app/controllers/abuse_reports_controller.rb, app/controllers/admin/skins_controller.rb, app/controllers/admin_posts_controller.rb, app/controllers/admin_sessions_controller.rb, app/controllers/admins_controller.rb, app/controllers/archive_faqs_controller.rb, app/controllers/bookmarks_controller.rb, app/controllers/chapters_controller.rb, app/controllers/collection_items_controller.rb, app/controllers/collection_participants_controller.rb, app/controllers/collections_controller.rb, app/controllers/external_works_controller.rb, app/controllers/fandoms_controller.rb, app/controllers/feedbacks_controller.rb, app/controllers/home_controller.rb, app/controllers/invitations_controller.rb, app/controllers/invite_requests_controller.rb, app/controllers/known_issues_controller.rb, app/controllers/media_controller.rb, app/controllers/orphans_controller.rb, app/controllers/passwords_controller.rb, app/controllers/people_controller.rb, app/controllers/pseuds_controller.rb, app/controllers/serial_works_controller.rb, app/controllers/series_controller.rb, app/controllers/skins_controller.rb, app/controllers/static/collections_controller.rb, app/controllers/static/fandoms_controller.rb, app/controllers/static/media_controller.rb, app/controllers/static/works_controller.rb, app/controllers/user_invite_requests_controller.rb, app/controllers/user_sessions_controller.rb, app/controllers/users_controller.rb, app/controllers/works_controller.rb, app/controllers/yuletide2010_controller.rb, app/helpers/bookmarks_helper.rb, app/helpers/works_helper.rb, app/views/abuse_reports/new.html.erb, app/views/admin/_admin_nav.html.erb, app/views/admin/_admin_options.html.erb, app/views/admin_posts/_admin_index.html.erb, app/views/admin_posts/_admin_post_form.html.erb, app/views/admin_posts/edit.html.erb, app/views/admin_posts/index.html.erb, app/views/admin_posts/new.html.erb, app/views/admin_posts/show.html.erb, app/views/admin_sessions/new.html.erb, app/views/admins/show.html.erb, app/views/archive_faqs/_admin_index.html.erb, app/views/archive_faqs/_archive_faq_form.html.erb, app/views/archive_faqs/_archive_faq_order.html.erb, app/views/archive_faqs/edit.html.erb, app/views/archive_faqs/index.html.erb, app/views/archive_faqs/manage.html.erb, app/views/archive_faqs/new.html.erb, app/views/archive_faqs/show.html.erb, app/views/bookmarks/_bookmark.html.erb, app/views/bookmarks/_bookmark_form.html.erb, app/views/bookmarks/_bookmark_full_info.html.erb, app/views/bookmarks/_bookmark_owner_navi.html.erb, app/views/bookmarks/_bookmark_user_info.html.erb, app/views/bookmarks/_bookmarks.html.erb, app/views/bookmarks/edit.html.erb, app/views/bookmarks/index.html.erb, app/views/bookmarks/show.html.erb, app/views/chapters/_chapter.html.erb, app/views/chapters/_chapter_form.html.erb, app/views/chapters/_chapter_management.html.erb, app/views/chapters/manage.html.erb, app/views/chapters/new.html.erb, app/views/collection_items/_item_form.html.erb, app/views/collection_items/index.html.erb, app/views/collection_participants/_add_participants_form.html.erb, app/views/collection_participants/_participant_form.html.erb, app/views/collection_participants/index.html.erb, app/views/collections/_bookmarks_module.html.erb, app/views/collections/_collection_blurb.html.erb, app/views/collections/_filters.html.erb, app/views/collections/_form.html.erb, app/views/collections/_header.html.erb, app/views/collections/_works_module.html.erb, app/views/collections/edit.html.erb, app/views/collections/index.html.erb, app/views/collections/list_challenges.html.erb, app/views/collections/new.html.erb, app/views/collections/show.html.erb, app/views/comments/_comment_form.html.erb, app/views/comments/_comment_thread.html.erb, app/views/comments/_commentable.html.erb, app/views/comments/_confirm_delete.html.erb, app/views/comments/_single_comment.html.erb, app/views/external_works/_external_work_blurb.html.erb, app/views/external_works/new.html.erb, app/views/fandoms/index.html.erb, app/views/feedbacks/new.html.erb, app/views/gifts/_gift_search.html.erb, app/views/home/_tos.html.erb, app/views/home/index.html.erb, app/views/home/tos.html.erb, app/views/home/tos_faq.html.erb, app/views/invitations/index.html.erb, app/views/invite_requests/index.html.erb, app/views/known_issues/_admin_index.html.erb, app/views/known_issues/_known_issues_form.html.erb, app/views/known_issues/edit.html.erb, app/views/known_issues/index.html.erb, app/views/known_issues/new.html.erb, app/views/kudos/_kudos.html.erb, app/views/media/index.html.erb, app/views/orphans/about.html.erb, app/views/passwords/new.html.erb, app/views/people/_author_blurb.html.erb, app/views/people/_search_form.html.erb, app/views/people/index.html.erb, app/views/people/search.html.erb, app/views/pseuds/_byline.html.erb, app/views/pseuds/_pseud_blurb.html.erb, app/views/pseuds/_pseuds_form.html.erb, app/views/pseuds/index.html.erb, app/views/pseuds/new.html.erb, app/views/pseuds/show.html.erb, app/views/series/_series_blurb.html.erb, app/views/series/_series_order.html.erb, app/views/series/edit.html.erb, app/views/series/index.html.erb, app/views/series/manage.html.erb, app/views/skins/_form.html.erb, app/views/skins/_skin_navigation.html.erb, app/views/skins/_skin_style_block.html.erb, app/views/skins/_skin_top_navigation.html.erb, app/views/skins/_wizard_form.html.erb, app/views/skins/edit.html.erb, app/views/skins/index.html.erb, app/views/skins/new.html.erb, app/views/skins/new_wizard.html.erb, app/views/user_invite_requests/new.html.erb, app/views/user_sessions/_greeting.html.erb, app/views/user_sessions/_login.html.erb, app/views/user_sessions/_openid.html.erb, app/views/user_sessions/_openid_small.html.erb, app/views/user_sessions/_passwd.html.erb, app/views/user_sessions/_passwd_small.html.erb, app/views/user_sessions/new.html.erb, app/views/users/_contents.html.erb, app/views/users/_header.html.erb, app/views/users/_legal.html.erb, app/views/users/_openid.html.erb, app/views/users/_passwd.html.erb, app/views/users/_sidebar.html.erb, app/views/users/browse.html.erb, app/views/users/change_openid.html.erb, app/views/users/change_password.html.erb, app/views/users/change_username.html.erb, app/views/users/confirmation.html.erb, app/views/users/delete_confirmation.html.erb, app/views/users/delete_preview.html.erb, app/views/users/edit.html.erb, app/views/users/new.html.erb, app/views/users/show.html.erb, app/views/works/_edit_multiple_controls.html.erb, app/views/works/_filters.html.erb, app/views/works/_meta.html.erb, app/views/works/_search_box.html.erb, app/views/works/_series_links.html.erb, app/views/works/_standard_form.html.erb, app/views/works/_work_blurb.html.erb, app/views/works/_work_footer.html.erb, app/views/works/_work_header.html.erb, app/views/works/_work_tags_form.html.erb, app/views/works/edit.html.erb, app/views/works/edit_multiple.html.erb, app/views/works/edit_tags.html.erb, app/views/works/index.html.erb, app/views/works/navigate.html.erb, app/views/works/new.html.erb, app/views/works/new_import.html.erb, app/views/works/show.html.erb, app/views/works/show_multiple.html.erb]","true","0.0","5","[path:features/tag_comment.feature, text:the following activated tag wranglers exist], [path:features/tag_comment.feature, text:1 email should be delivered to ""enigel@example.org""], [path:features/tag_comment.feature, text:1 email should be delivered to ""cesy@example.org""], [path:features/tag_comment.feature, text:1 email should be delivered to ""dizmo@example.org""], [path:features/tag_comment.feature, text:3 emails should be delivered]","0",""
