[path:/features/step_definitions/challenge_steps.rb, methods:[20, 30, 37, 142, 156, 208, 172, 222, 198, 72, 82, 61, 94, 179, 187, 277, 267, 53]]
[path:/features/step_definitions/collection_steps.rb, methods:[14, 2, 33, 21]]
[path:/features/step_definitions/email_steps.rb, methods:[16, 12]]
[path:/features/step_definitions/generic_steps.rb, methods:[38, 130, 81, 50]]
[path:/features/step_definitions/user_steps.rb, methods:[45, 69]]
[path:/features/step_definitions/web_steps.rb, methods:[69, 26, 106, 38, 32, 18, 75, 22, 137, 81, [name:with_scope, step:When ], [name:with_scope, step:Then ]]]
[path:/features/step_definitions/work_steps.rb, methods:[5, 74, 30, 10]]
