Given /^a user with email "([^\"]*)"$/ do |email|
  user = Factory(:user, :email => email, :password => 'password',
                 :password_confirmation => 'password', :getting_started => false)
  user.aspects.create(:name => "Besties")
  user.aspects.create(:name => "Unicorns")
end
And /^I follow the "([^\"]*)" link from the Devise.mailer$/ do |link_text|
  doc = Nokogiri(Devise.mailer.deliveries.first.body.to_s)
  links = doc.css('a')
  link = links.detect{ |link| link.text == link_text }
  path = link.attributes["href"].value
  visit URI::parse(path).request_uri
end
Given /^(?:|I )am on (.+)$/ do |page_name|
  visit path_to(page_name)
end
When /^(?:|I )press "([^"]*)"(?: within "([^"]*)")?$/ do |button, selector|
  with_scope(selector) do
    silence_warnings { 
      sleep 1 if button == "Share"
      click_button(button) } # ruby 1.9 produces a warning about UTF8 from rack-util
  end
end
When /^(?:|I )fill in "([^"]*)" with "([^"]*)"(?: within "([^"]*)")?$/ do |field, value, selector|
  with_scope(selector) do
    fill_in(field, :with => value)
  end
end
Then /^(?:|I )should see "([^"]*)"(?: within "([^"]*)")?$/ do |text, selector|
  with_scope(selector) do
    if page.respond_to? :should
      page.should have_content(text)
    else
      assert page.has_content?(text)
    end
  end
end
  def with_scope(locator)
    locator ? within(locator) { yield } : yield
  end
  def path_to(page_name)
    case page_name
      when /^the home(?: )?page$/
        root_path
      when /^step (\d)$/
        if $1.to_i == 1
          getting_started_path
        else
          getting_started_path(:step => $1)
        end
      when /^the tag page for "([^\"]*)"$/
        tag_path($1)
      when /^its ([\w ]+) page$/
        send("#{$1.gsub(/\W+/, '_')}_path", @it)
      when /^the ([\w ]+) page$/
        send("#{$1.gsub(/\W+/, '_')}_path")
      when /^my edit profile page$/
        edit_profile_path
      when /^my profile page$/
        person_path(@me.person)
      when /^my acceptance form page$/
        accept_user_invitation_path(:invitation_token => @me.invitation_token)
      when /^the requestors profile$/
        person_path(Request.where(:recipient_id => @me.person.id).first.sender)
      when /^"([^\"]*)"'s page$/
        person_path(User.find_by_email($1).person)
      when /^my account settings page$/
        edit_user_path
      when /^the photo page for "([^\"]*)"'s post "([^\"]*)"$/
        photo_path(User.find_by_email($1).posts.find_by_text($2))
      when /^"(\/.*)"/
        $1
      else
        raise "Can't find mapping from \"#{page_name}\" to a path."
    end
  end
