Given /^(?:|I )am on (.+)$/ do |page_name|
  visit path_to(page_name)
end
When /^(?:|I )go to (.+)$/ do |page_name|
  visit path_to(page_name)
end
When /^(?:|I )press "([^"]*)"(?: within "([^"]*)")?$/ do |button, selector|
  with_scope(selector) do
    silence_warnings { 
      sleep 1 if button == "Share"
      click_button(button) } # ruby 1.9 produces a warning about UTF8 from rack-util
  end
end
When /^(?:|I )follow "([^"]*)"(?: within "([^"]*)")?$/ do |link, selector|
  with_scope(selector) do
    click_link(link)
  end
end
When /^(?:|I )fill in "([^"]*)" with "([^"]*)"(?: within "([^"]*)")?$/ do |field, value, selector|
  with_scope(selector) do
    fill_in(field, :with => value)
  end
end
Then /^(?:|I )should see "([^"]*)"(?: within "([^"]*)")?$/ do |text, selector|
  with_scope(selector) do
    if page.respond_to? :should
      page.should have_content(text)
    else
      assert page.has_content?(text)
    end
  end
end
Then /^(?:|I )should not see "([^"]*)"(?: within "([^"]*)")?$/ do |text, selector|
  with_scope(selector) do
    if page.respond_to? :should
      page.should have_no_content(text)
    else
      assert page.has_no_content?(text)
    end
  end
end
Then /^(?:|I )should be on (.+)$/ do |page_name|
  current_path = URI.parse(current_url).path
  if current_path.respond_to? :should
    current_path.should == path_to(page_name)
  else
    assert_equal path_to(page_name), current_path
  end
end
  def with_scope(locator)
    locator ? within(locator) { yield } : yield
  end
  def path_to(page_name)
    case page_name
      when /^the home(?: )?page$/
        root_path
      when /^step (\d)$/
        if $1.to_i == 1
          getting_started_path
        else
          getting_started_path(:step => $1)
        end
      when /^the tag page for "([^\"]*)"$/
        tag_path($1)
      when /^its ([\w ]+) page$/
        send("#{$1.gsub(/\W+/, '_')}_path", @it)
      when /^the ([\w ]+) page$/
        send("#{$1.gsub(/\W+/, '_')}_path")
      when /^my edit profile page$/
        edit_profile_path
      when /^my profile page$/
        person_path(@me.person)
      when /^my acceptance form page$/
        accept_user_invitation_path(:invitation_token => @me.invitation_token)
      when /^the requestors profile$/
        person_path(Request.where(:recipient_id => @me.person.id).first.sender)
      when /^"([^\"]*)"'s page$/
        person_path(User.find_by_email($1).person)
      when /^my account settings page$/
        edit_user_path
      when /^the photo page for "([^\"]*)"'s post "([^\"]*)"$/
        photo_path(User.find_by_email($1).posts.find_by_text($2))
      when /^"(\/.*)"/
        $1
      else
        raise "Can't find mapping from \"#{page_name}\" to a path."
    end
  end
When /^I press the first "([^"]*)"(?: within "([^"]*)")?$/ do |link_selector, within_selector|
  with_scope(within_selector) do
    find(:css, link_selector).click
  end
end
When /^I wait for the ajax to finish$/ do
  wait_until(10) { evaluate_script("$.active") == 0 }
end
When /^I wait for "([^\"]*)" to load$/ do |page_name|
  wait_until(10) do
    uri = URI.parse(current_url)
    current_location = uri.path
    current_location << "?#{uri.query}" unless uri.query.blank?
    current_location == path_to(page_name)
  end
end
Given /^I have been invited by an admin$/ do
  @me = Invitation.create_invitee(:service => 'email', :identifier => "new_invitee@example.com")
end
Given /^I have been invited by a user$/ do
  @inviter = Factory(:user)
  aspect = @inviter.aspects.create(:name => "Rocket Scientists")
  @me = @inviter.invite_user(aspect.id, 'email', "new_invitee@example.com", "Hey, tell me about your rockets!")
end
Then /^I should see (\d+) contact(?:s)? in "([^\"]*)"$/ do |contact_count, aspect_name|
  aspect = @me.reload.aspects.find_by_name(aspect_name)
  number_of_contacts = evaluate_script(
    "$('ul.dropzone.ui-droppable[data-aspect_id=\"#{aspect.id}\"]').children('li.person').length")
  number_of_contacts.should == contact_count.to_i
end
