"REPO_URL","TASK_ID","#HASHES","HASHES","#PROD_FILES","#TEST_FILES","LAST"
"https://github.com/AgileVentures/WebsiteOne.git","498","8","[9190a82782d80a65bb360e6f4780221ba57c3664, 7d60c5db5190cf404fa8d15794e69d75b84256e4, 1b54d0a82918977c77012c689772811a7c696b81, 1ead2529afbb6f21479b9f7d489d4b4fef5f108c, 4cb525ec9685164f90f282a9589fbf8a1f2a61ad, fd07e338f47eba27f9d76a557b92bd1c17544c68, 0dfa0c3b3a43311a7bc940239925a7587cb7166a, 1d5e848b48335d13f56f65f37564f0ae56e094a8]","3","1","9190a82782d80a65bb360e6f4780221ba57c3664","f01be7eb688b7a8f22d10f57692f5a68f27c4307","33ffcb121255b4d6bc21135b73518b0442a58e4a"
"https://github.com/AgileVentures/WebsiteOne.git","500","6","[9623bf0e033b1a8d382551a716cfa93db0fa9b7e, ed175586fbf748de9281a784aafd16cdabc92c34, 436e11f815a49def1bc11b72c3cfe254fedad86b, 8b2e14d79b6040a37c949076a1900a8c4484cb00, 9367a7ec17267649be096da861f66d0a0b912c76, d3646a84de5d7b6d356257a01a03b304e380da03]","6","3","9623bf0e033b1a8d382551a716cfa93db0fa9b7e","c6068e33d143577d93e7b1168fdfcc617c46836e","21199673dec598cbb88242dacc54b022151fae1d"
"https://github.com/AgileVentures/WebsiteOne.git","503","20","[145993f959543f759c73f9e1340a17aefbb08db4, 0e029a00f0357c5330346748a7ae8f217f3ed0c0, 17c6d7f7294fa6b31ca5425b0da318f9c6cea79c, 18a193cfb3b8a78dccb5da65d63bdea30824f4bf, 81d90fce485a853bb62c14de0574f8cdf933b19b, 9322d056d8e3cb4b86de2c1073ec372d5039548a, ffcc4a90e5ae20fdd536c6d5e3c8f45f8b287e11, 906a761602a12a41b810d52ed0e1338fa9352b7e, f32e47d425d77780d04ae62c36d509e0524ce640, 6a0a7fdbef99a5ee0bf52faf3030312523e2afbb, 104790f3ebce97f7cc72f7d6ac962b17c39f5770, 477a5c227841cada93f949f842422fe39a2cc109, 0f705d9cc9abb7de1dd3d959b4ad52be5b551673, 5fe32c63a537a3cc3d675583691c07cfaf95605f, 1a17a02ed464113f7295371ed202b1b8ed59f0e9, d6823bb6fc131aef83ada7607dd297e25970339d, 7b4d8296599cd1668db67f5c31267f994b7914d5, 6d3ea8b185395d79215c3f861eb0f7366cc39dfd, 46ab160e8a35b540efd83b9d31e33e917b17662d, 9cdd85c5b9a0289439832f77edb622701ba74842]","10","2","145993f959543f759c73f9e1340a17aefbb08db4","21199673dec598cbb88242dacc54b022151fae1d","bc971b7e3b315447a70c57a74f48d2d8f52544fe"
"https://github.com/AgileVentures/WebsiteOne.git","504","1","[ccf357b69d1625aadc0e1b6f657f2fb536bbd551]","1","1","ccf357b69d1625aadc0e1b6f657f2fb536bbd551","21199673dec598cbb88242dacc54b022151fae1d","4c03f76e69793de482ff411276cd419e7a42a8a6"
"https://github.com/AgileVentures/WebsiteOne.git","507","9","[836672fcc95b4a985d82a5c0a9a8de81f3515c92, 90906ee2406d51fa09c8745a28ff3379e2d2f92c, 1de536479e25bd4edc6cbbc661dbf4658aa8bc7e, 71240abafed451ae7e7ea8e77487d52ecca0934d, 2aa2734099729c1e04599cc5c6f08c6012cea4e8, b514020b80deff8d411feedaeaca5c4711aa3c51, 4099362b66209bff36e1c03f8e6136b5cba70693, 33108bc1b7f65c47bbe28c467d22f9685a5df9bd, e69df733dd0d71377ade3a1bd95c99a070b54c0e]","1","1","836672fcc95b4a985d82a5c0a9a8de81f3515c92","4c03f76e69793de482ff411276cd419e7a42a8a6","dd5d4defd330ab43a7ac54e99a314b4eae50397e"
"https://github.com/AgileVentures/WebsiteOne.git","511","4","[0605f9a55b8922da4608ade965de5496d8cb1af2, 6d168e64e1404072f9c2cae8700e06586e1fff04, 53b673786b32d5db17f0075c99ecebee9c40268c, d5053339218460fff3e4f6243d9ece79380a234f]","5","2","0605f9a55b8922da4608ade965de5496d8cb1af2","46e4e06f6ce27a6532f601e2a993c691115b3889","241ec238b2f4fd5b4457017e958582c86a9dff14"
"https://github.com/AgileVentures/WebsiteOne.git","512","6","[87a252f9953a7af2b4e53943b52e06a9cfbf3d30, 20971b52499120396b652e66cda57eb033ceadf7, a52d9063137e8109e59bac14b614f94ee1d3698e, b422cc1bb5b7e69e5ab72a090852b5e50237a82a, f586e6bde025fdd377c5ceee622ca907516f1661, 2db7ade904715815a2d59589294556cdd985284f]","12","3","87a252f9953a7af2b4e53943b52e06a9cfbf3d30","bc971b7e3b315447a70c57a74f48d2d8f52544fe","9657c835859e997dab0c1a640f1b2435b20aa1ee"
"https://github.com/AgileVentures/WebsiteOne.git","518","1","[ffdef398d3469026854c2d5b24391a6f51ca740d]","1","3","ffdef398d3469026854c2d5b24391a6f51ca740d","6b3cd94ef55e0de226374f158f3cb13ae701f4bb","623a23b49ba36d0310e9f9718353fd6ff397cfb2"
"https://github.com/AgileVentures/WebsiteOne.git","523","6","[c5d2ed45f68a3774652390cbbf47881b22d0ea17, f84bf981c3136405d0969935a435633e25d42f4a, e69a6004211a2ed1c9edff8eae010ec1c6c4f433, 3b697280d7ad3cc4cfceab0de5cad1e90c5a5606, 5c97aee3e52e25036151fa2a2247032cea291c9a, 30fd03f4a30d5af2c0006748b16ddf9dea3c233d]","5","1","c5d2ed45f68a3774652390cbbf47881b22d0ea17","a67072e85423d3ffece8e1813abc8f85f9018b60","d9995d67b8ddf10b555769f1a98defad97d94770"
"https://github.com/AgileVentures/WebsiteOne.git","532","11","[440133c459bcb195f608bc8064f7e362d990e38f, 3c26df4cbbe71542b211e585339f4655d701a820, bdb441677fc9777aae7be3f696bc26bc65ff9350, ddc651887b92d4b49e74441b689db0005cc98878, 29817f34d88e7f40ec4d985c252d3ebb896beddb, 27fee72034d6a6b9be3e93e88e6c885fc1ee20ad, da58b68eb69141a7683b16bd7d0a1ae1e907c8e6, 77b57e84412d1f0077aa648f9cf762e7681b4245, e4efcaa199c9c735b2f9eab91439ec248ecbaf1e, 5b4366fa2879d5bf24bf42b3f406152056c2a679, ea3e605c5a0d45735ffbaa1d0869b43a6e3f694d]","3","3","440133c459bcb195f608bc8064f7e362d990e38f","a7c883a57f2031819cb4cab4403d7370440adb92","598cfbdffa85be511aa48757ccac8b7496626392"
"https://github.com/AgileVentures/WebsiteOne.git","536","1","[32c90a96dbc34299220b8d66d7fe1f127f716233]","5","2","32c90a96dbc34299220b8d66d7fe1f127f716233","7bf94d7a127d7dcdd23edd537a6e5a4b9e6d55cd","7c8a8ec22f70ab1088e0bd6ccf613d05ed33b5fc"
"https://github.com/AgileVentures/WebsiteOne.git","541","2","[56362c3cf81345a717f7b736f6dbec42a8559e3b, 85f231a7811b20dfcee2717da4163f310e085681]","3","14","56362c3cf81345a717f7b736f6dbec42a8559e3b","3c1a5c946aa4e231d66821f93377655f9a435bba","4a4d31abdeb9daa7d67ad7038d876a3114d31b6d"
"https://github.com/AgileVentures/WebsiteOne.git","543","1","[8866c87c01d7c426377b59ef502d98d7392a50d9]","2","2","8866c87c01d7c426377b59ef502d98d7392a50d9","2409c31bd4d500132b2fd2ca4ded83dcf888ac4c","050b6b917277829f9f9f3cfb75a426ae959d4404"
"https://github.com/AgileVentures/WebsiteOne.git","545","8","[efa93765d9a7966b7d654d192cba63613ed331ca, d71c336088b2637a3a1a174cd055d1edd43ee1cf, ba9aac81798ee5eaa7b433e1866b2cdf15b20ca1, 6bff52f78c988ef5892a11c1aa37899a9d436df3, 2cecd0ffff050b94c332be6d1d03d896d49b448d, 87578fec790532d736fbd3fa5e8fd4bb1dd6ace3, ca75fcd02d919ab2125165aeaac87014748011ca, af884686c46f3d5b195d1373bf8cc0ab9e348273]","3","14","efa93765d9a7966b7d654d192cba63613ed331ca","b6ef3cc99c6b1c7f05ea2130ec63f79a170d72fd","b2390914e12d463175f96fb47a887cb763019d4d"
"https://github.com/AgileVentures/WebsiteOne.git","547","2","[8978b52beb9fd491d18e711aee61c45992f3c893, b34b0919df68d512a71ba69f8c1577ca1984fc75]","1","2","8978b52beb9fd491d18e711aee61c45992f3c893","050b6b917277829f9f9f3cfb75a426ae959d4404","6961632c5091ae534e34bb869c6c09b622a2c1cd"
"https://github.com/AgileVentures/WebsiteOne.git","548","6","[99b1f66d93b73e671b60f6f82a0bb08c16bee92f, bc09eff977353bb7b0b7c01afa18763de5e6ac07, 8a62ecb8128007ff2f0c0a9b074ebca6510967df, 0cb7295413f93b9d4cd45b2a51ffe8c03c934865, 7835f634b5c7815d4cb7f15f30400dc32e179b02, 6a89cbeb182eed338c88c623b438ca22c2116a62]","4","2","99b1f66d93b73e671b60f6f82a0bb08c16bee92f","050b6b917277829f9f9f3cfb75a426ae959d4404","2f873a9026e48dc722a1af4504b8ceec5613e945"
"https://github.com/AgileVentures/WebsiteOne.git","551","2","[b4c8ab44bd182292446a0b8f3421d5f9f3c23815, 9d7182a20a6b7e2aa19f75082ea1e01046008c7a]","2","1","b4c8ab44bd182292446a0b8f3421d5f9f3c23815","2f873a9026e48dc722a1af4504b8ceec5613e945","1572e0d12514a080cc70e91152334ddd21c13031"
"https://github.com/AgileVentures/WebsiteOne.git","556","3","[b2390914e12d463175f96fb47a887cb763019d4d, 8dd5aa081f85e7c125ca704c983b105edad9049c, 6081ff5cea190e1d2908f2bfa761cc470e922fad]","3","1","b2390914e12d463175f96fb47a887cb763019d4d","1f642cd4f42b2d0e9edbcb8f4103eaaca575e3ed","7c90baa8d9d5c4aec94f608a6bebf4141e21bc46"
"https://github.com/AgileVentures/WebsiteOne.git","557","4","[e70df1be464c701fefdfb5dea4c3568229757fd8, c5615db31efe21a8a4a456db7d4c2e232dd1fd0e, 5e5feb82fc917b3d4d5134a243a390d8fe6fe143, 29e184d018ba33a9eb629f9c226457b716b41bb4]","2","1","e70df1be464c701fefdfb5dea4c3568229757fd8","6961632c5091ae534e34bb869c6c09b622a2c1cd","351256b4fd1a008d49ab7ec58afd99c70d7e1b66"
"https://github.com/AgileVentures/WebsiteOne.git","570","10","[c033263cb52743a2e7198f4c0aec9c614efa50ce, 0310c926ce6a7d6539d63d6322cdb95342ceb602, d7a534e57aeb46a29468b3ca2225291821c305df, 1bdd9e5723401269cec4745b7e208aa4b2abea63, 251c33bcc98805fc9b8053c27d49b48d1d86886a, 349e3c81a21cacd339f2631629aa8cf8517920c5, 241bcb232797eac652d4a9a1e073c9778abbabee, f635f57f1aef6360efa846ac5cb79390bd52ff5b, 95591e18b75e3b4035b62e8dfed4546b78096005, b02f0be3e702d2be2ee6a3e45971f2549bf10610]","10","3","c033263cb52743a2e7198f4c0aec9c614efa50ce","42f62e6b33baefec8de0d8baea8968b58ef5311f","902df5fdb88b0ee21263ffcfc616598a5c78943a"
"https://github.com/AgileVentures/WebsiteOne.git","571","10","[b2729e8fb07af99a8f51debd9eab73b2bcbd3257, 8c0768e0806b534c45d9b778ad339e622046b6b7, e055b05976adc2ee0d9a02d3f37496c59f1f7a43, ac9864d066a56fc0cf48e516ce029ad61ea24c3d, 145f404de872695401e700f7a20f97105c1d6d02, 6fc2e5563f8c7547fea51243163f883406c9968f, 2f13b46a5fbe9cb3f0aed1802ded7aab824bf96d, 556f418d55926fc72a428c226a4584dbc65c4294, 48569201c160b14a7e0fc8bd71e592969f7d3e3c, d0939fdadcc1096a438e0bc136c80a3678e34079]","6","2","b2729e8fb07af99a8f51debd9eab73b2bcbd3257","902df5fdb88b0ee21263ffcfc616598a5c78943a","df66d14a94500b4e3aeaba73152bf3cfcfee7011"
"https://github.com/AgileVentures/WebsiteOne.git","573","4","[eda4a0bf5e6eaadd6b6ce3813f0bd4c0a84ae46c, 715d64f5c814c13f8a07da6a71cb30d61223ce2e, bdbb95245286ac6484825fa5dedfbba22d06b9a3, 96f341a42cab9b385568ec3b2c07a5e6e24fd993]","2","1","eda4a0bf5e6eaadd6b6ce3813f0bd4c0a84ae46c","fcfbff5fe465b4782fbc6ef37f0f4fe80535df88","df66d14a94500b4e3aeaba73152bf3cfcfee7011"
"https://github.com/AgileVentures/WebsiteOne.git","574","1","[44406cb4e57bcce481501bc2605a295005383270]","7","2","44406cb4e57bcce481501bc2605a295005383270","baf367cde9094b496ef86bcf3a9a75b3746dd4ba","f1d14eb508d652a58602259eac2c329f4e4149a7"
"https://github.com/AgileVentures/WebsiteOne.git","576","4","[b431162e23869181af256bc07d169c267cde80b0, 5697f36417612b686dcfda29922baa797830bc2c, dc8c0d50f674126bd69d214c0dcf8e57a0357e22, a0972cc52cb6dbddf93ba4ee2a13263ee75f44d2]","3","1","b431162e23869181af256bc07d169c267cde80b0","f1d14eb508d652a58602259eac2c329f4e4149a7","c08fe1b79fd829d422e4d0d4f9e6667defcb283e"
"https://github.com/AgileVentures/WebsiteOne.git","577","2","[df66d14a94500b4e3aeaba73152bf3cfcfee7011, 81ee6c57d6b5e2c0abe6cf24eb9e88ae92a09159]","6","1","df66d14a94500b4e3aeaba73152bf3cfcfee7011","b800bd7280a3715095cacec6d325adb2cb3a4a83","6ea2acde6c0be4ec534ca7255d8df85e09460c2f"
"https://github.com/AgileVentures/WebsiteOne.git","578","15","[b31052a64cfb02ec3a63a8dfc70f71e85065f1fd, 50f90a90e2f8892f08653fc18c93fc23d9cd542b, 24dbd59ea331cd9c41726458c4657590d32d13e5, 3dce274f543fea8b0602ba0ac79a0860a64e3397, 0ce3444c84aab50365d9cb830cdf8da87516dcbc, e588586bd06a8c3e5243891004fcc93d6099a5f5, d527f4ffa7fde6fdb082bc9471f7fc92ab662e20, ec86e15b353b57adb19824ca9d669a534e48618d, c86ca50998ddb7d21ceeb6b52a92a8c7ad82a681, 2da5452f05e3cec57bb099febf0b650b2dd7c962, 66f5113577c03d8b4e02bc22a32a92355543bf82, 9ee58df892154c71ad6ae958a200e5cbbbad8502, aaa6f1c8b982ebca86638a8e5616f1b34ab23da5, bc5ac4bc4c7c351bc79f05c09409da9c55ed212c, 00cf6740515c8ca541221970f27f6a78bf46b3ee]","8","1","b31052a64cfb02ec3a63a8dfc70f71e85065f1fd","b800bd7280a3715095cacec6d325adb2cb3a4a83","b4dec848334df23837594ca3c1f5efea061468b2"
"https://github.com/AgileVentures/WebsiteOne.git","581","2","[70e8b2c279183f5b43c5b0c2da7c16389c778109, e4be28493b35e3e1e248664f17ec4b93d04b9336]","3","1","70e8b2c279183f5b43c5b0c2da7c16389c778109","c3dc3b8e2ee7028a8d22991ccdef313bedf340bb","8fc57b2e4718bc16c342a14a97889612adce982a"
"https://github.com/AgileVentures/WebsiteOne.git","582","2","[b4dec848334df23837594ca3c1f5efea061468b2, 038fc5a8771ee7c22f1b92713fe2bdbfa2605574]","17","2","b4dec848334df23837594ca3c1f5efea061468b2","c3dc3b8e2ee7028a8d22991ccdef313bedf340bb","9a188e112dd126b27990d8144f821d6437d41394"
