"REPO_URL","TASK_ID","#HASHES","HASHES","#PROD_FILES","#TEST_FILES","LAST"
"https://github.com/AgileVentures/WebsiteOne.git","878","2","[e3794e656d58979b1d33a67faeafe162e1892dd7, 4b9289c1184ae72dd5ceb8db8b8ebe3a5a4c9be2]","1","1","e3794e656d58979b1d33a67faeafe162e1892dd7","d95f400f37a702b8b92d641e976a10d35ace96a2","393331f85130e276fe54ba526083b0e1b394cbd4"
"https://github.com/AgileVentures/WebsiteOne.git","880","1","[a9a84e9c18880c854dea9ae5098d1aaec9566452]","24","5","a9a84e9c18880c854dea9ae5098d1aaec9566452","393331f85130e276fe54ba526083b0e1b394cbd4","3d0fd5aede6ecafaa0e59413e5c891d981dbc029"
"https://github.com/AgileVentures/WebsiteOne.git","887","1","[07eee95e7731448551c910eec3ba5bb34ddba044]","6","1","07eee95e7731448551c910eec3ba5bb34ddba044","86f2c004cb1b706928396861bde54bd321e453c4","2be1dc07c5d2be5776434cda5df4a8f697bfb9a3"
"https://github.com/AgileVentures/WebsiteOne.git","888","1","[53f0b60a3c174643ec6ffb349b7fe9f86c4eb973]","3","1","53f0b60a3c174643ec6ffb349b7fe9f86c4eb973","ca9064d050c380614c5078d55ce369c21548ebf7","9fdf6449d8d1cbdcce04c4d1f38deac21ca87300"
"https://github.com/AgileVentures/WebsiteOne.git","890","1","[940cf58e584305f114f123b1e352a967aed66804]","1","1","940cf58e584305f114f123b1e352a967aed66804","d0e4c02465423af53ada7850b5085804afb180f7","2733e4cbeae002c08e97c324684ee3eb8a6ad26f"
"https://github.com/AgileVentures/WebsiteOne.git","891","2","[825f2f392a21d2c5950145146eab0aae02cdae7f, 9fdf6449d8d1cbdcce04c4d1f38deac21ca87300]","3","1","825f2f392a21d2c5950145146eab0aae02cdae7f","d0e4c02465423af53ada7850b5085804afb180f7","2be1dc07c5d2be5776434cda5df4a8f697bfb9a3"
"https://github.com/AgileVentures/WebsiteOne.git","892","3","[30a90ce3679f372ef35e3af7bacfac386d6da160, cca7898a88d188790f1478cd02dfc8b226e81737, c2b95de608af2c885a5e8b841a40d39e1882f479]","5","1","30a90ce3679f372ef35e3af7bacfac386d6da160","2be1dc07c5d2be5776434cda5df4a8f697bfb9a3","06438ce2401bed5de719c012b6860569aacc915a"
"https://github.com/AgileVentures/WebsiteOne.git","893","2","[e080909fb5d2b11afcfee3dec1ccff449819ba85, b522caf737798a7b2dc545563b5a57ba2d0bc363]","1","1","e080909fb5d2b11afcfee3dec1ccff449819ba85","6e6dc1d4da4af3785a92083a8f5f27a803f64199","c7aabe2fb3967ea89f0b0eafbfc0f96fd68c3007"
"https://github.com/AgileVentures/WebsiteOne.git","894","2","[3d0fd5aede6ecafaa0e59413e5c891d981dbc029, adebde85b3318c6e497dbb08815c9f899bb2add4]","9","5","3d0fd5aede6ecafaa0e59413e5c891d981dbc029","6e6dc1d4da4af3785a92083a8f5f27a803f64199","c7aabe2fb3967ea89f0b0eafbfc0f96fd68c3007"
"https://github.com/AgileVentures/WebsiteOne.git","895","3","[c749a5929d477700dffa17f3d240a0cfdda15445, cca7898a88d188790f1478cd02dfc8b226e81737, c2b95de608af2c885a5e8b841a40d39e1882f479]","1","1","c749a5929d477700dffa17f3d240a0cfdda15445","8a05d50a20058dc9c6fba78e6d015ba7ace68a62","06438ce2401bed5de719c012b6860569aacc915a"
"https://github.com/AgileVentures/WebsiteOne.git","897","3","[22c1db370fe3c851a2f8d1309cb9c822bc31a496, 96894535963311594d1b670df189ceb2980a1d16, f0c40194575b32def98282d626205595fa65d9f8]","5","1","22c1db370fe3c851a2f8d1309cb9c822bc31a496","06438ce2401bed5de719c012b6860569aacc915a","7e0a59d80ca3774e91121b1e730609fa43492676"
"https://github.com/AgileVentures/WebsiteOne.git","898","5","[7ecc2231ae235d88bad849727cf9ac3fee694f7d, d60377d9a447f26145e1183066590979593d5b9f, 63f5dcedef4cb5073b4efcf065948a88417784e0, ef724fc64c1070407e86fd0e9d82fd32ee8c635c, bf2c956689aaf2e339c8a09cd43eff24482e713f]","1","1","7ecc2231ae235d88bad849727cf9ac3fee694f7d","06438ce2401bed5de719c012b6860569aacc915a","6f16b11e01257e235bd44131fb1d7e5d28f95388"
"https://github.com/AgileVentures/WebsiteOne.git","901","2","[9d637c493413a899d5b9cd69963a81f6e32b9962, 81518a35b2b38250eb969f74fa6cf6fa1505f945]","2","1","9d637c493413a899d5b9cd69963a81f6e32b9962","1faf39343d674b1ff4b3e769894c208e0dea3f0c","c7aabe2fb3967ea89f0b0eafbfc0f96fd68c3007"
"https://github.com/AgileVentures/WebsiteOne.git","903","14","[c7aabe2fb3967ea89f0b0eafbfc0f96fd68c3007, 97450a8c7fd81e3f268baa850932911129bdb8ef, 59dcd8d42fc8380c9732cef25d059572ef1d09c6, 509924232b4a3a845d29e52067a743eac42db846, e134dcb1acb60c855aa39a37199c7a2049db95a7, 03e4895b70a6a10703d95289a7424f4d00538241, 0a52dccfc6a139057106864d4f90e3d5c9db861b, 075f578da24017722ddcaf0e5d117a83cb697d61, 1403044e5f17c2e034c4140b717051cdf1615901, 65da610fa6c40b7f2bc3767a4ce0d2aa57b947d1, d23c7ee3c666f2ebd6ca9dd1b7cbe8c74b76b671, 4dfc84ffca834a702011f4acb21895b2cf0fd86c, 43817b7cce77e71b59f18ead5d8824732f5ad021, 584fa129e92a4ab690bf0933d6ffbe4ec8558780]","5","3","c7aabe2fb3967ea89f0b0eafbfc0f96fd68c3007","e15608ae2913a586105b749cca37b0ddc0a33733","386c388592909e48e5c18767826382a47aa8acf1"
"https://github.com/AgileVentures/WebsiteOne.git","904","2","[386c388592909e48e5c18767826382a47aa8acf1, 95038306218ff6cb5fe9d30401f26671058efdd7]","1","1","386c388592909e48e5c18767826382a47aa8acf1","357be63bf5dd1218d052b23a649636ba2a3a900e","537a3e00515d8231a5519944c2a55387b9af7cb7"
"https://github.com/AgileVentures/WebsiteOne.git","906","5","[059a441df0a71450f3bb602726643f6d048beda3, 31a6a8571daf79cb1f2fdc517885f523eeb0bf72, 2f71dc010c29a7b56232e92c5d915b0583e53d7a, a47afe3257bb1afba284b22d39f8d3104430b903, 5782d0c80661a5f02598d1c654f1925b1c7c117f]","6","1","059a441df0a71450f3bb602726643f6d048beda3","537a3e00515d8231a5519944c2a55387b9af7cb7","43b3c722a79713ba7bd603bf913f96fc24aa3e7f"
"https://github.com/AgileVentures/WebsiteOne.git","909","3","[770132582ab94a51118fe09fa7de87ef01418816, 44d6e0bef7863b1bbe107be1212762872ad76768, 5403b2b61f006c52b584bbbc29f2958e68cfaa33]","1","1","770132582ab94a51118fe09fa7de87ef01418816","ab6dd09df7f4b23009794d9a7d38bccb575a8569","7a693d347c6874e8fc86b6a45df7311ecac73a1c"
"https://github.com/AgileVentures/WebsiteOne.git","916","5","[d56d357d1a0c38232c7804280e296447a598a88e, 70215d9a6aa157f0ca2309204d635b671a727500, eb9d8bee7e12b32d25c841e734b3b137e4fbd555, 3e22dd789a518c1927d44b9c7125f275b477d181, 70d95a6800cd4102affefe73efc13ff1d209dcf3]","2","1","d56d357d1a0c38232c7804280e296447a598a88e","721da188e40228afa2e762b528ee446b2d658829","81a45654eafb1b8624275230215626972f6c377c"
"https://github.com/AgileVentures/WebsiteOne.git","918","2","[67f8af3f4d8eed6afcc924780833a4bbbe9d5bad, adfe71fe28ab237c1d5ff43fec655245c57e3b1f]","17","1","67f8af3f4d8eed6afcc924780833a4bbbe9d5bad","81a45654eafb1b8624275230215626972f6c377c","baff6357ae7375ac93641a2bd43a3891391aa871"
