"REPO_URL","TASK_ID","#HASHES","HASHES","#PROD_FILES","#TEST_FILES","LAST"
"https://github.com/AgileVentures/WebsiteOne.git","808","2","[05b1e530a7f4965a59592bb72763ec7365ee6917, a471d6c5ea15061f815bacf247ab162ccaf54ef0]","32","10","05b1e530a7f4965a59592bb72763ec7365ee6917","7e179fc884d8912829c54d8569454487a073d885","0dd0974f9fc2951ff43c664a8e5cffaa471fe1d7"
"https://github.com/AgileVentures/WebsiteOne.git","812","4","[70b4a1797d9178b19443e56769c4af28340fce63, 89b9cbcaf0a9e10a0736edb13ba014daafb59f6f, 208a69443e6fb7bd4db6759c2e0e5a6c6506880f, c7d44a3e1054151e6f20d6bcefed382f637eea98]","2","1","70b4a1797d9178b19443e56769c4af28340fce63","7f11bb1838ad7f672a3b05a2da28735002cae796","5f08246b2b7a12ffa32d99c7ee46f949115fcd97"
"https://github.com/AgileVentures/WebsiteOne.git","820","1","[a7230877e378cdc718f7dab172aa325d64053334]","3","2","a7230877e378cdc718f7dab172aa325d64053334","d5b11e1b77e3398d263fd54a6374c967dc504a34","413b79fa1ad2c674c4065740625d81b1190e1f2a"
"https://github.com/AgileVentures/WebsiteOne.git","825","5","[2026ec30f3c7ca7e7cc0d46c0bd49b335e7e4dbe, 088cd6d47eb39984903f03bd148832a9ae5a292a, 5c7c764f62853607ebdb286b1e1c257b4c314cc2, f27fd4d2667ec9b3e5cff9edfe7db16b96f34da6, 4b41cf6aa44afa28ecc540e08b43523ce9acbb1e]","3","1","2026ec30f3c7ca7e7cc0d46c0bd49b335e7e4dbe","fef9b9ae4f45015e618c21bfbec58a5616b5f930","9d4e149aea0b8fcac8b076dbfd4978274acc816d"
"https://github.com/AgileVentures/WebsiteOne.git","829","1","[ebed2c9ba1e0af5acf98ae0b01ee302e406e00b6]","6","2","ebed2c9ba1e0af5acf98ae0b01ee302e406e00b6","8a9b2e6d0e36d141230c4a1c0de32653d1a91724","a017164e2a2019d191f1f7dc05e4104f57888ee8"
"https://github.com/AgileVentures/WebsiteOne.git","832","6","[3455236c93ad50808bb00b2b76e2e13e4657b2cc, b8a3b508f8634fb9c10dd992488f119c4fa4c7d9, fc761f7794ee5737b73c370829cd879a71bb0ef2, 053ec7c6fde8ca2a3bc7a754e2ae027ed15fd6d8, 01f49d30213c53da34798cf3906e5d257aae3529, 6819becd7fb9cd8b2b2120eae4f683bf9cd9f2b3]","4","2","3455236c93ad50808bb00b2b76e2e13e4657b2cc","faa43e5fbf8bb37aae84d64e391835f34f3318e5","a8dac357a712b82f33e73dd3832a1467d2aa9171"
"https://github.com/AgileVentures/WebsiteOne.git","837","6","[4465b3fbe6e5e9e2f5aee0ae50d5b6b408bbc2d4, 1da48b369b7646b33dc89b37eb9bf53de903f26f, bd87d72e3f6580401e466af34b6d6fd6ba1bdd75, 070e9c137670964fdce03d1095c18b3121f175df, 3d160a7c3ba83d5fcd11a3260b792c93b7528e5b, 96141b54b411f3bdab43160f4ff6184782236219]","3","1","4465b3fbe6e5e9e2f5aee0ae50d5b6b408bbc2d4","a8dac357a712b82f33e73dd3832a1467d2aa9171","5ac88df19e1b4f2a55c69dd6e98d28573ff9ce63"
"https://github.com/AgileVentures/WebsiteOne.git","839","3","[09d61367ef8f07266318f0c029e7cfd099b3a239, 7b760c5e9784fd045515e3693e8407476e1e60ce, 08af89ed7e14f045c3c41e9acc9e3cbc4dd982b4]","11","2","09d61367ef8f07266318f0c029e7cfd099b3a239","5a96bc3944e0208ccb3704d2f3fbe2db19826efc","599f578f0cb4a00d90bf8a52cad5d4450eb586a8"
"https://github.com/AgileVentures/WebsiteOne.git","840","1","[9bd83b9916bdd722f618284f58e24ada102c40b9]","2","1","9bd83b9916bdd722f618284f58e24ada102c40b9","70d90b46c1810324c725fb6eabea00f50ff2cef6","e1b22c97bf5edcec11e834bcb70e420df70754ef"
"https://github.com/AgileVentures/WebsiteOne.git","842","1","[9f4de4f08bedde8f40ad76f730684d60b15004d1]","6","1","9f4de4f08bedde8f40ad76f730684d60b15004d1","599f578f0cb4a00d90bf8a52cad5d4450eb586a8","ca6d97c487323cf32bd8bed429fdf7b2f538163f"
"https://github.com/AgileVentures/WebsiteOne.git","843","7","[487fcac9545efaffa90969c4afcbb8e3bb485a56, bd91b3c436436004c85765b2922d7915d8b740b9, 14a2d8691005199d3ea31cf05567795a62d7a474, 0c29ce78c62309cb3945f89307381086061e6989, fd6dd36b65563aa7995fbc608e33f247e0efae0a, 5643b06df010afe02613df820b451763cf2861ab, acf546c631f4fbcfeefaefa919cee75e60f17866]","6","2","487fcac9545efaffa90969c4afcbb8e3bb485a56","2419ea1df0f43203fe1ff779fbaa594712b2ce7c","4df432cffef20b91fb5e71dceb09af97abf70f4e"
"https://github.com/AgileVentures/WebsiteOne.git","844","1","[044c5d98f53862a24029637539776e284fa990b4]","2","2","044c5d98f53862a24029637539776e284fa990b4","2419ea1df0f43203fe1ff779fbaa594712b2ce7c","4df432cffef20b91fb5e71dceb09af97abf70f4e"
"https://github.com/AgileVentures/WebsiteOne.git","845","3","[1f6d2f54acc4fd6eeda3cb82109749dbeafa33eb, f248815fc897a2eee3a6b6f3f77f6dbde1a5b1ce, e4a91235ae76028be4c572880709882ff6b234cb]","5","1","1f6d2f54acc4fd6eeda3cb82109749dbeafa33eb","ca6d97c487323cf32bd8bed429fdf7b2f538163f","dd73c7666407232c98cbd5be442087cc85f16e98"
"https://github.com/AgileVentures/WebsiteOne.git","848","4","[6d2d8e4f71f212304276b2b3a17bb5ecfaf97485, ab9ebbb67a0b1bed79ea798b91a0b2ba83db204d, 1407152605ccfc4683218e90e1750d9432447afe, d5e85267196575f125267070325c4616c2761601]","5","1","6d2d8e4f71f212304276b2b3a17bb5ecfaf97485","dd73c7666407232c98cbd5be442087cc85f16e98","0845223431c8a7abc878152a4eb3976c5c4558c4"
"https://github.com/AgileVentures/WebsiteOne.git","851","2","[5f03ad2579ebeeda19358815cd9be8476b2ce718, ce227f009e167b8c84ee6b69666e113a7301837d]","7","7","5f03ad2579ebeeda19358815cd9be8476b2ce718","0845223431c8a7abc878152a4eb3976c5c4558c4","86828a8598a6b5778f044c8be6cf33f58162099f"
"https://github.com/AgileVentures/WebsiteOne.git","852","3","[85469f2bcd0043c61b103722069b7055d23100db, 86828a8598a6b5778f044c8be6cf33f58162099f, 6f05e7a361512912d56b31048d3884da31720027]","7","7","85469f2bcd0043c61b103722069b7055d23100db","d18b5be9fac22c57e5258a7cb39b19ffb82be69a","0fc57a468de31bc020d6b3f5fec85b8f0397643e"
"https://github.com/AgileVentures/WebsiteOne.git","855","2","[90df80f112fedfc04da2dcc4c6381f1a90633aa0, 0479b5e048ad7a8512759734b7538eeae7f6811f]","1","2","90df80f112fedfc04da2dcc4c6381f1a90633aa0","e1b22c97bf5edcec11e834bcb70e420df70754ef","3ebfdee072b1152cfb3808958e4abafe5e2e5088"
"https://github.com/AgileVentures/WebsiteOne.git","857","3","[3ebfdee072b1152cfb3808958e4abafe5e2e5088, 86828a8598a6b5778f044c8be6cf33f58162099f, 6f05e7a361512912d56b31048d3884da31720027]","8","7","3ebfdee072b1152cfb3808958e4abafe5e2e5088","4c289a2cc8af2fdaab4c0694714b81c636b88919","0fc57a468de31bc020d6b3f5fec85b8f0397643e"
"https://github.com/AgileVentures/WebsiteOne.git","858","3","[c900ff0a579d434f22dbabadd7c25f22b1afdfba, 86828a8598a6b5778f044c8be6cf33f58162099f, 6f05e7a361512912d56b31048d3884da31720027]","2","4","c900ff0a579d434f22dbabadd7c25f22b1afdfba","3033354b917f3b3d5c39e4048ec9b75108278e81","0fc57a468de31bc020d6b3f5fec85b8f0397643e"
"https://github.com/AgileVentures/WebsiteOne.git","859","10","[2bb50197fd8223f057331d5017e071d62632f620, 8a2d9f3134a2baf8af2f49d857fe506ee93ac409, 3cf364351469072c3c8e3e382d7ceac72c115435, 83571edcc96a4a679484c4ee3d1193a27928b465, c4f6464c98c037b17d13346b4e8757c53b7233aa, 54e077a7f37cedbb5a92d8a4b12cbdbf09cdaf43, 8d4a5dd4f49588d46f6e0cead1d3d19bc526db90, 6e4060d30c6ee552514924052a5585d574cb6ac0, 3f2c1e758fd8ccf4b2dfda5e66acd0cfb6c23756, ba4b5036b377aefd0932979d085a7b2e7723616b]","9","1","2bb50197fd8223f057331d5017e071d62632f620","b18bde7b7111952bcf7538aea766a3151eefb7cd","95e9f04ae9deff7d27eb5b4e26b0e01e1a09d873"
"https://github.com/AgileVentures/WebsiteOne.git","860","1","[3d22c3bba404593b153a66b8b7c5707f0f22704c]","10","4","3d22c3bba404593b153a66b8b7c5707f0f22704c","0fc57a468de31bc020d6b3f5fec85b8f0397643e","3cf364351469072c3c8e3e382d7ceac72c115435"
"https://github.com/AgileVentures/WebsiteOne.git","867","1","[5afd61b1b22864d7f87eb21a2f709c91892e1466]","1","1","5afd61b1b22864d7f87eb21a2f709c91892e1466","5c441cc4f2f90fd5bdfcd857a02b276120695904","f820921b18ea111d95794c06e0d013c72e14b598"
"https://github.com/AgileVentures/WebsiteOne.git","869","4","[f820921b18ea111d95794c06e0d013c72e14b598, 03c8948d75745da86cf1ba9e7178e13bc25c7eae, ce895cc40c06393a71f6c3c5bbab5bf364578d0a, a33b5f557120230f7a27c0d6e681949352664c9f]","1","1","f820921b18ea111d95794c06e0d013c72e14b598","3d3d568a5f1bdde9233f63b1392db401ed71c71f","16bc6aaff833d95555e4286213946f8001d00d2f"
"https://github.com/AgileVentures/WebsiteOne.git","870","4","[e6412c43c600427631921e3892f659cb5b84f23d, e08dbb32a7084ffe7a6644b241de546d9fb68fc9, c57ca2a0ed10086df72dd31c6bd46e3c517f21e0, c94eeb07d2d3386e06569b0e3fc00c4df08324a0]","9","2","e6412c43c600427631921e3892f659cb5b84f23d","16bc6aaff833d95555e4286213946f8001d00d2f","99164cd82c113a9e5a2d66cb849adc6dc24021a4"
"https://github.com/AgileVentures/WebsiteOne.git","871","3","[fdb0f969a43f29a06a4f01c78b3962ba3917079c, eab27a571a1f3e3922592d25d7359561061e82c5, 0dd70f7238b4e92b34259e886a479b1609e876e9]","1","1","fdb0f969a43f29a06a4f01c78b3962ba3917079c","1989fed90691d0fc486038f3b2dfce7db290b52e","e1af48f274005cdd3d2da34c1b34c33fa56414c1"
"https://github.com/AgileVentures/WebsiteOne.git","872","2","[99164cd82c113a9e5a2d66cb849adc6dc24021a4, b1d24fb7988240a5473e7453e46342e315ece3af]","1","1","99164cd82c113a9e5a2d66cb849adc6dc24021a4","1989fed90691d0fc486038f3b2dfce7db290b52e","d95f400f37a702b8b92d641e976a10d35ace96a2"
"https://github.com/AgileVentures/WebsiteOne.git","876","1","[a6c891aa8c28209c5b09924cd7c7f7be2eb486d4]","3","1","a6c891aa8c28209c5b09924cd7c7f7be2eb486d4","4eb383cb1546db017d4997dece8efffa65966ef5","e1af48f274005cdd3d2da34c1b34c33fa56414c1"
