"REPO_URL","TASK_ID","#HASHES","HASHES","#PROD_FILES","#TEST_FILES","LAST"
"https://github.com/AgileVentures/MetPlus_PETS.git","127","6","[d56f310497fb6d6bad2f00a10f3909e9f089eb84, 8b10661acd340bb476fc2c60588c98029022f181, bf80745267d04142fd9ead2550de93f334700e29, c1c9c21fdd478843c560ffbcf7566df0f37cbe85, 18723fedc0e9ad7d9b10f25431f71c913dc0759e, 31ecb42ad5cbc45f49a98674b1cbc34f1c87fc35]","5","2","d56f310497fb6d6bad2f00a10f3909e9f089eb84","d09256cfa02b58b5d204138a575d303dbe594d40","b8452d05df51fa9887296aaa343573acce5134de"
"https://github.com/AgileVentures/MetPlus_PETS.git","130","34","[fb90399934b4e7507258a034e433f812f97df36b, deb95ea3334872e2677b4018a9f1ae0fe557dd56, 3fd989cf6d61ab151746d6f620795e7393dec4a6, f79c7e9413ddd21b55bea5d0ac0823c198ad54f2, 776b7abe771d993068f958b613be236ebeb5b5f5, b4804774164561a7cdbd857adfc8afb4ef721392, 167976f9de8fb84ef69325c806677caa8d371683, 357768fcc097bc6c9ef2746ad91e4cdee2a6d8c0, 49967e68d40fcca16ad19ad58be2ef6a7fb2c864, 429ba576164b203e5ee77e3a5300e58b24376b57, a8bc0f3f150b56235ba311069dbe929199502368, 81a6c2e0fe64f43a8cd9fa2561ce4995695ae4ac, 031c3a8d5f07a1077a25a89e5e9c32ce63a50a64, a197c7ebccece20fed3c057feb5143b65da132b7, d1f51ddc07956abca51e0ba61ec446e94862616b, aeb883a9e52e11d2c3b59eaf4c37182e82e34d3b, dadaf49d653dc47a407bce2bc7071614dcce0994, 82e8ba2009ce0c7687e4da9684c734c51ba71676, 500cd89494acd28703a9aaaa912c130ba76cdada, b763575396d2cf12f72baa0631ed568deb549e86, 2679b653542efffbb481586e1d92effdbda62516, 0d7edb15b823ba1fd4dcac13bb3831f371f6b040, bcb89a7ec1300756010cf0391df8503772cbda75, 761b254cab2a750cf9f7083c12a1bfe1b80a6048, a50fa75672b8f0ff298db44eedb19033e2d6df11, b9100d3567645b20618611422596e685a78e6af7, e97fa8a0d20077b98ccf91c2130802760d45bbfe, adc85a4210059d600ece8f1472e56e1809418d3d, b02ed2437c0fbe6b53f06f3811211adbd53ba9f0, 5fc7853b533e0790a1844818210262d3537cdf9a, e495694455dae74dfd331e19cfe89aea571a62ce, 89ef9bedd72711f301e1628573788223c47fe21b, b7f6a9462fcddc3a1ca44f5be20f6a21251d5cc9, d80d3f2e92793663dbcbd05481bcb354c8b08019]","10","2","fb90399934b4e7507258a034e433f812f97df36b","b8452d05df51fa9887296aaa343573acce5134de","8a6c6a4e4c75efd43f20c5f3fb604376cc58429b"
"https://github.com/AgileVentures/MetPlus_PETS.git","140","1","[3d80698a853b2078f5c887be2c0045e0bbe67e3c]","2","1","3d80698a853b2078f5c887be2c0045e0bbe67e3c","41cc49ddb1424c418498482b567e695917ba9b50","69aece4ede9db1e7c090200c6669070a76dcb18c"
"https://github.com/AgileVentures/MetPlus_PETS.git","141","5","[69aece4ede9db1e7c090200c6669070a76dcb18c, 0114f5f3a815ad1243768b6c78938b30a9675b18, a9b693361a226fb49f1af6dd9e0253ca6ca21b49, d48662c94e39ddc2d472d3cfb2d1a97f022e5a56, d880560bf7b6c7e5e26d414c3c4b2b614c4d28ec]","5","1","69aece4ede9db1e7c090200c6669070a76dcb18c","b4b49666377d5766bd9d2f3172b27c8c19760284","9b843f19f4df98cd50d5d8975f4a7ad9629de91d"
"https://github.com/AgileVentures/MetPlus_PETS.git","144","11","[5ed4a6bb004957cd548b834aabec750585068341, 38bce7c72b86b2c6be567a6f13bc8bc1daa04dd3, e4df7590f22b6fbc92668e8f145ff141377774d3, 0bb8c83f63d9b7e9f2e094d54615fbf12f5922bf, 4125719eb35052ab7fc377ee66017cbe4eb0d616, a4555eb422f50c476c871dfd9d7ec979c9716925, 56c836127268fd1df5b5a31422ea8ea63f44299e, 23065e642bfcfb9473f4d777ee6c31aa000aea5f, a0f393a947339dc59bc0eb6631b9196af71e2986, 23ce71d402535e2d370d039521128436d7a0fef5, a59a0751c7c4670c2bfc6d8b2a50dd1b3bcf6ffa]","11","4","5ed4a6bb004957cd548b834aabec750585068341","96316e7eefb81c53bc7406d4fc6e97b832358abf","3ff99f20d55c7a2e226025803a02db4d060ff064"
"https://github.com/AgileVentures/MetPlus_PETS.git","147","9","[103965fe288e0f426db3fa99f1604c23eb6df26b, a3f05880b9a02cb7f9f124e130a12cd0573ef98a, c90a663af08f0126ef3821091071893eeb8f73c6, 20d050384918dc781d2536bebfb2233e29704140, c5d4134b4974ca6b54534d4ed90922a673df8219, 83fbd61f6defdd10371702f0ebd3c3d9366b1db9, 668bf168c5e71ac410b17916948df60008c518bb, adff80df0cfcfad53eacc4f591b6e19de2e09ee7, 6c9888d05adf438111f56fcbc6023fc742f0c3b5]","6","1","103965fe288e0f426db3fa99f1604c23eb6df26b","4bf79e52bd5ed7a05d0efac9f93c759e60ebc1a8","c712b7ae0f6896ceae8be6ae1047fa3e3184c9a9"
"https://github.com/AgileVentures/MetPlus_PETS.git","148","24","[93afdb37e6a5d8e48304d1e5afa6420747f7eb4b, 41cf61713c50fb5c9be6244fa22ba873f5794315, 221a158ec71d0df300050061dc43d5a7e1070d30, 109f280155b8e283ed7f3e1c3527e55e89f4b962, 083debd4b4d381a0ce61829d6564e469dd616507, 88c61e8ba732825502820874b6bdf40855a804d7, 664a5647138e6dce82b89dded1e3f6353906818c, 163bd94ce15e34161dba0a091d2c3bae67c85ffd, 102e6a1197e727aaaf68a84f2c2ee6bcfd532127, 77e3d743c6171feac3500e3c29d31980f3519870, be050ef3eeff8b46388322f10491df38013c3750, 69958e52488acd3ae603acf802edad2414de57a8, cb93b8778c62cdd9c318c89ad79ce10e429468f7, f3078c2fb16aa2310a2e00f7b9dff25f334edb6e, 81250384cdb07a15d52c79d39daf229e79844a08, a0b7b6cc02d619263d614c3bbf4c92e9383496c2, fe57ddb8fc09fa2c13b14f2763047a277ce47f9b, d5b9ee177aec08aa00c0c6a70531a897c0ff436f, 4e9d7f1e004dd2c348961129ca877fa75fae3798, 7f128dfd680162f116d23f38dec012a45e349430, 8ffce775cdfb4f074085ae168dc27389182568cd, 888a173c3bd9823ebf31beea65ffaac0ef27b832, 63545f381848ab71bdf7c32543f0515891a15a56, 626b7da8af2c2fd3d3211226b84f17ee0a252bc8]","8","2","93afdb37e6a5d8e48304d1e5afa6420747f7eb4b","c712b7ae0f6896ceae8be6ae1047fa3e3184c9a9","e9a42bd7c3dba794ea5dbc46308e0e5b905374f0"
"https://github.com/AgileVentures/MetPlus_PETS.git","152","1","[5ddbaeb2df13e01ee3cd0fa293e9407294e9e663]","1","1","5ddbaeb2df13e01ee3cd0fa293e9407294e9e663","b8a8d509b16b7a36a2ab984dc91dd3762c8c1978","a72eb5b8d43cc7fc7011fd61d28efba733c88036"
"https://github.com/AgileVentures/MetPlus_PETS.git","153","6","[4b45a80c0b83dcb758ddf43c77870c41b4adac93, 07afe789b1ee6eeb134a0f1ae6420584bc089ada, 65f43a067d23bc13e47e99e443392afbcc4f730e, 07bf7bb74bf2eaeb3e2d4b639b15a10a77dc8623, a7a8089e3393483fbe802dd1566a775cad6c38f9, 63f25fffb0f831326531dcef0915029936448e8c]","1","1","4b45a80c0b83dcb758ddf43c77870c41b4adac93","b8a8d509b16b7a36a2ab984dc91dd3762c8c1978","27e6c543193ecb02503f5a6599e345792a507dd9"
"https://github.com/AgileVentures/MetPlus_PETS.git","154","1","[05781ad2faafb3713ad4bc6f47852fd72e19cba6]","1","1","05781ad2faafb3713ad4bc6f47852fd72e19cba6","a72eb5b8d43cc7fc7011fd61d28efba733c88036","2cd8b743d10fdccc1d0f30fec19e8e2635c60843"
"https://github.com/AgileVentures/MetPlus_PETS.git","155","1","[ae6eb8334fa7095c53f18560d2d2d33fd3a55649]","1","2","ae6eb8334fa7095c53f18560d2d2d33fd3a55649","a72eb5b8d43cc7fc7011fd61d28efba733c88036","2cd8b743d10fdccc1d0f30fec19e8e2635c60843"
"https://github.com/AgileVentures/MetPlus_PETS.git","157","13","[725ef8aaf442a472bc24f3c99901f8af58403699, f6cc8ffe671ede0a5361e2dbf96f5e623b84dbd5, 5dc88c7478b0843e4ac1375592408b4851b0290e, 5e61823c3de741de4595db319e775e05f9a1350a, 338105db2b0604307d9920b50e05af8d6a23054b, 81e4fd29ab9f811714aa1809835d0caea86620e6, f2516f7f236844c1b44082da15dc5e29900de26f, bd6d40e92e9289e2b861950008f4e12bf2575ddb, 0cc25799143df96b1283810ab462097d8d9db0a9, 563cf47bc3cddfa8b18395d91fa4a748cdea3acf, 563c8b29b9440bb8b04228f69cee67561b298712, 2b625adce8119091be400d60f5d0a58d95c31a29, b3c5065a4d978f9d55f39843a3343402f06816db]","2","1","725ef8aaf442a472bc24f3c99901f8af58403699","27e6c543193ecb02503f5a6599e345792a507dd9","2352af47ecfdfd984b4fa5fb52017b18dda18b36"
"https://github.com/AgileVentures/MetPlus_PETS.git","158","4","[96211392d2a7d3246abc3684a61893ec53e36869, 2205bdbefc02c565ca0c3628ef66250b76aad010, 9442b81bfd21a36ee280b02fc0b13fe45e4c233d, 802cc0d33d134152b34fe4f0aa3eecc000c2298e]","1","2","96211392d2a7d3246abc3684a61893ec53e36869","27e6c543193ecb02503f5a6599e345792a507dd9","fa6a7b155cc3a17ad3f3a97a4adc484e8308f292"
"https://github.com/AgileVentures/MetPlus_PETS.git","159","11","[3c7784e727dcc69a21dd6b0bc4e2d8505be26b69, ba7c4e9bf2876d3ae27095b3c967347ad934d2ea, 81401d6f6992b401b19adf49e68010ff2e59a82f, 7244b4b3f5674b43bf5306f3d846269f429f90fa, b3221fcc54606d6897fe8130a35bedb31b9fd35c, ebb8c3d466c0693c5a7b9f71300e5f06849b0bed, 588204ac9340299ac14104e331197de0e904234a, 49e56b29377cc4b9a20761004834f86d118c7725, 3908c8ed2fead7c4fc229cf9f0a2c37a0b9e14a2, d5951f47146546667c004a4da1fd89e9444f81ec, 896cda90c91934a75e15433d65b2f473b60c75d9]","3","1","3c7784e727dcc69a21dd6b0bc4e2d8505be26b69","2352af47ecfdfd984b4fa5fb52017b18dda18b36","71b75dafbdc21da5d06b5ec889dfb93edb7b692a"
"https://github.com/AgileVentures/MetPlus_PETS.git","160","27","[1c923a2c471ae120b71ca4e94543f9c7e68c6a61, bbce5c483092b7b23861d36a92d562f4aea3db93, 642614affa180d9cd9f957205a76a16faeb74404, 808134fc1bd4eb86ab99a28dcc7c2b9c41e09766, 89ffde728e307b82aac7bffe209699b2bbca6c1e, 7ad7d40a4764d163183ee04cdb75b8bb28a65533, 089b81c82b4af26dee5392f4f6d4d53e6adbe56c, 5ece2ffa1d3138ff09427802ba6e67cb29bdb68a, 0f3f685e8541091abe8af5b3c35ea945e53ef2bf, 1636070b68fdb233fff0e551440c6f1d2d123556, 445be9c1e10c074f00f3143f0a248c34e499694d, 6c38e77e011047e862803c45c257fa7cede47741, 31b403a15961c3d16d5926e76100b600a878bf95, ab0b5d693fd9fdb0ca03abfedcc47a3e22564433, 260f2a539e4bc4f057eb63f49e368ebd5bae107b, 1bcc7e0152469bc7fa258a7303548f4773f391c4, 9b3094bcb28a537fdb16f12ca34a7896e07bda33, d080fb797676ebd6695ac3e0a68a1eccc80d415d, 6c727c0560524561a88322371c092b247a1ca4f2, 518ad9d4dbe947949aa6b7b39b58cbd1b1c5f715, e744d1e9cf69d1f8c86fab4083f9bb6473e3ee9e, 9e1f4a83ed2cab6504ce92932d489751c6ab4a5a, 1f133b391aa61b9ce72bb05d0c3300147917ffdd, 93af3730b289092e0a48f5987a0e155ab472ab38, 6e9c606fcbf5b29df1b0a4751c73d221ff2f6f22, 6c466fc25e58338563924dc59e8f57c50d9e1f31, a6eb9fa9280b5af73a8aa501bf647a535838bb46]","17","3","1c923a2c471ae120b71ca4e94543f9c7e68c6a61","e9a42bd7c3dba794ea5dbc46308e0e5b905374f0","fc3459d3849163eabbb7b50ad99a353af3ebfb54"
"https://github.com/AgileVentures/MetPlus_PETS.git","164","16","[5c9bee2d1690c6db9eb42a14f28efbd4a7dec857, b10a95f4eeb1c9d1688615c11cb39e4472733cb6, 16bf89776fbbd6764a6b2e89cf42121fb075cc60, d71ea467b1beae2b36d6080a3f4543957f4d4f50, f23e35555cc455ec9765a0d8e5989eeaf53f0347, 4fa66e8ccc005d5a3a212eadde1941ebc42aa138, f1a428d13764c3f5c268e0e71ddd9e568c819800, a83071f37f7262ebbde5152c984df06f6aa69058, e4d46f7c34bcda961ffdc4ea654fb94c574c9ca3, 5e7f985b0acc95f3e2299fcb2ea0e4e14ddb4f38, fc23c265b80071398282248793e271fb051eba42, dbb4ba9d297b5d66f55445b6ce3bd56beddf7c18, ba2b7777295c78fa026fd2aa3d9dfb4e9dfb095b, 63f4822a4d420abd133dbb314cb06fff4a31e883, 397092099898e251eb08436ae99c6343ff4ed2f4, 1f991c471c92ab7729538957687c75509f7757c8]","2","1","5c9bee2d1690c6db9eb42a14f28efbd4a7dec857","6ea02c3c2477b846cf3f3dbabb58119b6c4b4ecb","fc3459d3849163eabbb7b50ad99a353af3ebfb54"
"https://github.com/AgileVentures/MetPlus_PETS.git","165","1","[02a33cda9a87d3e1672a7ac953b39058eb6d7a67]","4","1","02a33cda9a87d3e1672a7ac953b39058eb6d7a67","6ea02c3c2477b846cf3f3dbabb58119b6c4b4ecb","fc3459d3849163eabbb7b50ad99a353af3ebfb54"
"https://github.com/AgileVentures/MetPlus_PETS.git","167","4","[fc3459d3849163eabbb7b50ad99a353af3ebfb54, 9f20bd70816b039f31f4593fdb156244dc8acf3c, eea4d17978b4b8d021642cfb7a91a03c2fd72dfd, 247e0e1826713f8766f56c60879597efe28f8e2f]","3","1","fc3459d3849163eabbb7b50ad99a353af3ebfb54","402d733c317db0da4a9d5098f564b84a7fb0468b","a208429a7c21b7c65d8141f3b88c706edabceb6b"
"https://github.com/AgileVentures/MetPlus_PETS.git","168","1","[822045ce70e4ca7ebb7d81bffc8adf20aeab2523]","1","1","822045ce70e4ca7ebb7d81bffc8adf20aeab2523","a208429a7c21b7c65d8141f3b88c706edabceb6b","5d4c3ed0c1a2ff3677c0bf0eb4d55c27d6457410"
"https://github.com/AgileVentures/MetPlus_PETS.git","172","11","[97592826c1c335cd3cd99f116a4fc7d253105f2a, f95385dd7cf425dd66f99b1e5a604c54674b217c, 160f5b1ff390741049c3bfd332fecb199ff14a44, f2fc55e9f990cd0fa42f1104f9e9d604bfee23d6, b5707bfde51119f9df5b810cc195143bdc9732d9, 7b07c8753065ac24b8706faa13bc9de2ecfe9630, 6d7e9bb6f278e2ff99b8b3ecbccba7cbb2047d15, ce5c7579dfa7432fa3aa9fa3293920adbaf8c83d, 049b8f0f5a8236d9236997458442fd1109ec25e1, dfa3f2e2dbcfb33cfbf5cd74222a3f7c981869b9, 8cdc0ad98893026af842a931255792052d79556b]","10","2","97592826c1c335cd3cd99f116a4fc7d253105f2a","d60a3cca8bd8a2176da9cfdb9c9af02dfa51d590","783b25b30545a9586b730ac8b6464ce23ddc0831"
"https://github.com/AgileVentures/MetPlus_PETS.git","174","18","[2c7ea3374af112ce00a405b6421a4341fccf2495, 5759f9790d0d3702fd1d806bb76c43cdf66f6f4e, 101fffc9d975a4bb502fc5d777bd9a63e355a2ea, 0ca3924965d68eed60f1134643c98ea49df87b52, 562f62fcb4f2b80be2a767545a97331b9d7cd5bd, c42a66de69b6e48f2e3c0c82ebd27e0ecead513f, 02897729bdd0eb23097873597ba9e277c811bf5e, 32b5dc12949836f2ed345bad8a0dfaf06cd0a520, 952686cf7399a5bf4c7663ee03f2d25d5d1f50a9, 4f8ccf4f9132cdcd46e36003fd1f20ce2e4e9b38, 795b5a9d75600f950d6aa020273b9a6441bb55f0, 38dc79f6d6f6c1a5a2f5dfa875c01e8bdd08a69f, 58de46884b5b5f2eb3849be5b5a6e8b5e7e273f4, fac7a136aeb346a912b9a60dc005fb5950664d77, f0fecc4bdec078cc37c76c1dc326a83497e9fd0e, 43c81114e5a9ca3249acf25e888295d0f799a99d, e2909a4bea94d95deba08f254142312538511bf0, d16b8adefc9c7826ab1fb7a5d6db9504dff0b651]","31","3","2c7ea3374af112ce00a405b6421a4341fccf2495","ce7fcdde867794bc3e11efe666d6a98eb67ec2e9","3e38bcb62fb3d62cd638d36042f338e047564068"
"https://github.com/AgileVentures/MetPlus_PETS.git","177","17","[71b75dafbdc21da5d06b5ec889dfb93edb7b692a, e9757935167fe5cd3ec78f954bee858cbde5fcb1, e03c30ab500ddc643c414d924b34ef974ba4e6df, fc503c919ad2faa5ab93cc8da083feda2fb380e6, e305f77d63197b0948bb5c8132f924099060bdf4, 9e21a912068653a3bf8724b103f97c478c3ff792, 224fcae4b501143d89d51e52ddfa03a8792ee3bb, ac6c34a6c8639db094947ec0d88c16ebaf6112bf, 7ee930c88eed9f2e91ddfa31e3722be2e84a2a07, 889cb4f43deeb0d0295447d2583126c2e0213b34, 6806bf28a95ae8a0fcd8c48f2a803b312b29104e, 64335058eadc607bbc1dc3daa695f5c11f1f31e1, b41652850b3f4e04158f7246e4c16641e9ca1b25, 747fcbecfb26dade6c1fce659fc51cbcc624f840, 1aa11310386e0fdf2eb4bf74967eb7a0df6ff47a, 8be99018dbb1bb6f126332565bd78e4333720a69, 28811a3626fa5556ed92ce9c216828b1a917096d]","3","1","71b75dafbdc21da5d06b5ec889dfb93edb7b692a","3e38bcb62fb3d62cd638d36042f338e047564068","dcb9505c0cf8f9964bb64cfe7108f9af355792e8"
"https://github.com/AgileVentures/MetPlus_PETS.git","179","4","[dcb9505c0cf8f9964bb64cfe7108f9af355792e8, 0c40276545eb8b7405b997e043594864147f2dbb, 5364c7c11168b07fbbbd0559729e89f56d19c833, 508f87f14740748ce59e94f51e00692ac98f63f8]","2","1","dcb9505c0cf8f9964bb64cfe7108f9af355792e8","455d29b04aaa854bda0d01be03b356dcee643e0e","783b25b30545a9586b730ac8b6464ce23ddc0831"
"https://github.com/AgileVentures/MetPlus_PETS.git","180","43","[b7a7fb34ec3d71cb715aae8be9c7c02576e064ad, f2bb308c84d834abd816aa2b6e16e626d5ee7453, 148d9d8ccda363767feb687b08cf9a181e60a23f, 2d376ccaf9620a34de7007340ff54804c7d0507c, 3c7b938c08c466981f4f2d10f45244e1b4db5f99, feb1a93fababc9fb9be1daf627e03927e26b60e8, e64c0d18c4e64e0825ac439f34543240ed34a4c6, 9a51c3c388eaf659dad90f90b753b59f2cec961d, 7bd5fdda506a8d89410be73335b7ae083934d3c4, b92a1ab26bfa90702eef9ece8062785b6cb6fe0c, d143eabca90c81132f61b001c3e58e114b11f964, 4c783990b3c7864862a6d12edde8fbc8bb3af30d, 6c5ebaca19f1fb88e05ec1916a8472fd23226e18, 0619558a90301089d3bf4e5ce01247989872f8ff, 761a9d188f72aa1c064aab606eb100b40cbbab6f, 72364a2b1236c2a58937a98d84476180f8389cf0, 6c64a2357abfb385ef45287b015b7aebaca2e485, e5226e806f89e1fb3c7b6ed2045b816260fcdaca, 8346e99d269a0f3013995d81f8a284e55d3fe3e9, 0c431ee3bfe716d150c99f5d2685df1e719a3d5e, 55ec0217db392bf6c93f35ac9c63fd9d1a9bae71, b16496ee5af1ce36356ee5d06e59aa372ed1fd7c, 6b8e2b78d7b0ddff7aec1ae09b550646958d08dd, ca56c3b2c58ce1c4df95e4fb60b4130879ecb934, 7bbc94b3357d5ed12ca36a184c750976c33086ef, 7bbaf3385dbef6f098333cd38b588830dae4b859, 5f7ca5f7da94d4a5efecd39a0b7b92a71228561f, fa58777782d807707607187b2969bc0c92b5bd88, 901380fc2ac9e873058669f83904468c47229921, ee7a7c1cecf341082aeaf35ab2f9ced24dd38a8c, 7a72c8e43d1e10c4c0ef0035421343fb23993168, 42a6c025ca75fdc56775c7f0ebc149fa32d409ae, 36def05374606e71e417ae142a964ab0529b6443, 121da22c366fd97610c8223f6097d45f61ed18c3, 59d094ae630a51f20a4f8c78ae8cd26e21a18fb6, 4e5f876ca511dd932e2795f6c075c7cc614e6240, 87bff921d25fb9d3da1dae74bf5effd7f0ca130e, 40cee618f5e7877ed39b08194b50704bc69c45be, 32a70c6279ca9489a8d86dd926cf7fbc44ceb6d6, 3f4a6860f20a5cff36ce02b83698798ee64746ce, d7ab2343dccfd9fd0e0a65b92b8ced5c50ea2d31, a8ffb1d140f4ff834d581b51ae55d7a011af5032, 968d9e03c67ccfd80aabfb4eabb8a65697d57f18]","15","1","b7a7fb34ec3d71cb715aae8be9c7c02576e064ad","70edd3a2eb32521d5f0f2efc7de77a5a2f59fdc8","298d03167ea526f54551d2794d4081aad0075d2c"
"https://github.com/AgileVentures/MetPlus_PETS.git","182","19","[fabb120dea1e7df864112f3c26e695681536e35d, d0335f8f239fbbf39dfa188f947ed13caab61ce2, 92082c640d5f2b9ee4804b9505ffc9e149f15b86, c8af168dfb3351cd326296907bc634dd75d3406b, 758d9704d9b89fd7d13dfc0692816f35a3942fec, 4ace8396ba17c82a754e7f6654a3a119d50fb64b, faa8583b7d344f1e1e496b9954ea347af7f42ef2, e10fe8e322195913650bd939c20d2c5af59a387a, e57c24fc6bf5e1b3e1c668233ef775f22eeebe95, c0cc9fd6cd961a4950146fc11aa6475d4967f6a2, 2f21c934b46b73e486a40b628a22f4fd17936355, a1f4e0f9a01a2f54fc9b2a579ae14bcb70cc9770, c78b66a1cbebcc0e1c38d5d1bd664010cc2ba016, 97a88f8808ee60f4d727f094b87fea0012dc0727, 53ae60ae74c4591aefe12916944dc7dff0c2b6b1, 938bd1d14160c59c93082609027af8e0f1fcef96, 184b5931b96f067b107b1b4f69e3f6cdeb2535d8, 15160bd6c5a0813321222e70dbaa67c6a309bc03, f29261698327e7952c787b7a755a053c2916a306]","28","1","fabb120dea1e7df864112f3c26e695681536e35d","d55d63b851baed5d9a184255ee388b9faa4214b7","82189d40cdd6b8a7cc2ac34024191e7503c58d55"
"https://github.com/AgileVentures/MetPlus_PETS.git","183","2","[cd04e230495b2697a87767ebc8c644a60bed5f80, 0af81d385f0a3e0a29b05f8bac71417a450eb044]","4","1","cd04e230495b2697a87767ebc8c644a60bed5f80","d55d63b851baed5d9a184255ee388b9faa4214b7","fbd855f617faf26e054dbc8521763b801ea36cfa"
"https://github.com/AgileVentures/MetPlus_PETS.git","185","1","[13f376d050dadca8a99818532f67b373d01901b9]","2","1","13f376d050dadca8a99818532f67b373d01901b9","fbd855f617faf26e054dbc8521763b801ea36cfa","e02e0dfe210e0b39cbce4d550fa27b0d1f39703e"
