"REPO_URL","TASK_ID","#HASHES","HASHES","#PROD_FILES","#TEST_FILES","LAST","MERGE","BASE"
"https://github.com/CraftAcademy/gigafood.git","6","7","[65bca2e7441299fa1b4e23b42c8d6661328aee17, 6c6cc92bbcddb3b56583b05380044b8d749f7bb3, 418a44e778ef30d9728b8d764167e1816918c868, cfd254ce8c0c2efc32459c9444504a914481116b, 00ce2f37abae61e240c86054b561679ce6cca3ae, f264d91345349d2ebd22e4e36b59899d3650f75f, d3349dc619992e237e22533df3747c9ac6c41611]","3","1","65bca2e7441299fa1b4e23b42c8d6661328aee17","aae14fe87aa1b657c6a88524ddcda07256764b91","55e5365e33a48041d37936ae3e4ec02e203f382e"
"https://github.com/CraftAcademy/gigafood.git","9","3","[e35c061a4e7108d2450dc9650c350d2c0c146534, 6caabf7c62c905f850c3d542c07887bfbb68010a, deadb698f356d4846cb1019dac5aed9969c15519]","5","2","e35c061a4e7108d2450dc9650c350d2c0c146534","006cd97b8c712339c22ee3dd953e2e9674cff7cb","2f5b2aa99bf65067ace341338996151da122f824"
"https://github.com/CraftAcademy/gigafood.git","10","7","[466ec814a964260bbc1d1e92f0e49009a6bdf5b8, 39cfca28c5bf12154dd3b0ab19173a9b21bedc9a, b65f731de40e5a911a1aeb4bf2b5c7839569053d, 0ed537f50e1d5b39fe2e71e82f0677bf0e5e91da, 729f75d6f91cfedfe78c58da748481cce59a74b3, 16a37f4c1f3f606e50c8115d37a2a8c41d14ac0b, aec71dcc42a1ecffef7e66b377225bda86951b13]","5","1","466ec814a964260bbc1d1e92f0e49009a6bdf5b8","68fdfb596e6b744f951d95c75f5fbc7431a931be","4c33f08a1ea3ab81f7a406f5f49a0d80a0f57d7f"
"https://github.com/CraftAcademy/gigafood.git","12","7","[c1d8199e960117daad8720cebef830e25901a5c2, 17fa8d20f8055d921bfe1f1dd6ae1267c0903174, fa9fb25fa7ec5503b5cd9ef79f70d36e15cbb404, 1202067ed22d7b8c8e02abad2c0a0a55d702380e, 5a392707c35f539a339c535a618919a3a173dcec, 55ed15f8ed62c43ef2c7a39a11652f83ee9664fc, 0a42252a5b636790ae3c346dd93c9c3e891302e9]","4","4","c1d8199e960117daad8720cebef830e25901a5c2","9382c3df8bb924325ada9bc06ddd972e4fff2f4e","7d4037581f49cc622a6899a18120fba9b4a9981b"
"https://github.com/CraftAcademy/gigafood.git","13","1","[faf875669a1c6f45d2518ca37e35e1e7292f7282]","2","1","faf875669a1c6f45d2518ca37e35e1e7292f7282","9382c3df8bb924325ada9bc06ddd972e4fff2f4e","7d4037581f49cc622a6899a18120fba9b4a9981b"
"https://github.com/CraftAcademy/gigafood.git","15","1","[582e9a903c17255c8f848db1c89df89131b1ab33]","1","2","582e9a903c17255c8f848db1c89df89131b1ab33","2b5ca95501bbc9909a98f786dbfdf160b8bb04e6","b7ed751b6390e2ccefbd8298ae3f98e9558a4b32"
"https://github.com/CraftAcademy/gigafood.git","16","1","[c578cc5d0b0bedb24db9631c318923abc75ee008]","1","1","c578cc5d0b0bedb24db9631c318923abc75ee008","4995cabc8dc1f1ca93868201b8bdb7dc05eeb963","8e3ad86bc288455bcce92125ca08813ac4f38990"
"https://github.com/CraftAcademy/gigafood.git","17","2","[e171858c2589a06cfb166d2fe261b8e46bc54ca5, 235a7f8faffcfc236660cbc9464210d4178e7647]","3","2","e171858c2589a06cfb166d2fe261b8e46bc54ca5","4995cabc8dc1f1ca93868201b8bdb7dc05eeb963","29ac14e8d8b47a33d92d84f2ca7217b3ad15c7e0"
"https://github.com/CraftAcademy/gigafood.git","18","2","[e07e17a44d5fa744b2ce2460516bc1736528bc05, 13c76265f472133955de23b28d091b5015ec3dd9]","1","1","e07e17a44d5fa744b2ce2460516bc1736528bc05","8e3ad86bc288455bcce92125ca08813ac4f38990","29ac14e8d8b47a33d92d84f2ca7217b3ad15c7e0"
"https://github.com/CraftAcademy/gigafood.git","19","2","[d3f8f88cc1a445765551ec20ed535d7297b73422, 100eade8b784aa9737ff2ddc87a55e72d5c3925b]","1","1","d3f8f88cc1a445765551ec20ed535d7297b73422","018ffed49f617ac1536001a13b0c0bdd4ec3bd53","29ac14e8d8b47a33d92d84f2ca7217b3ad15c7e0"
"https://github.com/CraftAcademy/gigafood.git","21","2","[79247fbfb0b132fad4c183a9e469b3bd6525c6bd, aeb2a14e021a60d0e64c275f40f41f6961959fa9]","3","1","79247fbfb0b132fad4c183a9e469b3bd6525c6bd","097403335c6affa3cb5dd5ddb7128bccb1035976","f71a3773d69dfb9d4b93bb9f0c882223a9b17657"
"https://github.com/CraftAcademy/gigafood.git","22","1","[86ae02730152dcd6f3667b8397295399fbc3e7b7]","1","1","86ae02730152dcd6f3667b8397295399fbc3e7b7","097403335c6affa3cb5dd5ddb7128bccb1035976","576143bbc0c31f2dc1b9b509fe7a44114337ba16"
"https://github.com/CraftAcademy/gigafood.git","23","5","[e9fe557897be12754b10b6d203afedb3652059fd, 8e26fefcb7773772e25f5e96c5fde67d5c7c09f3, df3f71672c71044e76fcd71ac98c99c1f6c6f818, 3c197b0cd57c062c04cb8291a46d6bcde7666912, 607ae7cc118b3426903b231fbaf2eea9556d167f]","4","1","e9fe557897be12754b10b6d203afedb3652059fd","f71a3773d69dfb9d4b93bb9f0c882223a9b17657","f63e2f04b53a94fc835054a94c49631bec4dc0fd"
"https://github.com/CraftAcademy/gigafood.git","24","3","[576143bbc0c31f2dc1b9b509fe7a44114337ba16, eb4d020759055ebf03f7c20601b7008a54ec02d1, 2af28f8c490b7abe3cdecf540d48cdce79d18675]","5","2","576143bbc0c31f2dc1b9b509fe7a44114337ba16","f71a3773d69dfb9d4b93bb9f0c882223a9b17657","fafb4f6ee3a4495cf8d7da872c099edd136e4a74"
"https://github.com/CraftAcademy/gigafood.git","25","18","[0bc9496f31fe1a65caf88e86a2e346e0bf2dc745, 646cc612b8deaf401c5c4dacfd792d2b62caf11d, f2a45d77654630c007b85438c8027a522af28899, 93f19b58c37952caeed438e70a82a4299e89da42, e4a5a7aa80db51f4732d28aea28dccc1b35bc902, 9898fcc136d59840e557361fe7ae3a0ef19ecc56, c9deea7282b01b73609775299323868f404141ea, 54ad4bf1835f7f922e0fc73d42eac8e6f2ed5b2a, 161726b7ae2cb9621e6f98d678ce5ad6cac2ec17, 5c54e491d2e0e488f390d4dbbad6f54a2311df28, 975ae57368c69a9e254d9ee40ff3437c52836573, d58e170ea78b8a350e2c2ea60e99c29bc6a81c83, e062d385ce512fb20a3bf3d084e0f4ab428b1eba, f20f3216acf2f5cbbed11ecf6f870601191dbec5, 90f8a338dac7666e7106c8805af463452e35acf8, 980dccc5cd8cd3a2df5dacdfeac371e3080f05b1, 3072a70903a199fb76bb677435e27bd5de2cb8d8, cf7d58d4d5622a3138dcace31947e9a968ce0700]","8","5","0bc9496f31fe1a65caf88e86a2e346e0bf2dc745","f63e2f04b53a94fc835054a94c49631bec4dc0fd","5af8453453e59794e5de4a26bbd1f3797c278faa"
"https://github.com/CraftAcademy/gigafood.git","26","4","[fafb4f6ee3a4495cf8d7da872c099edd136e4a74, edd19775c1afd32eb943d36118355418c10d06b9, ecab17da38c606460413506ceb3996633b7bfabe, 09bc79e3aad844ece20698a9aa9914ba05ed2bbe]","2","1","fafb4f6ee3a4495cf8d7da872c099edd136e4a74","f63e2f04b53a94fc835054a94c49631bec4dc0fd","5af8453453e59794e5de4a26bbd1f3797c278faa"
"https://github.com/CraftAcademy/gigafood.git","27","2","[952d7ef4bfc96108d96b178fcf086800117466ab, 91c226fa850d79c0d34edceb0f3e6c92385d87f0]","2","1","952d7ef4bfc96108d96b178fcf086800117466ab","d9136a3dc65d787c5004d37fc4bec2d1e3328571","90c4fae866c697c3084c1e9cd29881d0c6c2186c"
"https://github.com/CraftAcademy/gigafood.git","28","8","[a50060b612c309a05f8a3f072e6faa621264b965, 8759cb6f9f929ae1e1ac7ae1f2059021e9d3bda1, 3aa3c9c0dcd6107c70a038d5673f5656a2bcb171, a8ea501bf2c1f27b81920f041dcea92b6c814ede, 8ae2133ea5f75566ca25b30fc0531bcc9c924156, be4bf08b6f51ab63b33859808ce61a4881308b91, d8e3939af13aeaf377fb20f691e64d1fd85b0f00, abc8ccaca254073b82d9bfa37d44c5e550e3dfc7]","2","2","a50060b612c309a05f8a3f072e6faa621264b965","d9136a3dc65d787c5004d37fc4bec2d1e3328571","12a80605e711ba99fbcbcff168d5aa0a018b6ec9"
"https://github.com/CraftAcademy/gigafood.git","30","5","[5308d4d00a9b2bcb01ce3079d6256e9c0be93584, 6cb5a106b10476c6f43f4a6f6131601d77f4ca94, 60c96ac9fc89623b93c64bc7c8a8600434f2d751, 402b78f33a595c58a1b39890d191155f5113787f, 4156ed3f1082b77c6f43ab33cc484f36907920ed]","3","1","5308d4d00a9b2bcb01ce3079d6256e9c0be93584","12a80605e711ba99fbcbcff168d5aa0a018b6ec9","5ec20856e9c197b8d832185b4621e4061c3be0e1"
