"REPO_URL","TASK_ID","#HASHES","HASHES","#PROD_FILES","#TEST_FILES","LAST"
"https://github.com/cul-it/blacklight-cornell.git","545","4","[33dc151ed3e5f58f828a3f81237661a76f3fb0a6, fcc0f46c4fad739db6ee88dd5dbbba5d2f2d1d65, 96a34b6793b84ec72f7495d225d9fdf48856f3eb, 4033ef4c630a1bb6c11b466195e0d2fedeefc1ae]","13","3","33dc151ed3e5f58f828a3f81237661a76f3fb0a6","a3c774add54f7cf3bde1b55bb365cf7294101558","c86e1d23d4f2bd19bda11089f596e2aef60f450e"
"https://github.com/cul-it/blacklight-cornell.git","549","1","[dd1863000c6568014b0acf88ed14eab2adc78844]","1","1","dd1863000c6568014b0acf88ed14eab2adc78844","a400bdff635e366bbd1ae24e55f2b134893de24f","df63b38d5cce1fa73ff5b293cbb3f595c259fb63"
"https://github.com/cul-it/blacklight-cornell.git","550","1","[f3d3073fafc8a03a6ef122ad5c45b62435edb5a4]","1","1","f3d3073fafc8a03a6ef122ad5c45b62435edb5a4","866c71f9570ae9a58759f2061687e7a2e8e65e26","115242c50d74dd2b160ee45d7c0268a4178fa126"
"https://github.com/cul-it/blacklight-cornell.git","560","2","[0c5c044a65cfbe382d69345e28bc2d12d0aaffa7, 89da2b7bfd8ca9c3e7455488558c46f9acc2e4ab]","1","1","0c5c044a65cfbe382d69345e28bc2d12d0aaffa7","f292d9688bc5daac4bd35266e07e16b770848120","071ebf2c2255ae487b9ee39119b49df9db5daa64"
"https://github.com/cul-it/blacklight-cornell.git","563","1","[ffe522c49be59021a8d713a9351a16bb3f79191e]","1","1","ffe522c49be59021a8d713a9351a16bb3f79191e","08171a033579d1e09673fd0be92aa52d6209f78a","55be991420baa38d07e3582c8a693f814c399bb0"
"https://github.com/cul-it/blacklight-cornell.git","565","1","[0bff5bc00e85b9a1086a3591b7e93e099505ef37]","1","1","0bff5bc00e85b9a1086a3591b7e93e099505ef37","132a82cec1f2c64d4bfda2ca17959383b4a79751","55be991420baa38d07e3582c8a693f814c399bb0"
"https://github.com/cul-it/blacklight-cornell.git","566","13","[7935319575d5e443b25183a283470f02a2487bea, 835dd05535c5b73cccf3e1a0e238d39c91061acc, ab2e6f03c056bfcfd06273ecee9247b4fe23b1d3, b500762c2ef85e76f9619c6b0db95cd476a6aaff, 03a9d121d276f5f2e18ab618da2d1f4585739075, 0ca559585f805f3c0b05193692cbd1fc09d2cb9d, 2257c83acd3b4713ce5467cf140b9e1b09e85781, 9dead8619b261de11725b9782a0a3fd00a9d7f70, 8b80e6e5b15f8e5c7a5c18b594181735e5e4b9a3, 616ff0974499365b01b80e4a5b51190f046b8848, 0a4c61a70550f7cddce2292f7088488d01dd8376, 4152a1f07d46bc4b22fc4e921169ebafc998c608, b856cf2726290a06eb15a66f005516cbc5bcf2d8]","7","4","7935319575d5e443b25183a283470f02a2487bea","ec45ac46424d9a54e5714ef649ee187145b4dd8f","88a93678b0722cf62e8844b1731263d0a05cc3d9"
"https://github.com/cul-it/blacklight-cornell.git","570","7","[d7f80f960e55cdb44f1d8588f2af91cb687ea3cd, 4cd4ffb78690229679dda04c9db9e4ce8e7e536a, b2014d88dae42397e9cd3230edd6bcba39cb93e8, 3d97c0a24c58d554ec6138b92835ee1e8cd21a94, a0fc8074b8539d4d7e1eb4bf80155eb94252dbf9, 86f1d99dad3ad64ff49af735a1ddcc69ae73793a, 281289a3429c475296c727eb382082c515714694]","5","2","d7f80f960e55cdb44f1d8588f2af91cb687ea3cd","978332ffa12a74b2a1bbbe4b8c274013b24563d3","a553431489db4e0dcd617ac710bcf23fd74bb9dc"
"https://github.com/cul-it/blacklight-cornell.git","572","6","[f456b02b4fdc2bfa2a9d8ce980549f38c0643f8b, 9629acd0dbfedfa7fe54c65b390e47f42dd94a0a, 59f9ec4e03df82ea37e660731e475b7488013474, d6f98343dd31ae24db866941f076c9eda2b5c77c, 470caff7b4794c9de9884477eeedb205b8709497, 268021068fbe50abdbb1318102a0088f00ed92f2]","5","1","f456b02b4fdc2bfa2a9d8ce980549f38c0643f8b","3d0731d3363f9fdc4e99efb04e288df361d6ea29","c2ba36fb617afd9e9ecfff20b42292a4ddf0ce97"
"https://github.com/cul-it/blacklight-cornell.git","582","1","[4a6248bc50c6c7e64cbcdff371d8cb8a01224caf]","4","1","4a6248bc50c6c7e64cbcdff371d8cb8a01224caf","e71ce8bd0864760302397aab1abab89adaa610fc","15eec9bcb8c498dee269b27653f3100b1e389621"
"https://github.com/cul-it/blacklight-cornell.git","583","2","[280be6fbf4160ec45cde1f2998b3cc9a4c385ba4, 456f06f28c94c61a799b57e60c98d59991bd2490]","2","1","280be6fbf4160ec45cde1f2998b3cc9a4c385ba4","e71ce8bd0864760302397aab1abab89adaa610fc","c2174bbe5853c4a01dd53febc2d2f3dd16f3f0c0"
"https://github.com/cul-it/blacklight-cornell.git","584","1","[88d106a197aeb4d4663adfcdeabcc2fc0a630fbc]","2","1","88d106a197aeb4d4663adfcdeabcc2fc0a630fbc","c2174bbe5853c4a01dd53febc2d2f3dd16f3f0c0","217cbf6476c37882eca7d9c25404bec1f54398f7"
"https://github.com/cul-it/blacklight-cornell.git","587","2","[ff8a8a749e9a443090eb18be0704319c8f6bb11e, f6beee7bf25574c1c3926eb6266accabb4b426c6]","3","3","ff8a8a749e9a443090eb18be0704319c8f6bb11e","4de73aeffbcd3fbef694138eeb31320d3cb5cf4c","53a361c689951660ce9a1021385a7d21fa6eee80"
"https://github.com/cul-it/blacklight-cornell.git","589","1","[6235b5fa0e139f6e5c9dc7a5a3fca072386f322a]","1","1","6235b5fa0e139f6e5c9dc7a5a3fca072386f322a","53a361c689951660ce9a1021385a7d21fa6eee80","28f613dc137edfe5c4db5da61087b65ba0a399df"
"https://github.com/cul-it/blacklight-cornell.git","590","1","[28f613dc137edfe5c4db5da61087b65ba0a399df]","1","2","28f613dc137edfe5c4db5da61087b65ba0a399df","12b6b5d59f4ff8b3992017bafe913d5389f19bc6","dfc6902f6319acfa7231f977648a98a5c14bfc16"
"https://github.com/cul-it/blacklight-cornell.git","606","10","[dc55fa116ee42abfcd0d551ed4f04444afb036bf, 91febb6645d2854373685e47b129debdd48c5d7e, 28eb5b392488e012cc8c6a3b4cc29806caeac1b4, 4e28071417e4259e3a3940ca5751a1dc5451b6de, db755ffc9a7f29ba05d9bbe0a93c79661b1f5fa0, 3290ff00fe17cb91deb41b0d1124be66aebb68f8, c11cf84f38099745c1f5408115f9369b7d331424, 21b80dfe787f458a9a76029d57290182c4ba4365, 5866b9526deeb678bdce3b5e289bc20096b16c26, 546fb55810570aebf848ee95cda71bed23727d68]","4","4","dc55fa116ee42abfcd0d551ed4f04444afb036bf","76af614d0f5ad268fed9924c93417e1ae107f3a5","2a940b26abd40de500e7c9b7b2a1d2e933b387c7"
"https://github.com/cul-it/blacklight-cornell.git","610","1","[7b527878d4bb7a4402537ba71126c9fa5ffe7462]","2","1","7b527878d4bb7a4402537ba71126c9fa5ffe7462","3a52e99797ad5c9f9c6fb09ae073581cc88d695f","9f07928d7120ebef0ed9d616a738e9d25e093540"
"https://github.com/cul-it/blacklight-cornell.git","611","5","[83df25c97da7253e271854b0e2b5b16dd9eae187, 2d32e4dd77e941b7985ab4eb863ebb49eb2704a9, c31abfa5b83e208788dd9ccb4687a68f283d00f3, 63494f64afc2148d763efaf3370fab7e70e1f067, 58dd84eb82665c3beb887e96d8d3b67cbbc1b46b]","2","1","83df25c97da7253e271854b0e2b5b16dd9eae187","d765201cb05cbed72ca474a53745840f9d3d9702","280ccfe01e23b0cf794fcf0c46b1b6dc73c622e7"
"https://github.com/cul-it/blacklight-cornell.git","622","1","[1f3fefc814da948db068e4840e7cddc0d4b45178]","1","1","1f3fefc814da948db068e4840e7cddc0d4b45178","918805dd8888da1d6252c24bf6404ee0a67e2f05","8c36c5471e7fbcd981b234dc1955e18903123580"
"https://github.com/cul-it/blacklight-cornell.git","634","2","[2428590ec675e2456481df9e97dc51fac9f09051, b286fdd050894d7f6f8841e9b324554eaaf73bff]","1","1","2428590ec675e2456481df9e97dc51fac9f09051","62a33045c2409004d663c01f0019d1b6e16558d4","6a5ad860e6f6ae7fb652e9c51ff71bdafdd3e8a7"
"https://github.com/cul-it/blacklight-cornell.git","647","4","[e133991f4d53f92d8db16639dcd061660727f4a4, 9ece1394d4d96cdceae8ae2875fa73c6209c1065, aef0536d81d3b5268cb34d5986f5a00dc4c7d60b, 84a15634e9be77224cccba55f0eae32fa8caace7]","1","2","e133991f4d53f92d8db16639dcd061660727f4a4","c14c7b399ec66a89c840f03f8e4b1b7093cc13e5","ce7e41a0ba03299a2f91174cff3882a3b674bb0a"
"https://github.com/cul-it/blacklight-cornell.git","648","1","[a2efa06a1a530f7f85228f51c98ae127255a73a2]","2","2","a2efa06a1a530f7f85228f51c98ae127255a73a2","ce7e41a0ba03299a2f91174cff3882a3b674bb0a","66706f114bd6b7b2ccabd91406cf7057d1ced5f4"
"https://github.com/cul-it/blacklight-cornell.git","649","4","[5a4dc40d32b984ac7ec56bcb013495b6f76a9668, e998cd9ec0b93c99a253f9c280e69357dc945fbc, e7c595841e884c8bb256f187e02668d73717a294, 9d8f9172980875f9138442f1087252d26aa51b16]","9","1","5a4dc40d32b984ac7ec56bcb013495b6f76a9668","ce7e41a0ba03299a2f91174cff3882a3b674bb0a","66706f114bd6b7b2ccabd91406cf7057d1ced5f4"
"https://github.com/cul-it/blacklight-cornell.git","651","1","[f3f37c40b0db281623642a7bc3357512e3262321]","2","1","f3f37c40b0db281623642a7bc3357512e3262321","66706f114bd6b7b2ccabd91406cf7057d1ced5f4","a8c72029186f1c453e615a27c53f34be5f4f30be"
"https://github.com/cul-it/blacklight-cornell.git","652","2","[7e24b7b6c08bfeca96139f04efa6920f80e19a48, e197e370ddfbde0bb498873ebdb95e8db3cb0e4c]","2","1","7e24b7b6c08bfeca96139f04efa6920f80e19a48","a8c72029186f1c453e615a27c53f34be5f4f30be","83714ba036bd15f14b5b906b76da87a7c262ab8e"
"https://github.com/cul-it/blacklight-cornell.git","658","5","[eda38445db0019329597d496c6d07708313c4d3a, 4e3e6eb7aee8a160dd59b10e0be172d55b28fa22, 5b5b864b0a14d732664e6f1a9a90da486fe491c2, 2ccb7ef9858464a010b109f2841c67889140a879, b483b761db682a217d994b4f78d88489ac64e57a]","3","2","eda38445db0019329597d496c6d07708313c4d3a","2ee8c5dc5635b24020f6b169c6f683d5c772509e","9d9fea8e02aa75ca532ab6f5b79bd9809ce5eb93"
"https://github.com/cul-it/blacklight-cornell.git","663","3","[22cf7c5a084484603ae5ada6f6ddd8ef82ec571d, 0533a6f80770a81c207b098a9019b6d73c84ea3d, d7fde1fded48dc226d6d22b26d5acfcfbc7b57a5]","7","6","22cf7c5a084484603ae5ada6f6ddd8ef82ec571d","16eda5c2508954abf3e2d9a0cef96ea84095a615","09d48e7603ba5f88db5a7623098ce0287b4af299"
"https://github.com/cul-it/blacklight-cornell.git","682","1","[5d91efd9b79fff11306142fc6bd76bf16059850a]","1","4","5d91efd9b79fff11306142fc6bd76bf16059850a","affd4b8c1b2abed3ae620f484c7e8729ab0d61b2","69bfc3781095d28b84996ebbc980ec445186a104"
"https://github.com/cul-it/blacklight-cornell.git","684","3","[3a3ef21ee79e0bad96a39bbf3e042a084010782d, 8ba505ebaf5cfcd817c876a075ea20499a720dc0, 7aaa04b29510745c7a2ff2382356ea5cb10d467f]","1","2","3a3ef21ee79e0bad96a39bbf3e042a084010782d","69bfc3781095d28b84996ebbc980ec445186a104","297a6cd2afda0a970bb5cc9c02d0fbc5547a4386"
"https://github.com/cul-it/blacklight-cornell.git","692","3","[38324c4fc6682b72a8533bd835c5595c5e259826, 981134cd1ac06fdb29173d31951e13c19ee04996, 4fbe9d566f9124a4288c18b18138fe48c0a3ab49]","31","3","38324c4fc6682b72a8533bd835c5595c5e259826","acc3d5b4644123793943b6179ee56d35f782c8e7","8f3b0321ebceabecdb32faeb8addf8ff98b88293"
