"REPO_URL","TASK_ID","#HASHES","HASHES","#PROD_FILES","#TEST_FILES","LAST"
"https://github.com/cul-it/blacklight-cornell.git","167","3","[03dffb74c63e701bfd79c58a38451a902bfc88ad, 9047032da90db54640d4dfe1bff6bbb966fd565d, 8bdce3c547262baf292d36cfc95e70c15ec06ddb]","1","1","03dffb74c63e701bfd79c58a38451a902bfc88ad","4f3880658fb5db36136c153ee18cb356b3cbe47e","231989e59f64a95b7e2048dacae45f05692e2873"
"https://github.com/cul-it/blacklight-cornell.git","181","7","[7740663b49292eb1ec03a4ec59c16b744113eaa8, abaf2bc20d16cb8e60df159de8e0189213ec65b1, 69beb958174fede43f9258e611d1390615fb2c84, e57497b76a21913e8af38353610e03dda35a07ec, 1edb0b6c9c3c7219d97c13db5e57898e33835e91, 61d7eeae2eca68a943a888bc6b92f2544e02874b, d073713c922c1cc4d1f2260cb2cb21fb88865b48]","15","5","7740663b49292eb1ec03a4ec59c16b744113eaa8","6b2e71b553df253904d3e85a0e2c74f228007d56","61fba65f3204025e08e3f768858186e6e1568b38"
"https://github.com/cul-it/blacklight-cornell.git","182","10","[74f71ac1e8607921b77307acc8dffd5e9aae76c3, 8f7c7d575b934d83037cfd4fb0ab9aa3fc0a0a64, f9980a1710dcd8a6502c3e048ca5173b30fc7c3e, 05cd57d83b55f694a5674e8e9209c11ae5748842, 4c6376add8fbd7548fcd3acd51f408e5d38301c6, f2266d1704eb3c4c1c7a45bd575bebcc2b22d1c7, 81dd51d115f5abe0d0b9ff0b5fbd4babe20060a2, 20b12957555313ef84aa6d3d1f444285cf077653, ff527d80779bcf3873a9b8bf79a7ecf8b5b744e9, 45c88954c11ec9b1a83df415b8b3b1b592301808]","1","1","74f71ac1e8607921b77307acc8dffd5e9aae76c3","5ccde117dc1fcc36f18780881bd38f4a72e0323a","d4cde0887fc9030580f61b0831cbaae15a2baf23"
"https://github.com/cul-it/blacklight-cornell.git","191","29","[f7e9852d0b4b00dc65aa1c6c54fa0af94cccf913, c1ca90df774ee1ad34f2d937711f10006daa69c0, 0786a6339140183686c37414e379dcdc6b45b605, 79e3f739c744372a76be68f874fb8d97f2f203cd, f07d52acf7223e59ba49a3eec978ce508d45c13b, bf73da6e10ac673f76cfe68b7fac5584d1adec53, 32f2452a6d9066007874caa3e903eab36d6d9d9c, 238b05e7b2b3cfb599b9572ff296699bfcecc03f, a0abda81f3e8293860f288211aa2395b770c3c0e, a93987cac80f6e59b1b06b1a6af71e7ad363c596, dd7288566d812b65b564e261b8095dea6724c999, a2b2652ca5e7a4039d02f6a26055d0a46bafdfdc, 5352df10231e9b8dfec67a6b805525f2c11724c0, a80f462ac8847d40ba3ca5353ce15dfef3fc642e, ec08969302435fb2310ac9a447c9e159ef0b2d4d, e1804fce8d3bee5c5039cf87d29202942a38c79d, 80a2f3249befe94aa2d525ca31d41976f2af1df0, ced40c6da3fe332b1075d4dc03fc913e51b77b9c, ec67d9e0c9297280e28b1c02fe08b0921c6be0cd, 732da2763566a8d820c201b05f44c5fe4781ebe3, 65f7989cd05b3470aac8158185dc4230a4e00d65, 1b53694e96211d320cd0cde942325e8ae902ad08, 1eb4eb5e19bfdca53442b0dabffd367283851eb3, d0636d267597c199571b6e2cfaf31b60de1ebe14, 6b74fff44045d14aeda89d4f23e5cdb23f1f7381, 1e87f0c1d73e051ee0cacaffb6483bf4c8f489f2, b47aae596f7ad83d940afb950e15d1b9e129ccaa, 4964ea3d0218975db013fc1908d268bb0b86c0fc, 4afa320c5d7a89eb49bf1c0df175eb8c075cf096]","9","1","f7e9852d0b4b00dc65aa1c6c54fa0af94cccf913","05df4b9e2da3e77350a804035c4cbbf786537280","3b5b0f5f0cdc23e5cd57af11bcdec824113d11a8"
"https://github.com/cul-it/blacklight-cornell.git","193","1","[e8c91f0ac6d8ffe94ffadc38aa8cde413fd9ac15]","1","4","e8c91f0ac6d8ffe94ffadc38aa8cde413fd9ac15","880aff1f8c7bcd083f68c52100452e66801430fa","52e866ac2539664ea8ca3f9f76131d0283882f3a"
"https://github.com/cul-it/blacklight-cornell.git","196","1","[7f1207cd772df09358f228496a3d1b4c8875cf03]","2","1","7f1207cd772df09358f228496a3d1b4c8875cf03","8e0d944102b95ef2fa2039bdfa1c1a8eb5dd9501","fd7753a84d22efc4dfdfdd95cd4140ac1f810479"
"https://github.com/cul-it/blacklight-cornell.git","208","7","[69886672d322926a4cd59bf566465faaf29949c9, 46de1de1b735f1653c8b0bb689f96c354899ca93, 3d99a5f436ed3b0e9735a8c01d5180734643e5a5, 4c7db62a29fd04b97fc2223130b39f67eb830749, a4460a73ae03ac62f1b60ce0140b604182ef7ba8, 8d5cd70d4bd6a66ec37e650c9239e985461a42ff, 086007ad2ca597ade80ccf80a655ec99804179ff]","2","1","69886672d322926a4cd59bf566465faaf29949c9","8e0e270479877812b656f27911aa80a1d82f353a","c196ba5777183978c46ac9db582efdafb01fa675"
"https://github.com/cul-it/blacklight-cornell.git","230","4","[1f533dde73332163df09ffb8b9c4f8ad80d3f2bf, 0ecb6584bb20a2dfc816e8ef1f5af3c591ca66ab, 82ac388ee49520e83c6a9b90078a7f559787ae17, 9717c477d1803902533d97857747bcff8df2e1f4]","1","2","1f533dde73332163df09ffb8b9c4f8ad80d3f2bf","049f0deba98c55244060a017f97c2a50212de97b","66cdd981d25ba5e85de3d074b784023076b68ee5"
"https://github.com/cul-it/blacklight-cornell.git","233","3","[f8809f8a556f563dcee945b482b2f13c5ba4719e, bfa8e04e10eadf2c158999b285f2f663a7fb4292, 6572d4ff1cf474d496dae53a8e2048aa3c2b5b52]","1","1","f8809f8a556f563dcee945b482b2f13c5ba4719e","66cdd981d25ba5e85de3d074b784023076b68ee5","f8754749be163dac5e9b2acec954b3db5f6f64c6"
"https://github.com/cul-it/blacklight-cornell.git","238","1","[655e41003a0afd7ed4fc4caef54681b468cc0fcc]","9","1","655e41003a0afd7ed4fc4caef54681b468cc0fcc","df2ef69daa275d4c2e30a801d89d3be2c4298ca7","ed488be67e5b9b568daf5746591abb41489f6b4c"
"https://github.com/cul-it/blacklight-cornell.git","241","13","[4da14d54f4cf2f49a417d06e5a6f9fbd3e2317da, b413f68fe055d1a1a7cd745a6696387e78c81b99, 83357bb37acad990de6a947bd88bd5ec18dc289d, a026376dcaf0aeda6b35251a2f70c3956612e1e2, 8395fbf333ded2ca3bcbc954698ebcb00dd6c7a1, 686b992f64c68d43c033fc60e967aeca2a47bd9d, fea17cebdd935364caefd29bc60db1738178ad16, 4bfe44d4e0b7c8c7e7d78fd70b1ad015a53342e1, 20f7e33d0aab897f6af85dd506546392a8001267, ef19b6fec787c653feace95223a45a0354129559, 4487abab2c84b65d3aa21ae136258868e8f65c05, df62d2900920111e3506ed795f5aca29be0ac836, e8c63859b6003502226097460a983f953a0ea1a7]","9","1","4da14d54f4cf2f49a417d06e5a6f9fbd3e2317da","ed488be67e5b9b568daf5746591abb41489f6b4c","3caa342182cef263535476da650db3a9e3104137"
"https://github.com/cul-it/blacklight-cornell.git","245","1","[ea568cae9851e10bdbd3fcf83776a0970ff989ca]","2","2","ea568cae9851e10bdbd3fcf83776a0970ff989ca","fde8dbfcaae767cdc1d88e6c967c178a7e6d38c2","beacadd78aa4988a373ebcc4585cc9cea801c309"
"https://github.com/cul-it/blacklight-cornell.git","247","16","[4696a731bd556ee9a4bff26cab2cb3f2696d0520, 396551001c6707f79c21f28e6ec6ac03098fd3d5, 6c27e2bc8a8ceb23e31acc17ed95daf323c32cb1, b4d014022e9d4af8e480d6d6558d54e19a13b14a, 638b93468e48d0df3339224b4340ade4b7cb5d61, 736f1b32dcf3fcdbb14d29453390d5b305ba284b, 1bf9aff5584c15bb6c995088057e2daad6f3bfe6, 32a456d04034c090238110d35413606a12a78c1c, 09626de67e454c0edc45b9ec1db97f6c9430368b, 758c691b09945eef228b6926ec101520b62c0caa, a215885a9b65c012c42c0895b88f2f4e713d6c73, 51bff795f505b22436b8571f986cb6a26a7128bb, 05f5bac586d7bcb97a25a0c7a5ea8154b421c3f6, f4c4e7f1520f3d998396f3a84c98bd3da723410a, 639637e727de54fe98b4f445084c8e617fe62728, 68e1bad136face361e571b624eb3e696d82c9c00]","4","1","4696a731bd556ee9a4bff26cab2cb3f2696d0520","b8a513b391721620af7783590a039a78bf91bbf9","19f3468f2849a9d47f537ba212035aa1cc5bfcee"
"https://github.com/cul-it/blacklight-cornell.git","255","6","[bdf3aa76d6a8d7eaa4a2c21b495d88f47324f502, 4ae02c0dee3f538bdb0f5f51c35007c54994d8a1, 4eda922b2052e53a517b54c96fa48c0b0bf4e838, 6e3bd98eb652a161dd6f5f67eea867e7a83d962a, df63c9a115ea358ce8a47552da7ba8338d697183, 7092c467ccb3e94152eedeed69e480f882eb9f55]","3","1","bdf3aa76d6a8d7eaa4a2c21b495d88f47324f502","f8b9d2cf2c9166dc7fd1f232b19af694d030e1ec","277dc5fc40a2ff24695d85f958ff03fab78d89fa"
"https://github.com/cul-it/blacklight-cornell.git","258","2","[39527348914734b4f878d2f94c33618251d45911, ac13df84800e44984a557f260b51bf5248637db1]","5","1","39527348914734b4f878d2f94c33618251d45911","7edcb6cc38597d67b85e5e98466dc02c7b1aa4f9","5c1805e24733444859daa46ada7463d4cc7f8bc0"
"https://github.com/cul-it/blacklight-cornell.git","280","6","[ad3e88896b3f323c7dd04c600fa40e64f2607df9, 3cb2ad91a3e46d2e0298fe1583c04a7a6e7f7dd4, ffc0e407590e5f71c6c7d6c7fba93b0c0da118b4, 387dba42110b68b8f46ba407555b95821395824b, e1483f4633342206384a58c8c9e45f8f387b225c, 9ac68591305c2c92a81ebbddf206b6d1f706e471]","5","2","ad3e88896b3f323c7dd04c600fa40e64f2607df9","8ab674ba67c004050ea167871b37b12052066919","60d61df537fd77dd9e463c434596765e2620d984"
"https://github.com/cul-it/blacklight-cornell.git","281","3","[f9bad13c71a338afeed28ac134a00c375a8de4d3, 8d9c4b563c48148bca3a5d5d2a282064fe733f41, fcf7bc055ec1dbaf0c2a69acf5b086691eac0a40]","14","1","f9bad13c71a338afeed28ac134a00c375a8de4d3","8ab674ba67c004050ea167871b37b12052066919","4149ab857a4d9ad6525e79ccf22a81837622509a"
"https://github.com/cul-it/blacklight-cornell.git","286","2","[299d50543b7607636baf78153394db5b76d07820, 38df79dbd4630721a1fbe0772d191a6fbbde4195]","1","1","299d50543b7607636baf78153394db5b76d07820","4149ab857a4d9ad6525e79ccf22a81837622509a","02980ba5259ca3c3429cc73b14ad82fda3aec26f"
"https://github.com/cul-it/blacklight-cornell.git","297","3","[b98975af1291bd7dc7c4d12b2135dc70153ce636, b9c4420c0e4d6f22606c7b04179c85a8fa3e5380, 797a30ebab5a8da9ac892c606e18f72664774327]","2","1","b98975af1291bd7dc7c4d12b2135dc70153ce636","a84b66f28f1bf1f703eb642ec9a44cfee31b370d","63177df58681f7fbb5a0b4243334a87e2e31b00e"
"https://github.com/cul-it/blacklight-cornell.git","299","2","[e9e29ceb320c98f4d845e59c2fd5114740140e6d, 3c45ff1dac3f66bda33f40e98fe8d72389b05374]","1","1","e9e29ceb320c98f4d845e59c2fd5114740140e6d","d53a2a7e9b535369839207b1c8428e0313e2910a","7f86ed5cc06f586eb87f89188aac5373479f7e92"
"https://github.com/cul-it/blacklight-cornell.git","304","6","[714511a689bc03f8a3c32ecf7c78bac747f52213, 867e13c0243f07ced55419dd83b3d97d0fe6f3fc, 9a86e2e50de79c2a6bcc3a96680109a337e09fde, a4928f2fee42d42b27b5ae0e4fec2e81f98b3ac5, eaa8367e36408d9b55acee80a00babaceefcee96, 6014a80f0c49ec749f7b3deb6c1fce9bee8a592d]","4","2","714511a689bc03f8a3c32ecf7c78bac747f52213","284a9017441a6be91d6ae7d0091ab369fff91c63","dc5a1af73f83f206477f1d1409ae4fa2a16f0a8f"
"https://github.com/cul-it/blacklight-cornell.git","306","2","[a70b6e5cdb4a56599780fb8872af986768a593cc, cdf1211168c0f6449f493028cb501a509abaac56]","1","1","a70b6e5cdb4a56599780fb8872af986768a593cc","f3efcadff62f2485b979f38c57caf085428ef3b0","0058823a4948b929d9e6fb8925ab1d9dc03152c2"
"https://github.com/cul-it/blacklight-cornell.git","310","3","[15a73b8663e131518f3bd9d3d11f60a8541731b4, 7a979c46f08b73d6bec691a94e863e167dffce04, 7d89d28b5f7d9c313a4ba93927582545760c2270]","5","4","15a73b8663e131518f3bd9d3d11f60a8541731b4","7542cbc8d00d399d5a3fb6c5c6a54215a87c0ada","828a039b5e6d57b18dddc71666b89e7f16b23267"
"https://github.com/cul-it/blacklight-cornell.git","315","16","[6fa9ad1f3e67531e5c69b5827612fb4be3c93586, 5d6142f419101d5bc45422859f987d3ee7813650, ffa9397d7a801865e09afafcce7270fbd7fe240d, 5945c693172474b6a0e5b18c1af9ffe0844e311a, 105f6c6d6d5f7dd6657b34dab7c84be5d09444d6, 48d522388e28817555f66fcdf85cc28b1e603593, bde96faa1113d7b9f0545e675007a67f86a117fe, d9adf342dbe6d0d8d6fe900d8c6a600b98de66b0, ede77377772ae37589f615b0430cdd28709bfe72, 21a822be92ecfb093b82ca5f2771fd4e5cc39305, c8fe85cf926088109def3060a874c493505efdf2, 6a06fb4bb953db758ffe44b88cbcc772852494d6, 6e68434ed589d94ea8f56d3ed7ed034c1862c8c8, f6a986bf85be66a6fc3292fb4eba540308c5f1be, f42328bed670ee59e004453cfc35ade1dfe492e6, b487eab9cc2ed19eb8f949ed6a73762810dcaf0d]","11","4","6fa9ad1f3e67531e5c69b5827612fb4be3c93586","ad9c4457c0bda477e6044180e86d801439d95c37","97cbefcd1873b21dfc28231fcb930d86882c789a"
"https://github.com/cul-it/blacklight-cornell.git","318","2","[51ad9acd87cd1e4d33c1ac8a8cfffff4e98918e3, 0455286b57a3508f1bd0032d36c7bbfbb0226afe]","2","1","51ad9acd87cd1e4d33c1ac8a8cfffff4e98918e3","210aaa53f2301577a505667e1a187b77197c16ae","4458df783be62953792e00a17acf527a15c2965b"
"https://github.com/cul-it/blacklight-cornell.git","320","10","[6c94202b8c266db2586dfa6e7fa2ac30646bf203, 2a67e300d434f030c98c9e8829f167a3323cd7da, da572436785f1b3195b4aceb8d53902a26bd6a31, 6f64ffd7338bf85bd92b6aa8acdd061e6d5cf94a, 716c308abc795f2cf77569a82ba2fbc7c24e70da, 745ab4ab2002ada58e0802e11e7884f0e6397404, cae3b9668d05f91a0f58f2d91f300e78f5e8f0f5, d379498d56cc47fb28171fc205f585a2b22a1486, 752fff3418148a750a1d780d139e3f3e5039d027, 9085082a211485f5831215ca60ea8c7ec54158d6]","6","1","6c94202b8c266db2586dfa6e7fa2ac30646bf203","3f09186377a2f288fa1bcd54cdfe8b9ea4304e9b","7289a895a0f5abf9aaf438a55acd2c9a77e102aa"
"https://github.com/cul-it/blacklight-cornell.git","322","12","[cfd700133faf364e23ec0dda982c45c2d62d2463, e94b90afddf11d1dcefd2e3870d22b97ecef27b2, ad2bd1488063e246fe052ade2d8504f0b598cada, 53f3dcaeeffcf08dee35699543d1458a286a7e5d, 245088131023a886836d06825d3ad78a2fdaff03, 59da327c771e57672d5d6eb1debd16f0bb5dcb48, 083a256a979a20b0198fbcaaef26b13e0e025b42, 26ca5133dd04eb7ecda92b2f620b0346f512ca1d, 2cd76568d1947bad63551b94954ae0d836f5af72, 49648f5c0d9056b2aec18eb15e638d60d452cf00, bd6717d3dbc79a7258bf4b16f531a80be6610663, 27419bcdd875b03b5343cdbbe8d082cfbaa5a3f6]","18","1","cfd700133faf364e23ec0dda982c45c2d62d2463","1a085faf5c1e378e836ef3e618e77ee067c6babd","c54b26f62c7630c6b56711bad2f2a2bd60cd2e24"
"https://github.com/cul-it/blacklight-cornell.git","325","4","[bbf37233e19a8a67052a1f99349c4327916bb950, 54e079132de511d8963aa05f7f30a41255904d87, d774addf248992bf4694f9dfad7ad7ca627fe341, 00b2273e7ea22c2f9442d4aebb5f928d3688e63f]","7","2","bbf37233e19a8a67052a1f99349c4327916bb950","6a477c113b5858cfae631160e7b00bfb9e4ffca1","0549415bed7af170166572863efe52f5fc563fda"
"https://github.com/cul-it/blacklight-cornell.git","328","2","[92b3198217cb8019743d1b818a87b1d7bb6cea34, b422dc8869a87813e11f67881630a6046a3817ee]","1","1","92b3198217cb8019743d1b818a87b1d7bb6cea34","f88a85de6f87f61703200b16c3040488a16757cf","4c757a84312b763e10ab94eb6b07897dd5655164"
"https://github.com/cul-it/blacklight-cornell.git","329","5","[18b2ebe87336f3aa00e50a72203b331160071977, 6901bda465af5b928337dd1df827d0f37ef58838, ca5bffe861401c3a4f1fedd7269c34139d8c022a, 1b03e6dc848d6ba6f3d6b6520b776e4f8a361ae8, a5a5569c3c0b4d5bd5ffaf619f8205188fe73ac4]","2","2","18b2ebe87336f3aa00e50a72203b331160071977","4c757a84312b763e10ab94eb6b07897dd5655164","dc4a70f8ce36bf2c07e371dfa9cf80260055a57d"
