"REPO_URL","TASK_ID","#HASHES","HASHES","#PROD_FILES","#TEST_FILES","LAST"
"https://github.com/dchbx/enroll.git","3293","59","[f5b42c173a2bd423ea76a8ae454b694dc95597cd, fd119744873170404d353980dcfb118751b6e44e, dba84c03dd3122c6cebb63c44b0d398b3f6008dc, 5889588dacc7077e90e6f6e583123dbcf2973ea7, 0886ab1915fe4d82acff8c2bebef85814607948a, 79b672ebf61e5b27241d14eb5b9dc792c8e9310d, 8c05e5aac8e362fa1bc3548bccca4db2ccbff741, a1f12aac89de10682106946b7785f0826c8f3ca6, 949b09d55dd8da2fdbec3ac57091094c69a77e2c, 4a51f28c17d3300268511de4c885f8f09357206b, dca73fdd15bf2a816ad548b6cd4c460d4403ce19, 6f8179988430ad854d7f835228b95d55ce98c907, 5b28cbacf57e23c4a67049cd6104e3feb2bbb5a6, 6319603f565f8ee75926d79520e3e1563524a09a, 6c8e1be1c123e400b8c6d0ae5e2ac0461245363c, 71010a173db8f3119d85913b5f8e6e95c238f3ff, 8a6d251c3040e3c0d686e8a3e0146b73ea9e0db3, 2f4a0b1fee0e0186861d1975df58e5b3418e686e, 56d10d2e2e261152ca7b95024cb606a79d1ce352, 535919ee8daeac6b4a5a3abf43415bc449a58819, 2551fbc4d17876dd196c8a0f9911947238fa542d, 45ced1d50b11814be57a2a51a3ed5a9984bf16be, 0eca63477a44ab5432c3199766e7e7608733b6c8, 180d2f681243d1eaa1e91ca92c479fcb7565b7d1, 924ae9dc0f9ab354ebbd005132ca9471774ef9c2, 67aee37390faca999f9aa1bfcc98a077f03b280d, 5d24d4a2c9fe4b8f9e9ce890220290b61ef3d742, 4e670b9ef991b8b9f77bd986e1d1aac676c90d95, b6a7d954cefdc2caf66051a0d9fff127ffbc4e04, e74cfda30147259b5985b3c52f91f780c7e6f9af, 246eae28ad4328ea499de20536e6a9c49e9ab8f4, f529effb82192aa1b9a4745daf2dc27b9c46049b, 4df3412c8305630490f9d2cbbe7b32c417f6c075, 8ccb5f200a5a0b68bd286d2716ea0b7082d5a976, bc8aa970cf3e7fe1457a329e9456d71f847c336b, 24908de84295e57f9b34fae254e46e67b3caa3ad, 70d515a002d414f3828eeee6e6a477ef63019292, 3452533a8610e05be3e5856b84a689fe7660c1ce, cfe67101d68baffe5fd3e563740137e4d643a42d, f8eba1f6746406288ed996738474f2b92d49cc46, f90018b27b2feadc4b1233bd20245e1e5db2beb4, 7cab99e674b35c98d6390964e4b2d4a633cb5111, 149f5b6e756c168935925882db7984e645aeff9b, 50a1b08c1aa53a2cc3de838639b49cd508c41b7d, 957cb1a128db0677a5313fe4808bf8475feefff6, d5ad79dbfbc6f8ffa05178036cb4f4a0619fb066, a4287c1ace779e7bbcbc328d7cd4263ffa89ac34, e44efa93d767e8fd069d81e80a23a38ffd6aee31, da82e1dea849e7a1e07aa6d605d9bd143c3aa052, e8b71fc6405dd4074935ac358b748007d550ef06, 77fa1263b78437363e7b7dbc014dd65c87b6cb40, f2fad38b662ef179b4eece664f0f466d0c6061ae, 4d28b59130d88b5869cba5250f792d32b42bf16d, 3725d51ee6e8f62bf204ccb0d6b4de9d9de8d306, 11f269b6d8e8f791b2f6093593a80b4c82dbe52d, 0ddff7789b99077270902529a8fc0adc72b00912, 2434ee4ba88ba85bea6ba0066f71eacc814bd1f6, 892bbd9333a6be13bf7cd33f27212fce7b4dbf28, fd858ed5d1b5622e74a09a7d58eae3e489a478f0]","59","3","f5b42c173a2bd423ea76a8ae454b694dc95597cd","de829b7b89b2eabbb3298aec8340cdecffcc6376","a869c7743324778378d8025efae59e18ca77e706"
"https://github.com/dchbx/enroll.git","3311","3","[21f65e62359dfffb5b32ebeba23ee6207ba5f637, 4f666cc4dc3c7fbf09ba9fc896c781bb8abc2ab7, 1c1a890d42d3d05c9a887c1b82ceab374c460af3]","10","1","21f65e62359dfffb5b32ebeba23ee6207ba5f637","5820499f4c4a25f69e52675a8ed3d02836fe95c3","c0909f86754d6dd7a327a61f0655d5b50e648660"
"https://github.com/dchbx/enroll.git","3330","2","[ddcde660c036721f419342df04889339cc72562e, 9ea076b16a1ba6c9ba5e8794cd039f6f8004671f]","9","1","ddcde660c036721f419342df04889339cc72562e","3a32d0046f1493fbd4b87790592c09f6bb8e954c","ce26649693f7cd5fe316e10098fe74841412fc58"
"https://github.com/dchbx/enroll.git","3334","8","[3b21f8d0b2f1f051f30259e82f8ec208865b60b7, 45633f86eb55afecd8a29c4b3b232c2e457d566c, df6d9eb74c2bbfcc1b5d50eb4299b8d5e7eea396, 8ed2ad8ce59d431ddeaece1cb83664c5e10dc1f5, 4601fa2f3b488d8325a668b473b9015bce59e1b0, 9a6c9f8d8e638323eb03edcc754b9ecbee55f189, 4505e79b97bd18ad3c04f6863491430c6320806b, 386240590422ed9750a9a3538f63c07c11cc2114]","5","10","3b21f8d0b2f1f051f30259e82f8ec208865b60b7","f53e26c5a82202a6cda05b6a87a8ac6e1d09d901","83e430cd6d3cd0fe9bf413ad550b93a3fc3d0ada"
"https://github.com/dchbx/enroll.git","3342","4","[5b9057216d54dc26d1c6a1af573c0d7bc5dbac22, 15b28e848cc0a7094471c38429bc75739950e6aa, 1155363d5ef9225c372518a219d5f52b1373d559, ccd850892aee5ce8991777087dd8723317d53dab]","4","1","5b9057216d54dc26d1c6a1af573c0d7bc5dbac22","069943f4c72c3ead34dba5caf8fd0f91aae98148","632435e9947b04d2bbe404bfc7a25bec6fafdaa8"
"https://github.com/dchbx/enroll.git","3369","5","[16900395437fd4db0f825aef3bfebfc65558f134, 910289c7e66300a003e8ee413970d3cdc316fedb, 3a0c1ee2670fec29967f5f180859998ff7195bca, 1df5e661d9e04b6b34b72e7179c61d05146497df, c7117912d970dde0b7205dcff0178ce605cbfd9d]","9","1","16900395437fd4db0f825aef3bfebfc65558f134","ce26649693f7cd5fe316e10098fe74841412fc58","917583c8b91945c50a07641dc20bac7ade7bc88c"
"https://github.com/dchbx/enroll.git","3385","18","[4edf009b24908e99bdf3ccf3a673441169cf1e85, 8e607fc38742307b5640421f52f8a37505778f45, 2b83026f799a34727843c84b3fd25c3fb56f0cbd, 18eb47b1656b5e838b9455a43bcd122334929215, c77767204275fb4558dea3e9678b657ca719ed05, 8923d94c454e88d727d4602c808600f3620ae4f8, e95e8e6877de011ac51fb0cd4e3ca9cd99ea64a1, a1cd94b1f1e9577341281e0fc007dabb114f9d46, f47ece6033184e3f13588b0e72a2e61b1851a814, 02270779903fc3eb9c1ba0a103faeaa20b3d7bdd, 024511c36a5116e31f1b7be97a70f96563062c06, f98d4d1bebf33c029bd51a9bc81843a3b98fc47a, 046f20c5fee01a9116cd473cc198d083f66dafc7, 0a3448856d338971d328252c229a02abc074daf6, 73fe3c027b46aa137028ae1d8749cbc3b206c897, d87e5592c7151ff7d2398825949cfe0f07737553, 75576810224d3d62fce11b82cc60ce13ea449b68, caeae0b35b49bc1681e0cde14c7923d9d2a82112]","6","1","4edf009b24908e99bdf3ccf3a673441169cf1e85","2ccb31254f54a626b9fee543ee743df9f8adac8c","72132991bdcedec6bbad745efe8aab25e4febc4e"
"https://github.com/dchbx/enroll.git","3395","4","[93b972e663443be46dcb3b913288d34379a6d385, 875378425969df1dc04f880e47157ea158c86735, d933b7936c71f2f4277ff59516a1a02e1477cf93, af4c0dfb8152738cba05cf252732989f18da5382]","3","1","93b972e663443be46dcb3b913288d34379a6d385","04b1a64fbe7bb08f8ffd94e42a84ac64c8d87f84","18a1027a984153a648479f3fef1d92fc418006f9"
"https://github.com/dchbx/enroll.git","3396","18","[2f193151906b1ff1855d6cf57af06798edf20c0b, 82b4e30cf54b772f247a01920ac1dd647d0325c9, a3958abe22fbabbd3b816b4a691f478ca927c04d, e6a2af11fec843ce4f19d4473ec96a3ac7ee48ca, 91796092a2a374d3139eb6aec8b84c89c8dd91e8, a13b8584b89a2fb62317c3fefd9436c5df448733, b45656954c6a899d2e7754de8df7e902c78aa2f8, 2c14bcac52a49b14db3b8eaf432d70a1fe892a40, c35a78e2371c4efed2f1dcdbd9cb6ec9aca6a101, eff526f3d4adca83aa6a6a7135613e5f4f220424, 8bdef1cc7923981667a6731b1adc4d534068626f, 1c2779ac50d10634e1be4216576274ac659b1471, 54ca506a29312d75fc4a670f4eae8045698b3fd2, 3bd05cec4bda7967bc7bfddf8ac8ca41c4b2271b, 346f1459dc0da4c3054b7c8521edae975cef1fe5, c3aeec7a9876e60a041d843971b4307a152e3715, 16d64d678b0d52a968957ba20fb97728e84bf401, 06c13400431ca3cb26bd9d627f11c3a0b153c367]","6","1","2f193151906b1ff1855d6cf57af06798edf20c0b","04b1a64fbe7bb08f8ffd94e42a84ac64c8d87f84","37c88974f87cf0541fd582f309874c6736770534"
"https://github.com/dchbx/enroll.git","3410","25","[f91e737a6fcad1f6c3a094b597fd0733ee5a08a5, 7e3b52016801778d74bdb372929b2f48617c97cf, 1be46016cd04e2a84b1f040fc2111e242849f18e, d872e3f0f788f1309f25b4e2498a753a9923a0ce, 70c5da9787f0b183d9f2f7c2fdff06021dd5dfa8, 5d79d4be421cdf2cf2b194ad22e7621914d600a4, 4b04cd01930dd40d46a940a8084360895d5d4d61, 96001edeaba389951d24b5b48b9cf2d885dfda7f, b38c0aa865990ae3d6f839283bfae97769ee4801, f7a95af5c2758575376c6b0529cbdca9159213d5, 0d06936ea2509411ac5b4cc7ad7932090aa60823, 57cebc583772243e344f820018141860497776ca, c5d4c4726403c53122fcb793ab08b02944cfcfb3, 3c75f742578274e03ac77f417132f613b926859e, c7ab3e65ba39d0b2fa41ab8f94e6a0562883388f, 3832b8ed946f2f145176060d23c55a81208aa108, 5d13db441be52f75fb83f752489c231416347ca3, e93660de77773141343a9b0350be367d06ace920, 9cac5b9172576309c649f38787d56e590238c5b5, 4eb731369a2c97db9c427ff1b0e0d1f8ba0df13e, 1620d68a14a04138051336318d61118149eeb193, 7eab13ce4c989b125d84caffd032cee138efbe9c, d669221b9d6acb7b630d16777da5fd1a5257273f, 0bfa90fc1d5b3ebf0eb8a895f63174555aef28df, d8d1411f77bcfe32d8db88cad3d746776ad58b1e]","6","1","f91e737a6fcad1f6c3a094b597fd0733ee5a08a5","48ccf727c03cae6056b36a06748dd86e8b91838c","cf38ee2aa8fe28c701c6f9a21b070205ed2db536"
"https://github.com/dchbx/enroll.git","3411","2","[ca9650b95698c106495b5f4281a86721a3811ba5, 3508fa045020d02a4b0ce65695b8922f94c730ba]","4","1","ca9650b95698c106495b5f4281a86721a3811ba5","48ccf727c03cae6056b36a06748dd86e8b91838c","71f855523c5c2bd2aa872dfb9ac215affc41f2d3"
"https://github.com/dchbx/enroll.git","3431","1","[9a04a74bf0362a23db395fd1b38065d1c0844241]","4","1","9a04a74bf0362a23db395fd1b38065d1c0844241","159de7191c5f7c84107a6856a1a911478adf72a4","c41ccf60216639e94450ec532c33e0d2bc4663c3"
"https://github.com/dchbx/enroll.git","3450","14","[7e6a41e1cf68584e32bc2b403683ef1323e3e8d6, 0c3ece9bba877cfb17757e4671b9c42821b4b6d1, 018df89e81503a584d6fc21aafecc2155c5e05af, 2b2fd105b15640b4019e59ff5d43332e04ee6ce4, c632557db05da75d61e91569359ca8e60ee7b900, e3679716fd155e33ec9686582495fb7e7655cd5e, 1ba6bed62b2d7116cf85f4eaadbbd826f674736c, 270c78e71262f7ace96febc801f9e78b3ac8a6d8, 8e3021ec4b9e4246fe89ed1c1dbae77500136eb7, e0d30c97531e4ad84da4256cf82bbbac453868b9, 072814534b9a4db6f6747c695fdeae18ef9564f8, 0d43ab8d16f107cc8a2b285e2b09329d4340050c, 6855679f25d6573e98aa2663ea35bfa08b58e4a7, 25f5c80a650647ebf9a3e62683ac9e56f2a592e2]","5","1","7e6a41e1cf68584e32bc2b403683ef1323e3e8d6","71f855523c5c2bd2aa872dfb9ac215affc41f2d3","23eed7e69b223325adc9644d6f230c6e966171b6"
"https://github.com/dchbx/enroll.git","3454","1","[0012e56e9e1d7207e26e1ae031bc50f83afa8286]","5","1","0012e56e9e1d7207e26e1ae031bc50f83afa8286","d45f554f9af3faf2070a6d8fe52ef787a34c4a54","23eed7e69b223325adc9644d6f230c6e966171b6"
"https://github.com/dchbx/enroll.git","3456","2","[25c4ac27070d19ae94665d918f91e0f3b3b6f5f7, 09fca46064624c1699447589a8bcdd6e2b79dc1f]","3","1","25c4ac27070d19ae94665d918f91e0f3b3b6f5f7","eab93501c2a6a3fab917bad751cd2dffbd5afc4b","6e100d1f417eebbbdc76fb9ac59e582fc58b6af3"
"https://github.com/dchbx/enroll.git","3468","4","[b7f041eaec3b7c3544e3df7dfe15250178f10462, cac1914f78a905309a27ed14729cd9418472834f, 0a44bd3204977f79a88519acd26aadcf695527a7, 6f0ff3802d1ca499b906e22a023d5bdace36def9]","1","1","b7f041eaec3b7c3544e3df7dfe15250178f10462","0ed7d72273fcfe57dc1bb3a0f5dd05c603288faf","8fce5e411cc738dd982ca47bc85728e0d76d3a5d"
"https://github.com/dchbx/enroll.git","3473","3","[fc010da96b849fca4f4468872a4993153a3c7885, c419b9085fedee51d423dfe85a4e81a9e1f3a5fd, 3fb3e1b6b945f5227c021ccd732795b96b4af063]","2","4","fc010da96b849fca4f4468872a4993153a3c7885","3274f0e7f8aa0025d5964a7da5a9c631b9e5d092","492c8ee6e8c97e2b65e0bc733e0c2276c971b924"
"https://github.com/dchbx/enroll.git","3497","2","[0bf788fb6f4015d17a6ec64f1d9126bdc3db5f9e, d4652078790619885d725049f8d5b7b48ecd03eb]","1","6","0bf788fb6f4015d17a6ec64f1d9126bdc3db5f9e","6e100d1f417eebbbdc76fb9ac59e582fc58b6af3","671fdaa5472f3b36f8eb56c3c89347b2eeccc9f2"
"https://github.com/dchbx/enroll.git","3498","2","[0a449ce1edf2b1f838a9cce08c8b566dd25818fa, 9049378fb9c5b4b1f0e7a2c63bdad0e9679b1baa]","1","1","0a449ce1edf2b1f838a9cce08c8b566dd25818fa","d29ef09654b2c036df7091338e65804123a8bcea","0bf788fb6f4015d17a6ec64f1d9126bdc3db5f9e"
"https://github.com/dchbx/enroll.git","3510","1","[a7a3a0855ed96acacfa44bf5068cc5ca79ea99ad]","65","4","a7a3a0855ed96acacfa44bf5068cc5ca79ea99ad","671fdaa5472f3b36f8eb56c3c89347b2eeccc9f2","e9560e9d26ae41d9d6171e6770348acc48440b8b"
"https://github.com/dchbx/enroll.git","3528","5","[d8dbd7387cde8af36c5dc081578658e7664a25ed, e1c9f28c382891a41ba5bb94c0ed87026a8766c2, d9af181351227ba6a6088ac1209f3b4c58c6b954, d8412ef486f90fae8aac49cc0e751a5d0a768194, 512a25bb36585f136e965c717fa8f1e54561cbe2]","4","1","d8dbd7387cde8af36c5dc081578658e7664a25ed","8290dd725e720e831fa92a808424a37f57fc430e","055231de290ccccc9d305344a687f4889841cccb"
"https://github.com/dchbx/enroll.git","3543","1","[c652234ea60cc5d5ab9a97493eaaffe695b2badb]","1","2","c652234ea60cc5d5ab9a97493eaaffe695b2badb","f52907bcceb1cfa7aced01b18a26a5bb4f9472fb","e2124e8dd12c5b198cb93ca5d806755339c2ae3a"
"https://github.com/dchbx/enroll.git","3551","1","[2967040d35cf9b143913a0b6a4ccebf5e03a48e4]","1","1","2967040d35cf9b143913a0b6a4ccebf5e03a48e4","084884adac166ac4540fb3eb7ff07a1b11f5f381","c832940b3d6222c0a45ed22e470ab2153090204a"
"https://github.com/dchbx/enroll.git","3556","1","[e98af8f7c0e34e8fcf18bc881ae8553b2903c5a8]","2","1","e98af8f7c0e34e8fcf18bc881ae8553b2903c5a8","c832940b3d6222c0a45ed22e470ab2153090204a","d354c6f226b76bc7b5ef6af7bc6de8e06bc02652"
"https://github.com/dchbx/enroll.git","3559","1","[917583c8b91945c50a07641dc20bac7ade7bc88c]","3","2","917583c8b91945c50a07641dc20bac7ade7bc88c","492c8ee6e8c97e2b65e0bc733e0c2276c971b924","6214f8300525e143e5c1459afaf9770734c9cd75"
"https://github.com/dchbx/enroll.git","3576","5","[c86b31c0e1a3fa84481d9513002f84a8188ff742, 46dada9f21ae492b5498dccf1312723c010bc071, 3c95ba5fe0b98314666c8a59f09a7928c1c29f0e, 41929b75c190b7e9d515c23baedb69457e397923, 5c2d007aea48462703b2bb8825738c98309b4fbb]","15","1","c86b31c0e1a3fa84481d9513002f84a8188ff742","cbd1f9f51d5422ace7807606e098fa8e1384d6a6","66c4f27e8630a091bdf875456595c45634868c1c"
