"Repository","https://github.com/ministryofjustice/Claim-for-Crown-Court-Defence.git"
"TASK","HASH","RUBY","RAILS","COVERAGE","TESTS"
"1404","e9432f262369ca886c094a3f9a7a72862f5b619c","2.2.3","4.2.4","simplecov","features/advocate_edit_claim.feature(13);features/advocate_new_claim.feature(23);features/advocate_new_claim.feature(32);features/unhappy_paths.feature(10)"
"1408","301408b2ac6f8e082eaf095fe901b2211779b0e3","2.2.3","4.2.4","simplecov","features/claim_status.feature(27)"
"1412","a3fe9c4b817bd26fb531e76efdd5c2861b76f80c","2.2.3","4.2.4","simplecov","features/advocate_claims_financial_summary.feature(19);features/advocate_claims_financial_summary.feature(26);features/advocate_claims_financial_summary_details.feature(22);features/advocate_claims_financial_summary_details.feature(30);features/claim_history.feature(14)"
"1413","b11be703ae86b430836e6ebaf4eb85d2cd1679ce","2.2.3","4.2.4","simplecov","features/caseworker_claims_list.feature(46);features/claim_history.feature(14);features/claim_redetermination.feature(32);features/claim_redetermination.feature(68)"
"1421","d66c063882c8a2d871cf7b6895a2af1dd4255d17","2.2.3","4.2.4","simplecov","features/claim_document_upload.feature(67)"
"1424","ced81a8c447104e1c2fe47153b6b24881e71c6d8","2.2.3","4.2.4","simplecov","features/sign_in.feature(30)"
"1431","39eb807e1a3aa6ad906db88226de14d0a6629814","2.2.3","4.2.4","simplecov","features/api_new_claim.feature(5)"
"1433","1fbee50e8ad620f9e0ea017ac3362c3a6b9b2661","2.2.3","4.2.4","simplecov","features/api_new_claim.feature(5)"
"1453","3442a515115795c9043b26f002cc8b5a19cdcfa9","2.2.3","4.2.4","simplecov","features/view_claim_evidence.feature(20);features/view_claim_evidence.feature(51);features/api_documentation.feature(5);features/api_documentation.feature(10);features/api_documentation.feature(17);features/api_documentation.feature(23)"
"1475","c9037e9f3f07592847565a8bb7b4ec6dfbe888c0","2.2.3","4.2.4","simplecov","features/claim_messages.feature(8);features/claim_messages.feature(14);features/claim_messages.feature(21);features/claim_messages.feature(27)"
"1477","ca7c80673cc7cf3850b7d7aa957ac06471c625c2","2.2.3","4.2.4","simplecov","features/claim_messages.feature(8);features/claim_messages.feature(14);features/claim_messages.feature(21);features/claim_messages.feature(27)"
"1481","d2e0975cc286b6012e886eb7fcb7fa7cb5d8eba8","2.2.3","4.2.4","simplecov","features/advocate_new_claim.feature(5);features/advocate_new_claim.feature(174)"
"1484","200c9a5025beb2c618c5386bbf8902f902343a4b","2.2.3","4.2.4","simplecov","features/advocate_new_claim.feature(5);features/advocate_new_claim.feature(174)"
"1519","cd8810ddf1817e4eccfbb344e5fdebe4dd91664a","2.2.3","4.1.8","simplecov","features/advocate_claims_list.feature(34);features/advocate_claims_list.feature(43);features/advocate_claims_list.feature(52);features/advocate_claims_list.feature(60);features/advocate_archived_claims_list.feature(5);features/advocate_archived_claims_list.feature(14);features/advocate_archived_claims_list.feature(23)"
"1522","b0ff5c7b6fc32ac776fd058b2345251663369c4a","2.2.3","4.1.8","simplecov","features/view_claim_evidence.feature(20);features/view_claim_evidence.feature(51)"
"1535","cf819429633f2427e9017f7b17542b7fa81a92af","2.2.3","4.1.8","simplecov","features/advocate_edit_claim.feature(4)"
"1541","62b69e4ad035db4c0cdb3d4ca53e4b94cef5e6e5","2.2.3","4.1.8","simplecov","features/claim_document_upload.feature(10);features/claim_document_upload.feature(16);features/claim_document_upload.feature(21);features/claim_document_upload.feature(27);features/claim_document_upload.feature(35);features/claim_document_upload.feature(40);features/claim_document_upload.feature(45);features/claim_document_upload.feature(50);features/claim_document_upload.feature(58)"
"1544","091b108194e21da44d2be8917cf679ec6840fbf0","2.2.3","4.1.8","simplecov","features/claim_document_upload.feature(10);features/claim_document_upload.feature(16);features/claim_document_upload.feature(21);features/claim_document_upload.feature(27);features/claim_document_upload.feature(34);features/claim_document_upload.feature(39);features/claim_document_upload.feature(44);features/claim_document_upload.feature(49);features/claim_document_upload.feature(57)"
"1547","979a9a1d362851f45493e3c5f0941a75983fe8c3","2.2.3","4.1.8","simplecov","features/unhappy_paths.feature(10)"
"1556","5b39d964d5a54a133b8f00b38e77bb691ef3aa52","2.2.3","4.1.8","simplecov","features/unhappy_paths.feature(20)"
"1560","71580c78a8e9545775de143fec233fe653ac5c1a","2.2.3","4.1.8","simplecov","features/advocate_claims_list.feature(42)"
