"Repository","https://github.com/BTHUNTERCN/bsmi.git"
"Tasks with empty IReal",""
"Tasks with no-empty IReal",""
"Tasks with relevant AST error",""
"Tasks with AST error of Gherkin files",""
"Tasks with AST error of StepDef files",""
"Tasks with AST error of production files",""
"Tasks with AST error of unit test files",""
"Tasks with step match error",""
"Tasks without required gems",""
"Tasks with changed stepdef",""
"Tasks with changed Gherkin",""
"Tasks with implemented Gherkin scenarios",""
"All invalid tasks",""
"All valid tasks (Gherkin scenario, no empty IReal, no error)",""
"Valid tasks, but empty ITest",""
"Valid tasks, no empty ITest, but zero precision-recall",""
"Valid tasks, no empty ITest, no zero precision-recall",""
"Project","","Date","#Days","#Commits","Commit_Message","#Devs","#Gherkin_Tests","#Impl_Gherkin_Tests","#StepDef","#Impl_StepDef","Methods_Unknown_Type","#Step_Call","Step_Match_Errors","#Step_Match_Error","AST_Errors","#AST_Errors","Gherkin_AST_Errors","#Gherkin_AST_Errors","Steps_AST_Errors","#Steps_AST_Errors","Renamed_Files","Deleted_Files","NotFound_Views","#Views","#TestI","#TaskI","TestI","TaskI","Precision","Recall","Hashes","Timestamp","Rails","Gems","#Visit_Call","Lost_visit_call","#Views_ITest","#Code_View_Analysis","Code_View_Analysis","Has_Merge","F2","#Multiple_Step_Matches","Multiple_Step_Matches","#Generic_Step_Keyword","Generic_Step_Keyword"
"bsmi","6","[16-01-2013]","1","1","[little fix for registration, cucumber ]","1","1","1","0","0","[click_button, fill_in, page, have_content, has_content?, current_url, path, assert_equal]","0","[path:features/registration_login.feature, size:1]","1","","0","","0","","0","","[]","","0","0","2","[]","[app/controllers/users_controller.rb, app/views/users/_form.html.erb]","0.0","0.0","[de21213e64a8ff46853a6486a7cf3549d2485d08]","0.466 seconds","3.2.7","[cucumber-rails, rspec-rails, simplecov, factory_girl]","1","[]","0","0","[]","false","0.0","0","","0",""
"bsmi","11","[05-12-2012]","1","1","[Fixed cucumber for cal Course ]","1","4","4","0","0","[current_url, path, assert_equal, click_button, fill_in, select, check, page, have_content, has_content?, page, have_content, has_content?, have_no_content, has_no_content?, find_field, tag_name, text, assert_match, within, raise]","0","[path:features/link_cal_courses_to_courses.feature, size:1]","1","","0","","0","","0","","[]","[1]","1","5","3","[app/controllers/cal_courses_controller.rb, app/models/cal_course.rb, app/views/cal_courses/edit.html.haml, app/views/cal_courses/index.html.haml, app/views/cal_courses/new.html.haml]","[app/controllers/cal_courses_controller.rb, app/models/cal_course.rb, app/views/cal_courses/_form.html.haml]","0.4","0.6666666667","[712ce66ce66dbd03cb6704154f79d8d949972014]","1.099 seconds","3.2.7","[cucumber-rails, rspec-rails, simplecov, factory_girl]","12","[{path=BTHUNTERCN_bsmi/features/step_definitions/bsmi_steps.rb, line=93}]","3","4","[app/controllers/cal_courses_controller.rb, app/views/cal_courses/edit.html.haml, app/views/cal_courses/index.html.haml, app/views/cal_courses/new.html.haml]","false","0.5882352941384082","0","","0",""
"bsmi","18","[05-12-2012]","1","1","[fixed cucumber rspecs ]","1","9","9","0","0","[save!, current_url, path, assert_equal, click_button, click_button, click_link, click_link, fill_in, fill_in, select, page, have_content, has_content?, have_no_content, has_no_content?, find_field, tag_name, text, assert_match, assert_no_match, within, raise]","0","[path:features/cal_faculty_my_mentor_teachers.feature, size:1], [path:features/cal_faculty_my_students.feature, size:1], [path:features/registration_login.feature, size:1]","3","","0","","0","","0","","[]","","0","15","3","[app/controllers/invites_controller.rb, app/controllers/users_controller.rb, app/models/deadline.rb, app/models/invite.rb, app/models/semester.rb, app/models/user.rb, app/views/invites/_form.html.haml, app/views/invites/edit.html.haml, app/views/invites/index.html.haml, app/views/invites/new.html.haml, app/views/users/_form.html.erb, app/views/users/adv_new.html.erb, app/views/users/edit.html.erb, app/views/users/shared/_error_messages.html.erb, app/views/users/show.html.erb]","[app/controllers/mentor_teacher/my_students_controller.rb, app/controllers/mentor_teacher/schedules_controller.rb, app/controllers/students_controller.rb]","0.0","0.0","[b484dd510dd5636d101cf23d3aae90ef1da04a01]","2.495 seconds","3.2.7","[cucumber-rails, rspec-rails, simplecov, factory_girl]","5","[]","9","11","[app/controllers/invites_controller.rb, app/controllers/users_controller.rb, app/views/invites/_form.html.haml, app/views/invites/edit.html.haml, app/views/invites/index.html.haml, app/views/invites/new.html.haml, app/views/users/_form.html.erb, app/views/users/adv_new.html.erb, app/views/users/edit.html.erb, app/views/users/shared/_error_messages.html.erb, app/views/users/show.html.erb]","false","0.0","0","","0",""
"bsmi","24","[05-12-2012]","1","1","[Added matching_path back to adivsors nav. Fixed registration_login.feature ]","1","1","1","0","0","[save!, current_url, path, assert_equal, click_button, click_link, fill_in, page, have_content, has_content?]","0","[path:features/registration_login.feature, size:1]","1","","0","","0","","0","","[]","","0","1","2","[app/models/user.rb]","[app/controllers/user_sessions_controller.rb, app/views/application/_advisor_view.html.haml]","0.0","0.0","[fd15e017c561ac05bd92af0f6bf415faf3616e51]","0.515 seconds","3.2.7","[cucumber-rails, rspec-rails, simplecov, factory_girl]","1","[]","0","0","[]","false","0.0","0","","0",""
"bsmi","26","[05-12-2012]","1","1","[fixed some cucumber errors ]","1","6","6","2","2","[hashes, save, each, save!, current_url, path, assert_equal, click_button, click_button, click_link, click_link, fill_in, fill_in, select, page, have_content, has_content?, have_no_content, has_no_content?]","0","[path:features/cal_faculty_my_mentor_teachers.feature, size:1], [path:features/cal_faculty_my_students.feature, size:1]","2","","0","","0","","0","","[]","","0","16","5","[app/controllers/invites_controller.rb, app/controllers/users_controller.rb, app/models/deadline.rb, app/models/invite.rb, app/models/matching.rb, app/models/semester.rb, app/models/student.rb, app/models/timeslot.rb, app/models/user.rb, app/views/invites/_form.html.haml, app/views/invites/edit.html.haml, app/views/invites/index.html.haml, app/views/invites/new.html.haml, app/views/users/_form.html.erb, app/views/users/adv_new.html.erb, app/views/users/shared/_error_messages.html.erb]","[app/controllers/cal_faculty/my_mentor_teachers_controller.rb, app/controllers/students_controller.rb, app/controllers/user_sessions_controller.rb, app/views/cal_faculty/my_mentor_teachers/index.html.haml, app/views/cal_faculty/my_students/index.html.haml]","0.0","0.0","[d43821c554a26b6a6c1e6fefbdb2df57b42817b0]","2.699 seconds","3.2.7","[cucumber-rails, rspec-rails, simplecov, factory_girl]","3","[]","7","9","[app/controllers/invites_controller.rb, app/controllers/users_controller.rb, app/views/invites/_form.html.haml, app/views/invites/edit.html.haml, app/views/invites/index.html.haml, app/views/invites/new.html.haml, app/views/users/_form.html.erb, app/views/users/adv_new.html.erb, app/views/users/shared/_error_messages.html.erb]","false","0.0","0","","0",""
"bsmi","30","[05-12-2012]","1","1","[Added special handling of case there the number of timeslots available is less than the minimum. In this case, the student is allowed to select at least one timeslot ]","1","6","4","0","0","[hashes, debugger, each, has_key?, where, nil?, raise, id, cal_courses, save!, page, find, click, fill_in, click_button, page, have_content, click_button, select, page, have_content, has_content?, have_no_content, has_no_content?, current_url, path, assert_equal, mentor_teacher, user, id, mentor_teachers, cal_courses, p]","0","[path:features/student_rank_time_slots.feature, size:1]","1","","0","","0","","0","","[]","[wizard]","1","45","2","[app/controllers/select_timeslots_controller.rb, app/controllers/students_controller.rb, app/controllers/user_sessions_controller.rb, app/controllers/users_controller.rb, app/models/cal_course.rb, app/models/course.rb, app/models/deadline.rb, app/models/mentor_teacher.rb, app/models/preference.rb, app/models/school.rb, app/models/semester.rb, app/models/student.rb, app/models/timeslot.rb, app/models/user.rb, app/models/user_session.rb, app/views/select_timeslots/_day_page.html.haml, app/views/select_timeslots/_day_selection.html.haml, app/views/select_timeslots/_sub_nav.html.haml, app/views/select_timeslots/_week_calendar.html.haml, app/views/select_timeslots/cal_course_selection.html.haml, app/views/select_timeslots/error.html.haml, app/views/select_timeslots/friday.html.haml, app/views/select_timeslots/monday.html.haml, app/views/select_timeslots/rank.html.haml, app/views/select_timeslots/summary.html.haml, app/views/select_timeslots/thursday.html.haml, app/views/select_timeslots/tuesday.html.haml, app/views/select_timeslots/wednesday.html.haml, app/views/students/_form.html.haml, app/views/students/courses.html.haml, app/views/students/edit.html.haml, app/views/students/edit_placements.haml, app/views/students/home.html.haml, app/views/students/index.html.haml, app/views/students/new.html.haml, app/views/students/placements.haml, app/views/students/select_courses.html.haml, app/views/students/show.html.haml, app/views/students/splash.html.haml, app/views/user_sessions/new.html.haml, app/views/user_sessions/shared/_error_messages.html.erb, app/views/users/_form.html.erb, app/views/users/edit.html.erb, app/views/users/shared/_error_messages.html.erb, app/views/users/show.html.erb]","[app/controllers/select_timeslots_controller.rb, app/models/student.rb]","0.0444444444","1.0","[ab91dd711e18cd0ba042fe52d68bd7f7025e386e]","8.513 seconds","3.2.7","[cucumber-rails, rspec-rails, simplecov, factory_girl]","5","[]","30","34","[app/controllers/select_timeslots_controller.rb, app/controllers/students_controller.rb, app/controllers/user_sessions_controller.rb, app/controllers/users_controller.rb, app/views/select_timeslots/_day_page.html.haml, app/views/select_timeslots/_day_selection.html.haml, app/views/select_timeslots/_sub_nav.html.haml, app/views/select_timeslots/_week_calendar.html.haml, app/views/select_timeslots/cal_course_selection.html.haml, app/views/select_timeslots/error.html.haml, app/views/select_timeslots/friday.html.haml, app/views/select_timeslots/monday.html.haml, app/views/select_timeslots/rank.html.haml, app/views/select_timeslots/summary.html.haml, app/views/select_timeslots/thursday.html.haml, app/views/select_timeslots/tuesday.html.haml, app/views/select_timeslots/wednesday.html.haml, app/views/students/_form.html.haml, app/views/students/courses.html.haml, app/views/students/edit.html.haml, app/views/students/edit_placements.haml, app/views/students/home.html.haml, app/views/students/index.html.haml, app/views/students/new.html.haml, app/views/students/placements.haml, app/views/students/select_courses.html.haml, app/views/students/show.html.haml, app/views/students/splash.html.haml, app/views/user_sessions/new.html.haml, app/views/user_sessions/shared/_error_messages.html.erb, app/views/users/_form.html.erb, app/views/users/edit.html.erb, app/views/users/shared/_error_messages.html.erb, app/views/users/show.html.erb]","false","0.1886792451228195","0","","0",""
"bsmi","49","[04-12-2012]","1","2","[finish polishing, rpsec cucumber not complete for cal_course , Polished application ]","1","5","5","1","1","[hashes, debugger, each, current_url, path, assert_equal, click_button, fill_in, select, check, page, have_content, has_content?, page, have_content, has_content?, have_no_content, has_no_content?, find_field, tag_name, text, assert_match, within, raise]","0","[path:features/link_cal_courses_to_courses.feature, size:1]","1","","0","","0","","0","","[]","[1]","1","5","5","[app/controllers/cal_courses_controller.rb, app/models/cal_course.rb, app/views/cal_courses/edit.html.haml, app/views/cal_courses/index.html.haml, app/views/cal_courses/new.html.haml]","[app/controllers/cal_courses_controller.rb, app/models/cal_course.rb, app/models/student.rb, app/views/cal_courses/_form.html.haml, app/views/students/index.html.haml]","0.4","0.4","[0379875bccd3937f0ef466a3237df388c6c33d37, ba18ad79b8a18448b7f24a642ceeb6efd854b34c]","1.527 seconds","3.2.7","[cucumber-rails, rspec-rails, simplecov, factory_girl]","12","[{path=BTHUNTERCN_bsmi/features/step_definitions/bsmi_steps.rb, line=93}]","3","4","[app/controllers/cal_courses_controller.rb, app/views/cal_courses/edit.html.haml, app/views/cal_courses/index.html.haml, app/views/cal_courses/new.html.haml]","false","0.4000000000000001","0","","0",""
"bsmi","71","[02-12-2012]","1","1","[Removed course_grade from cal_courses ]","1","7","7","0","0","[current_url, path, assert_equal, page, body, click_button, click_link, fill_in, select, check, have_content, has_content?, page, have_content, has_content?, have_no_content, has_no_content?, find_field, tag_name, text, assert_match, within, raise]","0","[path:features/link_cal_courses_to_courses.feature, size:1]","1","","0","","0","","0","","[]","[1]","1","5","6","[app/controllers/cal_courses_controller.rb, app/models/cal_course.rb, app/views/cal_courses/edit.html.haml, app/views/cal_courses/index.html.haml, app/views/cal_courses/new.html.haml]","[app/controllers/cal_courses_controller.rb, app/models/cal_course.rb, app/models/timeslot.rb, app/views/cal_courses/_form.html.haml, app/views/cal_courses/index.html.haml, app/views/cal_courses/show.html.haml]","0.6","0.5","[6cfa3a04d80a3d414393f43141889cd7f7bdbd87]","1.800 seconds","3.2.7","[cucumber-rails, rspec-rails, simplecov, factory_girl]","18","[{path=BTHUNTERCN_bsmi/features/step_definitions/bsmi_steps.rb, line=93}]","3","4","[app/controllers/cal_courses_controller.rb, app/views/cal_courses/edit.html.haml, app/views/cal_courses/index.html.haml, app/views/cal_courses/new.html.haml]","false","0.5172413793103449","0","","0",""
"bsmi","78","[28-11-2012]","1","7","[Refactoed layout into seperate templates fixed rspec tests , Fixed more cucumber tests , Fixed student_jump_between_selection , Fixed student_view_placement , Fixed view_placements cucumber test , Got select timeslots to take in consideration semester , Changed links over to using semester parameter ]","1","11","9","1","1","[hashes, each, has_key?, where, nil?, raise, id, owner, save!, cal_courses, page, find, click, fill_in, click_button, page, have_content, click_button, click_link, click_link, fill_in, select, check, page, have_content, has_content?, have_no_content, has_no_content?, current_url, path, assert_equal, mentor_teacher, first_name, owner, last_name, email, id, p]","0","[path:features/advisor_can_change_pairings.feature, size:1], [path:features/enter_course_roster_district.feature, size:1], [path:features/student_jump_between_selection.feature, size:1], [path:features/student_view_placement.feature, size:1], [path:features/view_placements.feature, size:1], [path:features/student_rank_time_slots.feature, size:1]","6","","0","","0","","0","","[]","[wizard]","1","35","6","[app/controllers/advisors_controller.rb, app/controllers/select_timeslots_controller.rb, app/controllers/students_controller.rb, app/controllers/user_sessions_controller.rb, app/models/cal_course.rb, app/models/course.rb, app/models/deadline.rb, app/models/mentor_teacher.rb, app/models/preference.rb, app/models/school.rb, app/models/semester.rb, app/models/student.rb, app/models/timeslot.rb, app/models/user.rb, app/models/user_session.rb, app/views/advisors/index.html.haml, app/views/select_timeslots/_day_page.html.haml, app/views/select_timeslots/_day_selection.html.haml, app/views/select_timeslots/_sub_nav.html.haml, app/views/select_timeslots/_week_calendar.html.haml, app/views/select_timeslots/cal_course_selection.html.haml, app/views/select_timeslots/friday.html.haml, app/views/select_timeslots/monday.html.haml, app/views/select_timeslots/rank.html.haml, app/views/select_timeslots/summary.html.haml, app/views/select_timeslots/thursday.html.haml, app/views/select_timeslots/tuesday.html.haml, app/views/select_timeslots/wednesday.html.haml, app/views/students/_form.html.haml, app/views/students/edit.html.haml, app/views/students/edit_placements.haml, app/views/students/index.html.haml, app/views/students/show.html.haml, app/views/user_sessions/new.html.erb, app/views/user_sessions/shared/_error_messages.html.erb]","[app/controllers/select_timeslots_controller.rb, app/controllers/students_controller.rb, app/models/preference.rb, app/models/semester.rb, app/models/timeslot.rb, app/views/layouts/application.html.haml]","0.1428571429","0.8333333333","[e7ea5fbd0518ab3265e4d693bf1978841b5a4b94, ea9551da35a359b5dc8ad18e4d4c153a6d25e9dd, 091a0dbf50eae45162bab3f2dce4eaf3bbf10e93, 6f9d8308b2c75ce4992c97a027efed6f23bbacee, 4fc483b6aa43d0acaaeb6e17fca0e84e92769a9b, 74db311852a63b346f5f291e3e195443db7f32ac, f9275e4c9517756bec0ae16c4ccbba02634be3e9]","7.756 seconds","3.2.7","[cucumber-rails, rspec-rails, simplecov, factory_girl]","7","[]","20","24","[app/controllers/advisors_controller.rb, app/controllers/select_timeslots_controller.rb, app/controllers/students_controller.rb, app/controllers/user_sessions_controller.rb, app/views/advisors/index.html.haml, app/views/select_timeslots/_day_page.html.haml, app/views/select_timeslots/_day_selection.html.haml, app/views/select_timeslots/_sub_nav.html.haml, app/views/select_timeslots/_week_calendar.html.haml, app/views/select_timeslots/cal_course_selection.html.haml, app/views/select_timeslots/friday.html.haml, app/views/select_timeslots/monday.html.haml, app/views/select_timeslots/rank.html.haml, app/views/select_timeslots/summary.html.haml, app/views/select_timeslots/thursday.html.haml, app/views/select_timeslots/tuesday.html.haml, app/views/select_timeslots/wednesday.html.haml, app/views/students/_form.html.haml, app/views/students/edit.html.haml, app/views/students/edit_placements.haml, app/views/students/index.html.haml, app/views/students/show.html.haml, app/views/user_sessions/new.html.erb, app/views/user_sessions/shared/_error_messages.html.erb]","false","0.42372881362783693","0","","0",""
"bsmi","82","[26-11-2012]","1","1","[Archiviation via Semester implemented ]","1","1","1","0","0","[current_url, path, assert_equal, course, mentor_teacher, click_button, fill_in, select, check, page, have_content, has_content?, have_no_content, has_no_content?]","0","[path:features/link_cal_courses_to_courses.feature, size:1]","1","","0","","0","","0","","[]","","0","8","6","[app/controllers/cal_courses_controller.rb, app/models/cal_course.rb, app/models/timeslot.rb, app/views/cal_courses/_form.html.haml, app/views/cal_courses/edit.html.haml, app/views/cal_courses/index.html.haml, app/views/cal_courses/new.html.haml, app/views/cal_courses/show.html.haml]","[app/controllers/mentor_teachers_controller.rb, app/controllers/students_controller.rb, app/models/semester.rb, app/models/timeslot.rb, app/views/mentor_teachers/show.html.haml, app/views/students/show.html.haml]","0.125","0.1666666667","[aa747291d1af22ce264ac87ee41596043eff8fe4]","2.984 seconds","3.2.7","[cucumber-rails, rspec-rails, simplecov, factory_girl]","6","[]","5","6","[app/controllers/cal_courses_controller.rb, app/views/cal_courses/_form.html.haml, app/views/cal_courses/edit.html.haml, app/views/cal_courses/index.html.haml, app/views/cal_courses/new.html.haml, app/views/cal_courses/show.html.haml]","false","0.1562500000234375","0","","0",""
"bsmi","98","[22-11-2012]","1","11","[Fixed mentoer_teacher and student when associating a user with them , Fixed my_stuents_controller_spec , Added cal_faculty spec. Fixed my_menter_teachers_controller_spec not passing , Fixed mentoer teacher and student factors and fixed select_timeslots_controller_spec , Fixed select_timeslots_controller_spec , Fixed mentoer_teachers_controller_spec.rb , Fixed andrews cucumber test , Fixed Marcos cucumber test , Fixed cucumber tests , Converted Student, MentorTeacher, CalFaculty, StudentAdvisor find to all User.find , Deleted redudant cucumeber test. Fixed students controller ]","1","4","4","0","0","[click_button, click_button, click_link, fill_in, select, check, page, have_content, has_content?, page, have_content, has_content?, have_no_content, has_no_content?, find_field, tag_name, text, assert_match, current_url, path, assert_equal, within, raise, hashes, each_pair, page, execute_script, each, email, course, mentor_teacher]","0","[path:features/link_cal_courses_to_courses.feature, size:1], [path:features/cal_faculty_my_mentor_teachers.feature, size:1]","2","","0","","0","","0","","[]","[1]","1","16","5","[app/controllers/cal_courses_controller.rb, app/controllers/mentor_teacher/schedules_controller.rb, app/controllers/user_sessions_controller.rb, app/helpers/mentor_teacher/schedules_helper.rb, app/models/cal_course.rb, app/models/timeslot.rb, app/models/user_session.rb, app/views/cal_courses/_form.html.erb, app/views/cal_courses/edit.html.haml, app/views/cal_courses/index.html.haml, app/views/cal_courses/new.html.haml, app/views/cal_courses/show.html.haml, app/views/mentor_teacher/schedules/_form.html.haml, app/views/mentor_teacher/schedules/new.html.haml, app/views/user_sessions/new.html.erb, app/views/user_sessions/shared/_error_messages.html.erb]","[app/controllers/mentor_teacher/schedules_controller.rb, app/controllers/mentor_teachers_controller.rb, app/controllers/select_timeslots_controller.rb, app/controllers/students_controller.rb, app/controllers/timeslots_controller.rb]","0.0625","0.2","[0584bf1265c3198de7902e9205092b5c1bee538d, 8a320bc5bae1d5328d3ae34a8519909249c6e7be, 72929433bdd97d972460be6e8cc3eaa30aab5cc6, 1f07952cd758f4564d31d5eddbcd5887d33283b3, beed4a66b1efcf7033e6c9828422750f0fae5e05, c2b3d8933cbb535a90d5bf87ff7a8c8c4ac01b39, 65fd77e7229dcf756700e03046b99d8596c71d33, f85292abc1a6cea0f09507325986a7c685600d07, 03dcbff23e5abdafc55fb5ffc4534d13594d0967, af850db65b578b2e9b6fc1b81286d8c1be9e398b, 2297cce6757f5f5d49776b96c7b173d318129c7e]","3.571 seconds","3.2.7","[cucumber-rails, rspec-rails, simplecov, factory_girl]","12","[{path=BTHUNTERCN_bsmi/features/step_definitions/bsmi_steps.rb, line=93}]","9","12","[app/controllers/cal_courses_controller.rb, app/controllers/mentor_teacher/schedules_controller.rb, app/controllers/user_sessions_controller.rb, app/views/cal_courses/_form.html.erb, app/views/cal_courses/edit.html.haml, app/views/cal_courses/index.html.haml, app/views/cal_courses/new.html.haml, app/views/cal_courses/show.html.haml, app/views/mentor_teacher/schedules/_form.html.haml, app/views/mentor_teacher/schedules/new.html.haml, app/views/user_sessions/new.html.erb, app/views/user_sessions/shared/_error_messages.html.erb]","false","0.1388888888888889","0","","0",""
"bsmi","110","[20-11-2012, 21-11-2012]","2","3","[Temporarily save steps , Started updating students controller , Made student navigation only visible to student ]","1","1","1","1","1","[hashes, save!, each, page, have_content, has_content?, first_name, owner, last_name, email, id, p, cal_courses]","0","[path:features/student_view_placement.feature, size:1]","1","","0","","0","","0","","[]","[wizard]","1","26","3","[app/controllers/advisors_controller.rb, app/controllers/select_timeslots_controller.rb, app/controllers/students_controller.rb, app/models/cal_course.rb, app/models/preference.rb, app/models/student.rb, app/models/timeslot.rb, app/models/user.rb, app/views/advisors/index.html.haml, app/views/select_timeslots/_day_page.html.haml, app/views/select_timeslots/_day_selection.html.haml, app/views/select_timeslots/_sub_nav.html.haml, app/views/select_timeslots/_week_calendar.html.haml, app/views/select_timeslots/cal_course_selection.html.haml, app/views/select_timeslots/friday.html.haml, app/views/select_timeslots/monday.html.haml, app/views/select_timeslots/rank.html.haml, app/views/select_timeslots/summary.html.haml, app/views/select_timeslots/thursday.html.haml, app/views/select_timeslots/tuesday.html.haml, app/views/select_timeslots/wednesday.html.haml, app/views/students/_form.html.haml, app/views/students/edit.html.haml, app/views/students/edit_placements.haml, app/views/students/index.html.haml, app/views/students/show.html.haml]","[app/controllers/students_controller.rb, app/views/layouts/application.html.haml, app/views/students/select_courses.html.haml]","0.0384615385","0.3333333333","[e18220b48e67a5f8ebe4dddc69fac2320cea536a, 9c27950ebb1f72559fc22789014b8916760f6e6f, 8d45f6cfc34770f77fb84b8a014e9602e021f7b9]","6.469 seconds","3.2.7","[cucumber-rails, rspec-rails, simplecov, factory_girl]","1","[]","18","21","[app/controllers/advisors_controller.rb, app/controllers/select_timeslots_controller.rb, app/controllers/students_controller.rb, app/views/advisors/index.html.haml, app/views/select_timeslots/_day_page.html.haml, app/views/select_timeslots/_day_selection.html.haml, app/views/select_timeslots/_sub_nav.html.haml, app/views/select_timeslots/_week_calendar.html.haml, app/views/select_timeslots/cal_course_selection.html.haml, app/views/select_timeslots/friday.html.haml, app/views/select_timeslots/monday.html.haml, app/views/select_timeslots/rank.html.haml, app/views/select_timeslots/summary.html.haml, app/views/select_timeslots/thursday.html.haml, app/views/select_timeslots/tuesday.html.haml, app/views/select_timeslots/wednesday.html.haml, app/views/students/_form.html.haml, app/views/students/edit.html.haml, app/views/students/edit_placements.haml, app/views/students/index.html.haml, app/views/students/show.html.haml]","false","0.13157894745429363","0","","0",""
"bsmi","117","[19-11-2012, 20-11-2012]","2","3","[Revised cucumber for Cal Courses , Added files for last 2 commits , Implemented Javascript, fixed small bugs when creation/update unsuccesfull ]","1","6","6","0","0","[course, mentor_teacher, click_button, click_link, fill_in, select, check, page, have_content, has_content?, page, have_content, has_content?, have_no_content, has_no_content?, find_field, tag_name, text, assert_match, within, raise, current_url, path, assert_equal, body]","0","[path:features/link_cal_courses_to_courses.feature, size:1]","1","","0","","0","","0","","[]","[1]","1","8","4","[app/controllers/cal_courses_controller.rb, app/models/cal_course.rb, app/models/timeslot.rb, app/views/cal_courses/_form.html.haml, app/views/cal_courses/edit.html.haml, app/views/cal_courses/index.html.haml, app/views/cal_courses/new.html.haml, app/views/cal_courses/show.html.haml]","[app/controllers/cal_courses_controller.rb, app/controllers/mentor_teachers_controller.rb, app/models/timeslot.rb, app/views/cal_courses/_form.html.haml]","0.375","0.75","[24ac9b4c07764d01a157b1de2b3efd035e317202, bf653ebdd7777bcd4151f8084e8277a58c6eb25f, e7f102174136afd98fd039f8dad6ebc31b174b54]","2.818 seconds","3.2.7","[cucumber-rails, rspec-rails, simplecov, factory_girl]","18","[{path=BTHUNTERCN_bsmi/features/step_definitions/cal_course_steps.rb, line=7}]","5","6","[app/controllers/cal_courses_controller.rb, app/views/cal_courses/_form.html.haml, app/views/cal_courses/edit.html.haml, app/views/cal_courses/index.html.haml, app/views/cal_courses/new.html.haml, app/views/cal_courses/show.html.haml]","false","0.625","0","","0",""
"bsmi","118","[20-11-2012]","1","1","[done ]","1","3","3","0","0","[hashes, save!, each, click_button, click_link, fill_in, page, have_content, has_content?, have_no_content, has_no_content?, first_name, owner, last_name, email, id, p]","0","[path:features/advisor_can_change_pairings.feature, size:1]","1","","0","","0","","0","","[]","[wizard]","1","24","2","[app/controllers/advisors_controller.rb, app/controllers/select_timeslots_controller.rb, app/controllers/students_controller.rb, app/models/preference.rb, app/models/student.rb, app/models/timeslot.rb, app/views/advisors/index.html.haml, app/views/select_timeslots/_day_page.html.haml, app/views/select_timeslots/_day_selection.html.haml, app/views/select_timeslots/_sub_nav.html.haml, app/views/select_timeslots/_week_calendar.html.haml, app/views/select_timeslots/cal_course_selection.html.haml, app/views/select_timeslots/friday.html.haml, app/views/select_timeslots/monday.html.haml, app/views/select_timeslots/rank.html.haml, app/views/select_timeslots/summary.html.haml, app/views/select_timeslots/thursday.html.haml, app/views/select_timeslots/tuesday.html.haml, app/views/select_timeslots/wednesday.html.haml, app/views/students/_form.html.haml, app/views/students/edit.html.haml, app/views/students/edit_placements.haml, app/views/students/index.html.haml, app/views/students/show.html.haml]","[app/controllers/students_controller.rb, app/views/students/edit_placements.haml]","0.0833333333","1.0","[962c504c8c1dd6c98e9651441a597af61ee60d5c]","5.325 seconds","3.2.7","[cucumber-rails, rspec-rails, simplecov, factory_girl]","1","[]","18","21","[app/controllers/advisors_controller.rb, app/controllers/select_timeslots_controller.rb, app/controllers/students_controller.rb, app/views/advisors/index.html.haml, app/views/select_timeslots/_day_page.html.haml, app/views/select_timeslots/_day_selection.html.haml, app/views/select_timeslots/_sub_nav.html.haml, app/views/select_timeslots/_week_calendar.html.haml, app/views/select_timeslots/cal_course_selection.html.haml, app/views/select_timeslots/friday.html.haml, app/views/select_timeslots/monday.html.haml, app/views/select_timeslots/rank.html.haml, app/views/select_timeslots/summary.html.haml, app/views/select_timeslots/thursday.html.haml, app/views/select_timeslots/tuesday.html.haml, app/views/select_timeslots/wednesday.html.haml, app/views/students/_form.html.haml, app/views/students/edit.html.haml, app/views/students/edit_placements.haml, app/views/students/index.html.haml, app/views/students/show.html.haml]","false","0.31249999990625","0","","0",""
"bsmi","125","[18-11-2012]","1","4","[Fixed select_timeslots_controller spec , Added cucmber test , Fixed rspec test , Fixed rspec tests ]","1","1","1","0","0","[hashes, save!, each, page, have_content, has_content?, first_name, last_name, email, owner, id]","0","[path:features/view_placements.feature, size:1]","1","","0","","0","","0","","[app/controllers/settings_controller.rb, app/models/setting.rb, app/views/settings/_form.html.haml, app/views/settings/edit.html.haml, app/views/settings/index.html.haml, app/views/settings/new.html.haml, app/views/settings/show.html.haml]","[wizard]","1","25","1","[app/controllers/advisors_controller.rb, app/controllers/select_timeslots_controller.rb, app/controllers/students_controller.rb, app/models/preference.rb, app/models/student.rb, app/models/timeslot.rb, app/views/advisors/_form.html.haml, app/views/advisors/index.html.haml, app/views/advisors/new.html.haml, app/views/select_timeslots/_day_page.html.haml, app/views/select_timeslots/_day_selection.html.haml, app/views/select_timeslots/_sub_nav.html.haml, app/views/select_timeslots/_week_calendar.html.haml, app/views/select_timeslots/cal_course_selection.html.haml, app/views/select_timeslots/friday.html.haml, app/views/select_timeslots/monday.html.haml, app/views/select_timeslots/rank.html.haml, app/views/select_timeslots/summary.html.haml, app/views/select_timeslots/thursday.html.haml, app/views/select_timeslots/tuesday.html.haml, app/views/select_timeslots/wednesday.html.haml, app/views/students/_form.html.haml, app/views/students/edit.html.haml, app/views/students/index.html.haml, app/views/students/show.html.haml]","[app/controllers/select_timeslots_controller.rb]","0.04","1.0","[cd3b83d4ff68ec013c712349e6e426825de9c299, f628f83a24cc55c10523c8c62b277ee43edc91a4, af6d05b00faa107f5f30923345e5d036a2df7a1e, fdf3f03011dd37a2677af9158ebb822e575c5897]","4.366 seconds","3.2.7","[cucumber-rails, rspec-rails, simplecov, factory_girl]","1","[]","19","22","[app/controllers/advisors_controller.rb, app/controllers/select_timeslots_controller.rb, app/controllers/students_controller.rb, app/views/advisors/_form.html.haml, app/views/advisors/index.html.haml, app/views/advisors/new.html.haml, app/views/select_timeslots/_day_page.html.haml, app/views/select_timeslots/_day_selection.html.haml, app/views/select_timeslots/_sub_nav.html.haml, app/views/select_timeslots/_week_calendar.html.haml, app/views/select_timeslots/cal_course_selection.html.haml, app/views/select_timeslots/friday.html.haml, app/views/select_timeslots/monday.html.haml, app/views/select_timeslots/rank.html.haml, app/views/select_timeslots/summary.html.haml, app/views/select_timeslots/thursday.html.haml, app/views/select_timeslots/tuesday.html.haml, app/views/select_timeslots/wednesday.html.haml, app/views/students/_form.html.haml, app/views/students/edit.html.haml, app/views/students/index.html.haml, app/views/students/show.html.haml]","false","0.17241379310344832","0","","0",""
"bsmi","130","[06-11-2012]","1","1","[Fixed Cal Course cucumber to check new changes ]","1","3","3","0","0","[course, mentor_teacher, click_button, click_button, fill_in, select, check, page, have_content, has_content?, page, have_content, has_content?, have_no_content, has_no_content?, find_field, tag_name, text, assert_match, current_url, path, assert_equal, within, send, raise, raise, email, hashes, each_pair, page, execute_script, each]","0","[path:features/link_cal_courses_to_courses.feature, size:1]","1","","0","","0","","0","","[]","[1]","1","16","1","[app/controllers/cal_courses_controller.rb, app/controllers/mentor_teacher/schedules_controller.rb, app/controllers/user_sessions_controller.rb, app/helpers/mentor_teacher/schedules_helper.rb, app/models/cal_course.rb, app/models/timeslot.rb, app/models/user_session.rb, app/views/cal_courses/_form.html.erb, app/views/cal_courses/edit.html.haml, app/views/cal_courses/index.html.haml, app/views/cal_courses/new.html.haml, app/views/cal_courses/show.html.haml, app/views/mentor_teacher/schedules/_form.html.haml, app/views/mentor_teacher/schedules/new.html.haml, app/views/user_sessions/new.html.erb, app/views/user_sessions/shared/_error_messages.html.erb]","[app/controllers/cal_courses_controller.rb]","0.0625","1.0","[e7f0efa1a07b4c7bd6924215a96c1dccbc40d84c]","3.217 seconds","3.2.7","[cucumber-rails, rspec-rails, simplecov, factory_girl]","11","[{path=BTHUNTERCN_bsmi/features/step_definitions/cal_course_steps.rb, line=7}]","9","12","[app/controllers/cal_courses_controller.rb, app/controllers/mentor_teacher/schedules_controller.rb, app/controllers/user_sessions_controller.rb, app/views/cal_courses/_form.html.erb, app/views/cal_courses/edit.html.haml, app/views/cal_courses/index.html.haml, app/views/cal_courses/new.html.haml, app/views/cal_courses/show.html.haml, app/views/mentor_teacher/schedules/_form.html.haml, app/views/mentor_teacher/schedules/new.html.haml, app/views/user_sessions/new.html.erb, app/views/user_sessions/shared/_error_messages.html.erb]","false","0.25","0","","0",""
"bsmi","135","[12-11-2012]","1","4","[Fixed seeds.rb , Added cal_course to student ID 1 in seeds , Added course selection for students , Added checkboxes ]","1","1","1","1","1","[click_button, check, page, have_content, has_content?, current_url, path, assert_equal, first_name, last_name, email, id]","0","[path:features/enter_course_roster_district.feature, size:1]","1","","0","","0","","0","","[]","","0","9","5","[app/controllers/advisors_controller.rb, app/controllers/mentor_teachers_controller.rb, app/controllers/students_controller.rb, app/views/advisors/index.html.haml, app/views/mentor_teachers/index.html.haml, app/views/students/_form.html.haml, app/views/students/edit.html.haml, app/views/students/index.html.haml, app/views/students/show.html.haml]","[app/controllers/select_timeslots_controller.rb, app/controllers/students_controller.rb, app/views/select_timeslots/cal_course_selection.html.haml, app/views/students/courses.html.haml, app/views/students/select_courses.html.haml]","0.1111111111","0.2","[6d277068abc62a3c03b84070e6bd9475f0af1ba4, e07bdae20a9883b89c71de877b6d150e80e1e65c, 6f6d216673222ada7245296924aac9bf7fc77f82, 282512684adce8f98331ac9adcdde23d13eeed10]","1.942 seconds","3.2.7","[cucumber-rails, rspec-rails, simplecov, factory_girl]","1","[]","6","9","[app/controllers/advisors_controller.rb, app/controllers/mentor_teachers_controller.rb, app/controllers/students_controller.rb, app/views/advisors/index.html.haml, app/views/mentor_teachers/index.html.haml, app/views/students/_form.html.haml, app/views/students/edit.html.haml, app/views/students/index.html.haml, app/views/students/show.html.haml]","false","0.1724137930980975","0","","0",""
"bsmi","136","[12-11-2012]","1","2","[Finished revamping interface , Added user stories ]","1","2","2","0","0","[click_link, page, have_content, has_content?, current_url, path, assert_equal]","0","[path:features/student_advisors_can_review_schedule.feature, size:1]","1","","0","","0","","0","","[]","","0","0","10","[]","[app/views/advisors/index.html.haml, app/views/cal_courses/index.html.haml, app/views/courses/index.html.haml, app/views/districts/index.html.haml, app/views/layouts/application.html.haml, app/views/mentor_teachers/index.html.haml, app/views/schools/index.html.haml, app/views/select_timeslots/_day_page.html.haml, app/views/select_timeslots/_sub_nav.html.haml, app/views/students/index.html.haml]","0.0","0.0","[d418b6c2570e300e71fef2bff7e58fb8103bbb6c, 78f7571ae048c4eaf352a977898a544a50d113d1]","0.504 seconds","3.2.7","[cucumber-rails, rspec-rails, simplecov, factory_girl]","1","[]","0","0","[]","false","0.0","0","","0",""
"bsmi","161","[05-11-2012]","1","3","[all my rspec and cucumber tests past ready to merge into master , cucumber test past for listing student teacher and sorting them by first last name , push ]","1","7","7","1","1","[click_link, click_link, page, have_content, has_content?, current_url, path, assert_equal, body, save]","0","[path:features/student_advisors_can_review_schedule.feature, size:1]","1","","0","","0","","0","","[]","","0","1","4","[app/models/user.rb]","[app/controllers/students_controller.rb, app/views/advisors/index.html.haml, app/views/mentor_teachers/index.html.haml, app/views/students/index.html.haml]","0.0","0.0","[9d0db02a9a15b1cbe70183f7f1264719e2ca9172, 56f238aeacea0c8d02126e4867117f42d29ef270, 6599db9b5d090b495bac217b68d7302ef4864d2c]","0.467 seconds","3.2.7","[cucumber-rails, rspec-rails, simplecov, factory_girl]","3","[]","0","0","[]","false","0.0","0","","0",""
"bsmi","165","[05-11-2012]","1","1","[Changed cucub=mber tests for field placement to work with first_name and last_name now since name no longer exists in user ]","1","2","2","2","2","[hashes, save!, each, page, have_content, has_content?, has_key?, where, nil?, raise]","0","[path:features/student_view_placement.feature, size:1]","1","","0","","0","","0","","[]","","0","12","1","[app/controllers/students_controller.rb, app/models/course.rb, app/models/mentor_teacher.rb, app/models/school.rb, app/models/student.rb, app/models/timeslot.rb, app/models/user.rb, app/views/students/_form.html.haml, app/views/students/edit.html.haml, app/views/students/index.html.haml, app/views/students/new.html.haml, app/views/students/show.html.haml]","[app/views/students/placements.haml]","0.0","0.0","[d255c42d937a6aabc4ed290c214db18ebb7e8ae5]","1.000 seconds","3.2.7","[cucumber-rails, rspec-rails, simplecov, factory_girl]","1","[]","5","6","[app/controllers/students_controller.rb, app/views/students/_form.html.haml, app/views/students/edit.html.haml, app/views/students/index.html.haml, app/views/students/new.html.haml, app/views/students/show.html.haml]","false","0.0","0","","0",""
"bsmi","167","[04-11-2012, 05-11-2012]","2","2","[Finished rspec for cal_course_controller , Reverted dates to original status ]","1","3","3","0","0","[course, mentor_teacher, click_button, fill_in, select, check, page, have_content, has_content?, page, have_content, has_content?, have_no_content, has_no_content?, find_field, tag_name, text, assert_match, within, raise, current_url, path, assert_equal]","0","[path:features/link_cal_courses_to_courses.feature, size:1]","1","","0","","0","","0","","[]","[1]","1","9","3","[app/controllers/cal_courses_controller.rb, app/models/cal_course.rb, app/models/timeslot.rb, app/views/cal_courses/_form.html.erb, app/views/cal_courses/edit.html.haml, app/views/cal_courses/index.html.haml, app/views/cal_courses/new.html.haml, app/views/cal_courses/new_form.html.erb, app/views/cal_courses/show.html.haml]","[app/controllers/cal_courses_controller.rb, app/models/cal_course.rb, app/models/timeslot.rb]","0.3333333333","1.0","[fbc6a325d7a7dfa6c8c0df5bce22bef7f255db92, 62ece1755cecf6254bda338eee2bf14fb56b6480]","1.848 seconds","3.2.7","[cucumber-rails, rspec-rails, simplecov, factory_girl]","12","[{path=BTHUNTERCN_bsmi/features/step_definitions/cal_course_steps.rb, line=7}]","6","7","[app/controllers/cal_courses_controller.rb, app/views/cal_courses/_form.html.erb, app/views/cal_courses/edit.html.haml, app/views/cal_courses/index.html.haml, app/views/cal_courses/new.html.haml, app/views/cal_courses/new_form.html.erb, app/views/cal_courses/show.html.haml]","false","0.714285714255102","0","","0",""
"bsmi","169","[04-11-2012, 05-11-2012]","2","3","[cucumber error found , some modification to cucumber , changed name to first and last ]","1","2","2","1","1","[click_link, page, body]","0","[path:features/student_advisors_can_review_schedule.feature, size:1]","1","","0","","0","","0","","[]","","0","0","5","[]","[app/controllers/advisors_controller.rb, app/controllers/mentor_teachers_controller.rb, app/controllers/students_controller.rb, app/views/advisors/index.html.haml, app/views/students/index.html.haml]","0.0","0.0","[21b50f67cd6f53d8c8975a25b822c18e44fca05c, ee6b3187771d2e54be9c21e03939eef70a8ce34d, fbfed87c84af92db08903316c145911b59e9381d]","0.264 seconds","3.2.7","[cucumber-rails, rspec-rails, simplecov, factory_girl]","1","[]","0","0","[]","false","0.0","0","","0",""
"bsmi","171","[04-11-2012]","1","1","[Completed Cucumber, perfectioned the s app ]","1","4","4","11","11","[course, mentor_teacher, click_button, fill_in, select, check, page, have_content, has_content?, page, have_content, has_content?, have_xpath, has_xpath?, have_no_content, has_no_content?, find_field, tag_name, text, assert_match, within, raise, save, hashes, each, current_url, path, assert_equal]","0","[path:features/link_cal_courses_to_courses.feature, size:1]","1","","0","","0","","0","","[]","[1]","1","14","10","[app/controllers/cal_courses_controller.rb, app/models/cal_course.rb, app/models/course.rb, app/models/district.rb, app/models/mentor_teacher.rb, app/models/school.rb, app/models/timeslot.rb, app/models/user.rb, app/views/cal_courses/_form.html.erb, app/views/cal_courses/edit.html.haml, app/views/cal_courses/index.html.haml, app/views/cal_courses/new.html.haml, app/views/cal_courses/new_form.html.erb, app/views/cal_courses/show.html.haml]","[app/controllers/cal_courses_controller.rb, app/controllers/users_controller.rb, app/models/cal_course.rb, app/models/course.rb, app/models/mentor_teacher.rb, app/models/timeslot.rb, app/views/cal_courses/_form.html.erb, app/views/cal_courses/edit.html.haml, app/views/cal_courses/index.html.haml, app/views/cal_courses/show.html.haml]","0.6428571429","0.9","[d9c1fc990a925c052e05f35ca7ff68397fc52234]","1.501 seconds","3.2.7","[cucumber-rails, rspec-rails, simplecov, factory_girl]","27","[{path=BTHUNTERCN_bsmi/features/step_definitions/cal_course_steps.rb, line=7}]","6","7","[app/controllers/cal_courses_controller.rb, app/views/cal_courses/_form.html.erb, app/views/cal_courses/edit.html.haml, app/views/cal_courses/index.html.haml, app/views/cal_courses/new.html.haml, app/views/cal_courses/new_form.html.erb, app/views/cal_courses/show.html.haml]","false","0.8333333333477366","0","","0",""
"bsmi","174","[04-11-2012]","1","2","[registration,invitation cucumber passes , registration,invitation cucumber passes ]","1","17","17","3","3","[hashes, each, save, current_url, path, assert_equal, click_button, click_button, click_link, click_link, fill_in, fill_in, select, page, have_content, has_content?, have_no_content, has_no_content?, find_field, tag_name, text, assert_match, assert_no_match, within, raise]","0","[path:features/registration_login.feature, size:1]","1","","0","","0","","0","","[app/views/invites/show.html.haml, app/views/users/_adv_form.html.erb]","","0","14","11","[app/controllers/invites_controller.rb, app/controllers/users_controller.rb, app/models/invite.rb, app/models/user.rb, app/views/invites/_form.html.haml, app/views/invites/edit.html.haml, app/views/invites/index.html.haml, app/views/invites/new.html.haml, app/views/users/_form.html.erb, app/views/users/adv_new.html.erb, app/views/users/edit.html.erb, app/views/users/new.html.erb, app/views/users/shared/_error_messages.html.erb, app/views/users/show.html.erb]","[app/controllers/application_controller.rb, app/controllers/invites_controller.rb, app/controllers/users_controller.rb, app/models/invite.rb, app/models/student.rb, app/views/invites/_form.html.haml, app/views/invites/index.html.haml, app/views/students/index.html.haml, app/views/users/_form.html.erb, app/views/users/adv_edit.html.erb, app/views/users/adv_new.html.erb]","0.5","0.6363636364","[93e9ec47cb1e40851a815e07fa5c8166e8832331, 2bab2f36e9e11db32c2269e38ce5247aae5636da]","2.323 seconds","3.2.7","[cucumber-rails, rspec-rails, simplecov, factory_girl]","7","[]","10","12","[app/controllers/invites_controller.rb, app/controllers/users_controller.rb, app/views/invites/_form.html.haml, app/views/invites/edit.html.haml, app/views/invites/index.html.haml, app/views/invites/new.html.haml, app/views/users/_form.html.erb, app/views/users/adv_new.html.erb, app/views/users/edit.html.erb, app/views/users/new.html.erb, app/views/users/shared/_error_messages.html.erb, app/views/users/show.html.erb]","false","0.6034482758882284","0","","0",""
"bsmi","180","[03-11-2012, 04-11-2012]","2","7","[Separated school name and school level and changed table type to show all lines. Makes it easier to see two placements , Separated school name and school level , Added cucumber test for viewing placements. Tests are passing , Got field placements working , Got basic placement information working ignore last commit , Got basic placement information working , Deleted date from application.js since for some reason it looks like it forgot to be added to repo ]","1","2","2","6","6","[hashes, each, save!, page, have_content, has_content?, has_key?, where, nil?, raise]","0","[path:features/student_view_placement.feature, size:1]","1","","0","","0","","0","","[]","","0","13","6","[app/controllers/students_controller.rb, app/models/course.rb, app/models/district.rb, app/models/mentor_teacher.rb, app/models/school.rb, app/models/student.rb, app/models/timeslot.rb, app/models/user.rb, app/views/students/_form.html.haml, app/views/students/edit.html.haml, app/views/students/index.html.haml, app/views/students/new.html.haml, app/views/students/show.html.haml]","[app/controllers/students_controller.rb, app/models/mentor_teacher.rb, app/models/school.rb, app/models/student.rb, app/models/timeslot.rb, app/views/students/placements.haml]","0.3846153846","0.8333333333","[59410b070c8e0bf9397e1a38f8d2bdc1f271dec9, 44d3e58e102d4a9df020ec156b32f6691c5e1c7b, 143309bcaf49c6d62b847561b2520264905079c9, 2523bdc178a81ea226c424e9ae6908d2f1a93dc0, b5fe9c08ce889ffbde6a046bd135cb80357a1cf1, 9ccd3c0db6d08eefdc2bacbced15ea970dce4b0a, 29a153172f2eb04aab6fd95c1697149726385b7f]","0.687 seconds","3.2.7","[cucumber-rails, rspec-rails, simplecov, factory_girl]","1","[]","5","6","[app/controllers/students_controller.rb, app/views/students/_form.html.haml, app/views/students/edit.html.haml, app/views/students/index.html.haml, app/views/students/new.html.haml, app/views/students/show.html.haml]","false","0.6756756756486486","0","","0",""
"bsmi","185","[03-11-2012]","1","2","[Added basic view placements for student , Fixed select timeslots not passing cucumber scenario where user can't pick more than one time slot per rank ]","1","2","0","0","0","[]","0","[path:features/student_rank_time_slots.feature, size:2]","2","","0","","0","","0","","[]","","0","0","3","[]","[app/controllers/select_timeslots_controller.rb, app/controllers/students_controller.rb, app/views/students/placements.haml]","0.0","0.0","[82f39fe85086641c1cb8dfd5ca7f9b4b84c006c5, 4e28f3494dfcda7a3a616b27c616c14f005fd6c2]","0.120 seconds","3.2.7","[cucumber-rails, rspec-rails, simplecov, factory_girl]","0","[]","0","0","[]","false","0.0","0","","0",""
"bsmi","194","[03-11-2012]","1","3","[Fixed rspec tests , Cucumber and rspec passing , Deleted useless scenarios ]","1","1","0","1","1","[hashes, each]","0","[path:features/student_rank_time_slots.feature, size:2]","2","","0","","0","","0","","[]","","0","1","1","[app/models/timeslot.rb]","[app/models/timeslot.rb]","1.0","1.0","[080af5cb93d2486002465db044bf4a707448cb20, 01e288e461c7fb90f3377dea1ad0fe38b77cf529, 83048a91aae97b4b227352455540eb8ac56cb67f]","0.180 seconds","3.2.7","[cucumber-rails, rspec-rails, simplecov, factory_girl]","0","[]","0","0","[]","false","1.0","0","","0",""
"bsmi","197","[28-10-2012, 29-10-2012, 31-10-2012, 02-11-2012, 03-11-2012]","7","23","[Deleted useless specs , Changed relationship between student and timeslot. Student has a many-to-many relations with timeslot , Revert ""Added cucumber test to make sure students cant set the same rankings for two preferences""  This reverts commit e9f1ac8d7e3f4c6e0df5014f11f45d54230886c0. , Started initial settings , Added setting model , Revert ""Setup rails-settings-cached gem for managing global settings""  This reverts commit 4ed8288900c93feafbad6dd9b670f1dad0bc76cf. , Added skeleton code from scaffolding , Setup rails-settings-cached gem for managing global settings , Added cucumber test to make sure students cant set the same rankings for two preferences , Changed calendar height , Added bootstrap css to buttons , Implemented cucumber scenario where rankings have to be correct if a user deletes a preferences , Disable validation when correcting rankings , Added quiet_assets to stop rails server from spamming with assets , Corrected Enter time preferences case , made the input valu [TOO_LONG]","1","4","1","1","1","[click_button, select, save, hashes, each, page, find, click]","0","[path:features/student_rank_time_slots.feature, size:3]","3","","0","","0","","0","","[app/models/setting.rb]","","0","6","22","[app/models/preference.rb, app/views/students/_form.html.haml, app/views/students/edit.html.haml, app/views/students/index.html.haml, app/views/students/new.html.haml, app/views/students/show.html.haml]","[app/controllers/courses_controller.rb, app/controllers/districts_controller.rb, app/controllers/schools_controller.rb, app/controllers/select_timeslots_controller.rb, app/controllers/settings_controller.rb, app/helpers/settings_helper.rb, app/models/preference.rb, app/models/setting.rb, app/models/student.rb, app/models/timeslot.rb, app/views/layouts/application.html.haml, app/views/schools/_form.html.haml, app/views/schools/index.html.haml, app/views/schools/show.html.haml, app/views/select_timeslots/_day_page.html.haml, app/views/select_timeslots/_day_selection.html.haml, app/views/select_timeslots/rank.html.haml, app/views/settings/_form.html.haml, app/views/settings/edit.html.haml, app/views/settings/index.html.haml, app/views/settings/new.html.haml, app/views/settings/show.html.haml]","0.1666666667","0.0454545455","[089308d1fb01b6a0f4de7b02c84dc262ab1626da, 9350ae2a0de6badd81d587537cd3648ba5f8088b, 8703982aed26f9dbf8e73c434dfcdc9b749acfbb, d150bcdf0263eceb994d8ac8c8c8a7c0bdd8d696, 60614d9844043b8d3b4eae4c829c695278f9f37e, 29b9f5aa229fb509166f3e85eeb6790cbb17c4b9, a48be18a3192a36f72734ebb3808766c62ef2c21, 4ed8288900c93feafbad6dd9b670f1dad0bc76cf, e9f1ac8d7e3f4c6e0df5014f11f45d54230886c0, 84c4805ffd956aff182661bd04ba25200c7af70b, 26d45dbbcf6746a43366ae3ce891b1cf8bb7c23d, 80d78f5717cdefebe7201a68dcf3ba754663d5d9, 7adea999f708415894ff2ae9129a87f4f6ad6481, 92cf6e938231ba4031578319afef0251ca73b617, 3e74db58a37ce27bb6e8310eac96c069e8d894d5, cfdec4225bd18e28ce93d3bceda1ff3f4ac2ef21, f3a29e93f9415d68b170a2076f6aa636e3b3bd93, 0c0aee64a84230a0b8d017fa2bafbd08787d038c, 7b3eb60fd010c4e7343ec148c6d956c1d8221185, 224cd89a76a82d29d699c050e99f65d75697c886, 4be020a4479a4d93f93797ce55aed11129ee1791, 13039ea94df9bb34b935651398fe3c41c8e642b2, 95db8281d5b76f5157b2f7ed9891c6c7a266dd3b]","0.724 seconds","3.2.7","[cucumber-rails, rspec-rails, simplecov, factory_girl]","2","[]","5","5","[app/views/students/_form.html.haml, app/views/students/edit.html.haml, app/views/students/index.html.haml, app/views/students/new.html.haml, app/views/students/show.html.haml]","false","0.05319148941217745","0","","0",""
"bsmi","201","[01-11-2012]","1","1","[Finished cal_course, miss cucumber / rspec ]","1","1","1","0","0","[]","0","[path:features/link_cal_courses_to_courses.feature, size:1]","1","","0","","0","","0","","[]","[/cal_course/new]","1","0","8","[]","[app/controllers/cal_courses_controller.rb, app/controllers/users_controller.rb, app/models/mentor_teacher.rb, app/models/preference.rb, app/models/timeslot.rb, app/views/cal_courses/_form.html.erb, app/views/cal_courses/index.html.haml, app/views/cal_courses/show.html.haml]","0.0","0.0","[f153baa4c5bace2988ea8ce605bac7e49fb18528]","0.222 seconds","3.2.7","[cucumber-rails, rspec-rails, simplecov, factory_girl]","1","[]","0","0","[]","false","0.0","0","","0",""
"bsmi","214","[26-10-2012]","1","2","[Moved thin gem , Forgot to add files ]","1","1","1","0","0","[click_link, page, have_content, has_content?, save]","0","[path:features/student_jump_between_selection.feature, size:1]","1","","0","","0","","0","","[]","","0","5","2","[app/views/students/_form.html.haml, app/views/students/edit.html.haml, app/views/students/index.html.haml, app/views/students/new.html.haml, app/views/students/show.html.haml]","[app/views/select_timeslots/_day_page.html.haml, app/views/select_timeslots/_sub_nav.html.haml]","0.0","0.0","[346c063ce7f6f5625d1a8ffa375c78e9c456a89b, 639a32fa78193050016c485fcee6bb161087d7d0]","0.896 seconds","3.2.7","[cucumber-rails, rspec-rails, simplecov, factory_girl]","1","[]","5","5","[app/views/students/_form.html.haml, app/views/students/edit.html.haml, app/views/students/index.html.haml, app/views/students/new.html.haml, app/views/students/show.html.haml]","false","0.0","0","","0",""
"bsmi","223","[22-10-2012]","1","2","[Made some fixes to mentor teacher schedule controller and view , Added num_assistants field to timeslots ]","1","1","0","0","0","[]","0","[path:features/mentor_teacher_schedule.feature, size:2]","2","","0","","0","","0","","[]","","0","0","5","[]","[app/controllers/mentor_teacher/schedules_controller.rb, app/views/mentor_teacher/schedules/_day_schedule.html.haml, app/views/mentor_teacher/schedules/_timeslot_form.html.haml, app/views/mentor_teacher/schedules/new.html.haml, app/views/mentor_teacher/schedules/show.html.haml]","0.0","0.0","[d1f34d4d8e8c4a9f4dd162aa6379dc788241bf40, 86b5f048dd108e9b363475bf7f676597115602f4]","0.088 seconds","3.2.7","[cucumber-rails, rspec-rails, simplecov]","0","[]","0","0","[]","false","0.0","0","","0",""
"bsmi","239","[21-10-2012]","1","3","[Added calendar_steps.rb , Fixed rspec tests , Got part of cucumber tests working ]","1","1","1","5","5","[click_button, select, save, hashes, each, page, find, click]","0","[path:features/student_rank_time_slots.feature, size:1]","1","","0","","0","","0","","[]","","0","7","1","[app/models/student.rb, app/models/timeslot.rb, app/views/students/_form.html.haml, app/views/students/edit.html.haml, app/views/students/index.html.haml, app/views/students/new.html.haml, app/views/students/show.html.haml]","[app/views/select_timeslots/rank.html.haml]","0.0","0.0","[b4a0ca178c3835f3bccb43dfde533bc0c604daa3, ed6b09a37d4dce5426a58a52ab1f2cdef023ea80, 3777c37a1dabdeec0c18ecd01a5fe2cf355a6426]","0.707 seconds","3.2.7","[cucumber-rails, rspec-rails, simplecov]","4","[]","5","5","[app/views/students/_form.html.haml, app/views/students/edit.html.haml, app/views/students/index.html.haml, app/views/students/new.html.haml, app/views/students/show.html.haml]","false","0.0","0","","0",""
"bsmi","255","[14-10-2012, 15-10-2012]","2","6","[login registration implemented + cucumber feature , login registration implemented 2 , login register implemented , sangyoon_mentorteacher_registration_5 , sangyoon_mentorteacher_registration_5 , sangyoon_mentorteacher_registration_4 ]","1","6","0","0","0","[]","0","[path:features/registration_login.feature, size:3]","3","","0","","0","","0","","[app/controllers/login_controller.rb, app/controllers/login_mentorteacher_controller.rb, app/controllers/register_controller.rb, app/controllers/registration_mentorteacher_controller.rb, app/helpers/login_helper.rb, app/helpers/login_mentorteacher_helper.rb, app/helpers/register_helper.rb, app/helpers/registration_mentorteacher_helper.rb, app/models/mentorteacher.rb, app/views/login/index.html.erb, app/views/login_mentorteacher/show.html.erb, app/views/register/index.html.haml, app/views/register/new.html.erb, app/views/registration_mentorteacher/index.html.erb, app/views/registration_mentorteacher/new.html.erb]","","0","0","15","[]","[app/controllers/application_controller.rb, app/controllers/user_sessions_controller.rb, app/controllers/users_controller.rb, app/helpers/user_sessions_helper.rb, app/helpers/users_helper.rb, app/models/user.rb, app/models/user_session.rb, app/views/layouts/application.html.erb, app/views/user_sessions/new.html.erb, app/views/user_sessions/shared/_error_messages.html.erb, app/views/users/_form.html.erb, app/views/users/edit.html.erb, app/views/users/new.html.erb, app/views/users/shared/_error_messages.html.erb, app/views/users/show.html.erb]","0.0","0.0","[93c66b087589f38117c48be4a481bc2c4448e836, 4f9b77cde6533677ae2b274bec473ae8a830bfe1, 5388fc29c6758f530629bea2a4fc6bfa199e1d5b, 72c0ef4b3551906bfcc8aa6ae31363c819513d71, 3ca22f3bc1ee2b2f24bffc9ecb4e61253911fe6e, eb68457aacc1cadf152f9e17e245d96b557be1a9]","0.026 seconds","3.2.7","[cucumber-rails, rspec-rails, simplecov]","0","[]","0","0","[]","false","0.0","0","","0",""
"bsmi","264","[14-10-2012]","1","3","[Updated schema , fixed timeslot creation , Made timeslot belong to :teacher as opposed to :teachers ]","2","2","0","0","0","[]","0","[path:features/step_definitions/mentor_teacher_schedule.feature, size:2]","2","","0","","0","","0","","[]","","0","0","1","[]","[app/models/timeslot.rb]","0.0","0.0","[30e2270c5c97ad658553fd97339025eb59a5caf9, 2e22f788021a85da7f1c9f72415e009c8b6cf27f, 60908b4437d4f71c5340996c240ca34934cd3807]","0.032 seconds","3.2.7","[cucumber-rails, rspec-rails, simplecov]","0","[]","0","0","[]","false","0.0","0","","0",""
