"REPO_URL","TASK_ID","#HASHES","HASHES","#PROD_FILES","#TEST_FILES","LAST","MERGE","BASE"
"https://github.com/Arie/serveme.git","9","6","[0ba3ffbf6838dba4d13a33322c2a275f5f42e82f, c4c53c12a14b8976edebfd289c1f04147f540d56, beeb2d6e0aae80d3a3b2374fbdd6ff5c067fb493, f02005ba2fcf43ce4652ba81954d01b189df10fe, 6c1b18f1095c3368146ed650f79be8ed606cb6e0, 3d66fab0d32d9b0ba99e210faabddf96af4e37b8]","15","1","0ba3ffbf6838dba4d13a33322c2a275f5f42e82f","333075a700357d91fd0bed722eabf7664263463f","1a3aac5e7791d0acaff8be82be0ab4afca6017d6"
"https://github.com/Arie/serveme.git","27","5","[ebd5db06a9d0ff91b978c074142411aa2ea9d183, 5020e267f77e900ef8a90d502b4d0065db779a1d, 569fa3838d01216c986396265814f9d62b23059d, 6afb9433a3df345d58ff32207745e173790db95c, 9f72d6e606e71f080ba1c2df5064f4a556cdf4ea]","10","1","ebd5db06a9d0ff91b978c074142411aa2ea9d183","11bf5d86597708f188e40be23ae39a4603a5fac0","3deb11a4e920cc049120ee85bcb4829cd0954e0e"
"https://github.com/Arie/serveme.git","29","16","[6ca52c1aeb703fcad46771bbc953ed6330204b88, 998e733a42e805e50835e4b46ede7fa76600c2fe, 8047cf93ab28d121b7ca8875dd3fba5668ab2710, ca30aa26eb14bc2902ba25d19349c1a1597811e9, 1347a7d22040f8c2dd7408b0d6788c6e33a543a0, 19d75dac585bff9ed1aa54d42820891a202ed89a, f777f2106016a25921821eaa190505cbc461457c, 5fbc72070a047394be2ee33628444dc82c6583fd, 685a1f83ce762409ee9c2bdb400511cbe9750b6c, 48ad23ccaaeff941a1d740a7342a8402d04ebb2b, efeed86d83499c2b514591bb371eca59f901b4b4, 18f0a78eab6bad812d65020b896cf7f09cfd77d2, 8264d57c49c02de5703070cb8fa7b8da8335b2dd, 3db9478f3ab84cda25fea9d7bc8b471074f61e08, 0465af0a04c7351a2218bf9e9f2f683cfec7c466, 1b668c86dada6a3e14c23d01960d2104b2c4ee6b]","13","1","6ca52c1aeb703fcad46771bbc953ed6330204b88","55714a70e8fcb8fc10dc229c98ee9b96b10fcaad","bfdfde8854ab864c4781b004cda604c35227ca6c"
