"REPO_URL","TASK_ID","#HASHES","HASHES","#PROD_FILES","#TEST_FILES","LAST","MERGE","BASE"
"https://github.com/NYULibraries/privileges.git","4","25","[9e037487b45cbefe05327ec3f1949434424523fa, 49f01a2a4ad99d3486905f1b7161ac2e17875225, fdd70ca32fb2044ffdb8cf9d66455adce185c775, bb3324164af83b8d02cbb591cbfd063a7ce54c82, ca2d8640fdb199e4e053446e05f13b3b862363f1, bc35cd084b35d8deba2a7e1285dc3e666e6edfd3, 4d2511e291e175e089afdc015d2aba9f94cf4510, 990ba060704ea4831e3153e429f22ac26f5b0b89, 7588492c9b6b06534cbfea37b8c195ee422aaf7d, 9757ff5f26e1b112913ab03827d27bc502626198, f3b6e4310d5967a8f0af22f61fbfae94e9cbb7a2, 2db37f4062cf31461d98ad5c482430c17be7c696, 34c735cf217afa61c39da0a155c2bf41c0963c56, 2ae24d96e4a77ea63db02acc5f3ca66ae4fbf675, 3a9a64b43692ed78c47eab67d1ae330d8f5565bb, c4b4cfe07d7f8383c33933165fdc62c445aad27a, b5a2e442e435117d1457712ad81069080fed72a8, 9d986a9cecba04a6da24a7f9bf06c7ee6d4a0067, c23d7c8c569e60837ea979f6b2fc6a637e6b4f5a, 9528f5013840cc3f98b6069b5a28722f69615362, d97085790f93a071f193ccf4fd6025039297d551, 8248aedbd976036ef4c34cc4d30be36c96e835ec, 1741bb2c3124acc742fea53cc001aa990571dc20, f907b6037f02ed2942b2297e1532d2cf9126b783, a9c111fb05c4c6fb101a095fe3d5fb5bd976de65]","20","1","9e037487b45cbefe05327ec3f1949434424523fa","6eba9a4fffa7144b1fb409e6668cbf058be484cf","f0cf40f254ce855fd5b7c041e6ebf3e429176342"
"https://github.com/NYULibraries/privileges.git","21","1","[1849c9eaf10f2b72220a3347877420c416166495]","16","1","1849c9eaf10f2b72220a3347877420c416166495","30a8d0b7d386eaac2e61f6554b5469015e16c9b1","215f749b12e427822a549849586c187f30b75f59"
"https://github.com/NYULibraries/privileges.git","26","8","[aeb68f21071514e6914f841a2b21a0c2b920902b, df3d85961936ec41044ca4ef87d617c18d127939, cf8acec4914dc227764ed4895d4bc9201a993234, f5fb51caf93d5beb4cf00d2cc18b2ce329566bb7, 2adcd30ede3235f37d5d2ed3827806bac8df25d5, d3571366f56529fd7d4ea43390c37c97bfcda3f7, 06fb9d85b489e868ac2b2eb36f21c202a69ab57e, b6d32f66e1e55d96928912e1736360400cd82289]","1","1","aeb68f21071514e6914f841a2b21a0c2b920902b","2f2142c444efee8e11cbf3beb58961e22d0737e2","c0c6a77789a3652bf4c604d184e7b6fd09837320"
