"REPO_URL","TASK_ID","#HASHES","HASHES","#PROD_FILES","#TEST_FILES","LAST","MERGE","BASE"
"https://github.com/qiushibaike/moumentei.git","6","1","[8d9049965026d89e98b313d8384f487e6fba2181]","322","1","8d9049965026d89e98b313d8384f487e6fba2181","4f79174e8ed6c455d0dceb3d86a39d8805f2afa2","846822844b38882faad26d6094107ba79aac8179"
"https://github.com/qiushibaike/moumentei.git","8","23","[c6de8b5c4c1d0b5003b8251e96b45bf16fe8b969, b7bda26218e4713a8a01c36648186f391bf87f9c, a3cf57e4b70ddb86cd8576c4ee2f3352e912a289, 92f37b4963c4bc08e8917f9cc291272b36e3cc03, bd3c22b84884dfa1947594d437f3faf10d51ddf7, 2c4da8294849da10e9a719746ffb7a5f677f2487, d2223150032588c18aa2f65e1a6eb2734264e32b, c6c739d5b7482da14434bbc4d14fcb6e7192e697, ad7016ba76b89ca981507fbc4a27c636f7f1b774, 23064d878997e6bebaaf98a4a7ce9c5413e9caea, 0639f7851c1849bfed7404d4a5e0cb476dc84a45, 22816c8681eae689c64058e2bc8348cfe9dc84d5, 46086e63385c8380e11c98a0c3dfd3f1a669a3c4, 9c272720360565d7acf9b3887111113420b1907f, 605a6c5f57aaedc7ba500f648402cd90f7060dd5, 7df015d88c0b82fc9fcefab4560496549a45fbe8, b3a0c3e1a203c20a50c39e48b24ffbb5fd7c3928, 591289c72ed6521a69f0411274e7839e535e10c1, 4b81de7446b5704df9dd1a44d73ec8a0347482f2, 2792b071aa4000b600f4a57196a82eca468c51cd, a10e2a88bbb51aeb862a2522f77928f5a322b4c8, a1fb7178a5bdded2e5d0e7feeb1c8c363b53e2f1, a9df4873f3dc282f5a65871ae38eb8c57d3363a9]","292","1","c6de8b5c4c1d0b5003b8251e96b45bf16fe8b969","012605667ae3f301aa2937ae26be46dd7a0da46a","103ad155244128b0efb11eec94dc8dd764b95faa"
