[path:/features/step_definitions/admin_steps.rb, methods:[40]]
[path:/features/step_definitions/comment_steps.rb, methods:[45, 56, 64, 71, 77, 86, 98, 33]]
[path:/features/step_definitions/generic_steps.rb, methods:[107, 0, 62, 66, 70, 103, 117, 127, 178]]
[path:/features/step_definitions/tag_steps.rb, methods:[7]]
[path:/features/step_definitions/user_steps.rb, methods:[57, 105, 38]]
[path:/features/step_definitions/web_steps.rb, methods:[158, 106, 32, 75, 26, [name:with_scope, step:When ], [name:with_scope, step:Then ], [name:with_scope, step:Given ]]]
[path:/features/step_definitions/work_steps.rb, methods:[191, 160, 50, 35, 11, 241]]
