[path:/features/step_definitions/admin_steps.rb, methods:[40, 375, 362, 382, 389, 396, 368]]
[path:/features/step_definitions/comment_steps.rb, methods:[56, 71, 45, 64, 77, 98, 33]]
[path:/features/step_definitions/tag_steps.rb, methods:[7]]
[path:/features/step_definitions/user_steps.rb, methods:[57, 105, 30, 38, 65]]
[path:/features/step_definitions/web_steps.rb, methods:[106, 32, 38, 26, 158, [name:with_scope, step:When ], [name:with_scope, step:Then ], [name:with_scope, step:Given ]]]
[path:/features/step_definitions/work_steps.rb, methods:[50, 147, 35, 109, 11, 243]]
