"Repository","https://github.com/sachac/quantified.git"
"Tasks with empty IReal","0"
"Tasks with no-empty IReal","5"
"Tasks with relevant AST error","0"
"Tasks with AST error of Gherkin files","0"
"Tasks with AST error of StepDef files","0"
"Tasks with AST error of production files","0"
"Tasks with AST error of unit test files","0"
"Tasks with step match error","5"
"Tasks without required gems","0"
"Tasks with changed stepdef","5"
"Tasks with changed Gherkin","5"
"Tasks with implemented Gherkin scenarios","5"
"All invalid tasks","5"
"All valid tasks (Gherkin scenario, no empty IReal, no error)","0"
"Valid tasks, but empty ITest","0"
"Valid tasks, no empty ITest, but zero precision-recall","0"
"Valid tasks, no empty ITest, no zero precision-recall","0"
"Project","Task","Date","#Days","#Commits","Commit_Message","#Devs","#Gherkin_Tests","#Impl_Gherkin_Tests","#StepDef","#Impl_StepDef","Methods_Unknown_Type","#Step_Call","Step_Match_Errors","#Step_Match_Error","AST_Errors","#AST_Errors","Gherkin_AST_Errors","#Gherkin_AST_Errors","Steps_AST_Errors","#Steps_AST_Errors","Renamed_Files","Deleted_Files","NotFound_Views","#Views","#TestI","#TaskI","TestI","TaskI","Precision","Recall","Hashes","Timestamp","Rails","Gems","#Visit_Call","Lost_visit_call","#Views_ITest","#Code_View_Analysis","Code_View_Analysis","Has_Merge","F2","#Multiple_Step_Matches","Multiple_Step_Matches","#Generic_Step_Keyword","Generic_Step_Keyword"
"quantified","24","[05-07-2013]","1","1","[Goal interface, yay ]","1","3","2","10","10","[click_link, fill_in, click_button, page, body, include, hashes, each, page, have_content, click_link, fill_in, choose, click_button, delete, btn btn-primary, save, full_name, id, category_type, record_category, secondary_subject, create, find_by_name, select]","0","[path:features/goals.feature, size:1]","1","","0","","0","","0","","[]","[app/views/clothing_logs/_clothing_log_entry.html.haml, app/views/home/_current_activity.html.haml, app/views/home/_quick_record.html.haml, app/views/record_categories/_filters.html.haml, app/views/record_categories/_quick_record.html.haml, app/views/records/_quick_record.html.haml, app/views/time/_activity_summary_.html.haml, app/views/time/_filters.html.erb, app/views/time/_filters.html.haml, clothing_index, stuff_index]","11","69","10","[app/controllers/api/v1/records_controller.rb, app/controllers/clothing_logs_controller.rb, app/controllers/goals_controller.rb, app/controllers/home_controller.rb, app/controllers/library_items_controller.rb, app/controllers/memories_controller.rb, app/controllers/record_categories_controller.rb, app/controllers/records_controller.rb, app/controllers/time_controller.rb, app/controllers/timeline_events_controller.rb, app/controllers/toronto_libraries_controller.rb, app/models/clothing_log.rb, app/models/context.rb, app/models/goal.rb, app/models/library_item.rb, app/models/memory.rb, app/models/record_category.rb, app/models/timeline_event.rb, app/models/toronto_library.rb, app/models/user.rb, app/views/application/_quick_record.html.haml, app/views/clothing_logs/_by_date.html.haml, app/views/clothing_logs/by_date.html.haml, app/views/goals/_explain_goal.html.haml, app/views/goals/_form.html.haml, app/views/goals/_summary.html.haml, app/views/goals/index.html.haml, app/views/goals/new.html.haml, app/views/home/index.html.haml, app/views/library_items/current.html.haml, app/views/memories/_form.html.haml, app/views/memories/index.html.haml, app/views/memories/new.html.haml, app/views/record_categories/_activity_summary.html.haml, app/views/record_categories/_form.html.haml, app/views/record_categories/_list.html.haml, app/views/record_categories/disambiguate.html.haml, app/views/record_categories/edit.html.haml, app/views/record_categories/index.html.haml, app/views/record_categories/new.html.haml, app/views/record_categories/show.html.haml, app/views/record_categories/tree.html.haml, app/views/records/_summary.html.haml, app/views/records/index.html.haml, app/views/time/_activity_summary.html.haml, app/views/time/_activity_summary_daily.html.haml, app/views/time/_activity_summary_monthly.html.haml, app/views/time/_activity_summary_weekly.html.haml, app/views/time/_by_day_summary.html.haml, app/views/time/_nav.html.haml, app/views/time/_start_end_form.html.erb, app/views/time/circle.html.erb, app/views/time/clock.html.erb, app/views/time/dashboard.html.haml, app/views/time/graph.html.erb, app/views/time/index.html.haml, app/views/time/index_org.html.haml, app/views/time/refresh.html.haml, app/views/time/review.html.haml, app/views/timeline_events/_form.html.haml, app/views/timeline_events/edit.html.haml, app/views/timeline_events/index.html.haml, app/views/timeline_events/new.html.haml, app/views/timeline_events/show.html.haml, app/views/toronto_libraries/_form.html.haml, app/views/toronto_libraries/edit.html.haml, app/views/toronto_libraries/index.html.haml, app/views/toronto_libraries/new.html.haml, app/views/toronto_libraries/show.html.haml]","[app/controllers/goals_controller.rb, app/helpers/application_helper.rb, app/models/ability.rb, app/models/goal.rb, app/models/record.rb, app/views/goals/_explain_goal.html.haml, app/views/goals/_form.html.haml, app/views/goals/index.html.haml, app/views/goals/show.html.haml, app/views/record_categories/show.html.haml]","0.0869565217","0.6","[e939d1bdde323f551953c3355f1c2f224d4d1503]","8.853 seconds","3.2.13","[cucumber-rails, rspec-rails, simplecov, factory_girl]","9","[]","49","60","[app/controllers/api/v1/records_controller.rb, app/controllers/clothing_logs_controller.rb, app/controllers/goals_controller.rb, app/controllers/home_controller.rb, app/controllers/library_items_controller.rb, app/controllers/memories_controller.rb, app/controllers/record_categories_controller.rb, app/controllers/records_controller.rb, app/controllers/time_controller.rb, app/controllers/timeline_events_controller.rb, app/controllers/toronto_libraries_controller.rb, app/views/application/_quick_record.html.haml, app/views/clothing_logs/_by_date.html.haml, app/views/clothing_logs/by_date.html.haml, app/views/goals/_explain_goal.html.haml, app/views/goals/_form.html.haml, app/views/goals/_summary.html.haml, app/views/goals/index.html.haml, app/views/goals/new.html.haml, app/views/home/index.html.haml, app/views/library_items/current.html.haml, app/views/memories/_form.html.haml, app/views/memories/index.html.haml, app/views/memories/new.html.haml, app/views/record_categories/_activity_summary.html.haml, app/views/record_categories/_form.html.haml, app/views/record_categories/_list.html.haml, app/views/record_categories/disambiguate.html.haml, app/views/record_categories/edit.html.haml, app/views/record_categories/index.html.haml, app/views/record_categories/new.html.haml, app/views/record_categories/show.html.haml, app/views/record_categories/tree.html.haml, app/views/records/_summary.html.haml, app/views/records/index.html.haml, app/views/time/_activity_summary.html.haml, app/views/time/_activity_summary_daily.html.haml, app/views/time/_activity_summary_monthly.html.haml, app/views/time/_activity_summary_weekly.html.haml, app/views/time/_by_day_summary.html.haml, app/views/time/_nav.html.haml, app/views/time/_start_end_form.html.erb, app/views/time/circle.html.erb, app/views/time/clock.html.erb, app/views/time/dashboard.html.haml, app/views/time/graph.html.erb, app/views/time/index.html.haml, app/views/time/index_org.html.haml, app/views/time/refresh.html.haml, app/views/time/review.html.haml, app/views/timeline_events/_form.html.haml, app/views/timeline_events/edit.html.haml, app/views/timeline_events/index.html.haml, app/views/timeline_events/new.html.haml, app/views/timeline_events/show.html.haml, app/views/toronto_libraries/_form.html.haml, app/views/toronto_libraries/edit.html.haml, app/views/toronto_libraries/index.html.haml, app/views/toronto_libraries/new.html.haml, app/views/toronto_libraries/show.html.haml]","false","0.27522935771976265","0","","0",""
"quantified","128","[23-11-2011, 27-11-2011, 28-11-2011, 29-11-2011]","7","5","[Add memories , Tweak , Add tests , Add tests , Getting dev into shape so I can use it for testing ]","1","22","18","56","56","[click_link, page, have_content, host!, body, include, Factory, click_link, fill_in, click_button, page, body, include, hashes, blank?, save, each, id, find, within, have_selector, fill_in, click_button, user_id, status, Factory, tag_list, save!, username, root_url, hashes, choose, each, user, date, clothing_id, clothing, save, delete, raw, each]","0","[path:features/framework.feature, size:2]","2","","0","","0","","0","","[]","[app/views/csa_foods/_food.html.haml, clothing_index, stuff_index]","3","59","32","[app/controllers/clothing_controller.rb, app/controllers/clothing_logs_controller.rb, app/controllers/contexts_controller.rb, app/controllers/csa_foods_controller.rb, app/controllers/home_controller.rb, app/controllers/library_controller.rb, app/controllers/library_items_controller.rb, app/controllers/memories_controller.rb, app/controllers/toronto_libraries_controller.rb, app/models/clothing.rb, app/models/clothing_log.rb, app/models/context.rb, app/models/csa_food.rb, app/models/library_item.rb, app/models/memory.rb, app/models/toronto_library.rb, app/models/user.rb, app/views/clothing/_clothing_thumbnails.html.erb, app/views/clothing/_form.html.haml, app/views/clothing/analyze.html.haml, app/views/clothing/bulk.html.haml, app/views/clothing/edit.html.haml, app/views/clothing/graph.html.erb, app/views/clothing/index.html.haml, app/views/clothing/new.html.haml, app/views/clothing/show.html.haml, app/views/clothing_logs/_by_date.html.haml, app/views/clothing_logs/_form.html.haml, app/views/clothing_logs/by_date.html.haml, app/views/clothing_logs/edit.html.haml, app/views/clothing_logs/index.html.haml, app/views/clothing_logs/new.html.haml, app/views/clothing_logs/show.html.haml, app/views/contexts/_form.html.haml, app/views/contexts/index.html.haml, app/views/contexts/new.html.haml, app/views/csa_foods/_form.html.haml, app/views/csa_foods/edit.html.haml, app/views/csa_foods/index.html.haml, app/views/csa_foods/show.html.haml, app/views/home/index.html.haml, app/views/library_items/_form.html.haml, app/views/library_items/current.html.haml, app/views/library_items/edit.html.haml, app/views/library_items/index.html.haml, app/views/library_items/new.html.haml, app/views/library_items/show.html.haml, app/views/memories/_form.html.haml, app/views/memories/edit.html.haml, app/views/memories/index.html.haml, app/views/memories/new.html.haml, app/views/memories/show.html.haml, app/views/partials/_clothing_log_entry.html.haml, app/views/partials/_colours.html.haml, app/views/toronto_libraries/_form.html.haml, app/views/toronto_libraries/edit.html.haml, app/views/toronto_libraries/index.html.haml, app/views/toronto_libraries/new.html.haml, app/views/toronto_libraries/show.html.haml]","[app/controllers/application_controller.rb, app/controllers/clothing_controller.rb, app/controllers/clothing_logs_controller.rb, app/controllers/contexts_controller.rb, app/controllers/home_controller.rb, app/controllers/library_items_controller.rb, app/controllers/memories_controller.rb, app/controllers/time_controller.rb, app/helpers/application_helper.rb, app/helpers/memories_helper.rb, app/models/ability.rb, app/models/clothing.rb, app/models/clothing_log.rb, app/models/clothing_match.rb, app/models/memory.rb, app/models/time_tracker_log.rb, app/models/user.rb, app/views/clothing/_form.html.haml, app/views/clothing/edit.html.haml, app/views/clothing/index.html.haml, app/views/clothing/show.html.haml, app/views/devise/sessions/new.html.haml, app/views/home/index.html.haml, app/views/layouts/application.html.haml, app/views/library_items/current.html.haml, app/views/library_items/index.html.haml, app/views/memories/_form.html.haml, app/views/memories/edit.html.haml, app/views/memories/index.html.haml, app/views/memories/new.html.haml, app/views/memories/show.html.haml, lib/exceptions.rb]","0.3728813559","0.6875","[1b7694d18222c787f1fcfad85637604b9a560285, 690676bf57660f8304e2823bf72bf037866e7d24, ea0b851a8933ea58b7318245a3bdf2294e26015b, 505c2222b9ed563e0b5992855fb1b2481bde767c, cf3902362789f42ec7dea3a18f1da208b58f515e]","11.419 seconds","3.0.10","[cucumber-rails, rspec-rails, factory_girl]","24","[{path=sachac_quantified/features/step_definitions/steps.rb, line=-1}]","42","51","[app/controllers/clothing_controller.rb, app/controllers/clothing_logs_controller.rb, app/controllers/contexts_controller.rb, app/controllers/csa_foods_controller.rb, app/controllers/home_controller.rb, app/controllers/library_controller.rb, app/controllers/library_items_controller.rb, app/controllers/memories_controller.rb, app/controllers/toronto_libraries_controller.rb, app/views/clothing/_clothing_thumbnails.html.erb, app/views/clothing/_form.html.haml, app/views/clothing/analyze.html.haml, app/views/clothing/bulk.html.haml, app/views/clothing/edit.html.haml, app/views/clothing/graph.html.erb, app/views/clothing/index.html.haml, app/views/clothing/new.html.haml, app/views/clothing/show.html.haml, app/views/clothing_logs/_by_date.html.haml, app/views/clothing_logs/_form.html.haml, app/views/clothing_logs/by_date.html.haml, app/views/clothing_logs/edit.html.haml, app/views/clothing_logs/index.html.haml, app/views/clothing_logs/new.html.haml, app/views/clothing_logs/show.html.haml, app/views/contexts/_form.html.haml, app/views/contexts/index.html.haml, app/views/contexts/new.html.haml, app/views/csa_foods/_form.html.haml, app/views/csa_foods/edit.html.haml, app/views/csa_foods/index.html.haml, app/views/csa_foods/show.html.haml, app/views/home/index.html.haml, app/views/library_items/_form.html.haml, app/views/library_items/current.html.haml, app/views/library_items/edit.html.haml, app/views/library_items/index.html.haml, app/views/library_items/new.html.haml, app/views/library_items/show.html.haml, app/views/memories/_form.html.haml, app/views/memories/edit.html.haml, app/views/memories/index.html.haml, app/views/memories/new.html.haml, app/views/memories/show.html.haml, app/views/partials/_clothing_log_entry.html.haml, app/views/partials/_colours.html.haml, app/views/toronto_libraries/_form.html.haml, app/views/toronto_libraries/edit.html.haml, app/views/toronto_libraries/index.html.haml, app/views/toronto_libraries/new.html.haml, app/views/toronto_libraries/show.html.haml]","false","0.5882352941016186","0","","0",""
"quantified","130","[23-11-2011, 27-11-2011, 28-11-2011, 29-11-2011]","7","5","[Add memories , Tweak , Add tests , Add tests , Getting dev into shape so I can use it for testing ]","1","22","18","56","56","[click_link, page, have_content, host!, body, include, Factory, click_link, fill_in, click_button, page, body, include, hashes, blank?, save, each, id, find, within, have_selector, fill_in, click_button, user_id, status, Factory, tag_list, save!, username, root_url, hashes, choose, each, user, date, clothing_id, clothing, save, delete, raw, each]","0","[path:features/framework.feature, size:2]","2","","0","","0","","0","","[]","[app/views/csa_foods/_food.html.haml, clothing_index, stuff_index]","3","59","32","[app/controllers/clothing_controller.rb, app/controllers/clothing_logs_controller.rb, app/controllers/contexts_controller.rb, app/controllers/csa_foods_controller.rb, app/controllers/home_controller.rb, app/controllers/library_controller.rb, app/controllers/library_items_controller.rb, app/controllers/memories_controller.rb, app/controllers/toronto_libraries_controller.rb, app/models/clothing.rb, app/models/clothing_log.rb, app/models/context.rb, app/models/csa_food.rb, app/models/library_item.rb, app/models/memory.rb, app/models/toronto_library.rb, app/models/user.rb, app/views/clothing/_clothing_thumbnails.html.erb, app/views/clothing/_form.html.haml, app/views/clothing/analyze.html.haml, app/views/clothing/bulk.html.haml, app/views/clothing/edit.html.haml, app/views/clothing/graph.html.erb, app/views/clothing/index.html.haml, app/views/clothing/new.html.haml, app/views/clothing/show.html.haml, app/views/clothing_logs/_by_date.html.haml, app/views/clothing_logs/_form.html.haml, app/views/clothing_logs/by_date.html.haml, app/views/clothing_logs/edit.html.haml, app/views/clothing_logs/index.html.haml, app/views/clothing_logs/new.html.haml, app/views/clothing_logs/show.html.haml, app/views/contexts/_form.html.haml, app/views/contexts/index.html.haml, app/views/contexts/new.html.haml, app/views/csa_foods/_form.html.haml, app/views/csa_foods/edit.html.haml, app/views/csa_foods/index.html.haml, app/views/csa_foods/show.html.haml, app/views/home/index.html.haml, app/views/library_items/_form.html.haml, app/views/library_items/current.html.haml, app/views/library_items/edit.html.haml, app/views/library_items/index.html.haml, app/views/library_items/new.html.haml, app/views/library_items/show.html.haml, app/views/memories/_form.html.haml, app/views/memories/edit.html.haml, app/views/memories/index.html.haml, app/views/memories/new.html.haml, app/views/memories/show.html.haml, app/views/partials/_clothing_log_entry.html.haml, app/views/partials/_colours.html.haml, app/views/toronto_libraries/_form.html.haml, app/views/toronto_libraries/edit.html.haml, app/views/toronto_libraries/index.html.haml, app/views/toronto_libraries/new.html.haml, app/views/toronto_libraries/show.html.haml]","[app/controllers/application_controller.rb, app/controllers/clothing_controller.rb, app/controllers/clothing_logs_controller.rb, app/controllers/contexts_controller.rb, app/controllers/home_controller.rb, app/controllers/library_items_controller.rb, app/controllers/memories_controller.rb, app/controllers/time_controller.rb, app/helpers/application_helper.rb, app/helpers/memories_helper.rb, app/models/ability.rb, app/models/clothing.rb, app/models/clothing_log.rb, app/models/clothing_match.rb, app/models/memory.rb, app/models/time_tracker_log.rb, app/models/user.rb, app/views/clothing/_form.html.haml, app/views/clothing/edit.html.haml, app/views/clothing/index.html.haml, app/views/clothing/show.html.haml, app/views/devise/sessions/new.html.haml, app/views/home/index.html.haml, app/views/layouts/application.html.haml, app/views/library_items/current.html.haml, app/views/library_items/index.html.haml, app/views/memories/_form.html.haml, app/views/memories/edit.html.haml, app/views/memories/index.html.haml, app/views/memories/new.html.haml, app/views/memories/show.html.haml, lib/exceptions.rb]","0.3728813559","0.6875","[9919e0765b699e92cb5fb0268d52831255e94e6d, 1eab3d83c0be02722747ef91ec0ccded8db1dc07, e5155fc32eb23fb57b9360563c428017f4c7acb9, f607968a90a40a79f106446875dd57e84d096c5a, 06e341338f5b7e1e6fb435131c66fcea134252f3]","7.233 seconds","3.0.10","[cucumber-rails, rspec-rails, factory_girl]","24","[{path=sachac_quantified/features/step_definitions/steps.rb, line=-1}]","42","51","[app/controllers/clothing_controller.rb, app/controllers/clothing_logs_controller.rb, app/controllers/contexts_controller.rb, app/controllers/csa_foods_controller.rb, app/controllers/home_controller.rb, app/controllers/library_controller.rb, app/controllers/library_items_controller.rb, app/controllers/memories_controller.rb, app/controllers/toronto_libraries_controller.rb, app/views/clothing/_clothing_thumbnails.html.erb, app/views/clothing/_form.html.haml, app/views/clothing/analyze.html.haml, app/views/clothing/bulk.html.haml, app/views/clothing/edit.html.haml, app/views/clothing/graph.html.erb, app/views/clothing/index.html.haml, app/views/clothing/new.html.haml, app/views/clothing/show.html.haml, app/views/clothing_logs/_by_date.html.haml, app/views/clothing_logs/_form.html.haml, app/views/clothing_logs/by_date.html.haml, app/views/clothing_logs/edit.html.haml, app/views/clothing_logs/index.html.haml, app/views/clothing_logs/new.html.haml, app/views/clothing_logs/show.html.haml, app/views/contexts/_form.html.haml, app/views/contexts/index.html.haml, app/views/contexts/new.html.haml, app/views/csa_foods/_form.html.haml, app/views/csa_foods/edit.html.haml, app/views/csa_foods/index.html.haml, app/views/csa_foods/show.html.haml, app/views/home/index.html.haml, app/views/library_items/_form.html.haml, app/views/library_items/current.html.haml, app/views/library_items/edit.html.haml, app/views/library_items/index.html.haml, app/views/library_items/new.html.haml, app/views/library_items/show.html.haml, app/views/memories/_form.html.haml, app/views/memories/edit.html.haml, app/views/memories/index.html.haml, app/views/memories/new.html.haml, app/views/memories/show.html.haml, app/views/partials/_clothing_log_entry.html.haml, app/views/partials/_colours.html.haml, app/views/toronto_libraries/_form.html.haml, app/views/toronto_libraries/edit.html.haml, app/views/toronto_libraries/index.html.haml, app/views/toronto_libraries/new.html.haml, app/views/toronto_libraries/show.html.haml]","false","0.5882352941016186","0","","0",""
"quantified","132","[23-11-2011, 27-11-2011, 28-11-2011, 29-11-2011]","7","5","[Add memories , Tweak , Add tests , Add tests , Getting dev into shape so I can use it for testing ]","1","22","18","56","56","[click_link, page, have_content, host!, body, include, Factory, click_link, fill_in, click_button, page, body, include, hashes, blank?, save, each, id, find, within, have_selector, fill_in, click_button, user_id, status, Factory, tag_list, save!, username, root_url, hashes, choose, each, user, date, clothing_id, clothing, save, delete, raw, each]","0","[path:features/framework.feature, size:2]","2","","0","","0","","0","","[]","[app/views/csa_foods/_food.html.haml, clothing_index, stuff_index]","3","59","31","[app/controllers/clothing_controller.rb, app/controllers/clothing_logs_controller.rb, app/controllers/contexts_controller.rb, app/controllers/csa_foods_controller.rb, app/controllers/home_controller.rb, app/controllers/library_controller.rb, app/controllers/library_items_controller.rb, app/controllers/memories_controller.rb, app/controllers/toronto_libraries_controller.rb, app/models/clothing.rb, app/models/clothing_log.rb, app/models/context.rb, app/models/csa_food.rb, app/models/library_item.rb, app/models/memory.rb, app/models/toronto_library.rb, app/models/user.rb, app/views/clothing/_clothing_thumbnails.html.erb, app/views/clothing/_form.html.haml, app/views/clothing/analyze.html.haml, app/views/clothing/bulk.html.haml, app/views/clothing/edit.html.haml, app/views/clothing/graph.html.erb, app/views/clothing/index.html.haml, app/views/clothing/new.html.haml, app/views/clothing/show.html.haml, app/views/clothing_logs/_by_date.html.haml, app/views/clothing_logs/_form.html.haml, app/views/clothing_logs/by_date.html.haml, app/views/clothing_logs/edit.html.haml, app/views/clothing_logs/index.html.haml, app/views/clothing_logs/new.html.haml, app/views/clothing_logs/show.html.haml, app/views/contexts/_form.html.haml, app/views/contexts/index.html.haml, app/views/contexts/new.html.haml, app/views/csa_foods/_form.html.haml, app/views/csa_foods/edit.html.haml, app/views/csa_foods/index.html.haml, app/views/csa_foods/show.html.haml, app/views/home/index.html.haml, app/views/library_items/_form.html.haml, app/views/library_items/current.html.haml, app/views/library_items/edit.html.haml, app/views/library_items/index.html.haml, app/views/library_items/new.html.haml, app/views/library_items/show.html.haml, app/views/memories/_form.html.haml, app/views/memories/edit.html.haml, app/views/memories/index.html.haml, app/views/memories/new.html.haml, app/views/memories/show.html.haml, app/views/partials/_clothing_log_entry.html.haml, app/views/partials/_colours.html.haml, app/views/toronto_libraries/_form.html.haml, app/views/toronto_libraries/edit.html.haml, app/views/toronto_libraries/index.html.haml, app/views/toronto_libraries/new.html.haml, app/views/toronto_libraries/show.html.haml]","[app/controllers/application_controller.rb, app/controllers/clothing_controller.rb, app/controllers/clothing_logs_controller.rb, app/controllers/contexts_controller.rb, app/controllers/home_controller.rb, app/controllers/library_items_controller.rb, app/controllers/memories_controller.rb, app/controllers/time_controller.rb, app/helpers/application_helper.rb, app/helpers/memories_helper.rb, app/models/ability.rb, app/models/clothing.rb, app/models/clothing_log.rb, app/models/clothing_match.rb, app/models/memory.rb, app/models/user.rb, app/views/clothing/_form.html.haml, app/views/clothing/edit.html.haml, app/views/clothing/index.html.haml, app/views/clothing/show.html.haml, app/views/devise/sessions/new.html.haml, app/views/home/index.html.haml, app/views/layouts/application.html.haml, app/views/library_items/current.html.haml, app/views/library_items/index.html.haml, app/views/memories/_form.html.haml, app/views/memories/edit.html.haml, app/views/memories/index.html.haml, app/views/memories/new.html.haml, app/views/memories/show.html.haml, lib/exceptions.rb]","0.3728813559","0.7096774194","[e8bb03c12e258b52166b416ed34a5dd5f03caffb, cdc5bb0b84a53a52e7e19154728abf9767b79079, 09e91092e3636d50ee1f5948430959100474fe9f, 3598a77142311079d98eba57f33c7d9afa4f8cef, 4cb5860b682122fc803004d445707b0654f6d31a]","6.067 seconds","3.0.10","[cucumber-rails, rspec-rails, factory_girl]","24","[{path=sachac_quantified/features/step_definitions/steps.rb, line=-1}]","42","51","[app/controllers/clothing_controller.rb, app/controllers/clothing_logs_controller.rb, app/controllers/contexts_controller.rb, app/controllers/csa_foods_controller.rb, app/controllers/home_controller.rb, app/controllers/library_controller.rb, app/controllers/library_items_controller.rb, app/controllers/memories_controller.rb, app/controllers/toronto_libraries_controller.rb, app/views/clothing/_clothing_thumbnails.html.erb, app/views/clothing/_form.html.haml, app/views/clothing/analyze.html.haml, app/views/clothing/bulk.html.haml, app/views/clothing/edit.html.haml, app/views/clothing/graph.html.erb, app/views/clothing/index.html.haml, app/views/clothing/new.html.haml, app/views/clothing/show.html.haml, app/views/clothing_logs/_by_date.html.haml, app/views/clothing_logs/_form.html.haml, app/views/clothing_logs/by_date.html.haml, app/views/clothing_logs/edit.html.haml, app/views/clothing_logs/index.html.haml, app/views/clothing_logs/new.html.haml, app/views/clothing_logs/show.html.haml, app/views/contexts/_form.html.haml, app/views/contexts/index.html.haml, app/views/contexts/new.html.haml, app/views/csa_foods/_form.html.haml, app/views/csa_foods/edit.html.haml, app/views/csa_foods/index.html.haml, app/views/csa_foods/show.html.haml, app/views/home/index.html.haml, app/views/library_items/_form.html.haml, app/views/library_items/current.html.haml, app/views/library_items/edit.html.haml, app/views/library_items/index.html.haml, app/views/library_items/new.html.haml, app/views/library_items/show.html.haml, app/views/memories/_form.html.haml, app/views/memories/edit.html.haml, app/views/memories/index.html.haml, app/views/memories/new.html.haml, app/views/memories/show.html.haml, app/views/partials/_clothing_log_entry.html.haml, app/views/partials/_colours.html.haml, app/views/toronto_libraries/_form.html.haml, app/views/toronto_libraries/edit.html.haml, app/views/toronto_libraries/index.html.haml, app/views/toronto_libraries/new.html.haml, app/views/toronto_libraries/show.html.haml]","false","0.6010928961840455","0","","0",""
"quantified","134","[23-11-2011, 27-11-2011, 28-11-2011, 29-11-2011]","7","5","[Add memories , Tweak , Add tests , Add tests , Getting dev into shape so I can use it for testing ]","1","22","18","56","56","[click_link, page, have_content, host!, body, include, Factory, click_link, fill_in, click_button, page, body, include, hashes, blank?, save, each, id, find, within, have_selector, fill_in, click_button, user_id, status, Factory, tag_list, save!, username, root_url, hashes, choose, each, user, date, clothing_id, clothing, save, delete, raw, each]","0","[path:features/framework.feature, size:2]","2","","0","","0","","0","","[]","[app/views/csa_foods/_food.html.haml, clothing_index, stuff_index]","3","59","31","[app/controllers/clothing_controller.rb, app/controllers/clothing_logs_controller.rb, app/controllers/contexts_controller.rb, app/controllers/csa_foods_controller.rb, app/controllers/home_controller.rb, app/controllers/library_controller.rb, app/controllers/library_items_controller.rb, app/controllers/memories_controller.rb, app/controllers/toronto_libraries_controller.rb, app/models/clothing.rb, app/models/clothing_log.rb, app/models/context.rb, app/models/csa_food.rb, app/models/library_item.rb, app/models/memory.rb, app/models/toronto_library.rb, app/models/user.rb, app/views/clothing/_clothing_thumbnails.html.erb, app/views/clothing/_form.html.haml, app/views/clothing/analyze.html.haml, app/views/clothing/bulk.html.haml, app/views/clothing/edit.html.haml, app/views/clothing/graph.html.erb, app/views/clothing/index.html.haml, app/views/clothing/new.html.haml, app/views/clothing/show.html.haml, app/views/clothing_logs/_by_date.html.haml, app/views/clothing_logs/_form.html.haml, app/views/clothing_logs/by_date.html.haml, app/views/clothing_logs/edit.html.haml, app/views/clothing_logs/index.html.haml, app/views/clothing_logs/new.html.haml, app/views/clothing_logs/show.html.haml, app/views/contexts/_form.html.haml, app/views/contexts/index.html.haml, app/views/contexts/new.html.haml, app/views/csa_foods/_form.html.haml, app/views/csa_foods/edit.html.haml, app/views/csa_foods/index.html.haml, app/views/csa_foods/show.html.haml, app/views/home/index.html.haml, app/views/library_items/_form.html.haml, app/views/library_items/current.html.haml, app/views/library_items/edit.html.haml, app/views/library_items/index.html.haml, app/views/library_items/new.html.haml, app/views/library_items/show.html.haml, app/views/memories/_form.html.haml, app/views/memories/edit.html.haml, app/views/memories/index.html.haml, app/views/memories/new.html.haml, app/views/memories/show.html.haml, app/views/partials/_clothing_log_entry.html.haml, app/views/partials/_colours.html.haml, app/views/toronto_libraries/_form.html.haml, app/views/toronto_libraries/edit.html.haml, app/views/toronto_libraries/index.html.haml, app/views/toronto_libraries/new.html.haml, app/views/toronto_libraries/show.html.haml]","[app/controllers/application_controller.rb, app/controllers/clothing_controller.rb, app/controllers/clothing_logs_controller.rb, app/controllers/contexts_controller.rb, app/controllers/home_controller.rb, app/controllers/library_items_controller.rb, app/controllers/memories_controller.rb, app/controllers/time_controller.rb, app/helpers/application_helper.rb, app/helpers/memories_helper.rb, app/models/ability.rb, app/models/clothing.rb, app/models/clothing_log.rb, app/models/clothing_match.rb, app/models/memory.rb, app/models/user.rb, app/views/clothing/_form.html.haml, app/views/clothing/edit.html.haml, app/views/clothing/index.html.haml, app/views/clothing/show.html.haml, app/views/devise/sessions/new.html.haml, app/views/home/index.html.haml, app/views/layouts/application.html.haml, app/views/library_items/current.html.haml, app/views/library_items/index.html.haml, app/views/memories/_form.html.haml, app/views/memories/edit.html.haml, app/views/memories/index.html.haml, app/views/memories/new.html.haml, app/views/memories/show.html.haml, lib/exceptions.rb]","0.3728813559","0.7096774194","[3ac5f2da0b248565613416d4af64c42acade469f, ca4f5b957986e67feb21f50a69b559171a7208a1, 97e44592291774e2a47779ecd7a425885c4e04d1, 3e8e2708d1fa2bee1c0ef2dedd6ad2b5fefab572, e5fd485c8d18af08ff2f64a81b74b380c892d487]","7.459 seconds","3.0.10","[cucumber-rails, rspec-rails, factory_girl]","24","[{path=sachac_quantified/features/step_definitions/steps.rb, line=-1}]","42","51","[app/controllers/clothing_controller.rb, app/controllers/clothing_logs_controller.rb, app/controllers/contexts_controller.rb, app/controllers/csa_foods_controller.rb, app/controllers/home_controller.rb, app/controllers/library_controller.rb, app/controllers/library_items_controller.rb, app/controllers/memories_controller.rb, app/controllers/toronto_libraries_controller.rb, app/views/clothing/_clothing_thumbnails.html.erb, app/views/clothing/_form.html.haml, app/views/clothing/analyze.html.haml, app/views/clothing/bulk.html.haml, app/views/clothing/edit.html.haml, app/views/clothing/graph.html.erb, app/views/clothing/index.html.haml, app/views/clothing/new.html.haml, app/views/clothing/show.html.haml, app/views/clothing_logs/_by_date.html.haml, app/views/clothing_logs/_form.html.haml, app/views/clothing_logs/by_date.html.haml, app/views/clothing_logs/edit.html.haml, app/views/clothing_logs/index.html.haml, app/views/clothing_logs/new.html.haml, app/views/clothing_logs/show.html.haml, app/views/contexts/_form.html.haml, app/views/contexts/index.html.haml, app/views/contexts/new.html.haml, app/views/csa_foods/_form.html.haml, app/views/csa_foods/edit.html.haml, app/views/csa_foods/index.html.haml, app/views/csa_foods/show.html.haml, app/views/home/index.html.haml, app/views/library_items/_form.html.haml, app/views/library_items/current.html.haml, app/views/library_items/edit.html.haml, app/views/library_items/index.html.haml, app/views/library_items/new.html.haml, app/views/library_items/show.html.haml, app/views/memories/_form.html.haml, app/views/memories/edit.html.haml, app/views/memories/index.html.haml, app/views/memories/new.html.haml, app/views/memories/show.html.haml, app/views/partials/_clothing_log_entry.html.haml, app/views/partials/_colours.html.haml, app/views/toronto_libraries/_form.html.haml, app/views/toronto_libraries/edit.html.haml, app/views/toronto_libraries/index.html.haml, app/views/toronto_libraries/new.html.haml, app/views/toronto_libraries/show.html.haml]","false","0.6010928961840455","0","","0",""
