"Repository","https://github.com/AgileVentures/WebsiteOne.git"
"Tasks with empty IReal","0"
"Tasks with no-empty IReal","3"
"Tasks with relevant AST error","0"
"Tasks with AST error of Gherkin files","0"
"Tasks with AST error of StepDef files","0"
"Tasks with AST error of production files","0"
"Tasks with AST error of unit test files","0"
"Tasks with step match error","3"
"Tasks without required gems","0"
"Tasks with changed stepdef","2"
"Tasks with changed Gherkin","3"
"Tasks with implemented Gherkin scenarios","3"
"All invalid tasks","3"
"All valid tasks (Gherkin scenario, no empty IReal, no error)","0"
"Valid tasks, but empty ITest","0"
"Valid tasks, no empty ITest, but zero precision-recall","0"
"Valid tasks, no empty ITest, no zero precision-recall","0"
"Project","Task","Date","#Days","#Commits","Commit_Message","#Devs","#Gherkin_Tests","#Impl_Gherkin_Tests","#StepDef","#Impl_StepDef","Methods_Unknown_Type","#Step_Call","Step_Match_Errors","#Step_Match_Error","AST_Errors","#AST_Errors","Gherkin_AST_Errors","#Gherkin_AST_Errors","Steps_AST_Errors","#Steps_AST_Errors","Renamed_Files","Deleted_Files","NotFound_Views","#Views","#TestI","#TaskI","TestI","TaskI","Precision","Recall","Hashes","Timestamp","Rails","Gems","#Visit_Call","Lost_visit_call","#Views_ITest","#Code_View_Analysis","Code_View_Analysis","Has_Merge","F2","#Multiple_Step_Matches","Multiple_Step_Matches","#Generic_Step_Keyword","Generic_Step_Keyword"
"websiteone","133","[04-03-2016]","1","2","[Merge pull request #860 from diraulo/852_fix_pivotal_tracker_bug  Adds support for new pivotal tracker link format, Adds support for new pivotal tracker link format ]","1","1","1","0","0","[fill_in, click_button, within, sign in, click_link_or_button, fill_in, rows, flatten, page, have_text, send, each, to_not, current_path, url_for_title, eq, find, select_option, click, hashes, present?, id, merge, projects, new, tag_list, save!, each, github_url, nil?]","4","[path:features/step_definitions/projects_steps.rb, size:1]","1","","0","","0","","0","","[]","[new_password, new_registration]","2","4","1","[app/models/project.rb, app/models/user.rb, app/presenters/event_instance_presenter.rb, app/views/devise/sessions/new.html.erb]","[lib/validators/pivotal_tracker_url_validator.rb]","0.0","0.0","[e3e169d0adb062e473cc050c01257481af1e9859, 639aa0e2a60cd0994ae5760510a881b461ad0b24]","0.445 seconds","4.1.6","[cucumber-rails, rspec-rails, simplecov, coveralls, factory_girl]","2","[]","1","1","[app/views/devise/sessions/new.html.erb]","true","0.0","0","","0",""
"websiteone","194","[19-05-2015]","1","2","[Merge pull request #688 from alejandrobabio/limit_project_videos  Show only last 25 videos at projects#show page, Show only last 25 videos at projects#show page  * Mantain the counter of project's videos * List latest 25 videos * Ordered by descending date ]","2","6","6","1","1","[click_link_or_button, rows, flatten, page, have_text, send, each, to_not, within, have_css, raise, fill_in, click_button, within, sign in, hashes, present?, id, merge, projects, new, tag_list, save!, each, nil?, page, find, find, body, to_i, utc, beginning_of_day, minutes, times]","2","[path:features/step_definitions/basic_steps.rb, size:1]","1","","0","","0","","0","","[]","[new_password, new_registration]","2","3","3","[app/models/project.rb, app/models/user.rb, app/views/devise/sessions/new.html.erb]","[app/controllers/projects_controller.rb, app/views/projects/_videos_list.html.erb, app/views/projects/show.html.erb]","0.0","0.0","[bc23451c019cc6c50ac39c4052b9013ce9e795e8, 0835ff0572472c47a19536cf691e9e1cdfa4eb77]","0.539 seconds","4.1.0","[cucumber-rails, rspec-rails, coveralls, factory_girl]","3","[]","1","1","[app/views/devise/sessions/new.html.erb]","true","0.0","0","","0",""
"websiteone","195","[12-05-2015, 18-05-2015]","7","3","[Merge pull request #684 from alejandrobabio/youtube_links  Youtube links, Split user_videos.feature  * user_videos: for test list of videos on user profile * user_youtube: connect & disconect user from YouTube , Use video id stored at EventInstance to make links to videos on projects and users.  * Remove YoutubeVideos service, which gets videos using V2 API (now *   deprecated) * ProjectsController#show and UsersController#show change the use of *   YoutubeVideos service with EventInstance query * Remove unused helper methods UsersHelper#video_link & *   #video_embed_link * Add to EventInstancePersenter the methods video_link & *   video_embed_link * Update partials of videos of projects#show and users#show for use the *   event_instance presenter instead of YoutubeVideos return. * Update the tests. Remove fixtures and mock of YouTube response. * Rename file hangouts_presenter_spec to event_instance_presenter_spec *   and keep the file with the same name of the object tested. ]","2","14","14","6","6","[click_link_or_button, rows, flatten, page, have_text, send, each, to_not, page, have_text, to_not, within, have_css, raise, downcase!, pending, downcase!, pending, fill_in, click_button, within, sign in, send message, story_type, estimate, id, name, owned_by, current_state, whodunnit, event, hashes, present?, merge, projects, new, tag_list, save!, each, nil?, count, all, have, items, stub_request, to_return, page, find, find, body, to_i, utc, beginning_of_day, minutes, times]","9","[path:features/step_definitions/basic_steps.rb, size:1]","1","","0","","0","","0","","[lib/youtube_videos.rb]","[github, new_password, new_registration, pivotaltracker]","4","51","9","[app/controllers/articles_controller.rb, app/controllers/documents_controller.rb, app/controllers/event_instances_controller.rb, app/controllers/events_controller.rb, app/controllers/newsletters_controller.rb, app/controllers/projects_controller.rb, app/controllers/registrations_controller.rb, app/controllers/users_controller.rb, app/models/event_instance.rb, app/models/newsletter.rb, app/models/project.rb, app/models/user.rb, app/presenters/event_instance_presenter.rb, app/presenters/users/user_presenter.rb, app/views/devise/registrations/edit.html.erb, app/views/devise/sessions/new.html.erb, app/views/disqus/_disqus.html.erb, app/views/documents/show.html.erb, app/views/event_instances/_hangout_button.html.erb, app/views/event_instances/_hangout_status.html.erb, app/views/event_instances/_hangouts.html.erb, app/views/event_instances/_index_basic_info.html.erb, app/views/event_instances/_index_extra_info.html.erb, app/views/event_instances/_index_header.html.erb, app/views/event_instances/index.html.erb, app/views/events/_hangouts_management.html.erb, app/views/events/edit.html.erb, app/views/events/index.html.erb, app/views/events/new.html.erb, app/views/events/show.html.erb, app/views/layouts/_hire_me.html.erb, app/views/newsletters/_form.html.erb, app/views/newsletters/edit.html.erb, app/views/newsletters/index.html.erb, app/views/newsletters/new.html.erb, app/views/newsletters/show.html.erb, app/views/projects/_activity.html.erb, app/views/projects/_connections.html.erb, app/views/projects/_documents_list.html.erb, app/views/projects/_highlight_box.html.erb, app/views/projects/_listing.html.erb, app/views/projects/_members_list.html.erb, app/views/projects/_videos_list.html.erb, app/views/projects/index.html.erb, app/views/projects/show.html.erb, app/views/users/_user_avatar.html.erb, app/views/users/profile/_detail.html.erb, app/views/users/profile/_modal.html.erb, app/views/users/profile/_summary.html.erb, app/views/users/profile/_videos.html.erb, app/views/users/show.html.erb]","[app/controllers/projects_controller.rb, app/controllers/users_controller.rb, app/helpers/users_helper.rb, app/helpers/youtube_helper.rb, app/presenters/event_instance_presenter.rb, app/views/projects/_videos_list.html.erb, app/views/projects/show.html.erb, app/views/users/profile/_videos.html.erb, app/views/users/show.html.erb]","0.137254902","0.7777777778","[081a9208b727470a3e17f8543ff9701c759ec2b5, 97313ac569e38c91d6bd6ac0843fc8ae8b40b424, d7194df7ba7379e335591fc02ea92f8e99e845bb]","2.353 seconds","4.1.0","[cucumber-rails, rspec-rails, coveralls, factory_girl]","6","[]","37","46","[app/controllers/articles_controller.rb, app/controllers/documents_controller.rb, app/controllers/event_instances_controller.rb, app/controllers/events_controller.rb, app/controllers/newsletters_controller.rb, app/controllers/projects_controller.rb, app/controllers/registrations_controller.rb, app/controllers/users_controller.rb, app/presenters/users/user_presenter.rb, app/views/devise/registrations/edit.html.erb, app/views/devise/sessions/new.html.erb, app/views/disqus/_disqus.html.erb, app/views/documents/show.html.erb, app/views/event_instances/_hangout_button.html.erb, app/views/event_instances/_hangout_status.html.erb, app/views/event_instances/_hangouts.html.erb, app/views/event_instances/_index_basic_info.html.erb, app/views/event_instances/_index_extra_info.html.erb, app/views/event_instances/_index_header.html.erb, app/views/event_instances/index.html.erb, app/views/events/_hangouts_management.html.erb, app/views/events/edit.html.erb, app/views/events/index.html.erb, app/views/events/new.html.erb, app/views/events/show.html.erb, app/views/layouts/_hire_me.html.erb, app/views/newsletters/_form.html.erb, app/views/newsletters/edit.html.erb, app/views/newsletters/index.html.erb, app/views/newsletters/new.html.erb, app/views/newsletters/show.html.erb, app/views/projects/_activity.html.erb, app/views/projects/_connections.html.erb, app/views/projects/_documents_list.html.erb, app/views/projects/_highlight_box.html.erb, app/views/projects/_listing.html.erb, app/views/projects/_members_list.html.erb, app/views/projects/_videos_list.html.erb, app/views/projects/index.html.erb, app/views/projects/show.html.erb, app/views/users/_user_avatar.html.erb, app/views/users/profile/_detail.html.erb, app/views/users/profile/_modal.html.erb, app/views/users/profile/_summary.html.erb, app/views/users/profile/_videos.html.erb, app/views/users/show.html.erb]","true","0.402298850646849","0","","0",""
