"REPO_URL","TASK_ID","#HASHES","HASHES","#PROD_FILES","#TEST_FILES","LAST","MERGE","BASE"
"https://github.com/copycopter/copycopter-server.git","1","3","[8da6f353a4c658ed8d42b067d78cfeda27919a83, edc90166306bfcb739161103c78b57d69a74dc4d, baf0df8350e76d92c711cc14cf8a2a480d994cf8]","5","0","8da6f353a4c658ed8d42b067d78cfeda27919a83","e8204f375282132cf1e270839c2d652be1b0f844","5bcf493ecfa1190cc6716bcd6554b2bce9c8e8d1"
"https://github.com/copycopter/copycopter-server.git","2","1","[e5006a9adfbdd4cbca384507baaf16f294b897f2]","1","0","e5006a9adfbdd4cbca384507baaf16f294b897f2","e8204f375282132cf1e270839c2d652be1b0f844","5bcf493ecfa1190cc6716bcd6554b2bce9c8e8d1"
