"REPO_URL","TASK_ID","#HASHES","HASHES","#PROD_FILES","#TEST_FILES","LAST","MERGE","BASE"
"https://github.com/crowdint/rails3-jquery-autocomplete-app.git","1","1","[55a2a5695f4fd9386ad7f4a6691f907ade5c9dc9]","0","0","55a2a5695f4fd9386ad7f4a6691f907ade5c9dc9","d33c415e435bad7851bb04ff253934cb9a844913","287f09eef8ec0c89e527e0791bf71be1cacd7568"
"https://github.com/crowdint/rails3-jquery-autocomplete-app.git","2","1","[5477c8794d680d9b5204ff905f31d23b5874cd07]","0","0","5477c8794d680d9b5204ff905f31d23b5874cd07","d33c415e435bad7851bb04ff253934cb9a844913","287f09eef8ec0c89e527e0791bf71be1cacd7568"
