"REPO_URL","TASK_ID","#HASHES","HASHES","#PROD_FILES","#TEST_FILES","LAST","MERGE","BASE"
"https://github.com/daqing/rabel.git","13","2","[7ed4b07cbe144f02441cb35a0cd88db1a1718634, 6b81efcdad7dd9fc9f9930c711827227d4fa3324]","33","2","7ed4b07cbe144f02441cb35a0cd88db1a1718634","6958340e6d38c3c11f5a0cfc1f40f79bd9d19d0d","3c24078512eafa88c656b1227519fa1ba6f50a0b"
"https://github.com/daqing/rabel.git","25","22","[f4ac57f00c1b9b2626a37fcaaf89cc8289d9068e, ac68710d0623b57e17b2f449534013e65907bb0f, 72bad97118174b51dc5930e2eb431443933feb60, 8dde77278bb33c9aa149861c11d49e105344c1b3, ab2f45c4202bb458f689071baca87e0ec9239ea6, 3380a77e47eb82229b44c598aa32ae5ace9c623e, ce13e7b973297d2b964e24d62ddcb933d8cc578c, 0a181b7dbe4e254f930e79c6f9e806d4b51068d4, c8d8cf71b39e0df3cce367a93b0d767a8722927c, 61455b2080435d091bbbd9a462e407038cea27a7, add32e33b6b804f5f48aab5522034303719b7a2b, c5c990e203a5a0179bb16b380a9395d81e3acff2, ee90a7f614456e172890b625f8f8b7a59938d901, fbc4a61c3a9fc06e6a250516525d14b0c1a16169, dae3ee9372342e2328ca34595780b1e268447cdc, 9a7cf37f710f8dab726bb32e6396ce12ebf5b545, f60eef4e368bdcc5bf14447d84ff0bdd9812629c, 1ff1435fa778918d84a3ba726d06053c307dfef8, 6e7f9481c25e71d31dcd8c2113e8ade4e73006dd, 7de15d6763d1de1de2a1115eee1d5f08a38e6e31, 6446c63924a1997ced66d731ac100b6106d9c674, 8328a8824f848f14727bdcda0a3c659087538a69]","96","12","f4ac57f00c1b9b2626a37fcaaf89cc8289d9068e","a09f3e6fdef5a483e3a277f9cdab1b54d9012f06","51a7a63c0a43f585e4eb640ca64cb832d6c58424"
