"REPO_URL","TASK_ID","#HASHES","HASHES","#PROD_FILES","#TEST_FILES","LAST","MERGE","BASE"
"https://github.com/mhartl/sample_app.git","1","1","[25ae019ba6944ccda1e9ea728eded0f5d850ba8d]","0","0","25ae019ba6944ccda1e9ea728eded0f5d850ba8d","5f506e8e66a99c06189b7e4818b7157625749f7a","512dc11afeedb7eb49f9d984b1f903cec3b7de6c"
"https://github.com/mhartl/sample_app.git","2","1","[94d55ea4608ea0bd5650d611eb795151253b9457]","1","0","94d55ea4608ea0bd5650d611eb795151253b9457","5f506e8e66a99c06189b7e4818b7157625749f7a","512dc11afeedb7eb49f9d984b1f903cec3b7de6c"
