"REPO_URL","TASK_ID","#HASHES","HASHES","#PROD_FILES","#TEST_FILES","LAST","MERGE","BASE"
"https://github.com/moneyadviceservice/wpcc.git","10","2","[7d2337cb3acfa5459a75fd94cca3b80f068ba3ef, 631607ef4691bafbca0da0d27c472b657dbe10dc]","9","2","7d2337cb3acfa5459a75fd94cca3b80f068ba3ef","88608d6bbf50908903c306cd97f6cd9c2095bc35","c9c6c3bee0566f1dcfe707602640c45c6995ef63"
"https://github.com/moneyadviceservice/wpcc.git","13","15","[4f1794375ba8e5396905c4a17753aab5daf82ad8, 402e3f740fe33486d16364aa63bbfbd73503a5c9, 1fa7f7681b8599cac6ddfbe278e3837f6e1f0745, 2e383c0baad72410e764cb366bb091796e73259d, 4196b8776da4c317d1916c4c17476c8bc94369bc, b0d4ee3c38a61a4389ed4590a7b8697dcfecb386, 864cecafdb2240668599d606eba6e4ededb2a666, c0e8ba72cf5cf9aeed98b67b4cdd44e639fd74ed, 77283aca28304cd7ed0d08fc4fce44bc87aebeb7, 25528621a15bb953c4983f56ea50ff95eecc375a, 55d5fdb268fe1b3e297141683941d9c1232256c1, e8f70859dc1038d4a62ac4a8cbd8ea2c69bfc74c, ffd061d0ecdf64e18cff65d1f8ccf3758754a80d, 4dc50b87d8bd604b8cd722e196fb5f418fdf326b, 44379fc333b85250c73ef58246c3f5660aef43ff]","5","2","4f1794375ba8e5396905c4a17753aab5daf82ad8","a91350bdcfc293e65c50157b92e0ad7fdeb77fe1","3883b27733aed68b1b9b2be976b5089c156a82ae"
"https://github.com/moneyadviceservice/wpcc.git","15","2","[83fa770c332e3746647894d699ff0d30c02105b1, e259c2befa0b96f0ec61a3aea568fc124fb69dbe]","3","2","83fa770c332e3746647894d699ff0d30c02105b1","b37a8dd8de690058fa098f5baddd3d176f441022","d653bf9ef77437518b80c97df80f12495ab8dba5"
"https://github.com/moneyadviceservice/wpcc.git","17","1","[d70a5849de80e077d3e42daeda0e309dafa40a44]","1","1","d70a5849de80e077d3e42daeda0e309dafa40a44","22773391ad5fe9f476bb0561f6a4cca6b801b11f","b3cd2baae0fe7186e30ab7af351f7bbdfe56ea7f"
"https://github.com/moneyadviceservice/wpcc.git","18","1","[1ad93cc9c9cdf342d86b3be1eafa8d75dbe18cc3]","7","1","1ad93cc9c9cdf342d86b3be1eafa8d75dbe18cc3","3f8d4ac04b7a7198f3c11ef7ed405e83448cbf8b","da39b0092cf32e50d2b547e55329806bb62e75fa"
"https://github.com/moneyadviceservice/wpcc.git","24","4","[551487c2de9b60bfbe9990e69eaaeb2ad0afaa57, 2d193334307995bce98c33acf9388dc80f8a998a, d5edce092786402ca85abb8e55d3fb481832c7a1, f285f1498a7558293b95016a3c273c32b3a7a76b]","5","1","551487c2de9b60bfbe9990e69eaaeb2ad0afaa57","45e5c15ddfbfb32e4bbe47cd154cd66c91010273","94b15630f87b731206bf62dbf112f985d418c880"
"https://github.com/moneyadviceservice/wpcc.git","32","1","[a84913cf93c311aeafde9996e38196bcf69bd003]","3","1","a84913cf93c311aeafde9996e38196bcf69bd003","752a10aad4f01710fa02badc193cdc32b22f8076","1b873c3242935ba8db05f5477cb7b6484eb31050"
"https://github.com/moneyadviceservice/wpcc.git","33","6","[4458cee1dedc420c65092b07acad12a16a3831fb, 67c096292300b167acd04c274688858c73cecfcf, af017b61edef232f2bbe26c8c954f5371621486f, 62af3d1fe3739f4c809dc2b0b617cde34577e071, b64e00aca36c8a08953310f736290833553e1481, cb4255d7cbea39668ae55751a8453b589a0f893b]","9","1","4458cee1dedc420c65092b07acad12a16a3831fb","1b873c3242935ba8db05f5477cb7b6484eb31050","f538c15aa4655bbf82fc0dbc0297f14bdcfb28a7"
"https://github.com/moneyadviceservice/wpcc.git","37","3","[51e1d4d89f2236a3ae44da780ef064f84a3e01d6, 75eaa3d8e6869e60727a95a96635368c964cec0a, 3fcb97fac0e46f885948a59e391870bb625e266e]","5","1","51e1d4d89f2236a3ae44da780ef064f84a3e01d6","9418e09898c5b87771ae177dacb363c169d60f26","e94837b5d83c3a65632553352c1e4c0d39a01a93"
"https://github.com/moneyadviceservice/wpcc.git","38","2","[6ce99eb2e8407f02bf8327e262fa14f4cd831df3, f101be1c70bd330784f440998bbb9ee1ea80e9a7]","5","1","6ce99eb2e8407f02bf8327e262fa14f4cd831df3","e94837b5d83c3a65632553352c1e4c0d39a01a93","ad072dc4aa725a6dc22770d130681633359bfd4c"
"https://github.com/moneyadviceservice/wpcc.git","39","2","[158be42f8cb4ea1362cb4f30d75e9e44adcc9dd3, 09bdb4267bb70590872f0e8d61d3838fa6d84298]","1","2","158be42f8cb4ea1362cb4f30d75e9e44adcc9dd3","748976fa0d657b019a9dcbda0467edfa2f256d4e","ad072dc4aa725a6dc22770d130681633359bfd4c"
"https://github.com/moneyadviceservice/wpcc.git","40","2","[ad072dc4aa725a6dc22770d130681633359bfd4c, 6c4952d2a14815be8f73af8aa104ce68c53bb639]","6","1","ad072dc4aa725a6dc22770d130681633359bfd4c","3d8923353e2fe828d64f7e1157623726cf217150","b2cd04109ec3ed8750e6bdaab2f22404707ec653"
"https://github.com/moneyadviceservice/wpcc.git","47","2","[3bd924e960ec658da693abb18f41eaf746f264ca, fff2d1d47c0d74559744a32022b8ab6755028f08]","12","1","3bd924e960ec658da693abb18f41eaf746f264ca","50556e1d59ed5e9c074657705932808b626d0dc4","a8daf5da54d8665f1add69a827bc53b3f277f64a"
"https://github.com/moneyadviceservice/wpcc.git","5","5","[1bb20d13f27858ebf72649a385e4eeffa633e3f7, 01d7a75051c27badd85803368249536bd63f7430, 5f7979ec4fe73a56d7e9ce7f4cf2779165451760, adb8f00c685809218de7c204e245467fde745a43, d60a2811bba6aa9dd923510e7601720234b61889]","2","4","1bb20d13f27858ebf72649a385e4eeffa633e3f7","23df38c33a3827f84fd758783c36342421606fd8","4983b8297b43ac5762ba883d8dcdf646745acdaf"
"https://github.com/moneyadviceservice/wpcc.git","50","2","[eb4bf4e01f3bb69af49972695281df4e7bf3446a, a94290566018c02c10cd7cac9de5b4716ba2b923]","2","1","eb4bf4e01f3bb69af49972695281df4e7bf3446a","d9e18eab30b0def57f5b7996b89a936900a0456a","2c084d352002bebb050cfa1c55ff4f26bd1b2ae4"
"https://github.com/moneyadviceservice/wpcc.git","51","3","[2f77be2cf73fafb47c3537a223ae0bf0d72626de, 3e06701e148fe58f843c5e481e785dd30f1aa069, 92e85947d29f00f22e42fd964d2f98ad3c34bcd5]","14","1","2f77be2cf73fafb47c3537a223ae0bf0d72626de","d9e18eab30b0def57f5b7996b89a936900a0456a","2c084d352002bebb050cfa1c55ff4f26bd1b2ae4"
"https://github.com/moneyadviceservice/wpcc.git","52","8","[36df096661517759acc6d577ab33fc7851d8bc82, c38ab4e9ab566c1d9135112a23a6a5becbbc78df, 55278bad81c1599db75544ce9175f846d30f8fc7, 3d7f1cdb23246de6ba52b1db33ea10ae05432723, 0d89db4b0469202f91fb1b06e91cce5a34b0ee5d, d3f630b666cad6269d758477e963f7a18bd32078, 3004900bb5228e75cdccac10b8e50f8996cdddd7, f89a8e37c33bb32ddc747573450ca4f23cb0db2f]","5","10","36df096661517759acc6d577ab33fc7851d8bc82","c39b4a89ca4ed41de307e22fc0efae3d7ceab0fe","84c55848058b09608aca39eaf8ddd1fe2a3ac4d1"
"https://github.com/moneyadviceservice/wpcc.git","55","4","[f0f519029dae491dcd57f03c6a3133ea3ed4bb2d, 5696f41a495d10340a8602d246f729797a4a5cdd, c082fbc5671c4610d913775f1a929bc0215aea4e, 676014e5fce15661ca4ba1334b72b9f045ffbec7]","2","1","f0f519029dae491dcd57f03c6a3133ea3ed4bb2d","9195eb082b1b15086e69cdd7de8d32d449329850","d4e56ab998b630e5fd3dd32d38fe6044863b3654"
"https://github.com/moneyadviceservice/wpcc.git","58","2","[16ba7e2d532c98a8256b1fd01160180ef8205d6c, d7190dddb248414d3822e2b121c7d22ce86b9de6]","3","1","16ba7e2d532c98a8256b1fd01160180ef8205d6c","d4e56ab998b630e5fd3dd32d38fe6044863b3654","9ba93f5e94dc51ab437d82d748fcf49dc4588249"
"https://github.com/moneyadviceservice/wpcc.git","60","11","[9f4f6fe428704e33ecadfb49a4fbd8125a167301, e57d8c49e3721bf6d60e84f261d5d49f3f0f4e72, f2ffa52d6b28b77cc3e34d406007fbfd7902c5fb, e8594b8052926d9e27fec2fe9de80cf4302169f7, d8dc207266e120f0c0e441ab6dbf88e84773ec9c, deb93407c4743e5dc2a2fc7ad3b6e7d91f98f5a8, 5e28c9a5bfcac218399e0be74269e784f1f66b90, 3c1cbf3deb721d93e98717d87742cf3445675e50, 1970f9abb0e394200dda2dab32d2930589cf9ae4, fc300023399aa94cafe682b8b83e0704344338dd, 4517c9fc7079ebe582972df92adb6d984baacac3]","4","10","9f4f6fe428704e33ecadfb49a4fbd8125a167301","77b1ec092b380e43a3a8b2ebce127fb49e7bca4f","b4c0c5f183091eb7257a42e399d626ed36bca9a8"
"https://github.com/moneyadviceservice/wpcc.git","62","5","[6e1167c7d19ce12f2e55e62655c3158e76241f08, 93d82d376561967bbe9d3bea9f664b0be650dbbf, 73f1559c2eaa11686c13c468ae233699b7978762, 97dcf5c6ad077c5ebc106719439406ee4bc332c6, d43a1b6d40b9eba0e010f8a4e405ada4d2e3c31a]","8","1","6e1167c7d19ce12f2e55e62655c3158e76241f08","78fc116d832537459a6e0cff440a53f9022e9351","d5a0a5a1abf1eb9d7b6437e524615af2711bf4e0"
"https://github.com/moneyadviceservice/wpcc.git","68","5","[5ae161ba1628c5bafc63c0f03ef3bc83964023d0, f61395149d2480b8fe87009c3dcebf461f49a407, 34ba1f570e43f418911313c3572285107e94636f, 09311fd91679c635de75b56acd2e8657a7bd2dbf, ec448e211aa816b0e1d7ef5e4f6775ec45624081]","2","1","5ae161ba1628c5bafc63c0f03ef3bc83964023d0","b881542eff37c210e3e89be21b7735712931c2d7","09e965c0e998d310b6643a6afa8ef87df2663b92"
"https://github.com/moneyadviceservice/wpcc.git","69","1","[ccf77724c40fe6e2c33ec7e9e5d460cb17575e13]","7","1","ccf77724c40fe6e2c33ec7e9e5d460cb17575e13","b881542eff37c210e3e89be21b7735712931c2d7","c0fd043b6714a3f555509f144f89267eb87ef5ad"
"https://github.com/moneyadviceservice/wpcc.git","73","8","[dd25ec7be647d60351c5e5b0c8dad50ef6d707e5, 8c767078921c3300ad1268ed3f5fe5f427ed0a73, c8f8e734ef7fb77cd97ec4c28e176a11e5d87971, abf2edee4ab36920a8cd1ec038d670a430d71331, 511ac820ae8b3eceba92a768dbc2fb3a9bde92d0, 9501874c5e91996ba146becea33c5407b0c1d44b, 9b98ff49006a381e140f223408f4da2fa7119c81, d019ed6799c399362842f6f210bda083f3122791]","12","1","dd25ec7be647d60351c5e5b0c8dad50ef6d707e5","21227357beba4584dbd5f0520a3f5ba3d1fb4168","c0fd043b6714a3f555509f144f89267eb87ef5ad"
"https://github.com/moneyadviceservice/wpcc.git","74","3","[65f883411ecc4db08e8c294f1c5722dae31e36d2, 4079d9ff2d6c2012ac344971555ff19c933f5e3f, cfda906a314e9ea7056f5010f93e741f0929431b]","1","3","65f883411ecc4db08e8c294f1c5722dae31e36d2","efe5e7781a68a7cb7e411935ec8a7e939556a7a5","cd0ca1789854b00cee87bed5096d4cb53e34e5c1"
"https://github.com/moneyadviceservice/wpcc.git","76","2","[2aa7cca3dd5d033a67391b9e938cdd1fdbd991a4, 21da059e907c87f659aa70559b348d6cb739a3fb]","3","1","2aa7cca3dd5d033a67391b9e938cdd1fdbd991a4","cd0ca1789854b00cee87bed5096d4cb53e34e5c1","28e8e1d0c3b53aeac11cd8f007d3daf9141c7463"
"https://github.com/moneyadviceservice/wpcc.git","80","1","[78d2cbfbd304f5abd8980d1332673dd8a1408b19]","1","1","78d2cbfbd304f5abd8980d1332673dd8a1408b19","91aa19d7722453d5419b104388c19374a64ceac9","49720d2e5f75666529623afdcb7e0f20a23eb7d6"
"https://github.com/moneyadviceservice/wpcc.git","83","1","[8b67e391142da6090435d13369114850962d96ae]","3","1","8b67e391142da6090435d13369114850962d96ae","120ec8f68ae108726d29f1726e209080f7f68dee","6794d540c173405dfe05b6327083d97130e35be5"
"https://github.com/moneyadviceservice/wpcc.git","88","3","[2f1f3a7eedf721013576db91dc11811fe29cbedf, 4b654665db06b863a28f69ef993e95dd6c999f48, c61134eadbbdd6afac0720c6e02a7bbd6d1ace54]","6","1","2f1f3a7eedf721013576db91dc11811fe29cbedf","574a052b929be074cb49c37118f55fbd14d1e185","c9395915d765c8ba6c6e4c19bb55ed6a5da10eef"
"https://github.com/moneyadviceservice/wpcc.git","9","41","[ab2de95398d41ebbf88d3fda9815ed0864ea1948, 558944c585496386f2fa9c197af326addf6cd5aa, 2c3d57b42fa5701a99110bdeb43ce1db07e48c2a, b12850f5887cf9f8c88b22248e6fd21bc0b21030, a6e6c437389ca7d8d7fd60bea052fbda1c12efd8, 5e301bd917e03e0287743a0478ac44bbe3b0a8bb, 4d447f1acae0b12e702d1fb8910be6380034b000, 1f178c8e5d903e888cb5fb0abfe6f434634e83ec, 62418d419ff4a7ca632219a9889c3b36ca963acf, 8733619863fbc619086e4c74c0e499d1819ffee6, d1915fb0a60cb11ae865702ab6a883b8e1d57072, 4719d43c97df9893e109ceed1c045738fd72d2ce, c8dd5cb714c5365f80de81873665e1cc29e8f81e, 1e25270872940b46ff9a75b174c3215f3fe145e8, 6f6c08a96c0100a5ce108a02c6f55376d0e86c8b, 42108d55a1f5190d765c09c3f2b1e385814b5731, 28367ca57aa094f2c173ba3788f883e8bfec98e1, 5753c024849dd1c76722ff522ea9dd65f1b53f5f, 84f76864dfd0aaef766a964331b3e7d12a8190ba, 685121f74c2c75671adac960ee5e2cc20c440e10, 06b8d9bf4b880afb57034ca9c424f1dc15f928e6, ce951e05ca357b030e0bf24f3034bb7e14ce93bf, ea3dfa13d686cb2340d482012afd328e36d45228, 37c4dd0988f5042889451b734bb0cd28f0ca884e, f7ee697557a761070026d7fca9ca3eb9081a9bed, 449bcfb96d0cd0d37e36c81c3581e9c5535b63f5, 481d27c93c8e8d97461479690b83ceb0e1206863, 84a534eb5ee231d01dd01a87d1bc564d33e7f076, 16d2483bd1cfd4c05210eddaaff23a5501705957, d1ebd388f39e12f9f30fc4bf07e6f098dfb00799, cfc0b5955305fa3694fa88235b0a80eec793e0c8, 3b591865b6bfd7a23504da3b31a96e52ce78e194, 874227a7d89bec4afafb4f931f36cdae63962abc, b29f803248e776392e684ac77638400f540d825c, 673f7deca8be4fd66cda618ac718174bef80b0ca, 1a7ba17ed8307f3e40bd2b849a17cf3a5c3e4194, 42151de3b8f5c1633b0d100fda150dfbdf25bdc5, 4952a92c533578c67ec9c4773e3e4fc293861b82, d2600d38f57f7afcaccf72b2091925e93c974ff3, 4424e8f546691068718701416eb71e51eac92c4a, 36e28598bf5cdd330ea84dd28f266a8bb8410fb9]","25","3","ab2de95398d41ebbf88d3fda9815ed0864ea1948","e1246541dabcc1161dbe24f40e0dd39b188492eb","88608d6bbf50908903c306cd97f6cd9c2095bc35"
"https://github.com/moneyadviceservice/wpcc.git","94","7","[b95bb60d71b86585e13c0e6041a989789c121510, 798e46f203cabc2ce2c14df50203f25acbad4629, 23c07192cdca604fecf84ba6f04817d73eb128a1, 7cfc1e2a5f0e87b1a1dd59daf63484a957746315, 4fd2babf43636f7ce9382991070725957e7941a3, b3a0e4e86e335b2c43339877c531610be9d2ebce, 2b3e0a7d936f3c1cdbfe76cd9d6eaf469739be00]","2","2","b95bb60d71b86585e13c0e6041a989789c121510","8548ef1bd7a4bf49332901d36540488bf5193be8","127458489cb0b05df833b5ac87104fcfc8a2377a"
