"REPO_URL","TASK_ID","#HASHES","HASHES","#PROD_FILES","#TEST_FILES","LAST","MERGE","BASE"
"https://github.com/tip4commit/tip4commit.git","1","1","[835fa6da50f0c6d8750e8344584debd8b9beb5f7]","0","0","835fa6da50f0c6d8750e8344584debd8b9beb5f7","339ee8082ac7fb8642e40f8a4c91a2112fa9269c","71f3e5be7f1913f921c56a991f8b3a320c8ae4bc"
"https://github.com/tip4commit/tip4commit.git","10","2","[e359d63bc546764405fc67d4abde668f9dfde496, b9738fd6c64e671c491fdb8942f68e07dd7bd331]","0","0","e359d63bc546764405fc67d4abde668f9dfde496","7119f5b041b77ea7a24b7d8d7d0a76432fd31cf3","e457aa437c6069b99e8ffae8a5d59b4da532b6d1"
"https://github.com/tip4commit/tip4commit.git","100","1","[114feadb997ef995ea17768319e9a377069dc5fe]","1","0","114feadb997ef995ea17768319e9a377069dc5fe","5278b0ab486c33522df09d4f1c3980281fb86a70","3605a42b91b016b32cf38f05f03109612178c133"
"https://github.com/tip4commit/tip4commit.git","101","9","[3605a42b91b016b32cf38f05f03109612178c133, 002f2b5c2de21f8b9af322f44ea58221eef1294f, 003ddac020d778363af698bcd93987416d18f756, c1cb3b7253e7a5121279b7bb0c1690d7e753c9e4, 237ea4361fbf98af4f0446b81b341ea4994a49fd, 59e1ffd40155d2bab2195eafe65b961b6a395e73, 2dd516e7a5dfbec254488457e6fe75ddf3212653, bb9e18837a149d799f72542660eed9e3b84cf0fe, 5bb5189824544319032867fd6ab64c7691231efe]","16","2","3605a42b91b016b32cf38f05f03109612178c133","6106a6ce3c56488458f8d1107f99fb06ebf0c630","7e531dad5f86808960f8460901b894027016eb49"
"https://github.com/tip4commit/tip4commit.git","102","3","[95455cff473c11b1daa8d8a0d17ecc514dbd8806, 9a74ee1a3cb70d53b06d8f416420676623a1733e, 30e4faf064f7d70bc66bac559d952f358b411ac2]","3","0","95455cff473c11b1daa8d8a0d17ecc514dbd8806","6106a6ce3c56488458f8d1107f99fb06ebf0c630","7e531dad5f86808960f8460901b894027016eb49"
"https://github.com/tip4commit/tip4commit.git","103","1","[5541aaba00c16de59c2e26f577f444da0b44acce]","1","0","5541aaba00c16de59c2e26f577f444da0b44acce","0a062a5c0b388d2d0ebbe0453d03e6e3e7147990","eb0cee88ad8f21c553ce827dd827c074fad638ac"
"https://github.com/tip4commit/tip4commit.git","104","2","[d8365b4b99774f3b777af13ce97f2b090ba48a32, a801799d8a2bcbd6dd63bfc49a15bf5015ef94e2]","5","0","d8365b4b99774f3b777af13ce97f2b090ba48a32","a40a1cf488ba68733333c5ee02e2242b32b238fc","eb0cee88ad8f21c553ce827dd827c074fad638ac"
"https://github.com/tip4commit/tip4commit.git","105","1","[a387da101b0c4f494b8490633da2af5e70d7ca86]","2","0","a387da101b0c4f494b8490633da2af5e70d7ca86","a40a1cf488ba68733333c5ee02e2242b32b238fc","44e798b53037ed360cdb25660f13b7c4d2df0f7a"
"https://github.com/tip4commit/tip4commit.git","106","2","[e3cfddb0d462cfe4215b71e1ebdbd18fa5c742cb, 641a2b13605cfa29f0f5ed77fc91945db325e40f]","0","0","e3cfddb0d462cfe4215b71e1ebdbd18fa5c742cb","eb0cee88ad8f21c553ce827dd827c074fad638ac","44e798b53037ed360cdb25660f13b7c4d2df0f7a"
"https://github.com/tip4commit/tip4commit.git","107","1","[dab51c5044e1f1e4e55f54ea833d0bbea0ef6c25]","1","0","dab51c5044e1f1e4e55f54ea833d0bbea0ef6c25","eb0cee88ad8f21c553ce827dd827c074fad638ac","44e798b53037ed360cdb25660f13b7c4d2df0f7a"
"https://github.com/tip4commit/tip4commit.git","108","1","[0eb3401bcb57bafb8d61f150a232932e4b3af9d8]","1","0","0eb3401bcb57bafb8d61f150a232932e4b3af9d8","44e798b53037ed360cdb25660f13b7c4d2df0f7a","7dd531445dfabd365de4afc4c2cceabd6d3efc6b"
"https://github.com/tip4commit/tip4commit.git","109","1","[01b0c8e721267bb3869c21730a71aaa859e7862f]","3","0","01b0c8e721267bb3869c21730a71aaa859e7862f","4d2973de40c70b335549be51662c8cfd158f1171","e354dd1847c02abcc78f44d898ab6d060c40723b"
"https://github.com/tip4commit/tip4commit.git","11","2","[6935f3ba3cc81372057b2cde143882e192fc9360, 32b4506f9f93807c175833959ceef8bfc4bfee6d]","0","0","6935f3ba3cc81372057b2cde143882e192fc9360","7119f5b041b77ea7a24b7d8d7d0a76432fd31cf3","e457aa437c6069b99e8ffae8a5d59b4da532b6d1"
"https://github.com/tip4commit/tip4commit.git","110","1","[478b175b361e622e95a827ad6e795f54ea6a5bac]","2","0","478b175b361e622e95a827ad6e795f54ea6a5bac","effd3b5cb5c751b2639508592706f3fbdfe0b993","1cb42852f5689b3eb39dc559b8aeff9fed214974"
"https://github.com/tip4commit/tip4commit.git","111","2","[6588cddfb7bdaf2c4aec5fedcf2d9ae515540665, eebe262e70737d260b2ef036ae882587800f36be]","1","0","6588cddfb7bdaf2c4aec5fedcf2d9ae515540665","901ed1151f8e9ce469562e9ed8b776a7df13e456","1cb42852f5689b3eb39dc559b8aeff9fed214974"
"https://github.com/tip4commit/tip4commit.git","112","1","[df47363e2bb43ea7209e6a696784d5080de865df]","3","0","df47363e2bb43ea7209e6a696784d5080de865df","901ed1151f8e9ce469562e9ed8b776a7df13e456","e354dd1847c02abcc78f44d898ab6d060c40723b"
"https://github.com/tip4commit/tip4commit.git","113","1","[48fd2704c5687807b33aba20f9bc4062ad857f19]","1","0","48fd2704c5687807b33aba20f9bc4062ad857f19","1cb42852f5689b3eb39dc559b8aeff9fed214974","e354dd1847c02abcc78f44d898ab6d060c40723b"
"https://github.com/tip4commit/tip4commit.git","114","1","[e6edf3f37463252cddf19d30e551a5a161df9c7c]","1","0","e6edf3f37463252cddf19d30e551a5a161df9c7c","aaa7f4440abececc5a511b72113ca542abaad8ed","e354dd1847c02abcc78f44d898ab6d060c40723b"
"https://github.com/tip4commit/tip4commit.git","115","3","[9e984b4563adfc04b07eeaebec392d30419324cb, 5fc9a8e370f611676e9bf600800dab1141f46bc4, 970fb2602369bb0652eae8e02efcbdfb8f723b0c]","4","0","9e984b4563adfc04b07eeaebec392d30419324cb","d4b5a80aad8fb14904ddba56c25e5fff63f0e27c","e354dd1847c02abcc78f44d898ab6d060c40723b"
"https://github.com/tip4commit/tip4commit.git","116","1","[7756e3dbd512a9da98df1679506d1bdb937214d8]","0","0","7756e3dbd512a9da98df1679506d1bdb937214d8","d4b5a80aad8fb14904ddba56c25e5fff63f0e27c","e354dd1847c02abcc78f44d898ab6d060c40723b"
"https://github.com/tip4commit/tip4commit.git","117","1","[cc52adc906ddcf70437e180abcbcb21daf443b11]","2","0","cc52adc906ddcf70437e180abcbcb21daf443b11","65a6dcdaac2e62a1e75ebccecdfe3733e3ad9799","74402fcf6e97901c083149293ee336c7918a050a"
"https://github.com/tip4commit/tip4commit.git","118","3","[6bc25e1d24569ccac4f2ed3504b48222adde0059, 80d9f3a8265e999a1e470c410ebfff3dedf794dc, 22103668fe3520f97d943ba81e8e727327c07f6b]","0","0","6bc25e1d24569ccac4f2ed3504b48222adde0059","4dc8d056d022bcc3bcef9e2717c9a1c043fd8bf9","4a3a83853d9b433fd74e0ca4a1ba64a6b2d2242a"
"https://github.com/tip4commit/tip4commit.git","119","1","[da8bb583b05b7f8fab791a096dd8dc5aeaeb7f05]","1","0","da8bb583b05b7f8fab791a096dd8dc5aeaeb7f05","43c7ce549817ba8f92aef4604e1475b27e818841","4a3a83853d9b433fd74e0ca4a1ba64a6b2d2242a"
"https://github.com/tip4commit/tip4commit.git","12","1","[a74005803b4d219a592370dbc470a4d9320f8b08]","0","0","a74005803b4d219a592370dbc470a4d9320f8b08","1be1ff46166324720754d2d11234739cba6d08b0","0dddde5d2d3f148acec4fe0868c7c89d03c61451"
"https://github.com/tip4commit/tip4commit.git","120","4","[7dd531445dfabd365de4afc4c2cceabd6d3efc6b, 415836a35a35a0a2b1902b412c826906a671ab00, 3e833d51ae8b6dd3441da395c1893dd79833ddd0, c1dd5aae397f6c3d6589952c9e3158a27e1b20c6]","2","0","7dd531445dfabd365de4afc4c2cceabd6d3efc6b","195c6860fa5c5af8647608dcde06b594224bdb56","74402fcf6e97901c083149293ee336c7918a050a"
"https://github.com/tip4commit/tip4commit.git","121","1","[55205628a2fde390977b52bb08e9812c975d0be6]","1","0","55205628a2fde390977b52bb08e9812c975d0be6","58a6fd332aee584d1c997772ac4725006b9a4583","4a3a83853d9b433fd74e0ca4a1ba64a6b2d2242a"
"https://github.com/tip4commit/tip4commit.git","122","1","[9785f58527f178a1bca341ad73c4ddd5cf66d984]","1","0","9785f58527f178a1bca341ad73c4ddd5cf66d984","9b74e9e138a8f94cfc11a68da77728852e3cb273","4a3a83853d9b433fd74e0ca4a1ba64a6b2d2242a"
"https://github.com/tip4commit/tip4commit.git","123","1","[e1d6ba4cfd841cc7bad07e074c569ba974d4b114]","3","0","e1d6ba4cfd841cc7bad07e074c569ba974d4b114","e64c0bdc8d3322ddf8764ee9b4f75af546cf7cd0","74402fcf6e97901c083149293ee336c7918a050a"
"https://github.com/tip4commit/tip4commit.git","124","1","[d156028dc6bd7545b783a66646432419ca5099b0]","1","0","d156028dc6bd7545b783a66646432419ca5099b0","7fe2ab45713128845cd404f6cbf0c9241c2d4c3f","74402fcf6e97901c083149293ee336c7918a050a"
"https://github.com/tip4commit/tip4commit.git","125","2","[61fe9d9ae7e4ef588a68fdc2847f927b7648d79d, 33d340448fbff7bcace4da2095867960a768f4ff]","5","0","61fe9d9ae7e4ef588a68fdc2847f927b7648d79d","4a3a83853d9b433fd74e0ca4a1ba64a6b2d2242a","74402fcf6e97901c083149293ee336c7918a050a"
"https://github.com/tip4commit/tip4commit.git","126","1","[7d67f818258977f60557242904288e9cee75487a]","2","0","7d67f818258977f60557242904288e9cee75487a","4a3a83853d9b433fd74e0ca4a1ba64a6b2d2242a","74402fcf6e97901c083149293ee336c7918a050a"
"https://github.com/tip4commit/tip4commit.git","127","1","[3afd4a2d5b484ef40e9f1184de753e599a6dd1cd]","14","0","3afd4a2d5b484ef40e9f1184de753e599a6dd1cd","00b9f04b5a5e869016fd6dbb22700c5b7262b960","9be2c64060b2ee1a63d63b2b8d5ca93efe307087"
"https://github.com/tip4commit/tip4commit.git","128","1","[2ff701518ba71be3a146f4ca68610b64bc99478d]","14","0","2ff701518ba71be3a146f4ca68610b64bc99478d","00b9f04b5a5e869016fd6dbb22700c5b7262b960","9be2c64060b2ee1a63d63b2b8d5ca93efe307087"
"https://github.com/tip4commit/tip4commit.git","129","2","[92b46cfac21224b8f2eb025fc8007172349c0e70, a3e0495a826ab6e5434270c35f5cc9ffedcf5c3c]","1","0","92b46cfac21224b8f2eb025fc8007172349c0e70","9be2c64060b2ee1a63d63b2b8d5ca93efe307087","5c4d061e14a1371102695effb6479d0d6a9e8d33"
"https://github.com/tip4commit/tip4commit.git","13","1","[84a939a05bceef85fdf6560497375244b2033124]","0","0","84a939a05bceef85fdf6560497375244b2033124","806ea3704b861a14c480402614211fd4fc84f97f","0dddde5d2d3f148acec4fe0868c7c89d03c61451"
"https://github.com/tip4commit/tip4commit.git","130","1","[f71d86f65bcbdff7d794ae5424694e240e7634ce]","1","0","f71d86f65bcbdff7d794ae5424694e240e7634ce","9be2c64060b2ee1a63d63b2b8d5ca93efe307087","5c4d061e14a1371102695effb6479d0d6a9e8d33"
"https://github.com/tip4commit/tip4commit.git","131","1","[dc12ebaa076f24a7f5c4f26649fcbf51b1719d75]","5","0","dc12ebaa076f24a7f5c4f26649fcbf51b1719d75","d5ebc397652e10044855df85eb915206df5c1b88","8876ada14cd03b43944cbbc6e1e884f027ad8b6e"
"https://github.com/tip4commit/tip4commit.git","132","2","[d23d685cff42e0f16075dd2061e0dc8eb56ba2c1, 0f38bbd293ae4012a91844befcb261db3869c761]","0","0","d23d685cff42e0f16075dd2061e0dc8eb56ba2c1","d5ebc397652e10044855df85eb915206df5c1b88","8876ada14cd03b43944cbbc6e1e884f027ad8b6e"
"https://github.com/tip4commit/tip4commit.git","14","1","[10f813aa60f023792294a7b125301be4c87fca92]","0","0","10f813aa60f023792294a7b125301be4c87fca92","78f3b55520f217a2d479c8bf1e7c191b573fa2cc","53c911f0902bec429feea9976fb1016e8ca6ac6f"
"https://github.com/tip4commit/tip4commit.git","15","2","[a56fecdd9d6b10065e7b78a672027a5b2dd6d9c7, 117bec49583da861bd5ac5790305617fa9bca040]","1","0","a56fecdd9d6b10065e7b78a672027a5b2dd6d9c7","2cc63ee88575703e0fb184791d48afdb3393eb3e","9a6da905db7e3207c301feec84aede89a183b0d2"
"https://github.com/tip4commit/tip4commit.git","16","3","[34601204fac22265942ceb19613804be3aaae0fb, 6cd013089af3776522b9f1d52c55a8be1e2b79a8, add47de102ffc63c3062aff920307cdce9b6aaca]","0","0","34601204fac22265942ceb19613804be3aaae0fb","2cc63ee88575703e0fb184791d48afdb3393eb3e","0dddde5d2d3f148acec4fe0868c7c89d03c61451"
"https://github.com/tip4commit/tip4commit.git","17","1","[cc5152cb30b77c1809a0b41db4c1bb935ea1a2da]","0","0","cc5152cb30b77c1809a0b41db4c1bb935ea1a2da","9a6da905db7e3207c301feec84aede89a183b0d2","0dddde5d2d3f148acec4fe0868c7c89d03c61451"
"https://github.com/tip4commit/tip4commit.git","18","1","[4eb3587e962680106c16710e4df4f5f5ced0dc31]","0","0","4eb3587e962680106c16710e4df4f5f5ced0dc31","e1ff4eab9af27ca8c2a4a7ac329f68e75d4b2816","9897c62beaa65b77b693a4f0f1691f7e4fced333"
"https://github.com/tip4commit/tip4commit.git","19","1","[ebb0e31449206c60eba96022d276c89539a46658]","0","0","ebb0e31449206c60eba96022d276c89539a46658","b76e11a64358126711099e82e5238f15de0ef76f","0dddde5d2d3f148acec4fe0868c7c89d03c61451"
"https://github.com/tip4commit/tip4commit.git","2","1","[7690014fba15f16a60165e95374fb51631732f16]","0","0","7690014fba15f16a60165e95374fb51631732f16","339ee8082ac7fb8642e40f8a4c91a2112fa9269c","71f3e5be7f1913f921c56a991f8b3a320c8ae4bc"
"https://github.com/tip4commit/tip4commit.git","20","1","[264cc74a6f158061628e359b5a1cc4431eb99799]","1","0","264cc74a6f158061628e359b5a1cc4431eb99799","8279d648c024c97dec99e0fc8b7a25b67aff6217","0dddde5d2d3f148acec4fe0868c7c89d03c61451"
"https://github.com/tip4commit/tip4commit.git","21","4","[4c1902fc90d87f5178cbc9148b981ca354bac147, b0f071e5649cdac6787605a7e9100e7fb12ffb5f, 01a4db8db72ab1052746b553357c00def449edd3, fb82193c56daa95f39616296bb2a0643923ea296]","0","0","4c1902fc90d87f5178cbc9148b981ca354bac147","2c40f43b5efb808e4c0f78b4638f11b1859f5a42","0dddde5d2d3f148acec4fe0868c7c89d03c61451"
"https://github.com/tip4commit/tip4commit.git","22","1","[c6e0f759349a9c690367bb595cb294c817e93363]","0","0","c6e0f759349a9c690367bb595cb294c817e93363","2c40f43b5efb808e4c0f78b4638f11b1859f5a42","0dddde5d2d3f148acec4fe0868c7c89d03c61451"
"https://github.com/tip4commit/tip4commit.git","23","3","[641e0625b1150c9fb6b3af87e56a0abe43c1e48d, 2569aa925abe3fc8724a9495ecb58c14f7f4bc83, a718beeeebb87b89d7471ef7bdc3b8f29cc5bc2d]","0","0","641e0625b1150c9fb6b3af87e56a0abe43c1e48d","3c8f66f14f590297cf89f3cbfe70954562441983","9897c62beaa65b77b693a4f0f1691f7e4fced333"
"https://github.com/tip4commit/tip4commit.git","24","2","[6dae5bd21b7cc644913714eb8e68d5b533d2ccdd, f49a6dd8746188d8ba2c127ef6bc96a8e1646c0f]","0","0","6dae5bd21b7cc644913714eb8e68d5b533d2ccdd","280827953e76a89224502ee68ba0bbc39a9c7acf","9897c62beaa65b77b693a4f0f1691f7e4fced333"
"https://github.com/tip4commit/tip4commit.git","25","12","[81b2985859c347dbcfbeb70eb79aa20ee0f07cd6, dc8bdceaf50eb2d2323099bf8a913bb54ba84380, 3affccfe9c98354366fd7c9892ba07e516006599, 83ced2234307ba6309e0b7b0820659a260532a0d, 980a82f9afac9de96cf55763c1fa480889beddc5, 4643a5debf4a821f88c80cb283872a0f884c7a31, a3035aafe43f829bffe599e00b818a3ae1be0ab9, 27e00a27f8cf33ad8b60dd38e674f86f5c101892, c4fe2da1ec82651d531b7e61c6bc4e09dfb28bcc, 3b4dd8a5392b10d46741173e1d2c1d3a21e49688, 27bdaafda178dacb00f996cbf0a93662bf1c8c91, 14d8cf0106de63ec7c712d3cb386ce3eee350e5f]","10","0","81b2985859c347dbcfbeb70eb79aa20ee0f07cd6","14421a2742789d6a81a93bfa7946e6a1ce84ecb1","9897c62beaa65b77b693a4f0f1691f7e4fced333"
"https://github.com/tip4commit/tip4commit.git","26","1","[ea69a571a2f00e5a2416d44655c7563fff2a1cf6]","0","0","ea69a571a2f00e5a2416d44655c7563fff2a1cf6","14421a2742789d6a81a93bfa7946e6a1ce84ecb1","9897c62beaa65b77b693a4f0f1691f7e4fced333"
"https://github.com/tip4commit/tip4commit.git","27","1","[c824e4572056cae5cd17dd02c6dd80bd70a4a58f]","2","0","c824e4572056cae5cd17dd02c6dd80bd70a4a58f","53c911f0902bec429feea9976fb1016e8ca6ac6f","a21a6c644a9e03975003cc9bd4b6682008b56881"
"https://github.com/tip4commit/tip4commit.git","28","1","[4d46d987fbc4a65142b6193853b906622dab9aad]","0","0","4d46d987fbc4a65142b6193853b906622dab9aad","53c911f0902bec429feea9976fb1016e8ca6ac6f","a21a6c644a9e03975003cc9bd4b6682008b56881"
"https://github.com/tip4commit/tip4commit.git","29","1","[b279f036c901bf8f1a47c8e5b6edc62125d6b9d5]","1","0","b279f036c901bf8f1a47c8e5b6edc62125d6b9d5","8fc4f8b25a3af87ca720ac6691272be5610cb0d8","74b41aa524978c019433545840c30aef7aba77c1"
"https://github.com/tip4commit/tip4commit.git","3","1","[e5516aec68c25876b2b7cf0406bf09e627598481]","0","0","e5516aec68c25876b2b7cf0406bf09e627598481","473cc614af1992d4448b1049198448f5d17d00da","801018ae98792e0ee07fc7fc7dfedca9ade14fc1"
"https://github.com/tip4commit/tip4commit.git","30","2","[54ed1683e3b84d293539250e4d4e062be63b12da, f083e601147b5b4d9ac64d66bf7990858b412660]","0","0","54ed1683e3b84d293539250e4d4e062be63b12da","8fc4f8b25a3af87ca720ac6691272be5610cb0d8","c5b6cdeda04c8737623bf4e629d63f773f419465"
"https://github.com/tip4commit/tip4commit.git","31","10","[24b7a7a5f0833e44ded1c854cfbc1781a6f55760, 07bfc6c9aeec95af2a2e6475b38e0f2336e1972b, 43649b219ffdb4b58e6f26388fef7b57713ee3b2, 3e8d3b9871cb7cebfc90754d261faa4d9ba4dc63, 9d7b1c0fbeb796a51a4a479099282772901ccede, 13d7d4faede1d4cf2a84cd3ad73d418b80cca945, 2f37c1173e4e5eb3f398067b944400f6ff5fa41f, 3dfbf897d0dfcfa9af578cc5f97c07c081c3c264, e9ce3fa7291af2db669584d4e319f64609b70e04, 50ab5103a5a17502417085c738fc2d368f62a523]","0","1","24b7a7a5f0833e44ded1c854cfbc1781a6f55760","c5b6cdeda04c8737623bf4e629d63f773f419465","74b41aa524978c019433545840c30aef7aba77c1"
"https://github.com/tip4commit/tip4commit.git","32","1","[4a065b33cf82adf760f188933d40b4c013e80889]","1","0","4a065b33cf82adf760f188933d40b4c013e80889","c5b6cdeda04c8737623bf4e629d63f773f419465","74b41aa524978c019433545840c30aef7aba77c1"
"https://github.com/tip4commit/tip4commit.git","33","1","[4f199026d2fd08ec13c13e0ce520f46cc15a3834]","2","0","4f199026d2fd08ec13c13e0ce520f46cc15a3834","fd0dbb6259b89bd1be98b31369384b7d1403258d","31fd6f0016b720847e0b5b36f4737673035f6871"
"https://github.com/tip4commit/tip4commit.git","34","1","[1d9c7cdcd1b497253c54b26ca1feca20d0ce7972]","0","0","1d9c7cdcd1b497253c54b26ca1feca20d0ce7972","825fb31dbec30bcc328f55292e93f58ef7da4266","620839df7110fc845ac68026a2f96773a71040e9"
"https://github.com/tip4commit/tip4commit.git","35","2","[31fd6f0016b720847e0b5b36f4737673035f6871, 29ab8c618a536bb44f158dad31c122d932851548]","3","0","31fd6f0016b720847e0b5b36f4737673035f6871","6d36dd4fd477856844c1e4fde70d892902be7f5f","c15bbc2be5a8d553174f2c7aa5f284f06241493a"
"https://github.com/tip4commit/tip4commit.git","36","2","[5488a30acdd1af2a6191efcc5634db854e752fea, 150c8ba98a0d415837f185821f0049fa2bf20a68]","0","0","5488a30acdd1af2a6191efcc5634db854e752fea","6d36dd4fd477856844c1e4fde70d892902be7f5f","c15bbc2be5a8d553174f2c7aa5f284f06241493a"
"https://github.com/tip4commit/tip4commit.git","37","1","[6ec4d717ca509af721e3cea369535d6f55d96ebf]","0","0","6ec4d717ca509af721e3cea369535d6f55d96ebf","b6583b3e372f8835214f238ee49166e7b4686ba9","49610d41140a79479452bd92108f27150901ad93"
"https://github.com/tip4commit/tip4commit.git","38","1","[49610d41140a79479452bd92108f27150901ad93]","1","0","49610d41140a79479452bd92108f27150901ad93","87da1109be9eba9b016561ad0291f6524446f385","794495f8e871f5c0fb055803438cfc8e35b64bce"
"https://github.com/tip4commit/tip4commit.git","39","2","[56edc04b98577b3ffdd250191237fa32d013156a, 0a27364c92ac94e6ab0171f3d4ba54586dfeda2e]","5","0","56edc04b98577b3ffdd250191237fa32d013156a","87da1109be9eba9b016561ad0291f6524446f385","794495f8e871f5c0fb055803438cfc8e35b64bce"
"https://github.com/tip4commit/tip4commit.git","4","3","[41e6dce46407eceedd3b3ad7fc8bbf376b41cb31, dbf504019d5fe754f38bb1115986e14ff4bae3a3, d0c3b0683e20a3527e26d02f012891629859a943]","0","0","41e6dce46407eceedd3b3ad7fc8bbf376b41cb31","473cc614af1992d4448b1049198448f5d17d00da","e1ebf1d3d16807b835f64c56f022f599886a895d"
"https://github.com/tip4commit/tip4commit.git","40","1","[3f5462672cd2fe52f4e8b1e47d7590f2530c9109]","0","0","3f5462672cd2fe52f4e8b1e47d7590f2530c9109","7baf8cadff4ccfeda68b2ccf32261cfa34f74aa8","8eb1ef52fa807d0cd5f5beb5229de21d1fa11588"
"https://github.com/tip4commit/tip4commit.git","41","5","[33352c2adb29622472d717a84e0226e373f275b5, 03f369c51158540d1fe2eb5d7b25ad8ea96d3c56, 60f6a93142591c55cb4f47e9e031bfebb905c9a8, aed307aef219127803175fdfff716fe9ca038d76, eb1734c00c7676f33e8db494832cb72989c52867]","2","0","33352c2adb29622472d717a84e0226e373f275b5","c293e8dc2c636fb03b23576c08edb2a61193e18f","8eb1ef52fa807d0cd5f5beb5229de21d1fa11588"
"https://github.com/tip4commit/tip4commit.git","42","1","[b6dc2fe13c8d65a603f4b315626b38041873b8ba]","0","0","b6dc2fe13c8d65a603f4b315626b38041873b8ba","c293e8dc2c636fb03b23576c08edb2a61193e18f","8eb1ef52fa807d0cd5f5beb5229de21d1fa11588"
"https://github.com/tip4commit/tip4commit.git","43","5","[9af0cec970f18b4553b2b83bb1fdef3c43e6d1fa, ce9e5b41d47a30c2ab217fab859d081cfd1ff3e0, fac4e281be803fab52d2decb7e132f129cd64fd3, c300a00661ad2552b40ded22dcf0798103480be5, 28e90d3fb1dbcf42372b2cfd34b4cfcf017f2079]","7","0","9af0cec970f18b4553b2b83bb1fdef3c43e6d1fa","045afe2a5fc1f665c33c639aa6ff81ae7eec8b29","053f80f1bf7318f147e0343ab5ca66937e555d4b"
"https://github.com/tip4commit/tip4commit.git","44","1","[f5dca16b0b674882e960d8ae6af89547dc1226db]","0","0","f5dca16b0b674882e960d8ae6af89547dc1226db","045afe2a5fc1f665c33c639aa6ff81ae7eec8b29","053f80f1bf7318f147e0343ab5ca66937e555d4b"
"https://github.com/tip4commit/tip4commit.git","45","2","[0d480c2e6811b6502b434d4a381fcc410f455408, 1eb2117c9efd2e83c50988fb27bc5181c19ba3c3]","4","0","0d480c2e6811b6502b434d4a381fcc410f455408","d3adc399ff36183de5ad3a087f7ccf5b7d49cc38","592efae7e95d4f23fa8614c83f691fae3cffc6b1"
"https://github.com/tip4commit/tip4commit.git","46","1","[5e8244d50397e682068617137f41d0439d109f04]","1","0","5e8244d50397e682068617137f41d0439d109f04","d3adc399ff36183de5ad3a087f7ccf5b7d49cc38","d0147a70eb038fe9e1bb94f5a34923e2023d15cd"
"https://github.com/tip4commit/tip4commit.git","47","1","[ae0b1394d1ab83043e3b3ad1322d09b636c6f936]","12","10","ae0b1394d1ab83043e3b3ad1322d09b636c6f936","592efae7e95d4f23fa8614c83f691fae3cffc6b1","cf698b85cdf329e46ee11057b0677efa45bfba1c"
"https://github.com/tip4commit/tip4commit.git","48","1","[3fc56f97669367d1355264b2aa56182d056fd700]","7","0","3fc56f97669367d1355264b2aa56182d056fd700","592efae7e95d4f23fa8614c83f691fae3cffc6b1","0de34284434e524126f435a1a44a24c7c69d18b4"
"https://github.com/tip4commit/tip4commit.git","49","6","[95bd1ce8fd2e2793c51708b646e2fe34a865d294, aa4e7b8290770d2396224bfd936271abbcd57cd3, 9a3b38aadc8b87552c609555b3e211b4b2ce1db6, 34e75d85f5bdb05ba5020c6a2324a48e4449f1df, 68f3e22cfaa3bc10aa107d4038c494b52b90f37f, 93e8ecdd4cf171f0f680670efa1c2eedf18be706]","4","0","95bd1ce8fd2e2793c51708b646e2fe34a865d294","cf698b85cdf329e46ee11057b0677efa45bfba1c","f4dd34a4e8db13a9a8ba2653dfd79e9d71b87d6d"
"https://github.com/tip4commit/tip4commit.git","5","1","[90927e4eb04fbd0f3f01f968fb9a798d077cafc3]","0","0","90927e4eb04fbd0f3f01f968fb9a798d077cafc3","e1ebf1d3d16807b835f64c56f022f599886a895d","6935f3ba3cc81372057b2cde143882e192fc9360"
"https://github.com/tip4commit/tip4commit.git","50","3","[9462a58d236dc2544e85929e2ae90e0883db8557, 5a9a4f8621c7f56e287fa6bc36e0fd767b9548bd, 6bc653ff004501d3f45c9bb39dfe2108c136ef3b]","1","0","9462a58d236dc2544e85929e2ae90e0883db8557","f4dd34a4e8db13a9a8ba2653dfd79e9d71b87d6d","e4b9b751b11aeb562a9ec22837ec11864c09956b"
"https://github.com/tip4commit/tip4commit.git","51","1","[53cd0bd184687aac9c17ee5da09fe5c54acaabb6]","0","0","53cd0bd184687aac9c17ee5da09fe5c54acaabb6","f4dd34a4e8db13a9a8ba2653dfd79e9d71b87d6d","e4b9b751b11aeb562a9ec22837ec11864c09956b"
"https://github.com/tip4commit/tip4commit.git","52","1","[37fdeef3d0e14510e2d7f143d0537b1d1e25c644]","1","0","37fdeef3d0e14510e2d7f143d0537b1d1e25c644","e4b9b751b11aeb562a9ec22837ec11864c09956b","e34f4d8bcd95b9ab92bfaac51f70a9e09420ef12"
"https://github.com/tip4commit/tip4commit.git","53","2","[07e7e46a46929c4e72b773becb8e8a4208e6bf61, 7aa6198ddf0478391a8fda91bd04ed8d8ae7f844]","2","0","07e7e46a46929c4e72b773becb8e8a4208e6bf61","e4b9b751b11aeb562a9ec22837ec11864c09956b","8faca2c7568893ae6acfa8e04981af17738e9235"
"https://github.com/tip4commit/tip4commit.git","54","2","[e34f4d8bcd95b9ab92bfaac51f70a9e09420ef12, 5d01078396eea6dd8ab190283e17d84854f761f2]","0","0","e34f4d8bcd95b9ab92bfaac51f70a9e09420ef12","8faca2c7568893ae6acfa8e04981af17738e9235","bdf3f9d56d4e4be44bd4774d0dbf3c0e3fd824d7"
"https://github.com/tip4commit/tip4commit.git","55","2","[6330a3336bbe7212813291a1481c5606df714744, d0e77c4e4534ffd35b1726851ce242966a0758e4]","0","0","6330a3336bbe7212813291a1481c5606df714744","bdf3f9d56d4e4be44bd4774d0dbf3c0e3fd824d7","b09992e8dfd5280946bd5210385dfe38868b00b4"
"https://github.com/tip4commit/tip4commit.git","56","1","[c69353929a5cba55b6ed225f1297e9287ea4007b]","0","0","c69353929a5cba55b6ed225f1297e9287ea4007b","bdf3f9d56d4e4be44bd4774d0dbf3c0e3fd824d7","b09992e8dfd5280946bd5210385dfe38868b00b4"
"https://github.com/tip4commit/tip4commit.git","57","1","[bae2c1b45527afd4aa558f454c6a696410477cec]","7","6","bae2c1b45527afd4aa558f454c6a696410477cec","4eb06d6d777a63547be78ef3af8e761c04e96f20","4fc270c057e99141dc3c31d692f6289182612083"
"https://github.com/tip4commit/tip4commit.git","58","3","[b09992e8dfd5280946bd5210385dfe38868b00b4, 5bf20308a2af522df53df4eec54cc15aa2293967, 8449fdb6875cf91832cbd49daf4a3698f547dde2]","1","2","b09992e8dfd5280946bd5210385dfe38868b00b4","4eb06d6d777a63547be78ef3af8e761c04e96f20","28058022e5bcc2aebe3848c657c737e3e4b80f79"
"https://github.com/tip4commit/tip4commit.git","59","1","[9afa8147b7f29325777816bf625dcb6b98308ff9]","8","0","9afa8147b7f29325777816bf625dcb6b98308ff9","0de34284434e524126f435a1a44a24c7c69d18b4","9bd337b2b3c7f6ddef8c5284382ed213973af8c5"
"https://github.com/tip4commit/tip4commit.git","6","4","[06a0ea9d6e0159b6ec8d1d87e71d983cdc487df9, db8514b9f2a4f28361b656cccb7372533aedf354, 47b0ac2390ba610bfd95bdfa884f137629337991, 8810de0f616d8f9ded5c3ea95eec6af37133f8a1]","0","0","06a0ea9d6e0159b6ec8d1d87e71d983cdc487df9","0a142f07da55cedbfc688470739015eef007a93c","801018ae98792e0ee07fc7fc7dfedca9ade14fc1"
"https://github.com/tip4commit/tip4commit.git","60","4","[b09992e8dfd5280946bd5210385dfe38868b00b4, 5bf20308a2af522df53df4eec54cc15aa2293967, 8449fdb6875cf91832cbd49daf4a3698f547dde2, 28058022e5bcc2aebe3848c657c737e3e4b80f79]","1","2","b09992e8dfd5280946bd5210385dfe38868b00b4","0de34284434e524126f435a1a44a24c7c69d18b4","ea72d2cbb14e97f768a259002dbe54537e07e0de"
"https://github.com/tip4commit/tip4commit.git","61","3","[4172d9af50d0dccc812d91a105105392f6e028e2, 994ac47adf0230d4b3094411caf1a32daba2201b, 7f2c5de4ea1b4109ff747d9a7f3a6eeb2759fbd3]","10","8","4172d9af50d0dccc812d91a105105392f6e028e2","4fc270c057e99141dc3c31d692f6289182612083","a67deb26127f8f08c53814f9af75302f9d158ec1"
"https://github.com/tip4commit/tip4commit.git","62","1","[28058022e5bcc2aebe3848c657c737e3e4b80f79]","0","0","28058022e5bcc2aebe3848c657c737e3e4b80f79","4fc270c057e99141dc3c31d692f6289182612083","ea72d2cbb14e97f768a259002dbe54537e07e0de"
"https://github.com/tip4commit/tip4commit.git","63","1","[20fceb8cac4734bb9a635fe27f41c46e17e9aa9b]","0","0","20fceb8cac4734bb9a635fe27f41c46e17e9aa9b","ea72d2cbb14e97f768a259002dbe54537e07e0de","7dfeed31f7a37901b1312ddc3c9b3d033fb6785c"
"https://github.com/tip4commit/tip4commit.git","64","3","[2e87fa6cc8dfc05d7438ed73d6f5566a0d2922e6, af57817632f5d02ade5d53234e46479e8a0deb5a, fa25d715e255f16ddd9f9396ca4bebf0284754dd]","1","0","2e87fa6cc8dfc05d7438ed73d6f5566a0d2922e6","0aff6879c885721ede66b694aa2f7f054482d9c5","09c6748777c0b944d6efc4e5ca19faf37e393cdd"
"https://github.com/tip4commit/tip4commit.git","65","1","[9d45fd456ba2798c09e5e519790cff95a0e2dfd0]","0","0","9d45fd456ba2798c09e5e519790cff95a0e2dfd0","0aff6879c885721ede66b694aa2f7f054482d9c5","09c6748777c0b944d6efc4e5ca19faf37e393cdd"
"https://github.com/tip4commit/tip4commit.git","66","1","[ca6bac2d74adefdf945825cdcc55aaae8b5cc816]","4","1","ca6bac2d74adefdf945825cdcc55aaae8b5cc816","a67deb26127f8f08c53814f9af75302f9d158ec1","2106e7bf5288ef956da89a94b3f9256f1d239aa3"
"https://github.com/tip4commit/tip4commit.git","67","6","[013150aced915b22b9a62bdc16f5c9d54b5a225d, 2430b8042fe76e5b7f88a0f49039fe97f0fb0b22, f9bb2f2239c1882dfebf9c4f3820d541ee3632aa, 8d26f615bba6960a94c04baabc3830abd3a8a7c3, 5cfaeb1e839303e6b30c391be12b94ff837af488, 191a2fe49075bad70fdc6c5ef8407bb8bc1d98d5]","2","0","013150aced915b22b9a62bdc16f5c9d54b5a225d","a67deb26127f8f08c53814f9af75302f9d158ec1","f670df9ec7eae56e0d90bb05c5efe7d8bc3bd52f"
"https://github.com/tip4commit/tip4commit.git","68","1","[769ed744d99c4d31f2651bded98825e1ae5272e9]","0","0","769ed744d99c4d31f2651bded98825e1ae5272e9","accc58821555202cf1865777e86cd94b9300291f","f5ebd795724a6d7dea1faf459c66ba4afafacec1"
"https://github.com/tip4commit/tip4commit.git","69","1","[321d3ff06469f385ac92fa6b649463fd4c2819e3]","0","0","321d3ff06469f385ac92fa6b649463fd4c2819e3","accc58821555202cf1865777e86cd94b9300291f","013150aced915b22b9a62bdc16f5c9d54b5a225d"
"https://github.com/tip4commit/tip4commit.git","7","2","[3517eccedeedc01090b32c74e7815ef40158b219, 63f3398a2a3a3a8078e63e0b1294c0e6676b9254]","0","0","3517eccedeedc01090b32c74e7815ef40158b219","d1ae9e77144ac69daec540be9c1aeb692faf7cc4","801018ae98792e0ee07fc7fc7dfedca9ade14fc1"
"https://github.com/tip4commit/tip4commit.git","70","2","[dfe8757b33e728f6e551801e7b184780e87e204e, bf0849e1cc6f1658f4539287aeddbecb5254638d]","0","0","dfe8757b33e728f6e551801e7b184780e87e204e","f5ebd795724a6d7dea1faf459c66ba4afafacec1","013150aced915b22b9a62bdc16f5c9d54b5a225d"
"https://github.com/tip4commit/tip4commit.git","71","1","[a12196ee05c8eb82109db0ca038d728d10929b69]","0","0","a12196ee05c8eb82109db0ca038d728d10929b69","f5ebd795724a6d7dea1faf459c66ba4afafacec1","013150aced915b22b9a62bdc16f5c9d54b5a225d"
"https://github.com/tip4commit/tip4commit.git","72","1","[998b508790456ff032386ecd8ebb537221e868e9]","8","0","998b508790456ff032386ecd8ebb537221e868e9","9bd337b2b3c7f6ddef8c5284382ed213973af8c5","e5ce9f7cbd34b3baa6e6416b73b4a9ccc4d35278"
"https://github.com/tip4commit/tip4commit.git","74","1","[b7e6dc33d9ab854c3ac3bc530468f891f1f6f9cd]","3","0","b7e6dc33d9ab854c3ac3bc530468f891f1f6f9cd","354d0ed79db560076ab0cbdc5e39225f7561132c","e5ce9f7cbd34b3baa6e6416b73b4a9ccc4d35278"
"https://github.com/tip4commit/tip4commit.git","76","1","[824b259e4d9347a010a79adcf6f5209de9ce5581]","2","0","824b259e4d9347a010a79adcf6f5209de9ce5581","1f7853bbc98103d67c09b93313b3a0947c1d16e5","e5ce9f7cbd34b3baa6e6416b73b4a9ccc4d35278"
"https://github.com/tip4commit/tip4commit.git","78","1","[84ea2dd62ed7b5db1a2b590a22140d0042052787]","4","0","84ea2dd62ed7b5db1a2b590a22140d0042052787","f670df9ec7eae56e0d90bb05c5efe7d8bc3bd52f","89daf607c7d4ffa3b6b877d9c3ab5beea0954ddc"
"https://github.com/tip4commit/tip4commit.git","79","1","[3c2500e963ca35749ab20ae10ea9b4220d7a9187]","0","3","3c2500e963ca35749ab20ae10ea9b4220d7a9187","2cdfc9ff9121cf9f549436906f32f65425e90485","e63de02420435569b0464924c6f339038ef49398"
"https://github.com/tip4commit/tip4commit.git","8","1","[6cacbfabf9fc929c7c82539b58f8cf3fb93b2a61]","0","0","6cacbfabf9fc929c7c82539b58f8cf3fb93b2a61","d1ae9e77144ac69daec540be9c1aeb692faf7cc4","801018ae98792e0ee07fc7fc7dfedca9ade14fc1"
"https://github.com/tip4commit/tip4commit.git","80","1","[a4a194a7da1165724c7707a36c22ecf5167ee626]","4","0","a4a194a7da1165724c7707a36c22ecf5167ee626","2cdfc9ff9121cf9f549436906f32f65425e90485","3f9ca27be098fbdcadbc415fba3ae599dae7bdf0"
"https://github.com/tip4commit/tip4commit.git","81","2","[3f9ca27be098fbdcadbc415fba3ae599dae7bdf0, 0bdf807cd8f58f154db3c34cc73518a907317507]","1","0","3f9ca27be098fbdcadbc415fba3ae599dae7bdf0","e63de02420435569b0464924c6f339038ef49398","89daf607c7d4ffa3b6b877d9c3ab5beea0954ddc"
"https://github.com/tip4commit/tip4commit.git","82","1","[d28794db60411275602fcc18d92782ebd0f5bd61]","2","2","d28794db60411275602fcc18d92782ebd0f5bd61","e63de02420435569b0464924c6f339038ef49398","89daf607c7d4ffa3b6b877d9c3ab5beea0954ddc"
"https://github.com/tip4commit/tip4commit.git","83","1","[11f1eed297a02d58225a5a832969a0aebb4bffed]","3","6","11f1eed297a02d58225a5a832969a0aebb4bffed","2106e7bf5288ef956da89a94b3f9256f1d239aa3","b051b0b01bcc4577f972b8011428ed287eef8874"
"https://github.com/tip4commit/tip4commit.git","84","1","[7dfeed31f7a37901b1312ddc3c9b3d033fb6785c]","0","0","7dfeed31f7a37901b1312ddc3c9b3d033fb6785c","e5ce9f7cbd34b3baa6e6416b73b4a9ccc4d35278","fc9eede718ff648a9bcc0f95240c0f077f47d054"
"https://github.com/tip4commit/tip4commit.git","85","8","[cedcf2476c294809e37bc56582f1f6e8d9a13c59, f285cf7b68da3e631e707cbcaf7e564817368b2d, a2cafb44bab376efea6960fc193cbc3f3e3f5ac1, 1340fda19b64ad2378953c27f7601e95a0e83f7d, e4980b6549fde4a6ec5eea3100fbb149ee693e1c, cfdb8706c4d23dcddecf8fc2e8d08c98efe5e4af, 2c7eac5225e3594b1787c03415309d7f9cb9ceee, 6a7c6b9af1a7a43db8521e5e3f53fe32ee41fb6e]","0","1","cedcf2476c294809e37bc56582f1f6e8d9a13c59","5388a7791bec4e1750c051406e5061424fe6b10c","fc9eede718ff648a9bcc0f95240c0f077f47d054"
"https://github.com/tip4commit/tip4commit.git","86","1","[b051b0b01bcc4577f972b8011428ed287eef8874]","0","0","b051b0b01bcc4577f972b8011428ed287eef8874","5388a7791bec4e1750c051406e5061424fe6b10c","fc9eede718ff648a9bcc0f95240c0f077f47d054"
"https://github.com/tip4commit/tip4commit.git","87","13","[e9d007733232d98345b0ae23ec7f7a9dcd6d605a, 248084c04e8b0a440b37df37998b4f8e0db4b6c4, 3a98f957a12409d90c043634763e3cd9fd03d66a, 3282c7c1536388bccaeb97fc0305a7f1ac2c534c, b415de2b12fef6d6ad4d2bb1a9783b697975e273, f22a9707dff7f55277c43266d90a6565271c187b, 3844df7021c4d02b281dc6ef89068835ca249e89, 620f0ec55198af49c286a626144906b8e70ed6d7, 6ceb270009b006c76d3a919d96451f20f96aa66c, df7d75b1d3ff8a7d18e8986882ee0ef8f69982ba, 9a7720b7d0d0395239afe27f9955afaa843e65ed, 9d865ad717afc444c20e8d218957de2e9dd01795, 69f3a75d95d57d2174f01f738266659c4598a0b8]","2","0","e9d007733232d98345b0ae23ec7f7a9dcd6d605a","6417e71d6fc65ed70e4a95828ff0382ee4b640ee","013f200c924ea5b70cc60f00ab8c179373df53fd"
"https://github.com/tip4commit/tip4commit.git","88","1","[6702a4fbfe3d725a60e1b414698a8db4e14866f9]","2","0","6702a4fbfe3d725a60e1b414698a8db4e14866f9","6417e71d6fc65ed70e4a95828ff0382ee4b640ee","0ac86cd3a4dc25bf0c9fa1c0895c02dda6a94d47"
"https://github.com/tip4commit/tip4commit.git","89","5","[450bef75f6afcd36e86bf5ea775855c8d11b45d1, bbfbf8b0f3743ceddb7af758426d1f408d91edbc, 55e46e04a76afb7a272c83962c8b097bd600803b, 0ac86cd3a4dc25bf0c9fa1c0895c02dda6a94d47, 03fce9f70362029dbd7a2e5976a24f8dac637727]","0","0","450bef75f6afcd36e86bf5ea775855c8d11b45d1","013f200c924ea5b70cc60f00ab8c179373df53fd","7b06c96d08f84d20ceb6b850342e0f2aec721364"
"https://github.com/tip4commit/tip4commit.git","9","13","[6bdda7db0bd39ee6c515fcc9113ef61ed5dccfa6, f8eae053dbe21d4ea06324dadd40d5f727a83740, 272efbc30f143b417dab9dfb62584f572b7a2b5c, f86c5b09b16e219739f7370782bd91d711827b13, a0c58153fef592658faa25985212c69227aa986a, 26dad87c1994e34bd8f5cce4e21025138d5e7a1f, c398e77ad067faeaaeed8d3b7d49ec963d2857ee, 117e67e89b075e83e0bcec8c8b8bdb5acaaee99a, b9d06b97afbaf2ca80a53fd4323a250485fbb4c0, da4aa19127f090268c9b8ef40457bf721a8a5ca8, fea0931864f1336ab9ec5ca503be3fc08c5b8cde, 3fc45979e69c32b636713e7bc3365e128d649619, af770276e615e204a42770d3491d9e2c6a614d23]","0","0","6bdda7db0bd39ee6c515fcc9113ef61ed5dccfa6","cc580fbb597026bd763422cdae30e47cd8ee90c5","e457aa437c6069b99e8ffae8a5d59b4da532b6d1"
"https://github.com/tip4commit/tip4commit.git","90","1","[cae59eae495616dcbec329ba4090695e83663381]","0","0","cae59eae495616dcbec329ba4090695e83663381","013f200c924ea5b70cc60f00ab8c179373df53fd","7b06c96d08f84d20ceb6b850342e0f2aec721364"
"https://github.com/tip4commit/tip4commit.git","91","2","[b67092428c37402c552a9e4f016ee95e809df209, 57bd4cbd773989d4825d2f643ff9b398f27a23c7]","0","0","b67092428c37402c552a9e4f016ee95e809df209","7b06c96d08f84d20ceb6b850342e0f2aec721364","46ac18a810db5cddd5b8205d1cf05a94a364e598"
"https://github.com/tip4commit/tip4commit.git","92","1","[24948534745868fc90ff5e07c7d7d38cc1593809]","0","0","24948534745868fc90ff5e07c7d7d38cc1593809","7b06c96d08f84d20ceb6b850342e0f2aec721364","46ac18a810db5cddd5b8205d1cf05a94a364e598"
"https://github.com/tip4commit/tip4commit.git","93","1","[a1b15b7d23a9f20330a1d4bad86570affc8a6c7f]","1","0","a1b15b7d23a9f20330a1d4bad86570affc8a6c7f","83b0a8937ec12459df9e29309ee50218769b74fb","5fd68303af68a13ecf324a1cb293cda11b26acb8"
"https://github.com/tip4commit/tip4commit.git","94","2","[a9473c0b55f17ea8641a3eed037dbae7c0c52031, 1b87c2866cd31ae2ee0f0737963897d3a41a7ac6]","0","0","a9473c0b55f17ea8641a3eed037dbae7c0c52031","83b0a8937ec12459df9e29309ee50218769b74fb","5fd68303af68a13ecf324a1cb293cda11b26acb8"
"https://github.com/tip4commit/tip4commit.git","95","1","[95afb67f6dbcdcb586b0844ccdb86229f9d970a2]","0","0","95afb67f6dbcdcb586b0844ccdb86229f9d970a2","8052d4ada6bf2f3174fa437c36311a4ac71d7072","62cfe57fcbfb639572ff066a5a37145e2d65c0ff"
"https://github.com/tip4commit/tip4commit.git","96","1","[62cfe57fcbfb639572ff066a5a37145e2d65c0ff]","0","0","62cfe57fcbfb639572ff066a5a37145e2d65c0ff","c98f7d2b8fc46cc614dd0304d40fa3343d38b7d6","24ae5aeb98d676cfa6fb9adeedd828bddd57eaa3"
"https://github.com/tip4commit/tip4commit.git","97","1","[f2882c01681075bf47f6d07b752f54200ba22e40]","0","0","f2882c01681075bf47f6d07b752f54200ba22e40","c98f7d2b8fc46cc614dd0304d40fa3343d38b7d6","24ae5aeb98d676cfa6fb9adeedd828bddd57eaa3"
"https://github.com/tip4commit/tip4commit.git","98","1","[e8ad7176e03172c7be69a5609f3080de5c7f50d0]","2","0","e8ad7176e03172c7be69a5609f3080de5c7f50d0","d827bb2f249cdfc526b19d28e5fff584c8a62150","cea7db1d1530724a47930a789e32dd36f7df4e95"
"https://github.com/tip4commit/tip4commit.git","99","1","[4b03317d8d911227640b00dc150e79bcbabb7e2c]","1","0","4b03317d8d911227640b00dc150e79bcbabb7e2c","d827bb2f249cdfc526b19d28e5fff584c8a62150","cea7db1d1530724a47930a789e32dd36f7df4e95"
