"REPO_URL","TASK_ID","#HASHES","HASHES","#PROD_FILES","#TEST_FILES","LAST","MERGE","BASE"
"https://github.com/tommyh/solo_wizard.git","1","1","[14cefe8d3b377e5a62a44e515694856209073c79]","2","0","14cefe8d3b377e5a62a44e515694856209073c79","b6ebff53999ab919c219a18282593783c1e9f2ee","3383371cd353142b392f212953ce583b58505de9"
"https://github.com/tommyh/solo_wizard.git","2","1","[2ac9f3e503ac7bcd2fd75165d9c7ab1ea41f1f51]","0","0","2ac9f3e503ac7bcd2fd75165d9c7ab1ea41f1f51","b6ebff53999ab919c219a18282593783c1e9f2ee","3383371cd353142b392f212953ce583b58505de9"
