"Repository","https://github.com/opf/openproject.git"
"TASK","HASH","RUBY","RAILS","COVERAGE","TESTS"
"3137","65c3ebaa2dcc567c86d9484221c0e90296b25865","","4.2.5","simplecov","features/menu_items/wiki_menu_items.feature(119)"
"3168","43fab7884a7bb0571014cdd7363e7039672485cb","","4.2.5","simplecov","features/wiki/parent_page.feature(41);features/wiki/wiki_rename.feature(48)"
"3198","a1dd38f52d3099eb522e826a36538bd037b745b3","","4.2.5","simplecov","features/work_packages/update.feature(77)"
"3249","81448d264e49c572dbfdbc2f6523b4534647f77e","","4.2.5","simplecov","features/wiki/parent_page.feature(41)"
"3261","49f5a836e8bb914b09a384b186351a3814c55a52","","4.2.5","simplecov","features/work_packages/attachments.feature(60);features/work_packages/work_package_show.feature(80)"
"3312","828277c44de6a1f0673d3e3c4014dbe6085dfa6e","","4.2.5","simplecov","features/users/user_registration.feature(50)"
"3314","a728c9a8b9013a4288bb07524c55973b36694915","","4.2.5","simplecov","features/users/brute_force_prevention.feature(34);features/users/brute_force_prevention.feature(40);features/users/brute_force_prevention.feature(51);features/users/force_password_change.feature(66);features/users/password_expiry.feature(34);features/users/password_expiry.feature(49);features/users/status.feature(63);features/users/status.feature(71);features/users/status.feature(79);features/users/status.feature(85);features/users/user_auth.feature(36)"
