"Repository","https://github.com/opf/openproject.git"
"Tasks with empty IReal","0"
"Tasks with no-empty IReal","7"
"Tasks with relevant AST error","0"
"Tasks with AST error of Gherkin files","0"
"Tasks with AST error of StepDef files","0"
"Tasks with AST error of production files","0"
"Tasks with AST error of unit test files","0"
"Tasks with step match error","0"
"Tasks without required gems","0"
"Tasks with changed stepdef","2"
"Tasks with changed Gherkin","7"
"Tasks with implemented Gherkin scenarios","7"
"All invalid tasks","0"
"All valid tasks (Gherkin scenario, no empty IReal, no error)","7"
"Valid tasks, but empty ITest","0"
"Valid tasks, no empty ITest, but zero precision-recall","2"
"Valid tasks, no empty ITest, no zero precision-recall","5"
"Project","Task","Date","#Days","#Commits","Commit_Message","#Devs","#Gherkin_Tests","#Impl_Gherkin_Tests","#StepDef","#Impl_StepDef","Methods_Unknown_Type","#Step_Call","Step_Match_Errors","#Step_Match_Error","AST_Errors","#AST_Errors","Gherkin_AST_Errors","#Gherkin_AST_Errors","Steps_AST_Errors","#Steps_AST_Errors","Renamed_Files","Deleted_Files","NotFound_Views","#Views","#TestI","#TaskI","TestI","TaskI","Precision","Recall","Hashes","Timestamp","Rails","Gems","#Visit_Call","Lost_visit_call","#Views_ITest","#Code_View_Analysis","Code_View_Analysis","Has_Merge","F2","#Multiple_Step_Matches","Multiple_Step_Matches","#Generic_Step_Keyword","Generic_Step_Keyword"
"openproject","3137","[03-08-2016, 04-08-2016]","2","5","[Fix specs , Fix specs according to title <-> name swap , Swap and correct WikiMenuItems titles and names  Previously, the `title` attribute of a WikiMenuItem was used to identify a page that was linked to.  With slugs, that makes no sense. We swap the name and title usage so that:  1. Name is used for the wiki_page slug that is being linked to 2. Title is used for the displayed name , Remove unused code , [23753] Use MenuItem#title to discover the page  Since WikiMenuItem doesn't provide any other locator other than the title, we can employ `wiki.find_page` to locate the page by title. That title is either matched to the slug, or found by the legacy redirect introduced with 6.0.1.  This still feels weird, but without an explicit column or accessor to the page, there's not much we can do while keeping compatibility.  https://community.openproject.com/projects/openproject/work_packages/23753 ]","1","1","1","0","0","[save!, raw, rows_hash, gsub, send, class, raise, to_i, times, click_button, click, choose, within, raise, click_link_or_button, page, set_rack_session, tap, ago, to_date, days, send_table_to_object, first_name, last_name]","2","","0","","0","","0","","0","","[]","[/projects(/.*)?/wiki/]","1","44","6","[app/controllers/admin_controller.rb, app/controllers/sys_controller.rb, app/models/board.rb, app/models/category.rb, app/models/custom_value.rb, app/models/enumeration.rb, app/models/group.rb, app/models/member.rb, app/models/permitted_params.rb, app/models/principal.rb, app/models/project.rb, app/models/project_association.rb, app/models/role.rb, app/models/status.rb, app/models/system_user.rb, app/models/timeline.rb, app/models/type.rb, app/models/user.rb, app/models/version.rb, app/models/version/project_sharing.rb, app/models/wiki.rb, app/models/wiki_page.rb, app/models/work_package.rb, app/seeders/basic_data/role_seeder.rb, app/services/move_work_package_service.rb, lib/api/root.rb, lib/api/v3/formatter/txt_charset.rb, lib/api/v3/utilities/path_helper.rb, lib/instance_finder.rb, lib/open_project/database.rb, lib/open_project/plugins/acts_as_op_engine.rb, lib/open_project/scm/exceptions.rb, lib/open_project/themes/default_theme.rb, lib/open_project/themes/theme.rb, lib/open_project/version.rb, lib/plugins/acts_as_journalized/lib/journal_formatter/proc.rb, lib/plugins/acts_as_journalized/lib/redmine/acts/journalized/options.rb, lib/redmine/access_control.rb, lib/redmine/menu_manager.rb, lib/redmine/menu_manager/mapper.rb, lib/redmine/notifiable.rb, lib/redmine/plugin.rb, lib/tabular_form_builder.rb, lib/timelines_collection_proxy.rb]","[app/controllers/wiki_controller.rb, app/controllers/wiki_menu_items_controller.rb, app/models/menu_items/wiki_menu_item.rb, app/models/wiki.rb, app/models/wiki_page.rb, lib/redmine/menu_manager/menu_helper.rb]","0.0454545455","0.3333333333","[65c3ebaa2dcc567c86d9484221c0e90296b25865, 35fa92c2ff071dc994f8f3273005b3ad5a43b93d, 1ff88a823b472a512ae549e619b5edd519d969c9, 7842fd5a393c6c6d31f6840ba91a2c1ef156e3ce, 4f7c7d4ae962bdcb3e5b50a0f112e80502234f1f]","1.926 seconds","4.2.5","[cucumber-rails, rspec-rails, simplecov, factory_girl]","1","[]","0","0","[]","false","0.14705882361937717","0","","0",""
"openproject","3168","[27-07-2016]","1","14","[Titles no longer need to be unique  Since the slug is now the unique identifier for the page, we can avoid title conflicts by letting the slug determine unique records. , Fix null value in migration , Add separate method for downgrade titles , Clarify slug duplicate in spec , Replace l with t , Fix specs , Fix cukes , Fix lookup for menu-items controller , Fix legacy specs , Scope unique slugs per wiki_id , Let text_formatter write the slug as a link , For new pages, use the title itself as a slug input , Remove `pretty_title` since that won't matter now. , Migrate wiki titles to URL slugs  Wiki titles in 6.0 can contain ANY character, which is causing issues for specific characters processed by textile and CGI-escaped before we can actually parse wiki links.  To mitigate the issue of linking space/underscored wiki pages, introduce a permalink URL based on the title and create a migration to move old underscored titles (e.g., `base_de_donées` to spaced titles `base de donées`). ]","1","2","2","0","0","[click_button, click_link, fill_in, click, current_url, within, gsub, id, project, routes, gsub!, present?, class, find_by, send, raise, first_name, last_name, click_link_or_button, have_xpath, page, set_rack_session, raw, rows_hash, gsub, send, class, raise, save!, to_i, times, ago, to_date, tap, days, send_table_to_object, first_name, last_name]","1","","0","","0","","0","","0","","[]","[/projects(/.*)?/wiki/, topic]","2","80","24","[app/controllers/admin_controller.rb, app/controllers/api/experimental/versions_controller.rb, app/controllers/api/experimental/work_packages_controller.rb, app/controllers/api/v2/versions_controller.rb, app/controllers/sys_controller.rb, app/controllers/versions_controller.rb, app/controllers/work_packages/bulk_controller.rb, app/controllers/work_packages_controller.rb, app/models/activity/base_activity_provider.rb, app/models/attachment.rb, app/models/board.rb, app/models/category.rb, app/models/change.rb, app/models/changeset.rb, app/models/custom_field.rb, app/models/custom_value.rb, app/models/enumeration.rb, app/models/group.rb, app/models/journal.rb, app/models/legacy_journal.rb, app/models/member.rb, app/models/message.rb, app/models/permitted_params.rb, app/models/principal.rb, app/models/project.rb, app/models/project_association.rb, app/models/query.rb, app/models/role.rb, app/models/status.rb, app/models/system_user.rb, app/models/timeline.rb, app/models/type.rb, app/models/user.rb, app/models/version.rb, app/models/version/project_sharing.rb, app/models/wiki.rb, app/models/wiki_content.rb, app/models/wiki_page.rb, app/models/work_package.rb, app/seeders/basic_data/role_seeder.rb, app/services/move_work_package_service.rb, app/views/customizable/_form.html.erb, app/views/versions/_form.html.erb, app/views/versions/_overview.html.erb, app/views/versions/edit.html.erb, app/views/versions/show.html.erb, app/views/wiki/_content.html.erb, app/views/work_packages/_sidebar.html.erb, app/views/work_packages/bulk/destroy.html.erb, app/views/work_packages/index.html.erb, lib/api/errors/error_base.rb, lib/api/root.rb, lib/api/v3/formatter/txt_charset.rb, lib/api/v3/root.rb, lib/api/v3/utilities/path_helper.rb, lib/api/v3/work_packages/schema/base_work_package_schema.rb, lib/instance_finder.rb, lib/open_project/content_type_detector.rb, lib/open_project/database.rb, lib/open_project/file_command_content_type_detector.rb, lib/open_project/journal_formatter/custom_field.rb, lib/open_project/plugins/acts_as_op_engine.rb, lib/open_project/scm/adapters.rb, lib/open_project/scm/exceptions.rb, lib/open_project/static_routing.rb, lib/open_project/themes/default_theme.rb, lib/open_project/themes/theme.rb, lib/open_project/version.rb, lib/pagination/model.rb, lib/plugins/acts_as_journalized/lib/journal_formatter/id.rb, lib/plugins/acts_as_journalized/lib/journal_formatter/proc.rb, lib/plugins/acts_as_journalized/lib/redmine/acts/journalized/options.rb, lib/redmine/access_control.rb, lib/redmine/menu_manager.rb, lib/redmine/menu_manager/mapper.rb, lib/redmine/notifiable.rb, lib/redmine/plugin.rb, lib/redmine/version.rb, lib/tabular_form_builder.rb, lib/timelines_collection_proxy.rb]","[app/controllers/wiki_controller.rb, app/controllers/wiki_menu_items_controller.rb, app/helpers/application_helper.rb, app/helpers/wiki_helper.rb, app/mailers/user_mailer.rb, app/models/wiki.rb, app/models/wiki_page.rb, app/views/user_mailer/wiki_content_added.html.erb, app/views/user_mailer/wiki_content_updated.html.erb, app/views/wiki/_content.html.erb, app/views/wiki/annotate.html.erb, app/views/wiki/date_index.html.erb, app/views/wiki/destroy.html.erb, app/views/wiki/diff.html.erb, app/views/wiki/edit.html.erb, app/views/wiki/export.html.erb, app/views/wiki/export_multiple.html.erb, app/views/wiki/history.html.erb, app/views/wiki/new.html.erb, app/views/wiki/show.html.erb, app/views/wiki_menu_items/edit.html.erb, lib/open_project/text_formatting.rb, lib/redmine/wiki_formatting/null_formatter/helper.rb, lib/redmine/wiki_formatting/textile/helper.rb]","0.0375","0.125","[43fab7884a7bb0571014cdd7363e7039672485cb, aab5328126b3d2faa74d1f98cde2c4bca280b4e6, b5de9f1df757a9d1769bd7fd908b25f735edec88, e8904a4f76e88041e51098037bec4f314cb639c9, 60861307ff02bfd58cca58efe2c81f2614aadb56, 556f5072f060c0274fadf3953c1219cf21b76f33, af1fd38bad11ee0d79f595e39d8230f7b85034a2, b12dc1998dcb15ec8fb6663c0a9c132804d3a156, dc696822f291f569b53492f912240189dc895f2c, f13226eb7aca43ca064ae3e397bb3f83df134286, c5acedb1eb52ef4c9dfd5557657130494f93b1fe, d629e7a554d603b8cd3ab3f9f0485604abf6d101, 7312ed1d6f2486d7c6d8cde71a9badf530b890de, 9a34fe27c79a13590a0f4ce0721675a1eb83d161]","57.344 seconds","4.2.5","[cucumber-rails, rspec-rails, simplecov, factory_girl]","2","[]","9","15","[app/controllers/api/experimental/versions_controller.rb, app/controllers/api/experimental/work_packages_controller.rb, app/controllers/api/v2/versions_controller.rb, app/controllers/versions_controller.rb, app/controllers/work_packages/bulk_controller.rb, app/controllers/work_packages_controller.rb, app/views/customizable/_form.html.erb, app/views/versions/_form.html.erb, app/views/versions/_overview.html.erb, app/views/versions/edit.html.erb, app/views/versions/show.html.erb, app/views/wiki/_content.html.erb, app/views/work_packages/_sidebar.html.erb, app/views/work_packages/bulk/destroy.html.erb, app/views/work_packages/index.html.erb]","false","0.08522727272727272","0","","0",""
"openproject","3198","[18-07-2016]","1","2","[Freeze WP constants  bemoaned by codeclimate , Do not 'inherit' priority from children  This removes updating of priority values from children to parent work packages. ]","1","1","1","0","0","[gsub, map_headers, hashes, raw, flatten, save, blank?, raise, gsub, map_headers, hashes, has_key?, merge, raw, select, have_css, rows_hash, eq, click, within, have_field, hexcode, rows_hash, save!, ago, to_date, tap, days, send_table_to_object, send, class, raise, first_name, last_name, to_i, times, page, set_rack_session, nil?, each_with_index, combination, build, find_by, update_attribute, blank?, inject, gsub!]","1","","0","","0","","0","","0","","[]","[/work_packages(/.*)?/activity, app/views/users/_toolbar.html.erb, work_package]","3","156","2","[app/controllers/admin_controller.rb, app/controllers/api/experimental/projects_controller.rb, app/controllers/api/v2/custom_fields_controller.rb, app/controllers/api/v2/pagination/project_types_controller.rb, app/controllers/api/v2/pagination/projects_controller.rb, app/controllers/api/v2/planning_element_type_colors_controller.rb, app/controllers/api/v2/project_associations_controller.rb, app/controllers/api/v2/project_types_controller.rb, app/controllers/api/v2/projects_controller.rb, app/controllers/api/v2/reportings_controller.rb, app/controllers/api/v2/timelines_controller.rb, app/controllers/custom_fields_controller.rb, app/controllers/news_controller.rb, app/controllers/planning_element_type_colors_controller.rb, app/controllers/project_associations_controller.rb, app/controllers/project_types_controller.rb, app/controllers/projects_controller.rb, app/controllers/reportings_controller.rb, app/controllers/sys_controller.rb, app/controllers/timelines_controller.rb, app/helpers/sort_helper.rb, app/helpers/work_packages_filter_helper.rb, app/models/board.rb, app/models/category.rb, app/models/comment.rb, app/models/custom_value.rb, app/models/enumeration.rb, app/models/group.rb, app/models/issue_priority.rb, app/models/member.rb, app/models/menu_items/wiki_menu_item.rb, app/models/permitted_params.rb, app/models/principal.rb, app/models/project.rb, app/models/project_association.rb, app/models/project_type.rb, app/models/reporting.rb, app/models/role.rb, app/models/setting.rb, app/models/status.rb, app/models/system_user.rb, app/models/timeline.rb, app/models/type.rb, app/models/user.rb, app/models/version.rb, app/models/version/project_sharing.rb, app/models/work_package.rb, app/seeders/basic_data/role_seeder.rb, app/seeders/basic_data/workflow_seeder.rb, app/services/move_work_package_service.rb, app/views/announcements/edit.html.erb, app/views/attachments/_form.html.erb, app/views/auth_sources/_form.html.erb, app/views/auth_sources/edit.html.erb, app/views/boards/_form.html.erb, app/views/boards/edit.html.erb, app/views/categories/_form.html.erb, app/views/categories/edit.html.erb, app/views/custom_fields/_form.html.erb, app/views/custom_fields/edit.html.erb, app/views/custom_fields/index.html.erb, app/views/customizable/_form.html.erb, app/views/enumerations/_form.html.erb, app/views/enumerations/edit.html.erb, app/views/groups/edit.html.erb, app/views/layouts/_action_menu_base.html.erb, app/views/layouts/_action_menu_specific.html.erb, app/views/messages/_form.html.erb, app/views/messages/edit.html.erb, app/views/news/_form.html.erb, app/views/news/_news.html.erb, app/views/news/edit.html.erb, app/views/news/show.html.erb, app/views/planning_element_type_colors/_form.html.erb, app/views/planning_element_type_colors/edit.html.erb, app/views/planning_element_type_colors/index.html.erb, app/views/project_associations/_form.html.erb, app/views/project_associations/edit.html.erb, app/views/project_associations/index.html.erb, app/views/project_types/_checkbox_list.html.erb, app/views/project_types/_form.html.erb, app/views/project_types/edit.html.erb, app/views/project_types/index.html.erb, app/views/projects/_edit.html.erb, app/views/projects/_form.html.erb, app/views/projects/_members_box.html.erb, app/views/projects/form/_custom_fields.html.erb, app/views/projects/form/_modules.html.erb, app/views/projects/form/_project_attributes.html.erb, app/views/projects/form/_required_storage.html.erb, app/views/projects/form/_types.html.erb, app/views/projects/form/attributes/_description.html.erb, app/views/projects/form/attributes/_identifier.html.erb, app/views/projects/form/attributes/_is_public.html.erb, app/views/projects/form/attributes/_name.html.erb, app/views/projects/form/attributes/_parent_id.html.erb, app/views/projects/form/attributes/_project_type_id.html.erb, app/views/projects/form/attributes/_responsible_id.html.erb, app/views/projects/form/attributes/_storage_field.html.erb, app/views/projects/show.html.erb, app/views/reportings/_toolbar.html.erb, app/views/reportings/edit.html.erb, app/views/reportings/index.html.erb, app/views/roles/_form.html.erb, app/views/roles/edit.html.erb, app/views/settings/edit.html.erb, app/views/statuses/_form.html.erb, app/views/statuses/edit.html.erb, app/views/timelines/_comparison.html.erb, app/views/timelines/_custom_fields.html.erb, app/views/timelines/_form.html.erb, app/views/timelines/_general.html.erb, app/views/timelines/_timeline.html.erb, app/views/timelines/_vertical_planning_elements.html.erb, app/views/timelines/edit.html.erb, app/views/timelines/filter/_planning_elements.html.erb, app/views/timelines/filter/_projects.html.erb, app/views/timelines/group/_grouping.html.erb, app/views/timelines/show.html.erb, app/views/timelog/edit.html.erb, app/views/types/_form.html.erb, app/views/types/edit.html.erb, app/views/users/edit.html.erb, app/views/versions/_form.html.erb, app/views/versions/edit.html.erb, app/views/wiki/edit.html.erb, app/views/wiki/edit_parent_page.html.erb, app/views/wiki_menu_items/edit.html.erb, app/views/work_packages/bulk/edit.html.erb, app/views/workflows/_action_menu.html.erb, app/views/workflows/_form.html.erb, app/views/workflows/edit.html.erb, lib/api/root.rb, lib/api/v3/formatter/txt_charset.rb, lib/api/v3/utilities/path_helper.rb, lib/instance_finder.rb, lib/open_project/database.rb, lib/open_project/plugins/acts_as_op_engine.rb, lib/open_project/scm/adapters.rb, lib/open_project/scm/exceptions.rb, lib/open_project/scm/manager.rb, lib/open_project/themes/default_theme.rb, lib/open_project/themes/theme.rb, lib/open_project/version.rb, lib/plugins/acts_as_journalized/lib/journal_formatter/proc.rb, lib/redmine/access_control.rb, lib/redmine/activity.rb, lib/redmine/custom_field_format.rb, lib/redmine/menu_manager.rb, lib/redmine/menu_manager/mapper.rb, lib/redmine/notifiable.rb, lib/redmine/plugin.rb, lib/redmine/search.rb, lib/redmine/version.rb, lib/redmine/wiki_formatting.rb, lib/timelines_collection_proxy.rb]","[app/models/work_package.rb, lib/api/v3/work_packages/schema/specific_work_package_schema.rb]","0.0064102564","0.5","[a1dd38f52d3099eb522e826a36538bd037b745b3, 550763ae46ce3ad87c75117bfbb7a7066cdcd06f]","4.211 seconds","4.2.5","[cucumber-rails, rspec-rails, simplecov, factory_girl]","1","[]","82","101","[app/controllers/api/experimental/projects_controller.rb, app/controllers/api/v2/custom_fields_controller.rb, app/controllers/api/v2/pagination/project_types_controller.rb, app/controllers/api/v2/pagination/projects_controller.rb, app/controllers/api/v2/planning_element_type_colors_controller.rb, app/controllers/api/v2/project_associations_controller.rb, app/controllers/api/v2/project_types_controller.rb, app/controllers/api/v2/projects_controller.rb, app/controllers/api/v2/reportings_controller.rb, app/controllers/api/v2/timelines_controller.rb, app/controllers/custom_fields_controller.rb, app/controllers/news_controller.rb, app/controllers/planning_element_type_colors_controller.rb, app/controllers/project_associations_controller.rb, app/controllers/project_types_controller.rb, app/controllers/projects_controller.rb, app/controllers/reportings_controller.rb, app/controllers/timelines_controller.rb, app/helpers/work_packages_filter_helper.rb, app/views/announcements/edit.html.erb, app/views/attachments/_form.html.erb, app/views/auth_sources/_form.html.erb, app/views/auth_sources/edit.html.erb, app/views/boards/_form.html.erb, app/views/boards/edit.html.erb, app/views/categories/_form.html.erb, app/views/categories/edit.html.erb, app/views/custom_fields/_form.html.erb, app/views/custom_fields/edit.html.erb, app/views/custom_fields/index.html.erb, app/views/customizable/_form.html.erb, app/views/enumerations/_form.html.erb, app/views/enumerations/edit.html.erb, app/views/groups/edit.html.erb, app/views/layouts/_action_menu_base.html.erb, app/views/layouts/_action_menu_specific.html.erb, app/views/messages/_form.html.erb, app/views/messages/edit.html.erb, app/views/news/_form.html.erb, app/views/news/_news.html.erb, app/views/news/edit.html.erb, app/views/news/show.html.erb, app/views/planning_element_type_colors/_form.html.erb, app/views/planning_element_type_colors/edit.html.erb, app/views/planning_element_type_colors/index.html.erb, app/views/project_associations/_form.html.erb, app/views/project_associations/edit.html.erb, app/views/project_associations/index.html.erb, app/views/project_types/_checkbox_list.html.erb, app/views/project_types/_form.html.erb, app/views/project_types/edit.html.erb, app/views/project_types/index.html.erb, app/views/projects/_edit.html.erb, app/views/projects/_form.html.erb, app/views/projects/_members_box.html.erb, app/views/projects/form/_custom_fields.html.erb, app/views/projects/form/_modules.html.erb, app/views/projects/form/_project_attributes.html.erb, app/views/projects/form/_required_storage.html.erb, app/views/projects/form/_types.html.erb, app/views/projects/form/attributes/_description.html.erb, app/views/projects/form/attributes/_identifier.html.erb, app/views/projects/form/attributes/_is_public.html.erb, app/views/projects/form/attributes/_name.html.erb, app/views/projects/form/attributes/_parent_id.html.erb, app/views/projects/form/attributes/_project_type_id.html.erb, app/views/projects/form/attributes/_responsible_id.html.erb, app/views/projects/form/attributes/_storage_field.html.erb, app/views/projects/show.html.erb, app/views/reportings/_toolbar.html.erb, app/views/reportings/edit.html.erb, app/views/reportings/index.html.erb, app/views/roles/_form.html.erb, app/views/roles/edit.html.erb, app/views/settings/edit.html.erb, app/views/statuses/_form.html.erb, app/views/statuses/edit.html.erb, app/views/timelines/_comparison.html.erb, app/views/timelines/_custom_fields.html.erb, app/views/timelines/_form.html.erb, app/views/timelines/_general.html.erb, app/views/timelines/_timeline.html.erb, app/views/timelines/_vertical_planning_elements.html.erb, app/views/timelines/edit.html.erb, app/views/timelines/filter/_planning_elements.html.erb, app/views/timelines/filter/_projects.html.erb, app/views/timelines/group/_grouping.html.erb, app/views/timelines/show.html.erb, app/views/timelog/edit.html.erb, app/views/types/_form.html.erb, app/views/types/edit.html.erb, app/views/users/edit.html.erb, app/views/versions/_form.html.erb, app/views/versions/edit.html.erb, app/views/wiki/edit.html.erb, app/views/wiki/edit_parent_page.html.erb, app/views/wiki_menu_items/edit.html.erb, app/views/work_packages/bulk/edit.html.erb, app/views/workflows/_action_menu.html.erb, app/views/workflows/_form.html.erb, app/views/workflows/edit.html.erb]","false","0.030487804831647827","0","","0",""
"openproject","3249","[27-06-2016]","1","6","[Merge pull request #4592 from ulferts/fix/performance_on_list_cfs  Fix/performance on list cfs, use faster clone , use assignable_custom_field_values for version as well , no longer show available values for a typed schema  Before, the available values where always embedded into every schema. Because a deep copy is performed in the front end, this would downgrade the performance of the wp list in cases where a schema has a list cf with a lot of available values , [23522] Design errors in wiki ""Change parent"" page (#4584)  * Fix styling issues with 'change parent' select box  * Refactor method to enable array instead of string , Output only the item itself as english locale (#4590)  ]","3","1","1","0","0","[click_button, click_link, click, current_url, gsub, id, project, routes, gsub!, present?, class, find_by, send, raise, first_name, last_name, click_link_or_button, have_xpath, page, set_rack_session, raw, rows_hash, gsub, send, class, raise, save!, to_i, times]","0","","0","","0","","0","","0","","[]","[/projects(/.*)?/wiki/, topic]","2","62","9","[app/controllers/api/experimental/versions_controller.rb, app/controllers/api/experimental/work_packages_controller.rb, app/controllers/api/v2/versions_controller.rb, app/controllers/versions_controller.rb, app/controllers/work_packages/bulk_controller.rb, app/controllers/work_packages_controller.rb, app/models/activity/base_activity_provider.rb, app/models/attachment.rb, app/models/change.rb, app/models/changeset.rb, app/models/custom_field.rb, app/models/group.rb, app/models/journal.rb, app/models/legacy_journal.rb, app/models/member.rb, app/models/message.rb, app/models/permitted_params.rb, app/models/principal.rb, app/models/project.rb, app/models/query.rb, app/models/role.rb, app/models/system_user.rb, app/models/timeline.rb, app/models/user.rb, app/models/version.rb, app/models/wiki.rb, app/models/wiki_content.rb, app/models/wiki_page.rb, app/models/work_package.rb, app/services/move_work_package_service.rb, app/views/customizable/_form.html.erb, app/views/versions/_form.html.erb, app/views/versions/_overview.html.erb, app/views/versions/edit.html.erb, app/views/versions/show.html.erb, app/views/wiki/_content.html.erb, app/views/work_packages/_sidebar.html.erb, app/views/work_packages/bulk/destroy.html.erb, app/views/work_packages/index.html.erb, lib/api/errors/error_base.rb, lib/api/root.rb, lib/api/v3/formatter/txt_charset.rb, lib/api/v3/root.rb, lib/api/v3/work_packages/schema/base_work_package_schema.rb, lib/instance_finder.rb, lib/open_project/content_type_detector.rb, lib/open_project/database.rb, lib/open_project/file_command_content_type_detector.rb, lib/open_project/journal_formatter/custom_field.rb, lib/open_project/plugins/acts_as_op_engine.rb, lib/open_project/scm/adapters.rb, lib/open_project/static_routing.rb, lib/open_project/themes/default_theme.rb, lib/open_project/themes/theme.rb, lib/open_project/version.rb, lib/pagination/model.rb, lib/plugins/acts_as_journalized/lib/journal_formatter/id.rb, lib/redmine/menu_manager/mapper.rb, lib/redmine/plugin.rb, lib/redmine/version.rb, lib/tabular_form_builder.rb, lib/timelines_collection_proxy.rb]","[app/helpers/wiki_helper.rb, app/views/wiki/destroy.html.erb, app/views/wiki/edit_parent_page.html.erb, app/views/wiki/new.html.erb, app/views/wiki_menu_items/select_main_menu_item.html.erb, lib/api/v3/utilities/custom_field_injector.rb, lib/api/v3/work_packages/schema/base_work_package_schema.rb, lib/api/v3/work_packages/schema/specific_work_package_schema.rb, lib/redmine/menu_manager/menu_helper.rb]","0.0161290323","0.1111111111","[81448d264e49c572dbfdbc2f6523b4534647f77e, 79d9d6fe800397f1bd74ce1a01418936a2bb2f9f, d18b02859926f8cb28ca3764ba7f957d404a7060, 5948249c77fb8d9e9eb9e2f6a09dcaea637f4774, 8dbe8d553d024289db9466b786041ec93b8cd0ea, cc1cff9d67d7b5400e25976619c80ea8ae0025ab]","57.401 seconds","4.2.5","[cucumber-rails, rspec-rails, simplecov, factory_girl]","1","[]","9","15","[app/controllers/api/experimental/versions_controller.rb, app/controllers/api/experimental/work_packages_controller.rb, app/controllers/api/v2/versions_controller.rb, app/controllers/versions_controller.rb, app/controllers/work_packages/bulk_controller.rb, app/controllers/work_packages_controller.rb, app/views/customizable/_form.html.erb, app/views/versions/_form.html.erb, app/views/versions/_overview.html.erb, app/views/versions/edit.html.erb, app/views/versions/show.html.erb, app/views/wiki/_content.html.erb, app/views/work_packages/_sidebar.html.erb, app/views/work_packages/bulk/destroy.html.erb, app/views/work_packages/index.html.erb]","true","0.05102040824531445","0","","0",""
"openproject","3261","[22-06-2016]","1","62","[Revert show-all default behavior  This reverts the change to show all fields in the create mode to behave like before in all tests.  If we want to change it, we should move it out of this PR. , Show usually hidden fields of new WPs  Toggle the 'show all' button, if the WP is being created. Also fix a bug, where the attributes where show regardless of the expand/collapse state. , Resolve CodeClimate issues , Fix create spec  The wp-inline-create controller didn't properly update the cache service for a newly created work package.  Also, a wrong reference was passed in the table service , Fix and refactor wpRelations directive tests , Remove old relations handler services , Add separate CopyController for frontend copy (#22)  This allows copying another resource from its `form`. We can't simply copy from the resource itself, since we can't distinguish property links and action links (e.g., update) in the frontend.  I believe we should create a separate copy API to that end. , Fix child [TOO_LONG]","3","2","2","0","0","[page, have_content, within, raise, page, set_rack_session, gsub, map_headers, hashes, nil?, save!, each_with_index, blank?, raise, raw, rows_hash, send, class, to_i, times, tap, ago, to_date, days, send_table_to_object, first_name, last_name, order, method, flatten, save, click_link, within, has_key?, merge, merge!]","6","","0","","0","","0","","0","","[]","[/work_packages(/.*)?/activity, work_package]","2","74","3","[app/controllers/admin_controller.rb, app/controllers/api/experimental/work_packages_controller.rb, app/controllers/projects_controller.rb, app/controllers/sys_controller.rb, app/controllers/work_packages_controller.rb, app/helpers/sort_helper.rb, app/helpers/work_packages_filter_helper.rb, app/models/board.rb, app/models/category.rb, app/models/changeset.rb, app/models/custom_value.rb, app/models/enumeration.rb, app/models/group.rb, app/models/issue_priority.rb, app/models/member.rb, app/models/permitted_params.rb, app/models/principal.rb, app/models/project.rb, app/models/project_association.rb, app/models/role.rb, app/models/status.rb, app/models/system_user.rb, app/models/timeline.rb, app/models/type.rb, app/models/user.rb, app/models/version.rb, app/models/version/project_sharing.rb, app/models/work_package.rb, app/seeders/basic_data/role_seeder.rb, app/services/move_work_package_service.rb, app/views/common/_calendar.html.erb, app/views/queries/_filters.html.erb, app/views/work_packages/_list_simple.html.erb, app/views/work_packages/_sidebar.html.erb, app/views/work_packages/auto_completes/index.html.erb, app/views/work_packages/bulk/destroy.html.erb, app/views/work_packages/bulk/edit.html.erb, app/views/work_packages/calendars/index.html.erb, app/views/work_packages/index.html.erb, app/views/work_packages/moves/new.html.erb, app/views/work_packages/reports/_report.html.erb, app/views/work_packages/reports/_report_category.html.erb, app/views/work_packages/reports/report.html.erb, app/views/work_packages/reports/report_details.html.erb, app/views/work_packages/show.html.erb, lib/api/root.rb, lib/api/v3/formatter/txt_charset.rb, lib/api/v3/utilities/path_helper.rb, lib/instance_finder.rb, lib/open_project.rb, lib/open_project/a_r_object_cache.rb, lib/open_project/database.rb, lib/open_project/files.rb, lib/open_project/plugins/acts_as_op_engine.rb, lib/open_project/scm/adapters.rb, lib/open_project/scm/exceptions.rb, lib/open_project/scm/manager.rb, lib/open_project/themes/default_theme.rb, lib/open_project/themes/theme.rb, lib/open_project/version.rb, lib/plugins/acts_as_journalized/lib/journal_formatter/proc.rb, lib/plugins/acts_as_journalized/lib/redmine/acts/journalized/options.rb, lib/plugins/acts_as_watchable/lib/acts_as_watchable.rb, lib/redmine/access_control.rb, lib/redmine/activity.rb, lib/redmine/custom_field_format.rb, lib/redmine/menu_manager.rb, lib/redmine/menu_manager/mapper.rb, lib/redmine/notifiable.rb, lib/redmine/plugin.rb, lib/redmine/search.rb, lib/redmine/version.rb, lib/redmine/wiki_formatting.rb, lib/timelines_collection_proxy.rb]","[lib/api/v3/relations/relation_collection_representer.rb, lib/api/v3/relations/relations_api.rb, lib/api/v3/work_packages/work_package_representer.rb]","0.0","0.0","[49f5a836e8bb914b09a384b186351a3814c55a52, 83760a4c548c6b8d73330f82de67c2f0d0cf32ba, 27198a8db407cda461ec52d1283b9b444042685e, e337be7957c829ca4da72322ee5bc0db35d3cb3d, 8278772ca6e4e5e99000de166a06a07bb1ff0ea5, d33643f0a1a9192c6c1a081b4eaa068db19b04a0, 2a38ff11569d17e8b47e98ebb68e0cb6bc7cfa46, 0a1f9ce7f0341f4d7d0eeb8a27c9748ac86d58ed, e28ad041d226f2ced776184c9dcbadeab22072d6, d3bbc6749c2a7243209a6518e3fe551e9105bd6c, 25b5f89352d9de7215412e20274bc3d75782f82f, 4a8eb0dd04bf7ab109d6d4d33237b8daf77198b1, 02216b2dd96f64983d6f64aec7e0027f94794ea5, e693ce00257de7cba5774bbec7645b2f2d74433c, 65546c02963e8466e0606ef037b59993db3935e2, efdc044a290522f831c33bc7d560753553ffa3fa, 4af41a03506f128ad208f746f9d96dda0cf2885f, 8136a3a26fd3a1165c97de7343a06566b17312cd, 3d76e8759b248b8fed1c8b33594b2ca73bce155b, 041c115ff785f7ccf0b30b85d55296a40ae23238, 365a68e8c09c1d97d44b4bd3b178237f8470e982, 19a4f9158f4bc9412623cd797bcd0a5d3b1e0346, acf8b2d7dd41600d0c5281601757b50e01c04e69, 1825a7807670967818b5bfacff9009935b22ec0c, b80d13e324d12b2b92111e1e29db8b4153ad6867, e9d68bc5ae4a739ab1446e750f15afd86b055fd4, 773807e38f27716951a28258d40e2a974653acab, fb993d27c78a90e390590a5c86299e18a4869049, f325745ca89784ade1fa428386bee7fd690424e4, 0206c1968331473ef76784b4a466e61d31568f01, c8faeb43feca17de51d1b96ab0c3f10869724daf, e8041c295727c124775fb0f360f357351e142e90, d0bf7c38191efa1e305f929090c39c8b19f37d33, a492cb420c2da622f1eb227d53985014ba0bfbe5, d6dc899063958980089fde3bba606a2cdf64ec62, 4e85918e445f377d8f696b28aad6ac4b741231d5, 77190d6390716220979e2ae2ec14bedf0495b776, 01869f4965d8ab488d012240ab0e3929cbe73d3c, 57f191ba6102bfa2e95d7a17118f17454e878ab5, 4cf0fcf3f38465ff319be86c31dbed55f3d68058, 0e3b7c612386f512cba4ee0ff8fe1717ee4308b5, 8da9082c2fdfad6f745d889d6ccd706143a2f257, 6fed1a7b9082c68e6d6f800a2d938d521f934f77, 5a201b4df5822f39ef15ce9095e52db06db76912, 9eb99e527dea2b82d7944db3b6a32a286e1caa2c, 37831fdc24d517dc7344dba70d0a340a08ee7e61, 4fbcf39663e37e89f5f359544848a139f70a3ae6, fb122066fd03bb68d5e968c19ca23b62eb28e09e, fadf0eca9bbf96568f6764c1f251705cf2acd787, d46a6e2365a6ccd8880c87e90614562acaf2fb5a, 81cc3545a9571ec11c06302afaac1d47fbcf9226, eb004bfbc61b30a2d04fda61e65152bc98772cdd, 782c6572eee2a5f6f8eef03ef7b8be369aeeb951, 7cd45c2186e93a5b5eb26b006df9a4a0c882b32c, 7e8c9beea41ede6d519ac7a6846eefae3d9468e9, c7096bb220711860f240f00c868e54c40d245000, 58d5ee00724ad4d8b8698d33eb0e1847d58d92fd, b68394d3cbaffeeeb638e0643ecca90bff2e890f, 7447da02a64d1a0de14ad658085bf074d14b36fa, 7758e2328bc97e0347a38aac54400dfc36f5c0b2, 67313c80665ccd878eef6764db84ff542f54cc48, 24785f165f4ed8986ff2a929777525ebd49e6f5f]","3.354 seconds","4.2.5","[cucumber-rails, rspec-rails, simplecov, factory_girl]","2","[]","15","18","[app/controllers/api/experimental/work_packages_controller.rb, app/controllers/work_packages_controller.rb, app/helpers/work_packages_filter_helper.rb, app/views/common/_calendar.html.erb, app/views/queries/_filters.html.erb, app/views/work_packages/_list_simple.html.erb, app/views/work_packages/_sidebar.html.erb, app/views/work_packages/auto_completes/index.html.erb, app/views/work_packages/bulk/destroy.html.erb, app/views/work_packages/bulk/edit.html.erb, app/views/work_packages/calendars/index.html.erb, app/views/work_packages/index.html.erb, app/views/work_packages/moves/new.html.erb, app/views/work_packages/reports/_report.html.erb, app/views/work_packages/reports/_report_category.html.erb, app/views/work_packages/reports/report.html.erb, app/views/work_packages/reports/report_details.html.erb, app/views/work_packages/show.html.erb]","false","0.0","0","","0",""
"openproject","3312","[13-06-2016]","1","3","[Override styling for accessibility mode  Can't seem to override the specificity of the top_menu selectors without !important. , Refactor drop_down helper methods  We had several methods for the creation of a dropdown, all of which were awful. , Refactor menu splitting and project drop down  This allows us to use the helper to decide when a drop-down node is selected based on its content.  Since we do not always pass MenuItems to the render_drop_down_node helper, we unfortunately must pass the selected state of its contents in that case.  Also moves project and help helpers into separate modules ]","2","1","1","1","1","[fill_in, current_url, page, have_selector, gsub, gsub, id, project, routes, gsub!, present?, class, find_by, send, raise, first_name, last_name, click_link_or_button, all, click]","1","","0","","0","","0","","0","","[lib/redmine/menu_manager/help_menu_helper.rb]","[topic]","1","64","9","[app/controllers/api/experimental/versions_controller.rb, app/controllers/api/experimental/work_packages_controller.rb, app/controllers/api/v2/versions_controller.rb, app/controllers/homescreen_controller.rb, app/controllers/versions_controller.rb, app/controllers/work_packages/bulk_controller.rb, app/controllers/work_packages_controller.rb, app/models/activity/base_activity_provider.rb, app/models/attachment.rb, app/models/change.rb, app/models/changeset.rb, app/models/custom_field.rb, app/models/group.rb, app/models/journal.rb, app/models/legacy_journal.rb, app/models/member.rb, app/models/message.rb, app/models/permitted_params.rb, app/models/principal.rb, app/models/project.rb, app/models/query.rb, app/models/role.rb, app/models/system_user.rb, app/models/timeline.rb, app/models/user.rb, app/models/version.rb, app/models/wiki_content.rb, app/models/wiki_page.rb, app/models/work_package.rb, app/views/account/_auth_providers.html.erb, app/views/account/register.html.erb, app/views/announcements/_show.html.erb, app/views/customizable/_field.html.erb, app/views/customizable/_form.html.erb, app/views/homescreen/index.html.erb, app/views/onboarding/_starting_video_modal.html.erb, app/views/versions/_form.html.erb, app/views/versions/_overview.html.erb, app/views/versions/edit.html.erb, app/views/versions/show.html.erb, app/views/wiki/_content.html.erb, app/views/work_packages/_sidebar.html.erb, app/views/work_packages/bulk/destroy.html.erb, app/views/work_packages/index.html.erb, lib/api/errors/error_base.rb, lib/api/root.rb, lib/api/v3/root.rb, lib/api/v3/work_packages/schema/base_work_package_schema.rb, lib/instance_finder.rb, lib/open_project/content_type_detector.rb, lib/open_project/database.rb, lib/open_project/file_command_content_type_detector.rb, lib/open_project/journal_formatter/custom_field.rb, lib/open_project/plugins/acts_as_op_engine.rb, lib/open_project/scm/adapters.rb, lib/open_project/static_routing.rb, lib/open_project/themes/default_theme.rb, lib/open_project/themes/theme.rb, lib/open_project/version.rb, lib/pagination/model.rb, lib/plugins/acts_as_journalized/lib/journal_formatter/id.rb, lib/redmine/i18n.rb, lib/redmine/version.rb, lib/timelines_collection_proxy.rb]","[app/controllers/my_controller.rb, app/controllers/news_controller.rb, app/controllers/projects_controller.rb, app/controllers/work_packages_controller.rb, lib/redmine/menu_manager/menu_helper.rb, lib/redmine/menu_manager/menu_item.rb, lib/redmine/menu_manager/top_menu/help_menu.rb, lib/redmine/menu_manager/top_menu/projects_menu.rb, lib/redmine/menu_manager/top_menu_helper.rb]","0.015625","0.1111111111","[828277c44de6a1f0673d3e3c4014dbe6085dfa6e, 87e9ada1970f73a08301ddd062e8551620a03767, e3378227151629e8f0c21ee5cbefa442f9f817b7]","56.108 seconds","4.2.5","[cucumber-rails, rspec-rails, simplecov, factory_girl]","2","[]","15","22","[app/controllers/api/experimental/versions_controller.rb, app/controllers/api/experimental/work_packages_controller.rb, app/controllers/api/v2/versions_controller.rb, app/controllers/homescreen_controller.rb, app/controllers/versions_controller.rb, app/controllers/work_packages/bulk_controller.rb, app/controllers/work_packages_controller.rb, app/views/account/_auth_providers.html.erb, app/views/account/register.html.erb, app/views/announcements/_show.html.erb, app/views/customizable/_field.html.erb, app/views/customizable/_form.html.erb, app/views/homescreen/index.html.erb, app/views/onboarding/_starting_video_modal.html.erb, app/views/versions/_form.html.erb, app/views/versions/_overview.html.erb, app/views/versions/edit.html.erb, app/views/versions/show.html.erb, app/views/wiki/_content.html.erb, app/views/work_packages/_sidebar.html.erb, app/views/work_packages/bulk/destroy.html.erb, app/views/work_packages/index.html.erb]","false","0.04999999999820001","0","","0",""
"openproject","3314","[13-06-2016]","1","4","[Update reference to OpenProject-Translations , Fix/accessible error messages (#4529)  * add error messages to each field  * move role=alert up so that success messages are also covered  * remove focus code from notification-box directive  The box does not need to be focused as it has the role=alert which will lead to it being read out.  * remove specific focusing behaviour for accessibility mode  The mode was introduced to present error messages to user requiring assistive technology e.g. screen readers. By setting role=alert on the error fields and additionally labeling the fields with the errors, this should no longer be necessary , [23145] Restyle right elements in main header (#4441)  * Change top menu elements on the right side  * Include review feedback and fix specs , Add the current locale to the schema cache key (#4526)  ]","4","11","11","2","2","[set, fill_in, click_link_or_button, click_button, within, gsub, page, have_link, save, to_i, minutes, days, have_selector, page, set_rack_session, have_xpath, fill_in, click_button, within, first_name, last_name, gsub, have_no_content, raw, flatten]","7","","0","","0","","0","","0","","[]","[/logout, app/views/settings/_partial.html.erb, app/views/users/_toolbar.html.erb]","3","55","4","[app/controllers/account_controller.rb, app/controllers/api/experimental/users_controller.rb, app/controllers/api/v2/pagination/users_controller.rb, app/controllers/api/v2/users_controller.rb, app/controllers/settings_controller.rb, app/controllers/users_controller.rb, app/models/board.rb, app/models/category.rb, app/models/custom_value.rb, app/models/enumeration.rb, app/models/group.rb, app/models/member.rb, app/models/principal.rb, app/models/project.rb, app/models/role.rb, app/models/setting.rb, app/models/status.rb, app/models/system_user.rb, app/models/timeline.rb, app/models/type.rb, app/models/user.rb, app/models/version.rb, app/models/work_package.rb, app/views/account/_auth_providers.html.erb, app/views/account/_login.html.erb, app/views/account/_password_login_form.html.erb, app/views/account/login.html.erb, app/views/hooks/login/_auth_provider.html.erb, app/views/settings/_authentication.html.erb, app/views/settings/_display.html.erb, app/views/settings/_general.html.erb, app/views/settings/_mail_handler.html.erb, app/views/settings/_notifications.html.erb, app/views/settings/_projects.html.erb, app/views/settings/_repositories.html.erb, app/views/settings/_repositories_checkout.html.erb, app/views/settings/_users.html.erb, app/views/settings/_work_packages.html.erb, app/views/settings/edit.html.erb, app/views/settings/plugin.html.erb, app/views/users/edit.html.erb, app/views/users/index.html.erb, lib/open_project/database.rb, lib/open_project/plugins/acts_as_op_engine.rb, lib/open_project/scm/exceptions.rb, lib/open_project/themes/default_theme.rb, lib/open_project/themes/theme.rb, lib/open_project/version.rb, lib/plugins/acts_as_journalized/lib/journal_formatter/attribute.rb, lib/redmine/i18n.rb, lib/redmine/menu_manager/mapper.rb, lib/redmine/notifiable.rb, lib/redmine/plugin.rb, lib/tabular_form_builder.rb, lib/timelines_collection_proxy.rb]","[app/helpers/application_helper.rb, lib/api/v3/work_packages/schema/work_package_schema_representer.rb, lib/redmine/menu_manager/help_menu_helper.rb, lib/redmine/menu_manager/top_menu_helper.rb]","0.0","0.0","[a728c9a8b9013a4288bb07524c55973b36694915, 1d99206232f202a216f08b64f9d81816ba444194, 2c93604f8f29bfe8dde80e54d8e16f9444f65c4f, 6204762234915931d8adc3fd5fe82b1d0d653eca]","2.122 seconds","4.2.5","[cucumber-rails, rspec-rails, simplecov, factory_girl]","8","[]","19","24","[app/controllers/api/experimental/users_controller.rb, app/controllers/api/v2/pagination/users_controller.rb, app/controllers/api/v2/users_controller.rb, app/controllers/settings_controller.rb, app/controllers/users_controller.rb, app/views/account/_auth_providers.html.erb, app/views/account/_login.html.erb, app/views/account/_password_login_form.html.erb, app/views/account/login.html.erb, app/views/hooks/login/_auth_provider.html.erb, app/views/settings/_authentication.html.erb, app/views/settings/_display.html.erb, app/views/settings/_general.html.erb, app/views/settings/_mail_handler.html.erb, app/views/settings/_notifications.html.erb, app/views/settings/_projects.html.erb, app/views/settings/_repositories.html.erb, app/views/settings/_repositories_checkout.html.erb, app/views/settings/_users.html.erb, app/views/settings/_work_packages.html.erb, app/views/settings/edit.html.erb, app/views/settings/plugin.html.erb, app/views/users/edit.html.erb, app/views/users/index.html.erb]","false","0.0","0","","0",""
