"Repository","https://github.com/opengovernment/opengovernment.git"
"TASK","HASH","RUBY","RAILS","COVERAGE","TESTS"
"176","56aa328cabdd407607f072cbdf279aed90815b4a","","","","features/search.feature(7);features/search.feature(16);features/search.feature(23)"
"182","32d8c98fe8e22cbe1df34e40e7f450184e8f9ca7","","","","features/my_district.feature(7);features/my_district.feature(26)"
"186","f2be7cdf34ee92246482028b6bb5950e017fbbce","","","","features/sign_in.feature(6);features/sign_in.feature(13)"
