"Repository","https://github.com/rapidftr/RapidFTR.git"
"Precision mean (RT)","0.1877705627681818"
"Precision median (RT)","0.08333333335"
"Precision standard deviation (RT)","0.223941312398973"
"Recall mean (RT)","0.43560606060454543"
"Recall median (RT)","0.25"
"Recall standard deviation (RT)","0.4671283276120297"
"F2 mean (RT)","0.3227041775404704"
"F2 median (RT)","0.20833333333333331"
"F2 standard deviation (RT)","0.34133644353420184"
"Correlation #Test-Precision","0.35"
"Correlation #Test-Recall","0.1"
"Task","Dates","#Devs","#Commits","Hashes","#Gherkin_Tests","#Sted_defs","#TestI","#TaskI","TestI","TaskI","Precision","Recall","Rails","#visit_call","Lost_visit_call","#Views_TestI","#Code_View_Analysis","Code_View_Analysis","Methods_Unknown_Type","Renamed_Files","Deleted_Files","NotFound_Views","#NotFound_Views","Timestamp","Has_Merge","#FP","#FN","FP","FN","#Hits","Hits","f2"
"1275","[07-08-2010]","1","5","[044c9b353dd289f21b9684981c6243bee1432518, ed2a93836717f9596307ee849661f42f20dae28a, 3aac921595955cda8c645ef281606512911df211, 4cbde1a17f9ed27473e8417cc5302bbcd9471125, 523cc3ee6b1dbfd1e18df48f0108e64d45653b32]","17","0","7","0","[app/controllers/admin_controller.rb, app/controllers/children_controller.rb, app/controllers/fields_controller.rb, app/controllers/form_section_controller.rb, app/controllers/histories_controller.rb, app/controllers/sessions_controller.rb, app/controllers/users_controller.rb]","[]","0.0","0.0","","7","[{path=rapidftr_RapidFTR/features/step_definitions/basic_steps.rb, line=93}]","0","36","[app/controllers/admin_controller.rb, app/controllers/children_controller.rb, app/controllers/fields_controller.rb, app/controllers/form_section_controller.rb, app/controllers/histories_controller.rb, app/controllers/sessions_controller.rb, app/controllers/users_controller.rb, app/helpers/application_helper.rb, app/views/admin/index.html.erb, app/views/children/_form_section.html.erb, app/views/children/_search_results.html.erb, app/views/children/_summary_row.html.erb, app/views/children/_tabs.html.erb, app/views/children/edit.html.erb, app/views/children/index.html.erb, app/views/children/new.html.erb, app/views/children/search.html.erb, app/views/children/show.html.erb, app/views/fields/_direction_button.html.erb, app/views/fields/_suggested_field.html.erb, app/views/fields/index.html.erb, app/views/fields/new.html.erb, app/views/fields/new_select_drop_down.html.erb, app/views/fields/new_text_field.html.erb, app/views/form_section/index.html.erb, app/views/form_section/new.html.erb, app/views/histories/_history_change.html.erb, app/views/histories/_photo_history_change.html.erb, app/views/histories/show.html.erb, app/views/sessions/new.html.erb, app/views/sessions/show.html.erb, app/views/users/_edittable_user.html.erb, app/views/users/edit.html.erb, app/views/users/index.html.erb, app/views/users/new.html.erb, app/views/users/show.html.erb]","[fill_in, attach_file, and_return, and_return, hashes, reverse_merge!, delete, uploadable_photo, create!, each, response, body, Hpricot, be_empty, content_type, raise, id, cancel, click_button, click_link, click_link, click_link, select, choose, attach_file, contain, assert_contain, current_url, select, compact, assert_equal, raise, send, cancel]","","[]","[new_add_suggested_field_to_form_section, new_assign_unique_id_to_a_child, new_check_box_formsection_fields, new_formsection_fields, new_select_drop_down_formsection_fields, new_text_field_formsection_fields, new_textarea_formsection_fields]","7","5.411 seconds","false","7","0","[app/controllers/admin_controller.rb, app/controllers/children_controller.rb, app/controllers/fields_controller.rb, app/controllers/form_section_controller.rb, app/controllers/histories_controller.rb, app/controllers/sessions_controller.rb, app/controllers/users_controller.rb]","[]","0","[]","0"
"1280","[06-07-2010, 10-07-2010]","3","37","[6a782724f53b22c9fbc16d493b7ad2f76ba20907, bb85daf0df9e2e7463b3ae36afefa7a2cf0f9879, fdda65b352329cdde38d81fb86ed8c433f1c9720, a6042436999cd054d7e1266174a2858e657f3e3f, 281cd6b6b7bdb37a1ad5d5bc9dc097a1eeebd1a7, 5ec99de6ce63e80ac5087b24669de41741757139, 6376245745d88ad6d980062a5e33d72e8c3fb9f9, d73fd345ad808f762de8e53484d269851c078a53, deb08e3b377f01443d058b7c7a2ab101069f95c7, 3cefabb25092eaccf0e82a5dbeaee0131904a33c, 4876883f880c063c49b70cc41dd8f928904d29a1, 0b9c056cbcb7dec7b84acf79b27d76f2cb6262d8, 383bd35b907db1c6dc065500ad2559e7a4243c0b, a6b7c0b3880f8b82c23532c2f49ce9d68cc000f0, 0fc1de65ea2429f01c82a58653d9e44a2f37c3f2, 9bc8f1d5345b3f32430cf3486e65214a3aedae5c, 592edc66881073b045206b7ad39646834ef1ec65, 287d6130fc79aa2823d20a32540dab79b46efcc2, e915f2471a8b51cc2f9568abb037ff3bf4b8ae5f, 48287ab86e229342c1aef9783d8c7a988112a609, 73ea94b02e144d241ca9f59d2369cd1b432ba5f0, 998c21cf2817525e95c98093c51e3c2b83b0d829, 75879b06abcb82509b3b7ce3cbaa0fc24f39c855, ecdb077b760ebc3f61ab118227fdfe9190395956, abd7358fd42edcb1b1dc32e7905c1c81bb8fef1e, 8a24bc2ae37fa89b553b1a690f852395aec96aa2, 94e0602c0c57f2483f8f2b1611a677995ed934b2, db7c6aacf2fdd4fccf2724f25fa27e89c3fc46a9, 4a2be9b21ef0abdc543e2698921bd9e317a79571, 60db3b653e1968341f93e6563482616c8c917206, e78abc9a893d3a19fa39159c0857eb078332c41f, 2985c97d6cc7269f1a8db2c47505471a5bf65e20, 45258971afe588c5a8fce010fe5927e5b5c06749, 34686d14d957d9cfd6b0642b5ead736a7b8a7cf9, d94aa57b95ecebeaed7cadb09ba3e9b86963ddd9, 5440f162ecc83a98c2643de9970229162c08ecb1, 6feee4c2a0c29ba0bd84018bd4122f5aaa7a7521]","12","6","7","6","[app/controllers/admin_controller.rb, app/controllers/children_controller.rb, app/controllers/fields_controller.rb, app/controllers/form_section_controller.rb, app/controllers/histories_controller.rb, app/controllers/sessions_controller.rb, app/controllers/users_controller.rb]","[app/controllers/admin_controller.rb, app/controllers/application_controller.rb, app/controllers/children_controller.rb, app/controllers/form_section_controller.rb, app/controllers/histories_controller.rb, app/controllers/sessions_controller.rb]","0.7142857143","0.8333333333","","6","[]","0","35","[app/controllers/admin_controller.rb, app/controllers/children_controller.rb, app/controllers/fields_controller.rb, app/controllers/form_section_controller.rb, app/controllers/histories_controller.rb, app/controllers/sessions_controller.rb, app/controllers/users_controller.rb, app/helpers/application_helper.rb, app/views/admin/index.html.erb, app/views/children/_form_section.html.erb, app/views/children/_search_results.html.erb, app/views/children/_summary_row.html.erb, app/views/children/_tabs.html.erb, app/views/children/edit.html.erb, app/views/children/index.html.erb, app/views/children/new.html.erb, app/views/children/search.html.erb, app/views/children/show.html.erb, app/views/fields/_direction_button.html.erb, app/views/fields/index.html.erb, app/views/fields/new.html.erb, app/views/fields/new_select_drop_down.html.erb, app/views/fields/new_text_field.html.erb, app/views/form_section/index.html.erb, app/views/form_section/new.html.erb, app/views/histories/_history_change.html.erb, app/views/histories/_photo_history_change.html.erb, app/views/histories/show.html.erb, app/views/sessions/new.html.erb, app/views/sessions/show.html.erb, app/views/users/_edittable_user.html.erb, app/views/users/edit.html.erb, app/views/users/index.html.erb, app/views/users/new.html.erb, app/views/users/show.html.erb]","[and_return, hashes, reverse_merge!, delete, uploadable_photo, create!, each, response, content_type, body, Hpricot, child_tab, inner_html, collect, contain, child_tab_name, gsub, to_i, click_button, click_link, click_link, fill_in, fill_in, attach_file, assert_contain, assert_not_contain, current_url, select, compact, assert_equal, pending, raise, send, child_name, search, to_plain_text, find, response, body, Hpricot, child_name, search, to_plain_text, find, raise]","","[]","[new_add_suggested_field_to_form_section, new_assign_unique_id_to_a_child, new_check_box_formsection_fields, new_formsection_fields, new_select_drop_down_formsection_fields, new_text_field_formsection_fields, new_textarea_formsection_fields]","7","4.824 seconds","false","2","1","[app/controllers/fields_controller.rb, app/controllers/users_controller.rb]","[app/controllers/application_controller.rb]","5","[app/controllers/admin_controller.rb, app/controllers/children_controller.rb, app/controllers/form_section_controller.rb, app/controllers/histories_controller.rb, app/controllers/sessions_controller.rb]","0.8064516128818939"
"1305","[16-03-2010]","2","14","[a1183c49e6934fd53f5c091bdcf8ea2535c2a013, 4ff69f92f1804e3160c84c93a4a5034b556810f7, fce0ff8a447e30479f1cce64185422b59be3cb1c, eb30892231f7f78ae685f2dd1be254d405d25094, a8cbd7341c8f583f3ccc0da4a0fc068fba1ab1f2, 8e493cf5ac2cbc16c4c7e8713118e066d35f7e60, 4756f4da5c12beae931643ab3cea4d7de98ff774, 6dd3b53ca7f1e0564f31fa1f938f5b77aaabca53, f7ee3390f5aaa431a38b6cb9c795f76cc9a281e0, d62df41d75a864edbb886987c96cf3966aa746d7, 25c68de70e69f6bc7adcce8696f1673653d41208, 2918f79eb1227f663bd9ee6dbc4fd1d6116a27bd, 8f2bafb2336a85d22be6e55744085a254df23389, ca1703c3ee710f59498f1ce42e64189283e933df]","8","8","5","2","[app/controllers/attachments_controller.rb, app/controllers/children_controller.rb, app/controllers/histories_controller.rb, app/controllers/sessions_controller.rb, app/controllers/users_controller.rb]","[app/controllers/attachments_controller.rb, app/controllers/children_controller.rb]","0.4","1.0","","2","[]","0","20","[app/controllers/attachments_controller.rb, app/controllers/children_controller.rb, app/controllers/histories_controller.rb, app/controllers/sessions_controller.rb, app/controllers/users_controller.rb, app/helpers/application_helper.rb, app/views/children/_form_section.html.erb, app/views/children/_summary_row.html.erb, app/views/children/_tabs.html.erb, app/views/children/edit.html.erb, app/views/children/index.html.erb, app/views/children/new.html.erb, app/views/children/search.html.erb, app/views/children/show.html.erb, app/views/histories/show.html.erb, app/views/sessions/new.html.erb, app/views/users/edit.html.erb, app/views/users/index.html.erb, app/views/users/new.html.erb, app/views/users/show.html.erb]","[to_i, response, body, Hpricot, search, nil?, raise, check, click_button, click_link, fill_in, attach_file, response, contain, assert_contain, assert_not_contain, field_labeled, assert_match, current_url, select, compact, assert_equal, raise, to_i, response_body, chomp, length, and_return, hashes, reverse_merge!, uploadable_photo, has_key?, create!, each, body, Hpricot, search, to_plain_text, each_with_index, be, find, content_type, user_name, password, write, close, path, have, pages, strings, include]","","[app/controllers/children/summaries_controller.rb, app/helpers/summaries_helper.rb, app/models/search_request.rb, app/views/children/summaries/_search_form.html.erb, app/views/children/summaries/_summary_row.html.erb, app/views/children/summaries/create.html.erb, app/views/children/summaries/new.html.erb, app/views/children/summaries/show.html.erb]","[new_assign_unique_id_to_a_child]","1","1.825 seconds","false","3","0","[app/controllers/histories_controller.rb, app/controllers/sessions_controller.rb, app/controllers/users_controller.rb]","[]","2","[app/controllers/attachments_controller.rb, app/controllers/children_controller.rb]","0.7692307692307693"
"1300","[21-03-2010]","1","1","[3de56cc51ecb16da7b107b4fc921ad59ad2babad]","7","9","4","4","[app/controllers/children_controller.rb, app/controllers/histories_controller.rb, app/controllers/sessions_controller.rb, app/controllers/users_controller.rb]","[app/controllers/application_controller.rb, app/controllers/checks_authentication.rb, app/controllers/children_controller.rb, app/controllers/sessions_controller.rb]","0.5","0.5","","4","[]","0","22","[app/controllers/children_controller.rb, app/controllers/histories_controller.rb, app/controllers/sessions_controller.rb, app/controllers/users_controller.rb, app/helpers/application_helper.rb, app/views/children/_form_section.html.erb, app/views/children/_summary_row.html.erb, app/views/children/_tabs.html.erb, app/views/children/edit.html.erb, app/views/children/index.html.erb, app/views/children/new.html.erb, app/views/children/search.html.erb, app/views/children/show.html.erb, app/views/histories/_photo_record.html.erb, app/views/histories/show.html.erb, app/views/sessions/new.html.erb, app/views/sessions/show.html.erb, app/views/users/_edittable_user.html.erb, app/views/users/edit.html.erb, app/views/users/index.html.erb, app/views/users/new.html.erb, app/views/users/show.html.erb]","[header, raise, save!, id, cookies, response, status, click_button, click_link, click_link, fill_in, select, choose, attach_file, contain, assert_contain, current_url, select, compact, assert_equal, raise, and_return, fill_in, attach_file, click_button, content_type, each]","","[app/views/sessions/index.html.erb]","[new_assign_unique_id_to_a_child]","1","2.469 seconds","false","2","2","[app/controllers/histories_controller.rb, app/controllers/users_controller.rb]","[app/controllers/application_controller.rb, app/controllers/checks_authentication.rb]","2","[app/controllers/children_controller.rb, app/controllers/sessions_controller.rb]","0.5"
"1306","[15-03-2010, 16-03-2010]","1","12","[2f16cffeb73151ef0530ab7c8ed14a9678e8ca8b, ac097f4ad154d375b10c47ea3cd7b8a3cf88df1a, c7cefcf5090ea492aa19c879a9377505720a8260, 9149f7d1f67a40315f22a2b1cfcbc7e0716f6869, 0d0e3aea7d1a142defeb79b2bf28221066f5d9c9, 27b9b9fc8f2acc65ef7669207581e437c93e6687, 0073247938725090f521229bb5cb831080e2e25f, 8fadff0099541f0551a4262d72b4af9336449c9e, eaab58cee59d927a0dab38ea13fdf5c7312a9859, c98214663aac4d83ae62f27f4859ee20ab40de16, 104d06c2893ba8a0cf3a9b954de56a358278caab, 86e65460f98812bd7722eaa90c114b44335383df]","7","7","4","1","[app/controllers/children_controller.rb, app/controllers/histories_controller.rb, app/controllers/sessions_controller.rb, app/controllers/users_controller.rb]","[app/controllers/children_controller.rb]","0.25","1.0","","1","[]","0","19","[app/controllers/children_controller.rb, app/controllers/histories_controller.rb, app/controllers/sessions_controller.rb, app/controllers/users_controller.rb, app/helpers/application_helper.rb, app/views/children/_form_section.html.erb, app/views/children/_summary_row.html.erb, app/views/children/_tabs.html.erb, app/views/children/edit.html.erb, app/views/children/index.html.erb, app/views/children/new.html.erb, app/views/children/search.html.erb, app/views/children/show.html.erb, app/views/histories/show.html.erb, app/views/sessions/new.html.erb, app/views/users/edit.html.erb, app/views/users/index.html.erb, app/views/users/new.html.erb, app/views/users/show.html.erb]","[to_i, response, body, Hpricot, search, nil?, raise, check, click_button, click_link, fill_in, response, contain, assert_not_contain, field_labeled, assert_match, current_url, select, compact, assert_equal, raise, to_i, response_body, chomp, length, hashes, reverse_merge!, uploadable_photo, has_key?, create!, each, body, Hpricot, search, to_plain_text, each_with_index, be, find, user_name, password, write, close, path, have, pages, strings, include]","","[app/controllers/children/summaries_controller.rb, app/helpers/summaries_helper.rb, app/models/search_request.rb, app/views/children/summaries/_search_form.html.erb, app/views/children/summaries/_summary_row.html.erb, app/views/children/summaries/create.html.erb, app/views/children/summaries/new.html.erb, app/views/children/summaries/show.html.erb]","[new_assign_unique_id_to_a_child]","1","2.062 seconds","false","3","0","[app/controllers/histories_controller.rb, app/controllers/sessions_controller.rb, app/controllers/users_controller.rb]","[]","1","[app/controllers/children_controller.rb]","0.625"
"1288","[06-04-2010, 07-04-2010, 11-04-2010]","3","14","[4b3cde56407586c125c2f4a3a9de8188ce8bad3e, 0ac13f16e76f5d9bd3063af17d8c9f5ab30d6351, 32d2b78e5d3e027b546b0a7154823eaa939f0ef3, 5dd822c0ebe1d32b94c60ec65bc2c7b1b1b0e6d9, c8bf81d1b1993259ec088ec80e97c5cfccb84cd2, d01e2c67a1d1244a510b81e1b3b9b5f383ca6fe9, 8af993616233b7219a671e46f14936e729349be3, e48cf67381d48b651889fda2f36ca346a05e6670, c3631ff14465d7ff7f247e6e4e9d2d04b5043d15, 522b524017b29463b57b1e7deb129a0d4322a686, 619caec899ff504a2c8ef024958bb96db9eeac43, 68f4c7ddc3dca35146531b95e155a4d7c57fd803, c58a785d6bf084400d6e749041c001cf87205d80, d637b2095c90575ea1e4838277885018c936e396]","6","16","5","4","[app/controllers/children_controller.rb, app/controllers/fields_controller.rb, app/controllers/histories_controller.rb, app/controllers/sessions_controller.rb, app/controllers/users_controller.rb]","[app/controllers/children_controller.rb, app/controllers/fields_controller.rb, app/controllers/form_section_controller.rb, app/controllers/sessions_controller.rb]","0.6","0.75","","3","[]","0","25","[app/controllers/children_controller.rb, app/controllers/fields_controller.rb, app/controllers/histories_controller.rb, app/controllers/sessions_controller.rb, app/controllers/users_controller.rb, app/helpers/application_helper.rb, app/views/children/_form_section.html.erb, app/views/children/_summary_row.html.erb, app/views/children/_tabs.html.erb, app/views/children/edit.html.erb, app/views/children/index.html.erb, app/views/children/new.html.erb, app/views/children/search.html.erb, app/views/children/show.html.erb, app/views/fields/new.html.erb, app/views/histories/_history_change.html.erb, app/views/histories/_photo_history_change.html.erb, app/views/histories/show.html.erb, app/views/sessions/new.html.erb, app/views/sessions/show.html.erb, app/views/users/_edittable_user.html.erb, app/views/users/edit.html.erb, app/views/users/index.html.erb, app/views/users/new.html.erb, app/views/users/show.html.erb]","[fill_in, attach_file, hashes, reverse_merge!, delete, uploadable_photo, create!, each, response, body, Hpricot, search, to_plain_text, each_with_index, be, find, raise, gsub, form_section_row_for, be_nil, enabled_icon, contain, form_section_names, inner_html, collect, detect, form_section_rows, to_i, form_section_order, click_button, click_link, assert_contain, response_body, have_selector, rows_hash, assert_have_xpath, each, raw]","","[app/models/form_section_repository.rb, app/views/fields/new2.html.erb]","[/formsection, new_assign_unique_id_to_a_child]","2","2.406 seconds","false","2","1","[app/controllers/histories_controller.rb, app/controllers/users_controller.rb]","[app/controllers/form_section_controller.rb]","3","[app/controllers/children_controller.rb, app/controllers/fields_controller.rb, app/controllers/sessions_controller.rb]","0.7142857142857142"
"1274","[25-07-2010]","1","5","[1b3f970e690acc99ed31df76dd31d9639e955c0d, 0f48ea5ad3a344a823e73098efe94a7d1d4ec973, 9d472c045b79b9a7cc6bf1bcf4682db62f53c539, faec29a96d03a2d875fc0c5688bd5e5a0dbbecb4, ec5f18b23d30d571a079196e0db2987118c918c9]","4","4","8","2","[app/controllers/admin_controller.rb, app/controllers/children_controller.rb, app/controllers/fields_controller.rb, app/controllers/form_section_controller.rb, app/controllers/histories_controller.rb, app/controllers/home_controller.rb, app/controllers/sessions_controller.rb, app/controllers/users_controller.rb]","[app/controllers/home_controller.rb, app/controllers/sessions_controller.rb]","0.25","1.0","","5","[]","0","38","[app/controllers/admin_controller.rb, app/controllers/children_controller.rb, app/controllers/fields_controller.rb, app/controllers/form_section_controller.rb, app/controllers/histories_controller.rb, app/controllers/home_controller.rb, app/controllers/sessions_controller.rb, app/controllers/users_controller.rb, app/helpers/application_helper.rb, app/views/admin/index.html.erb, app/views/children/_form_section.html.erb, app/views/children/_search_results.html.erb, app/views/children/_summary_row.html.erb, app/views/children/_tabs.html.erb, app/views/children/edit.html.erb, app/views/children/index.html.erb, app/views/children/new.html.erb, app/views/children/search.html.erb, app/views/children/show.html.erb, app/views/fields/_direction_button.html.erb, app/views/fields/_suggested_field.html.erb, app/views/fields/index.html.erb, app/views/fields/new.html.erb, app/views/fields/new_select_drop_down.html.erb, app/views/fields/new_text_field.html.erb, app/views/form_section/index.html.erb, app/views/form_section/new.html.erb, app/views/histories/_history_change.html.erb, app/views/histories/_photo_history_change.html.erb, app/views/histories/show.html.erb, app/views/home/index.html.erb, app/views/sessions/new.html.erb, app/views/sessions/show.html.erb, app/views/users/_edittable_user.html.erb, app/views/users/edit.html.erb, app/views/users/index.html.erb, app/views/users/new.html.erb, app/views/users/show.html.erb]","[hashes, reverse_merge!, delete, uploadable_photo, create!, each, gsub, to_i, eval, click_button, click_link, fill_in, response, contain, assert_contain, current_url, select, compact, assert_equal, raise, send, response_body, have_selector]","","[]","[new_add_suggested_field_to_form_section, new_assign_unique_id_to_a_child, new_check_box_formsection_fields, new_formsection_fields, new_select_drop_down_formsection_fields, new_text_field_formsection_fields, new_textarea_formsection_fields]","7","3.995 seconds","false","6","0","[app/controllers/admin_controller.rb, app/controllers/children_controller.rb, app/controllers/fields_controller.rb, app/controllers/form_section_controller.rb, app/controllers/histories_controller.rb, app/controllers/users_controller.rb]","[]","2","[app/controllers/home_controller.rb, app/controllers/sessions_controller.rb]","0.625"
"1284","[01-05-2010, 15-05-2010]","2","6","[4eb4c1f3f057881fcc9aabbcb833ae491eaa825d, bc58fb4e41f7a1e5272e2b3820b746a70810dc90, e818c36be3289488da05c6cfb335c06a24e25da4, fbb0a1f8520e97bef8a6f9ef6c080dd163e6d2eb, ab5e064c2f76e73f663795906f4d483f83bb88f1, 8c2a09ce9d96b3126aa20cc86612324f15494c85]","4","6","4","2","[app/controllers/children_controller.rb, app/controllers/fields_controller.rb, app/controllers/sessions_controller.rb, app/controllers/users_controller.rb]","[app/controllers/application_controller.rb, app/controllers/fields_controller.rb]","0.25","0.5","","2","[]","0","2","[app/controllers/fields_controller.rb, app/views/fields/index.html.erb]","[each, hashes, gsub, reverse_merge!, response, body, Hpricot, search, inner_html, include, click_button, collect]","","[]","[new_formsection_fields]","1","0.401 seconds","false","3","1","[app/controllers/children_controller.rb, app/controllers/sessions_controller.rb, app/controllers/users_controller.rb]","[app/controllers/application_controller.rb]","1","[app/controllers/fields_controller.rb]","0.41666666666666663"
"1303","[17-03-2010, 18-03-2010]","2","4","[ae22879dbdb1284767cc33d06a79d64a381fb440, 69ae8e89ca569a646e3211fe9eba862ecddf5ad8, 8c2b9470dc2221a3cf0d2fd14cec6d8d62a561f9, 35ad905b3ed14c3be35d3f9715f3b1c3aa2ced46]","4","1","0","2","[]","[app/controllers/application_controller.rb, app/controllers/children_controller.rb]","0.0","0.0","","2","[]","0","0","[]","[click_button, click_link, fill_in, response, contain, assert_contain, to_i, response, body, Hpricot, search, nil?, raise, check, response_body, write, close, path, to_i, have, pages, strings, include, hashes, reverse_merge!, uploadable_photo, has_key?, create!, each, user_name, password]","","[]","","0","0.196 seconds","false","0","2","[]","[app/controllers/application_controller.rb, app/controllers/children_controller.rb]","0","[]","0"
"1292","[25-03-2010]","1","3","[47818ee786e3070112e8770e35b9caefaa3caa4f, f700109a4273f673ed92451c8dbfd635cecd68c4, 9f72c30d60947abd77ea602750e3ea91b6fec9cb]","3","4","1","0","[app/controllers/users_controller.rb]","[]","0.0","0.0","","2","[]","0","6","[app/controllers/users_controller.rb, app/views/users/_edittable_user.html.erb, app/views/users/edit.html.erb, app/views/users/index.html.erb, app/views/users/new.html.erb, app/views/users/show.html.erb]","[save!, cookies, be_disabled, click_button, click_link, fill_in, check, uncheck, response, status, password]","","[]","","0","0.394 seconds","false","1","0","[app/controllers/users_controller.rb]","[]","0","[]","0"
"1299","[21-03-2010]","2","5","[ce1ba10259e60651d2ab487b21a4feebc7102b38, 1f3cb449e55f23dea9e8c5022413439860a8cd63, 5a2fe89e78a5c49163f2de06d6af833ca5f79c1a, 5a57808f4376ba38be98bda3164033b42a4c9e69, 6d67a7921f88b5b4eea375755c78fd8a196c3806]","3","0","3","0","[app/controllers/children_controller.rb, app/controllers/sessions_controller.rb, app/controllers/users_controller.rb]","[]","0.0","0.0","","1","[]","0","0","[]","[and_return, and_return, response, content_type, each, click_button, click_link, click_link, fill_in, fill_in, select, select, choose, choose, attach_file, contain, assert_contain]","","[app/views/histories/_photo_record.html.erb]","","0","0.251 seconds","false","3","0","[app/controllers/children_controller.rb, app/controllers/sessions_controller.rb, app/controllers/users_controller.rb]","[]","0","[]","0"
"1318","[26-02-2010]","1","1","[6e1bb5951ea83c7ce1bcd9511a7bb7135ccb0c18]","3","0","3","0","[app/controllers/children_controller.rb, app/controllers/sessions_controller.rb, app/controllers/users_controller.rb]","[]","0.0","0.0","","1","[]","0","0","[]","[save!, each, click_button, fill_in, response, contain, assert_contain]","","[]","","0","0.151 seconds","false","3","0","[app/controllers/children_controller.rb, app/controllers/sessions_controller.rb, app/controllers/users_controller.rb]","[]","0","[]","0"
"1285","[24-04-2010]","1","2","[65a092ff271e788b5e758ad45f64996f3222f361, ce2bcfde7e2ad7abf5389c64e2e81eb4edc28bcf]","2","1","6","0","[app/controllers/children_controller.rb, app/controllers/fields_controller.rb, app/controllers/form_section_controller.rb, app/controllers/histories_controller.rb, app/controllers/sessions_controller.rb, app/controllers/users_controller.rb]","[]","0.0","0.0","","2","[]","0","30","[app/controllers/children_controller.rb, app/controllers/fields_controller.rb, app/controllers/form_section_controller.rb, app/controllers/histories_controller.rb, app/controllers/sessions_controller.rb, app/controllers/users_controller.rb, app/helpers/application_helper.rb, app/views/children/_form_section.html.erb, app/views/children/_summary_row.html.erb, app/views/children/_tabs.html.erb, app/views/children/edit.html.erb, app/views/children/index.html.erb, app/views/children/new.html.erb, app/views/children/search.html.erb, app/views/children/show.html.erb, app/views/fields/index.html.erb, app/views/fields/new.html.erb, app/views/fields/new_select_drop_down.html.erb, app/views/fields/new_text_field.html.erb, app/views/form_section/index.html.erb, app/views/histories/_history_change.html.erb, app/views/histories/_photo_history_change.html.erb, app/views/histories/show.html.erb, app/views/sessions/new.html.erb, app/views/sessions/show.html.erb, app/views/users/_edittable_user.html.erb, app/views/users/edit.html.erb, app/views/users/index.html.erb, app/views/users/new.html.erb, app/views/users/show.html.erb]","[each, hashes, gsub, reverse_merge!, click_button, click_link, fill_in, response, contain, assert_contain, field_labeled, be_checked, checked?, rows_hash, assert_have_xpath, each, raw, raise, send, body, Hpricot, search, inner_html, include]","","[]","[new_add_suggested_field_to_form_section, new_assign_unique_id_to_a_child, new_check_box_formsection_fields, new_formsection_fields, new_select_drop_down_formsection_fields, new_text_field_formsection_fields, new_textarea_formsection_fields]","7","3.657 seconds","false","6","0","[app/controllers/children_controller.rb, app/controllers/fields_controller.rb, app/controllers/form_section_controller.rb, app/controllers/histories_controller.rb, app/controllers/sessions_controller.rb, app/controllers/users_controller.rb]","[]","0","[]","0"
"1289","[18-03-2010]","2","2","[64682b634af68a0d952369c58db5c2d8184944fe, 870b3b32f05c5a7ef8834a768616193323c77fcc]","2","1","3","0","[app/controllers/children_controller.rb, app/controllers/sessions_controller.rb, app/controllers/users_controller.rb]","[]","0.0","0.0","","2","[]","0","6","[app/controllers/users_controller.rb, app/views/users/_edittable_user.html.erb, app/views/users/edit.html.erb, app/views/users/index.html.erb, app/views/users/new.html.erb, app/views/users/show.html.erb]","[save!, each, user_name, password, click_button, click_link, click_link, fill_in, choose, response, contain, assert_contain, field_labeled, be_disabled]","","[]","","0","0.380 seconds","false","3","0","[app/controllers/children_controller.rb, app/controllers/sessions_controller.rb, app/controllers/users_controller.rb]","[]","0","[]","0"
"1272","[14-08-2010]","3","5","[edd69edb5e49903a30151bce5ec3761348ed547f, cc5329bea44d573bc96496594816e3181579754a, e9769440f82d456ea877f6807e7fa68ab8b2e910, 57ef2bfda44d642602590e30c55ca37093ec2eff, 77561e39934a713069d1d2862e32224d310d3d06]","1","0","1","1","[app/controllers/users_controller.rb]","[app/controllers/application_controller.rb]","0.0","0.0","","1","[]","0","6","[app/controllers/users_controller.rb, app/views/users/_edittable_user.html.erb, app/views/users/edit.html.erb, app/views/users/index.html.erb, app/views/users/new.html.erb, app/views/users/show.html.erb]","[click_button, click_link, click_link, fill_in, choose, response, contain, assert_contain]","","[]","","0","0.558 seconds","false","1","1","[app/controllers/users_controller.rb]","[app/controllers/application_controller.rb]","0","[]","0"
"1278","[19-07-2010]","1","4","[a70ca6725a5c072e289a5fd46d9bb40053a05d7c, 81aafee7253b470045d0bd85fe1a5b8aebd8303a, 1a343005e678c902dec1757d802b373f6e702495, d87c3f9f149896d0ffab294cce2754c243f720c4]","1","4","4","0","[app/controllers/children_controller.rb, app/controllers/fields_controller.rb, app/controllers/sessions_controller.rb, app/controllers/users_controller.rb]","[]","0.0","0.0","","2","[]","0","9","[app/controllers/children_controller.rb, app/controllers/fields_controller.rb, app/views/children/_form_section.html.erb, app/views/children/_tabs.html.erb, app/views/children/edit.html.erb, app/views/children/index.html.erb, app/views/children/new.html.erb, app/views/fields/_direction_button.html.erb, app/views/fields/index.html.erb]","[each, hashes, gsub, reverse_merge!, to_i, eval, click_button, click_link, response, contain, assert_contain, response_body, have_selector]","","[]","[new_formsection_fields]","1","0.407 seconds","false","4","0","[app/controllers/children_controller.rb, app/controllers/fields_controller.rb, app/controllers/sessions_controller.rb, app/controllers/users_controller.rb]","[]","0","[]","0"
"1286","[24-04-2010]","1","3","[68e298a2f8bc304411d9c249f8fb0943e4e388f0, c3b95ff851a70224345eb3f12082e2541e5bba41, bc61ef8c586cef68cbf457451332509ed041a23b]","1","2","6","2","[app/controllers/children_controller.rb, app/controllers/fields_controller.rb, app/controllers/form_section_controller.rb, app/controllers/histories_controller.rb, app/controllers/sessions_controller.rb, app/controllers/users_controller.rb]","[app/controllers/fields_controller.rb, app/controllers/form_section_controller.rb]","0.3333333333","1.0","","1","[]","0","30","[app/controllers/children_controller.rb, app/controllers/fields_controller.rb, app/controllers/form_section_controller.rb, app/controllers/histories_controller.rb, app/controllers/sessions_controller.rb, app/controllers/users_controller.rb, app/helpers/application_helper.rb, app/views/children/_form_section.html.erb, app/views/children/_summary_row.html.erb, app/views/children/_tabs.html.erb, app/views/children/edit.html.erb, app/views/children/index.html.erb, app/views/children/new.html.erb, app/views/children/search.html.erb, app/views/children/show.html.erb, app/views/fields/index.html.erb, app/views/fields/new.html.erb, app/views/fields/new_select_drop_down.html.erb, app/views/fields/new_text_field.html.erb, app/views/form_section/index.html.erb, app/views/histories/_history_change.html.erb, app/views/histories/_photo_history_change.html.erb, app/views/histories/show.html.erb, app/views/sessions/new.html.erb, app/views/sessions/show.html.erb, app/views/users/_edittable_user.html.erb, app/views/users/edit.html.erb, app/views/users/index.html.erb, app/views/users/new.html.erb, app/views/users/show.html.erb]","[each, hashes, gsub, reverse_merge!, response, body, Hpricot, suggested_fields_list, be_nil, hashes, suggested_field_display_for, inner_html, contain, each, form_fields_list, form_field_for, click_button, click_link, assert_contain, current_url, select, compact, assert_equal, raise, send]","","[]","[new_add_suggested_field_to_form_section, new_assign_unique_id_to_a_child, new_check_box_formsection_fields, new_formsection_fields, new_select_drop_down_formsection_fields, new_text_field_formsection_fields, new_textarea_formsection_fields]","7","3.622 seconds","false","4","0","[app/controllers/children_controller.rb, app/controllers/histories_controller.rb, app/controllers/sessions_controller.rb, app/controllers/users_controller.rb]","[]","2","[app/controllers/fields_controller.rb, app/controllers/form_section_controller.rb]","0.714285714255102"
"1287","[24-04-2010]","1","5","[d2bb3c2bdf92f156cfee0d9e3d5c06dddf65b05e, a8bb115b3dd6bd896dac9afe57ae49dbe100dede, ccbabb7eefd94d1795c2a8feada20ad445d4a92f, 3d8c6ec852691f39fb6cab623b8d707a14c4485a, 1234c84936ae5f9b06bfdd6d7038a1751783e15b]","1","0","6","1","[app/controllers/children_controller.rb, app/controllers/fields_controller.rb, app/controllers/form_section_controller.rb, app/controllers/histories_controller.rb, app/controllers/sessions_controller.rb, app/controllers/users_controller.rb]","[app/controllers/fields_controller.rb]","0.1666666667","1.0","","1","[]","0","30","[app/controllers/children_controller.rb, app/controllers/fields_controller.rb, app/controllers/form_section_controller.rb, app/controllers/histories_controller.rb, app/controllers/sessions_controller.rb, app/controllers/users_controller.rb, app/helpers/application_helper.rb, app/views/children/_form_section.html.erb, app/views/children/_summary_row.html.erb, app/views/children/_tabs.html.erb, app/views/children/edit.html.erb, app/views/children/index.html.erb, app/views/children/new.html.erb, app/views/children/search.html.erb, app/views/children/show.html.erb, app/views/fields/index.html.erb, app/views/fields/new.html.erb, app/views/fields/new_select_drop_down.html.erb, app/views/fields/new_text_field.html.erb, app/views/form_section/index.html.erb, app/views/histories/_history_change.html.erb, app/views/histories/_photo_history_change.html.erb, app/views/histories/show.html.erb, app/views/sessions/new.html.erb, app/views/sessions/show.html.erb, app/views/users/_edittable_user.html.erb, app/views/users/edit.html.erb, app/views/users/index.html.erb, app/views/users/new.html.erb, app/views/users/show.html.erb]","[each, hashes, gsub, reverse_merge!, click_button, click_link, fill_in, response, contain, assert_contain, field_labeled, be_checked, checked?, rows_hash, assert_have_xpath, each, raw, raise, send]","","[]","[new_add_suggested_field_to_form_section, new_assign_unique_id_to_a_child, new_check_box_formsection_fields, new_formsection_fields, new_select_drop_down_formsection_fields, new_text_field_formsection_fields, new_textarea_formsection_fields]","7","3.813 seconds","false","5","0","[app/controllers/children_controller.rb, app/controllers/form_section_controller.rb, app/controllers/histories_controller.rb, app/controllers/sessions_controller.rb, app/controllers/users_controller.rb]","[]","1","[app/controllers/fields_controller.rb]","0.50000000006"
"1298","[20-03-2010]","1","3","[94340d0f736f6af81c7f0e2c2daea2d24f1b6a34, 695bacc2fd54f877bcb7b1ffdafae163c7923ed9, a652f4e8ea9f390d9145a64946ff19eaa0c3f6e7]","1","1","3","0","[app/controllers/children_controller.rb, app/controllers/sessions_controller.rb, app/controllers/users_controller.rb]","[]","0.0","0.0","","1","[]","0","0","[]","[save!, each, click_button, fill_in, response, contain, assert_contain]","","[]","","0","0.188 seconds","false","3","0","[app/controllers/children_controller.rb, app/controllers/sessions_controller.rb, app/controllers/users_controller.rb]","[]","0","[]","0"
"1311","[10-03-2010]","1","1","[46cd55654ebac4e438b0e7d67b265547e92ceeee]","1","1","3","0","[app/controllers/children_controller.rb, app/controllers/sessions_controller.rb, app/controllers/users_controller.rb]","[]","0.0","0.0","","1","[]","0","0","[]","[each, click_button, click_link, click_link, fill_in, select, choose, attach_file, response, contain, assert_contain, and_return]","","[]","","0","0.162 seconds","false","3","0","[app/controllers/children_controller.rb, app/controllers/sessions_controller.rb, app/controllers/users_controller.rb]","[]","0","[]","0"
"1316","[24-02-2010]","1","2","[f4fccbdaae708bfc3d054ceabec8a82d41248008, 1ba65267d412fc6afe0ebc7a53b5e44880c786d2]","1","2","3","1","[app/controllers/children/summaries_controller.rb, app/controllers/children_controller.rb, app/controllers/users_controller.rb]","[app/controllers/children/summaries_controller.rb]","0.3333333333","1.0","","1","[]","0","13","[app/controllers/children/summaries_controller.rb, app/controllers/children_controller.rb, app/controllers/users_controller.rb, app/views/children/_form.html.erb, app/views/children/edit.html.erb, app/views/children/index.html.erb, app/views/children/new.html.erb, app/views/children/summaries/_search_form.html.erb, app/views/children/summaries/show.html.erb, app/views/users/edit.html.erb, app/views/users/index.html.erb, app/views/users/new.html.erb, app/views/users/show.html.erb]","[response, body, Hpricot, search, to_plain_text, each_with_index, be, find, raise, save, raise, click_button, fill_in, current_url, select, compact, assert_equal, search_url]","","[]","[new_assign_unique_id_to_a_child]","1","0.541 seconds","false","2","0","[app/controllers/children_controller.rb, app/controllers/users_controller.rb]","[]","1","[app/controllers/children/summaries_controller.rb]","0.714285714255102"
"1319","[26-02-2010]","1","1","[e88118f450bcb5101756762cc9d2676be7937d0c]","1","0","3","1","[app/controllers/children_controller.rb, app/controllers/sessions_controller.rb, app/controllers/users_controller.rb]","[app/controllers/sessions_controller.rb]","0.3333333333","1.0","","1","[]","0","0","[]","[each, click_button, fill_in, response, contain, assert_contain]","","[]","","0","0.118 seconds","false","2","0","[app/controllers/children_controller.rb, app/controllers/users_controller.rb]","[]","1","[app/controllers/sessions_controller.rb]","0.714285714255102"
