"REPO_URL","TASK_ID","#HASHES","HASHES","#PROD_FILES","#TEST_FILES","LAST"
"https://github.com/AgileVentures/WebsiteOne.git","233","1","[2d8bc7622433e499c06b60ab4c849d8294552f86]","1","1","2d8bc7622433e499c06b60ab4c849d8294552f86","eea904e52f02812489c6053c1a747ceb3b0b0d4e","9b39b5610a654411af66846c5f334a6f56d53ce1"
"https://github.com/AgileVentures/WebsiteOne.git","234","1","[9b39b5610a654411af66846c5f334a6f56d53ce1]","2","1","9b39b5610a654411af66846c5f334a6f56d53ce1","874d264624aca4a0309b6ab099e4a34124597260","d49b6bccc0f999c2271dbae1cec31a8464cfca18"
"https://github.com/AgileVentures/WebsiteOne.git","235","1","[3b3fa07473062c2431949b87965223cd7634b729]","2","1","3b3fa07473062c2431949b87965223cd7634b729","d49b6bccc0f999c2271dbae1cec31a8464cfca18","2cc30fca729cb61812f7ae24971156e0a4fbc80a"
"https://github.com/AgileVentures/WebsiteOne.git","238","4","[ae75b15126a2410ab3bec72135a6291cf7162413, c8db8a38c7728f1b73b7e1a3766f5c5ebfb7547c, 541eda38adfbff27e2b87e062026e7b3604803bc, 8ef69875a38a7bc321d342c93cc54ee1d64623ae]","8","2","ae75b15126a2410ab3bec72135a6291cf7162413","3aaa706e8d91319f089c3ed65027f491e4515f20","73919b7334eb1cc2d3d86d6b40c729b0fa05709b"
"https://github.com/AgileVentures/WebsiteOne.git","240","4","[cb37064c19164e019d4e6738f68798d2b74f843a, ea6629199de67b57df7d4a6c0a3b5885c3766557, 52dbd60b2f42872742f48fe48367a6c37ad85ab8, d2c75c183a9f33d6b596aad230493470dd2156de]","3","2","cb37064c19164e019d4e6738f68798d2b74f843a","73919b7334eb1cc2d3d86d6b40c729b0fa05709b","8252255e833885c64402155ac26257906cb8dafa"
"https://github.com/AgileVentures/WebsiteOne.git","243","5","[b1c61036988a5f44a8508f081a635a3f2001cf4f, 2cc30fca729cb61812f7ae24971156e0a4fbc80a, d0112d9d50f05d6922ce4a481e744c15264ff526, f1c0d17d4b6b92996f3323d6289b8269c2337f57, e9be9d62a55bc6c39c8b86ab93383ac7ae93efc9]","1","1","b1c61036988a5f44a8508f081a635a3f2001cf4f","0c28d533378db5f86a92d6bfdb9af3b0d5a621e6","bd9cf58bc9f63e01d22a2c4855cf44bf0e713e62"
"https://github.com/AgileVentures/WebsiteOne.git","245","19","[4b0245f32974b61e9b39ecf13e081472c7341605, 375d8366ac4d8c1247db6ba3649ecdc781b0d342, 05c5e8c37a0bf2d762c965892ccc20850c869641, f449054e0e0678a7e3b02567b23eeda79f79d36f, c7985806b4a5a8272a9c7e5bbb892afd332ccace, bb67f01074ce88f0f893508f63ad0d9c0f5f9277, 9ba17436b93dcf9c27ec10cd5040239160566143, 313f7671252d107c8947d40281931f553ff5a2ae, 2cd871e6fd4029bc4b9d7d74ac1a3008cc489b14, 8c8a6b64b07e1f22c9fa1e909bccc9d8bd571a9c, a3935c6536eb362d57a39f3c2dd5ec193d89efeb, 7838497c568a0aaff182e005bbb2939b497c8ee9, bbe47b6f8b78327240c161fb7f0809c0b5ab85c5, b225b70a0340aff44a0418626173fd1e8b9ea4c2, fe3dce74f284951ceef94c3bd48955ef678540de, 9d85892028e41703e4c0368b0c52d2c88c07bf30, 8515d004fbd7da9b58ae8f56b44c8f23a72874e0, 8acf97e51afa5afe79d85d0c5c05af12f678ea88, 45d2af4d43cac53d1b397e10c8767c027afcd736]","9","2","4b0245f32974b61e9b39ecf13e081472c7341605","8252255e833885c64402155ac26257906cb8dafa","851efb9267eb153a81a0cae789aa6267c0687b60"
"https://github.com/AgileVentures/WebsiteOne.git","250","5","[91c1c6d866ec21341f48c31d3f980c1002a7755a, 8c675418d79a855a0ab4e433fed1a0ce77de762a, be548cbdfd90d969fff82721d20a9270f274029f, 8951c3d6a5f4ccb899155db35e00b2f2039c2090, 466f1e396b639a716e064ed1e54a8c7e63d56995]","4","1","91c1c6d866ec21341f48c31d3f980c1002a7755a","39c256d2b9b226bad523dafbc9acf6b6323d28b6","3e4710ad282149ebf280a9a4a43140cea80ef8ec"
"https://github.com/AgileVentures/WebsiteOne.git","252","6","[ddf6cb9040db12faf76ad3a5504f970ca6f2a8e3, bd5beac070037225961487917ca09360c21f84ff, 90181f24edc3f50b99caed5312f60da86049cf30, 7d1045c2d1aeadecbe7492da4dea9dc4c0bd7d5e, 9e13d2a9fe9f0a7cf70413f85dedbbd57149f493, e08ead42840bf92f6c31844a7743397010a9d9b5]","4","1","ddf6cb9040db12faf76ad3a5504f970ca6f2a8e3","5c253825640820a87a2961cc7cfb18593709ae7a","82ac23a34491486c9ef1425d9de8d23d3fdd1be2"
"https://github.com/AgileVentures/WebsiteOne.git","254","3","[35b34b6ded5d354beacac259b29dff553c0eb122, c4ea1f418c87bf81560923a60613780f2919c108, 015952aa61d0440ba5567b8768c2b234417eaa04]","3","1","35b34b6ded5d354beacac259b29dff553c0eb122","82ac23a34491486c9ef1425d9de8d23d3fdd1be2","ccf7810590479e394ce908e2957f67e2ef703447"
"https://github.com/AgileVentures/WebsiteOne.git","259","5","[625524188199c1cbdb2a52fd8b457c911eea3d26, 466b283c86e4e6c4fa506e3a8919bfc086808407, 6cd484cccfaa4c68948f0273459a4a5bf7029088, 7395fe6cabf307a47c5c01c948e8eea9c91f30d0, cbe146176551a287d960b1e3b171dcfb852bf202]","8","5","625524188199c1cbdb2a52fd8b457c911eea3d26","e93269f4f8c2a85e42ae64784e8261580f20ff2c","31744b0c807d7773cfc1b1367cb414b10c3a33d6"
"https://github.com/AgileVentures/WebsiteOne.git","261","12","[a8e44f80fb2fa79317e492c35058f7b7d0d39c85, cb4573edbd9525f04632475f54667648d5087cf7, 196622b8462628776542abbc0ada8a2bf46b65f9, 12dba6a48a98a5f900179cc28da87b7472130e48, bac2cc0cc4c6658b5099cba289291397a4bdce1c, cfdcb79d13d0d1398d3fcb9dc9f8fc5d2a8b34e0, 7a1bf627e2cc41771d7c613f181e1552df3a787c, 9819066abd372a7af7e9ec4eec653c6257345a34, dbc191fb22662242c9244fdc6ef5364e92ea9ad7, a5ebc7fe05b35818a8f85e04f3b2256fe6328dbd, f5ea145952a81beba208b5f942d5966fbefa07d7, 19ff8d51b93b8bf06a128a972740efe9792b81e3]","7","2","a8e44f80fb2fa79317e492c35058f7b7d0d39c85","31744b0c807d7773cfc1b1367cb414b10c3a33d6","c981e9541272109f689687bb6c2ece271e1ed142"
"https://github.com/AgileVentures/WebsiteOne.git","262","3","[b765121682201e4f7b230ea836ba686b74403959, 51ad5f49911625827c0ead13ba306c3b12f3cf5b, d536a8c253fb5b9f74523092055ac22040734a97]","1","1","b765121682201e4f7b230ea836ba686b74403959","31744b0c807d7773cfc1b1367cb414b10c3a33d6","965a981887f0b80f1d5a89306464c67612048234"
"https://github.com/AgileVentures/WebsiteOne.git","263","2","[288540900a3776edfadf41f57bc3d9fa44bc1641, 348926c217eb59b97e80ce86ce902307bf5e2d1b]","1","2","288540900a3776edfadf41f57bc3d9fa44bc1641","965a981887f0b80f1d5a89306464c67612048234","8f2310541648c4c4d83a91438f185efa083620d3"
"https://github.com/AgileVentures/WebsiteOne.git","281","4","[3f99e3df4a5b6503454112ec92c3636eb9cfd525, 1ded95da9e1c55a20d2e31fd3a174c0e9e303fc2, ae5965b11151958126e2b307303d0242ce45dde4, 9a204876a07874a6f089467a4ffcfe8dc04550fc]","1","1","3f99e3df4a5b6503454112ec92c3636eb9cfd525","10422042c9559148bfa05ec927cae649082d333c","4741a034a01c43b2b2fa48ff0f5e001641ce157a"
"https://github.com/AgileVentures/WebsiteOne.git","282","13","[f894aad679fb2fa213a7156d0111ed8abfc84810, d917ae138048f713172e0c1d6f090068ab81eab0, 3268ba89d5233c6d41ead5c213a774f390e927b7, 39356f818372b6e9b7e29f6a157cbb3d46c621f6, f44939eaeaba6ab707117e03531b0cb63deb113f, 8a9f81c6ce024540fdf253d1b6a221340bd9550c, acb8542b279c278c470a9124c866769556f6e1c6, 2dd60f18d68b703a28926ba34360bd45ecb592ea, c70d32f76193c2b480884311a5999a167838f505, b1783c7e44f2682748661a84e4236dd9e7f3bd82, 11bc76a9887c5e3891bc56260450a1a2e3fa2d1f, 64c2a9e646132b8d87e996c50812b9c9552c5c39, 1af41b53670fe971a63f1bd56544df2073abd5a0]","18","1","f894aad679fb2fa213a7156d0111ed8abfc84810","4741a034a01c43b2b2fa48ff0f5e001641ce157a","e211e5a206fb05eccf2c318501e61967ee356c65"
"https://github.com/AgileVentures/WebsiteOne.git","283","8","[5b40a0657376007961ea3dca7c7d1020a0b264e3, cfcff0dc36ed5810b67042029b06f71f56b11152, 224314b1a7f1a45fb473cfca3cb9af14fe09303b, b0173f9fe2a568795b42e8c534d56bc7c7219ea4, 6d16196cd3ccf269363aad13bb54c8bd4bd20d48, 9c939f691ecaf8086223dc95a63b2956294b66b2, f525897377c456a58e364f1c3e12a97493639bdd, d1764d70300512d04dbae649ff813e41b10fe6d4]","2","1","5b40a0657376007961ea3dca7c7d1020a0b264e3","4741a034a01c43b2b2fa48ff0f5e001641ce157a","e211e5a206fb05eccf2c318501e61967ee356c65"
"https://github.com/AgileVentures/WebsiteOne.git","289","1","[6a76b5db32b52bb15af1bf484e57c5f160ba52e8]","1","1","6a76b5db32b52bb15af1bf484e57c5f160ba52e8","e4932f87e214a9d7231b02693152966d5c866284","fd7122e1fa3704eacd3988903584be6ba277e27d"
"https://github.com/AgileVentures/WebsiteOne.git","290","2","[547338d942a642d9e862da36df6d93e357720d6f, 909cf625c183a2b9e66f4698b52b632924ad59a0]","3","1","547338d942a642d9e862da36df6d93e357720d6f","e4932f87e214a9d7231b02693152966d5c866284","54a6887d93f5c9d837f44cb02adfc2bc83276d3e"
"https://github.com/AgileVentures/WebsiteOne.git","291","3","[54a6887d93f5c9d837f44cb02adfc2bc83276d3e, 62cb053d3e7ba3a8b73b128d9f6113d99a77f914, 1b67cfffa0759649900ec7684f694289ea0e5364]","6","2","54a6887d93f5c9d837f44cb02adfc2bc83276d3e","fd7122e1fa3704eacd3988903584be6ba277e27d","cc8085c14913dfaed8b864601bfd3b7dda2ba791"
"https://github.com/AgileVentures/WebsiteOne.git","294","19","[ae3ebe4c74578e19cb27ad01f033d598b3d7111c, 0227b9dbbd352343d516172d85eab4dc2528d9fb, 7386317422a3addbea8462017a6dcb83d332b7ae, a58fcb018a34048dac99772e456e89b0213d4814, a7db923c0986e2fbf523b1fb35e01e72d2a817bc, 4997d71ada4aaefa3e43e037a245a856db1e1171, 1b2c7be756da75f9bd1a0c321f730f31f2098afc, 31138503467483232c8fe119dd4425fe938f2a8f, c62f26551510305db5dbec4a20afa7f22dc97600, 20f536ee1f6978e2cb27c3860a657ac8d0d0ed19, a282eb8d220bccc35280adb63828c89d6cee2cd8, 3343c8bbb4d3cc8f8b81fc7b6459d4b5694e805f, ffa183037fab3730950dbbac50f4d7e21810debd, b52d90bb129c619d8465fb3070019a640f5b0e03, a8e45231438751238458f80c10699e9e9527e669, 3091dbade7c95207d0a2de1dc89f92c2942b4a2f, cc584a53121c050731e12349cf08cf57bec16cc0, dd83e798ef604a3018bd6cf0c6edea3b1d8b229c, 814da9ecaff3ed296f730b39442795928b9c730e]","10","2","ae3ebe4c74578e19cb27ad01f033d598b3d7111c","42459432d8560746dc65af4ef78bfb8165079380","26c015b51c1d08ce647e23d26ef2f545938ac695"
"https://github.com/AgileVentures/WebsiteOne.git","303","1","[b6b901d6aaf7d1a3a9ed2b6806dc640166b472ab]","2","1","b6b901d6aaf7d1a3a9ed2b6806dc640166b472ab","6c980bdbd501c81ea6adb9187be8f69099302931","a7af266a78d4912b813c403d137d3ceeba79a96c"
"https://github.com/AgileVentures/WebsiteOne.git","305","1","[e12c3361501133c63433274aae0e79cc8f0197c9]","15","2","e12c3361501133c63433274aae0e79cc8f0197c9","f44627437845950a1fa7f94fab9058c7c55f2bb1","ffb9b893d4a089a6088919836d48a36e95d82e5a"
"https://github.com/AgileVentures/WebsiteOne.git","308","7","[8b519cd1b9263ff0a56c59f64bb6055a4169d67d, 319e1b25e3eca19353294b5eccb7c86158a44292, 5467a66471901ff83429c77377fe36d2798a1c61, d615b4a77868c57bd90b00d0f7db85b182ae30f5, 651b040c8dba3756a6946c07df60276559e7e48b, 50ed2b8dd2ee525b322886e4a9e2d148ce72f6a5, 2d9042aba56f58513694fbb02e24e9343d6ca682]","2","1","8b519cd1b9263ff0a56c59f64bb6055a4169d67d","ffb9b893d4a089a6088919836d48a36e95d82e5a","4c43c912cdfcd0ec283815752c2eeb204149f63b"
"https://github.com/AgileVentures/WebsiteOne.git","309","7","[5f96146e0bcb8e09de834ea16e7c8f718b8e4afa, af1ca1e0e1ea922e60c9a0e5d9f2ec999c35640a, 6bf62d0056f3031ab1e250bb5b3cdd07ed373909, 311941b416ed926ca2e8dc8a86775634cfdf4cf1, d3b6e4ffc822e8b12bec64fc36aa39810d3afc91, 70a99bb9a9b5210f7e1114d06e0289f78cf3aef2, 5da86bdc391c9ba58e5d2e85196086efc147d3e7]","19","1","5f96146e0bcb8e09de834ea16e7c8f718b8e4afa","ea9f0401df66ac0995e25cd4a9c1402cd69dbd56","eb683b6ebcb0338ea53988eb26541edd50cb2b0d"
"https://github.com/AgileVentures/WebsiteOne.git","311","11","[cb2cf8755a716662ada8313866fd2295a4fe634e, ea78656b2058f12995af0cebe2e5251ffbc788b4, bdc345951d9415ee290b23a723747e063638fc7e, 97107a2c0563621c74c3259a2df2d1f7309375cc, 0ce2339808a5779d8f6a8f0da425a52c0fff93e7, f077a26ccd0eb01d97364d12816cc6ce94e46741, 4d37636f322577ac0790356fa291b0671f0ca510, 8808868a20ae39b52352865af741efc612d1d6be, 72a2d635952296e324ecc4033b1cb707ddd524e2, b26f38fa367d583a0cac4cd96d56801820a3c377, 40e10f8cabc5b65ca5ae206e4c6baacac9600708]","3","2","cb2cf8755a716662ada8313866fd2295a4fe634e","47570f425404d61df287974db3a50873d92b8eb0","eb683b6ebcb0338ea53988eb26541edd50cb2b0d"
"https://github.com/AgileVentures/WebsiteOne.git","312","11","[c61f9e82724117dd26feba7b00df2695f5703cd0, d77bde57d53dc9dbee7b14f644dbb0201d3fff79, 60b07f8b94aba2dcb72b568d7b90f82c38450702, ddfe8156f91da8834a904979f8c7344ca7ff6f1e, 881086ac98d5d69c4564f911e868977e098e1b01, debcc529842985f985e9b8bfde4fb51a32b6e882, 5c694556a1324c2730c19a0a8c71b781e4c26ff4, c50bef0c53ffa3362875b84275aa274eb45b0bdf, ca746785a426f2fface10dc7cef04b9cf2a5ada0, fe6079baf05749a77ffcffd2a624c80b59c0c0b4, a6b82872c6ae221f49e05c82988fb9276ae22303]","3","2","c61f9e82724117dd26feba7b00df2695f5703cd0","47570f425404d61df287974db3a50873d92b8eb0","c672239a8fb3261f8eed569eb94b930ae8b3decc"
"https://github.com/AgileVentures/WebsiteOne.git","313","1","[ba9f00dc84cf925b64bf0e4985d824eb25f5e135]","1","1","ba9f00dc84cf925b64bf0e4985d824eb25f5e135","c672239a8fb3261f8eed569eb94b930ae8b3decc","eb683b6ebcb0338ea53988eb26541edd50cb2b0d"
