"REPO_URL","TASK_ID","#HASHES","HASHES","#PROD_FILES","#TEST_FILES","LAST"
"https://github.com/AgileVentures/WebsiteOne.git","1","3","[51a569a8a17436dc74cca88fd2eb635dfb1020f0, f8f10f57719740da018093e7d1dc52338595e8e3, e4961efbd4ade78921f59ecf4624b94ab6ef0377]","1","1","51a569a8a17436dc74cca88fd2eb635dfb1020f0","9cc80fdf4c42f5fd7f9fbc86281315a9cc24fec5","fb09fb17ff4e72f8b504a367821d57de8eee0001"
"https://github.com/AgileVentures/WebsiteOne.git","3","21","[5f5c3e195f894d87a73b08308cdcdf08eebbf2ae, 53358a2b51b33825af00005114e5e53b1bb3384a, 8cffa1e9bce8cb6c7e8cae583d1d1d8cf4e87f4a, e6c9a515a463141b2690fa406bbec09c20a86a63, fd94f191705b675e17df4ccf3c697b7b3148b501, ffc002c472c3d39b5f0280d8e0fbb3f6742c3a76, 13e3d8e5b51bbb1b7a1983c23e399dd3db7fb079, 73fdcc5ced478ecce44c01e3bbc98c8abe32c4be, ce33e226bc399411ac64d204bf379ac6b3485662, 563e9b7600c86cb5fc01d983d929faf22cbba915, 28c5ce36580416eddc40e119fabd5f112964bb18, 1025f5add57e9b5d641f28cad614f4fc90cd5cfa, c0f20f8ae7e7feb95c752c7e6165ce931fa3f094, 6ea2e21a960f4187a937d7228fd469647e4cc359, ecb68b9f272f9c90491e15ed7aaffdbe9fbac8f0, be705a7306e4f43417c348f44618e50e635413fd, f572105c8e64ff344bd21f184b947787d94b1610, bd93902dc18aad839265d122110c0a697366b9bd, 57c1a6725c26f2669711ba527f5672302d36998a, 8d7f8213aaa9b96c754040e5feb50619ef523517, 20736dbf941ae721ba8fe709971c43a4014fe9fb]","14","8","5f5c3e195f894d87a73b08308cdcdf08eebbf2ae","fb09fb17ff4e72f8b504a367821d57de8eee0001","a6d70cdb009bc1cc135fa9a52df114d93ad0ff54"
"https://github.com/AgileVentures/WebsiteOne.git","6","8","[a38cc476b2d0d98c78facccf1c667bc851d0918a, 237b510a49448e8e85c0641498e9568781c3f365, d26cc558a8a0e7272d865f230030849c8d99c885, cf3aad0416848c1d9692893ad431840239724625, b837c7546b1dfe5781e5109550dec89571e86ee3, aa684f4315da07c7754f57ee7ee2404ae1e6464a, 88436b456bf1f7700477e9d53b15e234fa532940, 06d7e7afb2ab72f2a6b7862b1b0283b2092374e0]","1","1","a38cc476b2d0d98c78facccf1c667bc851d0918a","046bb04eea8c84165e4869224e8ddff6b5cb8116","456a07a4718b8f7784136d507f824f11bd6ba23a"
"https://github.com/AgileVentures/WebsiteOne.git","7","2","[50999cbcc4b5da8e9e24fc2cab7862b9d184d09c, 13fa07356990560638164ca4f82baccc195894da]","3","1","50999cbcc4b5da8e9e24fc2cab7862b9d184d09c","733c893344529360e6020e1dd8c60009ce3b2f4c","9999362ec1109dc2dac6ce512c47c3375293ea39"
"https://github.com/AgileVentures/WebsiteOne.git","8","3","[456a07a4718b8f7784136d507f824f11bd6ba23a, 1238a909a32194705c62ecb74463f1168e3beee8, 1e89450dca60d858b6fb6ded855ba036c8f07d1c]","3","1","456a07a4718b8f7784136d507f824f11bd6ba23a","733c893344529360e6020e1dd8c60009ce3b2f4c","9999362ec1109dc2dac6ce512c47c3375293ea39"
"https://github.com/AgileVentures/WebsiteOne.git","16","56","[5b11cabbecc7ec56038eb4928b7aa764cc0c1139, 64f1ebaf7b1f455cd7510df08a58183643cf19e2, af641cab61a61014ee4fa1603138a1e7f7f70e8c, 95b93418742b2c162f9d5ca5fffc582db5f9fec1, da8963d665cddce332e961de0467727304997962, 7d5bc76ca3bc3b3652956bb5a38d73834506fd42, c403204674d30b5de49a777fa69a219c478327e2, 7e120b68ee1797e0c58792b8e2caa1e507c5fd1e, c78f38a8eb95a23d1d0c86f650683de36da1c89b, b1aa2bcffe5b84301261382b403f0ecb253e17f4, 44a8f8a49a047a5ebef6513c37832794020386e7, 022d53f8220420345c8f1bb6c7973594824e0f8d, 106744bfc1be09d782dca16dabb61348f7cdf6a0, f1bdc16de2fb703b2d3002b6e1db025dedc36151, 394128b7a5c232cd8a28bc667d87825580be8a90, 0fb210103649c8f61322919e963bdeab10fced64, 8448e2582474d1be226ce4801f6d53fd5ab07f3a, 7f68d7b42fc57d3577a091bc77ba555421b115de, 571f398a4993c453eda05eedff410530ee880741, 08a88e40868c585ee0ba70d9bac8bb146102e04c, 0dad3d13b531461acfdb10fc51aa9558e364dd5a, 7baa8bbd71731552ac393214e0b3f6a9bc14e146, 75e2e223dc21578f55fe3ca3fe85e2a815717323, aaa60749ba9bcf62e4dbc1fdc80272aed4ce5244, 8d7c0e7bed054966bc2301911cea6a2579594d7b, 3841cdedd46af81fd48c6eb949ae9b809debbf69, 0f87dd1ca0b51892f733b36b6bcf7faec6d7e58c, 5522841bf24c725030bac6910a94d9855f90e9d0, b2fbf5dc909f09a96c91d94b81413b86c662c7c9, 5b6741c3d91cd7f902778a29e77f2387c46fd1b2, 94d3da98095b812f31810471354302516a1ad3d8, dc8356415632d44ed5c925e5e0ed230ce3c7bb3d, 1fea9f8c74d8393b51e9b44eca0d0521a7a832db, 447ac06446fe4103ff7f7dd9452df5553aa1e6ce, 8af216ac6cca96ed06c6998e9d6d0dc2b789d007, 9f6eae88141dfbce3469120e4f612c6eb8d2ce98, 5f6427216e9793d2f7774dc6648673bc97dcaef6, bda6ba3a382e7021071acf46595d91ae9f22e636, f62e8749ab8b6b02c64bfc59ef914072e652192d, d3572909336db7252cd6230742287df44918416d, baacbe5f8a561c0ec76b289a3d1d38afde5ca4ce, 1206bfbf454fda89d8431ec77b5022e18bae0a99, f08d48b976cc2b9584cc7eb89effb964a9a1fe26, b2f16795536c89b1e95c6dba62ebe6202da154a0, e49ffcba0c6d8f5ff8cc1d293234ec5f42618904, c8a5ecbba20a85eb259ef2a6808b869cecb1a6b5, 9719b953b82670aecbdfd26d8a24e17f8afca88f, d6518e811e3e3e2d3afac1b95abb31a635336d2e, 4cffbccb0447ecf47d9f19ce783169187cf277f0, 341caeb154dd4571485d4c68a4511b8e446bfdf6, 0f34c5ab8ddd1ee253314252ec3e34458ff071d6, 782ad176693d660d01578196e6b39ed283a92fe8, 9c5f314f607a6f87a78e7cad125b605bfa4a5ced, 1668a76c017b976f8daf9a823d5fac02f0a084b2, f13b1ef7abe905c8bfd820a3f4012f6bd187baa5, 1e23f68c3ad3044a8222337c3a6a704db9c04b73]","13","10","5b11cabbecc7ec56038eb4928b7aa764cc0c1139","9d1402e3f8fa87e32aa5eb46022cdaf7eae0d7e3","181e5f6a2634d6aa3fec0c9d0fe229f94c00e564"
"https://github.com/AgileVentures/WebsiteOne.git","18","21","[181e5f6a2634d6aa3fec0c9d0fe229f94c00e564, 74b34465f4a0efe020519d4a0117d9bcdcb99d37, afe0334b6083e64cfce6d523f0b5ad66442ba48e, 675b694c33bf701d5534eb6bc983b200de335e91, 87be06ae851e2c0434e84621fbd1731f4abc273d, 53d7fc73f40771f549c15767a39d1d6c4569d13e, 7ebcd976a0e33da47b2025478382fe4eb04a1816, 44e725cb2e9ffff7708f14c18125cc09e4b6d9c1, 2d3b9916a689d6a33821382d20d1964400cde48e, d35f1e5425298099c38af1d422035f0b428d55eb, 15b44e39a7e21eb4b25b7fdf2610705c304b2cd0, 702ddaaa534ab4fa04243f64fede0fe6cdc3f570, 64293212906bc1cee78e6bf756a66c5ef8bc2edd, 8cbe7199d72b3b002559c8c9f3c9c7b650bc4f0b, 53580259d0efe341d451b6070827ed54995b7d86, 626b38b245ec0a9c3e357492ce5f3228ac6c1847, d47aa81e4b817c1a2aeba919ca57e4389e576695, 1732dd83f93f0d967a969f2cd55d504bf674d1c1, 1e894394874f8d3fdc67fd17f31076eb92ac94e1, 6a45749c077ba62dad2dbc7de3c571c62d5f0bfb, c2144251da07d42ec5ebe9b65d2df51be3759c9b]","6","5","181e5f6a2634d6aa3fec0c9d0fe229f94c00e564","2ab36d4d1e07e99a6237c1436d011ae7687197a5","d1cd48f6d5276174ff7b601025b7ed20a441657d"
"https://github.com/AgileVentures/WebsiteOne.git","24","6","[8561d955a059c2f917cdd8e267e28902967ca11c, 73b0882bc741cc5e9829ae6cf534a6b46046d2ba, 5457ef4125c16cada43e687c268b6af61d7a6f25, ae1b6f6187beef41262c7c163daa611bd77c3387, 1ef64c067c72ed9129b63876f1f7fbfbcb63c74a, 1eaccb5782e02325bd6797962bc94037111f9deb]","6","5","8561d955a059c2f917cdd8e267e28902967ca11c","402aed7a71e13027d57350c83e7641a2b456ac23","55154a4b0d82e6cfd653651e0e1dd0f93bb59458"
"https://github.com/AgileVentures/WebsiteOne.git","25","4","[55154a4b0d82e6cfd653651e0e1dd0f93bb59458, 75496e2df52001a06617a249e111219a96ebf432, 2b193f725b2bf423ed7f4521d9bb0de748ef2346, 9c278f0f5aaecdbf6c48551b2d0df70a5e38c833]","19","10","55154a4b0d82e6cfd653651e0e1dd0f93bb59458","99941d80cf54ba4996f737d058f77f17b7dc1387","41f7450e03f151f9268ccf50e240452c95c31911"
"https://github.com/AgileVentures/WebsiteOne.git","26","5","[9ee803c5a498bfe2af287f1c2daed2715e113cf1, 65c4db05104e7b5d43668ef5dcd40bae102218cc, 608f74962a432bcd4ce6c91591038006463ea1ae, 682a0966fd2d0a2f3e58ff0422325d406cd436ac, 0f181fe171e4835fab3f062bb5ea8751e6b2cb42]","6","4","9ee803c5a498bfe2af287f1c2daed2715e113cf1","41f7450e03f151f9268ccf50e240452c95c31911","4fd3737fbe480e64f9fe977a6b02ae653f2a8450"
"https://github.com/AgileVentures/WebsiteOne.git","27","5","[4fd3737fbe480e64f9fe977a6b02ae653f2a8450, dd7cb2428b08fb511156d47bfe21956d133cd32a, 7fe09bdbe3e4553a8189a90955e8894d0e41df16, feae793620a0fe932fc652b8bc51cc64c715d0b1, e8de43104e1badfa8456ee046114fa62b3333721]","3","3","4fd3737fbe480e64f9fe977a6b02ae653f2a8450","e4ef94c6f135db46f47a2741a467d9e5f31e1392","5f0ebf6adbd013a73f484565f67346b8e25f7937"
"https://github.com/AgileVentures/WebsiteOne.git","28","6","[5f0ebf6adbd013a73f484565f67346b8e25f7937, 8e2a43f18cd0c79226ca3ff1fcc9ecd348a8a718, ec8883377049af393ce2419c491d870a0d687fd2, e720b10806177f0589ee5b27d41eff9e9feaeeb4, a0db4a7e28230a4db68b7474ab868443e5eec844, 931787b87b2c087a26c5a58fbec4faaddc8f782b]","12","8","5f0ebf6adbd013a73f484565f67346b8e25f7937","2156dc0bb2e2a96ae794b7200c364f29a5ce2969","afbbf079b9d807de645765bde5013c7277b1101c"
"https://github.com/AgileVentures/WebsiteOne.git","29","4","[afbbf079b9d807de645765bde5013c7277b1101c, 5225583d0c514f7b6a25970189bb886bff51521a, 8be819ea99a30fab9ee86b7ad49573bac2a98c0c, ed8b66ec891d4c1032907c7dc7fb8ac715f7a35f]","17","5","afbbf079b9d807de645765bde5013c7277b1101c","45e06fa9856dd313b734c8f41bb6e08794ad9d32","a71b0d32574770a5f2dd8c0c5ac023e06886fee2"
"https://github.com/AgileVentures/WebsiteOne.git","30","6","[a71b0d32574770a5f2dd8c0c5ac023e06886fee2, 4d77d1432f8bf1c16b088767cfc071ea59d40806, 19e90cbd6d6458fa53a3dbe87463d6588e6c1762, bc7e78ac98964c5b3e897dbb98e381f5432910df, f274f53c278b8d5a1cab73e471b01d8301e4e3ef, 1ca6d63a9a52f7cd4f6d27fc4693f1a114c53b81]","3","1","a71b0d32574770a5f2dd8c0c5ac023e06886fee2","466b94851c3be0351c99cad96246b1ab90b60375","4756f6fbeb7d8208ed021e10cf28fd4c8f409907"
"https://github.com/AgileVentures/WebsiteOne.git","31","3","[4756f6fbeb7d8208ed021e10cf28fd4c8f409907, bdde105ec9a59e4714de16e1a5ecad1482fb7bca, 06cf34013b4ecd70e05932c7142ebaf746e48937]","3","3","4756f6fbeb7d8208ed021e10cf28fd4c8f409907","7681685144376493542523e6fb8fbf976e7d228e","58577f523075440183643ab598d0214161d107c7"
"https://github.com/AgileVentures/WebsiteOne.git","32","6","[58577f523075440183643ab598d0214161d107c7, 73d0c0e8c1e0d889bccfba01cbe11a8bcb0f1a98, ee462113d3dc9af80051f2f8a7677e9c9e8c942a, 01612a561a75456cb13359dc830088d1c71daa52, f61edada7af984102bfe9c7518c0f15e3909daaa, 7f1aa94da384243079df1560e7acbab6905d936b]","4","3","58577f523075440183643ab598d0214161d107c7","01a37ca6e457d81305bcd0d312b9de37f94d11c2","ab97ac5cdb05b058e30663a6f306f4d999199f23"
"https://github.com/AgileVentures/WebsiteOne.git","33","3","[ab97ac5cdb05b058e30663a6f306f4d999199f23, 5ef853cc24fc304a7c134dcdc828c565c753c300, cc43989d3503f59d84c83e2a7c3696febf85dfd2]","11","4","ab97ac5cdb05b058e30663a6f306f4d999199f23","010785574b22738229b2f2c57e5e01849bae15d6","737b59659935c8be3959fb588536b4deaaaac1ca"
"https://github.com/AgileVentures/WebsiteOne.git","35","1","[011a4ea089e72ba6af02a69ec6a9e436677068ac]","3","1","011a4ea089e72ba6af02a69ec6a9e436677068ac","d084c7181d9b3eb4f42b93c1ac25ce2ba2b49178","ba605bf338ea8cfb131855f8fe92bd68c32ce477"
"https://github.com/AgileVentures/WebsiteOne.git","37","4","[889538021a01d89026bbb58ebfbe76e64eec2eec, fc28e78c07f5ab55e521fc85892351cadb4a748b, efa4ca794e84c60620588f275444db44f40631d5, 8c9b56508063aa5b58d9a586c855816c65380849]","18","3","889538021a01d89026bbb58ebfbe76e64eec2eec","299449a9826d5e81749697499ad22d14505b0cd3","699a91f5e992b6a6b43cb60d883c2e9a63268832"
"https://github.com/AgileVentures/WebsiteOne.git","38","1","[699a91f5e992b6a6b43cb60d883c2e9a63268832]","1","1","699a91f5e992b6a6b43cb60d883c2e9a63268832","3bed875c2d15e53774436434aa39b5a47e30075b","4455394d3d536447d7bfd33047b796d146dda9ab"
"https://github.com/AgileVentures/WebsiteOne.git","39","1","[4455394d3d536447d7bfd33047b796d146dda9ab]","11","3","4455394d3d536447d7bfd33047b796d146dda9ab","5c71e7b1671e5c22d34eda49084bcbd77f789fe5","2350707ddb7785e228ba0d9801fcfaab835a3720"
"https://github.com/AgileVentures/WebsiteOne.git","41","8","[5e6fdc9c670a5f2d30f7e47bc219a07c4ac1bb82, 6f5b678a1aa2cd0973c2a71585f60baa889c55dd, 90a0e4d509bea6f0f3f518f756c0229b065aa2ac, af42685c5c929648912de8ead91f4e9df77d7339, 45d600a5144d30be8ca76db92371ba885000a75c, 6f43036a533f9c57d21780602c4855491ea1e25f, 8172ac4bc3af190a5257155432bf4db6e8b04e3c, f5d253cfe254a0bfcdd979c16940cf3ef529018f]","11","3","5e6fdc9c670a5f2d30f7e47bc219a07c4ac1bb82","b6b46e64e210c257c9d32160e62b2d4d0c89cf02","0972114d287bb70cd8875bb71564496998a3d33c"
"https://github.com/AgileVentures/WebsiteOne.git","43","4","[e82932f13e3ef3fb0e8ffaf735bc0914b6349b81, 59ba9b859e7781025d80e767c14edad55efe937c, b4351769753244a20edeeb917914a0961709e8de, 27796c6e3d8e94f33f5e322cd9fef8d1b3b030e1]","7","1","e82932f13e3ef3fb0e8ffaf735bc0914b6349b81","a85da86cd565b257eee01a4ca1d7cd1372fdbeb0","b11696e6d99f46acc5ad18ed5ce54b6e4b6993aa"
"https://github.com/AgileVentures/WebsiteOne.git","44","6","[b11696e6d99f46acc5ad18ed5ce54b6e4b6993aa, 42d7d326e6eaea291db8fef216362eb817c8060c, 87325e07d3a18867d2f8e10736772abcdd1e5ae1, 0ebee79a3ab2538aa8f143682251ad3850f6f7aa, e6776e88297e95237a403494372c968e9c26c844, 156a9ab49b72bb79d39cc3f3523f5c156ba5b743]","12","5","b11696e6d99f46acc5ad18ed5ce54b6e4b6993aa","5f84df0eafe5b45ac79cae2b7e4f11b1d4b16d67","237af7345e3dd047e085c81b85e01641e7091273"
"https://github.com/AgileVentures/WebsiteOne.git","45","7","[237af7345e3dd047e085c81b85e01641e7091273, 1f54f453222a0dd8baa49e9fce7cac20c2b8e27d, 24e22d50b09c9ec6130a367b22daf15dca0fbf9d, f1c05d8d33dfb3828a145e530d9d5594112c0b42, 476bd787d5c924104a8a4ddd67a92a5b29956969, 5e97a3c9466aed79a58ddec6f30a04218e9a183c, 53241e9a605471125cc9edccd150aaa91fcd6781]","6","1","237af7345e3dd047e085c81b85e01641e7091273","a138d75af6b90e0f76776a7d40133317da38626a","83afd2f58250aa85d273589a70fb1f191224fb4e"
"https://github.com/AgileVentures/WebsiteOne.git","46","1","[83afd2f58250aa85d273589a70fb1f191224fb4e]","3","1","83afd2f58250aa85d273589a70fb1f191224fb4e","2412b6487578eb093ced45e648ba23d0f71fa890","d30aab89c9ebaf3805edb6862d99f52044288ca2"
"https://github.com/AgileVentures/WebsiteOne.git","47","1","[d30aab89c9ebaf3805edb6862d99f52044288ca2]","1","2","d30aab89c9ebaf3805edb6862d99f52044288ca2","39ed7df10ebf37aa9641e888b01e19b5c490f30a","69173e7a99cccea42d4ad1168715305548932783"
"https://github.com/AgileVentures/WebsiteOne.git","48","2","[69173e7a99cccea42d4ad1168715305548932783, f18bb933147886a59e7d0ee55d99c266b0f65f00]","4","1","69173e7a99cccea42d4ad1168715305548932783","e5822834451f6d4b62a14de6d775b17a6e73d50d","dfdbc1abc92a9962a7f3d34ceaeec330a4612636"
"https://github.com/AgileVentures/WebsiteOne.git","49","2","[dfdbc1abc92a9962a7f3d34ceaeec330a4612636, a5b3636b21106c246dd04142ebf4e3eaa330cadb]","3","1","dfdbc1abc92a9962a7f3d34ceaeec330a4612636","d7db88ea29b72f6dbb4cee9b6f15919de6c7f985","f6dd5ae2c731bdb70465f575cd61d9a1328f4ee0"
"https://github.com/AgileVentures/WebsiteOne.git","53","3","[16d9707f2226b8123b0502fdcd4bd936f324cb75, dbde2cf477a37a8b29f130c6d12766df09bf3075, 5d6ad6e6a83a2b89dc474de1079598b01ac46edd]","8","4","16d9707f2226b8123b0502fdcd4bd936f324cb75","0d3d32887a820c039e9f434ba7164012b9ab19dd","717c7e23a0b64f0d655c8861794b280ecd23dce8"
