"Repository","https://github.com/ministryofjustice/Claim-for-Crown-Court-Defence.git"
"Tasks with empty IReal","0"
"Tasks with no-empty IReal","3"
"Tasks with relevant AST error","0"
"Tasks with AST error of Gherkin files","0"
"Tasks with AST error of StepDef files","0"
"Tasks with AST error of production files","0"
"Tasks with AST error of unit test files","0"
"Tasks with step match error","0"
"Tasks without required gems","0"
"Tasks with changed stepdef","0"
"Tasks with changed Gherkin","3"
"Tasks with implemented Gherkin scenarios","3"
"All invalid tasks","0"
"All valid tasks (Gherkin scenario, no empty IReal, no error)","3"
"Valid tasks, but empty ITest","0"
"Valid tasks, no empty ITest, but zero precision-recall","1"
"Valid tasks, no empty ITest, no zero precision-recall","2"
"Project","Task","Date","#Days","#Commits","Commit_Message","#Devs","#Gherkin_Tests","#Impl_Gherkin_Tests","#StepDef","#Impl_StepDef","Methods_Unknown_Type","#Step_Call","Step_Match_Errors","#Step_Match_Error","AST_Errors","#AST_Errors","Gherkin_AST_Errors","#Gherkin_AST_Errors","Steps_AST_Errors","#Steps_AST_Errors","Renamed_Files","Deleted_Files","NotFound_Views","#Views","#TestI","#TaskI","TestI","TaskI","Precision","Recall","Hashes","Timestamp","Rails","Gems","#Visit_Call","Lost_visit_call","#Views_ITest","#Code_View_Analysis","Code_View_Analysis","Has_Merge","F2","#Multiple_Step_Matches","Multiple_Step_Matches","#Generic_Step_Keyword","Generic_Step_Keyword"
"claim-for-crown-court-defence","300","[19-12-2016, 20-12-2016]","2","3","[Change cukes to reflect new court names , Remove debug code , Remove superfluous 'Crown' from court name ]","1","7","7","0","0","[user, fill_in, click_on, be_displayed, click, set, sleep, ago, trial_concluded_on, actual_trial_length, using_wait_time, first_name, last_name, dob, maat_reference, trigger, add_another_representation_order, nil?, basic_fee, set, using_wait_time, daily_attendance_fee_3_to_40, add_dates, click, daily_attendance_fee_3_to_40_dates, trigger, dates, to_i, provider, select, miscellaneous_fees, add_another_miscellaneous_fee, each, evidence_checklist, check, day, month, year, select_container, select, delete, page, execute_script, attach_file, page, evaluate_script, find, path, execute_script, gsub, send, click, continue, have_content, not_to, to_f, be_nil, text, eq, claimed, within, lgfs_supplier_numbers, expense_type_dropdown, destination, reason_for_travel_dropdown, expense_date, send, disbursements, add_another_disbursement, day, allocations, delete, find, path, ppe_total, month, year, transfer_fee_total, litigator_type_original, litigator_type_new, elected_case_yes, elected_case_no]","1","","0","","0","","0","","0","","[]","[grape_swagger_rails, new_confirmation, new_password, new_registration, new_session, new_unlock, omniauth_authorize]","7","47","1","[app/controllers/geckoboard_api/widgets_controller.rb, app/controllers/pages_controller.rb, app/controllers/vat_rates_controller.rb, app/interfaces/api/entities/document.rb, app/interfaces/api/entities/export/user.rb, app/interfaces/api/entities/user.rb, app/interfaces/api/v2/case_workers/claim.rb, app/models/allocation.rb, app/models/claim/base_claim.rb, app/models/date_attended.rb, app/models/determination.rb, app/models/doc_type.rb, app/models/fee/base_fee.rb, app/models/google_analytics/data_adapter.rb, app/models/google_analytics/ga_data_adapter.rb, app/models/google_analytics/gtm_data_adapter.rb, app/models/json_document_importer.rb, app/models/location.rb, app/models/offence_class.rb, app/models/supplier_number.rb, app/models/user.rb, app/presenters/assessment_presenter.rb, app/presenters/claim/base_claim_presenter.rb, app/presenters/claim/transfer_claim_presenter.rb, app/presenters/disbursement_presenter.rb, app/presenters/error_detail_collection.rb, app/presenters/error_presenter.rb, app/presenters/expense_presenter.rb, app/presenters/fee/base_fee_presenter.rb, app/presenters/fee/fixed_fee_presenter.rb, app/presenters/fee/graduated_fee_presenter.rb, app/presenters/fee/interim_fee_presenter.rb, app/presenters/fee/misc_fee_presenter.rb, app/presenters/fee/transfer_fee_presenter.rb, app/presenters/fee/warrant_fee_presenter.rb, app/presenters/redetermination_presenter.rb, app/services/claims/case_worker_claims.rb, app/services/remote/base.rb, app/services/remote/user.rb, app/views/devise/sessions/new.html.haml, app/views/devise/shared/_links.html.haml, app/views/layouts/_header.html.haml, app/views/pages/api_landing.html.haml, app/views/pages/api_release_notes.html.haml, app/views/pages/tandcs.haml, lib/extensions/parameters_extension.rb, lib/extensions/string_extension.rb]","[app/models/stats/management_information_generator.rb]","0.0","0.0","[5fe1e6a4357cd1808c3140018c894712840d37f7, 6c9d6199b94d90ce775a086204ec809630630c95, 8329dda37cd717d803f2b4dd948b13074a9e28b0]","38.001 seconds","4.2.7.1","[cucumber-rails, rspec-rails, simplecov, factory_girl]","4","[]","6","7","[app/controllers/pages_controller.rb, app/views/devise/sessions/new.html.haml, app/views/devise/shared/_links.html.haml, app/views/layouts/_header.html.haml, app/views/pages/api_landing.html.haml, app/views/pages/api_release_notes.html.haml, app/views/pages/tandcs.haml]","false","0.0","0","","0",""
"claim-for-crown-court-defence","309","[07-12-2016]","1","4","[Merge pull request #1888 from ministryofjustice/fix-dates-layout-on-error  FIx: additional dates error state, FIx: additional dates error state  PT: https://www.pivotaltracker.com/story/show/135695339  **The issue** additional dates with error messages throws out the layout  **What this PR does** fixing the layout with additional CSS , Merge pull request #1887 from ministryofjustice/transfer-claim-process  Change user journey through litigator 'transfer' cases, Introduce 3-stage journey for transfer claims ]","3","1","1","0","0","[user, fill_in, click_on, provider, lgfs_supplier_numbers, set, expense_type_dropdown, select, destination, reason_for_travel_dropdown, expense_date, disbursements, add_another_disbursement, trigger, day, month, year, select_container, allocations, text, delete, find, page, path, execute_script, gsub, send, click, continue, page, have_content, not_to, click, be_displayed, trigger, be_nil, text, eq, claimed, transfer_fee_total, litigator_type_original, click, litigator_type_new, elected_case_yes, elected_case_no, day, set, month, year, delete, find, path, execute_script, sleep, first_name, last_name, dob, maat_reference, add_another_representation_order, nil?, using_wait_time, to_i, each, evidence_checklist, check, attach_file, evaluate_script]","1","","0","","0","","0","","0","","[]","[grape_swagger_rails, new_confirmation, new_password, new_registration, new_session, new_unlock, omniauth_authorize]","7","44","13","[app/controllers/geckoboard_api/widgets_controller.rb, app/controllers/pages_controller.rb, app/controllers/vat_rates_controller.rb, app/interfaces/api/entities/document.rb, app/interfaces/api/entities/export/user.rb, app/interfaces/api/entities/user.rb, app/interfaces/api/v2/case_workers/claim.rb, app/models/allocation.rb, app/models/claim/base_claim.rb, app/models/date_attended.rb, app/models/determination.rb, app/models/fee/base_fee.rb, app/models/google_analytics/data_adapter.rb, app/models/google_analytics/ga_data_adapter.rb, app/models/google_analytics/gtm_data_adapter.rb, app/models/json_document_importer.rb, app/models/location.rb, app/models/offence_class.rb, app/models/supplier_number.rb, app/models/user.rb, app/presenters/assessment_presenter.rb, app/presenters/claim/base_claim_presenter.rb, app/presenters/claim/transfer_claim_presenter.rb, app/presenters/disbursement_presenter.rb, app/presenters/error_detail_collection.rb, app/presenters/error_presenter.rb, app/presenters/expense_presenter.rb, app/presenters/fee/base_fee_presenter.rb, app/presenters/fee/fixed_fee_presenter.rb, app/presenters/fee/graduated_fee_presenter.rb, app/presenters/fee/interim_fee_presenter.rb, app/presenters/fee/misc_fee_presenter.rb, app/presenters/fee/transfer_fee_presenter.rb, app/presenters/redetermination_presenter.rb, app/services/claims/case_worker_claims.rb, app/services/remote/user.rb, app/views/devise/sessions/new.html.haml, app/views/devise/shared/_links.html.haml, app/views/layouts/_header.html.haml, app/views/pages/api_landing.html.haml, app/views/pages/api_release_notes.html.haml, app/views/pages/tandcs.haml, lib/extensions/parameters_extension.rb, lib/extensions/string_extension.rb]","[app/controllers/external_users/claims_controller.rb, app/controllers/external_users/litigators/transfer_claims_controller.rb, app/models/claim/base_claim.rb, app/models/claim/transfer_claim.rb, app/validators/claim/transfer_claim_sub_model_validator.rb, app/validators/claim/transfer_claim_validator.rb, app/views/external_users/claims/case_details/_fields.html.haml, app/views/external_users/claims/case_details/_summary.html.haml, app/views/external_users/claims/transfer_fee/_detail_fields.html.haml, app/views/external_users/claims/transfer_fee/_fields.html.haml, app/views/external_users/litigators/transfer_claims/_form.html.haml, app/views/external_users/litigators/transfer_claims/original_transfer_claim_new.html.haml, app/views/shared/_claim.html.haml]","0.0227272727","0.0769230769","[0968e5f3ea2d127acb87f86545db4ee23e2d3e36, 73c7961b08a5a8baa62b0032259ea2f0fd7b02ea, f1cfb475b876687fda2599cd68355a048fb764ea, f78dacaf2f342e8dc9367b76d708f825ff9bf60f]","46.567 seconds","4.2.7.1","[cucumber-rails, rspec-rails, simplecov, factory_girl]","2","[]","6","7","[app/controllers/pages_controller.rb, app/views/devise/sessions/new.html.haml, app/views/devise/shared/_links.html.haml, app/views/layouts/_header.html.haml, app/views/pages/api_landing.html.haml, app/views/pages/api_release_notes.html.haml, app/views/pages/tandcs.haml]","true","0.05208333329622396","0","","0",""
"claim-for-crown-court-defence","352","[17-10-2016, 19-10-2016]","3","4","[Change contact email for Time Limtited Retention page (#1829)  , Extend validity of rep orders from 5 to 10 years old (#1828)  , Merge pull request #1819 from ministryofjustice/ui-json-import-info  UI: Claim import message + info page, UI: Claim import message + info page  PT: https://www.pivotaltracker.com/story/show/132161975  **What this PR does** - Implement GDS styling for callout message - Refactor of the info page adding page sections and TOC with deeplinks - updated cuke tests ]","3","1","1","0","0","[user, fill_in, click_on, allow, receive, and_return, page, have_selector, not_to, click, page, have_link, click_link, be_displayed]","0","","0","","0","","0","","0","","[]","[grape_swagger_rails, new_confirmation, new_password, new_registration, new_session, new_unlock, omniauth_authorize]","7","11","3","[app/controllers/pages_controller.rb, app/interfaces/api/entities/user.rb, app/models/json_document_importer.rb, app/models/user.rb, app/services/remote/user.rb, app/views/devise/sessions/new.html.haml, app/views/devise/shared/_links.html.haml, app/views/layouts/_header.html.haml, app/views/pages/api_landing.html.haml, app/views/pages/api_release_notes.html.haml, app/views/pages/tandcs.haml]","[app/views/external_users/claims/_api_promo_banner.html.haml, app/views/pages/api_landing.html.haml, app/views/pages/timed_retention.html.haml]","0.0909090909","0.3333333333","[1bfa812f18189bbcdd492c1cbc42e81b206ac7d7, c48a702ede33adbdf8847fcac8431709666bc184, 66f166c7e07762b7ed99b021b3d17a00454ba770, d2f827a66ee4f26b43cbff1f06fc176338f544c5]","3.151 seconds","4.2.7.1","[cucumber-rails, rspec-rails, simplecov, factory_girl]","2","[]","6","7","[app/controllers/pages_controller.rb, app/views/devise/sessions/new.html.haml, app/views/devise/shared/_links.html.haml, app/views/layouts/_header.html.haml, app/views/pages/api_landing.html.haml, app/views/pages/api_release_notes.html.haml, app/views/pages/tandcs.haml]","true","0.21739130432608694","0","","0",""
