[path:/features/step_definitions/community_steps.rb, methods:[74, 31, 80]]
[path:/features/step_definitions/email_steps.rb, methods:[90, 115, 217, 94, 98, 147]]
[path:/features/step_definitions/payment_steps.rb, methods:[0, 9, 18, 22, 28, 38, 48, 55, 62, 69, 77, 81, 85]]
[path:/features/step_definitions/pickle_steps.rb, methods:[38]]
[path:/features/step_definitions/user_steps.rb, methods:[80, 30, 111]]
[path:/features/step_definitions/web_steps.rb, methods:[22, 137, 44, 85, 26, 116, [name:with_scope, step:When ], [name:with_scope, step:Then ], 38, 32]]
[path:/features/support/email.rb, methods:[[name:create, step:Given ]]]
