"Repository","https://github.com/makrio/makrio.git"
"Precision mean (RT)","0.033500192533333334"
"Precision median (RT)","0.0188679245"
"Precision standard deviation (RT)","0.042738155831595216"
"Recall mean (RT)","0.3888888889"
"Recall median (RT)","0.5"
"Recall standard deviation (RT)","0.34694433325769947"
"F2 mean (RT)","0.11864660527983664"
"F2 median (RT)","0.08196721300792799"
"F2 standard deviation (RT)","0.14062105154867582"
"Correlation #Test-Precision","null"
"Correlation #Test-Recall","null"
"Task","Dates","#Devs","#Commits","Hashes","#Gherkin_Tests","#Sted_defs","#TestI","#TaskI","TestI","TaskI","Precision","Recall","Rails","#visit_call","Lost_visit_call","#Views_TestI","#Code_View_Analysis","Code_View_Analysis","Methods_Unknown_Type","Renamed_Files","Deleted_Files","NotFound_Views","#NotFound_Views","Timestamp","Has_Merge","#FP","#FN","FP","FN","#Hits","Hits","f2"
"937","[29-12-2010]","2","5","[154fa77bd6dbcd6ed264a8322de8ffee6fc88052, 6a90646eaae2c30d95ce18c2ba26defc9184ed53, 8d218e78719eefd6d24a7c4e74f18cec7849a52b, c92f80b2eb9a2cab52d96f886602bbdae56f160a, 215d6a85044886937bc586e70b9a36282d78f8f1]","2","6","1","2","[lib/app_config.rb]","[app/views/layouts/application.html.haml, app/views/publics/host_meta.erb]","0.0","0.0","3.0.3","2","[]","0","0","[]","[require, assert_equal, chomp, assert_equal, assert_match, system, page, has_content?, have_content, within]","","[]","[diaspora]","1","0.099 seconds","false","1","2","[lib/app_config.rb]","[app/views/layouts/application.html.haml, app/views/publics/host_meta.erb]","0","[]","0.0"
"1097","[23-11-2010]","2","4","[97171b30836cbeb5d83d42fb514dc7d892763eed, bfc1fa4da0c4f1bcd8ea7bfe2e5161a043f5ff01, f725641eaff5c326f3e1fd17f0d678d414dd93e9, 69cac02adea79831a404b8391c83fd7cea58b34e]","2","0","49","6","[app/controllers/aspects_controller.rb, app/controllers/home_controller.rb, app/controllers/people_controller.rb, app/controllers/photos_controller.rb, app/controllers/services_controller.rb, app/controllers/users_controller.rb, app/helpers/application_helper.rb, app/models/person.rb, app/models/photo.rb, app/models/user.rb, app/views/aspects/_no_contacts_message.haml, app/views/aspects/_no_posts_message.haml, app/views/aspects/index.html.haml, app/views/aspects/index.mobile.haml, app/views/aspects/manage.html.haml, app/views/aspects/show.html.haml, app/views/aspects/show.mobile.haml, app/views/comments/_comment.html.haml, app/views/comments/_comments.html.haml, app/views/comments/_new_comment.html.haml, app/views/devise/sessions/new.haml, app/views/devise/shared/_links.haml, app/views/home/show.html.haml, app/views/invitations/_new.haml, app/views/people/_profile_photo_upload.html.haml, app/views/people/edit.html.haml, app/views/photos/_index.html.haml, app/views/photos/_new_photo.haml, app/views/photos/_photo.haml, app/views/photos/edit.html.haml, app/views/photos/new.html.haml, app/views/photos/show.html.haml, app/views/requests/_manage_aspect_contacts.haml, app/views/services/index.html.haml, app/views/shared/_add_contact.html.haml, app/views/shared/_aspect_contacts.haml, app/views/shared/_contact_list.html.haml, app/views/shared/_invitations.haml, app/views/shared/_mail_signup_form.erb, app/views/shared/_public_explain.haml, app/views/shared/_publisher.haml, app/views/shared/_stream.haml, app/views/users/edit.html.haml, app/views/users/getting_started.html.haml, app/views/users/getting_started/_step_1.html.haml, app/views/users/getting_started/_step_2.html.haml, app/views/users/getting_started/_step_3.html.haml, app/views/users/getting_started/_step_4.html.haml, lib/diaspora/user.rb]","[app/views/devise/sessions/new.haml, app/views/home/show.html.haml, app/views/layouts/_header.html.haml, app/views/layouts/application.html.haml, app/views/shared/_aspect_contacts.haml, app/views/users/getting_started/_step_4.html.haml]","0.0816326531","0.6666666667","3.0.1","1","[]","38","45","[app/controllers/aspects_controller.rb, app/controllers/home_controller.rb, app/controllers/people_controller.rb, app/controllers/photos_controller.rb, app/controllers/services_controller.rb, app/controllers/users_controller.rb, app/helpers/application_helper.rb, app/views/aspects/_no_contacts_message.haml, app/views/aspects/_no_posts_message.haml, app/views/aspects/index.html.haml, app/views/aspects/index.mobile.haml, app/views/aspects/manage.html.haml, app/views/aspects/show.html.haml, app/views/aspects/show.mobile.haml, app/views/comments/_comment.html.haml, app/views/comments/_comments.html.haml, app/views/comments/_new_comment.html.haml, app/views/devise/sessions/new.haml, app/views/devise/shared/_links.haml, app/views/home/show.html.haml, app/views/invitations/_new.haml, app/views/people/_profile_photo_upload.html.haml, app/views/people/edit.html.haml, app/views/photos/_index.html.haml, app/views/photos/_new_photo.haml, app/views/photos/_photo.haml, app/views/photos/edit.html.haml, app/views/photos/new.html.haml, app/views/photos/show.html.haml, app/views/requests/_manage_aspect_contacts.haml, app/views/services/index.html.haml, app/views/shared/_add_contact.html.haml, app/views/shared/_aspect_contacts.haml, app/views/shared/_contact_list.html.haml, app/views/shared/_invitations.haml, app/views/shared/_mail_signup_form.erb, app/views/shared/_public_explain.haml, app/views/shared/_publisher.haml, app/views/shared/_stream.haml, app/views/users/edit.html.haml, app/views/users/getting_started.html.haml, app/views/users/getting_started/_step_1.html.haml, app/views/users/getting_started/_step_2.html.haml, app/views/users/getting_started/_step_3.html.haml, app/views/users/getting_started/_step_4.html.haml]","[click_button, silence_warnings, click_link, fill_in, page, have_content, has_content?, have_no_content, has_no_content?, current_url, path, assert_equal, within, send, person, raise, status_message, user_aspect, current_path, wait_until, user_aspect, status_message]","","[app/views/home/show.haml]","[app/views/users/getting_started/_step_.html.haml, new_confirmation, new_password, new_registration, new_session, new_unlock, photos, send]","8","2.892 seconds","false","45","2","[app/controllers/aspects_controller.rb, app/controllers/home_controller.rb, app/controllers/people_controller.rb, app/controllers/photos_controller.rb, app/controllers/services_controller.rb, app/controllers/users_controller.rb, app/helpers/application_helper.rb, app/models/person.rb, app/models/photo.rb, app/models/user.rb, app/views/aspects/_no_contacts_message.haml, app/views/aspects/_no_posts_message.haml, app/views/aspects/index.html.haml, app/views/aspects/index.mobile.haml, app/views/aspects/manage.html.haml, app/views/aspects/show.html.haml, app/views/aspects/show.mobile.haml, app/views/comments/_comment.html.haml, app/views/comments/_comments.html.haml, app/views/comments/_new_comment.html.haml, app/views/devise/shared/_links.haml, app/views/invitations/_new.haml, app/views/people/_profile_photo_upload.html.haml, app/views/people/edit.html.haml, app/views/photos/_index.html.haml, app/views/photos/_new_photo.haml, app/views/photos/_photo.haml, app/views/photos/edit.html.haml, app/views/photos/new.html.haml, app/views/photos/show.html.haml, app/views/requests/_manage_aspect_contacts.haml, app/views/services/index.html.haml, app/views/shared/_add_contact.html.haml, app/views/shared/_contact_list.html.haml, app/views/shared/_invitations.haml, app/views/shared/_mail_signup_form.erb, app/views/shared/_public_explain.haml, app/views/shared/_publisher.haml, app/views/shared/_stream.haml, app/views/users/edit.html.haml, app/views/users/getting_started.html.haml, app/views/users/getting_started/_step_1.html.haml, app/views/users/getting_started/_step_2.html.haml, app/views/users/getting_started/_step_3.html.haml, lib/diaspora/user.rb]","[app/views/layouts/_header.html.haml, app/views/layouts/application.html.haml]","4","[app/views/devise/sessions/new.haml, app/views/home/show.html.haml, app/views/shared/_aspect_contacts.haml, app/views/users/getting_started/_step_4.html.haml]","0.2739726028315819"
"1129","[18-11-2010]","4","6","[be55384628439060cbfa5b89b3e0a476e6ff216e, 47dc91fae45dc71835131f75cb67a5e281c9175b, b2e6caafeddc60bbbb494e8163cda7653d7f00ee, 597258615b34954e8c1b29c83c02993a53cac32d, 3b88121244403f736ad4f79cad5ab6b9d8d5e9b0, 4599f700e62726247f859c4a04845cc814097a48]","2","0","53","2","[app/controllers/aspects_controller.rb, app/controllers/home_controller.rb, app/controllers/people_controller.rb, app/controllers/photos_controller.rb, app/controllers/services_controller.rb, app/controllers/status_messages_controller.rb, app/controllers/users_controller.rb, app/helpers/application_helper.rb, app/models/person.rb, app/models/photo.rb, app/models/user.rb, app/views/aspects/_no_contacts_message.haml, app/views/aspects/_no_posts_message.haml, app/views/aspects/manage.html.haml, app/views/aspects/show.html.haml, app/views/comments/_comment.html.haml, app/views/comments/_comments.html.haml, app/views/comments/_new_comment.html.haml, app/views/devise/sessions/new.html.haml, app/views/devise/shared/_links.haml, app/views/home/show.html.haml, app/views/invitations/_new.haml, app/views/people/_profile_photo_upload.html.haml, app/views/people/_profile_sidebar.html.haml, app/views/people/edit.html.haml, app/views/people/show.html.haml, app/views/photos/_index.html.haml, app/views/photos/_new_photo.haml, app/views/photos/_photo.haml, app/views/photos/edit.html.haml, app/views/photos/new.html.haml, app/views/photos/show.html.haml, app/views/requests/_manage_aspect_contacts.haml, app/views/requests/_new_request_to_person.haml, app/views/services/index.html.haml, app/views/shared/_aspect_contacts.haml, app/views/shared/_author_info.html.haml, app/views/shared/_contact_list.html.haml, app/views/shared/_invitations.haml, app/views/shared/_mail_signup_form.erb, app/views/shared/_public_explain.haml, app/views/shared/_publisher.haml, app/views/shared/_stream.haml, app/views/status_messages/_new_status_message.haml, app/views/status_messages/_status_message.haml, app/views/status_messages/show.html.haml, app/views/users/edit.html.haml, app/views/users/getting_started.html.haml, app/views/users/getting_started/_step_1.html.haml, app/views/users/getting_started/_step_2.html.haml, app/views/users/getting_started/_step_3.html.haml, app/views/users/getting_started/_step_4.html.haml, lib/diaspora/user.rb]","[app/views/layouts/application.html.haml, app/views/users/getting_started.html.haml]","0.0188679245","0.5","3.0.1","2","[]","41","49","[app/controllers/aspects_controller.rb, app/controllers/home_controller.rb, app/controllers/people_controller.rb, app/controllers/photos_controller.rb, app/controllers/services_controller.rb, app/controllers/status_messages_controller.rb, app/controllers/users_controller.rb, app/helpers/application_helper.rb, app/views/aspects/_no_contacts_message.haml, app/views/aspects/_no_posts_message.haml, app/views/aspects/manage.html.haml, app/views/aspects/show.html.haml, app/views/comments/_comment.html.haml, app/views/comments/_comments.html.haml, app/views/comments/_new_comment.html.haml, app/views/devise/sessions/new.html.haml, app/views/devise/shared/_links.haml, app/views/home/show.html.haml, app/views/invitations/_new.haml, app/views/people/_profile_photo_upload.html.haml, app/views/people/_profile_sidebar.html.haml, app/views/people/edit.html.haml, app/views/people/show.html.haml, app/views/photos/_index.html.haml, app/views/photos/_new_photo.haml, app/views/photos/_photo.haml, app/views/photos/edit.html.haml, app/views/photos/new.html.haml, app/views/photos/show.html.haml, app/views/requests/_manage_aspect_contacts.haml, app/views/requests/_new_request_to_person.haml, app/views/services/index.html.haml, app/views/shared/_aspect_contacts.haml, app/views/shared/_author_info.html.haml, app/views/shared/_contact_list.html.haml, app/views/shared/_invitations.haml, app/views/shared/_mail_signup_form.erb, app/views/shared/_public_explain.haml, app/views/shared/_publisher.haml, app/views/shared/_stream.haml, app/views/status_messages/_new_status_message.haml, app/views/status_messages/_status_message.haml, app/views/status_messages/show.html.haml, app/views/users/edit.html.haml, app/views/users/getting_started.html.haml, app/views/users/getting_started/_step_1.html.haml, app/views/users/getting_started/_step_2.html.haml, app/views/users/getting_started/_step_3.html.haml, app/views/users/getting_started/_step_4.html.haml]","[click_button, click_link, fill_in, page, have_content, has_content?, have_no_content, has_no_content?, current_url, path, assert_equal, within, send, person, raise, aspect, comment_submit button, button]","","[]","[app/views/users/getting_started/_step_.html.haml, new_confirmation, new_password, new_registration, new_session, new_unlock, new_user_invitation, photos, send]","9","1.424 seconds","false","52","1","[app/controllers/aspects_controller.rb, app/controllers/home_controller.rb, app/controllers/people_controller.rb, app/controllers/photos_controller.rb, app/controllers/services_controller.rb, app/controllers/status_messages_controller.rb, app/controllers/users_controller.rb, app/helpers/application_helper.rb, app/models/person.rb, app/models/photo.rb, app/models/user.rb, app/views/aspects/_no_contacts_message.haml, app/views/aspects/_no_posts_message.haml, app/views/aspects/manage.html.haml, app/views/aspects/show.html.haml, app/views/comments/_comment.html.haml, app/views/comments/_comments.html.haml, app/views/comments/_new_comment.html.haml, app/views/devise/sessions/new.html.haml, app/views/devise/shared/_links.haml, app/views/home/show.html.haml, app/views/invitations/_new.haml, app/views/people/_profile_photo_upload.html.haml, app/views/people/_profile_sidebar.html.haml, app/views/people/edit.html.haml, app/views/people/show.html.haml, app/views/photos/_index.html.haml, app/views/photos/_new_photo.haml, app/views/photos/_photo.haml, app/views/photos/edit.html.haml, app/views/photos/new.html.haml, app/views/photos/show.html.haml, app/views/requests/_manage_aspect_contacts.haml, app/views/requests/_new_request_to_person.haml, app/views/services/index.html.haml, app/views/shared/_aspect_contacts.haml, app/views/shared/_author_info.html.haml, app/views/shared/_contact_list.html.haml, app/views/shared/_invitations.haml, app/views/shared/_mail_signup_form.erb, app/views/shared/_public_explain.haml, app/views/shared/_publisher.haml, app/views/shared/_stream.haml, app/views/status_messages/_new_status_message.haml, app/views/status_messages/_status_message.haml, app/views/status_messages/show.html.haml, app/views/users/edit.html.haml, app/views/users/getting_started/_step_1.html.haml, app/views/users/getting_started/_step_2.html.haml, app/views/users/getting_started/_step_3.html.haml, app/views/users/getting_started/_step_4.html.haml, lib/diaspora/user.rb]","[app/views/layouts/application.html.haml]","1","[app/views/users/getting_started.html.haml]","0.08196721300792799"
