"Repository","https://github.com/dchbx/enroll.git"
"Precision mean (RT)","0.02040816327142857"
"Precision median (RT)","0.0"
"Precision standard deviation (RT)","0.05399492473180238"
"Recall mean (RT)","0.07142857142857144"
"Recall median (RT)","0.0"
"Recall standard deviation (RT)","0.18898223650461363"
"F2 mean (RT)","0.0476190476257143"
"F2 median (RT)","0.0"
"F2 standard deviation (RT)","0.12598815768738075"
"Correlation #Test-Precision","0.68"
"Correlation #Test-Recall","0.68"
"Task","Dates","#Devs","#Commits","Hashes","#Gherkin_Tests","#Sted_defs","#TestI","#TaskI","TestI","TaskI","Precision","Recall","Rails","#visit_call","Lost_visit_call","#Views_TestI","#Code_View_Analysis","Code_View_Analysis","Methods_Unknown_Type","Renamed_Files","Deleted_Files","NotFound_Views","#NotFound_Views","Timestamp","Has_Merge","#FP","#FN","FP","FN","#Hits","Hits","f2"
"6594","[13-01-2015]","1","1","[66be1d75be59fc2e4c1b48e447145f1d2dfb6a8e]","9","30","7","2","[app/controllers/brokers/welcome_controller.rb, app/controllers/employers/welcome_controller.rb, app/controllers/welcome_controller.rb, app/models/user.rb, app/views/brokers/welcome/index.html.erb, app/views/employers/welcome/index.html.erb, app/views/welcome/index.html.erb]","[app/models/person.rb, app/models/user.rb]","0.1428571429","0.5","4.2.0","8","[]","3","6","[app/controllers/brokers/welcome_controller.rb, app/controllers/employers/welcome_controller.rb, app/controllers/welcome_controller.rb, app/views/brokers/welcome/index.html.erb, app/views/employers/welcome/index.html.erb, app/views/welcome/index.html.erb]","[create_visitor, create_visitor, merge, click_link, fill_in, click_button, page, have_content, fill_in, click_button]","","[]","[/users/sign_up]","1","0.203 seconds","false","6","1","[app/controllers/brokers/welcome_controller.rb, app/controllers/employers/welcome_controller.rb, app/controllers/welcome_controller.rb, app/views/brokers/welcome/index.html.erb, app/views/employers/welcome/index.html.erb, app/views/welcome/index.html.erb]","[app/models/person.rb]","1","[app/models/user.rb]","0.33333333338000004"
"6174","[30-04-2015]","1","2","[dac97cdd852da381158dcc9f275181b7932ee987, 6e42304cf6be92c462dabd0cc48e5e08fe4435bb]","2","1","2","12","[app/models/broker_role.rb, app/models/consumer_role.rb]","[app/controllers/employers/employer_profiles_controller.rb, app/models/forms/employer_candidate.rb, app/models/forms/employer_fields.rb, app/models/forms/fein_field.rb, app/views/employers/employer_profiles/_employer_search_form.html.erb, app/views/employers/employer_profiles/_remote_search_form.html.erb, app/views/employers/employer_profiles/_search_fields.html.erb, app/views/employers/employer_profiles/_welcome_msg.html.erb, app/views/employers/employer_profiles/new.html.erb, app/views/employers/employer_profiles/search.html.erb, app/views/employers/employer_profiles/welcome.html.erb, app/views/shared/_employer_profile_fields.html.erb]","0.0","0.0","4.2.0","0","[]","0","0","[]","[goto, a, present?, sleep, click, text_field, rand, set, input, element, present?, visible?, be_truthy, password, text, sleep, a, click]","","[]","","0","0.213 seconds","false","2","12","[app/models/broker_role.rb, app/models/consumer_role.rb]","[app/controllers/employers/employer_profiles_controller.rb, app/models/forms/employer_candidate.rb, app/models/forms/employer_fields.rb, app/models/forms/fein_field.rb, app/views/employers/employer_profiles/_employer_search_form.html.erb, app/views/employers/employer_profiles/_remote_search_form.html.erb, app/views/employers/employer_profiles/_search_fields.html.erb, app/views/employers/employer_profiles/_welcome_msg.html.erb, app/views/employers/employer_profiles/new.html.erb, app/views/employers/employer_profiles/search.html.erb, app/views/employers/employer_profiles/welcome.html.erb, app/views/shared/_employer_profile_fields.html.erb]","0","[]","0.0"
"6240","[19-04-2015, 20-04-2015]","1","2","[a8eb3a60ddfe498000af793ab987ebd4c6144242, 97b9b3a51c3d9703982d57a2888d1bde6e09125e]","2","14","28","2","[app/controllers/consumer/employee_roles_controller.rb, app/controllers/employers/employer_profiles_controller.rb, app/controllers/employers/family_controller.rb, app/controllers/employers/welcome_controller.rb, app/controllers/people_controller.rb, app/controllers/welcome_controller.rb, app/models/broker_agency_profile.rb, app/models/broker_role.rb, app/models/carrier_profile.rb, app/models/employee_role.rb, app/models/employer_profile.rb, app/models/user.rb, app/views/consumer/employee_roles/_remote_search_form.html.haml, app/views/consumer/employee_roles/_search_fields.html.erb, app/views/consumer/employee_roles/_welcome_msg.html.erb, app/views/consumer/employee_roles/match.html.erb, app/views/consumer/employee_roles/no_match.html.haml, app/views/consumer/employee_roles/search.html.haml, app/views/consumer/employee_roles/welcome.html.haml, app/views/devise/sessions/new.html.erb, app/views/devise/shared/_links.html.erb, app/views/employers/employer_profiles/new.html.erb, app/views/shared/_benefit_group_fields.html.erb, app/views/shared/_employer_profile_fields.html.erb, app/views/shared/_error_messages.html.erb, app/views/shared/_plan_year_fields.html.erb, app/views/shared/_relationship_benefit_fields.html.erb, app/views/welcome/index.html.erb]","[app/views/plan_shopping/_plan_details.html.erb, app/views/plan_shopping/_plan_filters.html.erb]","0.0","0.0","4.2.0","1","[]","16","20","[app/controllers/consumer/employee_roles_controller.rb, app/controllers/employers/employer_profiles_controller.rb, app/controllers/employers/welcome_controller.rb, app/controllers/welcome_controller.rb, app/views/consumer/employee_roles/_remote_search_form.html.haml, app/views/consumer/employee_roles/_search_fields.html.erb, app/views/consumer/employee_roles/_welcome_msg.html.erb, app/views/consumer/employee_roles/match.html.erb, app/views/consumer/employee_roles/no_match.html.haml, app/views/consumer/employee_roles/search.html.haml, app/views/consumer/employee_roles/welcome.html.haml, app/views/devise/sessions/new.html.erb, app/views/devise/shared/_links.html.erb, app/views/employers/employer_profiles/new.html.erb, app/views/shared/_benefit_group_fields.html.erb, app/views/shared/_employer_profile_fields.html.erb, app/views/shared/_error_messages.html.erb, app/views/shared/_plan_year_fields.html.erb, app/views/shared/_relationship_benefit_fields.html.erb, app/views/welcome/index.html.erb]","[page, have_content, sign in, goto, a, present?, sleep, click, text_field, rand, set, input, element, present?, visible?, be_truthy, visible?, be_truthy, text_field, p, div, p, span, checkboxes, button, divs, select, count, strongs, eq, text, strong, each]","","[]","[new_confirmation, new_password, new_registration, new_unlock, omniauth_authorize, welcome_consumer_employee_index]","6","0.746 seconds","false","28","2","[app/controllers/consumer/employee_roles_controller.rb, app/controllers/employers/employer_profiles_controller.rb, app/controllers/employers/family_controller.rb, app/controllers/employers/welcome_controller.rb, app/controllers/people_controller.rb, app/controllers/welcome_controller.rb, app/models/broker_agency_profile.rb, app/models/broker_role.rb, app/models/carrier_profile.rb, app/models/employee_role.rb, app/models/employer_profile.rb, app/models/user.rb, app/views/consumer/employee_roles/_remote_search_form.html.haml, app/views/consumer/employee_roles/_search_fields.html.erb, app/views/consumer/employee_roles/_welcome_msg.html.erb, app/views/consumer/employee_roles/match.html.erb, app/views/consumer/employee_roles/no_match.html.haml, app/views/consumer/employee_roles/search.html.haml, app/views/consumer/employee_roles/welcome.html.haml, app/views/devise/sessions/new.html.erb, app/views/devise/shared/_links.html.erb, app/views/employers/employer_profiles/new.html.erb, app/views/shared/_benefit_group_fields.html.erb, app/views/shared/_employer_profile_fields.html.erb, app/views/shared/_error_messages.html.erb, app/views/shared/_plan_year_fields.html.erb, app/views/shared/_relationship_benefit_fields.html.erb, app/views/welcome/index.html.erb]","[app/views/plan_shopping/_plan_details.html.erb, app/views/plan_shopping/_plan_filters.html.erb]","0","[]","0.0"
"6139","[07-05-2015, 08-05-2015, 09-05-2015, 10-05-2015, 11-05-2015]","5","35","[882091a05dade506cd31f48b146addc697ee0446, c4e0d6c7091db332cb22b61240b217f738d43876, 900b6fa3d0929c2155d734cfc591025e87468042, 02c165916498af7253d7bfcc861d61cd28d4c378, c0ba120e2c110f446c0c59c9308f90d8ae157657, c79c09496163bbd3ed8b2c35428b973fbe49fc1d, 1b0b8198b19404122b26653b71bff7bdbe17c2f6, 07a2077ef49e8bccab586468c01c82ada4e9920c, 2db7e911e482c783ba9af4909fe489b1ad5de18f, b6d1822834bcd82ff62a5e8bb634aea9b0327119, 99468d949c4b85ebe9f22ba40baa08a7c97d6f59, 4a3541fb83dac2d6011b9daf146b66dfadf28702, a21b618f1deb7f723ab77fcaf9f00cda9e453a53, 4afc50810609f99818a100507fad626eb5b6728e, 1c2965b5c3250d0139f22107abfc327240cc0747, bff1c4d4cf4318a7736c30bf20a89376014e47ff, 40874de04b6680e5f95e8924fda2c48b6a9707da, a60f413bb4f923d8e167b6e27fb9b32b4fc6c224, 7f74346842b5a136a2e6a06e4355ac19c84b0cc5, 732b715c2604438bbdb1fe7dcf44cd3a8cc8098a, 6e83233a6c217216064fe63f9ceb4ae7fe536e07, ca1efc8e95df901070dd8bb471956b9973b64c07, 51619d9ca45a6c345ce93d050409bbd21d14883a, b32984698911c9a86935a2b434c001b7b5caf728, c782236539ef59ed27fb9ecc3f382f5d155b6f1f, 8873c6d45672ca1e1adddc16d16dfb00387f58ad, 7dcd2b757ab7f470c72c116df2fb0eec03e13875, 9c19ced8d86cd8817a734a94a555ad4fba2b04e5, 6a62009312a8c4ba9adb403ff533243cd2e3a0af, d647c300b189ee92e81ca4caa9f46b7e617fc658, 9c76fb64a759cc4785edb87f2f97235ded86569f, 385be066a60a9cb1bb688baf27ac0e472a88a360, 9449cddba049c62a0f1485d10c41a935c4acce6c, cf1df909f1f07f06d00ee867b5d1ded49e7f9fce, 9967762bc319470ff70d9cb19f2f1d08d351c518]","1","23","5","29","[app/models/broker_agency_profile.rb, app/models/broker_role.rb, app/models/carrier_profile.rb, app/models/email.rb, app/models/employer_profile.rb]","[app/controllers/consumer/employee_dependents_controller.rb, app/controllers/consumer/employee_roles_controller.rb, app/controllers/employers/employer_profiles_controller.rb, app/controllers/employers/family_controller.rb, app/controllers/employers/people_controller.rb, app/controllers/group_selection_controller.rb, app/controllers/people_controller.rb, app/models/coverage_household.rb, app/models/employer_census/employee_family.rb, app/models/factories/enrollment_factory.rb, app/models/family.rb, app/models/forms/employer_candidate.rb, app/models/hbx_enrollment.rb, app/models/household.rb, app/models/person.rb, app/models/plan_year.rb, app/views/consumer/employee_dependents/index.html.erb, app/views/consumer/employee_roles/_welcome_msg.html.erb, app/views/employers/employer_profiles/_employer_search_form.html.erb, app/views/employers/employer_profiles/_welcome_msg.html.erb, app/views/employers/family/_address_fields.html.erb, app/views/employers/family/_form.html.erb, app/views/employers/family/_member_fields.html.erb, app/views/group_selection/create.html.erb, app/views/group_selection/new.html.erb, app/views/plan_shopping/thankyou.html.erb, app/views/shared/_benefit_group_assignment_fields.html.erb, app/views/shared/_census_dependent_fields.html.erb, app/views/shared/_relationship_benefit_fields.html.erb]","0.0","0.0","4.2.0","0","[]","0","0","[]","[goto, a, wait_until_present, click, text_field, rand, set, input, element, wait_until_present, visible?, be_truthy, visible?, be_truthy, text_field, p, dd, p, span, as, input, img, wait_while_present, to_i, li, exist, not_to, raise, form, a, span, nil?, screenshot, save]","","[app/views/consumer/employee_dependents/group_selection.html.erb]","","0","0.296 seconds","false","5","29","[app/models/broker_agency_profile.rb, app/models/broker_role.rb, app/models/carrier_profile.rb, app/models/email.rb, app/models/employer_profile.rb]","[app/controllers/consumer/employee_dependents_controller.rb, app/controllers/consumer/employee_roles_controller.rb, app/controllers/employers/employer_profiles_controller.rb, app/controllers/employers/family_controller.rb, app/controllers/employers/people_controller.rb, app/controllers/group_selection_controller.rb, app/controllers/people_controller.rb, app/models/coverage_household.rb, app/models/employer_census/employee_family.rb, app/models/factories/enrollment_factory.rb, app/models/family.rb, app/models/forms/employer_candidate.rb, app/models/hbx_enrollment.rb, app/models/household.rb, app/models/person.rb, app/models/plan_year.rb, app/views/consumer/employee_dependents/index.html.erb, app/views/consumer/employee_roles/_welcome_msg.html.erb, app/views/employers/employer_profiles/_employer_search_form.html.erb, app/views/employers/employer_profiles/_welcome_msg.html.erb, app/views/employers/family/_address_fields.html.erb, app/views/employers/family/_form.html.erb, app/views/employers/family/_member_fields.html.erb, app/views/group_selection/create.html.erb, app/views/group_selection/new.html.erb, app/views/plan_shopping/thankyou.html.erb, app/views/shared/_benefit_group_assignment_fields.html.erb, app/views/shared/_census_dependent_fields.html.erb, app/views/shared/_relationship_benefit_fields.html.erb]","0","[]","0.0"
"6146","[07-05-2015]","1","3","[52d088dbd912e3a5309d096a3ce5dcbf8cc12e6e, 7996d79a66dadb8106d6ff2cefdd7c3a981f3578, 89435f8ff4b5c71718eb56035a3f5893c4b5fe29]","1","7","9","7","[app/models/broker_agency_profile.rb, app/models/broker_role.rb, app/models/consumer_role.rb, app/models/employee_role.rb, app/models/forms/employee_dependent.rb, app/models/forms/employee_role.rb, app/models/hbx_enrollment.rb, app/models/organization.rb, lib/object_builders/broker_role_builder.rb]","[app/controllers/employers/employer_profiles_controller.rb, app/controllers/employers/people_controller.rb, app/models/person.rb, app/views/employers/employer_profiles/_employer_form.html.erb, app/views/employers/employer_profiles/_search_fields.html.erb, app/views/employers/employer_profiles/show.html.erb, app/views/employers/people/_search_fields.html.erb]","0.0","0.0","4.2.0","0","[]","0","0","[]","[goto, a, present?, sleep, click, input, build_person, text_field, set, password, text, be_truthy, sleep, a, visible?, click, text_field, set, button, fire_event, present?, build_employer_profile, fein, select_list, entity_kind, select_value]","","[]","","0","0.320 seconds","false","9","7","[app/models/broker_agency_profile.rb, app/models/broker_role.rb, app/models/consumer_role.rb, app/models/employee_role.rb, app/models/forms/employee_dependent.rb, app/models/forms/employee_role.rb, app/models/hbx_enrollment.rb, app/models/organization.rb, lib/object_builders/broker_role_builder.rb]","[app/controllers/employers/employer_profiles_controller.rb, app/controllers/employers/people_controller.rb, app/models/person.rb, app/views/employers/employer_profiles/_employer_form.html.erb, app/views/employers/employer_profiles/_search_fields.html.erb, app/views/employers/employer_profiles/show.html.erb, app/views/employers/people/_search_fields.html.erb]","0","[]","0.0"
"6201","[25-04-2015, 26-04-2015]","2","3","[507421b71753d6458245053241405e122b9002ba, 0ca7e2fed7c194d16c739d5c8c2ee9a27b463003, 6713a8af13c6a05571acf2b5e70f13d46b508cc7]","1","6","9","4","[app/models/address.rb, app/models/broker_agency_profile.rb, app/models/broker_role.rb, app/models/carrier_profile.rb, app/models/consumer_role.rb, app/models/employee_role.rb, app/models/employer_profile.rb, app/models/phone.rb, app/models/plan.rb]","[app/views/consumer/employee_roles/_welcome_msg.html.erb, app/views/employers/employer_profiles/my_account/_benefits.html.erb, app/views/employers/employer_profiles/my_account/_employee_families.html.erb, app/views/shared/_reference_plans_list.html.erb]","0.0","0.0","4.2.0","0","[]","0","0","[]","[goto, a, present?, sleep, click, input, text_field, set, password, text, be_truthy, text_field, present?, sleep, set, select_list, option, select_value, button, click, a, visible?, text, radio, set?, be_falsey, input, visible?, be_falsey, fire_event, refresh, be_truthy, select_list, id, select_value, radio, fire_event]","","[]","","0","0.534 seconds","false","9","4","[app/models/address.rb, app/models/broker_agency_profile.rb, app/models/broker_role.rb, app/models/carrier_profile.rb, app/models/consumer_role.rb, app/models/employee_role.rb, app/models/employer_profile.rb, app/models/phone.rb, app/models/plan.rb]","[app/views/consumer/employee_roles/_welcome_msg.html.erb, app/views/employers/employer_profiles/my_account/_benefits.html.erb, app/views/employers/employer_profiles/my_account/_employee_families.html.erb, app/views/shared/_reference_plans_list.html.erb]","0","[]","0.0"
"6222","[23-04-2015]","2","3","[67e2914726cd3c0cf0034cf3601d8a7e8149f467, 12a334fabd45186bc1e21c1af4c954d011e9297a, 8f571dc38f35bb5482228590f80603fb351bb21b]","1","11","9","10","[app/models/address.rb, app/models/broker_agency_profile.rb, app/models/broker_role.rb, app/models/carrier_profile.rb, app/models/consumer_role.rb, app/models/employee_role.rb, app/models/employer_profile.rb, app/models/phone.rb, app/models/plan.rb]","[app/controllers/employers/family_controller.rb, app/models/employer_census/employee_family.rb, app/views/employers/employer_profiles/_employer_menu.html.erb, app/views/employers/employer_profiles/new.html.erb, app/views/layouts/_header.html.erb, app/views/people/_form.html.erb, app/views/shared/_benefit_group_fields.html.erb, app/views/shared/_employer_profile_fields.html.erb, app/views/shared/_plan_year_fields.html.erb, app/views/shared/_relationship_benefit_fields.html.erb]","0.0","0.0","4.2.0","0","[]","0","0","[]","[goto, a, present?, sleep, click, input, text_field, set, password, text, be_truthy, text_field, present?, sleep, set, select_list, select_value, id, button, click, a, visible?, text, radio, set?, be_falsey, input, visible?, be_falsey, fire_event]","","[]","","0","0.476 seconds","false","9","10","[app/models/address.rb, app/models/broker_agency_profile.rb, app/models/broker_role.rb, app/models/carrier_profile.rb, app/models/consumer_role.rb, app/models/employee_role.rb, app/models/employer_profile.rb, app/models/phone.rb, app/models/plan.rb]","[app/controllers/employers/family_controller.rb, app/models/employer_census/employee_family.rb, app/views/employers/employer_profiles/_employer_menu.html.erb, app/views/employers/employer_profiles/new.html.erb, app/views/layouts/_header.html.erb, app/views/people/_form.html.erb, app/views/shared/_benefit_group_fields.html.erb, app/views/shared/_employer_profile_fields.html.erb, app/views/shared/_plan_year_fields.html.erb, app/views/shared/_relationship_benefit_fields.html.erb]","0","[]","0.0"
