"Repository","https://github.com/sameersharma25/time_stack.git"
"TASK","HASH","RUBY","RAILS","COVERAGE","TESTS"
"72","ac2e3c0f70e3f16d5d068da54ab8ecbc9ace279c","2.3.0","5.0","","features/ability_cm.feature(9);features/ability_cm.feature(68);features/ability_cm.feature(105);features/ability_cm.feature(118);features/ability_cm.feature(145);features/ability_cm.feature(170);features/ability_adhoc_pm.feature(3);features/ability_pm.feature(11);features/ability_user.feature(9)"
"98","06ded3b38070d2e86b59d669fdfb8d02ffc34b98","2.3.0","5.0","","features/ability_cm.feature(65);features/ability_pm.feature(80);features/ability_pm.feature(99);features/ability_user.feature(17);features/ability_user.feature(43)"
"100","3c00c7dd07025ccb98b2aa8834ed3a558e014d23","2.3.0","5.0","","features/ability_cm.feature(92);features/ability_pm.feature(126)"
"125","9c568501d34df43cbd8349e055e4f2dcac899629","2.3.0","4.2.5","","features/ability_pm.feature(11);features/ability_pm.feature(21);features/ability_pm.feature(45);features/ability_pm.feature(56);features/ability_cm.feature(9);features/ability_cm.feature(19);features/ability_cm.feature(27);features/ability_cm.feature(39);features/ability_cm.feature(53)"
"129","b8462db8015f07ca947475500b80a84beb567c72","2.3.0","4.2.5","","features/ability_cm.feature(3);features/ability_cm.feature(9);features/ability_cm.feature(17);features/ability_pm.feature(3);features/ability_pm.feature(11);features/ability_pm.feature(19)"
"130","0a1c3abbc0ca0274792dad3f6ab534773d47d83a","2.3.0","4.2.5","","features/ability_pm.feature(3);features/ability_pm.feature(11);features/ability_pm.feature(19)"
"136","439d978327fedb58257a7038d23bfd82b52d49b2","2.3.0","4.2.5","","features/ability_pm.feature(3);features/ability_pm.feature(15);features/projects.feature(13);features/projects.feature(28);features/projects.feature(43)"
"145","ec1ce9ed5942dcd59abd7625b531ee95f4fe953d","2.3.0","4.2.5","","features/projects.feature(4);features/tasks.feature(3)"
