"Repository","https://github.com/diaspora/diaspora.git"
"TASK","HASH","RUBY","RAILS","COVERAGE","TESTS"
"2188","3b8734536557128d337e114fbbde0ee284256223","","3.0.11","","features/participate_stream.feature(3)"
"2210","0e0d40d00e523e34131d4a680e8627f5442a1fd1","","3.0.11","","features/notifications.feature(59);features/comments.feature(13);features/comments.feature(23);features/comments.feature(33);features/comments.feature(43)"
"2259","5e65c88bd85ba6ad96ca34228ea9425fc2c7204a","","3.0.11","","features/closes_account.feature(7);features/closes_account.feature(21);features/comments.feature(43);features/connects_users.feature(86);features/connects_users.feature(94);features/follows_tags.feature(30);features/follows_tags.feature(35);features/manages_aspects.feature(15);features/manages_aspects.feature(35);features/notifications.feature(11);features/notifications.feature(25);features/notifications.feature(42);features/notifications.feature(59);features/notifications.feature(77);features/posts_from_main_page.feature(70);features/posts_from_main_page.feature(178);features/edits_profile.feature(3);features/stops_following_users.feature(28);features/change_email.feature(4);features/change_password.feature(4)"
"2267","aac97303ceae3892fc3fd3599a9e96ef94e36100","","3.0.11","","features/notifications.feature(11);features/notifications.feature(25);features/notifications.feature(42);features/notifications.feature(59);features/notifications.feature(77)"
"2285","8f8769aab58f82e9cd364aa0fb416dfe183fffc2","","3.0.11","","features/closes_account.feature(7);features/closes_account.feature(22);features/closes_account.feature(32);features/closes_account.feature(43)"
"2371","b0d6139beda23cd85904315c4091bb2b8a1d68f3","","3.0.10","","features/accepts_invitation.feature(3);features/accepts_invitation.feature(21);features/follows_tags.feature(37);features/signs_up.feature(16);features/signs_up.feature(25);features/reshare.feature(12)"
"2375","dc742845c94b75a5ce38bebfe445179da4b0fdcf","","3.0.10","","features/photos.feature(13);features/accepts_invitation.feature(3);features/accepts_invitation.feature(20);features/manages_aspects.feature(22);features/manages_aspects.feature(45);features/signs_up.feature(16);features/signs_up.feature(24);features/stops_following_users.feature(28)"
"2378","7307960d8262075cc581477ab1f2d32e849bc99e","","3.0.10","","features/change_password.feature(4);features/accepts_invitation.feature(3);features/accepts_invitation.feature(27);features/notifications.feature(44);features/reshare.feature(28);features/reshare.feature(50);features/reshare.feature(80);features/reshare.feature(96);features/reshare.feature(120);features/signs_up.feature(19);features/signs_up.feature(33);features/logs_in_and_out.feature(3);features/logs_in_and_out.feature(19)"
"2382","ddd152505eb45666d5cc471f3d33026b6657e053","","3.0.10","","features/reshare.feature(28);features/reshare.feature(46);features/reshare.feature(73);features/reshare.feature(86);features/reshare.feature(107);features/posts_from_main_page.feature(153);features/posts_from_main_page.feature(168)"
"2390","8ffbf59f4100350735e8b7b09213187870469b95","","3.0.10","","features/mentions_from_profile_page.feature(21)"
"2392","4896d056c7fa4990501afc33373a8124255c31ad","","3.0.10","","features/connects_users.feature(26)"
"2405","9d393d0b594a7d473838fe5e72bae3663366c609","","3.0.10","","features/tags.feature(14);features/change_email.feature(4);features/change_password.feature(4);features/closes_account.feature(7);features/closes_account.feature(21);features/logs_in_and_out.feature(12);features/manages_aspects.feature(74);features/manages_aspects.feature(91);features/stops_following_users.feature(28);features/oembed.feature(13);features/oembed.feature(21);features/oembed.feature(30);features/oembed.feature(39);features/oembed.feature(47)"
"2410","6ff2bdd300c7b3f078b9ce2beac0cbd3f6497a75","","3.0.10","","features/aspect_navigation.feature(11);features/aspect_navigation.feature(16);features/mentions_from_profile_page.feature(40);features/notifications.feature(13);features/notifications.feature(26);features/notifications.feature(45);features/posts_from_main_page.feature(25);features/posts_from_main_page.feature(40);features/posts_from_main_page.feature(55);features/posts_from_main_page.feature(102);features/posts_from_main_page.feature(121);features/posts_from_main_page.feature(134);features/infinite_scroll.feature(13);features/comments.feature(58);features/stops_following_users.feature(28)"
"2414","11d607d2b7684c4c7e98f18b1738ca98e8e63a94","","3.0.10","","features/manages_aspects.feature(22);features/manages_aspects.feature(45)"
"2421","be2ec463227df62a4a65af15bcb00c48c6f16c0f","","3.0.10","","features/comments.feature(23);features/comments.feature(33)"
"2422","34e90270aec266bd060f2151f76509fc36f32644","","3.0.10","","features/mentions_from_profile_page.feature(21)"
"2425","6ac0a46120cd3f9d36f755194438a050e18f6811","","3.0.10","","features/infinite_scroll.feature(13);features/infinite_scroll.feature(43);features/mobile.feature(8)"
"2430","e8c7b570a9c9f94375b10da257e33d4d5bd6612c","","3.0.10","","features/connects_users.feature(95);features/infinite_scroll.feature(43)"
"2431","4f17dbf36ed97d1371337a81836244b79a70627c","","3.0.10","","features/posts_from_main_page.feature(21);features/posts_from_main_page.feature(28);features/posts_from_main_page.feature(46);features/posts_from_main_page.feature(61);features/posts_from_main_page.feature(127)"
"2432","f9172c87332fb34695eeb0ad4585608e27ec76b9","","3.0.10","","features/logs_in_and_out.feature(12);features/accepts_invitation.feature(3);features/accepts_invitation.feature(27);features/signs_up.feature(19)"
"2433","3a9d8f0f385e868235113423a9d4d53e79077d8a","","3.0.10","","features/follows_tags.feature(22)"
"2487","9d7b8d7f5db10bfb85201e1a9649d3d10e0f5b55","","3.0.9","","features/photos.feature(13);features/photos.feature(29);features/photos.feature(47)"
