[path:/features/step_definitions/basic_steps.rb, methods:[98, 170, 185, 261, 244, 286, 281, 272, 106, 219, 225, 201]]
[path:/features/step_definitions/form_section_steps.rb, methods:[12, 54, 50, 20, 25, 30, 41]]
[path:/features/step_definitions/more_web_steps.rb, methods:[29, 36, 46, 50, 58, 54]]
[path:/features/step_definitions/web_steps.rb, methods:[13, 25, 235, 37, 21, 141, 267, 109, 17, 180]]
[path:/features/support/paths.rb, methods:[[name:path_to, step:Then ]]]
