"REPO_URL","TASK_ID","#HASHES","HASHES","#PROD_FILES","#TEST_FILES","LAST"
"https://github.com/otwcode/otwarchive.git","1539","2","[3f2971515907744ee632544aafe29fdb0c6e80cc, 29ce0b6da3fc3791411dfb8c08cff4a7574f220d]","2","1","3f2971515907744ee632544aafe29fdb0c6e80cc","faf44a8c45bbdc7f33b391137741010863a9a537","07f42a2f45e6507ddba4f6ba8c3cf5ac1d47bc86"
"https://github.com/otwcode/otwarchive.git","1542","6","[b5b65c83abbba1fff54b1b5035e7ca66ec58585e, 0be8af1903d3595ddfc9c88160bf96b57549433c, 78d989a438a0510abbd27d639d6d7641762500ce, 135eac34b96f9671354e6342ecbd59d0e5533592, d1d055c8a5f8101bb31fe18eb61ce6a6d8514413, 61475e5d17859eba31c51d2f2f12caab18e3b54f]","4","1","b5b65c83abbba1fff54b1b5035e7ca66ec58585e","c26f522cac60dd4c980b405beda53f47a36f2be8","85e16434a8a5c2c23e9d16140dd14d3d438fedb8"
"https://github.com/otwcode/otwarchive.git","1549","2","[0008bf9e717cc68f43ad478e8dcb5824d08b83a1, 1ef5842b599f05e64319dec2f472953b0c6041e5]","1","1","0008bf9e717cc68f43ad478e8dcb5824d08b83a1","f81d65c219f5098fc8ae335aa5df1948e14b5044","22a02c9801af071397551ce319f40c0cf161d90a"
"https://github.com/otwcode/otwarchive.git","1551","6","[328c176612d00327d73a2d67aa9670d4128f8a4f, dc940d32622239860bc0dbdd5b48de75a019c80a, 7ce852770a9c4025b67e0cb51faf6bbe580c31ec, 7f9e944599279a6b215c55c5944e27e738adb102, 4bfd76fb2eb33c913da7d251a673884e23dc6cdf, 95018a51ceada1a1635ec2634ebcdeef6667c7f6]","3","1","328c176612d00327d73a2d67aa9670d4128f8a4f","22a02c9801af071397551ce319f40c0cf161d90a","12e78648728a131dd01f9a2e81bc0a1e8d5b21d8"
"https://github.com/otwcode/otwarchive.git","1555","7","[3e890314077f301a2bdbd5950016f353bc446d90, b83b6ec59d15a8ff43f2a876e39feb44ba81cd55, 9689b4620f0d63d39a3ee8d7405a0d491b70c85b, efa560a382213112e0093adbb7d93c54d8cfe870, 0bc99fabf62e77e103c996384c34ffa7dbc20175, 170fe66369075c3ab2ec07a888935f55477ead12, d9ffe50b9bf086c20cfd10a898e2e4fa0778ee02]","2","1","3e890314077f301a2bdbd5950016f353bc446d90","9d60523b46c9cdd04ec28be22b80a6ab6274b46d","85e16434a8a5c2c23e9d16140dd14d3d438fedb8"
"https://github.com/otwcode/otwarchive.git","1564","2","[c0f59b8432a639c655979ab0c8310da7be5121ab, 9cbda7ca22b951f41825b5ac01d4515808848382]","1","1","c0f59b8432a639c655979ab0c8310da7be5121ab","5040b8712c9510f3554bd4873d4347d30b9980bc","529bcf570f7b2891af82bc8ec2816b6760926599"
"https://github.com/otwcode/otwarchive.git","1566","2","[6f14e1d8951a83ffe52cc8107d8c01d5c17a4cd7, 486cc7232ff25f36160fea48ed950f332365b76b]","1","1","6f14e1d8951a83ffe52cc8107d8c01d5c17a4cd7","d20a21790948df45a24ee23046e28bcfcb789cfb","63cf9a4fe6c69b49d49f1821f385e5947e90ee62"
"https://github.com/otwcode/otwarchive.git","1580","2","[d315026fe7eb4dd4b67fd30a3aae07a8351a0c7b, d6e085d205009d2919830ec3a66cbfe76875c1e3]","3","1","d315026fe7eb4dd4b67fd30a3aae07a8351a0c7b","e5b9bc7e70c538768ed373297a96af28ee848524","302fb5e91f1839d08b294be3c1acfb52182b5d78"
"https://github.com/otwcode/otwarchive.git","1595","8","[cfe3468e416375327fe0dc652ad14ad7129965c2, 889f977add1729c9115e4564a107892af683fcc1, 4bb51d2b8815efa083cec6064a21c257e2081c96, f8e58f5b54bb3b06da95d76834e156b21d160639, ee9abeb125721b80f06543be40f5eec8c54e4b91, 50195d93ee5339fcb25b4f7823f6910c70cc9cb7, 7014d387ca5713c008461aeabf3e56a20f3eaee2, 05c7a72f2fa31b7aa268e97664202215ede6b260]","3","7","cfe3468e416375327fe0dc652ad14ad7129965c2","df9fe4adb513c8e27fc66af263c03f0ea8a1b8e5","6bde3ee5bdccd3885d738a8e5262d7ec94107ef8"
"https://github.com/otwcode/otwarchive.git","1601","8","[acecf5e469694c3df38ec0d1ca8c4c5b7965b4fb, 8fe1a85e7b40cd51c890c46e8f6d7428f3354853, 641a4da1b9b6501192a9415cfb8473a2298b98ea, f4c26826de55a762820fe5dd8f35d8b242868254, 540c2573cc461977265f61fd213644be58422705, 9bb03c00ed8c8ee8d60df7d0c35e37d61782f4ec, 18894e4ad652df8ef1688382830c1d8de35bd672, 37b787ebc6c2b068b8d3b48d61de2c84b63b1df7]","1","6","acecf5e469694c3df38ec0d1ca8c4c5b7965b4fb","497ded662c95c528d5e481833a24e02b5b0c889f","41de1a6de76581b2c5ab099f00dde090e9f742fa"
"https://github.com/otwcode/otwarchive.git","1609","9","[9dc4e7696eaca91e6465ff7fe3822a0e551d2134, d90293638854bcfdfef93fe6aac5674e53437486, 1921f0b15dffb15651d6b82bd22013e274b4b5d7, fb4caaf2e00bb398994657a780da22c243738673, 5696cbea399fa7c01abe91e92ccdde1a0e57ef36, 1ecb2fcdb5c7d8c5e7f82b68e65b8b01a64eba04, 6c0dd29f4a9a73c5438cc49bee2a0ce96f3f5cf7, 55cbf96ccd8b5f5bdaa3dab0df220b8f5097ba91, 9b394cccc4dd29e1c79138ba588195fc633ce575]","2","4","9dc4e7696eaca91e6465ff7fe3822a0e551d2134","cc2e90dee5de7d53f61f307ae935d9d50b605e22","6809f477d5e12bf3bb452dca5084e12007146626"
"https://github.com/otwcode/otwarchive.git","1612","11","[78dea385220b2fc100de7264cc3e68329612c8d1, bfc7470cae3eb1aff110c1eb5b54999476f2f305, 755f03c610dfa858d0196eb68112c7b14a1fdf7d, 060b3e60f28ef7a4c52601263d8d7252dc28bfe6, 105b81d6e86dda82c02f9e657a64786ed156c5a7, 1c745c4109c640e4d1296b29bd42cba132a23b08, 1882d973266589184874127bd0a1ed47acbf5639, 69c42c0c9fa781d04d2c31a0c3973e401f23b8dc, 3031bb9bcf7d43ba5c64842b046cc130e17421ea, 94e3ea59807012fa70f76348e0eede240fef6a19, aa39f60d9e575833d63b4f5b92b5bc0abaa20381]","3","14","78dea385220b2fc100de7264cc3e68329612c8d1","0b44e0256345c133f3e9c6c33fa09de756353ba3","a563e31d43cac3010a92a73fc8528e74dcecd089"
"https://github.com/otwcode/otwarchive.git","1617","1","[27067a6f761b76bee3da845fbec910515836aff3]","1","1","27067a6f761b76bee3da845fbec910515836aff3","6d2e6b71c6d229d564553b48cb11bffa0295d14a","a563e31d43cac3010a92a73fc8528e74dcecd089"
"https://github.com/otwcode/otwarchive.git","1636","3","[96cbaf7994b33c7a7db40420ef899fb26570c7bf, 292a5c7bdfd10350c45ddf6b5ce937d5a18fc86a, cf4cc65bc60a1992a62af6b5ba96df3049cb4240]","1","2","96cbaf7994b33c7a7db40420ef899fb26570c7bf","43530b0aa6a86c27bfce0799f62073c0077be082","da1a0d9406d6f8081d23b161fd27781f4b47929a"
"https://github.com/otwcode/otwarchive.git","1647","18","[b4433f1bb79b8a80125fd6337e370cd418bc451c, e05f754de9e3e9f44a462692a80424d6eef4b701, fe6d57b97520da9e239158f0d9f572bcfa717566, 2e7c9e79dde7b7713d542bbb61d741da26d66882, d8a1de24f0fa66f1030e8ee80dd55d6253085ec8, 9293fe5698e2ac8dda8b486e271bf3f43408ce2c, f0ad0e0282099a80c6c7fa197207f236b43df723, f64862fd3473e4db5fbe5f6c6924d600412dcc78, 682d9c9e3323c899daa10e1a25a824ddb8d83d00, 444289c68ea4075c0ee0ad1e015936d314d1f01b, 1b15af70ae286f814d63a977b9c7bdd9ffd2058e, 3741ccabd0ec9aeff4190d8dd44806e4e9da348c, 179ccb63fc546eccd1e14d70ab55bb5e6b7b6231, ee13c7f94ea32ffe1a722ac37bc9899d7b2b576d, 1fa21fe059e1af62de697b2af3ec2947c0a1d7e2, 8c53254483956f1eb6c31165a732554b47ce1cc6, 20f9f9489c6a8820e0382008013d4b14ee31dd46, 645ce045d5459afd9428f63310d482a446521db3]","10","129","b4433f1bb79b8a80125fd6337e370cd418bc451c","f332b5527800623816ad98db4ad0b302d34d03e3","2414a651f17d099b2a543764e14307dcbf915747"
"https://github.com/otwcode/otwarchive.git","1704","1","[4d0d8d2ffdb570e9ef23e8f923923524ef9d6a79]","2","9","4d0d8d2ffdb570e9ef23e8f923923524ef9d6a79","4627a21964eb7266a783f0d7acf76f2ccbcb37a9","6c24985623b5fd71c5748b995fc49709235cd524"
"https://github.com/otwcode/otwarchive.git","1705","8","[9e322c75fbd3590f47db7843e10e4dcd350c832e, 019e0b8b917ed2189223329626dbf7cee72edbff, ab2b633ae7cba7de75adc2388a6286279a3dc68c, f0f1b76f31670ee09cdddf56bfbf8c2596ca3e13, 9e539024479cf422873ccade8fca0218aef19046, ac97861ced33ef71d60c498c1d7fd402c3fb6a93, a54dbdbc834bb870d39c4bf311a86567d18e1ec5, f8d94b6fb72a9730026166ccb976b6eda8b2fced]","2","9","9e322c75fbd3590f47db7843e10e4dcd350c832e","6c24985623b5fd71c5748b995fc49709235cd524","8c4eda3a152c039ff5e9e6dc0a638361be5dfbea"
"https://github.com/otwcode/otwarchive.git","1706","8","[0bec9fb66c38ea206fa6ee45eb04543265dc0a00, 839b000c842b45537b63ee95c8569bc8b9af7486, 70b331626d41cc69ce8a05f72c618dd513caf3d2, 32c3cbefd51ca96ec9e13dc3115cc82df1217c2a, f97000e27a981cfe2fa820bc1474f6890e44c518, 0eee4000defa2e74da7e115a2a4d2516307b53b2, 5d883f52fb8b74926f895ca1ce325b790570a2a7, fd9d7bf4952adf9ca2c3630e8b7bec5065ac409a]","2","9","0bec9fb66c38ea206fa6ee45eb04543265dc0a00","6c24985623b5fd71c5748b995fc49709235cd524","30da60d96cd9fcf7b389ac4d3eaf7b621313cdf2"
"https://github.com/otwcode/otwarchive.git","1707","5","[087b273c44de0dea6dc2b08bfd7013b9582f318e, ac2bcc80199f234eb6c563dbcb110fd7390a450a, d77787be600b207cdaec4e4a4baae7aaa9de6b2e, 45fa2e924513ada221645b9c58fb2c228ab4c369, c815953c65e740fbc0fc59fa0ccd21d905da7162]","4","15","087b273c44de0dea6dc2b08bfd7013b9582f318e","8c4eda3a152c039ff5e9e6dc0a638361be5dfbea","e6c4e59e33935fc98ef1a6df4c16ba613b1552c4"
"https://github.com/otwcode/otwarchive.git","1715","5","[e6c4e59e33935fc98ef1a6df4c16ba613b1552c4, 3856c7ff80c9f06dbfd7fa9735c19c8b6b62a136, 4e98c12020d213851d287643e242b3c14ba8a3e7, da96d1083f748c088fc33ac2206e412e055a8676, 67777943e18932139ad2d9a8d8b769066539ac41]","1","14","e6c4e59e33935fc98ef1a6df4c16ba613b1552c4","4527c1c16929fbe44d27345f864464315f0c2c24","3aacc8c32692ca00a43d3651544d775f0402a8f3"
"https://github.com/otwcode/otwarchive.git","1817","5","[6fe211b6841a47be8b72c5e264991a6efb1591fa, 316ca2bfd1d6b623d324a9c8f496c0f2f7974c8f, 337aeff6ca23d39c1553c73091942aa0a9f0b72c, ec119edc1cf638b01a9d3a27d50d27067f95ee42, 33da9fe21a5923949f36c1f55cfb183441f3433f]","4","3","6fe211b6841a47be8b72c5e264991a6efb1591fa","86ffef33bddf6ea9f632518ab4480346b03a9417","4f3311d078d1ed271101fe6ca1f5d9b26407be03"
"https://github.com/otwcode/otwarchive.git","1833","1","[7c18f2218aebfda5648007352cf96c2258955905]","6","2","7c18f2218aebfda5648007352cf96c2258955905","8a21cf9965bc3f23f24d9ac9760d95d6ca9219f8","c83d697790d9858ede9ae15aab536e6b2bd7eea1"
"https://github.com/otwcode/otwarchive.git","1887","10","[7dfdda47effb0e9724a095f4df67c67c2e454896, 79c9ada2d8eab1d10f513085a2c8db07695a356d, 2f5e275275580aba2a401de042ac65e9c91142e8, e94d40a2d7a202493302a1dbd1073b2added6c9b, 1e4ac21cdc12e9c907f0afdd3fa2247a2613baf2, af646b4069702e121eac655175630b187ae1d40d, 7d25cfd1e38c7e62ae47eb4857ffc7cbaf43ff68, 0680c69b79b9989f85bdf08e79b94fc3d763cea6, 73c2f3d9c6512724e1bcea0d78148411abc76ede, 2211eb264dc762eeef85d847775af583ae857d98]","12","1","7dfdda47effb0e9724a095f4df67c67c2e454896","716315df37913adbb7dfbb9d7cbc28cba3886cab","c2b1bc606ab46712b2c5068478e5c6f5e03cf1c1"
"https://github.com/otwcode/otwarchive.git","1889","3","[c2b1bc606ab46712b2c5068478e5c6f5e03cf1c1, 1d95fdf39c1ed32fbddfdbb4f6dd9846fd01c76e, 0cc7ca76499b08db21e00aa9cbae95ead15044b8]","13","1","c2b1bc606ab46712b2c5068478e5c6f5e03cf1c1","5fb2276916854ece55f31cc2d33c6a01aa13ab3c","35ff60d1091627713e312c8fe296039236d47747"
"https://github.com/otwcode/otwarchive.git","1894","15","[87fe702c4fb42af1997fd7a5e3d227c2fc6da2cd, f5f405c3dc9e415beb8e5a1981b73a52f21fe76c, d9944e36cd108a44fc0ce5e8b23890b89231f64f, f1875e2c4a9207f5f7cd0169b96cecddbebeb544, 4b8f2c037cdd3fb61e7efd0e4fd11c2686c8e9e5, f041436999edf5f3990c9e41914ab43a2a55d600, aa7863edff5b39f0deafc531267bc2a6f3b89376, 0fd7886b3e53fd7137e3d5f706305220fe69d1ff, 7a4aca10b8c744d21424c08f7956842ba9a43474, b03ae3ffcafefba7b6f46113e3498927f0cb8926, b8537a8fce6d78aeb7b2517e5e73c5bccb73bdc9, 4c5b1d3a6ce03d7751214edcd9e2d8284b4ac115, 29e81903e491ecdfd063c5bc6ff503ab2f02519a, 501797e9fe67cea708af284bdcf577b406cfc5ca, 1a0ceb570996a649389b046ba31c3f25e5ebaa42]","18","1","87fe702c4fb42af1997fd7a5e3d227c2fc6da2cd","a1f1613ddb18d0762a5de2c704a82f0ce02424c6","476d5bca9682f6efe988d0ac834611bd872e23e9"
"https://github.com/otwcode/otwarchive.git","1899","1","[034188b5400ce90302b21f5cfcb1ac3a62a3a144]","57","11","034188b5400ce90302b21f5cfcb1ac3a62a3a144","f1b033763f9e6895ed5da89ee49db9d0b158448a","b03ae3ffcafefba7b6f46113e3498927f0cb8926"
"https://github.com/otwcode/otwarchive.git","1903","1","[f9f8b3cc0c9b5c5874120167a125050d1d7b556f]","6","9","f9f8b3cc0c9b5c5874120167a125050d1d7b556f","74871410eed8c046f25dd8672b6382f9e2d3e749","37051d2c8df44e620e350f5a8e93ca014d23874a"
"https://github.com/otwcode/otwarchive.git","1954","25","[ffb19460d633537fa9ce5c48c351422b1ddaf928, 0b7249c3edf0fb9b9c91edebd4d0e3d95d7dcd5a, d11060c87c2ab4e9656fcc189b177f043d643d62, 64ae487373dba53efee06b644af6d2ca32ac294d, c38e26fcf2a4ae3cc46ecaeb4201e8bcdbda9179, 638e476b5a8ec7951352faf4132916983a9ffb60, 9ac45ca9ba4095cfc21c28cc70f6efe7ad3d76ac, 82ffad6327395a284e5a962dfe77f4004912c206, 4d66acced48a65b9e32dac112b262b67a5873791, ac506cb1757e1dbaa074d035830a83c43257848d, 2cb2e906d6c300003c1452a29d5e74f0eeb72fc2, 2a7120afcb973e3287b605b04aea85f0e0d4f401, 8d3cfffb98af7a60d114c4b1d0704c53740375fd, 73b2a560822216f7f05d28ecf81be66948c5d73a, 998b452ad29fa79a048757bc6b4fb61bead75af0, 4e1d77d5d9e93a3b03ff1b4cbd8c9ce40db4870e, 5ce66a1e43919b59f24bb49be567198f9b60fbf4, 0ec9c1f09b4b7c18264d4852e769dc8caabf1e24, 888f65b8e279479f1b68108fdcff1b1b8ea4e39d, d8817a7ce78040e6b925511ff6c494a150e7f71b, 51dd31651ce561374cb87764a92303b9fd261826, ce53c2c5550ca3337c6125e8bf7243cb10d8d53b, aefd59ef05809bd770d1021e6b7d5b2130e3b87c, c6d9b2d77126ea5f86ca88307fcd70adcfd193e4, 97c81df4d7f944a4a6f3f4daf99e9d1357df9230]","31","1","ffb19460d633537fa9ce5c48c351422b1ddaf928","b827a37681b1284d98ad96fb70a33a51b5d620ec","bdc493226e6e30d1782857569d061b7006108486"
"https://github.com/otwcode/otwarchive.git","1969","3","[b3fbf07ccc096527f5123a14f7cdb46c3146625b, 351af8955ef8b6c1b50bb55a9ff804c5074bc390, d144f700682ed52e24f53db871e87b7d5615aaf8]","2","3","b3fbf07ccc096527f5123a14f7cdb46c3146625b","b9c33da5197a42040eed2fde5c3819a6a2f9cdf7","0afe69e5e60d80dcf9c466576f5d856a21c8820f"
"https://github.com/otwcode/otwarchive.git","1987","17","[583f5c1d2b52bb285983ec4f0760df3cf7e91bff, 4b968ad5fbd6dce177ded2fa9b47c2fdba0c417f, 511299ecd0ce3630aeeeb645b838d0d8826e9503, 7d9c4842d7d652dab25e04deacc12db3a38a910b, d17c696a4608500b49091358cdd41d0bcf29a0c3, e800588cc885e44fb3d1a4e630b66503245325e8, 9b05c432c55a3d7680b36bfcca85b6f958c0847b, 81c6180d02625c3664eb8972921c5fd3913c2084, c92aed229130d29ed5c351f9cf98cee30451d9b5, 53ee7516504bc4d2b60602ba5e41dbc2c75573ef, 8b9ca52b9030499237b768b53115be76d8ee86e5, 0d0506a71d00eafa46ffc03f0c2edbbc4ea9fb30, 9bb41996df2f0041534116f1c2f762f1a0696e84, 445b7f5401943b7eeccb65cf5d4df53d1e9fb166, b848097b8db9abed8e91148b612d7ecdf30f4b25, ac0fa15638b512d1bc98df2048066b4118a840f4, 56abfbc0656c74db8463821178404de7b3fb5204]","21","1","583f5c1d2b52bb285983ec4f0760df3cf7e91bff","fed650b5461f77f844166ebf42545a91731476a7","abbfedf06395a5d54535a25b3f4da6a5aa8795d8"
