"REPO_URL","TASK_ID","#HASHES","HASHES","#PROD_FILES","#TEST_FILES","LAST"
"https://github.com/otwcode/otwarchive.git","2422","1","[83102d3f80ceeae5453eb454f4d095c9b43c2b46]","47","1","83102d3f80ceeae5453eb454f4d095c9b43c2b46","2e3e8e5660b56c599ca5a8b0e67f58da644f990c","140227ca661efd1abc469e557bb29a200a6a9fca"
"https://github.com/otwcode/otwarchive.git","2423","1","[d8a3ff16f6c5ffe8463a3210b601b5c49f79065a]","47","1","d8a3ff16f6c5ffe8463a3210b601b5c49f79065a","2e3e8e5660b56c599ca5a8b0e67f58da644f990c","4c8b25c3f44b4124e3af33c1bc62950eb32e30d8"
"https://github.com/otwcode/otwarchive.git","2424","7","[acb83c5b860caed101332d0582dc83e40720759b, bd938163312bbe3262bf6e18f7b82b5338acc38e, 65e196b2616606552d330d7243dfcb76bfb7c0e9, af60ed986111530e35526998bfd05f7ff4226188, f45c6da0fde51bfb329d7ec4796cd804879d6099, 7cfb61aaa1aee4fa99773ca7d5e2fa8b946fcd6b, 29754f481d799c02b39a935f334481c763e25d4c]","5","1","acb83c5b860caed101332d0582dc83e40720759b","140227ca661efd1abc469e557bb29a200a6a9fca","4c8b25c3f44b4124e3af33c1bc62950eb32e30d8"
"https://github.com/otwcode/otwarchive.git","2428","1","[e94cf5fa0cb802e0b09e3461cb7e80b65752ebae]","1","1","e94cf5fa0cb802e0b09e3461cb7e80b65752ebae","3a2ab9cdf59988e2ec079bee1931f51da380c488","4c8b25c3f44b4124e3af33c1bc62950eb32e30d8"
"https://github.com/otwcode/otwarchive.git","2435","7","[77933b7b678ee363d502b8b689d064f46d91ace0, a2eac21f1dcdb0a32e0933395badaa53109fa024, 847e53c8882ac61db24529a83f15f5912f092afd, 35e5248578f7df2352c0a364509581e53c5bbd96, 44314a00e0e81210ac467b8214de9e47324da83c, 06f622ec4dbcd25a496220ac00a4740d4c4427d0, 89dfa7a300004806cb2d57906d5f7e919c3d84aa]","10","2","77933b7b678ee363d502b8b689d064f46d91ace0","d2215eef234a2ad905ceecde5d9eb045105bcc8c","404d709ff4435515bd8dc889ced290cfb3f60dd6"
"https://github.com/otwcode/otwarchive.git","2436","3","[bf5da92fac62b6d288eb0393744a565f64432bda, 8ba0d9cfd126ab4e9344c70a9a056180967f0b85, f18f8b6527061de7381fe17c0009d0b790089bcb]","2","1","bf5da92fac62b6d288eb0393744a565f64432bda","d2215eef234a2ad905ceecde5d9eb045105bcc8c","baa3f2e7e11643f9cf900ada5affb0886c77c60b"
"https://github.com/otwcode/otwarchive.git","2437","8","[dee9dd8fab0425469668648983cfb9b1de757b4b, 81f70a6f7725d99c7abaaf9d44aa5d9329ff7869, 9fe9e314ed7150a0974ab5a5455cb8ce5fb3855d, d138866f56e49a5ef886840e83c5f003dbb81cc6, 6459f30bb4694951c8f8dcfc662c7e050dd99496, d30fbd5755b758df6dc5203ed875b7105795332c, 58c300d86c432a08fd9bcb6d5c9fadee8d54cb85, ad29ff888c11f7cad4d1d5ce7e2c7981b202bc2c]","99","35","dee9dd8fab0425469668648983cfb9b1de757b4b","404d709ff4435515bd8dc889ced290cfb3f60dd6","f6e02a94c8d4257321b67cae7b7f34136997c7ba"
"https://github.com/otwcode/otwarchive.git","2438","2","[a61902fcffe337dbd26eaa1b3021f79b06243310, d5762543d0896e0ff7479efc05f19e27a4365f5f]","9","1","a61902fcffe337dbd26eaa1b3021f79b06243310","404d709ff4435515bd8dc889ced290cfb3f60dd6","f6e02a94c8d4257321b67cae7b7f34136997c7ba"
"https://github.com/otwcode/otwarchive.git","2439","12","[ba9fd4eeabb1772a54433db3b7a604fb0ebd4886, e62b0041df5bce6e2a8f1a38a9c6ed91b0a34847, d3bd864d424646199dbb5947245b5deae22ad306, 1b1d678ed6ce257e609f4b89e827f9968e6e670b, e8566455366e0d230adc95925895094dc3cd8d45, baa3f2e7e11643f9cf900ada5affb0886c77c60b, f05f3f23c2a090a26c2b7d6608c77e15ec04fe3a, 0758faf348f31c87a98ad3208f8b5d2381a48640, 1d9f656ba594d9f2940f26fac8fd99d67409053d, d5ea3de693a6aa3a9003fd7678927131e89a41e0, 4a27a2859df979d4c706c8c29d6713a1bc34c4a8, 4fdda27174ec526fc85e4c9fdbd0fa0d44ee64e0]","452","2","ba9fd4eeabb1772a54433db3b7a604fb0ebd4886","f6e02a94c8d4257321b67cae7b7f34136997c7ba","aae2790a3cd260449aba91648206d9b36f0b8e79"
"https://github.com/otwcode/otwarchive.git","2441","2","[5dc58abb26ba7d8bb039826fc635a7ba6f8600e6, 198bcdbe25d50c995e613f77737fb2528ea3f817]","1","1","5dc58abb26ba7d8bb039826fc635a7ba6f8600e6","aae2790a3cd260449aba91648206d9b36f0b8e79","1589858efbd04c4b7158ec851195a51046f9786f"
"https://github.com/otwcode/otwarchive.git","2447","33","[596dfb1ab4f97984dc1d05317dd73ce4df50b02d, 80fdc1ddc4e67307e4417aafdee6c90a877a6829, 605c39893ef256cfbce4b2af557eaf2fe10f9239, a28d9b7375de4ea037a0a9f1c39d00857a48d8e6, a009f471785e7825bd61c9556841dea9a1acd650, 0a8694525236b5b45f300b993507bee72ed86d9f, 4e6023a6c9187ff0218e23b6d5695075fc7633d0, 8020ab9ec06d86e7269c498a588f9636d8a179e7, bfb492dc93436839f969d998b40f339c60317104, 6ebcb6adf98d8e861483129c9d7be742d303eeb8, 76765772c206a500e2539caab73f2a65cf2435c7, e0910cac7708e5d395961b44967d5772e1bee5a4, 4264546201f5eea4f0cffad07a8bc75ae8e94b22, d6abdf9aceb8d2f9ea67b1b71a1d1df55dab98ac, 8e0b44d6c65a2aa57a653396620a37c7353ba75f, 7e942e495639b2716eece5aa6c4f458380741884, f7cf50e2a684e2a1d1dc74badb3e49cb59416a01, d062cca69c1c6a1c7e06dd997279c58d82dbe340, 3bca66e7e8a896fb2dea2e3288db73894326da9e, 0c12fd8ede64c5c87f52c426d94d26ebd48e8ffd, 72877191f2d5b7297c19df0e13b43911495bd9be, 74e34a07c9987f710b76ead88515325fc0c3d3d5, db883cf141e4efce90b4eb28e1d716224c8902e4, bbe311db6077555225b59dc5f33b52bb1d32fc3b, 15d19136e6a98227224610df3dd662a0a669a6b4, a59fb468f23e8d29702c987c5569cc28aebe20d0, ae12a9ef868b3196979f5564d85a3c093c8fe669, 32889af2d60706b86ddb4bcb848ca252b6859507, 98d5d399385a66a80841d69cb7dd793ab61b35eb, 645de670fbfe8572e36ed1773125a8a3bef83dc9, ecd9130b9e6b65f52dccead6d9fed7a8a61cb9b5, 692f44a370427f9dd0973d571c778fbdbe7e7d5c, 17b56b769c6d6af9b3fa2c4a7f253303b723cb0c]","155","16","596dfb1ab4f97984dc1d05317dd73ce4df50b02d","307fcf5b24b8d6bf92bbe274796190caf812efcf","24953796c1d4d2f1167634d230e2fc957c234cdc"
"https://github.com/otwcode/otwarchive.git","2458","2","[9e8ee230dda7a6b4b397d4b3961684c4caf780b9, 359baa80b83bb22494b510e46e372371ee659da7]","1","3","9e8ee230dda7a6b4b397d4b3961684c4caf780b9","77476300bd7d0aa379faf846a80bb15be80d112d","965bf4bc85959249a9ee97b3b01e86ed8ce35957"
"https://github.com/otwcode/otwarchive.git","2459","2","[cf6598dc872fae6bfcae8203882659e357daf3a7, 3f5df8585418988099807ae01d614d15fe9a7a8e]","1","1","cf6598dc872fae6bfcae8203882659e357daf3a7","db1d96b5628136cecaac7bfc13f80c8044e8a706","5220ce724fa66682a0b8b604f5b5780b21578636"
"https://github.com/otwcode/otwarchive.git","2463","3","[02eaffdbe4b34db0ff5892a77490af63f763ecb5, 5757244f54db01d0407b63349b6bcc11346f8ac8, 69f198eb06effae5d6025839e7df66f48a67d7cd]","4","1","02eaffdbe4b34db0ff5892a77490af63f763ecb5","5220ce724fa66682a0b8b604f5b5780b21578636","fabf454e0740ff1d8421f047a520b5304aa6adf3"
"https://github.com/otwcode/otwarchive.git","2467","2","[1330ad51b420fb11a545c42e3121465719ab14d2, 505d52ce3b6e4ea2831135976d28a07e41deb6ba]","3","1","1330ad51b420fb11a545c42e3121465719ab14d2","697b5adfbc1d1306868226bd5e3c1b45aa25486d","7269c5be920e6051322476658adbe2a8233546b3"
"https://github.com/otwcode/otwarchive.git","2473","2","[f6ae1f8a76aa7c959a981bc0e155fcd9409878a5, 7fa99a3214cae3cb631f1407466625896877442e]","1","1","f6ae1f8a76aa7c959a981bc0e155fcd9409878a5","f54fd98a995467b9856d79d81dcc0d17e078c357","140ae8bd571f656202cb5421aa84a25cb0a000d0"
"https://github.com/otwcode/otwarchive.git","2474","9","[4507fb09abd34cebc12a1bc6bf2bffd801ce849b, d9a5fd2f4c362c854812cd6bbe0fe8790dfe8ca7, e8761e8202a398eba3375c432fb0833c9beb472d, 6c99df954ed1fdc15b2732242e65b25a3587bcb2, 05254c9f6b479f853aa93e81aad9159bbef25d71, 7077dd7b68dcc5c2bfe02b70ff756922e7e07208, b2ee3f0b946c1c596fffec6ff7ffc990255c03d1, 3e54835eae66940123b12c2ec68996206b8aacc0, 9c67f7b2971b70443234036002d482232652c5c0]","11","3","4507fb09abd34cebc12a1bc6bf2bffd801ce849b","de50d1da26c3c037546e9baa7b2cb001e31cf35e","b5ec8ebe93e99a8ad6a662cff33cbdf4a3595346"
"https://github.com/otwcode/otwarchive.git","2480","4","[6073c43f0bc19d620b5397943d6ec3d165ae6563, 20a8c902ce2f7836edcb50e2b72580886f75e3f0, 1bb29025fb6ffe5a848a43b503e0e96c2652c02f, e34ac01aabf91d9ded5b1958f93ecfdb71587dd5]","3","2","6073c43f0bc19d620b5397943d6ec3d165ae6563","796b471ab5d7771d5a6250f69401c475c5458ff7","140ae8bd571f656202cb5421aa84a25cb0a000d0"
"https://github.com/otwcode/otwarchive.git","2487","7","[90d66bde5df049dde45abac8bd49633f311cc4b8, 9287a1b47d17e1ad5a49fdf2395ad326c02acb74, ad9dbe58d664b637de1131927bfdf32a1b322095, 82bc64605beb30325f21b48f842a1fce9b8a72b5, 0dd30d32ad44a7fad1c3b429c7dd697f4f6d871c, 2ed1a903db96ed62e8e0538abd69a3d7190efb7b, 0e6f086e1962de4f6fea2ac840794e0e5b1d2622]","1","1","90d66bde5df049dde45abac8bd49633f311cc4b8","d6a57c1ca7d2ed57d28673944244bedaac968cc7","47e93d49e33e4846f6a939b07d3bf41893f4c437"
"https://github.com/otwcode/otwarchive.git","2490","3","[535513e2f269dd1616de956c61a5dfae9a8f20d6, 929a52fe4c5db66600f35090c651e8da1783506c, f8e67e66675e741daaa2c382adabd534f0b488d3]","1","1","535513e2f269dd1616de956c61a5dfae9a8f20d6","dc25f3e2a16adafe887ec5ba611ec71f1d1f17f1","1fbe7cb2f2e9bc03e97e35d3c2f15e80bd5ebb69"
"https://github.com/otwcode/otwarchive.git","2493","4","[ed248ba8d53fe72dd7a3fe6822ff613e7ebff60b, 6fcfde40a0cd1912e816ed366d3ba06bb48cb779, fca568339a7cd355184de5cdce6e95167a2372a2, d9dc3438c21a8294dbcd78bcf20a9519bbc1365f]","71","4","ed248ba8d53fe72dd7a3fe6822ff613e7ebff60b","70581ce6cd874ccc0d1fcf25379315f628bebcb0","b3889a180abb870a2794192644b79550db2ee578"
"https://github.com/otwcode/otwarchive.git","2495","4","[66e7be80fde18749ea9912fe403b07f616958004, f962e680ec7436956e29ed87070bdb71f5852993, fca568339a7cd355184de5cdce6e95167a2372a2, d9dc3438c21a8294dbcd78bcf20a9519bbc1365f]","76","5","66e7be80fde18749ea9912fe403b07f616958004","eb4004a51de09baa3771eead720ba62baec92298","b3889a180abb870a2794192644b79550db2ee578"
"https://github.com/otwcode/otwarchive.git","2496","2","[046dc6fddffd9eac35842b949e413b6461ad1823, 05b436d41195b1febeb29cd64befcbd16cc705c1]","6","1","046dc6fddffd9eac35842b949e413b6461ad1823","eb4004a51de09baa3771eead720ba62baec92298","988b1a8a4365981c940be662e7a45a48cadc4c49"
"https://github.com/otwcode/otwarchive.git","2498","6","[49fdb0c1c5e823738cb3d090a73dc18274af1585, 6f1923693aa52271d832ce656b45821f4f41265a, 2c37706e6d6dfdb99795202d0940610129b3947c, c6a0048ca36717a56038d9632a2f4e06b70ddfc9, 7935220ff69233cd28455a971936765e0a36f80d, 6bdaaf7518a5d7104cba4767f620f5de85ff81cc]","4","2","49fdb0c1c5e823738cb3d090a73dc18274af1585","9666199d39ef59778418e848df4b3c0eb55f13e2","d36172f2d4cd236bc143d00d5870c26636217011"
"https://github.com/otwcode/otwarchive.git","2499","2","[d75ff6be56b456f016dc92553afd1ddf2943d4d3, 2f71e34b0edbbd219a0eb38d3a265b277f7548f4]","6","1","d75ff6be56b456f016dc92553afd1ddf2943d4d3","988b1a8a4365981c940be662e7a45a48cadc4c49","fc46983991509cebca009c5401b9894d07257b87"
"https://github.com/otwcode/otwarchive.git","2500","31","[23edb59d819b76a2912863c2e0d4d846dc28f498, 4233a788fc37b6b420d8751d58920f7acc1c65ff, df488270a2ee4f8dfbed356d7d05464b2b719535, 80a5f7278ee9385b4f3d815edcf4b41b7fe71a83, 373a4aa2d3af5650566b8110f5cc7bcc932e33b9, 88bcf950ef8b236971823fcaf980c6b8cdd2605d, a60fda89ca1d88c6fee08cc86d09a72370d4ab96, c9e59a15e4476b83e9c57f978d20717a3e44f1ce, f8bc4d92fd28926eb20772ca2b21e1d6bc50f393, 544d94af32afc7b7245c24a903a939132b86c3ae, 2de3842181309fd4bc8ce7d39a04c3a15a04e4f9, 93ef61dff428064a6d7e808a70f25bdde2db4052, 6caed17b41efb1583bc2b4181ff74977cdda1597, 1f6c0ab46283768657713fadbcaed8c41bd234a8, 3b7061f2d922fecc3aa6ca68608be32028ffd588, 802bef033423587c7a7a0ed111bb91aa1798ca1e, d1dabb8ce79a4ec9a0042bc6de29bb8b331d84fe, fae6f365ccc20e80c19d35be7a65a40906175965, af5d3a5f97a1dc534ba4226f6af4c54957da03da, bf606a27a5a6b720cad34bb983978d4883d91e48, 5807c23852de081e41abe913f7469a003dfcb54a, 20dac3418021353bd246c9ab7ce70e0b3356dad7, 2141599d0919240ffa12f6004e1908c4bfd5bd3f, 4dfc4f778769ad217387cf50b3357920446164d6, ebf106fab1b6eb557f6d65d6deda41036fc33d24, 29a8dd6f9d628e105b265c390ac0ff9a5653e904, 8b17e74255a61e83fa8cbea1811068f1885d32c3, 28e274f141625252d013b09cbac11a5ea6c5ef49, e9eb826ce13d421ce32525173159661a281a4c8f, 7d8c68345f4de4a1d0c9d2cb3e08e452b67c4595, 07be6efd66192ff05eaff69c6aace983c1bd43e3]","56","4","23edb59d819b76a2912863c2e0d4d846dc28f498","c77056fa7f91937bf783a6e5efaaae8c5d02f020","d36172f2d4cd236bc143d00d5870c26636217011"
"https://github.com/otwcode/otwarchive.git","2501","14","[7f59b3aa2c446cfeeedf741134a277c21c22fd06, 99277224bec826556de533ab91f3fa3d60671422, 786e29180001907ee895a8fb690478725ce22c08, 66441256c5b3e7ddf4c1fb0dce128f5ed38e6726, 1330439790ff484617a0359f56857cdd79abf54e, 86a8bc1548ba03034e5dd7ec4390687bc6f655be, fe30a03aa4e2f03eefde73b997b97961b30f7e1a, 49dfec29e5f3edb1b0821ddc606774ef8109a7b5, 38234f7485bd7de13de6db8179062bac14e80e6c, 2a6b630107ef2a04d2e532bb0a1fc69052504194, a31e5e4436c3d498dc6164c1b2ae1820017b74ef, 22a48ba6731ccb9107dc95c67a3ae7387a4db741, e10a0faa13363e088e5e28cd67f1f184c7f72bb2, 9cbfaa36a09bea5c30a3d1a0a9eb34c0c21b8a33]","19","2","7f59b3aa2c446cfeeedf741134a277c21c22fd06","66d278c2fcde6868963187a3dd0bba95f5c956b7","954ace8a3144cdb07cd312b4613c754160e99aaf"
"https://github.com/otwcode/otwarchive.git","2508","3","[48cec2b72fd5f179d7d99f4a8e0243e601b645f2, 6aab0a16095d1cc72aaeae3a882b4492747ba1f5, 87a48b2bf26e2377bfc677b664399843e013fbf6]","5","2","48cec2b72fd5f179d7d99f4a8e0243e601b645f2","a705a83e48e0621ff53abc7fa0f60f34848803a9","2c7be397d8b6ce365a8ceb29e67f23da251f8b3c"
"https://github.com/otwcode/otwarchive.git","2512","1","[e7ff2221fc20c20f318cf3f8d82ef20b330d1bf2]","3","1","e7ff2221fc20c20f318cf3f8d82ef20b330d1bf2","6b47893171bff336ec0f85857069b49ee79263c5","64c6c7b0e4162fce85ebc8bf4a4452d222c791a5"
"https://github.com/otwcode/otwarchive.git","2513","3","[c0998fa7a6f85c109e972d4204c0acd9ae0116c7, 510f6dca974f698bf2b262145be679d72295c3bd, 20e21c7fd60613ac3fa6d015b419978b66eb478c]","2","1","c0998fa7a6f85c109e972d4204c0acd9ae0116c7","2c7be397d8b6ce365a8ceb29e67f23da251f8b3c","52aa491bfa6670385a925944db475771bd97c553"
