"Repository","https://github.com/alphagov/whitehall.git"
"TASK","HASH","RUBY","RAILS","COVERAGE","TESTS"
"2581","2d426425f5821ca2789fefdef94b1549f2b8c7a2","","3.2.16","simplecov","features/organisations.feature(33)"
"2616","955175082a7002c4e75453fa9b679c101805700c","","3.2.16","simplecov","features/admin-filtering-documents.feature(37)"
"2621","6fe537678cdc153e20476a7deef2daed4ea0416f","","3.2.16","simplecov","features/corporate-information-pages.feature(18)"
"2632","f7d5e32e955f3e719cbabb439b13bfc1cec5a615","","3.2.16","simplecov","features/policy-advisory-groups.feature(46)"
"2706","195ab612f15f42dc9c09f9452f98826d70ef769c","","3.2.14","simplecov","features/attachment-preview.feature(6)"
"2712","ea3cec389b7546a217efa20a5c852936669893cc","","3.2.14","simplecov","features/importing-new-editions.feature(137);features/importing-new-editions.feature(149);features/importing-new-editions.feature(170);features/importing-new-editions.feature(182);features/importing-new-editions.feature(194);features/importing-new-editions.feature(210);features/importing-new-editions.feature(225)"
"2715","61163f158bae16c67f11684cb8e33edd47668d08","","3.2.14","simplecov","features/filtering-documents.feature(39)"
"2728","cd40d1d1c4855e41f73aba28cc12e9240301a91f","","3.2.14","simplecov","features/unpublishing-published-documents.feature(33)"
"2741","2590b60a88625cf5a538e1e2e63f4f8b26e700a9","","3.2.14","simplecov","features/organisations.feature(117);features/organisations.feature(127);features/organisations.feature(133)"
"2750","e94abd030b5b030a413691aad31d2ab939097eb4","","3.2.14","simplecov","features/supporting_pages.feature(9);features/supporting_pages.feature(16);features/fact-checking-policies.feature(13)"
"2764","dbae799ce847cacd5e2fba75a04168ad387002c0","","3.2.14","simplecov","features/unpublishing-published-documents.feature(7);features/unpublishing-published-documents.feature(15);features/unpublishing-published-documents.feature(21)"
"2769","12aa2b6fe00b9d30f157717806306a55a111a968","","3.2.14","simplecov","features/unpublishing-published-documents.feature(27);features/unpublishing-published-documents.feature(33)"
"2771","5b65aff1bdbab07763cb0ac1ccec4ddbebe513ac","","3.2.14","simplecov","features/organisations.feature(117);features/organisations.feature(127)"
"2782","7c8f0d04dab70c0ad24c308af25e1a5be5a062a1","","3.2.14","simplecov","features/unpublishing-published-documents.feature(7)"
"2784","2f667e299f36e9bbaaae5651402c8e4b390a2f1e","","3.2.14","simplecov","features/force-publishing-editions.feature(7);features/force-publishing-editions.feature(14)"
"2786","4a25a2747df82fe90ea0e4f7e0ee2a570e950270","","3.2.14","simplecov","features/document-collections.feature(33)"
"2827","7ac2b6cafc6e7b890415cc390ae43d0b303706d3","","3.2.14","simplecov","features/translated-content.feature(17);features/translated-content.feature(23)"
"2832","2603e8eb1b031318624c84597d8d1652fec6679a","","3.2.14","simplecov","features/history-pages.feature(26)"
"2847","f82796ca190dcfc72d01991cf92b586527d1dc16","","3.2.14","simplecov","features/organisations.feature(61);features/topics.feature(78)"
"2850","de5de2f4d53f1f7b956139bcadacad0d48e7802f","","3.2.14","simplecov","features/document-collections.feature(10);features/document-collections.feature(17);features/document-collections.feature(27);features/importing-new-editions.feature(240)"
"2851","d57fce3bcf30c37200f2a912f14430b1aaac4174","","3.2.14","simplecov","features/importing-new-editions.feature(188)"
"2871","900f3451ca4f9dc015d92e7a3e544723f8d4b3e4","","3.2.14","simplecov","features/document-collections.feature(10);features/document-collections.feature(18);features/document-collections.feature(25);features/importing-new-editions.feature(237);features/importing-new-editions.feature(255);features/speed-tagging-editions.feature(67);features/statistical-data-sets.feature(9)"
"2898","d81c463f19cb8d9a9a8420eb22b21ffe8ece842a","","3.2.14","simplecov","features/topics.feature(60);features/topics.feature(66);features/topics.feature(73);features/topical_events.feature(20);features/topical_events.feature(27);features/topical_events.feature(34);features/topical_events.feature(41);features/topical_events.feature(48)"
"2899","e6e9b1ef85c881a4f0edd559f506547d946dfae4","","3.2.14","simplecov","features/detailed-guide-user-need-capture.feature(6);features/detailed-guide-user-need-capture.feature(13);features/detailed-guides.feature(3);features/detailed-guides.feature(9);features/detailed-guides.feature(15);features/detailed-guides.feature(23);features/detailed-guides.feature(30)"
"2901","48753536661884a4a9cf9b9d6e9aa82bea885ded","","3.2.14","simplecov","features/publications.feature(82)"
"2902","e6d84356a52f98a3cc42744e636da49cc1aaf91c","","3.2.14","simplecov","features/publications.feature(82)"
"2988","78ad9cdfd55e5d7d07e96f4107777d5dba52c7f5","","3.2.14","simplecov","features/speed-tagging-editions.feature(67);features/document-series.feature(10);features/document-series.feature(16);features/document-series.feature(20)"
