"REPO_URL","TASK_ID","#HASHES","HASHES","#PROD_FILES","#TEST_FILES","LAST"
"https://github.com/gitlabhq/gitlabhq.git","23609","4","[47e17103f589b51aa2f6267f56a67c1eb400054f, 66584f72fd7e9fa8657a711aa12864b76fb71ce4, d1450af81f472ff0221454fe048e96cdd8dd11e7, 9fd48229860636fecc07d3dde7cb4fe7624ce8f9]","2","1","47e17103f589b51aa2f6267f56a67c1eb400054f","e10f5f4f56b071f4ab456451780c4bdff942e9c4","19cfa86aa3db83fcd90f3dd967c18ad3cd3e729e"
"https://github.com/gitlabhq/gitlabhq.git","23626","1","[d02d02c672bcac0d2ef46204d132645bc69827a8]","1","1","d02d02c672bcac0d2ef46204d132645bc69827a8","524b3db30ca53449c13cb6bb9a518cfc2c0cacf7","e12b6f30efef3f607cacc5da51f8c49c3be4643a"
"https://github.com/gitlabhq/gitlabhq.git","23700","4","[ac378e5b6a916ef57cae0483d9bf3d48d315b6f4, 75bb1087df785e75fb343a9e8721e8d636f7ce81, cc8c91a1183ebfc5bb252f5e7f3f09fc20546476, 0ab6ca93aadaf08f65f36e7fbdb5b837bac6e160]","12","1","ac378e5b6a916ef57cae0483d9bf3d48d315b6f4","92c33a8e7121e67aa0be7cd95f578b0f8dcfdfcb","0611a18964a998b6edc81ef9b469f9f70430e542"
"https://github.com/gitlabhq/gitlabhq.git","23704","2","[f509e3afeb47158558e417d700bfc42db5ddd3f5, 697b34d786bcbc9b4fdaef485ff4837b850ca5aa]","5","1","f509e3afeb47158558e417d700bfc42db5ddd3f5","ad627e40dcb00b54761a60078448286667a179fd","59058a25434ae9fc39da63f7501ddf2a31c80f7b"
"https://github.com/gitlabhq/gitlabhq.git","23729","1","[731b860976772111ca673ba25aeadd3634adbe7d]","2","1","731b860976772111ca673ba25aeadd3634adbe7d","b5c12f742ab7431257cc685477d3be16c8cc5f0e","2fa89a3dc6a7580969203e43808048b79f172c0c"
"https://github.com/gitlabhq/gitlabhq.git","23751","2","[ea72d53ec083676ee1171e97c0869132f360d0c9, 5f95a5e070c76c582a2b394377b0f350f4b1cff9]","4","1","ea72d53ec083676ee1171e97c0869132f360d0c9","96c2e22549917a32bae03c3c1e850a3225049239","10c036fcf59297663fd1121f7b48d1a289a2e312"
"https://github.com/gitlabhq/gitlabhq.git","23771","2","[46503b789def6a0bb82a7bf559e8488a056e3f1f, fe7e97320c83df771e027a4d1576986e58065a97]","3","1","46503b789def6a0bb82a7bf559e8488a056e3f1f","247385a70200d1bd373c97f8e8f380ac97202f0d","34431d8ecb1c3d3082c3e391db70b33ca7dbf056"
"https://github.com/gitlabhq/gitlabhq.git","23808","1","[6a32608989a410ca60c3c1ed0fddeb6c0aaffcce]","3","1","6a32608989a410ca60c3c1ed0fddeb6c0aaffcce","c4ca1ad4c33bc90074a9321e9cd5a2404a62cc92","353d426e4e68006ba8cea90e2f6ad4e8956cb6a9"
"https://github.com/gitlabhq/gitlabhq.git","23811","3","[2be714dcf61842e41d0432fae3abdf1a09215012, 9c4307e287cade71c180c4c37fb14a018cf9fe28, 5faf3e8176fc68fdcff18de4f28360765432739a]","2","1","2be714dcf61842e41d0432fae3abdf1a09215012","f2999fe8f3709775ea2151fa3dcd7c456267edb2","081a0ddce7f8608df23cb6649263a2aa0e805c08"
"https://github.com/gitlabhq/gitlabhq.git","23817","2","[d538955ac89c0bffd5b0d5ebff73f81c4efb21ee, eae27d1ecbfec7ea928b27e0ffc96abeb4a49f7a]","10","1","d538955ac89c0bffd5b0d5ebff73f81c4efb21ee","ea583955252d04ad89819c335e77f811b3d3b3c7","4bc1e040d4b7d73bd7afb3dbb95c87983eef2b04"
"https://github.com/gitlabhq/gitlabhq.git","23901","1","[d3d03d1362e576d194782a655cdfe9bc6ed5c596]","7","1","d3d03d1362e576d194782a655cdfe9bc6ed5c596","f4816372457c3b513f8707efd87ce34c9922177c","080a086d7644285af6cd4fb4b51c8f1c9b3aec95"
"https://github.com/gitlabhq/gitlabhq.git","23908","9","[4c98357f16b1acfa793d8a5b28c7147e21f20356, de1ffce7391a9e6adf07a8be60cd36bbc95ef2f3, fa6df2228e7d8957db4b37a44b687c71aac52449, 01cc20378be1b77bd2a40a6af257e2cf116ce26a, 8a6fb46dff970d599860b06a6c9105c503cbb89c, dd2ffafea4c4cd0a2c9ccebe6d52e00afe371535, adcae6ebd597c731b22a748b882b668e6301763f, ab56718feb0e155ae889afe900a009594f8acfa1, 84508c40b7a132b775717d2aeef313d4e370a2b9]","5","1","4c98357f16b1acfa793d8a5b28c7147e21f20356","1ef2ce95d507c3d21598f26dd8a0e77dfc3c33cf","a81ce718c772672706da33848670149dd577ae79"
"https://github.com/gitlabhq/gitlabhq.git","23927","3","[d9af6f79ed439308d13f44a0cfade6a355607f14, 0a8ef29b3d2504ba66cd0a98992c1f5f70b11daa, e14aa19e39baf67bbc5bb4099627ae28844a4f5b]","6","1","d9af6f79ed439308d13f44a0cfade6a355607f14","61737af503d9986378064d60c0a7e7dfef57df3c","400b3d26b3867df8910d05bb986f93ac0a3bf206"
"https://github.com/gitlabhq/gitlabhq.git","23939","1","[e2ece2bc350bf881e9716e51c01a59eecac65fc9]","7","1","e2ece2bc350bf881e9716e51c01a59eecac65fc9","81e741af2445f1e403c02dc172a47ade641eed60","7abb744eb961d95ef9f34e8b64c47084d3f620b6"
"https://github.com/gitlabhq/gitlabhq.git","23940","8","[3e97de838c6a2a37e1daa5ab8c3cd1fa350b1a7e, db197aa61a3451bbe8eff1dea5dc992997b11b61, b8225324ef24eeb6f0b0b6cefb54282788a80210, 66840f03cc3444c1ce5027e654632d1a65845752, 1d2173819bf004eaf9676aeb72b2ae6f79db9a64, 4e1c6019c8f0d3b00e32fd6cd546d2ef445a285d, 4c060074b792519e23403c0b21d4c2b3b49a8f36, b7431ec042bc14052c407fd277177681e189c892]","7","2","3e97de838c6a2a37e1daa5ab8c3cd1fa350b1a7e","b35d5a6a16d3ce390f21459e2989e8c41bce3150","349054e0ab4b03c9e259ed342af6cbb4e22936cd"
"https://github.com/gitlabhq/gitlabhq.git","23980","3","[6bd3d72bbdf288ecf2eee718f2943821c1401a22, f5ffeac058260de26efdcdae4205804154bc027e, 57d001309013c4c27e593778ec68b523e7d73b81]","10","1","6bd3d72bbdf288ecf2eee718f2943821c1401a22","b05cc8bc9aa5200a0fe3d2ce0afe18485a0aded5","28219ea9211d6caafa34620859ff0e879ec54c12"
"https://github.com/gitlabhq/gitlabhq.git","23988","3","[9836017c709ee5179575647e8d93065eeb854137, 81fe6f9d7e813726816b649ce8a27058a74af740, 3700e5a9607ba9980940a29d275e22034538473d]","4","2","9836017c709ee5179575647e8d93065eeb854137","954dd7ce876330446698b32faa0f42659791336a","6f19e8799e4c8233b01068bf6b5406b0ba1d1105"
"https://github.com/gitlabhq/gitlabhq.git","23991","1","[fbb891c8f3818b9aa17fadbb984ff7d33053c819]","5","1","fbb891c8f3818b9aa17fadbb984ff7d33053c819","662cf2cef40b97b983b85abb7d68b8a81b170bc3","308c6428aef2a46b0370a24d85a97b0e133283a8"
"https://github.com/gitlabhq/gitlabhq.git","24027","1","[ff30b407545b2b873ffbe9d5d3d603e550013cf3]","3","1","ff30b407545b2b873ffbe9d5d3d603e550013cf3","53698401fb15d7e69514bb48217711d060fd9e46","de3b7d9c522db8d129a64f2b86297cf90413cb1e"
"https://github.com/gitlabhq/gitlabhq.git","24034","1","[bafffb2d14e1924154d5b7c74c7b3cbcf8c898fd]","8","2","bafffb2d14e1924154d5b7c74c7b3cbcf8c898fd","ef0149dd4440e1ea6d164f096112a5004a10ccf6","add099b024cc4155a5be494fdb9ae339fd073a14"
"https://github.com/gitlabhq/gitlabhq.git","24046","3","[7569010bc3918af0098e00eb56fce1a18d8ca72e, c11e43145f87436062f3840d16a9fcf97286265a, 8f68c38746639d8714ff5aa12fe9a0fd362f4419]","9","2","7569010bc3918af0098e00eb56fce1a18d8ca72e","a0284b5b85378be291c263e4f60c725c807c1a6f","c1b490d6ef995c9d0baf0133a96f13e4757214b6"
"https://github.com/gitlabhq/gitlabhq.git","24047","1","[3bee4a6712a654abeba4ce07eb17235c3240b487]","1","1","3bee4a6712a654abeba4ce07eb17235c3240b487","429c0d14918d8727eac0e24ff01df5cdf55b2f79","24b282aeeaf5ba41c6b73100051eb48428787770"
"https://github.com/gitlabhq/gitlabhq.git","24054","2","[add099b024cc4155a5be494fdb9ae339fd073a14, 56527b63e8a09e0fe4967eabf08638d853e6b2b5]","5","1","add099b024cc4155a5be494fdb9ae339fd073a14","e449426a4e7d15cdd582d4f136add52cbfb5e04e","24b282aeeaf5ba41c6b73100051eb48428787770"
"https://github.com/gitlabhq/gitlabhq.git","24057","2","[577df6b8ca4532545ac2cad11a693dc976160b36, 3715a0f29b6758b3075abb6f28ee24c4eb8ed427]","5","1","577df6b8ca4532545ac2cad11a693dc976160b36","0daa21ed8cf3fe917645b66baa27917923bfdd8f","55fc58bda4a5592f2f8deaecec9526fbe4eecd6f"
"https://github.com/gitlabhq/gitlabhq.git","24069","4","[eb057209b072e9557f41c6f062832f9b37f62fc8, bdae9bbebdb8d83fa21024b79aeb703268747f58, e238a8dad5ec6d1bb80cc8d4dd2b3f85b55a6879, 55dca86b983496a26a3913aead77439edf96afe9]","13","1","eb057209b072e9557f41c6f062832f9b37f62fc8","8819007c83fdf1ac642836640a37cc541f6eddc6","55fc58bda4a5592f2f8deaecec9526fbe4eecd6f"
"https://github.com/gitlabhq/gitlabhq.git","24071","5","[4df4097e32dc17f4330de9246362ee9df9155345, 07190227395674715522f7a6aef30d4235b5d55c, 15cdf551fc612495f4bdbb02bf109feee33a471f, 10d2281d73536d6c38cd5613630433b1ecfc5632, 3ebbed25f0538f170fdf64a3ca34bc1d34b4836b]","5","3","4df4097e32dc17f4330de9246362ee9df9155345","55fc58bda4a5592f2f8deaecec9526fbe4eecd6f","3659d3b5c6eb645756b3df79a22471f8695f133b"
"https://github.com/gitlabhq/gitlabhq.git","24130","1","[0f785bbc7ecf932e81c84ec98636ffd305994b47]","1","1","0f785bbc7ecf932e81c84ec98636ffd305994b47","1a3283d4e871c518d131eb3c9a82dce33f4609f8","88a3cfe1070bbd7db450f68b8fc2b509c795e413"
"https://github.com/gitlabhq/gitlabhq.git","24147","6","[485b9efe9ff458a7b13589d75108be0b6fb99d68, 02c4a0cc734320af315410b07a93843ca2f80bde, ed7a8c9221fe544afb666e2b10672c759c821507, 4ba26988101b502742a17cd47cc5634c28de2d03, 7a9d432cdb84936bf8dd1359d363f42e6ebca542, cba7f20dc8614d12e3eeda6e14f454aeb22b9b54]","8","2","485b9efe9ff458a7b13589d75108be0b6fb99d68","dcb0bf0df5e1d786523eec3c80b611d0b266b845","ce47dd4bb0c686aee13b309b07eb8f976aa5d547"
"https://github.com/gitlabhq/gitlabhq.git","24190","1","[369275d63074e5d526c0d1cf404b4a3742bb1e6a]","2","1","369275d63074e5d526c0d1cf404b4a3742bb1e6a","1e4b3264637a5b66a9bfb04fe9444bcf1f7e18ed","82f0d3e655c48fc67adea88af681d0b5d81810de"
"https://github.com/gitlabhq/gitlabhq.git","24210","1","[562242cb9dc11f0a5957a58eb9f91a484a909b40]","2","1","562242cb9dc11f0a5957a58eb9f91a484a909b40","4fae34d6297756d11585dcbef45d03cc39eeb125","4a76cbe21907b92e53b168f3085c19d00be11f0b"
