"REPO_URL","TASK_ID","#HASHES","HASHES","#PROD_FILES","#TEST_FILES","LAST"
"https://github.com/gitlabhq/gitlabhq.git","26364","4","[699ffeb878798934bff0abd695c52c69d03548af, 5913f74446cd529cef4899aeaa60f273a1aa418b, 350f5574793f9a2c262541f3b873a9b39dd171ad, 412780cc600f2329e078bf8b3bd6006fb7c8874a]","4","2","699ffeb878798934bff0abd695c52c69d03548af","80174c16d6e28f751e6afc59f9ba28f8c6b792fc","78ec7d9c9d156fe556d165c1c096bf5534d62d25"
"https://github.com/gitlabhq/gitlabhq.git","26387","4","[4561a09c69b9769ebdbbf7cb9a3ed8f8cc03651b, 858dbd084253d2920d7007babe0471469eb459e7, b1411e90f81ea87ad45dee324b13881095e031ea, 4cca1b050a0e80e4ce6bb67f530549a2f28af630]","12","1","4561a09c69b9769ebdbbf7cb9a3ed8f8cc03651b","9e4a40982e25b31c0654b295fdf16d9aab2013f5","8a7d10af2329342ca003300847ace4793c66f854"
"https://github.com/gitlabhq/gitlabhq.git","26391","1","[7f7bf86bbffee21e577ab559c10f9f3b7ab79e49]","2","1","7f7bf86bbffee21e577ab559c10f9f3b7ab79e49","3d1a246f2c9c146d444aad68567eb06b84d82783","f42a1ded99920998a9b63b309adc227485428d2c"
"https://github.com/gitlabhq/gitlabhq.git","26411","1","[bd2355191fa45ec04ba7b79b7fcb2b26088abc16]","2","1","bd2355191fa45ec04ba7b79b7fcb2b26088abc16","60a98584f672bafdf86b410809fb408764ad8fe5","7a0e1c7238033b33b7296701bfded56d4ad7f250"
"https://github.com/gitlabhq/gitlabhq.git","26417","2","[392113919adc75ba1537d89a0de8d0641e24d5b8, 551145bc98e257280b615e305d531a44d7aa4131]","10","2","392113919adc75ba1537d89a0de8d0641e24d5b8","9bb1d8fc8d2119ed46ac2e11ed9d295a61cf7a28","7a0e1c7238033b33b7296701bfded56d4ad7f250"
"https://github.com/gitlabhq/gitlabhq.git","26420","1","[81336bd2b52bdbee9a1199f78e7da001814fae84]","1","1","81336bd2b52bdbee9a1199f78e7da001814fae84","18e4e997644aa0772153938106e4fc798a12e10f","174c00cf2c026a3bdc61d94b45195a5e5c99202f"
"https://github.com/gitlabhq/gitlabhq.git","26448","1","[0cbc19f9449ffc6e624c0b7e22ea837468658377]","8","2","0cbc19f9449ffc6e624c0b7e22ea837468658377","8235d3ecdfb313714ea562a3fea70da7a4692a36","174c00cf2c026a3bdc61d94b45195a5e5c99202f"
"https://github.com/gitlabhq/gitlabhq.git","26478","11","[c5c906fe6472f953b379aca4c34fad23b3b7742e, 7f4b993793083abad99c12e2ea223ea08843ccb9, 043f275900c833bd0d4efa3c08d4f3e4158f00f8, 8b00d01c6711918951a7951cff3e57660c807ae7, 7e59a8fee8c89d6217bd48bf1050526f59cb96aa, 13f6dc1a9476ef2c86538ede8420e915eb999a1c, c3ad51a0e492108825093e12d441cca90d597a19, ede08dbdd787fdd3a30b62dc0e7e2c796bb6d43a, 9e5bc432630d04867cea9f38383d1a4fc49b62cd, 5d9a5c02d83c2aa9fed66c045eb88762679fb60e, 9a4ef7e7eb1fe73938578d82c2662913e3d51ad6]","19","2","c5c906fe6472f953b379aca4c34fad23b3b7742e","f12fdf16e3c1aee5203d0217f0b44b64bb80706c","b3b50bb86ea89c54d790516552e65eb8b4149fe1"
"https://github.com/gitlabhq/gitlabhq.git","26542","7","[cbc90565b55d89704d64bc48db323b82b739a873, 04ad197bcc41a26da2c2a80c5b4ffbfad2c296ee, b9519c83142d566ee562da57563db42849e91771, c9eaa46c738ad23bbb3d6f3dfbdaf8a485d0a030, a3c969cd92a2f658d322bec1cfe07c520b678bf7, 6085b6a765f4db9c167fb607af5f605f0d9b586d, 0b5e0e4c557a9cf8aad9a551ff71dc3699143895]","6","1","cbc90565b55d89704d64bc48db323b82b739a873","433dac7799a1a5fd4a0dfeaa0157148eb9058202","e24589a165d8ed23aa8164f488f2de9f1b358668"
"https://github.com/gitlabhq/gitlabhq.git","26544","1","[4e4080016604e2c7ca9a5e75d6dd37d34b99cb09]","9","1","4e4080016604e2c7ca9a5e75d6dd37d34b99cb09","7120af725148aae5092c0870c1da34ca5652f60d","fdd8e4507527badd875a40a0ab8a3ed47a03c764"
"https://github.com/gitlabhq/gitlabhq.git","26565","2","[f361be9eca790c444c9a95c98fe8e5f95e1d7f95, da7e14c864eb039ffe1c06409681721892917b71]","3","1","f361be9eca790c444c9a95c98fe8e5f95e1d7f95","bdb9340e4d0fc0badb5202a5c910be8cdf2ba180","9d3e384ae6553fee85b7a1ed2b99a18a9884606e"
"https://github.com/gitlabhq/gitlabhq.git","26566","1","[7cefdb49eb460e87e3c3b827af32ae1b6834c4da]","2","1","7cefdb49eb460e87e3c3b827af32ae1b6834c4da","7122a823f859a1201428791e32000c4a8bcc6787","d30454e112378c24cc9edfd7b511ca42bdb1e399"
"https://github.com/gitlabhq/gitlabhq.git","26576","32","[a0755d2f051c5a9cd31721333adee22cb40b1008, fe228b89d540ff61fd97e27b0ebe5915a737bb52, 349eaaa9c27687e5e1430a967d19877215220d83, e1f141ac1aa55aa12cd36fc5ddf5292734cdc0a3, e4c6dbe35f25dc902882437a407810a7bc87b042, 8f1e60b05719bf8c5c7474ad228f925a0cab6b07, b954f24420114a6acee9caf038e6dae6650bd066, 4710a76a8d5a69e3f68154aeb2392caa665c59f2, 9338ed0606913460f09d6e0633eb436a52491514, 7e1680934bbba7df0c7d4b2448e28bbd2d697168, 72053703e816c848a54b089ecb318e66291b8b8c, 0082cfb14641ca7fa0cdf3aee641694c26c0ae26, ff5176d45a14f9814ef05e257664de3ddbb30d20, bd72c74dab2f97b86f3112306c41aeedb63fea23, 394ac378f806db8d521e13709bdd3a3e5550399d, faaedbf0514f14d7f7341d72b507f541efbc5d26, 3a017a4e3cfeefce562429eb19b132612bf8f63c, 7783f5ec73841fcd96dc3c86283b961e0459714a, a35a22ae051d9b1ab97eb91ea4354baba2addf80, cbe4891d7c44d59c902d13315eb3140fb6d47486, 2a6fc1c5debc81ac883bad4e7f9748be88a9b9ff, 49b119fa31d530cf2411b2c84e54b8f455e23315, 61f70334efa3ff4a2eda4a1d29c2ee59ecb82721, b238b1544c391bbc60a7d38c30d98e05be786667, ee4643c732c3d91437e50d0c8486dbb8ea5b51b5, 5a68c20fba095ec61aa3b74cb0fbeb69adbc1373, c2c7d14ec51ec8654cc4e0ca57ba0bc146fd8725, bb2f4d665e946806d0bb94d3a50569ae6aa12e66, 830eaa7f4e9026cc2d1088fd601d5a913fdbdbb6, f4845d6b7c397ac04aa36dd8122fe4627483a29b, 43d570e0ce74d70f046edd84b5c104956eee859c, f82b9e48ec038a3718aeeeb248b0a01c9f88fa33]","4","10","a0755d2f051c5a9cd31721333adee22cb40b1008","e09ef2fc38adf76a8986ab3078fe92831bf56836","833bc305933bbf7b8b06d5464ae5716ccbe82674"
"https://github.com/gitlabhq/gitlabhq.git","26595","15","[d9d8d3b7995c351cb4a7d91718f3f48324bd099a, 70f868b737af99c8a8697a3cb5e19b8da3d9c3d9, 593df8e69a81a3ab0a4755db74dc282c00e02ef5, cc331684593143cba773b0160222865eeb86b134, 6ac26a3cb6feabf09aefc4e23855c393d50cf08a, ecabefba1906526bf4038fa8c642688f93dbeb3e, 4c6859a2dee6da420f33c3b7f9946f3642eb85f7, 048a21974ef56285099eb4b54b6ca1e6fd7e3e8c, 81aebaa189586d4384fff92324fc9ec5bd8d8962, 2c32edb3aeb3abd4eae12a51b071629da5ab30ff, b2a6f4e13632c6f00620cdd7116d7b29d257c738, d79c0ea271f20b148ab433c0d510f90f1b807b74, d45a6b2941f30d71f828e0fc8adaeab19f87b1a0, 6fb9badcaef5152c60bf4091899a84b34f5cc1b8, 03654a6abf47c88b8b980a6707874ff78080d2fe]","35","2","d9d8d3b7995c351cb4a7d91718f3f48324bd099a","86f1f8335fea3b5b35c9755fd26c1e4cbf7d2e1e","535feb08ce90352c89799df5e3e70a10e53ee10d"
"https://github.com/gitlabhq/gitlabhq.git","26599","1","[062ff17b1cd65485d88b676584ae793cce8b3345]","1","1","062ff17b1cd65485d88b676584ae793cce8b3345","67d5b95dd28a71ba213ef6815b08117db807dea3","cb0d63b9e3fa464ae8c0cd9cf7bdb8d080a7e02f"
"https://github.com/gitlabhq/gitlabhq.git","26608","3","[8734a9cde81a757ab4f744db0944bf69ef927a96, d3ea53877d689df64db9c68f43e2c08f527b01ed, 974b5a7b2f31f8e7d6b38a45bfd055a40651c945]","4","1","8734a9cde81a757ab4f744db0944bf69ef927a96","cb0d63b9e3fa464ae8c0cd9cf7bdb8d080a7e02f","76af5a1db73155c0a120f30cda9d60155146dfe1"
"https://github.com/gitlabhq/gitlabhq.git","26610","7","[42632de3fb53cdbf656ef100224116cc47c597f4, 83b40ba268a343af6c38a24d8ccc2e6a7e047633, e0cdb8a3611aa2e4727c8523b9a924afd5751b01, ead2dc0c21726ff2b6b150dae2d1b940207846c2, 414afd68f3b9c529fa9de9f60bfe86994b1fda81, 2d25faf21c85df4930dfd989be4f53d9fb0be87f, 420ba2119b2c63966ae60159c9216f7fdca0c469]","4","1","42632de3fb53cdbf656ef100224116cc47c597f4","5a89b610286896d3fc647e66fd9d559465a74f6b","bb80741c246f8c5050312ec4a770625c8e9d38ed"
"https://github.com/gitlabhq/gitlabhq.git","26612","6","[414afd68f3b9c529fa9de9f60bfe86994b1fda81, 2d25faf21c85df4930dfd989be4f53d9fb0be87f, 420ba2119b2c63966ae60159c9216f7fdca0c469, bb80741c246f8c5050312ec4a770625c8e9d38ed, c23e1f3d4110d57a6756042e13749ad55086d9b9, 1fd43e1f92d98e7de5c71629116510f331d9bfd6]","7","1","414afd68f3b9c529fa9de9f60bfe86994b1fda81","1a2a193135f5ea1baaff91d1605dc66b7adb291e","e21ca9f8b140476f93eaa2c2a0d6bf96f28b6995"
"https://github.com/gitlabhq/gitlabhq.git","26614","7","[e1d307bf4b88afa59d851918c29ffbb61b01e8c5, 1591467655b6045108f88e8ac2d8b6a069ef4bb1, 0a6e978db70bb4d84ce7993f5376f395c6bea11e, 9b5c7a4d6026265cfeaeac9ad5101f8826515dbe, ecd771ccdfe54b08ea7f80f64667228b7938238d, c589029667644df4593572e2c94226bd2a5f7740, 714f7201d3362793d11f33793e5ef6dc83bdd2f0]","7","1","e1d307bf4b88afa59d851918c29ffbb61b01e8c5","e21ca9f8b140476f93eaa2c2a0d6bf96f28b6995","b634d2801e6abdd039447f53ec5d9cf709f66b06"
"https://github.com/gitlabhq/gitlabhq.git","26623","4","[001096cab8fb8462f8bc3f4bf7073ccca6de7ad3, f0bfeb6e33f8d3620b7d5d6da8439fbdf954d6cb, 367445fdcde4d07a685610449a2ab4d43b1fc507, 1df0345e9e642ca7e9d73c12430921b0fe62d25e]","20","3","001096cab8fb8462f8bc3f4bf7073ccca6de7ad3","ac9b5bc07815f3db03ebe856b9d91d36aab73995","6b4d5d21be69705f22cb2e848fdba9f182ef2bc5"
"https://github.com/gitlabhq/gitlabhq.git","26629","1","[1da2262efd272a4cf086f1cf1a033699a43df857]","4","1","1da2262efd272a4cf086f1cf1a033699a43df857","6b4d5d21be69705f22cb2e848fdba9f182ef2bc5","f3b0cb77fcb379107cdd4f770fdb16381cda1baf"
"https://github.com/gitlabhq/gitlabhq.git","26630","3","[4f47eaf9ae4c54d3c5aefa3cdf537d5bf739b533, af2a6ec1507e4145f14b0cbaccc7f75447c168cc, 2a4c73c0a204575d9e3e2d275fa46b65722733a5]","1","1","4f47eaf9ae4c54d3c5aefa3cdf537d5bf739b533","98c66b508caa810eb0d6b0f060aaee9e43411df5","c5678d4ecb9e557c9e70ddddbef493470d2fc229"
"https://github.com/gitlabhq/gitlabhq.git","26659","4","[8da8efb387cc62dd85fcb4abcb5a6197521303a5, 3b80d68f9d9d074ca24ca7cbc2f123360670a29a, 07b9d80604f130c5958e24651e73e889c6e43bb7, 55efb2d9f2f3024137cfd28ec0b58c723f044b42]","5","1","8da8efb387cc62dd85fcb4abcb5a6197521303a5","d8ac75a28f003dcb769b036eff255bef6541fa55","f3b0cb77fcb379107cdd4f770fdb16381cda1baf"
"https://github.com/gitlabhq/gitlabhq.git","26668","3","[4a505f38acdefe1ee023dcdd773385bf7b7270bb, 0f80ffdf8756a76a6ea0daaa2da5d3e193fcbe99, d4e7db40829a9ece62ead4d98380b36c2707c556]","1","1","4a505f38acdefe1ee023dcdd773385bf7b7270bb","4fb5a39dc04822f1cfac1090a431e51fb43e7a07","1f3261ac414ce42e5bbb6d5e0891e2cb5483dace"
"https://github.com/gitlabhq/gitlabhq.git","26670","5","[91e01275cb7c63e8f101c016d83f725d0e7e6cb9, 6b121aa5a7d2a02bf758c13cb9b5ef9845700b08, 5d25f3d9b12203c3010ba92d7dacfcbeaf51781e, de229135011c8012acf157e1e8b10e4dc443dcd4, 4e0afce6a70aa8d2f56706ce1304104b4f136c60]","2","1","91e01275cb7c63e8f101c016d83f725d0e7e6cb9","c337a2782463cdaed6cd0cae36b904b9ccda78b7","22995fc9324774ce5301589d05a4687793faddac"
"https://github.com/gitlabhq/gitlabhq.git","26712","16","[3e52517da1c506885c06c13ff59ff5863bcb68ea, eb5182ac8da38e0eadd87cee7385965f05dabc9d, fdbf77ef994dfdee9377fa917ca35ce3d5bd1231, d3796b84f8f3ab9da30447eb0bac2cf9aed32b31, d145f09cd675fa46a6cc20fac8304f02d2d14656, e66a8b4cdab176ff89a685788dcbcac089712e49, c223fb1a9677ae00285426090618f5762de9f40e, b6425f33bc0b0547058e96e5ab99a7892d9297f2, f0af302c8323cf18943d6de5854bbbaa32d891a9, 4ca8a175a2695dd2fc28084253a4471bad30bf00, 0723bf1afaaf13ddcb58c211161389052d18e501, 8e8c074205f4c85238309f4e21e80748f09d0ec8, 58570880f0ffde173de31a0093f6a9d243467fef, e1afea777a6f0d2e28adc2765c9445cb10bd25f8, aaba993352d65ad645215083cd6a4a46006f4b32, ca6fd8841e3bf1d6db9370fd7aa7934b320550e4]","13","1","3e52517da1c506885c06c13ff59ff5863bcb68ea","8fb76a8308292d991a32ea76e50fb5ecfa3284b2","76e36dd253229d580f2c6336a77e5fc403fe90c3"
"https://github.com/gitlabhq/gitlabhq.git","26715","1","[a7e0ca9e83851ae573eb19a977814f550b07f44f]","4","2","a7e0ca9e83851ae573eb19a977814f550b07f44f","2f962a40e8e3d28cbe7f4988711361dffae900e2","d1e424bd5c403d73d399bf0f92e39aefde56e638"
"https://github.com/gitlabhq/gitlabhq.git","26730","1","[af7e77984c72da8b240f5d7079ca1d30847843f6]","2","1","af7e77984c72da8b240f5d7079ca1d30847843f6","4d482b3b0c6ea6747f74e2eb0231631498496b59","79ee94eccbda6f8f8499df8a65ce8b588ea6defa"
"https://github.com/gitlabhq/gitlabhq.git","26758","2","[d12c1e90f8f3e9454d2a52f40854dadcdb2d822b, 37425618bc5a15bb58ed6695d4932d309d452cb2]","2","1","d12c1e90f8f3e9454d2a52f40854dadcdb2d822b","550f2337a75abc7cdf93c3c86eaa803c52a2b1eb","73c1030da1318284495288461210e8d145aa7181"
"https://github.com/gitlabhq/gitlabhq.git","26762","4","[db88797ef9e9012238b45857dfcec15a12838305, 26d1bd7c2a285da734ed0b8eab5c31cd5237caa4, 2c3626884efb86ac4477754780e5c5d612e5264e, a1eb1ad1685c88de953ad15c1f48f74b10e4ae3e]","4","1","db88797ef9e9012238b45857dfcec15a12838305","5aaa35656edaf309354528e197a54461f584ed21","b64351478a6eec7b50ffa6017bc58fefda60c2a7"
