"REPO_URL","TASK_ID","#HASHES","HASHES","#PROD_FILES","#TEST_FILES","LAST"
"https://github.com/gitlabhq/gitlabhq.git","24256","1","[df2bb60f90315a77718b9122e9d06f5655750640]","3","1","df2bb60f90315a77718b9122e9d06f5655750640","a84ed6eb234c9a9f0e5e5c0deea1779d224764a8","c4c41007adf5e3950f8991d4503b699d1e078705"
"https://github.com/gitlabhq/gitlabhq.git","24309","2","[e4a1d29077bcd6165ffde8889c4822d2d1d02e9f, 4dfded8934b9ba04317bf53c2ad1f9bd3a31cc6d]","3","2","e4a1d29077bcd6165ffde8889c4822d2d1d02e9f","7574ec4b85e03f1c1f5d957eee2ef7b29f718c80","82a3f2f109f957b8f6a5be84dd0f6e0170cecd4f"
"https://github.com/gitlabhq/gitlabhq.git","24330","13","[a0b9fe12886f55875bc4bce49f2566be3bff79cd, e05fbf04941f1ec5cb17fccb1462353aba2ea04d, 0ebe8be02d9d17ea8caa2887466509e060e67075, 39a4bb2abda20fe85a362c1718eab9dfd7de13a3, bd08ac55c7b8eb1b41862937aa4f7cc7a53e4bfe, 17156cf909fff49ea068b2dc00fd607af20967f8, 77fb7e078e49685fa649abc8ebe24376203c2c2c, 8404ab46b91103033a78fdd183e9873f85799b6f, c2f02fc1a4b88e1c01cb3562168322d0c5debba3, 5be6cbac6fd50f6e97c483f78de667ce5628a3ce, bc3cd44ba71c2843330428ea41b221b6905378ab, d192f921c17561c82943bc803875ba6bf11fd8ce, 5e7f7f8d31cce732533e36b7be756b824b748f74]","14","3","a0b9fe12886f55875bc4bce49f2566be3bff79cd","c8e9246ef65da784d6b9d48fb77e66989cea2534","62c8bc22ccd49dbf971d9ed271a9434e56d6d5f2"
"https://github.com/gitlabhq/gitlabhq.git","24348","1","[411829fdb5f24f97ce17e05f5fd018d47075b216]","10","2","411829fdb5f24f97ce17e05f5fd018d47075b216","f3590c83ea52971f2c30534952ea4d1fd6fc1b81","8ba83cbab86349c5fa5ce5034df6ffc8225f137c"
"https://github.com/gitlabhq/gitlabhq.git","24389","5","[ae75b2ee4099448f89af0fc6eaa9c508f36df5ef, 9cc00aa5010ae18d2fa3abe60e357a417cf96ceb, 8384b577ef155f2bc196405caed1dc73729aa8bf, f6503f71f994c50f12abfb29233259816006391a, e4472cee78c1904b801d25d51c14b557afc44816]","14","1","ae75b2ee4099448f89af0fc6eaa9c508f36df5ef","83d8d611e949135aeb09ff8cc93472644ef6ca98","9f166a864959370d3e31931519506887b902cd11"
"https://github.com/gitlabhq/gitlabhq.git","24393","13","[58ceb8e95097df51d08a74c16de83152044e9c58, c9f21c9691033b1fb1d6ddb7dd48057ec4f25aa3, d5947ada4493335d49368ec193f4b9b801582deb, b9fa82daeeb91d8121e096fec0db4981b46dd5b9, a9095280c7954873fa391c9b91822308bdb52901, 304386aa02647a8079c6df5706786fbf89c4ad72, cbb64a4f6344cd0719d048ba41147a58c0cc2065, 6006065e0606da79915f3ad3053dff70d4e5893d, 0bcfe9a0dcf630b166376bf05de966132d6ee45d, 5ff870a044150bef027b903bd944b8cc0578f798, 2d31568b27d60b2868d60da905018bdcba862c59, d315d1eba4f45c4c4f0417fbdcd3eaf69e102282, 60baa1e866013d66d25531e5f8a8f62ec49b228b]","28","1","58ceb8e95097df51d08a74c16de83152044e9c58","05ef7ba105b05f143e44cca696ceedc0a2eae34a","6288677134d0e6d1f805748bc557091ad4747bd9"
"https://github.com/gitlabhq/gitlabhq.git","24415","1","[555fd0cf4ab9474f84b3fcf4a4045fdac181b5f7]","2","1","555fd0cf4ab9474f84b3fcf4a4045fdac181b5f7","541f7675f9a72a7156811ccc6cd58171b7583934","883438970df30ac7101d8f32b30007c4248c75d5"
"https://github.com/gitlabhq/gitlabhq.git","24428","8","[3fe3cbf222a036d4487b9630e2abfc58ec7515cf, cc04c5b82897564e4a78d7cd36bff853cc7efd83, b21390936a02764cc5aee8cfeef3d2f8419da4fc, 8f89a4884744cf633fcff218dcfc657a8ff922b4, aca6d36722df8139bb26e06fd39970b797aa6a1f, d059c69db76a5a55841bb8b0914211ae0a4bfd4f, 270b7ce810775d69887e76162a00e8dc97e5d959, 228da2dd28a91b3ab2729787e93e72940975a2bd]","12","1","3fe3cbf222a036d4487b9630e2abfc58ec7515cf","73e003013f1f6f81f3ca3518784d41d608490403","74a6732c0dfc1416cad382203544d9c4d6246f58"
"https://github.com/gitlabhq/gitlabhq.git","24429","3","[967214b2eccc473eaeab45a22e496fefbcfe0841, eb972b71d0ad547834e9e564349f5a254863c4b5, 7524d7c0822b9aef962163272874e648ef3bdcff]","11","1","967214b2eccc473eaeab45a22e496fefbcfe0841","cc9b5c49d1de2a9e1e90895700376793b9d614f6","74a6732c0dfc1416cad382203544d9c4d6246f58"
"https://github.com/gitlabhq/gitlabhq.git","24433","21","[e4e01dbf41daf65b1678ce8981a7a84866d235ce, 1dd42da802eeace25c2a38b736738e535a86d362, bf71d53f634926bee91955c8ecee7a3869fcd518, 0f627f1c6046be06986ee0e6e46d390ec2c18507, 8b1f1ab32e528cf6f7e21b54cf722dae386c5a1d, da135119aac4befd0ef13cae519c165366a0568b, ef206b7977cef355c3f11bef333209d0f6714483, 018fcc596f07276df2c34f3bd535f4632496be7b, 7460c39f60bcf326dee062bdf3aa2ddda38e86e5, 2120e2dd95dbbab81c4b818d6d860139bb6c5f0b, 213d1a4768b4bb83aa1ca827682468c381cbe9c9, 15133d99ded86b08e7d549ca1e2dff6dbd8de68d, 1f7490a23fae82c0784b89ae73de7c8a14256da6, 20a871cc21227ef67d9173ba9bd3b7e0d0e2e26f, 5a9ede472150ec78f8410ae15cf782095c8f056c, dad88568f34bfda5f7fe34672bc5099c80226138, 9874cf59534981b3e3192a4b3be895fc819d20fa, 990ddeba850fd6945a2edc4aadfa3d7e40f7553f, afec5efc7dd0d0a063c30c3fff5ea5bbf59f9f48, d6cd2e6a53aca48f76296cd6b89b0f2b41b641ed, f3d99a1e9c742081148bdb66aa0fa4e19fc20b64]","8","2","e4e01dbf41daf65b1678ce8981a7a84866d235ce","595b3323a8eda201d423a620dd29ba242c9e6131","75f7a9648ea7b0ad09ab54dc62a925b1733d9c01"
"https://github.com/gitlabhq/gitlabhq.git","24443","1","[e785b9d2e24ca7e16e8ff3fa46f2e2b82478be9b]","1","1","e785b9d2e24ca7e16e8ff3fa46f2e2b82478be9b","b2eef41d41d603bf9d5340f26bbe640363f608e6","74a6732c0dfc1416cad382203544d9c4d6246f58"
"https://github.com/gitlabhq/gitlabhq.git","24446","7","[7f5b255c08593200797f5d29793e375e96f320ef, e59aad6e83cbdafcaf100bb86f6fb925f2fb779e, 32366d18118281b32b5e770824d637a01d15093b, 1f88d9b56f02ab05aa1ea055a53627b4c934cf51, da15428340e94e1c99c60e6e6f794d4c25d8e0a2, 15582293b9e602f5352a6fe88afd9934c9447dad, b3f9be06398e8872cc64a966f99866b67e18c337]","1","1","7f5b255c08593200797f5d29793e375e96f320ef","efa0146c7f150c6e8fc95c42945f4f8ed33a55cf","74a6732c0dfc1416cad382203544d9c4d6246f58"
"https://github.com/gitlabhq/gitlabhq.git","24463","1","[a7932fe2fd63da4864afb01bff859f4e1fbe9576]","7","1","a7932fe2fd63da4864afb01bff859f4e1fbe9576","adffe47d3c1549bac13a15868a1fb8071bd0d10d","903132bc079970787333347209f6baebdd48800f"
"https://github.com/gitlabhq/gitlabhq.git","24476","27","[9eec51d914bc79fed479a4e3e7b86fda58ad77c8, c6b71111cce706852f00f90ebabcc881870365e1, b00f447db4d76d453aa65ebd743da3a6bbe281f2, 8ae13c7a51556a3bd4aa2f0eefc2693972166aa8, d2894a39e5b3a8504cb290a2f41b0aac5fc8b0a8, c0cb77e413fa38625a96323a527ff4dc56d59573, d0463d2c6a275559f187df4b45e1e62aaffe4ec9, 13d9544d5de831794c0a7647203e26df3b6b9471, cdf893bc1597c21b90f8c401bacf79a7c70787fb, b9c85393c36027f31bb2e4fd6861cd034fef7fcc, 1562f017b6305eeef2ac83e370660699d8789965, fb5271ddf11be8074d5882b86a4b4dfec12150d4, bf9dd4327e36b6ab0b5440dcff747fff27aa5c22, 1eb9a02f21d45f2fa301576723bbb0a23b5ba22d, 6de3958364f8d2adb68b8beecd53e4af6b17c353, 94d3c1433df9380ca83f1f35a540074ff0690410, 2bc4fd2d047c1c4c4637f045ed3a51d414359c2a, 35339bb11f2c410b91a5e8b9ae1d2fef19cac695, 0e21436aaf9ea2ed988c3e515e0db73df70534c4, 5f20574db5c7b91d54e829010c1fda093ea8a25e, 1044dfbfd29866b101cfbdc278788bd4f55a7276, 8112f7550b70c83bde2f74ed48e7781c5424ebb9, 844d72716e2175dcd5e39b4d1eecb9e3560aa0b9, 658b42b1fa79c77b1acef67a645b36a2928a71bd, 0c0c31ff34b3010c2c269ec56ef48dd305c6f74a, 44d68159999a0ee30f7714470c1ef5b0c4a717fa, 821fc4b03479a193b055c91b8a655d226bc46c17]","16","2","9eec51d914bc79fed479a4e3e7b86fda58ad77c8","7300729190f4e61c4e71f18d0a81ea044eaad98a","0b3c97422136683357cdb4433a5ef0aa8858c18d"
"https://github.com/gitlabhq/gitlabhq.git","24513","1","[ebe4963871e4e2aa38b5b359af34d4f7062b7dfb]","4","1","ebe4963871e4e2aa38b5b359af34d4f7062b7dfb","269c2d2efc912ebc602426f7813d117297ff43d9","b637f849503db06f38812184aec398f2e4e29d09"
"https://github.com/gitlabhq/gitlabhq.git","24547","3","[971e57cffa6a89ebcd4da83efc4967f834f8f58b, 793d9799b64c1a46b6e7f45a74c89c3298ad0221, 6e5473f930c11be6719585b47c47d8552f6b41b5]","8","1","971e57cffa6a89ebcd4da83efc4967f834f8f58b","e063c8f3e2c5faa8c92c898c4390e616e90926b0","83e59db55e9bd65a41af69eda893ef39e8fd7aed"
"https://github.com/gitlabhq/gitlabhq.git","24577","1","[5e4384ec9bc5e015c6a5427e337d8f5412e91d1e]","5","1","5e4384ec9bc5e015c6a5427e337d8f5412e91d1e","a1c45338f37560b044f23f1af07fea7bef2107cd","06250eef2e12ed509b88f3770ae6d3fa4614b74d"
"https://github.com/gitlabhq/gitlabhq.git","24579","2","[85de253ee10aa7821a212270a1940c6205533d38, cef746dc94347d65af6d953eb03223d16e3c4019]","2","1","85de253ee10aa7821a212270a1940c6205533d38","394fe7614c3d8507b79ca41419f11bcde906ccae","aa97325deae515f45c047df3640d7b1f07247038"
"https://github.com/gitlabhq/gitlabhq.git","24601","1","[ab88b7da19168c66404dfa9dfeb12110ccb8ceea]","1","1","ab88b7da19168c66404dfa9dfeb12110ccb8ceea","e46849c45429c127ef0b738b295d292a9507d342","4146ce559e8858604ec91d663eac15f9e5379ff0"
"https://github.com/gitlabhq/gitlabhq.git","24609","3","[7df45882a93220c6250294fb653f5e64464ebb64, d25026a512cd0f8137ef6685a23a1d2ce898ffa7, ebe9c89082d1536d3f4c7e2071692277e7957d57]","15","1","7df45882a93220c6250294fb653f5e64464ebb64","9eec0d54362199b622fa14858c6f1ea600c295a0","84cb0dcbcd361730afcfbc72ea4aa7d9204f12d4"
"https://github.com/gitlabhq/gitlabhq.git","24619","1","[b16aad9dd1de60585f8265eff11cdea19982740d]","1","1","b16aad9dd1de60585f8265eff11cdea19982740d","aa36a19613c37af8598741683e799402c72d2772","b6117074ccb018a679d72f3faf4302ddb076a3ac"
"https://github.com/gitlabhq/gitlabhq.git","24632","1","[a7d8a7bd3d4b6f7b388d8976201cbdf3b36ab7aa]","3","1","a7d8a7bd3d4b6f7b388d8976201cbdf3b36ab7aa","04d4452286feb265be362086caa1060e3f0f715d","f042b085f64223ffe7b9d26f003ee2db76af27a6"
"https://github.com/gitlabhq/gitlabhq.git","24638","1","[7a7ce701692d4048a7f5ab2767aa30a8f5eb05c8]","3","1","7a7ce701692d4048a7f5ab2767aa30a8f5eb05c8","c4e48d27a7922490be30ba9f26740af94b6c020c","2b1b026a1e8c7654b475aa0aaacf3121e86ee2a5"
"https://github.com/gitlabhq/gitlabhq.git","24707","1","[a0fd2eb568cdbe3537f10a83191fde893a5d6fcd]","1","1","a0fd2eb568cdbe3537f10a83191fde893a5d6fcd","6fdc51f81d013a1e01c0742e81cdd0fa5476e2d6","6c32abc5f7f090d4932054e5cc1ff0594edd5ff1"
"https://github.com/gitlabhq/gitlabhq.git","24717","26","[da8d6feb2c9a273a32b072fbed30f958435c2eeb, cca28c79201aea3703c46289e22d5ff75faf10d6, 0cc75363415a4f60100a230d78945465f9cefdcc, 1108915f758db254187d47d6a2e626ed6abcbbf3, 0a99e6e2facee4126509c41b987aa88f1520626e, d5ee54df163e0b2e613701ba107d6163be656930, 33836ae02c160657c4320e41916f8162ebfab635, b519e2312fc52c5065846c67d8e9ca1ce195ddc2, 51c3393974c0702f56f22122006606d3e03b668d, c96c7cbfb15f3fae50b21862fdc5a863929ef0cd, 968c281f403d59909ac6fcd54659ccc036c1775f, a10d8100b700f609d092c2d99d16c7bd23d8a206, f3d63eeb181db1c089bf9e4f5c0e296f6ca6230b, c915c7b0010d5f9a76092622eff5f17afa072c61, 421f3f1551fee86cac163b06404c407b5ac34604, 725ff58bc891bfdad60f55db6b0dacdba11b1b20, 5c7b91e29b500c2e9c991c798552343626c0f7c1, 6883e6e084f17a96d3cbb6f84b69603533f4f2c2, e167f28549b80141165f42b567073c5dd55f80c5, ce29e5cd8f09212afd3274326917c364272a6e39, 922497560eb7d619a6064d7b1d44c831ccd64ea9, a3d55db91053955a36c6a48c9ad596752a3aba40, 18baf550e1ecfd0a8cd356490c3cae4e4566fb8f, 61c73575c348b3fd06047af130680f665f8ea724, 5ef8bd33d03947528979540c6f7013c2b4c2a4ce, bc14d223a781322d672ca54d7afa946532b66d56]","11","2","da8d6feb2c9a273a32b072fbed30f958435c2eeb","6c32abc5f7f090d4932054e5cc1ff0594edd5ff1","5b3c823fc9fe6788184a29dec7393158738ef584"
"https://github.com/gitlabhq/gitlabhq.git","24753","1","[d79348ab55c668883aa8d2a7fd5b59f28eb5118a]","1","1","d79348ab55c668883aa8d2a7fd5b59f28eb5118a","16db51ec588bad1f341ffd3be9153cc453fce0f1","39a55bdf1a1613f362bcd7da444b291210454160"
"https://github.com/gitlabhq/gitlabhq.git","24822","1","[2f045997516a11622a7c7229ac08ac0d288813df]","2","1","2f045997516a11622a7c7229ac08ac0d288813df","439b9f50af3168d33169a4cd25b59e45ea46dc62","62117f2f25646009fb5b20d7a215d7d697ce3231"
"https://github.com/gitlabhq/gitlabhq.git","24903","25","[3d0c0bd922dadbf09c46f2b8acb58d44565394ce, 88c2639356e6e4b4b05d96584768e07a9ce4b048, c1531fe1d801b175d8ecf7646592b1f5e9a8e508, cb5362e7ce0496e4fa7bec4ae629fd24e93d721e, 0013ea5130494326f37fb1d6988a369fa2c91d22, a8b462bbfe3647574e17c483aad27281c2adc5f2, 1c0b58a7994f2942799c5ccdbdd37a48aa034f97, 1b5c483d89d9a20a92e98fc37879389ee2c8dd00, e50556fcc8d81dae5978bcb3e1dd5104789aab0f, 8949af0c9f2aa90b979043a0a6ee264ac0c036b9, 405df435587c674dda049868cb2009b00c243dd8, 1c0824f451a3fe8f328f0360c94cd251ff664ed6, 2a45eb6a912a35b71e3cbe7aacbda3323730d9da, 453340d4496ce0500985d6432c32e8d31be350a7, 87dd3f215f8c087d85cde7ac880c5480fd501303, 717fa136a5146d45660d3d97f5671352a47a0601, 39f389ae0fff5706b73b03c8fb5fc4e3dd7da638, 90dafe31c4b1bb54bcd0476a873c4f5cdb62e981, 2a1d4255da396d37579e25dd88d5a9ea76116c22, cee98f22478b5ec27f91da04fe564a9760f79a38, 629fa7fbe3a8a2f06d7c053ddcbcd78beed24e9c, 2b2bd402dcee427a43de771036b348e156fea6c9, 1e97864958b5ee7cb92a6d45ceab6b6e476c5e7e, e6569defe61f114beb051a1ebf8186f03eed1f5c, ff3caad4caf46049c8f202849a05fb15a2aaccb8]","44","3","3d0c0bd922dadbf09c46f2b8acb58d44565394ce","e3d818a4e8f51c00aaba1924690f728aa468d7f2","ae6d0aaae0d8f6251b30a8e5243a98f083f0cac9"
"https://github.com/gitlabhq/gitlabhq.git","24905","3","[4efbf9b6f5996a07bc4557a611f2a91e5ed453f0, 5d1ab47bd2dc80e8c5237416405009786ef58629, 400c9c5ae2c04340dc5a3490b27b393c410f63ad]","1","1","4efbf9b6f5996a07bc4557a611f2a91e5ed453f0","3d9cbc5dcb09adc86e1a215f58f3734caeee76e9","ac5af61499a8612ef6a51b2bebd18c4c1a083583"
"https://github.com/gitlabhq/gitlabhq.git","24933","5","[6237cae1f16475d874ea761a62350344bdbff617, 9b3624071ec8932d468213109486f462a1770a2a, ed097df62758880eb6412770f661266d4a6e9299, a243e44ca1ee57dc28ef72bd3521c17726ba5026, edc4a56d26792b5b5bac21f45948412675ad7ebb]","12","2","6237cae1f16475d874ea761a62350344bdbff617","9c14ed0689ba3e667adbcc179793d7d14d776f79","9157985cfce1391973673ea278dc7506a90f8f53"
