"REPO_URL","TASK_ID","#HASHES","HASHES","#PROD_FILES","#TEST_FILES","LAST"
"https://github.com/gitlabhq/gitlabhq.git","20328","3","[1f7353ce38c2bcc957d10c35aadc4197668cc7f8, 00ac7ae84a9d518e4d800973ac1056b720e86719, 043522a8aed5e598f3cfe97480a5b169fe0786f3]","8","1","1f7353ce38c2bcc957d10c35aadc4197668cc7f8","4dcf107b26e4e31a103b0c3097ae9cac6918c68b","764c9131d31593cf8508e36db17f6b7bd026f4c0"
"https://github.com/gitlabhq/gitlabhq.git","20329","8","[909a0ff3ace1eb82a4296764777a552779c39839, bf05ca88eefb38bb52fb6e31622f9c1a795965e3, bceee987134ad578b3d6f89c9bc61bef8e0c6066, 654565c9dc734a597c525a75c8f72dd63235604b, a08a26ac814d7fd9f7523e22847fab0cc25ceb78, 724f986fb2cf8fee3606bffd01da9842634400ef, 6c5b2377f769185f562578791139a13939867b73, 4652489f40a4ff2b749f9ad495986a7a17448243]","13","1","909a0ff3ace1eb82a4296764777a552779c39839","c11006ac6c395556f7d326a9630d4d32a07005cc","00906b5bb6cde8cb60281109060a519a54000c61"
"https://github.com/gitlabhq/gitlabhq.git","20333","3","[59fc1816d3df8f9ac27542eac46f93ae85e328ae, 5c9f0896ef3118b4e381e1834073827f42a10feb, 26d2fa0aaa4546ab6d41d08b4f0af66ca5d14ec0]","1","2","59fc1816d3df8f9ac27542eac46f93ae85e328ae","1551615030524c731b6ca8864c180e4e9e70fb91","74f8f260982a9b9e1941ad803d53d229cc27c85f"
"https://github.com/gitlabhq/gitlabhq.git","20416","2","[16387947341ccf49eeec366725fadf901a20b10e, 2878c990052f78fae3cde21a1d2cd90dd5a85461]","3","1","16387947341ccf49eeec366725fadf901a20b10e","d97b3d140712c1d8ab5f00681f09b040ed31b156","bb4a1ef6c1ed4d367e6126ad64033e0286da6f15"
"https://github.com/gitlabhq/gitlabhq.git","20437","4","[8891bef26f5e3acc7050d206670bc6fc0ddd66e2, 402b651a552030c90af421ddd2a74f6cbf298413, 2d4556c5d208e9ae805b0467c1c7281ae6a36ebe, bfced6fdb5ef4b567914e0da8d6bf0c97271ed9f]","47","1","8891bef26f5e3acc7050d206670bc6fc0ddd66e2","9b7fd74805684c09d8de314d4eee67b470cb57eb","b3a0a1c3155702e2deddade0fea3e79087b40da4"
"https://github.com/gitlabhq/gitlabhq.git","20471","11","[452c076a34cc11cc97f4b1c3113e86ce4367e055, 13e37a3ee5c943525a99481b855d654e97e8597c, 9be06bbbb40a64b060fe9042fc84817551dfed08, f6ed7c8ff8313826a08aace346f30facc55a202f, fde90c3e7fe97420e029c1e7c02227d3e8773c7f, 4020b0f55fa7df3a410a11debfd155527b1a79ee, bd5c749f2911e9d843a5bfe7487fdc1566c5dfa6, 86e475101138d2db04d09606123b4f666b03bd39, cc322603945816ed957da7c0efa56e2ef1016569, 069bc264185f35f75c6840e26581e64a1de12d6a, 771f73510937186130be260d11b8dbb273d45907]","202","1","452c076a34cc11cc97f4b1c3113e86ce4367e055","778d72664f386dfee45dab171f137395739958f6","e2c95c07a44349fa3831f2b8f49f7790d27c9834"
"https://github.com/gitlabhq/gitlabhq.git","20508","10","[bcbe9b4de8776dbbaee6e374200de395cae3c61a, 6d10d8251c1acfe59a6fa92e4ff9c780dfbb2a0d, d5efd17d8ae540f2e85b81ae787779c3871d42c4, f1245bde894a04fcc83771281d3051a87c5cdab2, d3b6c18526e72d43cd20db5bb2c69c60320197ce, d1c3f3d87258336b6ad50639d4f63647e95958df, 922a164d60725246ee038d2603d2beed0a82277a, 736ba42b249d8ccd22b455f6cd09ae946bd2d855, 58c8661cd161e10d6dc51300c59850481e61cfd7, 10ae4a8e71e14053beb9f90196c9450838d8a44e]","12","1","bcbe9b4de8776dbbaee6e374200de395cae3c61a","e09d573e2f5618ed7a428324d4dd461e9866b692","a95f8b9a82e79781dc99ff36d6ab5f9ba293ae52"
"https://github.com/gitlabhq/gitlabhq.git","20617","4","[308bb56781554b9d6436de674ae0291505fd2686, 95f15b14d19203e99cb1e25c8c40edb61bf914e5, d4b2f5d0f3baf4e3644c0e0f71ffb2995fb72a57, 1976a44649edcac40058cf39600e134ec6112408]","7","1","308bb56781554b9d6436de674ae0291505fd2686","8f3c0490dd4b445dd4f97ddcfb1c051f93322401","d6de816982eb9a227a384c3318d050a23ad18529"
"https://github.com/gitlabhq/gitlabhq.git","20716","2","[d47218fb9732841956a5511afbde38ff731ab106, 01e1139f68066e46b86ef92749513377eee63f5b]","3","1","d47218fb9732841956a5511afbde38ff731ab106","afa21054fae2331afcf4b3784a3ffae5657b3e5b","ca3c5c295ed653b483fe81c3918ffe60f46666b9"
"https://github.com/gitlabhq/gitlabhq.git","20732","1","[535d11302e73fe88702f7c65effc3cd443bf56fc]","2","2","535d11302e73fe88702f7c65effc3cd443bf56fc","410130b8077de853607b65229326f8485f575a9e","316630ad2c7f654024d7ea10cd5c2f978f37357e"
"https://github.com/gitlabhq/gitlabhq.git","20771","5","[3f4ac2ff60c9d83ec65b19070e4d054e12e67dd2, 334cb868213bfc08e83c6d12fbda04ca15fd67f0, db2109b086340a5bf5e049aa16f22a76c0a5aec7, 7cfb445c15bdec0268f0a3800481e9cced973648, 56a17a7701229a35af2cf710261cdeef15a6f8ad]","4","2","3f4ac2ff60c9d83ec65b19070e4d054e12e67dd2","6eda07b7171493d6c57c30b6ffad1a8260a3e48a","ae5f17ae2dc0009ca5fce9a46db18af943dffbd5"
"https://github.com/gitlabhq/gitlabhq.git","20775","19","[721014c92799219d357b1b7c971d4c0b6050ff2a, 3e99123095b26988de67a94b0e7a5207c1ef5ae2, 7df495fb7702f3635d6746cb9b0d79d00eafed80, 816dfcb1c54277ce5e3e3da1a0c1028b4c2cdb3c, 30f4dcd4c906a71db98833075c76eb59922f5b98, a5f04ad48849b94aabeeb7450c6059e76372855c, 301d64b84943f7f91588c330f2d22c172f529d52, bcda64c75c15e2fb1343378a9d07e4659ae4acda, 7733f56d80f84ada4c4fef8cc4a5ab9357af0dc5, 504c186f7139df71dbea596b422d833f32348f46, 5777ad9a1f016f170585949059b08a4eeb7d19a9, f386d7a7b7f67ba8e77ee40ef6a3383d5206d0c1, 2dff04f24a8446216e12d43fab6841f28f3dd406, 8165e52045711958abbb94ee9ea2c00056ccadda, b2b7b38c944436af5257b1b38d612aeb3d2f237e, cffae0d22ee159b78f66eb68cae9df4bcb9e83e5, 49e6fc40b9d23b4081139a3ad141722a6b1f7cfc, a5d59f075a4a9a301ef985eb7cc6cdfdf3e73955, 6a12ff6345e517af9cf07cb61f3a0ea85562f399]","523","6","721014c92799219d357b1b7c971d4c0b6050ff2a","398f0071a6b77a7e26e612b38105ae4bd702ef22","f3a88212171c27f51e170b7b3a7ecafcc59333f8"
"https://github.com/gitlabhq/gitlabhq.git","20786","3","[2605a0a844f187daeeff1f16920db445f53e2793, 4d9622e7d3e927ad158d26c780fee64c6d8183bc, 2d05de7af8de9a11f5bdfec0dd3f294a0148d023]","4","1","2605a0a844f187daeeff1f16920db445f53e2793","61cfda255f42160e2deeb5c37dd7b97b858863e6","81621e46e74e2099fe5b8a25553728aaee08e129"
"https://github.com/gitlabhq/gitlabhq.git","20919","10","[75532a65702cafc890ec83126a8ca948a8683015, 3c8d209e16c606c5122d5aee455d051e65c6dab0, 5436bfa82230f7ba4532a2b09d035cfc733e8657, 5bb7fa1bd93f697a6023c738b7a1f9411fbecac9, 5ba52693830bfa2d5c70a343b8c2ceace0f20ccd, 442083e0fcc2d7ee9a3b202a1ebfdeaa659bb6ad, ff5109e19cc6a34c8919da1be4aa6f7b53afdef9, 79b9ff60768644287daace5a8f640d1790816353, 7365ac60f116d0e0a89a3bd8ebcf558b477c4bc3, 29211b48d785d18c3af59a11e07abaf820086701]","11","2","75532a65702cafc890ec83126a8ca948a8683015","2f4dc1ee16d7196a16a3870ae09f9a0478ab16bc","78a67fc48dab434b43a080e5b15491963656661a"
"https://github.com/gitlabhq/gitlabhq.git","21159","2","[1026f2ad0982493cb5465404ef4ebe71a0082bc0, f95a8e450c37e89b2d03b1c7bd2ca609a1d288e7]","2","1","1026f2ad0982493cb5465404ef4ebe71a0082bc0","4453104d75bc85f5dba81bea5ab36e1915964ab1","f96c34ec456deca5bb93ef27e578f078ece24aa3"
"https://github.com/gitlabhq/gitlabhq.git","21178","1","[f18ec70743375024aa7ec7bb86c437ca9198e729]","1","1","f18ec70743375024aa7ec7bb86c437ca9198e729","d4d34b161b41539567332d45527bb10c9f0665e3","fad7b392dc633fb689e657af8b7fad346ede416e"
"https://github.com/gitlabhq/gitlabhq.git","21219","4","[8d19955c05f18675fc16dee6ca0f4da24013e816, 3a3f0bf436007b3eecc0b85d0fc696951245ab6a, fc20639c8d76b367dc0e0b66ef94033697b28dc7, 7878eb9fa69123981281c2d71a2964dca1b459ee]","52","1","8d19955c05f18675fc16dee6ca0f4da24013e816","0bdb68ef606eced7acad5b229754a76a38f9f9a0","950ab1e8470011bda4a2c481fc73e12df391dddf"
"https://github.com/gitlabhq/gitlabhq.git","21227","2","[e14d1051d2c04bad514d840e1eff35ce24b05922, a9ac9ed105a710194099a4e07a2e87712d59a59a]","1","1","e14d1051d2c04bad514d840e1eff35ce24b05922","21cfad245cad67e272106758444b9fab603f251a","c422cef02fd69ff88ea5e9fd6df788cd32a084a2"
"https://github.com/gitlabhq/gitlabhq.git","21231","9","[ccd9c4be00a1e783b6d8c821aaec2b975e4a3176, 4ed9e5f5bebc5d3e11c21a929fdf57b8b014a31b, 003b36b45f38ca3116af5d9179fff4adb26a4eb1, 21ccf89685bceee2b502a9e6a9fbb55310e02ebc, f53557a4faa02c4596d16819c4b5c7783829677a, bdda1eeddeb8a49484d221ae7217a9983bf984c4, 774af93027a5e1758adac00eb61178ecd85567ed, d8440b3035667623c87fe84b5a58c68da4ff936f, 01aed0c84863ee0271cfb27ab3120ffdf2be7739]","7","1","ccd9c4be00a1e783b6d8c821aaec2b975e4a3176","3592a59715aa254e26cf1769635d337387984bcc","df5b73e17d5ff672d522a2414ce1c4fe557ac64d"
"https://github.com/gitlabhq/gitlabhq.git","21312","2","[54493b9aaef6b2209889a414cf3a26da131eb0ca, 756185533cfef42f85f5ad5cf687768e9ed82bb5]","4","1","54493b9aaef6b2209889a414cf3a26da131eb0ca","bdcba438730bf2dcef29385ba49811fde2e1c17c","be85fde6632d1058c17cb3083fa6a9b54fc9871c"
"https://github.com/gitlabhq/gitlabhq.git","21346","15","[97c1a1ef64cdce75afa24075ea77333e76c9ccbf, 7ee5de19804842033c3cfdc2bf1209c27adcd7b7, 06276bd3550e589c520027c16f108b92a48fb44a, 3137559dfd45ff0e7fa6653ed1ba3d75836e4c45, f5bea9df5325fe136042fb32fe282cc04c2ec91a, 262a3dd482680466b5bdc3fa1b94e06491e7a906, 3b5879e50c11baf3039512107c114c595baaf14e, d369d529380167ac926ec916eea85419ee65e5b9, 6ac549c1dea7a30d6c2245024879ec5761c40061, aa316cbfff8a3a1c416a3de6054608c96106d39f, 1c8d01b05ac3e0c19d0ac21c06d6419ab884939b, be521d7d76fac2daa48ad17d330a61d3bbc236ba, 8e4aa6e3910899e3907a9ea76415e616f175767b, bb50edb16d426fad1544f08cae7d2dbe41152e26, b3af3930c6c9a635cf21192c2d5a50dc51a9f5da]","7","1","97c1a1ef64cdce75afa24075ea77333e76c9ccbf","31c10e0362ddd4733d9f66bd7fb702f7dfa26d06","6ff740ff9484691750f3eadf12125fd362efe61c"
"https://github.com/gitlabhq/gitlabhq.git","21409","6","[80ae3790b456b12314243c75632ed6024ac16424, 41cee8c38e61d3f00e1c79b2d170d6fc5f8bea0e, 3f574c4db958f2d1ea4d6475cb027dc005fbae87, c0ce49861510e73194760a4251858437abaedc03, 9bd29a772604d9ea9aa7f9a5e6d4482e6fc81d6b, ded5efad1ffddb5f1bf8585802bb25e588eee6ea]","2","1","80ae3790b456b12314243c75632ed6024ac16424","c9fe9f59d27bacb60c264678cce3cbe45d514a69","17b60d681828567e47c8a62ef312abc46e2beeea"
"https://github.com/gitlabhq/gitlabhq.git","21450","12","[b41ddf9c6977e311b5085de8467ab450aa81b71b, 21063c60ba7f149635440611706bb3ec0aa3a7be, eaedc49ea3775464d05678f2b8929e4d03a742d5, ef818d0964b86dfd154ac96c482e66abb928a624, 57b7599d1719afdbb73d2ecb603770b3f3392e24, b9af0305c371b557be42ce831330bc2787dfcf85, 29734516e1558812204973865b0ee848c92f0f7c, 1a47c081c86e0822995250513683b2cf7621d389, 749abfaf2aa9e6f26bc2010fe9e7d1f04ff3c71a, eb45c48d20f7eea6d2a3f482b85101ee9d4f9d40, 91de6e2586fe22adcba440a6e2a889c72aa3b8c8, 7f15307754666a03292296b383747568f0b594b2]","3","1","b41ddf9c6977e311b5085de8467ab450aa81b71b","a45924348fca7eff4e26b3d9e47117b9fb3669ec","387b025d15c3e0536d37128c282e02e9025dcd75"
"https://github.com/gitlabhq/gitlabhq.git","21463","6","[50bee8e9198f65a692e32710a32089270e166f6b, b2370fefad16b6b0a808a75b9a7b1d1613187693, 2f18c77e1b0e3b6f3d668c3cb1814d4675641a75, 0aaaae9d0536c5637662f6c72a6612ec13f0342f, 13804aba867d19009ca94d820aa7ec650a509f5a, 073c3d15c71a0f877b62c7d3d7417a9721da1dba]","12","1","50bee8e9198f65a692e32710a32089270e166f6b","3d4875f86a3b23789f5ea801c096754fced25166","06952aaf24633550f57fd54b70d27732509935c2"
"https://github.com/gitlabhq/gitlabhq.git","21651","14","[12ff7ee93348239d545e0553a49881cfe490420e, a4fff0e03368bf57081ae80d727bfc38ab165cd5, 643fe43d78044d200c863f34d05c210c3e45b5ce, 1ca627f7829f4f45802687748da22cef315207a3, 39ecce05c7c3b5d8054b4deb61028695872acc9e, 017ed4ae37474ba43cbf4f4ee7c12d8aeec70598, 8cdb50587805afa4177ee6cb938a0b5846a1641f, fe811a7cdba2fcd1466f25115472265910dd394d, 1af1b6c8d32599500edb8ead52666a27d53765e2, beab104da812af015eeabb0f33d203741a221aed, 850fa65ef2ff1fb16623c591a2147d75df333c58, b31005899858bb19f5de06b49621fa1d73dbe037, 7fe19046d6633d01f1a326a5cc0d80a24879f04d, c5c05f6a04ab3c791bc7c34dc74925731cf2ff94]","8","2","12ff7ee93348239d545e0553a49881cfe490420e","69a8bf367c4de56864e0e91a68c185901809921a","f76bfed9fc3e52c7b3b731dbb311b6b394d9af62"
"https://github.com/gitlabhq/gitlabhq.git","21667","10","[e65bccfcc3956a13ffc04f0a72226afe97b6b69d, d76878b96040c8ae4752600aceb30200fa0049a0, 6ee2069768279a9f9e03ae20f10b906a807a5eb7, 04e798a5154b2b2a86288f51081da8495f96bee5, dab4ac54b691f1c832b1fe444859c3183a231411, 3cfeb3755828871813cd12c771fa7efddf67edb5, 87b3c73ea560d6091a17e7b759864b90911f5f1c, de63de18d77624d49b6a9d150f2581be0ac55e00, c80c1da7802c372607f5a025ef2f3e25202734c3, b59d4e861c5e7e9d9113afbadeef6528be321a79]","8","1","e65bccfcc3956a13ffc04f0a72226afe97b6b69d","593972ca6a551a242b4e1e0e4bb7c25dbc7974ad","8419f355d6166a9e44c5141c35069cd164c23ad0"
"https://github.com/gitlabhq/gitlabhq.git","21686","1","[f2b7cd443566f6ceefcbecbd52c8484afe264402]","7","2","f2b7cd443566f6ceefcbecbd52c8484afe264402","8f0846d74914553aa8801b7575a934473d3b7e19","4361cc395cb5b9574286dee09ac55e49f394e50e"
"https://github.com/gitlabhq/gitlabhq.git","21752","1","[c653b1b4889a4fd82ebdfdfc0df8c7fe8956b167]","69","3","c653b1b4889a4fd82ebdfdfc0df8c7fe8956b167","638012c23fcae5c77653a4b74424267a158134d7","1926e55e1ff5eae09d7f3a31c3d29a6f75e7d911"
"https://github.com/gitlabhq/gitlabhq.git","21768","1","[fd090a2fab64332907953a1525cf5c822d983993]","1","1","fd090a2fab64332907953a1525cf5c822d983993","3dd91f55a048c13e6dc81ec685e521d2fc5a78f5","09b7b766cbf42ed6e9e9246d494b60f05a7a28e7"
"https://github.com/gitlabhq/gitlabhq.git","21771","8","[31b27adeb864ae5f057061b1c208005be181dac4, 847940516b73977c2471d830e64a439f2d226685, 4a8bd9faaf04a55f84dc350dba6e425301ead716, 22479fd0ae41d16d7bbd579615ee10c4b22deeed, de6360f9048511f55a9c93e6fc848418cb6c71a5, 03f2dd90ec5c7d9b2f8d9b6254f7853733302896, dbc96f05d0c7dd6118a0deeea97650417e42917f, 18dd525d0f163b65893fd3df7d09185e72fc7a1e]","7","2","31b27adeb864ae5f057061b1c208005be181dac4","2ed6cd9e469ffcdb60f21d1738de1eff8c258432","de1c81645c6aa29acc1aceafa123a861f822ee49"
