"REPO_URL","TASK_ID","#HASHES","HASHES","#PROD_FILES","#TEST_FILES","LAST"
"https://github.com/gitlabhq/gitlabhq.git","23009","1","[efe98067da478a61a2d5e673b381c43eaace9d83]","1","1","efe98067da478a61a2d5e673b381c43eaace9d83","694579ce040465c1e76a1000c200496e9c2c90af","2803b6e84e94bb3a8d85ea9e29aeade450c842a7"
"https://github.com/gitlabhq/gitlabhq.git","23016","5","[69f9bf77d4ad3fd6c690bf863337854f4347494d, ea5fa54b2d1949a21503661b3fd5a25401bf110e, f56783e5244c8199dc30fb8374a96d8e5d96549c, 011a7a32978ea6cfc7857f9afa7f2f242a753634, 7b50ab5c1de71e8d2e9e959bfd1cbf68352c70ec]","5","1","69f9bf77d4ad3fd6c690bf863337854f4347494d","99682fcdde0ad2860e51b6c2ec0109633338b17a","f2b00e7ce1ee1096d8ec4df1eb0ca614b786804d"
"https://github.com/gitlabhq/gitlabhq.git","23031","8","[44d8714f38cd09c0a11837531c003b16a121bd0c, a56d357be0f041d90b19c17d8fbce37c7b5ee840, 0d52a694bfcab6a1a4c0622f17317ea42ef369d4, bfe905b3aea71e2f08f1565dc1d0e3ff18d5fdfa, 0ae0881250055e6924f35af6ef24b0a56468732d, e5eb700d5e8d561dc8a7ff3d35f5a8c867c4e19b, dfd76c33d975259ea4e0ac5554520d1f7ed1ca4b, a48dd40a926fdeddfdd76cea5db468a82096c7f4]","4","1","44d8714f38cd09c0a11837531c003b16a121bd0c","37120872e6f627f083419fd553bc2af1ec8f469d","3b61dc47ec377b857b66f9b2a81a183276163f4e"
"https://github.com/gitlabhq/gitlabhq.git","23050","1","[f177aaa5fa789654dc440d6ec4ae3546544c1401]","9","1","f177aaa5fa789654dc440d6ec4ae3546544c1401","545a943468c4a178eaedb13a9aed5d3afdaecd05","27859f7ed9e1efe98b8386844d0a7e69fd58277a"
"https://github.com/gitlabhq/gitlabhq.git","23059","6","[4163eb56d91f75f62d562034140b0b4debecb315, 05737f6c85619863f1ed15a8f6a6d0f1d72c1f22, e26d1b47575646f15f1ab3a91878bbb695d3bc65, 1757e6ef65a1cedbfe5d5b5da894d6d0d3d5ef16, c91cf1f66b3ed4329b313b7b75fca816fc5c6076, 9c266d49354e9f7f86c76b00fbe800912f475153]","2","1","4163eb56d91f75f62d562034140b0b4debecb315","95a67cdbcfb52242a2736c79605e37a6d533640e","76642d7a805e572ddd7608efa4f6f33de42fa1ce"
"https://github.com/gitlabhq/gitlabhq.git","23101","6","[4493d3fd556af6ded47f940f258b0fc26c9eb3e8, 8fe821cfa5acea2a4ab1fce7f35a76455d5a1cac, 6fb120d1b0ad8adee7c5c431c7f8a399a2da5cea, 3e789eab8be93c45685c417488da102d996209ba, 9470d05c70c15df75ae6be45812967abf89ae59a, 7c14541d2bb9735402086c951730344fa5203278]","1","1","4493d3fd556af6ded47f940f258b0fc26c9eb3e8","d27befe64dd0d55bec2472ef641c4733cc669215","9451db3819ae45734c4343e55a74d347cdacf70d"
"https://github.com/gitlabhq/gitlabhq.git","23104","1","[5afe03315d12d1379c31a87a02fc9d9b6952f539]","1","1","5afe03315d12d1379c31a87a02fc9d9b6952f539","2b4a3bc524c0db3f6e4e3d2b2f34ec29e358b240","b95f7b1864672b873501792775521a6bd6393520"
"https://github.com/gitlabhq/gitlabhq.git","23115","15","[baa38f0dc1a0e1af84cd06a35450d772eee2d1c4, fc1e2f89864a74d78d67ca27d99bd43407c703df, c9ac38a074423b30b5627553bfdbf0ba15737d8e, 1c0683da7b593bb12e37d46e89a0764a93a0da95, dd8102f2d1acd803793777b26c84d7c6e977b8e2, 513d551c8f7078e263d31ef2c30a1f72cbab3fae, 73b04bebad23ce6750d7747c821a93cfeb73a9d2, 2b7a75ceaf96830e482fc5c59460fe2dd6ff0a28, 1e2a4895c803f4881ab63c1816141462fbfa6d2b, 3578153d3e838da92587fed88a608d9a5458c37c, 91cdb08d5fa83a86f5f18088bf148e832732bed9, 3d9ce37a48615032c786913acdde1eedba351361, 64bfd9d71a4017e0b5336a2c1565926f4b8beedd, 8cdd54cc0696b76daa2baf463d02d944b50bac6a, e80e3f5372d6bcad1fbe04a85b3086bb66794828]","117","1","baa38f0dc1a0e1af84cd06a35450d772eee2d1c4","c81023435795766411c5954a4676ebb215af40a6","8b4cdc50fca816b4f56f8579e17c4dba836ec797"
"https://github.com/gitlabhq/gitlabhq.git","23116","9","[a0c2a7b0cbb4567a1f09c4cbc400bf75df47a072, 8b4cdc50fca816b4f56f8579e17c4dba836ec797, 71e6a93db979165073161f0dc13d3bfe7a461e4a, e365750199802a7c0b45dc88c99e4bf7eb6f111c, dc4e2744ba13cd7d75147787550a1272b9d34a95, c4fa894de22a6ba20f3078f490b708c81b6d6464, 80f8074d01a310141984dad9dfe01a27b533e78a, d5c91bb9a601a1a344d94763654f0b0996857497, 2988e1fbf50b3c9e803a9358933e3e969e64dcc3]","47","1","a0c2a7b0cbb4567a1f09c4cbc400bf75df47a072","e81ae1e68c03de4442265e4699710421e2f2755c","4e5897f51ef97d7c3ff6c57f81521f552979a3da"
"https://github.com/gitlabhq/gitlabhq.git","23155","3","[2c61e3c057af02068bfb57f1c3f921d9f0c87b1d, 2cb542b9d365558923ed125f76c5005188dbee77, 1d250b48922ef88b14ad8ce2af157e2f2d256773]","4","2","2c61e3c057af02068bfb57f1c3f921d9f0c87b1d","d7044c5ccf4df625bf90cca9b5197ffe9da99076","6213263d323e21357f682bb752c4dd9eb8421a03"
"https://github.com/gitlabhq/gitlabhq.git","23169","4","[94dc9ef9e1a85b8a4506358479a549dc3a1306b6, 430aa23a5b82b34912dc86c323087fabd2849b7c, 419d6fa6b19f2e2ee6429f7db453573155ca2d21, 88217029fc37e972fd84aec7eb9a77247a9532bf]","1","2","94dc9ef9e1a85b8a4506358479a549dc3a1306b6","bb79573c01ad77d6b52245d3af262bc56f79693f","234f4bf20fb338f2164976fd39203fbc671afd29"
"https://github.com/gitlabhq/gitlabhq.git","23179","5","[0f89e6905db6fe821332013e8ddb2707079e0ba4, 57d71520bdc2ba79ba8182802cd944d4fb42a192, 7aeb7077cb906933c59e5b890fd4027005e34d3d, 82ddd738b672afd4ed28f12fb58f512fa117d2be, df6750d3d6b562c8a6a0a57c12dfd694da38a0e8]","11","1","0f89e6905db6fe821332013e8ddb2707079e0ba4","e6668f8e341e422cae752e3371631b50eeb696b2","792f2bbe0b306bda266dfc817edf33b4c9e36a0f"
"https://github.com/gitlabhq/gitlabhq.git","23189","2","[9b20731d4aa2b6ffce614cd77606809ad0e2a832, 9b561e7e15723a82e1f0dcf780aeb7fac5ec139b]","3","1","9b20731d4aa2b6ffce614cd77606809ad0e2a832","befff32ecba3cd5fa634ea90ce2fc365a1b5e34e","e02940e32941cc253f713ef3fe0aac896c9342ac"
"https://github.com/gitlabhq/gitlabhq.git","23195","9","[6245be083d985df3dd5daebb78ecf300bacff7b6, ea5b462a1408f9fcd77dfd2961049057fc8ccad9, 9bf51ae47d344c5939f275bb5ae429023456d30e, bf17609e2a4cc062a9bccd67e90dd6524f0389b2, e53b350cb6db7438c1a50c500b324fd87afc41c4, b2c4675cb0e681027334e5bd046451d3116924c8, b9a0f96d42f52dfdad57ac8a2a5056a9262e6a88, ea52a81da4888af232e9868d722cc91d5e442723, 0a081e7eff9730beebd4bea1eb40873d907b6293]","11","1","6245be083d985df3dd5daebb78ecf300bacff7b6","51ed5225adf4aac3ccbf715f8647258dac784abb","6689224a90f3d2500be5d927ea1ed9656fc7b1b6"
"https://github.com/gitlabhq/gitlabhq.git","23219","17","[893d08c0dc6a1eba14db7694636707f30b28a7f4, bfe91b692a89f7a5ee8a0b044fabf5ec397b2904, 176d6e2a8ff97a33d533495aa3a2775dbb87284f, 83d8185f5afee7553bf5756ce61b6b855d48c1e5, 7af67f619a9ce3dab0a66560bc57ccf606077779, f08f921d537c68ec0bbfb8a1ae7e905cded1bbad, 2b577551177c631d229eca6844520e29478085f8, 554f4684622564fe496acb25cacb2daed3b9f3ac, 70a076c059482e5c26cb723b722bc865142460ea, 6fc1b948560b9e19ac5c1412dd2deb98987aefe8, 4676ba1f7c7b37498d26815c1fbe0e02c2ffaeb8, a527f5c27ff92d2ee7e2d5e78dc20b6d1d982aa0, bfce5d716835f07b98b6d26ccc121d3ac8322aa9, c92b6e66dc3a5bb1b07d1561fa09e8fd051c1956, ba08811d07cd1804b027b1a37a5278723cdbeb2c, 22d87b74a9de5d603f101699d7a3665db9627037, 9cf67f72a581d4648b2b02b53403dd4318e4f1e9]","3","2","893d08c0dc6a1eba14db7694636707f30b28a7f4","359d94607c2df324bc5cd9591bded05dbe9ca157","6689224a90f3d2500be5d927ea1ed9656fc7b1b6"
"https://github.com/gitlabhq/gitlabhq.git","23231","1","[aa1ba0093632a66c9c9c0eac710d63d7513ad358]","2","1","aa1ba0093632a66c9c9c0eac710d63d7513ad358","e7e22ece5a63d15c221a73cd544ae83a33770bfe","238ca3e472a67d319521daa5aeab6455b4740cdb"
"https://github.com/gitlabhq/gitlabhq.git","23248","3","[8034b61b52ed9e54366ee9d73d17a4ea1c00de44, 67cc6b0642573fe443126042dd36b15f05bc539c, 9ab7bdf7739935bf79c2e033212726a4be421a26]","1","2","8034b61b52ed9e54366ee9d73d17a4ea1c00de44","9ca41f3ab25bdd98f49541555b23be9c31b1e390","1ad8b73121c93570bde08ce6fa58b5e50f771603"
"https://github.com/gitlabhq/gitlabhq.git","23299","3","[3b717c8a8c1e0f10bc06fd8501ce2423c98490d4, c5146ca1517412b0389c483f18c13072e2abc4a3, 355a745842a757574457c5ea81096e42dad39e70]","401","9","3b717c8a8c1e0f10bc06fd8501ce2423c98490d4","2f90e71fd337c746c143f21b1806ebc71d907b62","b5c19bcc4d02fd498bc95d70c39bd88ec9cdda4b"
"https://github.com/gitlabhq/gitlabhq.git","23309","6","[acad9d67c7af881c1e4cce1e20ffd9c8f65f3029, d262daa4f0f425ddda189ae9e2eb21bbf287f21a, 561634c78f3ab7967709196e8cca39a256d27196, ea7467d2be0e367ed1ec6df656cab059a9db6da0, 34cc8f4a60f25bfa2503f0ad006b047fd2c2f81c, d9749c8d36750136cbd8989918b1fec8ff2c4b49]","6","4","acad9d67c7af881c1e4cce1e20ffd9c8f65f3029","dee28c50a90acaf1a364d3971132c70c96493932","4cfc3df534c50957725f7e1f80c82f88fd764f70"
"https://github.com/gitlabhq/gitlabhq.git","23318","3","[cbaa33db8a77efaf6446ed294db2e334ff7de8e7, cb9f573818098b2fdc556db867bd9a32f469d471, 4caef63d82143518e6f23ec6183021657d7ed1ae]","1","1","cbaa33db8a77efaf6446ed294db2e334ff7de8e7","0fb5ffd8b0752f68db67414dc72d09ff0ef064d1","9ab2e5f516054921860fc62fe2c68d47123c55ef"
"https://github.com/gitlabhq/gitlabhq.git","23358","20","[22bbb379ae976d94d7ddd7addb7384e0b79ddfd9, bdf4007cb7b18ed6892455d0a9adf78476188563, 671a49cfd53230b57acf579a609bab958e066982, 23c5473cc0bd9b9034c5671fbea1356b0fb531e5, 2c7d8678623a9e207d54e2e39d7eef9e2f77cb47, 618b54910ef3183cd1a3bf71ffe6301e029973fb, a2912074be67deb6345a37787c14b7e640be26f8, fa2ed94fe9aa9f4d43c2aec7d99103982976063f, 73bc9edc4410d228db0258c7f0c6fa84dd1d2c49, fdd5a8f2e16cc210f24d93334877f1ca7ce92ce9, 92943580cb1647930dbfdd8d2957213326c134d9, db91ef3a2a46511da23dff780791a70594e57312, 23df515fd09661a690c0c0a651e131bc3a6d0191, d8676f18fcbd6b78af472b8b00c29f20820a74a9, 2d1fcd802a291cc8e26fbbe5874e20316a5f93af, 2f6f99d300675b0794b2e96be564db9d405fac36, f021bc5c6aa79147940ee31e800f519962f4d806, 36d0442e837cd520dec780590040c83108bc14e6, 06a4fd1035c58d89251fb979dafa8610ba8c5157, fd2c0fe446c7f761b845c91307ef8110d869e8e8]","17","1","22bbb379ae976d94d7ddd7addb7384e0b79ddfd9","68d4ab2381ebfe4ad53910a6f1ce6de311c28f8f","61867abeeccf9e6f65ba38c365d8bdf6b61387f4"
"https://github.com/gitlabhq/gitlabhq.git","23377","3","[b6251af40fa8ffdc9e85f5ed4c279774fe0ecaaf, 95139a6508ee2ac958c898704eb5a0421ad7487e, e945ec02804bb28dbd228d8002a159c8da0fcc38]","15","1","b6251af40fa8ffdc9e85f5ed4c279774fe0ecaaf","e86d53b27f6d46e818b6008d1274d1c4899a7a71","0b540a0fadf172277639910023fcf8b713ad35aa"
"https://github.com/gitlabhq/gitlabhq.git","23391","8","[56ea71a3b19396b01b3b8495337fbf22c534524f, e11bfa6b86c5b1b838e7e438bcaa599df668f7be, 77dd561796adb94236422fb9da50482271fadbb1, fd1b5d6479ca05420dfd9f13ac6af0f53b5b858d, c6a0f109cd393e951f4d700b06490d819e6792ba, 1b14bc59570a625365fef232f8c57919f76b3e2a, 6aa9c21ac0e3f4860f9021718900326ea0575151, de990aa15829d0ab182ad5a55b4c527846c0d39c]","5","1","56ea71a3b19396b01b3b8495337fbf22c534524f","e849b51cae8956c9d4eebe9c42804443a55edb83","0ea38dc519b86d2bd2e14f1df1baf0fffc043af6"
"https://github.com/gitlabhq/gitlabhq.git","23397","11","[b093f50986b6dcd0e4caf33d3c96831155e71db8, 32f1a7196817b1073327c607905ee40b9140e6df, 929ab909c88e9ac5d87acacb376a39dcfa6a639c, 78d542fcd811b6e18209fb97f126fd6291bd411b, f16f315115e732493d976a9c866af351253ecf61, 8630d476e419ba524cb5f23e25772bcf2223195d, 8a03cb87442a42c8fc1630ab356dfd35dbb476f7, 98d6d491b5187945b2d86db20af411240716980a, c79d801bf58c58ec21e64cb782176d6dc879a60f, 986695e136a8f6afa326048b30be77a9265d3bf7, 05335a3c8584c48a9317bd0919eccee6948de742]","23","1","b093f50986b6dcd0e4caf33d3c96831155e71db8","0061143ccd2e37e7ff83bd85127e0638e5e40f85","1328e4b504773ff98d716fd561dbc50fd7652a36"
"https://github.com/gitlabhq/gitlabhq.git","23440","1","[746e49fee9a28f509f115074d9985830de45513d]","2","1","746e49fee9a28f509f115074d9985830de45513d","7181fdd23e1744e1a1d794dad2d115f0d2b97f95","2ee3f8381bd498cae52cbc0fbeb656ceae5cde9e"
"https://github.com/gitlabhq/gitlabhq.git","23442","19","[b7619dad52504f8fc61bfb3b42e7f8bcc42dc06d, b67fdfff3c245538ee5a5e9360a2613b76ebada5, 14518ba65a7727583445314917d466dabe4a6811, 6f15356aea488ce0085c982aac2c97cdd46db96b, cb8b9c3fe2caba14752978f4283affc07581087c, 962b57df5a3f476407858b12455030d8cda66e4b, b60ad399acdd753efe4f2d724c47800b6a70056b, c1a893d91a569cf65b381e8c2b56c82824e9f593, ed757ef6e3aab55c8fe0f2c1efdd79d65025c550, cea2afa85ed81abfa809a622ca3a548f770ad228, 3c0244d3d1533dab3276465a63a26e0937aef543, 900419c43c5a540cde22f5488675121b3ce05d31, 26677fbe213069a3820f9f20d528bd560d447bea, 312cf11b61e6bbee8283dfb267516e6b42454431, 850bb21b12b21fe0cf943278bc8cadad85d48dc5, a4d75e3aec2e721231bc1e01a2e5e87aefe15113, ba67af79a9ec0d37d08e51af034dd6c21170713c, 1c4d1c3bd69a6f9ec43cce4ab59de4ba47f73229, 33b8f002636ad6171637108b53732c74d90b14ad]","16","1","b7619dad52504f8fc61bfb3b42e7f8bcc42dc06d","354b69dde2ba399a4269a0f544fd7a4e399d8b7e","95da91a66de5820a44989aa708338c24177cd10c"
"https://github.com/gitlabhq/gitlabhq.git","23480","4","[ef6f6f80ec6242790d54a57445fd7e4915b36ed1, e0edc01d1477d463d2ecf8137c966859d32c1302, 4d7f00fdeae074ae26f2629c78064d6eaa21ace1, ab129f7b235527d28068a3fd6ca1fc6eed5ebac5]","2","1","ef6f6f80ec6242790d54a57445fd7e4915b36ed1","482a17089fae42bd15303206788734ab9ac99453","86c0d8d28983c4f6abbcbf461e422b2fe5962847"
"https://github.com/gitlabhq/gitlabhq.git","23506","2","[6d0337a97a9d21a27bdd96b48ae17d2458b4ad46, 3be9d2c422b8651498abec3a2ee9bb6a3685f040]","4","1","6d0337a97a9d21a27bdd96b48ae17d2458b4ad46","0ea38dc519b86d2bd2e14f1df1baf0fffc043af6","ae99720a40b8e0700891f5828c1a93bcc7673e04"
"https://github.com/gitlabhq/gitlabhq.git","23528","4","[5615f2737cb034d3d8de70e1e50f1ba8ca78c34d, 696a7084010315078c38507cccabb236bb3d794a, 7b06c83cf72d24edab7adcc00f4000830539506e, fe6ec80e75d35b8ead20e1cf8f797cc3ffee3f9b]","6","1","5615f2737cb034d3d8de70e1e50f1ba8ca78c34d","9b937046144f467649c966a2a1979050cd826f3e","61fcb3c568d6c7f5a780d9feff5d9d5a2d83a84d"
"https://github.com/gitlabhq/gitlabhq.git","23598","4","[45e11d95f27584f699392fad8f54c1807e562d7f, f7ed469ece5e113273b006dd64cc0d29243cfcde, 1f92c22fec8493fa0efb8a53829a4c726e78934e, a60853fda09b37c2990b2437baa7a5d13b54572d]","6","2","45e11d95f27584f699392fad8f54c1807e562d7f","1565a95da17ba8425486839d0712a9141d66b98f","e1d70c4f31936cd73ba25aeff573dedd27b11332"
