"REPO_URL","TASK_ID","#HASHES","HASHES","#PROD_FILES","#TEST_FILES","LAST"
"https://github.com/gitlabhq/gitlabhq.git","25773","1","[1fa19401e969f79cbd737c55e63249ca9355791c]","3","1","1fa19401e969f79cbd737c55e63249ca9355791c","25a42a56cf4da95e8725b988f2b940d8b293a952","334f240899ffe1c7cb662649ef26c2f5420ea92a"
"https://github.com/gitlabhq/gitlabhq.git","25777","15","[c8bb171664de94778d4e6eba7773596b265f9efb, b8bffc0da26ff53a220ec83e71a195666867d28f, 4adc033761db149e5bb46f4be02788f1fd384b20, 80597d59e0c4a27515c2f1749d80c5c620878d3b, 465f186954d00fa47c8b05cc91f33e7943aa209a, a7b7a2dd4c866403ec5536f213df9e4762fa112b, aa54482a37df5b122e35029a316094c2f55d5044, 573d554c6927f0e6804c986af7d8837e0abd6cd9, a248efadf7a4a8e2ebf0a98413c195b3c8766f20, f1c39763c9daf5f053f9b9ae0bcd1c50ea59133f, 038161f4e0b41a0fd6b877171a1f47d062b5c857, e3951019f5de7359659a4c13db0eeb16cf1195f1, b01c5d993c10704c5097d9eaba24ef849fe3a46d, ed932d82db3bf9d3e557c289ed2ccfbc99ab5083, d2bd5e833fdcf5bbb039936a3f71eaf7ff829063]","35","1","c8bb171664de94778d4e6eba7773596b265f9efb","afccd3245a89aa04ff63a097a756e004ee2f7095","f9ece12e872e9bf748f4daebfba88c341d4046f5"
"https://github.com/gitlabhq/gitlabhq.git","25779","5","[aadfb3665f39e5886254bac856ebd1cc47f8c652, 592e396869ba5dc116cec333733cea8dfbf4a9b5, 7fe8d41d88f744b16e6e12c1c07ef3f956994110, a61ccd4ad2d83b2422561a374c300260e5a6d240, e41dadcb33fda44ee274daa673bd933e13aa90eb]","28","1","aadfb3665f39e5886254bac856ebd1cc47f8c652","f9ece12e872e9bf748f4daebfba88c341d4046f5","5cf2bd4c997d84e9a02d722d6ba870c24b06cc0f"
"https://github.com/gitlabhq/gitlabhq.git","25785","11","[35eec009e50d85c7296a7c16fcbd313f620b53c8, 8045d96ea81ffd1a87018c751a4604613b04da71, 97d7c06f781f17a21689cf35410009f1247427e9, 7b792af872699cd9439c750b780b0b906342cff0, 016981c009a2a8c6066085300a838d9c9d6bfd5d, 47634e392fab457dd0634225961944804bc04efe, 32eb5de510a7e32d9bb886595aa47d95dc00490f, 9a8ac2accc78f231fdf7ad7fd8b8bb405a24942b, a2d188f688759b3889de576bb8019e189bcac902, 3eb586c12cf46fe0098c5c0fbec8478a44a5d77d, 5b49bb208a21fa96d0ae1bb93506725deee6c5b5]","28","1","35eec009e50d85c7296a7c16fcbd313f620b53c8","dc24b4d7a2d9828fea383a50c7c3e03f1b8cf9df","e45e6ba2c3e25afb138e5f0ece71c6f677f2ab86"
"https://github.com/gitlabhq/gitlabhq.git","25843","9","[7a5072c5a8f03cd7342a5f8e74e1fde0250ce360, 5bb8aff5ddcc1debb4406303477c1ddbe618d058, 74c82ae32583ebf335f310a29ffb22d75b356863, f9e423b499795e599d25f76c3ef519cac8ac6db0, de53bc9d8470d94ec1b956cc2ea1df077c4d034d, e06f0ead9843df2688ca2f341a3b37d4d56a955d, e1491465de441b386c72726f0b869104d1c15680, cd3eabd71236d2be1430d2dbf23aad91d73aa783, 5700842ba8ca2f3100395a9fb98c759e78e63d96]","8","4","7a5072c5a8f03cd7342a5f8e74e1fde0250ce360","742e6eeed221489d5f35bdfde2e6ce55db75d25f","a0a826ebdcb783c660dd40d8cb217db28a9d4998"
"https://github.com/gitlabhq/gitlabhq.git","25876","2","[6eeaef6dc4cc0cda9c80bf46f38eae9f640debec, 4cbe72d76722ce6c3d327ec62f54478a6e955d32]","5","1","6eeaef6dc4cc0cda9c80bf46f38eae9f640debec","f447aed26a7f1d8ca538e45ef02b22e7693049ec","5b92ddb80994ff6ab992dcdb39e3a27c687f0dc3"
"https://github.com/gitlabhq/gitlabhq.git","25881","2","[1353f9aa643f86a3f38f3d2dfa8666d3d942293e, 2f3df4cb567a6f14b5a0e161084c2f4cf6fbf764]","2","1","1353f9aa643f86a3f38f3d2dfa8666d3d942293e","d7568727b98d5a057968a564e3ee5d71bf7ff0c5","20cd7a50be263f954ffc7157892e94aa09f78d04"
"https://github.com/gitlabhq/gitlabhq.git","25912","1","[533f4cdf30b38c587f7a91f0dfd898b907ecd944]","1","1","533f4cdf30b38c587f7a91f0dfd898b907ecd944","cfee95d0327485dffb8ea4d698d3f7f310fc6c19","d803f210aa5e87a441fca562910122f2cfde9fa6"
"https://github.com/gitlabhq/gitlabhq.git","25914","4","[2388fdd7c6274dad8c10f5bc517f0a8b1aa28aa3, d2c3c98e3cf88dd59a2a1a0d94e711e31c11b2cd, e08e405ac4c448d8b720ed2ef6181c15e3f3dfc1, 18c8226566edb1c7fa43ccc1bf7a1db33f91489f]","10","1","2388fdd7c6274dad8c10f5bc517f0a8b1aa28aa3","a4e98f0ec985c91631f41c56317926f29365d95a","58011d61c35beb4b55440caefcac6caa1905d891"
"https://github.com/gitlabhq/gitlabhq.git","25998","8","[353a98757850a37118bc5ff0718d8050f934bf90, d52a5c76084296ff09bd3677add69a9bd7663ebe, 9de385435d15070ba11eb8c94a24269dc4435841, 1ab1526d92d6084acfd459e82c9ce490e9e29807, a2dfff418bf2532ebb5aee88414107929b17eefd, 995d198419b6f196b014ccb47d0298b419b53e6d, 43fba7f0c518942d060e7a7dd9f7ec3065ac1f69, 912715c3e452723dd7dda3430f57e69b7f1605af]","5","1","353a98757850a37118bc5ff0718d8050f934bf90","85a9feabd67d6403a59d8aa98f52f83b6bd42fea","477743a154e85c411e8a533980abce460b5669fc"
"https://github.com/gitlabhq/gitlabhq.git","26005","7","[d9023da90d3d723bcb9ba372b0b89a8747aca6af, bf07fcf06ad7a5d2fd5f25079ce9e16d003481c7, 9397d19380aa4f63c9f8b67bf06b9d9ca3db3c1a, 37f33393b2e6aa18c416cb7a55d8de80dde0af58, 000af8d5d7087cadbfd8ad677fb941e74a8ee3c7, 7fbc4f5b3ac2abfa8ad94cc228114462b7b94601, 7039c9868a3209d89f8306c65ca5b74f8e2ea2c0]","4","1","d9023da90d3d723bcb9ba372b0b89a8747aca6af","e1299bab7b1c275c145669a1a0eff2928511ecb4","10528341c296fafca8388159d7b0023cd2ffb1cb"
"https://github.com/gitlabhq/gitlabhq.git","26016","1","[776bca07cd4b3996a39035e90232c99599ed2663]","4","1","776bca07cd4b3996a39035e90232c99599ed2663","93bed4435e9e61570dd27e1660c230c3c323a744","b23b78ada12d1bbff4ea4e4bf65a34b223aeb8b4"
"https://github.com/gitlabhq/gitlabhq.git","26038","1","[40c8f159a24b661e9f27dfcde492c4d2a6bbfbe2]","1","1","40c8f159a24b661e9f27dfcde492c4d2a6bbfbe2","94d8698a855e889a7e2d808ad4f63e02dd13c101","6280b53f305e45d0e6c474dbcf684f0015aee385"
"https://github.com/gitlabhq/gitlabhq.git","26039","9","[477743a154e85c411e8a533980abce460b5669fc, 7f97a1277de78bcd86d68978e9ec29a2548fc144, 9712fbcdd366c173e2ec277a617a4e690f6a86e9, d4ae4fe670c75ffbb3974734aafbcdc667e53172, 16a10eb1cd4a5447da9d50b1eba25f020dc8f6b7, 5f7906e1635baa1aca12527ac9d9f8e84323e95d, e8da077d4f9b63d7d7157416dbf0dad010ea90bd, ba76dbc3667c2eb0a1a3687f8b0481e619946d73, ed00ab75214389d108a857a22027f221a6649fbe]","5","2","477743a154e85c411e8a533980abce460b5669fc","21e8f43af38e20bf99c3e47d01dac9c0f7de3404","ba22e3ae583ffa156d9945c8e67f16316753bd33"
"https://github.com/gitlabhq/gitlabhq.git","26048","1","[705652d62538ec29d125e0ec62bebc99ddc3af71]","1","2","705652d62538ec29d125e0ec62bebc99ddc3af71","8a7b864e41ebc93ea4a184734b6458404cc979a5","c6efa56ee7039882625942ce29ea9fdeeffaa6cd"
"https://github.com/gitlabhq/gitlabhq.git","26072","1","[db5ea013f4a75b6f6b6cf7fd43011f5c2c29fda1]","4","1","db5ea013f4a75b6f6b6cf7fd43011f5c2c29fda1","1ea246f167530a142931ff46a726c8a5d608f5a2","a54d5dc776b88151d8834185c6b761f1ee732f71"
"https://github.com/gitlabhq/gitlabhq.git","26080","6","[a54d5dc776b88151d8834185c6b761f1ee732f71, 3d3726a026f465a441abd7438de85790d9d84d94, 49bd9812000626af71c1b7b00d9f998fcaca2a46, 644fd232dbe827aaae46068119345c2344495239, ebc0a7050afe71f5c30341dcf6b15da76b810408, 082d59d21f7f8857eca2715c1a58fbce30f9b92d]","3","1","a54d5dc776b88151d8834185c6b761f1ee732f71","39bbf078ffe410436fc81e6f5cfc2993af12f968","564c4138e914abab570ad92c4850dd2b35d37198"
"https://github.com/gitlabhq/gitlabhq.git","26097","2","[2064a147249ab5984d90980bb9ce44f788a9b941, f50c0e5af11c07b637c84d95622a315b71eebe97]","2","1","2064a147249ab5984d90980bb9ce44f788a9b941","72abe9f679043a1ac566f60109b21cadace204d7","d7ec8451dc5c938e6e30830b83ca17c84091fece"
"https://github.com/gitlabhq/gitlabhq.git","26101","1","[2d235221079ef6af90bf482a8f563dd409290751]","4","1","2d235221079ef6af90bf482a8f563dd409290751","d4bc1255817e6cdab95596096067bdc611b71280","e261de255dfff71f5acc7d33f339a30a3cb32ab9"
"https://github.com/gitlabhq/gitlabhq.git","26130","1","[166c215a75b50ce62fd40297f52e366df7dc9103]","3","1","166c215a75b50ce62fd40297f52e366df7dc9103","e261de255dfff71f5acc7d33f339a30a3cb32ab9","51ed8b7edd119897a4a0b2f5948d049dfc8691a4"
"https://github.com/gitlabhq/gitlabhq.git","26146","1","[47f539f5a6a930b2cfd4f9834b4d1bd5e1c180cb]","11","2","47f539f5a6a930b2cfd4f9834b4d1bd5e1c180cb","6303d003c699082ef7c5f83b7b805e95a62b7886","f7dc15c6bdb75a5f611c389ece3fe251f94a2d8f"
"https://github.com/gitlabhq/gitlabhq.git","26167","1","[fd8d1d9b62066766c96610b7d42b20fa0e84b0ac]","4","1","fd8d1d9b62066766c96610b7d42b20fa0e84b0ac","c0306f78d2686202aa56cf862a7c787d07c85d1a","70004f4ef6160e788e6a600b9da06608c8559aa2"
"https://github.com/gitlabhq/gitlabhq.git","26173","4","[31bc42de57b3cfd7bf068df06d15372307b8661b, 3a3b2eb33e2ca41153a960b89ae7796b43aa93e8, fecd9c0cb22eda0a208042c568d8d833a1bd6292, 9f0083a96c03ec22b1d9442a9c7530899e633301]","13","2","31bc42de57b3cfd7bf068df06d15372307b8661b","0fed1b587630ff98808c61881511ee7c077c3db6","ff43500024f707a435cbcad43eb4d467368aabfe"
"https://github.com/gitlabhq/gitlabhq.git","26202","2","[929678899d462e4a43f66c256621144ea65ff630, c41805f60e6b0fe97ca545a1ac99cbb1e0406100]","1","1","929678899d462e4a43f66c256621144ea65ff630","1a09a805ea9c7c534bc868dfa5881b57566d508c","b82d4018b85829b5dbb2b0a0bdfad960e78c4f8f"
"https://github.com/gitlabhq/gitlabhq.git","26218","1","[0d4ae0e392b3ea5c5ff3b0fd37725cdc07a70191]","2","2","0d4ae0e392b3ea5c5ff3b0fd37725cdc07a70191","350877d050029edcc5cbe032526df1232f238860","2b88c9cd15d79ff755cea501d5d6fb511538de73"
"https://github.com/gitlabhq/gitlabhq.git","26228","4","[ae88a9bfea17095c3e3215969edf5e8d6918bf6b, 65cb51af3168ce0abceddfe234077ecb1729ac76, 49157242edd4dc871b0f1b3b3625f82b98b3806b, 31e50ed3e4884f6bbff5264edd2a1f8f8c963864]","1","1","ae88a9bfea17095c3e3215969edf5e8d6918bf6b","88d3e97e502f0be4f01fed100a06e04b2e0f2017","ff2b0bfabd0607f3d3fea1ae9c8282e112239daa"
"https://github.com/gitlabhq/gitlabhq.git","26262","3","[83a21c33f12bfb2dc2059a3d528a0458db147cf9, 3a8cd1fa59dc9d3ab0b00e0f01276e73b35a996c, 6d0ddf45bada832a315d7f84b3cafd1a92beff34]","5","1","83a21c33f12bfb2dc2059a3d528a0458db147cf9","91d30c9002718c27b3087b571fc86d88f73737f6","aa46a15d2adaa018b7d8c59e6def2643fb2acab1"
"https://github.com/gitlabhq/gitlabhq.git","26350","5","[9b59570c8ee9bfa39c64531ea4cc12b46ff99f9e, 75fbca83e36100b1e2ab2416c8906d6e5b805231, 9945e8c4244d90a0481846454355e02e80369aa2, e84861d510af63969a7ca09e4248426faf2dd345, 5564fe31491a8a584b66feb6097742ec4025b8fa]","3","1","9b59570c8ee9bfa39c64531ea4cc12b46ff99f9e","79190fe06be1671eed82c0b463c27c35224fa0d3","29f990002c6e2704bb25ba4aa89491f319699202"
"https://github.com/gitlabhq/gitlabhq.git","26358","1","[37a274a56861803f8387822062a2d2c1e6662f33]","3","1","37a274a56861803f8387822062a2d2c1e6662f33","318d5d93e3ce01096b05063dbc01b9deb2844c66","6c9cb565f16a006df7c980eadcd7061edb7b9281"
