"REPO_URL","TASK_ID","#HASHES","HASHES","#PROD_FILES","#TEST_FILES","LAST"
"https://github.com/ministryofjustice/Claim-for-Crown-Court-Defence.git","1257","5","[226bf5a48bf78ee096f9df0ae2cff7a30eb1c2f2, eb9f32adc2f790fd56efcc305a2d7d2c16b9d308, 7e94bdbd14f52086a005ba88e618002b84dd3bd2, 034e9f4e6271193e3834e02b6f9d8e29400d02db, b0013b2cd84368ea496b0255b4749381211797ef]","7","1","226bf5a48bf78ee096f9df0ae2cff7a30eb1c2f2","f1d2099896d2a5c485c16846d2a029e6307fee06","5a2d78931c8612d92912709691f109311019d9ef"
"https://github.com/ministryofjustice/Claim-for-Crown-Court-Defence.git","1258","5","[66df1c873fc74f1e092f474beaa3ceeab240e758, c032ad0cdce27a4766d4520152bff67d3bef5aa0, 9b1f8d6be61a56e880be48d61c25680894c0d2f3, bafac22d2b55a89d470ea1b69381d79d19ffe77c, 8a4c77dacb0423a3fc1f2c4afebe507679e84ca5]","7","1","66df1c873fc74f1e092f474beaa3ceeab240e758","2c1184bd619ab8636f8205a1dc40cbff5470331c","9c7d3a7b0ca88a50c1a157263fccd26e1ac7c571"
"https://github.com/ministryofjustice/Claim-for-Crown-Court-Defence.git","1264","2","[1387dbfbff46aa7d67ea30feedc0d99679baae04, 85eaaee3cfe57f883b9daf901e8f7aa701725384]","29","2","1387dbfbff46aa7d67ea30feedc0d99679baae04","25b41dcc3fe458424f4d214ee60b449e0e450807","a9224f95afaa05f5b9d7dea030786296d90e021e"
"https://github.com/ministryofjustice/Claim-for-Crown-Court-Defence.git","1275","1","[2664bd20291a84da22fc65c6e02372d34bceaa83]","4","1","2664bd20291a84da22fc65c6e02372d34bceaa83","fde5792fcf51d39cf0bc43f67efaaaa2a343d98b","6fc2f9feae942b046600109ce466178b59e7a633"
"https://github.com/ministryofjustice/Claim-for-Crown-Court-Defence.git","1279","1","[ce3e9ac0090dfb340773a42a7688479deeaa9213]","2","13","ce3e9ac0090dfb340773a42a7688479deeaa9213","21519f089394207ea3170d840351ce10e2691cee","6f7d0254f530369b979119fef2e80c2c737947ee"
"https://github.com/ministryofjustice/Claim-for-Crown-Court-Defence.git","1280","1","[f45ce70f6c37dd7ab09cf4cc72f69ee2ea8920aa]","2","13","f45ce70f6c37dd7ab09cf4cc72f69ee2ea8920aa","6f7d0254f530369b979119fef2e80c2c737947ee","a3e21c287134a80177cc15a779cd07f741792d29"
"https://github.com/ministryofjustice/Claim-for-Crown-Court-Defence.git","1286","2","[9c46680f7dad74b041056edd241488fc996d1f6f, 814f1a78f64f2367b8aaa91503a8efd9b800232e]","2","1","9c46680f7dad74b041056edd241488fc996d1f6f","d29cb1cbf00042eddfce5545aff7c4ecd533a481","531e2c501bb0718e12c5c291368f0e3cdd61fe93"
"https://github.com/ministryofjustice/Claim-for-Crown-Court-Defence.git","1289","4","[f1a0dc3e79f8576a941ac6e9e6bf241592076993, ca07dba85830fbd2dbc745779a67afabc74bd9df, be84e0302ee1f856049c81153d5d5d9d1668e7e7, 10ca9cff8c16d3480e8729c970d075ca0bebc6ee]","6","1","f1a0dc3e79f8576a941ac6e9e6bf241592076993","c5d246454a2946c0a7f3ea3b16181e3734b38055","e615d61148efb43a5ab916a096df5b355b7044ac"
"https://github.com/ministryofjustice/Claim-for-Crown-Court-Defence.git","1291","2","[4e133b1d6011d553970438ffc09d09aadca0d7b8, 56853b0c20db7f14cf5a2ff274407a53bd9afbea]","2","2","4e133b1d6011d553970438ffc09d09aadca0d7b8","6c8d25751dd767f1166fb1c7e79fa2902b1e6b32","6840e74c5a69559289ae1654a61065a3b3daa3f6"
"https://github.com/ministryofjustice/Claim-for-Crown-Court-Defence.git","1294","1","[b740ea09dd65f0469468f260f917e266798ea638]","1","1","b740ea09dd65f0469468f260f917e266798ea638","cf3e13f5d640df248d0161a607cdda8c776becda","43fc5b7540d6853ed244ffe4d2e2942b30bab191"
"https://github.com/ministryofjustice/Claim-for-Crown-Court-Defence.git","1296","2","[ddc82074e04b38f63e20b13a84b7fbc227ce9403, 16784c26ebd05ac9442c808abc79009c5dd5dcfb]","15","1","ddc82074e04b38f63e20b13a84b7fbc227ce9403","d202f54085fe1fe25be3a48841f7133c19a67b82","acde993388fa3f5453e4df1dd4467ca4ca64e2d4"
"https://github.com/ministryofjustice/Claim-for-Crown-Court-Defence.git","1302","3","[ebe394a47e4dc96257c56001a3e4e90823488b6a, 15ebbce02a8e569c0a8e6ea41a5e9e1ea4bb516a, 167aba0fec263d9782911841101e350bbd5164af]","3","1","ebe394a47e4dc96257c56001a3e4e90823488b6a","b28718de097114e911316789bccc3348f0dc745f","efd7f8e753d299d3f7a04cfe50b57c3861e6ea8b"
"https://github.com/ministryofjustice/Claim-for-Crown-Court-Defence.git","1308","4","[ae728991f02358ba12055bb5fdca7a52540b0514, 8f1e2a0e1dedcd2ebc9f45166cc3d31fed0ef0e4, 0cafb6222feebeb58f4c0b91e6cf74e2fa456806, 3eaf48b8c0b1ddf44fa0f728b1c8df9af90abcf7]","10","1","ae728991f02358ba12055bb5fdca7a52540b0514","666e80537f10b25724f82cae5c0d37666a173f96","0f071f47ff0a8f1b2df868e72b67c4c1794319f5"
"https://github.com/ministryofjustice/Claim-for-Crown-Court-Defence.git","1310","1","[eccdb8a788782f878594b42fb2500a673c9113c2]","1","1","eccdb8a788782f878594b42fb2500a673c9113c2","0ff4b0ff1f666764c1ab82e8a3e68b961cd6b2f2","b83727371407b11cf7030ecf60c2ce6c60eede46"
"https://github.com/ministryofjustice/Claim-for-Crown-Court-Defence.git","1313","1","[ffabf1562c4169cdbb24354afbad7e4a571c5fd2]","1","1","ffabf1562c4169cdbb24354afbad7e4a571c5fd2","b83727371407b11cf7030ecf60c2ce6c60eede46","ebeb3cb0f74fee2a1a7889888ac608be551ef7eb"
"https://github.com/ministryofjustice/Claim-for-Crown-Court-Defence.git","1315","1","[d62de3bc7953420f7350acd0ebb9a88e8bc41036]","6","1","d62de3bc7953420f7350acd0ebb9a88e8bc41036","e528064bcc4648f179b2d9e7d2a39f37c722f569","fb2a7a519740c1f7527ad168013928015eb80fa1"
"https://github.com/ministryofjustice/Claim-for-Crown-Court-Defence.git","1330","1","[174541921ad5ea8dce8077c319ee72e6f5dee1e8]","4","1","174541921ad5ea8dce8077c319ee72e6f5dee1e8","fdb13aa7605b209adb2e2dac53c41a7b6212fa71","7ba00b01ee149ab47529de5f3e5d4b133d8105e9"
"https://github.com/ministryofjustice/Claim-for-Crown-Court-Defence.git","1331","1","[7e1dd637109c38570441da1a15e0cb1791783c2f]","4","1","7e1dd637109c38570441da1a15e0cb1791783c2f","fdb13aa7605b209adb2e2dac53c41a7b6212fa71","7ba00b01ee149ab47529de5f3e5d4b133d8105e9"
"https://github.com/ministryofjustice/Claim-for-Crown-Court-Defence.git","1356","2","[056401eea9606632bfc757e8210dec0217dd865a, 4aaf6a68bc64a55a558312e0575ea2ebbf5d210f]","5","1","056401eea9606632bfc757e8210dec0217dd865a","69006eddb95202e7b12a126a742b64b12b198de9","45c096054fdf54b9ae20671672223cba7d0816a0"
"https://github.com/ministryofjustice/Claim-for-Crown-Court-Defence.git","1366","2","[ff2f6d895a0234d13b3ee8075a8fc386f0d4b1cf, 462f04635f6cf5ca10a1ab702f4808f0628e5c6a]","3","1","ff2f6d895a0234d13b3ee8075a8fc386f0d4b1cf","88d0f764a27e49f9fe1a7f505c5526124bf898b2","891a054ad5e20c11b076ae7c28e28490c6e16ff2"
"https://github.com/ministryofjustice/Claim-for-Crown-Court-Defence.git","1367","1","[6e37b321f05387546ad531786752d2246710f51b]","3","1","6e37b321f05387546ad531786752d2246710f51b","891a054ad5e20c11b076ae7c28e28490c6e16ff2","17057a0c4bcc6a5b8c38f185be47ab4028a13876"
"https://github.com/ministryofjustice/Claim-for-Crown-Court-Defence.git","1370","5","[37ad62e88281e4fc5d58fbd81c708fa7ba101832, 2290c7c71cb8f3eea623f3740674e54c99514eb2, 6da54b16d3d7f2ab3d632a00879b8c0ba37a95f1, 3210068c015f41a3623a47d9f8859f256aa09506, b24fd7c771bf3c3352197a408729708de70eb0d8]","3","1","37ad62e88281e4fc5d58fbd81c708fa7ba101832","9af5436b28a81b86dee2ebaf743fdd93fc01b68c","118c956baf75395d7d124eec419644aa6aa8c2da"
"https://github.com/ministryofjustice/Claim-for-Crown-Court-Defence.git","1372","3","[eed9ef380e14aa05f61bc8989016a861321be2f1, a42125b5e8cc39759b7c95c7bf49219a1409bf31, 3cc880bf3b0d3cba391278cb36e75a521bb3d2da]","7","1","eed9ef380e14aa05f61bc8989016a861321be2f1","13cf064976beada48440b14b074935699dd2c316","27d2fac04c0abba2c587b7a3f9769327ac598fd0"
"https://github.com/ministryofjustice/Claim-for-Crown-Court-Defence.git","1374","2","[5b8e9708fe340858a07bb4c231eff22c8040eab3, 9ecb3d0bd8062e79beb5119fb6b0bc966c69dba5]","2","1","5b8e9708fe340858a07bb4c231eff22c8040eab3","cec6d14b93640496b614a63176cee029b05ba27d","fae5b82e3fd71776507ca1882b8f3baf9a2b687b"
"https://github.com/ministryofjustice/Claim-for-Crown-Court-Defence.git","1377","5","[983e4df32573e975a5b506f1e220292ccd83d613, 4f1c51981717b1019d3d5d2be2d6ee9bacde6ae4, e6d6152ba417b0e57dd7328f8a11c99918b62d47, 0f7ec9324f620b8d3c3d87711a999dd7c57dce93, 59da145101400e7de87bf8b41414c5df3e53761f]","20","1","983e4df32573e975a5b506f1e220292ccd83d613","cf40c38e0b5dcb4701c1f131bb1255f240bdd918","d6dfa16544e7657a4649ce31cb9ff994e5cbc9a6"
"https://github.com/ministryofjustice/Claim-for-Crown-Court-Defence.git","1382","1","[6ecf79ff3cfe95045f8852942bf2f7ae72ce4c0e]","8","2","6ecf79ff3cfe95045f8852942bf2f7ae72ce4c0e","b193750ff6152c67e8fa4a9aeebb1f06f825f6ab","6a648ebd422c493f16f4ffc9ce1b978947d3828e"
"https://github.com/ministryofjustice/Claim-for-Crown-Court-Defence.git","1385","4","[9eb604360d7cba4e2fee4b98602a3949ceb9c0e8, 1588514b3463602ebd73c4d8b7d8d630d1ce88dc, 52dfea3c73292d525de189d2ccf59b3f62ba67e8, 8377347e2089ec3db7aedb32682c6bc69a1256a4]","1","1","9eb604360d7cba4e2fee4b98602a3949ceb9c0e8","d6dfa16544e7657a4649ce31cb9ff994e5cbc9a6","6a648ebd422c493f16f4ffc9ce1b978947d3828e"
"https://github.com/ministryofjustice/Claim-for-Crown-Court-Defence.git","1387","3","[1e6864e90297508ae0ef4bfbf80702d34df3e295, f337ad39e2a4a9d86126a6447ddac6714c7187cc, 4dbae9b1c9076dbcfe30b7d48cfe0df98f831af3]","5","1","1e6864e90297508ae0ef4bfbf80702d34df3e295","28c6ec25067db95b4eadcbfb58ffd35fd53429e3","156e42ff51e221398c95e51a407a9d719d799cd4"
"https://github.com/ministryofjustice/Claim-for-Crown-Court-Defence.git","1388","8","[cab92ec1fe5a23e2d008f7131b5e488076e6f187, 2b0ec26ce71696ccf79f1c81307bba921197f861, e9251084813ebd076c9194f1e073e849a78147e3, 984219c3863094a50f377271d1ab620c7b69eabb, 977389e67177daf8980a6bbd1dae7623f2dae3f0, ecf2b911861ec9a8b8f51d0c4f4ad04376476ecc, a8e2dafa62fbd2578a06676545af270b34b97707, 97e24ec840c811671c117c335983dc54069165cb]","16","2","cab92ec1fe5a23e2d008f7131b5e488076e6f187","9df851c1ee725cc15db569d5eaefe47f5612704a","84a231bba6cb08ee493a041bbd38ff44aa55aa85"
"https://github.com/ministryofjustice/Claim-for-Crown-Court-Defence.git","1400","1","[c48d4620f4fb9ee0834cba687f426152e7a8def4]","2","1","c48d4620f4fb9ee0834cba687f426152e7a8def4","156e42ff51e221398c95e51a407a9d719d799cd4","ca529d34d8a932e75772974bf8eeed4e217bb9c7"
