"REPO_URL","TASK_ID","#HASHES","HASHES","#PROD_FILES","#TEST_FILES","LAST"
"https://github.com/ministryofjustice/Claim-for-Crown-Court-Defence.git","1404","1","[e9432f262369ca886c094a3f9a7a72862f5b619c]","7","3","e9432f262369ca886c094a3f9a7a72862f5b619c","fe75defccd4443242c80ee2d204ce5408ea81f44","f42a28525871ec78b3128d43d81be745d7c8ca75"
"https://github.com/ministryofjustice/Claim-for-Crown-Court-Defence.git","1408","4","[301408b2ac6f8e082eaf095fe901b2211779b0e3, c28da0b186903cfad4f91f31528af3205716c5b7, 9d384016547a8799c3d1e3a4063358750ad613a7, e782328d0d3f8e5ed261f33a64e34ecd09fae93e]","4","1","301408b2ac6f8e082eaf095fe901b2211779b0e3","3008905dc29255105637490985fe79e87241fbf9","f8c71b909d49dd900c74adbec253432f290bcf4e"
"https://github.com/ministryofjustice/Claim-for-Crown-Court-Defence.git","1412","3","[a3fe9c4b817bd26fb531e76efdd5c2861b76f80c, 21f9f102394d05dcdcf7246cca4064ac3576979b, 9e776dcdec48321145914567b84d7bd26d55c074]","3","5","a3fe9c4b817bd26fb531e76efdd5c2861b76f80c","f8c71b909d49dd900c74adbec253432f290bcf4e","5d3561160c3359a69044eafaa49251a809ecca63"
"https://github.com/ministryofjustice/Claim-for-Crown-Court-Defence.git","1413","6","[b11be703ae86b430836e6ebaf4eb85d2cd1679ce, 60ffb84a96891e88d3c1954adc5a1392afee3362, 8b5fc57e28b9d4133eed67566d696ffcedc1adc6, d62c076a1f772279a0a7699d3dc60608ccfeb63f, 58036b593de13f26b67e65615a8365c257b0b8d9, f2c71598b95ac97b6f889ec9d27d48a596894797]","8","5","b11be703ae86b430836e6ebaf4eb85d2cd1679ce","5d3561160c3359a69044eafaa49251a809ecca63","a231c59a37ccca1ff4d9ff0d4a722ab9178191f4"
"https://github.com/ministryofjustice/Claim-for-Crown-Court-Defence.git","1421","1","[d66c063882c8a2d871cf7b6895a2af1dd4255d17]","2","1","d66c063882c8a2d871cf7b6895a2af1dd4255d17","5b73a6d1f57f625b8af88f3899f34e0aa6080d12","b831397c39e3e6b275a570ed28055c0869868180"
"https://github.com/ministryofjustice/Claim-for-Crown-Court-Defence.git","1424","1","[ced81a8c447104e1c2fe47153b6b24881e71c6d8]","1","1","ced81a8c447104e1c2fe47153b6b24881e71c6d8","fa8795b8f19024d20850ef6cc2d70d572b23618a","2ffb1aa0fa2c2ca31334b71bcae57a62fcce98eb"
"https://github.com/ministryofjustice/Claim-for-Crown-Court-Defence.git","1431","1","[39eb807e1a3aa6ad906db88226de14d0a6629814]","4","2","39eb807e1a3aa6ad906db88226de14d0a6629814","e5f0a838c2f17a103ddbb27502eb3c02e8342ab8","e7a6fc031621fa87749047b5763e703ebed2466d"
"https://github.com/ministryofjustice/Claim-for-Crown-Court-Defence.git","1433","5","[1fbee50e8ad620f9e0ea017ac3362c3a6b9b2661, 9f52b314f8d7c19a04f4154714e95a2aafa6dc5d, 8f82c1f912e168675cd51c30555bd2fe2a687c9b, 3835a7697d767c213f18f538defaacc723d0afb7, 6451fc1c58746b129321739f9e599ac6d8fe6b22]","4","2","1fbee50e8ad620f9e0ea017ac3362c3a6b9b2661","e7a6fc031621fa87749047b5763e703ebed2466d","6947cac4772ec6adda7b883d47d399952bcd2152"
"https://github.com/ministryofjustice/Claim-for-Crown-Court-Defence.git","1453","2","[3442a515115795c9043b26f002cc8b5a19cdcfa9, 9ddf19f0f4b430baec092a5c3a98cc94b9df875f]","3","2","3442a515115795c9043b26f002cc8b5a19cdcfa9","bd255b697b2f2f324c44bc38755d2d126bd084ed","7e4c76d0fa374b8ae4910419ac88c4547cf2e40e"
"https://github.com/ministryofjustice/Claim-for-Crown-Court-Defence.git","1475","3","[c9037e9f3f07592847565a8bb7b4ec6dfbe888c0, 82571c4bda98188d2dee73d6153c4356a4c07a51, 135f0b3afde13d546da0a2dc88cb85d922504bba]","7","1","c9037e9f3f07592847565a8bb7b4ec6dfbe888c0","5e5619e77787d8b6da3aadef1c7b8525916340e6","f4c5a5bdca94624072dd9268392b3af637cff080"
"https://github.com/ministryofjustice/Claim-for-Crown-Court-Defence.git","1477","6","[ca7c80673cc7cf3850b7d7aa957ac06471c625c2, 690f4ca658125833c977d6291ad2ba35792409b0, 73838beb8e66674b63f9a63e717f8ec4ac280353, 8584a70a6ad51be05ce2e50c344e1c6fe98d1cdc, 2cc4c4c13622e81ee5d17bb8348502a31ff9f697, fbe35506ad5484c751157da45a39c44b25cfe2f6]","7","1","ca7c80673cc7cf3850b7d7aa957ac06471c625c2","f4c5a5bdca94624072dd9268392b3af637cff080","253449bfbb8341c81a507f4061b5fdae775d176b"
"https://github.com/ministryofjustice/Claim-for-Crown-Court-Defence.git","1481","3","[d2e0975cc286b6012e886eb7fcb7fa7cb5d8eba8, 0261dcd2817efe683c3b3e024d952fdd8db22e30, 12df451387fa2f6132a72fd9f2ccd9a64ac85af4]","3","1","d2e0975cc286b6012e886eb7fcb7fa7cb5d8eba8","8dd9498f9e45000a638b5d6aa65d515ad27c6bfd","a534a6189d989ab48c06c6d7053039a5644919b6"
"https://github.com/ministryofjustice/Claim-for-Crown-Court-Defence.git","1484","1","[200c9a5025beb2c618c5386bbf8902f902343a4b]","2","1","200c9a5025beb2c618c5386bbf8902f902343a4b","a534a6189d989ab48c06c6d7053039a5644919b6","303e3389b8f06e994edf814fdfb698fdd5686880"
"https://github.com/ministryofjustice/Claim-for-Crown-Court-Defence.git","1519","6","[cd8810ddf1817e4eccfbb344e5fdebe4dd91664a, 2ff8e43329a4f82dfe8b8881fefa93975a8617ea, 88f0703eb786e874419f8410329020d598900846, 6d8349402b967c945297f7ce918a764847baf091, ebe06e7d53210dafce4b31c9722009950ee6d061, eeff1c25d894f2f2f65622eb8b94f23c86d0b9c4]","12","3","cd8810ddf1817e4eccfbb344e5fdebe4dd91664a","b5f2d1a3ddc098fc8f1796b284b66b3f562c130b","a406211fd795e1a44ee2b88135c6c18126014241"
"https://github.com/ministryofjustice/Claim-for-Crown-Court-Defence.git","1522","1","[b0ff5c7b6fc32ac776fd058b2345251663369c4a]","1","1","b0ff5c7b6fc32ac776fd058b2345251663369c4a","5811c9210e9b0a97e505dc919171e79fb11d8346","a406211fd795e1a44ee2b88135c6c18126014241"
"https://github.com/ministryofjustice/Claim-for-Crown-Court-Defence.git","1535","2","[cf819429633f2427e9017f7b17542b7fa81a92af, 8836f57cf5cc95cc92d677fc59e965d32ef2f3e3]","2","1","cf819429633f2427e9017f7b17542b7fa81a92af","53757f7b6f3110067b6831f828117c45e21ccd97","4b1d2e2ae451ad13d86e553f875edd069b9cd7af"
"https://github.com/ministryofjustice/Claim-for-Crown-Court-Defence.git","1541","6","[62b69e4ad035db4c0cdb3d4ca53e4b94cef5e6e5, 4fe7e2bed666fa051b881e48eeccb987a29ff673, 6522f5388d499aee32409b4b1871a3eeb69e31a0, de06c1109b553be74baede9583578a8440066e10, 175cdb67aa4695ad59c88c1ff75e84b63c4de956, 6a80629f816d26da8eafca70b957eec759b611af]","10","1","62b69e4ad035db4c0cdb3d4ca53e4b94cef5e6e5","0ac92eebfad0fb7faf9180471a33a35bdebbe75c","c9d4d4a20b865f95ad4ef5436b6dac48582fc221"
"https://github.com/ministryofjustice/Claim-for-Crown-Court-Defence.git","1544","1","[091b108194e21da44d2be8917cf679ec6840fbf0]","9","1","091b108194e21da44d2be8917cf679ec6840fbf0","c9d4d4a20b865f95ad4ef5436b6dac48582fc221","e173bdede8f84b1de2adb9f94607196b88d981cd"
"https://github.com/ministryofjustice/Claim-for-Crown-Court-Defence.git","1547","2","[979a9a1d362851f45493e3c5f0941a75983fe8c3, 17de3c517a7a43ed53b8da77ff0974850b528578]","5","1","979a9a1d362851f45493e3c5f0941a75983fe8c3","a185a2527b1286a588245454510b3231058f7f93","cba54d8ea668ebef67805f196abc2fa4dcfd6ec2"
"https://github.com/ministryofjustice/Claim-for-Crown-Court-Defence.git","1556","1","[5b39d964d5a54a133b8f00b38e77bb691ef3aa52]","6","3","5b39d964d5a54a133b8f00b38e77bb691ef3aa52","3522d7aa9401b4db3dd0c0139fb0ea7e0d9a85ec","10a100e594e566a4fdcf15053ff908321135cdc7"
"https://github.com/ministryofjustice/Claim-for-Crown-Court-Defence.git","1560","1","[71580c78a8e9545775de143fec233fe653ac5c1a]","4","1","71580c78a8e9545775de143fec233fe653ac5c1a","8d68b87d7c8852e8b01af5ce80e6704c77107f98","aeb5b8fbe05b460fb9cdccf976f37145326a68c6"
