[path:/features/step_definitions/advocate_claims_list_steps.rb, methods:[27, 0, 11, 34, 15, 44, 57, 106, 86, 92, 80, 149, 120, 126, 164, 140, 145, 130, 175, 205, 214]]
[path:/features/step_definitions/advocate_new_claim_steps.rb, methods:[25, 11, 81, 147, 155, 167, 250, 31, 35, 39, 202, 216, 193, 211, 263, 267, 135, 139, 143, 0, 221, 227, 160, 272, 279, 285, 293, 297, 305, 71, 77]]
[path:/features/step_definitions/caseworker_claims_list_steps.rb, methods:[11, 70, 23, 101, 15, 28, 19, 33, 39, 43, 47, 1, 74, 149, 160, 86, 65]]
[path:/features/step_definitions/claim_allocation_steps.rb, methods:[1]]
[path:/features/step_definitions/claim_status_steps.rb, methods:[1, 5, 9, 13, 17, 57, 46, 52, 66, 21, 41, 62]]
[path:/features/step_definitions/claims_financial_summary_steps.rb, methods:[0, 4, 8, 12, 16, 20, 27, 31]]
[path:/features/step_definitions/shared/sign_in_steps.rb, methods:[19, 25, 37, 31]]
[path:/features/step_definitions/view_claim_evidence_steps.rb, methods:[1, 33, 42, 5, 24, 38, 14, 46]]
[path:/features/support/factory_girl.rb, methods:[[name:create, step:Given ]]]
[path:/features/support/user_helper.rb, methods:[[name:sign_in, step:Given ]]]
