"Repository","https://github.com/rapidftr/RapidFTR.git"
"Precision mean (RT)","0.06900837257619048"
"Precision median (RT)","0.0"
"Precision standard deviation (RT)","0.11434307582905673"
"Recall mean (RT)","0.33333333333333337"
"Recall median (RT)","0.0"
"Recall standard deviation (RT)","0.45946829173754994"
"F2 mean (RT)","0.15895232361563774"
"F2 median (RT)","0.0"
"F2 standard deviation (RT)","0.23781024066376982"
"Correlation #Test-Precision","0.41"
"Correlation #Test-Recall","0.41"
"Task","Dates","#Devs","#Commits","Hashes","#Gherkin_Tests","#Sted_defs","#TestI","#TaskI","TestI","TaskI","Precision","Recall","Rails","#visit_call","Lost_visit_call","#Views_TestI","#Code_View_Analysis","Code_View_Analysis","Methods_Unknown_Type","Renamed_Files","Deleted_Files","NotFound_Views","#NotFound_Views","Timestamp","Has_Merge","#FP","#FN","FP","FN","#Hits","Hits","f2"
"985","[08-02-2012]","1","1","[a70ba24b5d28fc7f6789076c6443e96b0758f333]","28","9","14","5","[app/controllers/admin_controller.rb, app/controllers/application_controller.rb, app/controllers/child_ids_controller.rb, app/controllers/child_media_controller.rb, app/controllers/children_controller.rb, app/controllers/fields_controller.rb, app/controllers/form_section_controller.rb, app/controllers/highlight_fields_controller.rb, app/controllers/histories_controller.rb, app/controllers/home_controller.rb, app/controllers/password_recovery_requests_controller.rb, app/controllers/publish_form_section_controller.rb, app/controllers/sessions_controller.rb, app/controllers/users_controller.rb]","[app/controllers/children_controller.rb, app/controllers/highlight_fields_controller.rb, app/controllers/home_controller.rb, app/controllers/password_recovery_requests_controller.rb, app/controllers/users_controller.rb]","0.3571428571","1.0","2.3.11","13","[{path=rapidftr_RapidFTR/features/step_definitions/basic_steps.rb, line=451}, {path=rapidftr_RapidFTR/features/step_definitions/basic_steps.rb, line=463}, {path=rapidftr_RapidFTR/features/step_definitions/basic_steps.rb, line=476}]","0","81","[app/controllers/admin_controller.rb, app/controllers/child_ids_controller.rb, app/controllers/child_media_controller.rb, app/controllers/children_controller.rb, app/controllers/fields_controller.rb, app/controllers/form_section_controller.rb, app/controllers/highlight_fields_controller.rb, app/controllers/histories_controller.rb, app/controllers/home_controller.rb, app/controllers/password_recovery_requests_controller.rb, app/controllers/publish_form_section_controller.rb, app/controllers/sessions_controller.rb, app/controllers/users_controller.rb, app/views/admin/index.html.erb, app/views/child_media/manage_photos.html.erb, app/views/children/_audio_player.html.erb, app/views/children/_audio_upload_box.html.erb, app/views/children/_check_boxes.html.erb, app/views/children/_date_field.html.erb, app/views/children/_field_display_audio.html.erb, app/views/children/_field_display_basic.html.erb, app/views/children/_field_display_photo.html.erb, app/views/children/_filter_box.html.erb, app/views/children/_form_section.html.erb, app/views/children/_form_section_info.html.erb, app/views/children/_mark_as.html.erb, app/views/children/_numeric_field.html.erb, app/views/children/_order_by_box.html.erb, app/views/children/_photo_upload_box.html.erb, app/views/children/_picture.html.erb, app/views/children/_radio_button.html.erb, app/views/children/_repeatable_text_field.html.erb, app/views/children/_search_results.html.erb, app/views/children/_select_box.html.erb, app/views/children/_show_child_toolbar.erb, app/views/children/_show_form_section.html.erb, app/views/children/_summary_row.html.erb, app/views/children/_tabs.html.erb, app/views/children/_text_field.html.erb, app/views/children/_textarea.html.erb, app/views/children/edit.html.erb, app/views/children/edit_photo.html.erb, app/views/children/index.html.erb, app/views/children/new.html.erb, app/views/children/search.html.erb, app/views/children/show.html.erb, app/views/children/suspect_records.html.erb, app/views/fields/_basic_form.html.erb, app/views/fields/_common.html.erb, app/views/fields/_multiple_choice_form.html.erb, app/views/fields/_suggested_field.html.erb, app/views/fields/choose.html.erb, app/views/fields/edit.html.erb, app/views/fields/new.html.erb, app/views/form_section/index.html.erb, app/views/form_section/new.html.erb, app/views/highlight_fields/index.html.erb, app/views/histories/_audio_history_change.html.erb, app/views/histories/_flag_change.erb, app/views/histories/_history_change.html.erb, app/views/histories/_investigated_change.html.erb, app/views/histories/_photo_history_change.html.erb, app/views/histories/_reunited_change.erb, app/views/histories/show.html.erb, app/views/home/_notifications.html.erb, app/views/home/index.html.erb, app/views/password_recovery_requests/new.html.erb, app/views/sessions/new.html.erb, app/views/sessions/show.html.erb, app/views/shared/_form_fields.html.erb, app/views/users/_devices.html.erb, app/views/users/_edittable_user.html.erb, app/views/users/_mobile_login_history.html.erb, app/views/users/_user.html.erb, app/views/users/_user_disabled_checkbox.html.erb, app/views/users/_users_header.html.erb, app/views/users/_users_table.html.erb, app/views/users/edit.html.erb, app/views/users/index.html.erb, app/views/users/new.html.erb, app/views/users/show.html.erb]","[stub!, and_return, stub!, and_return, and_return, stub!, hashes, reverse_merge!, delete, uploadable_photo, key?, create!, each, fill_in, click_button, response, contain, raw, flatten, body, Hpricot, inner_text, find_child_by_name, click_link, click_button, click_link, click_link, fill_in, choose, attach_file, assert_contain, assert_not_contain, each, created_at, url_for, user, unique_id, fields, response_body, have_selector, css, inject, hashes, have_key, attr, dehumanize, field_with_id, check, reverse_merge!, new_create_custom_fields, raise, url_for, unique_id, fields, user]","","[app/views/password_recovery_requests/create.html.erb]","[app/views/children/_field_display_.html.erb, edit, feature, new_add_suggested_field_to_form_section, new_assign_unique_id_to_a_child, new_create_custom_field, view]","7","8.639 seconds","false","9","0","[app/controllers/admin_controller.rb, app/controllers/application_controller.rb, app/controllers/child_ids_controller.rb, app/controllers/child_media_controller.rb, app/controllers/fields_controller.rb, app/controllers/form_section_controller.rb, app/controllers/histories_controller.rb, app/controllers/publish_form_section_controller.rb, app/controllers/sessions_controller.rb]","[]","5","[app/controllers/children_controller.rb, app/controllers/highlight_fields_controller.rb, app/controllers/home_controller.rb, app/controllers/password_recovery_requests_controller.rb, app/controllers/users_controller.rb]","0.7352941176107266"
"1004","[30-11-2011, 01-12-2011, 02-12-2011]","2","9","[64fff5e599c8c476e4c03804a19de6ddf41ddf5d, faa23d8b609938b7bbdb738c0cabe077927d4914, dda99ed01dd4d991ca4462340893a6cf1f83dc8d, 2062fefac0f3ca02bc345505bf248e064df671b7, d7762bf8cb612f75f8292d9e10289126f19e6d74, 56eab3a41d41ca66cad8403297982e9186679545, 3af2e3db0c6316eb3bc34565020b9aedd5639c46, 6c3aa9086a4eaf4f3b698a3aaa34f610da528704, d0827cb23c86e66c66c63f670b4d8481e8a292dd]","21","2","0","1","[]","[app/controllers/children_controller.rb]","0.0","0.0","2.3.11","1","[]","0","0","[]","[click_link, click_link, response, contain, assert_contain, body, each, hashes, reverse_merge!, delete, uploadable_photo, key?, create!, each]","","[]","","0","2.663 seconds","false","0","1","[]","[app/controllers/children_controller.rb]","0","[]","0"
"1039","[05-09-2011]","1","1","[d32027070b5a27dc2670da025f94f9779ffd2546]","21","0","14","6","[app/controllers/admin_controller.rb, app/controllers/application_controller.rb, app/controllers/child_ids_controller.rb, app/controllers/child_media_controller.rb, app/controllers/children_controller.rb, app/controllers/fields_controller.rb, app/controllers/form_section_controller.rb, app/controllers/highlight_fields_controller.rb, app/controllers/histories_controller.rb, app/controllers/home_controller.rb, app/controllers/password_recovery_requests_controller.rb, app/controllers/publish_form_section_controller.rb, app/controllers/sessions_controller.rb, app/controllers/users_controller.rb]","[app/controllers/advanced_search_controller.rb, app/controllers/children_controller.rb, app/controllers/contact_information_controller.rb, app/controllers/fields_controller.rb, app/controllers/form_section_controller.rb, app/controllers/users_controller.rb]","0.2857142857","0.6666666667","2.3.11","7","[]","0","73","[app/controllers/admin_controller.rb, app/controllers/child_ids_controller.rb, app/controllers/child_media_controller.rb, app/controllers/children_controller.rb, app/controllers/fields_controller.rb, app/controllers/form_section_controller.rb, app/controllers/highlight_fields_controller.rb, app/controllers/histories_controller.rb, app/controllers/home_controller.rb, app/controllers/password_recovery_requests_controller.rb, app/controllers/publish_form_section_controller.rb, app/controllers/sessions_controller.rb, app/controllers/users_controller.rb, app/views/admin/index.html.erb, app/views/children/_audio_player.html.erb, app/views/children/_audio_upload_box.html.erb, app/views/children/_check_boxes.html.erb, app/views/children/_date_field.html.erb, app/views/children/_field_display_audio.html.erb, app/views/children/_field_display_basic.html.erb, app/views/children/_field_display_photo.html.erb, app/views/children/_form_section.html.erb, app/views/children/_form_section_info.html.erb, app/views/children/_mark_as.html.erb, app/views/children/_numeric_field.html.erb, app/views/children/_photo_upload_box.html.erb, app/views/children/_picture.html.erb, app/views/children/_radio_button.html.erb, app/views/children/_repeatable_text_field.html.erb, app/views/children/_search_results.html.erb, app/views/children/_select_box.html.erb, app/views/children/_show_child_toolbar.erb, app/views/children/_show_form_section.html.erb, app/views/children/_summary_row.html.erb, app/views/children/_tabs.html.erb, app/views/children/_text_field.html.erb, app/views/children/_textarea.html.erb, app/views/children/edit.html.erb, app/views/children/edit_photo.html.erb, app/views/children/index.html.erb, app/views/children/new.html.erb, app/views/children/search.html.erb, app/views/children/show.html.erb, app/views/fields/_basic_form.html.erb, app/views/fields/_common.html.erb, app/views/fields/_multiple_choice_form.html.erb, app/views/fields/_suggested_field.html.erb, app/views/fields/choose.html.erb, app/views/fields/edit.html.erb, app/views/fields/new.html.erb, app/views/form_section/index.html.erb, app/views/form_section/new.html.erb, app/views/highlight_fields/index.html.erb, app/views/histories/_audio_history_change.html.erb, app/views/histories/_flag_change.erb, app/views/histories/_history_change.html.erb, app/views/histories/_photo_history_change.html.erb, app/views/histories/_reunited_change.erb, app/views/histories/show.html.erb, app/views/home/_notifications.html.erb, app/views/home/index.html.erb, app/views/password_recovery_requests/create.html.erb, app/views/password_recovery_requests/new.html.erb, app/views/sessions/new.html.erb, app/views/sessions/show.html.erb, app/views/shared/_form_fields.html.erb, app/views/users/_devices.html.erb, app/views/users/_edittable_user.html.erb, app/views/users/_mobile_login_history.html.erb, app/views/users/edit.html.erb, app/views/users/index.html.erb, app/views/users/new.html.erb, app/views/users/show.html.erb]","[click_button, click_link, click_link, click_link, fill_in, fill_in, select, uncheck, response, contain, assert_contain, matches?, failure_message, within, assert_not_contain, field_labeled, be_checked, checked?, to_i, created_at, url_for, request password, unique_id, fields, status, rows_hash, assert_have_xpath, each, raw, response_body, have_selector, reverse_merge!, new_create_custom_fields, raise, request password, url_for, unique_id, fields, and_return, stub!, body, Hpricot, child_tab, inner_html, collect, child_tab_name, each, hashes, gsub, reverse_merge!, to_i, be_nil, fields, save!, length, to_i, form_section_names, form_section_row_for, be_nil, enabled_icon, detect, eval, css, include, within, to_html, find_child_by_name, write, close, path, strings, cookies, save!, attach_file]","","[]","[app/views/children/_field_display_.html.erb, feature, new_add_suggested_field_to_form_section, new_assign_unique_id_to_a_child, new_create_custom_field]","5","18.816 seconds","false","10","2","[app/controllers/admin_controller.rb, app/controllers/application_controller.rb, app/controllers/child_ids_controller.rb, app/controllers/child_media_controller.rb, app/controllers/highlight_fields_controller.rb, app/controllers/histories_controller.rb, app/controllers/home_controller.rb, app/controllers/password_recovery_requests_controller.rb, app/controllers/publish_form_section_controller.rb, app/controllers/sessions_controller.rb]","[app/controllers/advanced_search_controller.rb, app/controllers/contact_information_controller.rb]","4","[app/controllers/children_controller.rb, app/controllers/fields_controller.rb, app/controllers/form_section_controller.rb, app/controllers/users_controller.rb]","0.5263157894806094"
"1054","[17-08-2011]","1","1","[80e93a05b5413419ed414c28f843b982e4c678b3]","7","0","12","0","[app/controllers/admin_controller.rb, app/controllers/application_controller.rb, app/controllers/child_ids_controller.rb, app/controllers/child_media_controller.rb, app/controllers/children_controller.rb, app/controllers/fields_controller.rb, app/controllers/form_section_controller.rb, app/controllers/highlight_fields_controller.rb, app/controllers/histories_controller.rb, app/controllers/publish_form_section_controller.rb, app/controllers/sessions_controller.rb, app/controllers/users_controller.rb]","[]","0.0","0.0","2.3.11","5","[]","0","66","[app/controllers/admin_controller.rb, app/controllers/child_ids_controller.rb, app/controllers/child_media_controller.rb, app/controllers/children_controller.rb, app/controllers/fields_controller.rb, app/controllers/form_section_controller.rb, app/controllers/highlight_fields_controller.rb, app/controllers/histories_controller.rb, app/controllers/publish_form_section_controller.rb, app/controllers/sessions_controller.rb, app/controllers/users_controller.rb, app/views/admin/index.html.erb, app/views/children/_audio_player.html.erb, app/views/children/_audio_upload_box.html.erb, app/views/children/_check_boxes.html.erb, app/views/children/_date_field.html.erb, app/views/children/_field_display_audio.html.erb, app/views/children/_field_display_basic.html.erb, app/views/children/_field_display_photo.html.erb, app/views/children/_form_section.html.erb, app/views/children/_form_section_info.html.erb, app/views/children/_mark_as.html.erb, app/views/children/_numeric_field.html.erb, app/views/children/_photo_upload_box.html.erb, app/views/children/_picture.html.erb, app/views/children/_radio_button.html.erb, app/views/children/_repeatable_text_field.html.erb, app/views/children/_search_results.html.erb, app/views/children/_select_box.html.erb, app/views/children/_show_child_toolbar.erb, app/views/children/_show_form_section.html.erb, app/views/children/_summary_row.html.erb, app/views/children/_tabs.html.erb, app/views/children/_text_field.html.erb, app/views/children/_textarea.html.erb, app/views/children/edit.html.erb, app/views/children/edit_photo.html.erb, app/views/children/index.html.erb, app/views/children/new.html.erb, app/views/children/search.html.erb, app/views/children/show.html.erb, app/views/fields/_basic_form.html.erb, app/views/fields/_common.html.erb, app/views/fields/_multiple_choice_form.html.erb, app/views/fields/_suggested_field.html.erb, app/views/fields/choose.html.erb, app/views/fields/edit.html.erb, app/views/fields/new.html.erb, app/views/form_section/index.html.erb, app/views/form_section/new.html.erb, app/views/highlight_fields/index.html.erb, app/views/histories/_audio_history_change.html.erb, app/views/histories/_flag_change.erb, app/views/histories/_history_change.html.erb, app/views/histories/_photo_history_change.html.erb, app/views/histories/_reunited_change.erb, app/views/histories/show.html.erb, app/views/sessions/new.html.erb, app/views/sessions/show.html.erb, app/views/shared/_form_fields.html.erb, app/views/users/_devices.html.erb, app/views/users/_edittable_user.html.erb, app/views/users/_mobile_login_history.html.erb, app/views/users/edit.html.erb, app/views/users/index.html.erb, app/views/users/new.html.erb]","[click_button, click_link, click_link, fill_in, fill_in, uncheck, response, contain, assert_contain, field_labeled, be_checked, checked?, url_for, unique_id, fields, rows_hash, assert_have_xpath, each, raw, response_body, have_selector, reverse_merge!, new_create_custom_fields, raise, url_for, unique_id, fields, each, hashes, gsub, reverse_merge!, to_i, be_nil, fields, save!, body, Hpricot, form_section_row_for, be_nil, enabled_icon, inner_html, css, include]","","[]","[app/views/children/_field_display_.html.erb, feature, new_add_suggested_field_to_form_section, new_assign_unique_id_to_a_child, new_create_custom_field]","5","36.743 seconds","false","12","0","[app/controllers/admin_controller.rb, app/controllers/application_controller.rb, app/controllers/child_ids_controller.rb, app/controllers/child_media_controller.rb, app/controllers/children_controller.rb, app/controllers/fields_controller.rb, app/controllers/form_section_controller.rb, app/controllers/highlight_fields_controller.rb, app/controllers/histories_controller.rb, app/controllers/publish_form_section_controller.rb, app/controllers/sessions_controller.rb, app/controllers/users_controller.rb]","[]","0","[]","0"
"1053","[09-08-2011, 16-08-2011, 30-08-2011]","1","7","[95685b4d49155c3dcf062be34a5db192456ae0f4, b387832547e3a25e11ae5d20e351ab25fb6d45af, 46fa7db92d3d0666a58bd61ae080eb1d31a45082, 792b73078c69aca3ee5d69f53b867d3fb7aaea44, 727bf82eeccb545fa5333eb75a45a551d8c64a33, b49970ea8e1900fb4dbb9de320e91678511abc27, 5dcbaa84f00a5cd516c9b78854f7d4d133bc8b75]","5","1","14","1","[app/controllers/admin_controller.rb, app/controllers/application_controller.rb, app/controllers/child_ids_controller.rb, app/controllers/child_media_controller.rb, app/controllers/children_controller.rb, app/controllers/fields_controller.rb, app/controllers/form_section_controller.rb, app/controllers/highlight_fields_controller.rb, app/controllers/histories_controller.rb, app/controllers/home_controller.rb, app/controllers/password_recovery_requests_controller.rb, app/controllers/publish_form_section_controller.rb, app/controllers/sessions_controller.rb, app/controllers/users_controller.rb]","[app/controllers/password_recovery_requests_controller.rb]","0.0714285714","1.0","2.3.11","2","[]","0","71","[app/controllers/admin_controller.rb, app/controllers/child_ids_controller.rb, app/controllers/child_media_controller.rb, app/controllers/children_controller.rb, app/controllers/fields_controller.rb, app/controllers/form_section_controller.rb, app/controllers/highlight_fields_controller.rb, app/controllers/histories_controller.rb, app/controllers/home_controller.rb, app/controllers/password_recovery_requests_controller.rb, app/controllers/publish_form_section_controller.rb, app/controllers/sessions_controller.rb, app/controllers/users_controller.rb, app/views/admin/index.html.erb, app/views/children/_audio_player.html.erb, app/views/children/_audio_upload_box.html.erb, app/views/children/_check_boxes.html.erb, app/views/children/_date_field.html.erb, app/views/children/_field_display_audio.html.erb, app/views/children/_field_display_basic.html.erb, app/views/children/_field_display_photo.html.erb, app/views/children/_form_section.html.erb, app/views/children/_form_section_info.html.erb, app/views/children/_numeric_field.html.erb, app/views/children/_photo_upload_box.html.erb, app/views/children/_picture.html.erb, app/views/children/_radio_button.html.erb, app/views/children/_repeatable_text_field.html.erb, app/views/children/_search_results.html.erb, app/views/children/_select_box.html.erb, app/views/children/_show_child_toolbar.erb, app/views/children/_show_form_section.html.erb, app/views/children/_summary_row.html.erb, app/views/children/_tabs.html.erb, app/views/children/_text_field.html.erb, app/views/children/_textarea.html.erb, app/views/children/edit.html.erb, app/views/children/edit_photo.html.erb, app/views/children/index.html.erb, app/views/children/new.html.erb, app/views/children/search.html.erb, app/views/children/show.html.erb, app/views/fields/_basic_form.html.erb, app/views/fields/_common.html.erb, app/views/fields/_multiple_choice_form.html.erb, app/views/fields/_suggested_field.html.erb, app/views/fields/choose.html.erb, app/views/fields/edit.html.erb, app/views/fields/new.html.erb, app/views/form_section/index.html.erb, app/views/form_section/new.html.erb, app/views/highlight_fields/index.html.erb, app/views/histories/_audio_history_change.html.erb, app/views/histories/_flag_change.erb, app/views/histories/_history_change.html.erb, app/views/histories/_photo_history_change.html.erb, app/views/histories/show.html.erb, app/views/home/_notifications.html.erb, app/views/home/index.html.erb, app/views/password_recovery_requests/create.html.erb, app/views/password_recovery_requests/new.html.erb, app/views/sessions/new.html.erb, app/views/sessions/show.html.erb, app/views/shared/_form_fields.html.erb, app/views/users/_devices.html.erb, app/views/users/_edittable_user.html.erb, app/views/users/_mobile_login_history.html.erb, app/views/users/edit.html.erb, app/views/users/index.html.erb, app/views/users/new.html.erb, app/views/users/show.html.erb]","[click_button, click_link, fill_in, response, contain, assert_contain, assert_not_contain, created_at, request password, flag, unflag, url_for, unique_id, fields, response_body, have_selector, reverse_merge!, new_create_custom_fields, raise, request password, url_for, flag, unflag, unique_id, fields]","","[]","[app/views/children/_field_display_.html.erb, feature, new_add_suggested_field_to_form_section, new_assign_unique_id_to_a_child, new_create_custom_field]","5","13.198 seconds","false","13","0","[app/controllers/admin_controller.rb, app/controllers/application_controller.rb, app/controllers/child_ids_controller.rb, app/controllers/child_media_controller.rb, app/controllers/children_controller.rb, app/controllers/fields_controller.rb, app/controllers/form_section_controller.rb, app/controllers/highlight_fields_controller.rb, app/controllers/histories_controller.rb, app/controllers/home_controller.rb, app/controllers/publish_form_section_controller.rb, app/controllers/sessions_controller.rb, app/controllers/users_controller.rb]","[]","1","[app/controllers/password_recovery_requests_controller.rb]","0.27777777769135803"
"111","[19-08-2014]","2","2","[f5e61f1cdfabac8109af9d58015e7fe3fec6e592, a50bae455e4531deba206bbf0a0f4a401d7901b9]","3","1","26","1","[app/controllers/admin_controller.rb, app/controllers/advanced_search_controller.rb, app/controllers/api/child_media_controller.rb, app/controllers/api/children_controller.rb, app/controllers/api/enquiries_controller.rb, app/controllers/api/sessions_controller.rb, app/controllers/child_histories_controller.rb, app/controllers/child_ids_controller.rb, app/controllers/child_media_controller.rb, app/controllers/children_controller.rb, app/controllers/devices_controller.rb, app/controllers/duplicates_controller.rb, app/controllers/enquiries_controller.rb, app/controllers/fields_controller.rb, app/controllers/form_section_controller.rb, app/controllers/forms_controller.rb, app/controllers/highlight_fields_controller.rb, app/controllers/replications_controller.rb, app/controllers/reports_controller.rb, app/controllers/roles_controller.rb, app/controllers/sessions_controller.rb, app/controllers/standard_forms_controller.rb, app/controllers/system_logs_controller.rb, app/controllers/system_users_controller.rb, app/controllers/user_histories_controller.rb, app/controllers/users_controller.rb]","[app/controllers/enquiries_controller.rb]","0.0384615385","1.0","4.0.8","1","[]","0","104","[app/controllers/admin_controller.rb, app/controllers/advanced_search_controller.rb, app/controllers/api/child_media_controller.rb, app/controllers/api/children_controller.rb, app/controllers/api/enquiries_controller.rb, app/controllers/api/sessions_controller.rb, app/controllers/child_histories_controller.rb, app/controllers/child_ids_controller.rb, app/controllers/child_media_controller.rb, app/controllers/children_controller.rb, app/controllers/devices_controller.rb, app/controllers/duplicates_controller.rb, app/controllers/enquiries_controller.rb, app/controllers/fields_controller.rb, app/controllers/form_section_controller.rb, app/controllers/forms_controller.rb, app/controllers/highlight_fields_controller.rb, app/controllers/replications_controller.rb, app/controllers/reports_controller.rb, app/controllers/roles_controller.rb, app/controllers/sessions_controller.rb, app/controllers/standard_forms_controller.rb, app/controllers/system_logs_controller.rb, app/controllers/system_users_controller.rb, app/controllers/user_histories_controller.rb, app/controllers/users_controller.rb, app/models/session.rb, app/views/admin/index.html.erb, app/views/advanced_search/index.html.erb, app/views/child_histories/index.html.erb, app/views/child_media/manage_photos.html.erb, app/views/children/_filter_box.html.erb, app/views/children/_header.html.erb, app/views/children/_mark_as.html.erb, app/views/children/_order_by_box.html.erb, app/views/children/_search_results.html.erb, app/views/children/_show_child_toolbar.erb, app/views/children/_summary_row.html.erb, app/views/children/_suspect_flag.html.erb, app/views/children/edit.html.erb, app/views/children/edit_photo.html.erb, app/views/children/index.html.erb, app/views/children/new.html.erb, app/views/children/search.html.erb, app/views/children/show.html.erb, app/views/devices/index.html.erb, app/views/duplicates/new.html.erb, app/views/enquiries/_header.html.erb, app/views/enquiries/_summary_row.html.erb, app/views/enquiries/index.html.erb, app/views/enquiries/new.html.erb, app/views/enquiries/show.html.erb, app/views/form_section/_add_field.html.erb, app/views/form_section/_delete_button.html.erb, app/views/form_section/_direction_button.html.erb, app/views/form_section/_form_section.html.erb, app/views/form_section/edit.html.erb, app/views/form_section/index.html.erb, app/views/form_section/new.html.erb, app/views/forms/index.html.erb, app/views/highlight_fields/index.html.erb, app/views/highlight_fields/show.html.erb, app/views/replications/_form.html.erb, app/views/replications/_index.html.erb, app/views/replications/edit.html.erb, app/views/replications/new.html.erb, app/views/replications/show.html.erb, app/views/reports/index.html.erb, app/views/roles/_editable_role.html.erb, app/views/roles/edit.html.erb, app/views/roles/index.html.erb, app/views/roles/new.html.erb, app/views/roles/show.html.erb, app/views/sessions/new.html.erb, app/views/shared/_add_translations.html.erb, app/views/shared/_fields.html.erb, app/views/shared/_form_fields.html.erb, app/views/shared/_form_section.html.erb, app/views/shared/_form_section_info.html.erb, app/views/shared/_pagination.html.erb, app/views/shared/_show_form_section.html.erb, app/views/shared/_side_tab.html.erb, app/views/shared/_sidebar.html.erb, app/views/shared/_tabs.html.erb, app/views/standard_forms/index.html.erb, app/views/system_logs/index.html.erb, app/views/system_users/_form.html.erb, app/views/system_users/edit.html.erb, app/views/system_users/index.html.erb, app/views/system_users/new.html.erb, app/views/user_histories/_no_activities.html.erb, app/views/user_histories/index.html.erb, app/views/users/_editable_user.html.erb, app/views/users/_mobile_login_history.html.erb, app/views/users/_user.html.erb, app/views/users/_user_disabled_checkbox.html.erb, app/views/users/_users_header.html.erb, app/views/users/_users_table.html.erb, app/views/users/change_password.html.erb, app/views/users/edit.html.erb, app/views/users/index.html.erb, app/views/users/new.html.erb, app/views/users/show.html.erb, app/views/users/unverified.html.erb]","[click_link, flatten!, reverse_merge!, fail, find, class, routes, url_helpers, send, proc, nil?, key, btn_submit, old_password, new_password, new_password_confirmation, click_button, click_link, click_link, fill_in, page, have_content, has_content?, current_url, path, eq, assert_equal, within, reverse_merge!, fail, find, class, routes, url_helpers, send, proc, nil?, key, btn_submit, old_password, new_password, new_password_confirmation, each, hashes, gsub, save!, to_i, be_nil, not_to, fields, page, click, within, hashes, each, flatten!]","","[]","[app/views/shared/_field_display_.html.erb, form_sections, new_assign_unique_id_to_a_child, new_create_custom_field, remote_app]","5","12.581 seconds","true","25","0","[app/controllers/admin_controller.rb, app/controllers/advanced_search_controller.rb, app/controllers/api/child_media_controller.rb, app/controllers/api/children_controller.rb, app/controllers/api/enquiries_controller.rb, app/controllers/api/sessions_controller.rb, app/controllers/child_histories_controller.rb, app/controllers/child_ids_controller.rb, app/controllers/child_media_controller.rb, app/controllers/children_controller.rb, app/controllers/devices_controller.rb, app/controllers/duplicates_controller.rb, app/controllers/fields_controller.rb, app/controllers/form_section_controller.rb, app/controllers/forms_controller.rb, app/controllers/highlight_fields_controller.rb, app/controllers/replications_controller.rb, app/controllers/reports_controller.rb, app/controllers/roles_controller.rb, app/controllers/sessions_controller.rb, app/controllers/standard_forms_controller.rb, app/controllers/system_logs_controller.rb, app/controllers/system_users_controller.rb, app/controllers/user_histories_controller.rb, app/controllers/users_controller.rb]","[]","1","[app/controllers/enquiries_controller.rb]","0.1666666668111111"
"1003","[14-12-2011]","1","1","[68ed8945b050d7776c2ce21d4176cbeafb815e89]","3","0","14","1","[app/controllers/admin_controller.rb, app/controllers/application_controller.rb, app/controllers/child_ids_controller.rb, app/controllers/child_media_controller.rb, app/controllers/children_controller.rb, app/controllers/fields_controller.rb, app/controllers/form_section_controller.rb, app/controllers/highlight_fields_controller.rb, app/controllers/histories_controller.rb, app/controllers/home_controller.rb, app/controllers/password_recovery_requests_controller.rb, app/controllers/publish_form_section_controller.rb, app/controllers/sessions_controller.rb, app/controllers/users_controller.rb]","[app/controllers/password_recovery_requests_controller.rb]","0.0714285714","1.0","2.3.11","2","[]","0","78","[app/controllers/admin_controller.rb, app/controllers/child_ids_controller.rb, app/controllers/child_media_controller.rb, app/controllers/children_controller.rb, app/controllers/fields_controller.rb, app/controllers/form_section_controller.rb, app/controllers/highlight_fields_controller.rb, app/controllers/histories_controller.rb, app/controllers/home_controller.rb, app/controllers/password_recovery_requests_controller.rb, app/controllers/publish_form_section_controller.rb, app/controllers/sessions_controller.rb, app/controllers/users_controller.rb, app/views/admin/index.html.erb, app/views/child_media/manage_photos.html.erb, app/views/children/_audio_player.html.erb, app/views/children/_audio_upload_box.html.erb, app/views/children/_check_boxes.html.erb, app/views/children/_date_field.html.erb, app/views/children/_field_display_audio.html.erb, app/views/children/_field_display_basic.html.erb, app/views/children/_field_display_photo.html.erb, app/views/children/_form_section.html.erb, app/views/children/_form_section_info.html.erb, app/views/children/_mark_as.html.erb, app/views/children/_numeric_field.html.erb, app/views/children/_photo_upload_box.html.erb, app/views/children/_picture.html.erb, app/views/children/_radio_button.html.erb, app/views/children/_repeatable_text_field.html.erb, app/views/children/_search_results.html.erb, app/views/children/_select_box.html.erb, app/views/children/_show_child_toolbar.erb, app/views/children/_show_form_section.html.erb, app/views/children/_summary_row.html.erb, app/views/children/_tabs.html.erb, app/views/children/_text_field.html.erb, app/views/children/_textarea.html.erb, app/views/children/edit.html.erb, app/views/children/edit_photo.html.erb, app/views/children/index.html.erb, app/views/children/new.html.erb, app/views/children/search.html.erb, app/views/children/show.html.erb, app/views/children/suspect_records.html.erb, app/views/fields/_basic_form.html.erb, app/views/fields/_common.html.erb, app/views/fields/_multiple_choice_form.html.erb, app/views/fields/_suggested_field.html.erb, app/views/fields/choose.html.erb, app/views/fields/edit.html.erb, app/views/fields/new.html.erb, app/views/form_section/index.html.erb, app/views/form_section/new.html.erb, app/views/highlight_fields/index.html.erb, app/views/histories/_audio_history_change.html.erb, app/views/histories/_flag_change.erb, app/views/histories/_history_change.html.erb, app/views/histories/_photo_history_change.html.erb, app/views/histories/_reunited_change.erb, app/views/histories/show.html.erb, app/views/home/_notifications.html.erb, app/views/home/index.html.erb, app/views/password_recovery_requests/new.html.erb, app/views/sessions/new.html.erb, app/views/sessions/show.html.erb, app/views/shared/_form_fields.html.erb, app/views/users/_devices.html.erb, app/views/users/_edittable_user.html.erb, app/views/users/_mobile_login_history.html.erb, app/views/users/_user.html.erb, app/views/users/_user_disabled_checkbox.html.erb, app/views/users/_users_header.html.erb, app/views/users/_users_table.html.erb, app/views/users/edit.html.erb, app/views/users/index.html.erb, app/views/users/new.html.erb, app/views/users/show.html.erb]","[click_button, click_link, fill_in, response, contain, assert_contain, assert_not_contain, created_at, url_for, user, unique_id, fields, response_body, have_selector, reverse_merge!, new_create_custom_fields, raise, url_for, unique_id, fields, user]","","[app/views/password_recovery_requests/create.html.erb]","[app/views/children/_field_display_.html.erb, feature, new_add_suggested_field_to_form_section, new_assign_unique_id_to_a_child, new_create_custom_field]","5","12.817 seconds","false","13","0","[app/controllers/admin_controller.rb, app/controllers/application_controller.rb, app/controllers/child_ids_controller.rb, app/controllers/child_media_controller.rb, app/controllers/children_controller.rb, app/controllers/fields_controller.rb, app/controllers/form_section_controller.rb, app/controllers/highlight_fields_controller.rb, app/controllers/histories_controller.rb, app/controllers/home_controller.rb, app/controllers/publish_form_section_controller.rb, app/controllers/sessions_controller.rb, app/controllers/users_controller.rb]","[]","1","[app/controllers/password_recovery_requests_controller.rb]","0.27777777769135803"
"112","[18-08-2014]","5","6","[9025c01dbb370b799a41a0568ff2612ab6e8e006, 4242114d6302ce6e275a2c35a65acb0a59858149, 84acf58099ec98070f0c627484c814a2021059d0, c0739fa98e0aad25a5f3bba69c6860022c4f3e74, 8dda13053c1669820826c674416678117e5a0ebb, 590576a186b0b57f34fc9c4660a0f2455e0fb5e4]","2","0","24","1","[app/controllers/admin_controller.rb, app/controllers/advanced_search_controller.rb, app/controllers/api/child_media_controller.rb, app/controllers/api/children_controller.rb, app/controllers/api/sessions_controller.rb, app/controllers/child_histories_controller.rb, app/controllers/child_ids_controller.rb, app/controllers/child_media_controller.rb, app/controllers/children_controller.rb, app/controllers/devices_controller.rb, app/controllers/duplicates_controller.rb, app/controllers/fields_controller.rb, app/controllers/form_section_controller.rb, app/controllers/forms_controller.rb, app/controllers/highlight_fields_controller.rb, app/controllers/replications_controller.rb, app/controllers/reports_controller.rb, app/controllers/roles_controller.rb, app/controllers/sessions_controller.rb, app/controllers/standard_forms_controller.rb, app/controllers/system_logs_controller.rb, app/controllers/system_users_controller.rb, app/controllers/user_histories_controller.rb, app/controllers/users_controller.rb]","[app/controllers/enquiries_controller.rb]","0.0","0.0","4.0.8","1","[]","0","97","[app/controllers/admin_controller.rb, app/controllers/advanced_search_controller.rb, app/controllers/api/child_media_controller.rb, app/controllers/api/children_controller.rb, app/controllers/api/sessions_controller.rb, app/controllers/child_histories_controller.rb, app/controllers/child_ids_controller.rb, app/controllers/child_media_controller.rb, app/controllers/children_controller.rb, app/controllers/devices_controller.rb, app/controllers/duplicates_controller.rb, app/controllers/fields_controller.rb, app/controllers/form_section_controller.rb, app/controllers/forms_controller.rb, app/controllers/highlight_fields_controller.rb, app/controllers/replications_controller.rb, app/controllers/reports_controller.rb, app/controllers/roles_controller.rb, app/controllers/sessions_controller.rb, app/controllers/standard_forms_controller.rb, app/controllers/system_logs_controller.rb, app/controllers/system_users_controller.rb, app/controllers/user_histories_controller.rb, app/controllers/users_controller.rb, app/models/session.rb, app/views/admin/index.html.erb, app/views/advanced_search/index.html.erb, app/views/child_histories/index.html.erb, app/views/child_media/manage_photos.html.erb, app/views/children/_filter_box.html.erb, app/views/children/_header.html.erb, app/views/children/_mark_as.html.erb, app/views/children/_order_by_box.html.erb, app/views/children/_search_results.html.erb, app/views/children/_show_child_toolbar.erb, app/views/children/_summary_row.html.erb, app/views/children/_suspect_flag.html.erb, app/views/children/edit.html.erb, app/views/children/edit_photo.html.erb, app/views/children/index.html.erb, app/views/children/new.html.erb, app/views/children/search.html.erb, app/views/children/show.html.erb, app/views/devices/index.html.erb, app/views/duplicates/new.html.erb, app/views/form_section/_add_field.html.erb, app/views/form_section/_delete_button.html.erb, app/views/form_section/_direction_button.html.erb, app/views/form_section/_form_section.html.erb, app/views/form_section/edit.html.erb, app/views/form_section/index.html.erb, app/views/form_section/new.html.erb, app/views/forms/index.html.erb, app/views/highlight_fields/index.html.erb, app/views/highlight_fields/show.html.erb, app/views/replications/_form.html.erb, app/views/replications/_index.html.erb, app/views/replications/edit.html.erb, app/views/replications/new.html.erb, app/views/replications/show.html.erb, app/views/reports/index.html.erb, app/views/roles/_editable_role.html.erb, app/views/roles/edit.html.erb, app/views/roles/index.html.erb, app/views/roles/new.html.erb, app/views/roles/show.html.erb, app/views/sessions/new.html.erb, app/views/shared/_add_translations.html.erb, app/views/shared/_fields.html.erb, app/views/shared/_form_fields.html.erb, app/views/shared/_form_section.html.erb, app/views/shared/_form_section_info.html.erb, app/views/shared/_pagination.html.erb, app/views/shared/_show_form_section.html.erb, app/views/shared/_side_tab.html.erb, app/views/shared/_sidebar.html.erb, app/views/shared/_tabs.html.erb, app/views/standard_forms/index.html.erb, app/views/system_logs/index.html.erb, app/views/system_users/_form.html.erb, app/views/system_users/edit.html.erb, app/views/system_users/index.html.erb, app/views/system_users/new.html.erb, app/views/user_histories/_no_activities.html.erb, app/views/user_histories/index.html.erb, app/views/users/_editable_user.html.erb, app/views/users/_mobile_login_history.html.erb, app/views/users/_user.html.erb, app/views/users/_user_disabled_checkbox.html.erb, app/views/users/_users_header.html.erb, app/views/users/_users_table.html.erb, app/views/users/change_password.html.erb, app/views/users/edit.html.erb, app/views/users/index.html.erb, app/views/users/new.html.erb, app/views/users/show.html.erb, app/views/users/unverified.html.erb]","[click_button, click_link, fill_in, page, have_content, has_content?, within, flatten!, reverse_merge!, fail, find, class, routes, url_helpers, send, proc, nil?, key, btn_submit, old_password, new_password, new_password_confirmation, each, hashes, gsub, save!, to_i, be_nil, not_to, fields]","","[app/views/children/_audio_player.html.erb, app/views/children/_audio_upload_box.html.erb, app/views/children/_check_boxes.html.erb, app/views/children/_date_field.html.erb, app/views/children/_field_display_audio.html.erb, app/views/children/_field_display_basic.html.erb, app/views/children/_field_display_photo.html.erb, app/views/children/_form_section.html.erb, app/views/children/_form_section_info.html.erb, app/views/children/_numeric_field.html.erb, app/views/children/_photo_upload_box.html.erb, app/views/children/_radio_button.html.erb, app/views/children/_select_box.html.erb, app/views/children/_show_form_section.html.erb, app/views/children/_tabs.html.erb, app/views/children/_text_field.html.erb, app/views/children/_textarea.html.erb]","[app/views/shared/_field_display_.html.erb, form_sections, new_assign_unique_id_to_a_child, new_create_custom_field, remote_app]","5","14.010 seconds","true","24","1","[app/controllers/admin_controller.rb, app/controllers/advanced_search_controller.rb, app/controllers/api/child_media_controller.rb, app/controllers/api/children_controller.rb, app/controllers/api/sessions_controller.rb, app/controllers/child_histories_controller.rb, app/controllers/child_ids_controller.rb, app/controllers/child_media_controller.rb, app/controllers/children_controller.rb, app/controllers/devices_controller.rb, app/controllers/duplicates_controller.rb, app/controllers/fields_controller.rb, app/controllers/form_section_controller.rb, app/controllers/forms_controller.rb, app/controllers/highlight_fields_controller.rb, app/controllers/replications_controller.rb, app/controllers/reports_controller.rb, app/controllers/roles_controller.rb, app/controllers/sessions_controller.rb, app/controllers/standard_forms_controller.rb, app/controllers/system_logs_controller.rb, app/controllers/system_users_controller.rb, app/controllers/user_histories_controller.rb, app/controllers/users_controller.rb]","[app/controllers/enquiries_controller.rb]","0","[]","0"
"109","[20-08-2014]","2","2","[5ea0682ffb23fa944667f3e6261e5f01f1a11004, 1900bb5682d594bbbc8cf22ec407e0035400e0d8]","1","1","26","0","[app/controllers/admin_controller.rb, app/controllers/advanced_search_controller.rb, app/controllers/api/child_media_controller.rb, app/controllers/api/children_controller.rb, app/controllers/api/enquiries_controller.rb, app/controllers/api/sessions_controller.rb, app/controllers/child_histories_controller.rb, app/controllers/child_ids_controller.rb, app/controllers/child_media_controller.rb, app/controllers/children_controller.rb, app/controllers/devices_controller.rb, app/controllers/duplicates_controller.rb, app/controllers/enquiries_controller.rb, app/controllers/fields_controller.rb, app/controllers/form_section_controller.rb, app/controllers/forms_controller.rb, app/controllers/highlight_fields_controller.rb, app/controllers/replications_controller.rb, app/controllers/reports_controller.rb, app/controllers/roles_controller.rb, app/controllers/sessions_controller.rb, app/controllers/standard_forms_controller.rb, app/controllers/system_logs_controller.rb, app/controllers/system_users_controller.rb, app/controllers/user_histories_controller.rb, app/controllers/users_controller.rb]","[]","0.0","0.0","4.0.8","2","[]","0","104","[app/controllers/admin_controller.rb, app/controllers/advanced_search_controller.rb, app/controllers/api/child_media_controller.rb, app/controllers/api/children_controller.rb, app/controllers/api/enquiries_controller.rb, app/controllers/api/sessions_controller.rb, app/controllers/child_histories_controller.rb, app/controllers/child_ids_controller.rb, app/controllers/child_media_controller.rb, app/controllers/children_controller.rb, app/controllers/devices_controller.rb, app/controllers/duplicates_controller.rb, app/controllers/enquiries_controller.rb, app/controllers/fields_controller.rb, app/controllers/form_section_controller.rb, app/controllers/forms_controller.rb, app/controllers/highlight_fields_controller.rb, app/controllers/replications_controller.rb, app/controllers/reports_controller.rb, app/controllers/roles_controller.rb, app/controllers/sessions_controller.rb, app/controllers/standard_forms_controller.rb, app/controllers/system_logs_controller.rb, app/controllers/system_users_controller.rb, app/controllers/user_histories_controller.rb, app/controllers/users_controller.rb, app/models/session.rb, app/views/admin/index.html.erb, app/views/advanced_search/index.html.erb, app/views/child_histories/index.html.erb, app/views/child_media/manage_photos.html.erb, app/views/children/_filter_box.html.erb, app/views/children/_header.html.erb, app/views/children/_mark_as.html.erb, app/views/children/_order_by_box.html.erb, app/views/children/_search_results.html.erb, app/views/children/_show_child_toolbar.erb, app/views/children/_summary_row.html.erb, app/views/children/_suspect_flag.html.erb, app/views/children/edit.html.erb, app/views/children/edit_photo.html.erb, app/views/children/index.html.erb, app/views/children/new.html.erb, app/views/children/search.html.erb, app/views/children/show.html.erb, app/views/devices/index.html.erb, app/views/duplicates/new.html.erb, app/views/enquiries/_header.html.erb, app/views/enquiries/_summary_row.html.erb, app/views/enquiries/index.html.erb, app/views/enquiries/new.html.erb, app/views/enquiries/show.html.erb, app/views/form_section/_add_field.html.erb, app/views/form_section/_delete_button.html.erb, app/views/form_section/_direction_button.html.erb, app/views/form_section/_form_section.html.erb, app/views/form_section/edit.html.erb, app/views/form_section/index.html.erb, app/views/form_section/new.html.erb, app/views/forms/index.html.erb, app/views/highlight_fields/index.html.erb, app/views/highlight_fields/show.html.erb, app/views/replications/_form.html.erb, app/views/replications/_index.html.erb, app/views/replications/edit.html.erb, app/views/replications/new.html.erb, app/views/replications/show.html.erb, app/views/reports/index.html.erb, app/views/roles/_editable_role.html.erb, app/views/roles/edit.html.erb, app/views/roles/index.html.erb, app/views/roles/new.html.erb, app/views/roles/show.html.erb, app/views/sessions/new.html.erb, app/views/shared/_add_translations.html.erb, app/views/shared/_fields.html.erb, app/views/shared/_form_fields.html.erb, app/views/shared/_form_section.html.erb, app/views/shared/_form_section_info.html.erb, app/views/shared/_pagination.html.erb, app/views/shared/_show_form_section.html.erb, app/views/shared/_side_tab.html.erb, app/views/shared/_sidebar.html.erb, app/views/shared/_tabs.html.erb, app/views/standard_forms/index.html.erb, app/views/system_logs/index.html.erb, app/views/system_users/_form.html.erb, app/views/system_users/edit.html.erb, app/views/system_users/index.html.erb, app/views/system_users/new.html.erb, app/views/user_histories/_no_activities.html.erb, app/views/user_histories/index.html.erb, app/views/users/_editable_user.html.erb, app/views/users/_mobile_login_history.html.erb, app/views/users/_user.html.erb, app/views/users/_user_disabled_checkbox.html.erb, app/views/users/_users_header.html.erb, app/views/users/_users_table.html.erb, app/views/users/change_password.html.erb, app/views/users/edit.html.erb, app/views/users/index.html.erb, app/views/users/new.html.erb, app/views/users/show.html.erb, app/views/users/unverified.html.erb]","[each, flatten!, reverse_merge!, fail, find, class, routes, url_helpers, send, proc, nil?, key, btn_submit, old_password, new_password, new_password_confirmation, click_button, page, have_content, has_content?, have_no_content, has_no_content?, current_url, path, eq, assert_equal, within, reverse_merge!, fail, find, class, routes, url_helpers, send, proc, nil?, key, btn_submit, old_password, new_password, new_password_confirmation, find_field, click, click_link]","","[]","[app/views/shared/_field_display_.html.erb, form_sections, new_assign_unique_id_to_a_child, new_create_custom_field, remote_app]","5","23.995 seconds","true","26","0","[app/controllers/admin_controller.rb, app/controllers/advanced_search_controller.rb, app/controllers/api/child_media_controller.rb, app/controllers/api/children_controller.rb, app/controllers/api/enquiries_controller.rb, app/controllers/api/sessions_controller.rb, app/controllers/child_histories_controller.rb, app/controllers/child_ids_controller.rb, app/controllers/child_media_controller.rb, app/controllers/children_controller.rb, app/controllers/devices_controller.rb, app/controllers/duplicates_controller.rb, app/controllers/enquiries_controller.rb, app/controllers/fields_controller.rb, app/controllers/form_section_controller.rb, app/controllers/forms_controller.rb, app/controllers/highlight_fields_controller.rb, app/controllers/replications_controller.rb, app/controllers/reports_controller.rb, app/controllers/roles_controller.rb, app/controllers/sessions_controller.rb, app/controllers/standard_forms_controller.rb, app/controllers/system_logs_controller.rb, app/controllers/system_users_controller.rb, app/controllers/user_histories_controller.rb, app/controllers/users_controller.rb]","[]","0","[]","0"
"974","[16-04-2012]","1","1","[29b59732f6bdaa3b9cc4960a39f131153d65c565]","1","0","4","3","[app/controllers/child_media_controller.rb, app/controllers/children_controller.rb, app/controllers/form_section_controller.rb, app/controllers/histories_controller.rb]","[app/controllers/advanced_search_controller.rb, app/controllers/application_controller.rb, app/controllers/children_controller.rb]","0.25","0.3333333333","2.3.11","1","[]","0","43","[app/controllers/child_media_controller.rb, app/controllers/children_controller.rb, app/controllers/histories_controller.rb, app/views/child_media/manage_photos.html.erb, app/views/children/_audio_player.html.erb, app/views/children/_audio_upload_box.html.erb, app/views/children/_check_boxes.html.erb, app/views/children/_date_field.html.erb, app/views/children/_field_display_audio.html.erb, app/views/children/_field_display_basic.html.erb, app/views/children/_field_display_photo.html.erb, app/views/children/_filter_box.html.erb, app/views/children/_form_section.html.erb, app/views/children/_form_section_info.html.erb, app/views/children/_mark_as.html.erb, app/views/children/_numeric_field.html.erb, app/views/children/_order_by_box.html.erb, app/views/children/_photo_upload_box.html.erb, app/views/children/_picture.html.erb, app/views/children/_radio_button.html.erb, app/views/children/_repeatable_text_field.html.erb, app/views/children/_search_results.html.erb, app/views/children/_select_box.html.erb, app/views/children/_show_child_toolbar.erb, app/views/children/_show_form_section.html.erb, app/views/children/_summary_row.html.erb, app/views/children/_tabs.html.erb, app/views/children/_text_field.html.erb, app/views/children/_textarea.html.erb, app/views/children/edit.html.erb, app/views/children/edit_photo.html.erb, app/views/children/index.html.erb, app/views/children/new.html.erb, app/views/children/search.html.erb, app/views/children/show.html.erb, app/views/children/suspect_records.html.erb, app/views/histories/_audio_history_change.html.erb, app/views/histories/_flag_change.erb, app/views/histories/_history_change.html.erb, app/views/histories/_investigated_change.html.erb, app/views/histories/_photo_history_change.html.erb, app/views/histories/_reunited_change.erb, app/views/histories/show.html.erb]","[raise, save!, response_body, length, rows, count, has_key?, lambda, be_true, each, class, to_i, rows_hash, rows_hash]","","[]","[app/views/children/_field_display_.html.erb]","1","15.101 seconds","false","3","2","[app/controllers/child_media_controller.rb, app/controllers/form_section_controller.rb, app/controllers/histories_controller.rb]","[app/controllers/advanced_search_controller.rb, app/controllers/application_controller.rb]","1","[app/controllers/children_controller.rb]","0.3124999999765625"
"990","[19-02-2012]","1","1","[1798e6c535de8a23cd47a890baca27c84ff21bb9]","1","0","8","0","[app/controllers/admin_controller.rb, app/controllers/application_controller.rb, app/controllers/child_media_controller.rb, app/controllers/children_controller.rb, app/controllers/form_section_controller.rb, app/controllers/highlight_fields_controller.rb, app/controllers/histories_controller.rb, app/controllers/users_controller.rb]","[]","0.0","0.0","2.3.11","2","[]","0","61","[app/controllers/admin_controller.rb, app/controllers/child_media_controller.rb, app/controllers/children_controller.rb, app/controllers/form_section_controller.rb, app/controllers/highlight_fields_controller.rb, app/controllers/histories_controller.rb, app/controllers/users_controller.rb, app/views/admin/index.html.erb, app/views/child_media/manage_photos.html.erb, app/views/children/_audio_player.html.erb, app/views/children/_audio_upload_box.html.erb, app/views/children/_check_boxes.html.erb, app/views/children/_date_field.html.erb, app/views/children/_field_display_audio.html.erb, app/views/children/_field_display_basic.html.erb, app/views/children/_field_display_photo.html.erb, app/views/children/_filter_box.html.erb, app/views/children/_form_section.html.erb, app/views/children/_form_section_info.html.erb, app/views/children/_mark_as.html.erb, app/views/children/_numeric_field.html.erb, app/views/children/_order_by_box.html.erb, app/views/children/_photo_upload_box.html.erb, app/views/children/_picture.html.erb, app/views/children/_radio_button.html.erb, app/views/children/_repeatable_text_field.html.erb, app/views/children/_search_results.html.erb, app/views/children/_select_box.html.erb, app/views/children/_show_child_toolbar.erb, app/views/children/_show_form_section.html.erb, app/views/children/_summary_row.html.erb, app/views/children/_tabs.html.erb, app/views/children/_text_field.html.erb, app/views/children/_textarea.html.erb, app/views/children/edit.html.erb, app/views/children/edit_photo.html.erb, app/views/children/index.html.erb, app/views/children/new.html.erb, app/views/children/search.html.erb, app/views/children/show.html.erb, app/views/children/suspect_records.html.erb, app/views/form_section/index.html.erb, app/views/highlight_fields/index.html.erb, app/views/histories/_audio_history_change.html.erb, app/views/histories/_flag_change.erb, app/views/histories/_history_change.html.erb, app/views/histories/_investigated_change.html.erb, app/views/histories/_photo_history_change.html.erb, app/views/histories/_reunited_change.erb, app/views/histories/show.html.erb, app/views/shared/_form_fields.html.erb, app/views/users/_devices.html.erb, app/views/users/_edittable_user.html.erb, app/views/users/_mobile_login_history.html.erb, app/views/users/_user.html.erb, app/views/users/_user_disabled_checkbox.html.erb, app/views/users/_users_header.html.erb, app/views/users/_users_table.html.erb, app/views/users/edit.html.erb, app/views/users/index.html.erb, app/views/users/new.html.erb]","[click_button, click_button, click_link, click_link, fill_in, fill_in, choose, response, contain, assert_contain, assert_not_contain, url_for, user, unique_id, fields]","","[]","[app/views/children/_field_display_.html.erb]","1","19.254 seconds","false","8","0","[app/controllers/admin_controller.rb, app/controllers/application_controller.rb, app/controllers/child_media_controller.rb, app/controllers/children_controller.rb, app/controllers/form_section_controller.rb, app/controllers/highlight_fields_controller.rb, app/controllers/histories_controller.rb, app/controllers/users_controller.rb]","[]","0","[]","0"
"1009","[12-11-2011]","1","2","[83d36d93a9849ed247219e4a0f80b012a293062e, 8ff9729bbb1afcb2aace7b0db305fedc08a9ac55]","1","0","0","0","[]","[]","0.0","0.0","2.3.11","2","[]","0","0","[]","[stub!, and_return, stub!, and_return, hashes, reverse_merge!, delete, uploadable_photo, create!, each, click_button, click_link, fill_in, attach_file, response, contain, assert_contain]","","[]","","0","25.394 seconds","false","0","0","[]","[]","0","[]","0"
"1010","[12-10-2011]","1","1","[abd81abf4590076448fa96d65aba4f899bd7f117]","1","0","8","0","[app/controllers/admin_controller.rb, app/controllers/application_controller.rb, app/controllers/child_media_controller.rb, app/controllers/children_controller.rb, app/controllers/form_section_controller.rb, app/controllers/highlight_fields_controller.rb, app/controllers/histories_controller.rb, app/controllers/users_controller.rb]","[]","0.0","0.0","2.3.11","2","[]","0","52","[app/controllers/admin_controller.rb, app/controllers/child_media_controller.rb, app/controllers/children_controller.rb, app/controllers/form_section_controller.rb, app/controllers/highlight_fields_controller.rb, app/controllers/histories_controller.rb, app/controllers/users_controller.rb, app/views/admin/index.html.erb, app/views/children/_audio_player.html.erb, app/views/children/_audio_upload_box.html.erb, app/views/children/_check_boxes.html.erb, app/views/children/_date_field.html.erb, app/views/children/_field_display_audio.html.erb, app/views/children/_field_display_basic.html.erb, app/views/children/_field_display_photo.html.erb, app/views/children/_form_section.html.erb, app/views/children/_form_section_info.html.erb, app/views/children/_mark_as.html.erb, app/views/children/_numeric_field.html.erb, app/views/children/_photo_upload_box.html.erb, app/views/children/_picture.html.erb, app/views/children/_radio_button.html.erb, app/views/children/_repeatable_text_field.html.erb, app/views/children/_search_results.html.erb, app/views/children/_select_box.html.erb, app/views/children/_show_child_toolbar.erb, app/views/children/_show_form_section.html.erb, app/views/children/_summary_row.html.erb, app/views/children/_tabs.html.erb, app/views/children/_text_field.html.erb, app/views/children/_textarea.html.erb, app/views/children/edit.html.erb, app/views/children/edit_photo.html.erb, app/views/children/index.html.erb, app/views/children/new.html.erb, app/views/children/search.html.erb, app/views/children/show.html.erb, app/views/form_section/index.html.erb, app/views/highlight_fields/index.html.erb, app/views/histories/_audio_history_change.html.erb, app/views/histories/_flag_change.erb, app/views/histories/_history_change.html.erb, app/views/histories/_photo_history_change.html.erb, app/views/histories/_reunited_change.erb, app/views/histories/show.html.erb, app/views/shared/_form_fields.html.erb, app/views/users/_devices.html.erb, app/views/users/_edittable_user.html.erb, app/views/users/_mobile_login_history.html.erb, app/views/users/edit.html.erb, app/views/users/index.html.erb, app/views/users/new.html.erb]","[click_button, click_button, click_link, click_link, fill_in, fill_in, choose, response, contain, assert_contain, url_for, unique_id, fields]","","[]","[app/views/children/_field_display_.html.erb]","1","15.268 seconds","false","8","0","[app/controllers/admin_controller.rb, app/controllers/application_controller.rb, app/controllers/child_media_controller.rb, app/controllers/children_controller.rb, app/controllers/form_section_controller.rb, app/controllers/highlight_fields_controller.rb, app/controllers/histories_controller.rb, app/controllers/users_controller.rb]","[]","0","[]","0"
"1015","[16-11-2011]","1","1","[be657cbf39483a39de5965741a1be87986e9d273]","1","1","4","1","[app/controllers/child_media_controller.rb, app/controllers/children_controller.rb, app/controllers/form_section_controller.rb, app/controllers/histories_controller.rb]","[app/controllers/children_controller.rb]","0.25","1.0","2.3.11","7","[{path=rapidftr_RapidFTR/features/step_definitions/basic_steps.rb, line=444}, {path=rapidftr_RapidFTR/features/step_definitions/basic_steps.rb, line=456}, {path=rapidftr_RapidFTR/features/step_definitions/basic_steps.rb, line=469}]","0","40","[app/controllers/child_media_controller.rb, app/controllers/children_controller.rb, app/controllers/histories_controller.rb, app/views/child_media/manage_photos.html.erb, app/views/children/_audio_player.html.erb, app/views/children/_audio_upload_box.html.erb, app/views/children/_check_boxes.html.erb, app/views/children/_date_field.html.erb, app/views/children/_field_display_audio.html.erb, app/views/children/_field_display_basic.html.erb, app/views/children/_field_display_photo.html.erb, app/views/children/_form_section.html.erb, app/views/children/_form_section_info.html.erb, app/views/children/_mark_as.html.erb, app/views/children/_numeric_field.html.erb, app/views/children/_photo_upload_box.html.erb, app/views/children/_picture.html.erb, app/views/children/_radio_button.html.erb, app/views/children/_repeatable_text_field.html.erb, app/views/children/_search_results.html.erb, app/views/children/_select_box.html.erb, app/views/children/_show_child_toolbar.erb, app/views/children/_show_form_section.html.erb, app/views/children/_summary_row.html.erb, app/views/children/_tabs.html.erb, app/views/children/_text_field.html.erb, app/views/children/_textarea.html.erb, app/views/children/edit.html.erb, app/views/children/edit_photo.html.erb, app/views/children/index.html.erb, app/views/children/new.html.erb, app/views/children/search.html.erb, app/views/children/show.html.erb, app/views/children/suspect_records.html.erb, app/views/histories/_audio_history_change.html.erb, app/views/histories/_flag_change.erb, app/views/histories/_history_change.html.erb, app/views/histories/_photo_history_change.html.erb, app/views/histories/_reunited_change.erb, app/views/histories/show.html.erb]","[hashes, reverse_merge!, delete, uploadable_photo, create!, each, fill_in, click_button, response, contain, raw, flatten, body, Hpricot, inner_text, find_child_by_name, click_link]","","[]","[app/views/children/_field_display_.html.erb, edit, view]","3","11.845 seconds","false","3","0","[app/controllers/child_media_controller.rb, app/controllers/form_section_controller.rb, app/controllers/histories_controller.rb]","[]","1","[app/controllers/children_controller.rb]","0.625"
"1019","[25-10-2011, 26-10-2011]","1","2","[067d3fded9927f371e81b0f50379b2b348501ff5, 106e711ff1ae3191cec713ccdb87872de83e2ee0]","1","0","4","0","[app/controllers/child_media_controller.rb, app/controllers/children_controller.rb, app/controllers/form_section_controller.rb, app/controllers/histories_controller.rb]","[]","0.0","0.0","2.3.11","1","[]","0","39","[app/controllers/child_media_controller.rb, app/controllers/children_controller.rb, app/controllers/histories_controller.rb, app/views/child_media/manage_photos.html.erb, app/views/children/_audio_player.html.erb, app/views/children/_audio_upload_box.html.erb, app/views/children/_check_boxes.html.erb, app/views/children/_date_field.html.erb, app/views/children/_field_display_audio.html.erb, app/views/children/_field_display_basic.html.erb, app/views/children/_field_display_photo.html.erb, app/views/children/_form_section.html.erb, app/views/children/_form_section_info.html.erb, app/views/children/_mark_as.html.erb, app/views/children/_numeric_field.html.erb, app/views/children/_photo_upload_box.html.erb, app/views/children/_picture.html.erb, app/views/children/_radio_button.html.erb, app/views/children/_repeatable_text_field.html.erb, app/views/children/_search_results.html.erb, app/views/children/_select_box.html.erb, app/views/children/_show_child_toolbar.erb, app/views/children/_show_form_section.html.erb, app/views/children/_summary_row.html.erb, app/views/children/_tabs.html.erb, app/views/children/_text_field.html.erb, app/views/children/_textarea.html.erb, app/views/children/edit.html.erb, app/views/children/edit_photo.html.erb, app/views/children/index.html.erb, app/views/children/new.html.erb, app/views/children/search.html.erb, app/views/children/show.html.erb, app/views/histories/_audio_history_change.html.erb, app/views/histories/_flag_change.erb, app/views/histories/_history_change.html.erb, app/views/histories/_photo_history_change.html.erb, app/views/histories/_reunited_change.erb, app/views/histories/show.html.erb]","[click_button, click_link, click_link, fill_in, select, response, contain, assert_contain]","","[]","[app/views/children/_field_display_.html.erb]","1","15.911 seconds","false","4","0","[app/controllers/child_media_controller.rb, app/controllers/children_controller.rb, app/controllers/form_section_controller.rb, app/controllers/histories_controller.rb]","[]","0","[]","0"
"1030","[10-10-2011]","2","3","[e02c904a0c99f83e12c69b095311cf5caa09198d, 180db01e17e4b63486193736df0b69fdf9dce4e1, 782ee35096fb88f329780caf10ff1b11f71cdd7b]","1","0","0","3","[]","[app/controllers/advanced_search_controller.rb, app/controllers/application_controller.rb, app/controllers/children_controller.rb]","0.0","0.0","2.3.11","1","[]","0","0","[]","[stub!, and_return, hashes, reverse_merge!, delete, uploadable_photo, create!, each, click_button, click_link, fill_in, response, contain, assert_contain]","","[]","","0","0.735 seconds","false","0","3","[]","[app/controllers/advanced_search_controller.rb, app/controllers/application_controller.rb, app/controllers/children_controller.rb]","0","[]","0"
"1036","[13-09-2011]","4","8","[9f10f8443901bbc0d2873a7717964666e40880e8, a11bf1cfaefa2f3681578dde67796d6893251091, c21ccef5eb8223109f45771205f93709e8397601, 4258614955c97dae23a59d80cc7b8527f6bd2711, 8c712512cca0c3d3ce80cce621f311ac99d4343d, 0dc548a55d816cdb1a430b9d85ab12a85ce11964, fdb4bfa3b5c6251fd7578b830c79db832f5ea7d6, 0f6e5f3abced30e222cb92d6af273b00e701e3d1]","1","0","0","0","[]","[]","0.0","0.0","2.3.11","1","[]","0","0","[]","[current_dom, xpath, be_nil, current_dom, xpath, stub!, and_return, hashes, reverse_merge!, delete, uploadable_photo, create!, each, click_button, click_link, response, contain, assert_contain, uploadable_photo, represent_inline_attachment, attach_file]","","[]","","0","1.076 seconds","false","0","0","[]","[]","0","[]","0"
"1041","[14-08-2011, 07-09-2011]","1","3","[2823a922941aa7a69c6047f00c5eb88b81bfba7c, 275410fc069cb0316c306b2e19d9459c5cde2efa, 30e15504d590f8a4846b20e31915c6d117953666]","1","0","0","0","[]","[]","0.0","0.0","2.3.11","1","[]","0","0","[]","[current_dom, xpath, be_nil, current_dom, xpath, stub!, and_return, hashes, reverse_merge!, delete, uploadable_photo, create!, each, click_button, click_link, response, contain, assert_contain, uploadable_photo, represent_inline_attachment, attach_file]","","[]","","0","8.931 seconds","false","0","0","[]","[]","0","[]","0"
"1046","[01-09-2011]","1","2","[f4441ee913f3bcaf7d45db263c0cc7090596cde5, 9e4d4093ea28a6f613f2bdeabd240b7d805e19c6]","1","0","4","0","[app/controllers/children_controller.rb, app/controllers/fields_controller.rb, app/controllers/sessions_controller.rb, app/controllers/users_controller.rb]","[]","0.0","0.0","2.3.11","2","[]","0","8","[app/controllers/fields_controller.rb, app/views/fields/_basic_form.html.erb, app/views/fields/_common.html.erb, app/views/fields/_multiple_choice_form.html.erb, app/views/fields/_suggested_field.html.erb, app/views/fields/choose.html.erb, app/views/fields/edit.html.erb, app/views/fields/new.html.erb]","[click_link, each, hashes, gsub, reverse_merge!, to_i]","","[]","","0","12.005 seconds","false","4","0","[app/controllers/children_controller.rb, app/controllers/fields_controller.rb, app/controllers/sessions_controller.rb, app/controllers/users_controller.rb]","[]","0","[]","0"
"1051","[05-09-2011]","1","1","[481199eac1915a6056cffa430659f5d5769db2d9]","1","0","4","0","[app/controllers/child_media_controller.rb, app/controllers/children_controller.rb, app/controllers/form_section_controller.rb, app/controllers/histories_controller.rb]","[]","0.0","0.0","2.3.11","1","[]","0","38","[app/controllers/child_media_controller.rb, app/controllers/children_controller.rb, app/controllers/histories_controller.rb, app/views/children/_audio_player.html.erb, app/views/children/_audio_upload_box.html.erb, app/views/children/_check_boxes.html.erb, app/views/children/_date_field.html.erb, app/views/children/_field_display_audio.html.erb, app/views/children/_field_display_basic.html.erb, app/views/children/_field_display_photo.html.erb, app/views/children/_form_section.html.erb, app/views/children/_form_section_info.html.erb, app/views/children/_mark_as.html.erb, app/views/children/_numeric_field.html.erb, app/views/children/_photo_upload_box.html.erb, app/views/children/_picture.html.erb, app/views/children/_radio_button.html.erb, app/views/children/_repeatable_text_field.html.erb, app/views/children/_search_results.html.erb, app/views/children/_select_box.html.erb, app/views/children/_show_child_toolbar.erb, app/views/children/_show_form_section.html.erb, app/views/children/_summary_row.html.erb, app/views/children/_tabs.html.erb, app/views/children/_text_field.html.erb, app/views/children/_textarea.html.erb, app/views/children/edit.html.erb, app/views/children/edit_photo.html.erb, app/views/children/index.html.erb, app/views/children/new.html.erb, app/views/children/search.html.erb, app/views/children/show.html.erb, app/views/histories/_audio_history_change.html.erb, app/views/histories/_flag_change.erb, app/views/histories/_history_change.html.erb, app/views/histories/_photo_history_change.html.erb, app/views/histories/_reunited_change.erb, app/views/histories/show.html.erb]","[click_button, click_link, click_link, fill_in, response, contain, assert_contain]","","[]","[app/views/children/_field_display_.html.erb]","1","2.198 seconds","false","4","0","[app/controllers/child_media_controller.rb, app/controllers/children_controller.rb, app/controllers/form_section_controller.rb, app/controllers/histories_controller.rb]","[]","0","[]","0"
"1057","[25-08-2011]","1","8","[77260aab257a54aabc4bdc394475a88fb0ab2e9a, c3dd3e19950bbfe848359c97db89146bacb3e552, 8526921156583eaeca3738351ff17f0cb20e52af, aebbab1c36da5d604af836a9c4786e6ebc699b78, bd963c20932786d7e226811d973a55ed5a694391, 95c7df3af92a36b0adecec340a7b98ac6ffc2711, 4a929e57656dd9236fa3bca8bd0d4dffceefda01, b5a1b7914018bce4620fcddf14c3a924f0011e8f]","1","0","8","1","[app/controllers/admin_controller.rb, app/controllers/application_controller.rb, app/controllers/child_media_controller.rb, app/controllers/children_controller.rb, app/controllers/form_section_controller.rb, app/controllers/highlight_fields_controller.rb, app/controllers/histories_controller.rb, app/controllers/users_controller.rb]","[app/controllers/children_controller.rb]","0.125","1.0","2.3.11","1","[]","0","52","[app/controllers/admin_controller.rb, app/controllers/child_media_controller.rb, app/controllers/children_controller.rb, app/controllers/form_section_controller.rb, app/controllers/highlight_fields_controller.rb, app/controllers/histories_controller.rb, app/controllers/users_controller.rb, app/views/admin/index.html.erb, app/views/children/_audio_player.html.erb, app/views/children/_audio_upload_box.html.erb, app/views/children/_check_boxes.html.erb, app/views/children/_date_field.html.erb, app/views/children/_field_display_audio.html.erb, app/views/children/_field_display_basic.html.erb, app/views/children/_field_display_photo.html.erb, app/views/children/_form_section.html.erb, app/views/children/_form_section_info.html.erb, app/views/children/_mark_as.html.erb, app/views/children/_numeric_field.html.erb, app/views/children/_photo_upload_box.html.erb, app/views/children/_picture.html.erb, app/views/children/_radio_button.html.erb, app/views/children/_repeatable_text_field.html.erb, app/views/children/_search_results.html.erb, app/views/children/_select_box.html.erb, app/views/children/_show_child_toolbar.erb, app/views/children/_show_form_section.html.erb, app/views/children/_summary_row.html.erb, app/views/children/_tabs.html.erb, app/views/children/_text_field.html.erb, app/views/children/_textarea.html.erb, app/views/children/edit.html.erb, app/views/children/edit_photo.html.erb, app/views/children/index.html.erb, app/views/children/new.html.erb, app/views/children/search.html.erb, app/views/children/show.html.erb, app/views/form_section/index.html.erb, app/views/highlight_fields/index.html.erb, app/views/histories/_audio_history_change.html.erb, app/views/histories/_flag_change.erb, app/views/histories/_history_change.html.erb, app/views/histories/_photo_history_change.html.erb, app/views/histories/_reunited_change.erb, app/views/histories/show.html.erb, app/views/shared/_form_fields.html.erb, app/views/users/_devices.html.erb, app/views/users/_edittable_user.html.erb, app/views/users/_mobile_login_history.html.erb, app/views/users/edit.html.erb, app/views/users/index.html.erb, app/views/users/new.html.erb]","[click_link, url_for, unique_id, fields, response_body, write, close, path]","","[lib/pdf_generator.rb]","[app/views/children/_field_display_.html.erb]","1","1.668 seconds","false","7","0","[app/controllers/admin_controller.rb, app/controllers/application_controller.rb, app/controllers/child_media_controller.rb, app/controllers/form_section_controller.rb, app/controllers/highlight_fields_controller.rb, app/controllers/histories_controller.rb, app/controllers/users_controller.rb]","[]","1","[app/controllers/children_controller.rb]","0.41666666666666663"
