"Repository","https://github.com/indentlabs/notebook.git"
"Tasks with empty IReal","0"
"Tasks with no-empty IReal","3"
"Tasks with relevant AST error","1"
"Tasks with AST error of Gherkin files","0"
"Tasks with AST error of StepDef files","0"
"Tasks with AST error of production files","1"
"Tasks with AST error of unit test files","0"
"Tasks with step match error","3"
"Tasks without required gems","0"
"Tasks with changed stepdef","2"
"Tasks with changed Gherkin","3"
"Tasks with implemented Gherkin scenarios","1"
"All invalid tasks","3"
"All valid tasks (Gherkin scenario, no empty IReal, no error)","0"
"Valid tasks, but empty ITest","0"
"Valid tasks, no empty ITest, but zero precision-recall","0"
"Valid tasks, no empty ITest, no zero precision-recall","0"
"Project","Task","Date","#Days","#Commits","Commit_Message","#Devs","#Gherkin_Tests","#Impl_Gherkin_Tests","#StepDef","#Impl_StepDef","Methods_Unknown_Type","#Step_Call","Step_Match_Errors","#Step_Match_Error","AST_Errors","#AST_Errors","Gherkin_AST_Errors","#Gherkin_AST_Errors","Steps_AST_Errors","#Steps_AST_Errors","Renamed_Files","Deleted_Files","NotFound_Views","#Views","#TestI","#TaskI","TestI","TaskI","Precision","Recall","Hashes","Timestamp","Rails","Gems","#Visit_Call","Lost_visit_call","#Views_ITest","#Code_View_Analysis","Code_View_Analysis","Has_Merge","F2","#Multiple_Step_Matches","Multiple_Step_Matches","#Generic_Step_Keyword","Generic_Step_Keyword"
"notebook","166","[29-09-2017, 30-09-2017]","2","6","[Merge pull request #232 from indentlabs/fix-tests  Fix tests, Fix serendipitious test on content pages , Fix content editing/saving tests , Only use mixpanel in production , Remove unnecessary dependencies for app.json/staging , Update app.json that heroku added to repo without confirmation? ]","1","1","0","2","2","[click_on, fill_in, reload]","0","[path:features/serendipitous_cards.feature, size:1]","1","[[path:app/controllers/export_controller.rb, msgs:[unexpected ':']], [path:app/models/concerns/has_content_linking.rb, msgs:[unexpected ':']]]","2","","0","","0","","[]","[dashboard, polymorphic]","2","0","6","[]","[app/controllers/content_controller.rb, app/controllers/export_controller.rb, app/controllers/image_upload_controller.rb, app/controllers/subscriptions_controller.rb, app/controllers/users_controller.rb, app/views/content/display/_floating_action_buttons.html.erb]","0.0","0.0","[52563da51ea84ce5fb190b9d8478bc4a2741a2da, c3ea552ed82a6816c35a50aa2e5e88142e657ec4, e021acc60c708c660b47690de68634670e37c8ff, 7d9539388fe12d9f99647f65eb3acb19b4c7002d, ff62dd7f8437502d9aebe28f410a2b380958b9d1, 16828ed1fc5fb2786028a9fb6c79e7d7b5e00bba]","1.570 seconds","4.2.7.1","[cucumber-rails, rspec-rails, simplecov, coveralls, factory_girl]","2","[]","0","0","[]","true","0.0","0","","0",""
"notebook","238","[01-10-2016, 02-10-2016, 03-10-2016]","3","20","[Merge pull request #62 from indentlabs/feature/migrate-tests  Migrate tests to rspec and cucumber, Alphabetize gems , Clean up gemfile groups and unused gems , Make serendipitous card more robust , Use rspec-prof , Update to ruby 2.3.1 , Resolve some unitialized variable warnings , Resolve Devise deprecation warning , Ruby and bundle update , Resolve warning message , Add basic performance test , Make rubocop changes , Add coverage report , Delete unused files , Write feature for serendipitous , Write accounts feature , Delete integration tests that are not needed , Add universes to content feature tests , Abstract feature tests to cover all content types , Write character feature ]","2","6","2","6","6","[fill_in, titlecase, click_on, where, length, eq, create, reload, name]","0","[path:features/accounts.feature, size:2], [path:features/content.feature, size:1], [path:features/serendipitous_cards.feature, size:1]","4","","0","","0","","0","","[]","[new_polymorphic, polymorphic]","2","1","2","[app/models/user.rb]","[app/controllers/application_controller.rb, app/views/cards/serendipitous/_content_question.html.erb]","0.0","0.0","[d0f33cbbb0bdff6f550cfba2d0b2fdb7b0a7b35c, ab30d6b2e964d66028f0b9a15a8d632cf21b1623, 16eaf40109826f9e577a473b73e269e3c2f0f4d1, 901d76c89092d6b81698c5a737c9431b6b394b02, 47166e1e72e11b0b6d18f36d95e196ddb1c55b65, f4d49a43aec8e642bcbbc01ec478f0780892a845, 922bea78fe9d635a551f677e0aa4b9358b8a45dd, c0cc119cd795a4ecb9f44441ce98d0eb597e6261, db0a6e721b081a46ef44d9c732d1bb3499c79b62, 1ca2444b39cd42ed1945f990e3ce3cd0215ac3c5, 930e30281c710f4c4e4104d3a9d470d85694fb83, 45e452651ab7100d1edfc18d0c915098fede9ce6, 56b744a8586ceebdc6bd203946c71e71c2dbd339, 7fda4f9a0fe661b2afe1b817a57860aef38634c2, 03794942b6f2c3b36cd27a66e4bd99dcc42df570, 8433fbdd8a9da08e5c7bab873879eab8094a54db, 18552566b17b1cd2b885bf97771f09d8aff30270, cd6bc7c64854fb3d7608101f95f73fd60a4db4fe, d1412624aeb28387e5b10d66cbf4d98c38ec3f54, f46efa0c1e22b7e1f089f9137b1e39a10b7e9041]","0.520 seconds","4.2.5","[cucumber-rails, rspec-rails, simplecov, coveralls, factory_girl]","11","[]","0","0","[]","true","0.0","0","","0",""
"notebook","289","[05-07-2016, 06-07-2016, 08-07-2016, 09-07-2016, 11-07-2016]","7","23","[Add a Users feature file , Enable errors raised in callbacks to be propagated  Clears up another deprecation warning. , Add Cucumber , Remove out-of-date alternate gemfile , Remove Ruby version from Gemfile  It's already defined in `.ruby-version` , Delete fixtures  We're using factories now , Migrate all tests to Factory_Girl , Delete browsing test  It spammed up the test feedback and didn't add any value , Fix deprecation warning on unit tests , Fix Character and Location integration tests , Get User-based integration tests running , Remove unused test , Get Locations tests passing , Save the universe , Fixed up Characters Controller tests , Unignore all ignored tests , Move Ruby version into .ruby-version file  Since Travis uses RVM, too, everyone can use this one file. , Add Slack notifications , Add dependency caching to speed up Travis build , Add Ruby version back , De-complicate Travis build , Remove Hakiri badge [ci-skip]  We have to sort out organization permissions first.  [TOO_LONG]","1","2","0","0","0","[]","0","[path:features/users/user_create.feature, size:1]","1","","0","","0","","0","","[]","","0","0","3","[]","[app/controllers/content_controller.rb, app/models/universe.rb, app/views/layouts/_footer.html.erb]","0.0","0.0","[626473f5fc3ecd64c94bb6bd3ec795f259ac8898, 2996248b425313fae665a685080cf0edac6a869d, 95229ab26c76330f6e760c3e0e3c20435f98d222, 88fcf9720776d13a3e50147fe9780e2d969e7890, c9c9516a7c425eb2619029b80f522f0cd8585f21, f8fa8d21b6649b0d9f5b15a8b604722d5db29586, b146deb909df8bde211673a9f2dfd39983a21752, 1689acb7dbf4cc3f5d8b84d7d9d31e6a5ab6b8ec, 89faa430e3179a6632b127ed177f183ed4af4e35, f228fe5069e153907295944f6b12357a93648058, 61278f8c12c7086c1fd4387774dff89477ed2c35, a8392c8bd3cd3a381fddb992e3f0cbaafb3eeb64, 599b72c702af3e07250d1421af461c2a00f17b76, 06e933f04b97a1985c399c180abd803c562eb16e, 8997c51467aaef9ee9c0d62d5b1e673b87b36688, a21dd6c8b95cc5c0fa09d98e5f38598dcea5249e, a268f1728e761c6c85b57589c8cfa5dbeff8000c, 604f74b5c2498357377266883fe23f9cf4add245, 9f2eab255b8d91105adbbace51817954b1edce8e, af264525d44df5eb91a612c0aebef474c45c648a, 1a37dcad94c493e55ea7a47d332e2481ce158812, e4f388350bd1a183f162367ec71a5c250deaa31f, 534c9519e1f588c56d36b71b201034b138fb84ff]","0.102 seconds","","[cucumber-rails, simplecov, coveralls, factory_girl]","0","[]","0","0","[]","false","0.0","0","","0",""
