"Repository","https://github.com/sharetribe/sharetribe.git"
"Precision mean (RT)","0.04764599779047619"
"Precision median (RT)","0.0"
"Precision standard deviation (RT)","0.09870260085068042"
"Recall mean (RT)","0.08475355053809523"
"Recall median (RT)","0.0"
"Recall standard deviation (RT)","0.16027244503908414"
"F2 mean (RT)","0.07059236874805577"
"F2 median (RT)","0.0"
"F2 standard deviation (RT)","0.13588595948653737"
"Correlation #Test-Precision","0.18"
"Correlation #Test-Recall","0.19"
"Task","Dates","#Devs","#Commits","Hashes","#Gherkin_Tests","#Sted_defs","#TestI","#TaskI","TestI","TaskI","Precision","Recall","Rails","#visit_call","Lost_visit_call","#Views_TestI","#Code_View_Analysis","Code_View_Analysis","Methods_Unknown_Type","Renamed_Files","Deleted_Files","NotFound_Views","#NotFound_Views","Timestamp","Has_Merge","#FP","#FN","FP","FN","#Hits","Hits","f2"
"2099","[28-03-2014]","1","2","[84a3f9c69f40998120a18dee1067654ca6f7eb1a, db0f91b17db7ca7d6e08d07048dc3c1ae871cf79]","8","1","25","9","[app/controllers/dashboard_controller.rb, app/controllers/homepage_controller.rb, app/models/category.rb, app/models/community.rb, app/models/community_membership.rb, app/models/contact_request.rb, app/models/email.rb, app/models/listing.rb, app/models/message.rb, app/models/participation.rb, app/models/person.rb, app/models/testimonial.rb, app/models/transaction_type.rb, app/views/dashboard/_contact_request_form.haml, app/views/dashboard/index.haml, app/views/homepage/_custom_filters.haml, app/views/homepage/_filters.haml, app/views/homepage/_grid_item.haml, app/views/homepage/_list_item.haml, app/views/homepage/_map.haml, app/views/homepage/_price_filter.haml, app/views/homepage/_search_bar.haml, app/views/homepage/index.haml, app/views/layouts/_grid_item_listing_image.haml, lib/np_guid/uuidtools.rb]","[app/controllers/listings_controller.rb, app/helpers/listings_helper.rb, app/services/util.rb, app/views/homepage/_list_item.haml, app/views/homepage/_listing_bubble.haml, app/views/layouts/_grid_item_listing_image.haml, app/views/listings/_profile_listing.haml, app/views/listings/form/_price.haml, app/views/listings/show.haml]","0.08","0.2222222222","3.2.17","5","[]","11","13","[app/controllers/dashboard_controller.rb, app/controllers/homepage_controller.rb, app/views/dashboard/_contact_request_form.haml, app/views/dashboard/index.haml, app/views/homepage/_custom_filters.haml, app/views/homepage/_filters.haml, app/views/homepage/_grid_item.haml, app/views/homepage/_list_item.haml, app/views/homepage/_map.haml, app/views/homepage/_price_filter.haml, app/views/homepage/_search_bar.haml, app/views/homepage/index.haml, app/views/layouts/_grid_item_listing_image.haml]","[login_as, login_as, hashes, save!, update_attributes, id, consent, update_attribute, set_default_preferences, save, each, update_all, name, find, community_id, inject, click_button, click_link, page, have_content, has_content?, have_no_content, has_no_content?, within, homepage, participants, id, times, find, click, attach_file, fill_in, page, have_content, has_content?]","","[]","[listing, new_listing]","2","5.700 seconds","true","23","7","[app/controllers/dashboard_controller.rb, app/controllers/homepage_controller.rb, app/models/category.rb, app/models/community.rb, app/models/community_membership.rb, app/models/contact_request.rb, app/models/email.rb, app/models/listing.rb, app/models/message.rb, app/models/participation.rb, app/models/person.rb, app/models/testimonial.rb, app/models/transaction_type.rb, app/views/dashboard/_contact_request_form.haml, app/views/dashboard/index.haml, app/views/homepage/_custom_filters.haml, app/views/homepage/_filters.haml, app/views/homepage/_grid_item.haml, app/views/homepage/_map.haml, app/views/homepage/_price_filter.haml, app/views/homepage/_search_bar.haml, app/views/homepage/index.haml, lib/np_guid/uuidtools.rb]","[app/controllers/listings_controller.rb, app/helpers/listings_helper.rb, app/services/util.rb, app/views/homepage/_listing_bubble.haml, app/views/listings/_profile_listing.haml, app/views/listings/form/_price.haml, app/views/listings/show.haml]","2","[app/views/homepage/_list_item.haml, app/views/layouts/_grid_item_listing_image.haml]","0.16393442621983337"
"2173","[01-03-2014]","1","1","[47ec571bb0750d8906d8a24abefaa82c5a2d5f8f]","7","11","17","9","[app/controllers/dashboard_controller.rb, app/controllers/homepage_controller.rb, app/models/community.rb, app/models/community_membership.rb, app/models/contact_request.rb, app/models/email.rb, app/models/person.rb, app/views/dashboard/_contact_request_form.haml, app/views/dashboard/index.haml, app/views/homepage/_custom_filters.haml, app/views/homepage/_grid_item.haml, app/views/homepage/_list_item.haml, app/views/homepage/_map.haml, app/views/homepage/_search_bar.haml, app/views/homepage/index.haml, app/views/layouts/_grid_item_listing_image.haml, lib/np_guid/uuidtools.rb]","[app/controllers/admin/communities_controller.rb, app/controllers/listings_controller.rb, app/helpers/application_helper.rb, app/models/community_customization.rb, app/models/person.rb, app/views/admin/communities/edit_details.haml, app/views/admin/communities/manage_members.haml, app/views/design/design.haml, app/views/listings/verification_required.haml]","0.0588235294","0.1111111111","3.2.17","7","[{path=sharetribe_sharetribe/features/step_definitions/web_steps.rb, line=-1}]","9","11","[app/controllers/dashboard_controller.rb, app/controllers/homepage_controller.rb, app/views/dashboard/_contact_request_form.haml, app/views/dashboard/index.haml, app/views/homepage/_custom_filters.haml, app/views/homepage/_grid_item.haml, app/views/homepage/_list_item.haml, app/views/homepage/_map.haml, app/views/homepage/_search_bar.haml, app/views/homepage/index.haml, app/views/layouts/_grid_item_listing_image.haml]","[click_link, page, have_content, has_content?, have_no_content, has_no_content?, current_path, within, homepage, find, click, page, driver, execute_script, within_frame, login_as, hashes, save!, update_attributes, id, consent, set_default_preferences, save, each, update_attribute, id, update_attribute, update_all, name, find, all, rows, text, each_with_index, count, pending, pending, within]","","[]","[edit_details_admin_community, manage_members_admin_community, new_listing]","3","2.051 seconds","true","16","8","[app/controllers/dashboard_controller.rb, app/controllers/homepage_controller.rb, app/models/community.rb, app/models/community_membership.rb, app/models/contact_request.rb, app/models/email.rb, app/views/dashboard/_contact_request_form.haml, app/views/dashboard/index.haml, app/views/homepage/_custom_filters.haml, app/views/homepage/_grid_item.haml, app/views/homepage/_list_item.haml, app/views/homepage/_map.haml, app/views/homepage/_search_bar.haml, app/views/homepage/index.haml, app/views/layouts/_grid_item_listing_image.haml, lib/np_guid/uuidtools.rb]","[app/controllers/admin/communities_controller.rb, app/controllers/listings_controller.rb, app/helpers/application_helper.rb, app/models/community_customization.rb, app/views/admin/communities/edit_details.haml, app/views/admin/communities/manage_members.haml, app/views/design/design.haml, app/views/listings/verification_required.haml]","1","[app/models/person.rb]","0.09433962262904949"
"2166","[01-03-2014]","1","1","[dd893ead59bebf508f071e99629a75aa52f55f64]","3","3","16","1","[app/controllers/dashboard_controller.rb, app/controllers/homepage_controller.rb, app/models/community.rb, app/models/community_membership.rb, app/models/contact_request.rb, app/models/email.rb, app/models/person.rb, app/views/dashboard/_contact_request_form.haml, app/views/dashboard/index.haml, app/views/homepage/_custom_filters.haml, app/views/homepage/_grid_item.haml, app/views/homepage/_list_item.haml, app/views/homepage/_map.haml, app/views/homepage/_search_bar.haml, app/views/homepage/index.haml, app/views/layouts/_grid_item_listing_image.haml]","[app/views/feedbacks/new.haml]","0.0","0.0","3.2.17","4","[]","9","11","[app/controllers/dashboard_controller.rb, app/controllers/homepage_controller.rb, app/views/dashboard/_contact_request_form.haml, app/views/dashboard/index.haml, app/views/homepage/_custom_filters.haml, app/views/homepage/_grid_item.haml, app/views/homepage/_list_item.haml, app/views/homepage/_map.haml, app/views/homepage/_search_bar.haml, app/views/homepage/index.haml, app/views/layouts/_grid_item_listing_image.haml]","[homepage, id, update_attribute, login_as, hashes, save!, update_attributes, consent, set_default_preferences, save, each, update_all, name, find, click_button, fill_in, page, have_content, has_content?, within]","","[]","[new_listing, new_user_feedback]","2","2.191 seconds","false","16","1","[app/controllers/dashboard_controller.rb, app/controllers/homepage_controller.rb, app/models/community.rb, app/models/community_membership.rb, app/models/contact_request.rb, app/models/email.rb, app/models/person.rb, app/views/dashboard/_contact_request_form.haml, app/views/dashboard/index.haml, app/views/homepage/_custom_filters.haml, app/views/homepage/_grid_item.haml, app/views/homepage/_list_item.haml, app/views/homepage/_map.haml, app/views/homepage/_search_bar.haml, app/views/homepage/index.haml, app/views/layouts/_grid_item_listing_image.haml]","[app/views/feedbacks/new.haml]","0","[]","0.0"
"2172","[01-03-2014]","1","2","[33427c48dfc5156c8ae3ec032f220ac1e5016109, 52370a262ad192266fc0e89f2b5b6971e5ecf5ed]","3","3","8","2","[app/controllers/dashboard_controller.rb, app/models/community.rb, app/models/community_membership.rb, app/models/contact_request.rb, app/models/email.rb, app/models/person.rb, app/views/dashboard/_contact_request_form.haml, app/views/dashboard/index.haml]","[app/controllers/admin/communities_controller.rb, app/views/admin/communities/manage_members.haml]","0.0","0.0","3.2.17","4","[]","2","3","[app/controllers/dashboard_controller.rb, app/views/dashboard/_contact_request_form.haml, app/views/dashboard/index.haml]","[pending, pending, login_as, hashes, save!, update_attributes, id, consent, set_default_preferences, save, each, update_all, name, find]","","[]","","0","0.968 seconds","false","8","2","[app/controllers/dashboard_controller.rb, app/models/community.rb, app/models/community_membership.rb, app/models/contact_request.rb, app/models/email.rb, app/models/person.rb, app/views/dashboard/_contact_request_form.haml, app/views/dashboard/index.haml]","[app/controllers/admin/communities_controller.rb, app/views/admin/communities/manage_members.haml]","0","[]","0.0"
"2192","[28-02-2014]","1","2","[2b75483a80b957327f465b5ab1c7865ca8d38464, 141acaaa4e0ba25d847d9efb9c811c4fec267007]","3","2","15","4","[app/controllers/dashboard_controller.rb, app/controllers/homepage_controller.rb, app/models/community.rb, app/models/community_membership.rb, app/models/contact_request.rb, app/models/person.rb, app/views/dashboard/_contact_request_form.haml, app/views/dashboard/index.haml, app/views/homepage/_custom_filters.haml, app/views/homepage/_grid_item.haml, app/views/homepage/_list_item.haml, app/views/homepage/_map.haml, app/views/homepage/_search_bar.haml, app/views/homepage/index.haml, app/views/layouts/_grid_item_listing_image.haml]","[app/controllers/listings_controller.rb, app/models/community_customization.rb, app/views/admin/communities/edit_details.haml, app/views/listings/verification_required.haml]","0.0","0.0","3.2.13","4","[{path=sharetribe_sharetribe/features/step_definitions/web_steps.rb, line=-1}]","9","11","[app/controllers/dashboard_controller.rb, app/controllers/homepage_controller.rb, app/views/dashboard/_contact_request_form.haml, app/views/dashboard/index.haml, app/views/homepage/_custom_filters.haml, app/views/homepage/_grid_item.haml, app/views/homepage/_list_item.haml, app/views/homepage/_map.haml, app/views/homepage/_search_bar.haml, app/views/homepage/index.haml, app/views/layouts/_grid_item_listing_image.haml]","[click_link, page, have_content, has_content?, have_no_content, has_no_content?, current_path, within, homepage, find, click, page, driver, execute_script, within_frame, login_as, id, update_attribute, id, update_attribute]","","[]","[edit_details_admin_community, new_listing]","2","1.359 seconds","false","15","4","[app/controllers/dashboard_controller.rb, app/controllers/homepage_controller.rb, app/models/community.rb, app/models/community_membership.rb, app/models/contact_request.rb, app/models/person.rb, app/views/dashboard/_contact_request_form.haml, app/views/dashboard/index.haml, app/views/homepage/_custom_filters.haml, app/views/homepage/_grid_item.haml, app/views/homepage/_list_item.haml, app/views/homepage/_map.haml, app/views/homepage/_search_bar.haml, app/views/homepage/index.haml, app/views/layouts/_grid_item_listing_image.haml]","[app/controllers/listings_controller.rb, app/models/community_customization.rb, app/views/admin/communities/edit_details.haml, app/views/listings/verification_required.haml]","0","[]","0.0"
"2104","[17-03-2014, 18-03-2014, 28-03-2014]","1","10","[398ee9f6541eb4d9f0024284253dc15b6f455ee6, e68eacdb5ee2999141d33b504983b32ef598784d, 0bda8684fc7d76ed9336e1c283538c1cba3da28f, 05abe0209e05df5546a8143f6747b4691f22b775, 0eb718ed09f2654c5b19d8870aebe03a1b646856, 75366e95a268a191daae5021d0882fd3583b7675, 78a4fcdb7a38b32aff9b83b94f3dabfb8ae3c952, 0aa118fdcae36c8716354d2287488f27254fbace, e33316eda9397cbb36a1acff04a120700d981dfa, 47b422f4150fcabeb94efa6f2dfcfc369975e3a5]","2","2","8","3","[app/controllers/dashboard_controller.rb, app/models/community.rb, app/models/community_membership.rb, app/models/contact_request.rb, app/models/email.rb, app/models/person.rb, app/views/dashboard/_contact_request_form.haml, app/views/dashboard/index.haml]","[app/controllers/admin/communities_controller.rb, app/models/community.rb, app/views/admin/communities/integrations.haml]","0.125","0.3333333333","3.2.17","3","[{path=sharetribe_sharetribe/features/step_definitions/web_steps.rb, line=-1}]","2","3","[app/controllers/dashboard_controller.rb, app/views/dashboard/_contact_request_form.haml, app/views/dashboard/index.haml]","[find, find, click, current_path, within, login_as, hashes, save!, update_attributes, id, consent, update_attribute, set_default_preferences, save, each, update_all, name, find, fill_in]","","[]","[integrations_admin_community]","1","1.052 seconds","false","7","2","[app/controllers/dashboard_controller.rb, app/models/community_membership.rb, app/models/contact_request.rb, app/models/email.rb, app/models/person.rb, app/views/dashboard/_contact_request_form.haml, app/views/dashboard/index.haml]","[app/controllers/admin/communities_controller.rb, app/views/admin/communities/integrations.haml]","1","[app/models/community.rb]","0.249999999985"
"2111","[21-03-2014]","1","9","[3762a5dcb0c9b040c65a4b1af73766354381a0b9, 1d17a359c1aefc9a0a37b3e3452ed60f2d729214, 5b24a695420244c10ebee1f0a396c8382a126502, 12c3353ff19b856275c6e9874c5ab2cfdd0185d0, 29d1ce6652baf030d23f8d4d1078961674a8a5c0, 22a3dd5ccb1404efaddc4d882956585884638410, 7c7819264ecbbac8bfd36ae66482e3aca14eec30, e7dbf36f93cfd423d296258ee68854fd353089bf, bea0b6714d8943098e3fa8f57c7d6bea9deca292]","2","2","15","8","[app/controllers/dashboard_controller.rb, app/controllers/homepage_controller.rb, app/models/contact_request.rb, app/models/person.rb, app/views/dashboard/_contact_request_form.haml, app/views/dashboard/index.haml, app/views/homepage/_custom_filters.haml, app/views/homepage/_filters.haml, app/views/homepage/_grid_item.haml, app/views/homepage/_list_item.haml, app/views/homepage/_map.haml, app/views/homepage/_price_filter.haml, app/views/homepage/_search_bar.haml, app/views/homepage/index.haml, app/views/layouts/_grid_item_listing_image.haml]","[app/controllers/application_controller.rb, app/controllers/listing_images_controller.rb, app/controllers/listings_controller.rb, app/models/listing.rb, app/models/listing_image.rb, app/views/listings/edit.haml, app/views/listings/form/_form_content.haml, app/views/listings/form/_images.haml]","0.0","0.0","3.2.17","2","[]","11","13","[app/controllers/dashboard_controller.rb, app/controllers/homepage_controller.rb, app/views/dashboard/_contact_request_form.haml, app/views/dashboard/index.haml, app/views/homepage/_custom_filters.haml, app/views/homepage/_filters.haml, app/views/homepage/_grid_item.haml, app/views/homepage/_list_item.haml, app/views/homepage/_map.haml, app/views/homepage/_price_filter.haml, app/views/homepage/_search_bar.haml, app/views/homepage/index.haml, app/views/layouts/_grid_item_listing_image.haml]","[login_as, click_button, click_link, fill_in, select, page, have_content, has_content?, within, homepage, page, execute_script, have_xpath, attach_file]","","[]","[new_listing]","1","2.001 seconds","false","15","8","[app/controllers/dashboard_controller.rb, app/controllers/homepage_controller.rb, app/models/contact_request.rb, app/models/person.rb, app/views/dashboard/_contact_request_form.haml, app/views/dashboard/index.haml, app/views/homepage/_custom_filters.haml, app/views/homepage/_filters.haml, app/views/homepage/_grid_item.haml, app/views/homepage/_list_item.haml, app/views/homepage/_map.haml, app/views/homepage/_price_filter.haml, app/views/homepage/_search_bar.haml, app/views/homepage/index.haml, app/views/layouts/_grid_item_listing_image.haml]","[app/controllers/application_controller.rb, app/controllers/listing_images_controller.rb, app/controllers/listings_controller.rb, app/models/listing.rb, app/models/listing_image.rb, app/views/listings/edit.haml, app/views/listings/form/_form_content.haml, app/views/listings/form/_images.haml]","0","[]","0.0"
"2139","[06-03-2014, 07-03-2014]","1","7","[de76f144bbbcef97031000997c81d4f10e0cba4c, 6d26e6466b276b9283c0338b555a9b174f3d18c3, 2506ae7b2908d50a3bba2f3694fd3a04cb0dec8b, fd8f4ba3caaa898f40913f070897d8ac629bbc15, 9ffff320aef42c00ddc5e78bf9067b2b568e4274, eb3b6da328418545abe09966abe68df47a41374b, a1dfafb0546aaeb0cf2a90ef465752dac6c74860]","2","4","18","10","[app/controllers/homepage_controller.rb, app/models/category.rb, app/models/community.rb, app/models/custom_field.rb, app/models/custom_field_name.rb, app/models/listing.rb, app/models/person.rb, app/models/transaction_type.rb, app/views/homepage/_custom_filters.haml, app/views/homepage/_filters.haml, app/views/homepage/_grid_item.haml, app/views/homepage/_list_item.haml, app/views/homepage/_map.haml, app/views/homepage/_price_filter.haml, app/views/homepage/_search_bar.haml, app/views/homepage/index.haml, app/views/layouts/_grid_item_listing_image.haml, lib/np_guid/uuidtools.rb]","[app/controllers/admin/custom_fields_controller.rb, app/controllers/homepage_controller.rb, app/indices/listing_index.rb, app/models/listing.rb, app/views/admin/custom_fields/edit_price.haml, app/views/admin/custom_fields/index.haml, app/views/homepage/_custom_filters.haml, app/views/homepage/_filters.haml, app/views/homepage/_price_filter.haml, app/views/homepage/index.haml]","0.3333333333","0.6","3.2.17","1","[]","9","10","[app/controllers/homepage_controller.rb, app/views/homepage/_custom_filters.haml, app/views/homepage/_filters.haml, app/views/homepage/_grid_item.haml, app/views/homepage/_list_item.haml, app/views/homepage/_map.haml, app/views/homepage/_price_filter.haml, app/views/homepage/_search_bar.haml, app/views/homepage/index.haml, app/views/layouts/_grid_item_listing_image.haml]","[find_numeric_custom_field_type_by_name, page, to_f, execute_script, find_numeric_custom_field_type_by_name, id, community_id, id, inject, click_button, fill_in, page, have_content, has_content?, have_no_content, has_no_content?, within, homepage, save!, wait_until_index_finished]","","[]","[new_listing]","1","4.374 seconds","false","12","4","[app/models/category.rb, app/models/community.rb, app/models/custom_field.rb, app/models/custom_field_name.rb, app/models/person.rb, app/models/transaction_type.rb, app/views/homepage/_grid_item.haml, app/views/homepage/_list_item.haml, app/views/homepage/_map.haml, app/views/homepage/_search_bar.haml, app/views/layouts/_grid_item_listing_image.haml, lib/np_guid/uuidtools.rb]","[app/controllers/admin/custom_fields_controller.rb, app/indices/listing_index.rb, app/views/admin/custom_fields/edit_price.haml, app/views/admin/custom_fields/index.haml]","6","[app/controllers/homepage_controller.rb, app/models/listing.rb, app/views/homepage/_custom_filters.haml, app/views/homepage/_filters.haml, app/views/homepage/_price_filter.haml, app/views/homepage/index.haml]","0.5172413792942925"
"2157","[03-03-2014]","1","2","[cf9001e64136758d643499e749ef96829c03d8f4, ade61f9cc911ce16c6348532f7d9beddf51e7e6c]","2","7","8","2","[app/controllers/dashboard_controller.rb, app/models/community.rb, app/models/community_membership.rb, app/models/contact_request.rb, app/models/email.rb, app/models/person.rb, app/views/dashboard/_contact_request_form.haml, app/views/dashboard/index.haml]","[app/controllers/admin/communities_controller.rb, app/views/admin/communities/manage_members.haml]","0.0","0.0","3.2.17","3","[{path=sharetribe_sharetribe/features/step_definitions/web_steps.rb, line=-1}]","2","3","[app/controllers/dashboard_controller.rb, app/views/dashboard/_contact_request_form.haml, app/views/dashboard/index.haml]","[all, rows, text, each_with_index, click, be_nil, be_true, be_false, find, find, current_path, login_as, hashes, save!, update_attributes, id, consent, set_default_preferences, save, each, update_attribute, update_all, name, find, page, have_content, has_content?, within]","","[]","[manage_members_admin_community]","1","1.079 seconds","true","8","2","[app/controllers/dashboard_controller.rb, app/models/community.rb, app/models/community_membership.rb, app/models/contact_request.rb, app/models/email.rb, app/models/person.rb, app/views/dashboard/_contact_request_form.haml, app/views/dashboard/index.haml]","[app/controllers/admin/communities_controller.rb, app/views/admin/communities/manage_members.haml]","0","[]","0.0"
"2165","[01-03-2014]","1","1","[4a0ee42c3c56ea0724b0ff1ad92e8a1f0ff3edb4]","2","5","8","2","[app/controllers/dashboard_controller.rb, app/models/community.rb, app/models/community_membership.rb, app/models/contact_request.rb, app/models/email.rb, app/models/person.rb, app/views/dashboard/_contact_request_form.haml, app/views/dashboard/index.haml]","[app/controllers/admin/communities_controller.rb, app/views/admin/communities/manage_members.haml]","0.0","0.0","3.2.17","3","[{path=sharetribe_sharetribe/features/step_definitions/web_steps.rb, line=-1}]","2","3","[app/controllers/dashboard_controller.rb, app/views/dashboard/_contact_request_form.haml, app/views/dashboard/index.haml]","[be_nil, click, be_true, be_false, find, current_path, login_as, hashes, save!, update_attributes, id, consent, set_default_preferences, save, each, update_attribute, update_all, name, find, capture_model, model!, page, evaluate_script, become_true]","","[]","[manage_members_admin_community]","1","1.350 seconds","false","8","2","[app/controllers/dashboard_controller.rb, app/models/community.rb, app/models/community_membership.rb, app/models/contact_request.rb, app/models/email.rb, app/models/person.rb, app/views/dashboard/_contact_request_form.haml, app/views/dashboard/index.haml]","[app/controllers/admin/communities_controller.rb, app/views/admin/communities/manage_members.haml]","0","[]","0.0"
"2195","[25-02-2014]","2","2","[c61aeef7e539fe80f15d48b4a8bfd107939a8334, 35261838ec394fa1c1dd87f0cece09f08d8a11c1]","2","1","8","5","[app/controllers/dashboard_controller.rb, app/models/community.rb, app/models/community_membership.rb, app/models/contact_request.rb, app/models/person.rb, app/models/translation_cache.rb, app/views/dashboard/_contact_request_form.haml, app/views/dashboard/index.haml]","[app/controllers/admin/categories_controller.rb, app/controllers/confirmations_controller.rb, app/helpers/application_helper.rb, app/models/category_translation.rb, app/models/transaction_type.rb]","0.0","0.0","3.2.13","2","[]","2","3","[app/controllers/dashboard_controller.rb, app/views/dashboard/_contact_request_form.haml, app/views/dashboard/index.haml]","[tr, update_attribute, page, have_no_content, has_no_content?, within, login_as, id, categories, collect, hashes, create!, transaction_types, select, destroy!, each, have_content, has_content?]","","[]","[admin_categories]","1","0.610 seconds","true","8","5","[app/controllers/dashboard_controller.rb, app/models/community.rb, app/models/community_membership.rb, app/models/contact_request.rb, app/models/person.rb, app/models/translation_cache.rb, app/views/dashboard/_contact_request_form.haml, app/views/dashboard/index.haml]","[app/controllers/admin/categories_controller.rb, app/controllers/confirmations_controller.rb, app/helpers/application_helper.rb, app/models/category_translation.rb, app/models/transaction_type.rb]","0","[]","0.0"
"2109","[21-03-2014, 24-03-2014]","1","2","[df851c5e8c244c6ff49fe7c1002d057038a703fc, 9687fc3533e33fe76314de60d2a2ae4f55c773b2]","1","0","7","1","[app/controllers/dashboard_controller.rb, app/models/community.rb, app/models/community_membership.rb, app/models/contact_request.rb, app/models/person.rb, app/views/dashboard/_contact_request_form.haml, app/views/dashboard/index.haml]","[app/controllers/listings_controller.rb]","0.0","0.0","3.2.17","4","[{path=sharetribe_sharetribe/features/step_definitions/web_steps.rb, line=-1}]","2","3","[app/controllers/dashboard_controller.rb, app/views/dashboard/_contact_request_form.haml, app/views/dashboard/index.haml]","[click_link, page, have_content, has_content?, have_no_content, has_no_content?, current_path, within, update_attribute, find, click, page, driver, execute_script, within_frame, login_as, login_as, id, update_attribute, id]","","[]","[edit_details_admin_community]","1","0.895 seconds","false","7","1","[app/controllers/dashboard_controller.rb, app/models/community.rb, app/models/community_membership.rb, app/models/contact_request.rb, app/models/person.rb, app/views/dashboard/_contact_request_form.haml, app/views/dashboard/index.haml]","[app/controllers/listings_controller.rb]","0","[]","0.0"
"2116","[16-03-2014]","1","5","[03f84bdff86e5e93cc59379b51b63c07178fcd3d, 7cc9a74ac8c3090d2fb93dd305d8d16a2a956721, 6103428e1c260238d2df2344e276f57247ca33f4, d50d33fbd2157e1cd2ac30c375ec71583900c292, 1aa40e36ab6c9e91d57ae60af0976191795d013a]","1","2","8","3","[app/controllers/dashboard_controller.rb, app/models/community.rb, app/models/community_membership.rb, app/models/contact_request.rb, app/models/email.rb, app/models/person.rb, app/views/dashboard/_contact_request_form.haml, app/views/dashboard/index.haml]","[app/controllers/admin/communities_controller.rb, app/views/admin/communities/edit_look_and_feel.haml, app/views/admin/communities/integrations.haml]","0.0","0.0","3.2.17","3","[{path=sharetribe_sharetribe/features/step_definitions/web_steps.rb, line=-1}]","2","3","[app/controllers/dashboard_controller.rb, app/views/dashboard/_contact_request_form.haml, app/views/dashboard/index.haml]","[find, find, click, current_path, within, login_as, hashes, save!, update_attributes, id, consent, update_attribute, set_default_preferences, save, each, update_all, name, find, fill_in]","","[]","[integrations_admin_community]","1","0.944 seconds","false","8","3","[app/controllers/dashboard_controller.rb, app/models/community.rb, app/models/community_membership.rb, app/models/contact_request.rb, app/models/email.rb, app/models/person.rb, app/views/dashboard/_contact_request_form.haml, app/views/dashboard/index.haml]","[app/controllers/admin/communities_controller.rb, app/views/admin/communities/edit_look_and_feel.haml, app/views/admin/communities/integrations.haml]","0","[]","0.0"
"2119","[14-03-2014]","1","3","[277c291f3304387d5d32d13fe4a840f658e64332, f192cc92a418bb3c65799bbace0388a722af06cb, 4d798e37d2489206f6fc2ad036fa9f890542ca9f]","1","2","8","3","[app/controllers/dashboard_controller.rb, app/models/community.rb, app/models/community_membership.rb, app/models/contact_request.rb, app/models/email.rb, app/models/person.rb, app/views/dashboard/_contact_request_form.haml, app/views/dashboard/index.haml]","[app/controllers/admin/communities_controller.rb, app/helpers/application_helper.rb, app/views/admin/communities/integrations.haml]","0.0","0.0","3.2.17","3","[{path=sharetribe_sharetribe/features/step_definitions/web_steps.rb, line=-1}]","2","3","[app/controllers/dashboard_controller.rb, app/views/dashboard/_contact_request_form.haml, app/views/dashboard/index.haml]","[current_path, login_as, hashes, save!, update_attributes, id, consent, update_attribute, set_default_preferences, save, each, update_all, name, find, fill_in, page, have_content, has_content?, within]","","[]","[integrations_admin_community]","1","1.276 seconds","false","8","3","[app/controllers/dashboard_controller.rb, app/models/community.rb, app/models/community_membership.rb, app/models/contact_request.rb, app/models/email.rb, app/models/person.rb, app/views/dashboard/_contact_request_form.haml, app/views/dashboard/index.haml]","[app/controllers/admin/communities_controller.rb, app/helpers/application_helper.rb, app/views/admin/communities/integrations.haml]","0","[]","0.0"
"2144","[05-03-2014]","2","2","[3ced3db5a5919dcd94273d5139bbe439515237a2, 442b288b4708df0f29c1d21e42010d1b30d48fc5]","1","0","18","1","[app/controllers/dashboard_controller.rb, app/controllers/homepage_controller.rb, app/models/community.rb, app/models/community_membership.rb, app/models/contact_request.rb, app/models/email.rb, app/models/invitation.rb, app/models/person.rb, app/views/dashboard/_contact_request_form.haml, app/views/dashboard/index.haml, app/views/homepage/_custom_filters.haml, app/views/homepage/_grid_item.haml, app/views/homepage/_list_item.haml, app/views/homepage/_map.haml, app/views/homepage/_search_bar.haml, app/views/homepage/index.haml, app/views/layouts/_grid_item_listing_image.haml, lib/np_guid/uuidtools.rb]","[app/helpers/application_helper.rb]","0.0","0.0","3.2.17","2","[]","9","11","[app/controllers/dashboard_controller.rb, app/controllers/homepage_controller.rb, app/views/dashboard/_contact_request_form.haml, app/views/dashboard/index.haml, app/views/homepage/_custom_filters.haml, app/views/homepage/_grid_item.haml, app/views/homepage/_list_item.haml, app/views/homepage/_map.haml, app/views/homepage/_search_bar.haml, app/views/homepage/index.haml, app/views/layouts/_grid_item_listing_image.haml]","[login_as, hashes, save!, update_attributes, id, consent, update_attribute, set_default_preferences, save, each, update_all, name, find, click_button, page, execute_script, evaluate_script, become_true, fill_in, check, page, have_content, has_content?, have_no_content, has_no_content?, within, homepage, present?, usages_left, capture_model, model!]","","[]","[new_listing]","1","1.789 seconds","false","18","1","[app/controllers/dashboard_controller.rb, app/controllers/homepage_controller.rb, app/models/community.rb, app/models/community_membership.rb, app/models/contact_request.rb, app/models/email.rb, app/models/invitation.rb, app/models/person.rb, app/views/dashboard/_contact_request_form.haml, app/views/dashboard/index.haml, app/views/homepage/_custom_filters.haml, app/views/homepage/_grid_item.haml, app/views/homepage/_list_item.haml, app/views/homepage/_map.haml, app/views/homepage/_search_bar.haml, app/views/homepage/index.haml, app/views/layouts/_grid_item_listing_image.haml, lib/np_guid/uuidtools.rb]","[app/helpers/application_helper.rb]","0","[]","0.0"
"2146","[05-03-2014]","1","1","[195291ab65c812815f304f2f9ea37380802eee9e]","1","5","16","19","[app/controllers/homepage_controller.rb, app/models/category.rb, app/models/community.rb, app/models/custom_field.rb, app/models/custom_field_name.rb, app/models/listing.rb, app/models/person.rb, app/models/transaction_type.rb, app/views/homepage/_custom_filters.haml, app/views/homepage/_grid_item.haml, app/views/homepage/_list_item.haml, app/views/homepage/_map.haml, app/views/homepage/_search_bar.haml, app/views/homepage/index.haml, app/views/layouts/_grid_item_listing_image.haml, lib/np_guid/uuidtools.rb]","[app/controllers/homepage_controller.rb, app/indices/custom_field_value_index.rb, app/indices/listing_index.rb, app/models/community.rb, app/models/custom_field_value.rb, app/models/custom_field_values/numeric_field_value.rb, app/models/custom_fields/numeric_field.rb, app/models/listing.rb, app/services/timing_service.rb, app/views/admin/custom_fields/_listed_custom_field.haml, app/views/admin/custom_fields/edit.haml, app/views/admin/custom_fields/form/_field_min_max.haml, app/views/admin/custom_fields/new.haml, app/views/design/design.haml, app/views/homepage/_custom_filters.haml, app/views/homepage/index.haml, app/views/listings/custom_field_partials/_numeric.haml, app/views/listings/form/custom_field_partials/_numeric.haml, app/views/listings/show.haml]","0.3125","0.2631578947","3.2.17","1","[]","7","8","[app/controllers/homepage_controller.rb, app/views/homepage/_custom_filters.haml, app/views/homepage/_grid_item.haml, app/views/homepage/_list_item.haml, app/views/homepage/_map.haml, app/views/homepage/_search_bar.haml, app/views/homepage/index.haml, app/views/layouts/_grid_item_listing_image.haml]","[find_numeric_custom_field_type_by_name, find_numeric_custom_field_type_by_name, id, page, to_f, execute_script, community_id, id, inject, click_button, fill_in, page, have_content, has_content?, have_no_content, has_no_content?, within, homepage, wait_until_index_finished, be_nil, find]","","[]","[new_listing]","1","2.128 seconds","true","11","14","[app/models/category.rb, app/models/custom_field.rb, app/models/custom_field_name.rb, app/models/person.rb, app/models/transaction_type.rb, app/views/homepage/_grid_item.haml, app/views/homepage/_list_item.haml, app/views/homepage/_map.haml, app/views/homepage/_search_bar.haml, app/views/layouts/_grid_item_listing_image.haml, lib/np_guid/uuidtools.rb]","[app/indices/custom_field_value_index.rb, app/indices/listing_index.rb, app/models/custom_field_value.rb, app/models/custom_field_values/numeric_field_value.rb, app/models/custom_fields/numeric_field.rb, app/services/timing_service.rb, app/views/admin/custom_fields/_listed_custom_field.haml, app/views/admin/custom_fields/edit.haml, app/views/admin/custom_fields/form/_field_min_max.haml, app/views/admin/custom_fields/new.haml, app/views/design/design.haml, app/views/listings/custom_field_partials/_numeric.haml, app/views/listings/form/custom_field_partials/_numeric.haml, app/views/listings/show.haml]","5","[app/controllers/homepage_controller.rb, app/models/community.rb, app/models/listing.rb, app/views/homepage/_custom_filters.haml, app/views/homepage/index.haml]","0.2717391304033554"
"2154","[02-03-2014]","2","2","[56c448d85775d712732bf909283aae12fe2eb3db, ee26953faec93d55b1ebd3baa2f337a75b3bcb7c]","1","2","11","4","[app/controllers/conversations_controller.rb, app/controllers/dashboard_controller.rb, app/controllers/terms_controller.rb, app/models/community.rb, app/models/community_membership.rb, app/models/contact_request.rb, app/models/email.rb, app/models/person.rb, app/models/poll.rb, app/views/dashboard/_contact_request_form.haml, app/views/dashboard/index.haml]","[app/controllers/admin/communities_controller.rb, app/controllers/community_memberships_controller.rb, app/models/person.rb, app/views/admin/communities/manage_members.haml]","0.0909090909","0.25","3.2.17","2","[]","2","3","[app/controllers/dashboard_controller.rb, app/views/dashboard/_contact_request_form.haml, app/views/dashboard/index.haml]","[page, have_no_content, has_no_content?, page, execute_script, within, click, id, find, login_as, hashes, save!, update_attributes, id, consent, update_attribute, set_default_preferences, save, each, update_all, name, find, page, driver, browser, switch_to, alert]","","[]","[manage_members_admin_community]","1","0.772 seconds","false","10","3","[app/controllers/conversations_controller.rb, app/controllers/dashboard_controller.rb, app/controllers/terms_controller.rb, app/models/community.rb, app/models/community_membership.rb, app/models/contact_request.rb, app/models/email.rb, app/models/poll.rb, app/views/dashboard/_contact_request_form.haml, app/views/dashboard/index.haml]","[app/controllers/admin/communities_controller.rb, app/controllers/community_memberships_controller.rb, app/views/admin/communities/manage_members.haml]","1","[app/models/person.rb]","0.18518518517764063"
"2178","[01-03-2014]","2","3","[b9c8ed671fa4260886d6467bc3d5d741c0e3587c, 835892a2952c6fdb33287ea1ed80be0cfc6221be, b2a7c88a26c6918fde18383117a6bef4f19bc5c4]","1","4","8","3","[app/controllers/dashboard_controller.rb, app/models/community.rb, app/models/community_membership.rb, app/models/contact_request.rb, app/models/email.rb, app/models/person.rb, app/views/dashboard/_contact_request_form.haml, app/views/dashboard/index.haml]","[app/controllers/admin/communities_controller.rb, app/views/admin/communities/manage_members.haml, app/views/layouts/_ajax-update-notification.haml]","0.0","0.0","3.2.17","3","[{path=sharetribe_sharetribe/features/step_definitions/web_steps.rb, line=-1}]","2","3","[app/controllers/dashboard_controller.rb, app/views/dashboard/_contact_request_form.haml, app/views/dashboard/index.haml]","[update_attribute, be_nil, click, find, page, evaluate_script, become_true, current_path, login_as, hashes, save!, update_attributes, id, consent, set_default_preferences, save, each, update_all, name, find, capture_model, model!, page, evaluate_script, become_true]","","[]","[manage_members_admin_community]","1","0.909 seconds","false","8","3","[app/controllers/dashboard_controller.rb, app/models/community.rb, app/models/community_membership.rb, app/models/contact_request.rb, app/models/email.rb, app/models/person.rb, app/views/dashboard/_contact_request_form.haml, app/views/dashboard/index.haml]","[app/controllers/admin/communities_controller.rb, app/views/admin/communities/manage_members.haml, app/views/layouts/_ajax-update-notification.haml]","0","[]","0.0"
"2188","[01-03-2014]","1","1","[88196e21628b2813dca32a318bce2922de1d147c]","1","3","9","2","[app/controllers/dashboard_controller.rb, app/models/community.rb, app/models/community_membership.rb, app/models/contact_request.rb, app/models/email.rb, app/models/person.rb, app/views/dashboard/_contact_request_form.haml, app/views/dashboard/index.haml, lib/np_guid/uuidtools.rb]","[app/controllers/admin/communities_controller.rb, app/views/admin/communities/manage_members.haml]","0.0","0.0","3.2.13","3","[]","2","3","[app/controllers/dashboard_controller.rb, app/views/dashboard/_contact_request_form.haml, app/views/dashboard/index.haml]","[login_as, hashes, save!, update_attributes, id, consent, set_default_preferences, save, each, update_attribute, update_all, name, find, click_link, within, all, count, text]","","[]","[manage_members_admin_community]","1","0.791 seconds","false","9","2","[app/controllers/dashboard_controller.rb, app/models/community.rb, app/models/community_membership.rb, app/models/contact_request.rb, app/models/email.rb, app/models/person.rb, app/views/dashboard/_contact_request_form.haml, app/views/dashboard/index.haml, lib/np_guid/uuidtools.rb]","[app/controllers/admin/communities_controller.rb, app/views/admin/communities/manage_members.haml]","0","[]","0.0"
"2189","[01-03-2014]","2","4","[8a2a7e3b058308ab63bda9f603f7fd2088640c6b, 20cb6fa6f4b6b43e2af7baafb3578d2638f2e971, f2cc8c4b187d36a1ccc47667eb4ffe2bb153b12d, bde5fd92715baf813f6dfcfd74bc93cfae466096]","1","3","8","2","[app/controllers/dashboard_controller.rb, app/models/community.rb, app/models/community_membership.rb, app/models/contact_request.rb, app/models/email.rb, app/models/person.rb, app/views/dashboard/_contact_request_form.haml, app/views/dashboard/index.haml]","[app/views/admin/communities/manage_members.haml, app/views/design/design.haml]","0.0","0.0","3.2.13","3","[{path=sharetribe_sharetribe/features/step_definitions/web_steps.rb, line=-1}]","2","3","[app/controllers/dashboard_controller.rb, app/views/dashboard/_contact_request_form.haml, app/views/dashboard/index.haml]","[update_attribute, pending, pending, current_path, login_as, hashes, save!, update_attributes, id, consent, set_default_preferences, save, each, update_all, name, find]","","[]","[manage_members_admin_community]","1","0.718 seconds","false","8","2","[app/controllers/dashboard_controller.rb, app/models/community.rb, app/models/community_membership.rb, app/models/contact_request.rb, app/models/email.rb, app/models/person.rb, app/views/dashboard/_contact_request_form.haml, app/views/dashboard/index.haml]","[app/views/admin/communities/manage_members.haml, app/views/design/design.haml]","0","[]","0.0"
"2190","[28-02-2014]","1","1","[812a11846df2b8ed4f2de1e6da507bdda21d6f5b]","1","3","8","1","[app/controllers/dashboard_controller.rb, app/models/community.rb, app/models/community_membership.rb, app/models/contact_request.rb, app/models/email.rb, app/models/person.rb, app/views/dashboard/_contact_request_form.haml, app/views/dashboard/index.haml]","[app/views/admin/communities/manage_members.haml]","0.0","0.0","3.2.13","2","[]","2","3","[app/controllers/dashboard_controller.rb, app/views/dashboard/_contact_request_form.haml, app/views/dashboard/index.haml]","[all, rows, text, each_with_index, login_as, hashes, save!, update_attributes, id, consent, set_default_preferences, save, each, update_attribute, update_all, name, find, page, have_content, has_content?, within]","","[]","[manage_members_admin_community]","1","0.884 seconds","false","8","1","[app/controllers/dashboard_controller.rb, app/models/community.rb, app/models/community_membership.rb, app/models/contact_request.rb, app/models/email.rb, app/models/person.rb, app/views/dashboard/_contact_request_form.haml, app/views/dashboard/index.haml]","[app/views/admin/communities/manage_members.haml]","0","[]","0.0"
