[path:/features/step_definitions/challenge_steps.rb, methods:[42, 55, 109, 120, 130, 46, 549, 67, 10, 140, 216, 310, 325, 299, 592, 289, 530, 544, 483, 83, 425, 432, 272, 522, 210, 376]]
[path:/features/step_definitions/generic_steps.rb, methods:[168]]
[path:/features/step_definitions/pickle_steps.rb, methods:[38, 72]]
[path:/features/step_definitions/user_steps.rb, methods:[46]]
[path:/features/step_definitions/web_steps.rb, methods:[22, 32, 106, 137, 81, 26, [name:with_scope, step:When ], [name:with_scope, step:Then ]]]
