"Repository","https://github.com/diaspora/diaspora.git"
"Tasks with empty IReal","0"
"Tasks with no-empty IReal","8"
"Tasks with relevant AST error","3"
"Tasks with AST error of Gherkin files","0"
"Tasks with AST error of StepDef files","0"
"Tasks with AST error of production files","3"
"Tasks with AST error of unit test files","0"
"Tasks with step match error","6"
"Tasks without required gems","0"
"Tasks with changed stepdef","5"
"Tasks with changed Gherkin","8"
"Tasks with implemented Gherkin scenarios","6"
"All invalid tasks","8"
"All valid tasks (Gherkin scenario, no empty IReal, no error)","0"
"Valid tasks, but empty ITest","0"
"Valid tasks, no empty ITest, but zero precision-recall","0"
"Valid tasks, no empty ITest, no zero precision-recall","0"
"Project","Task","Date","#Days","#Commits","Commit_Message","#Devs","#Gherkin_Tests","#Impl_Gherkin_Tests","#StepDef","#Impl_StepDef","Methods_Unknown_Type","#Step_Call","Step_Match_Errors","#Step_Match_Error","AST_Errors","#AST_Errors","Gherkin_AST_Errors","#Gherkin_AST_Errors","Steps_AST_Errors","#Steps_AST_Errors","Renamed_Files","Deleted_Files","NotFound_Views","#Views","#TestI","#TaskI","TestI","TaskI","Precision","Recall","Hashes","Timestamp","Rails","Gems","#Visit_Call","Lost_visit_call","#Views_ITest","#Code_View_Analysis","Code_View_Analysis","Has_Merge","F2","#Multiple_Step_Matches","Multiple_Step_Matches","#Generic_Step_Keyword","Generic_Step_Keyword"
"diaspora","513","[10-08-2016]","1","4","[Fix user settings style after submit  Fixed: * wrong url * broken navigation * broken design after saving the user settings  Fixes #5847 , remove redirect hack for devise  only expose routes from devise that we actually use , fix privacy settings form submit , fix style on registration-page after errors ]","1","6","6","0","0","[password, id, click_button, username, page, have_css, first_name, last_name, have_content, fill_in, click_button, person, gsub, send, public_send, sender, diaspora_handle, raise, btn btn-block btn-primary, btn btn-primary, btn btn-large btn-block btn-primary, rows_hash, each, uncheck, scan, flatten, current_scope, have_content, each, find_field, be_falsey, is_a?, delete, find, page, person, username, have_path_in, within, deliveries, blank?, html_part, raw_source, Nokogiri, css, detect, attributes, request_uri, reload, send, click, accept_alert, be, visible?, delete, find, execute_script, eq, have_css, within]","4","","0","[[path:app/models/notifications/private_message.rb, msgs:[unexpected kDO_BLOCK]], [path:lib/diaspora/federation/receive.rb, msgs:[unexpected kDO_BLOCK]]]","2","","0","","0","","[]","[app/views/contacts/_contact.html.haml, app/views/home/_show.html.haml, app/views/photos/_index.html.haml, app/views/shared/_stream_more_button.html.haml, have, new_integration_sessions, new_registration, new_session]","8","66","6","[app/controllers/admin/users_controller.rb, app/controllers/api/openid_connect/user_applications_controller.rb, app/controllers/aspects_controller.rb, app/controllers/contacts_controller.rb, app/controllers/home_controller.rb, app/controllers/invitation_codes_controller.rb, app/controllers/people_controller.rb, app/controllers/photos_controller.rb, app/controllers/profiles_controller.rb, app/controllers/services_controller.rb, app/controllers/streams_controller.rb, app/controllers/tags_controller.rb, app/controllers/users_controller.rb, app/helpers/people_helper.rb, app/models/aspect.rb, app/models/invitation_code.rb, app/models/reshare.rb, app/models/user.rb, app/presenters/post_presenter.rb, app/presenters/user_application_presenter.rb, app/services/post_service.rb, app/views/api/openid_connect/user_applications/_add_remove_applications.haml, app/views/api/openid_connect/user_applications/index.html.haml, app/views/api/openid_connect/user_applications/index.mobile.haml, app/views/aspect_memberships/_aspect_membership_dropdown.haml, app/views/contacts/_aspect_listings.haml, app/views/contacts/_header.html.haml, app/views/contacts/_sidebar.html.haml, app/views/contacts/index.html.haml, app/views/contacts/index.mobile.haml, app/views/contacts/spotlight.haml, app/views/devise/passwords/new.haml, app/views/devise/passwords/new.mobile.haml, app/views/home/default.haml, app/views/home/podmin.haml, app/views/home/show.haml, app/views/people/_index.html.haml, app/views/people/_person.html.haml, app/views/people/show.html.haml, app/views/people/show.mobile.haml, app/views/photos/_index.mobile.haml, app/views/photos/_new_profile_photo.haml, app/views/photos/show.mobile.haml, app/views/profiles/_edit_private.haml, app/views/profiles/_edit_public.haml, app/views/profiles/edit.haml, app/views/profiles/edit.mobile.haml, app/views/publisher/_aspect_dropdown.html.haml, app/views/publisher/_publisher.html.haml, app/views/services/_add_remove_services.haml, app/views/services/index.html.haml, app/views/services/index.mobile.haml, app/views/sessions/_form.haml, app/views/shared/_public_explain.haml, app/views/shared/_settings_nav.haml, app/views/shared/_stream.haml, app/views/streams/main_stream.html.haml, app/views/streams/main_stream.mobile.haml, app/views/tags/show.haml, app/views/tags/show.mobile.haml, app/views/users/_edit.haml, app/views/users/edit.html.haml, app/views/users/edit.mobile.haml, lib/bookmarklet_renderer.rb, lib/diaspora/message_renderer.rb, lib/publisher.rb]","[app/controllers/users_controller.rb, app/helpers/error_messages_helper.rb, app/views/layouts/_drawer.mobile.haml, app/views/shared/_settings_nav.haml, app/views/users/_edit.haml, app/views/users/_privacy_settings.haml]","0.0454545455","0.5","[71ed7446c19c83bdbb542482285bc968d49f0520, be47c6bcd010f31bd2495aeec434681b38f68bfb, 86e75a02bb0ecb00f326cb3493cb9e54b91bb17e, 37837b3f731670509b4c3a8f22c170ba8efed0ee]","6.652 seconds","4.2.7","[cucumber-rails, rspec-rails, simplecov, coveralls, factory_girl]","5","[{path=diaspora_diaspora/features/support/paths.rb, line=60}, {path=diaspora_diaspora/features/support/paths.rb, line=64}, {path=diaspora_diaspora/features/step_definitions/user_steps.rb, line=-1}]","42","55","[app/controllers/admin/users_controller.rb, app/controllers/api/openid_connect/user_applications_controller.rb, app/controllers/contacts_controller.rb, app/controllers/home_controller.rb, app/controllers/invitation_codes_controller.rb, app/controllers/people_controller.rb, app/controllers/photos_controller.rb, app/controllers/profiles_controller.rb, app/controllers/services_controller.rb, app/controllers/streams_controller.rb, app/controllers/tags_controller.rb, app/controllers/users_controller.rb, app/helpers/people_helper.rb, app/views/api/openid_connect/user_applications/_add_remove_applications.haml, app/views/api/openid_connect/user_applications/index.html.haml, app/views/api/openid_connect/user_applications/index.mobile.haml, app/views/aspect_memberships/_aspect_membership_dropdown.haml, app/views/contacts/_aspect_listings.haml, app/views/contacts/_header.html.haml, app/views/contacts/_sidebar.html.haml, app/views/contacts/index.html.haml, app/views/contacts/index.mobile.haml, app/views/contacts/spotlight.haml, app/views/devise/passwords/new.haml, app/views/devise/passwords/new.mobile.haml, app/views/home/default.haml, app/views/home/podmin.haml, app/views/home/show.haml, app/views/people/_index.html.haml, app/views/people/_person.html.haml, app/views/people/show.html.haml, app/views/people/show.mobile.haml, app/views/photos/_index.mobile.haml, app/views/photos/_new_profile_photo.haml, app/views/photos/show.mobile.haml, app/views/profiles/_edit_private.haml, app/views/profiles/_edit_public.haml, app/views/profiles/edit.haml, app/views/profiles/edit.mobile.haml, app/views/publisher/_aspect_dropdown.html.haml, app/views/publisher/_publisher.html.haml, app/views/services/_add_remove_services.haml, app/views/services/index.html.haml, app/views/services/index.mobile.haml, app/views/sessions/_form.haml, app/views/shared/_public_explain.haml, app/views/shared/_settings_nav.haml, app/views/shared/_stream.haml, app/views/streams/main_stream.html.haml, app/views/streams/main_stream.mobile.haml, app/views/tags/show.haml, app/views/tags/show.mobile.haml, app/views/users/_edit.haml, app/views/users/edit.html.haml, app/views/users/edit.mobile.haml]","false","0.1666666667888889","0","","0",""
"diaspora","531","[06-08-2016, 07-08-2016, 08-08-2016]","3","21","[Merge pull request #6864 from cmrd-senya/6120-aspects-creation-ui  Refactor  aspects membership dropdown to use handlebars template , Client-side aspect dropdown for the people/:guid/contacts page , Fix mobile getting_started use wrong person object , Notifications and search page frontend updates  Updates introduce usage of client-side aspect dropdown rendering , Introduce NotificationSerializer  And remove the note_html property from the model. , Notifications and search page backend updates  Updates introduce support for preloading contacts to Gon in order to support client-side rendering of aspect membership dropdown box. , Client-side rendering of aspect dropdown for hovercards , Refactor app.views.AspectMembership  in order to support adding new aspect to a dropdown without full page reload , Rename photos[:count] to photos_count in gon , Rename contacts[:count] to contacts_count in gon , Clear gon after each rspec test , Use the factory in the publisher_view_spec.js , AspectSe [TOO_LONG]","3","2","2","1","1","[click_button, select, scan, flatten, current_scope, have_content, each, is_a?, delete, find, within, person, gsub, send, public_send, sender, diaspora_handle, raise, btn btn-block btn-primary, btn btn-primary, btn btn-large btn-block btn-primary, hashes, has_key?, each, invitation_code, count, trigger, all, length, have_no_css, page, fill_in, id, have_css, first_name, last_name, have_content, driver, clear_cookies, current_scope, click, be_visible, delete, find, name, raise, page, have_css, within, create_user, update_attributes!, merge]","5","[path:features/step_definitions/user_steps.rb, size:1]","1","[[path:app/models/notifications/private_message.rb, msgs:[unexpected kDO_BLOCK]], [path:lib/diaspora/federation/receive.rb, msgs:[unexpected kDO_BLOCK]]]","2","","0","","0","","[app/presenters/hovercard_presenter.rb, app/views/people/_aspect_membership_dropdown.haml]","[app/views/contacts/_contact.html.haml, app/views/home/_show.html.haml, app/views/photos/_index.html.haml, app/views/shared/_stream_more_button.html.haml, new_integration_sessions, new_registration, new_session]","7","70","22","[app/controllers/admin/users_controller.rb, app/controllers/api/openid_connect/user_applications_controller.rb, app/controllers/aspects_controller.rb, app/controllers/contacts_controller.rb, app/controllers/home_controller.rb, app/controllers/invitation_codes_controller.rb, app/controllers/people_controller.rb, app/controllers/photos_controller.rb, app/controllers/profiles_controller.rb, app/controllers/services_controller.rb, app/controllers/streams_controller.rb, app/controllers/tags_controller.rb, app/controllers/users_controller.rb, app/helpers/people_helper.rb, app/models/aspect.rb, app/models/invitation.rb, app/models/invitation_code.rb, app/models/person.rb, app/models/user.rb, app/presenters/node_info_presenter.rb, app/presenters/post_presenter.rb, app/presenters/user_application_presenter.rb, app/serializers/user_info_serializer.rb, app/services/post_service.rb, app/services/status_message_creation_service.rb, app/views/api/openid_connect/user_applications/_add_remove_applications.haml, app/views/api/openid_connect/user_applications/index.html.haml, app/views/api/openid_connect/user_applications/index.mobile.haml, app/views/aspect_memberships/_aspect_membership_dropdown.haml, app/views/contacts/_aspect_listings.haml, app/views/contacts/_header.html.haml, app/views/contacts/_sidebar.html.haml, app/views/contacts/index.html.haml, app/views/contacts/index.mobile.haml, app/views/contacts/spotlight.haml, app/views/devise/passwords/new.haml, app/views/devise/passwords/new.mobile.haml, app/views/home/default.haml, app/views/home/podmin.haml, app/views/home/show.haml, app/views/people/_index.html.haml, app/views/people/_person.html.haml, app/views/people/show.html.haml, app/views/people/show.mobile.haml, app/views/photos/_index.mobile.haml, app/views/photos/_new_profile_photo.haml, app/views/photos/show.mobile.haml, app/views/profiles/_edit_private.haml, app/views/profiles/_edit_public.haml, app/views/profiles/edit.haml, app/views/profiles/edit.mobile.haml, app/views/publisher/_aspect_dropdown.html.haml, app/views/publisher/_publisher.html.haml, app/views/services/_add_remove_services.haml, app/views/services/index.html.haml, app/views/services/index.mobile.haml, app/views/sessions/_form.haml, app/views/shared/_public_explain.haml, app/views/shared/_settings_nav.haml, app/views/shared/_stream.haml, app/views/streams/main_stream.html.haml, app/views/streams/main_stream.mobile.haml, app/views/tags/show.haml, app/views/tags/show.mobile.haml, app/views/users/_edit.haml, app/views/users/edit.html.haml, app/views/users/edit.mobile.haml, lib/api/openid_connect/subject_identifier_creator.rb, lib/email_inviter.rb, lib/stream/aspect.rb]","[app/controllers/aspects_controller.rb, app/controllers/contacts_controller.rb, app/controllers/notifications_controller.rb, app/controllers/people_controller.rb, app/controllers/photos_controller.rb, app/controllers/users_controller.rb, app/helpers/aspect_global_helper.rb, app/helpers/gon_helper.rb, app/helpers/invitation_codes_helper.rb, app/models/notification.rb, app/models/notifications/started_sharing.rb, app/presenters/avatar_presenter.rb, app/presenters/contact_presenter.rb, app/presenters/person_presenter.rb, app/presenters/profile_presenter.rb, app/serializers/notification_serializer.rb, app/views/aspect_memberships/_aspect_membership_dropdown.haml, app/views/notifications/_notification.haml, app/views/people/_add_contact.haml, app/views/people/_person.html.haml, app/views/people/_relationship_action.haml, lib/evil_query.rb]","0.1","0.3181818182","[c065e19d5bd493bdf167e5cf490a58539249a944, e7d8de298b816544816244334906634b7cf343bc, d7fd735ee07527e0986ee6f52429c9fa7f023565, 71ecd7b866ab61e2ee05dd65a3831c62dc65be98, 94ce3834986d354582127e7b0bc134362baae07a, a3f208c38031ee69e20af5cfcb86657bdfc95d27, 82ac611396dd1bd6e5e349cf5173a5436ddd408c, 923fb8a76395a56abd002c11a5950b2b7288a213, 15e0f887583a76796485375aca1cd0c713ad21ae, d8687ccb3a97604c33de770645da6f42d50aa471, ed7fc10043346da1ea23a5d5a0069a8a13b6f153, 838e5ca4327698b3918e6d133f9e994d5c73b8e8, f0bd1f9f06708599ddbd08d2db7066f56db8fe89, 06352b7809b64c35d08291d5ca87086a27bffda1, d50ab83157074e5b4cd865f16407b3add21d9155, ac2f1612718ae4474745ca8f25477d23f841f266, 2f80ab8f3d5fe7cd6e419f132a65fe42335ee9da, f45e5922eeb413c15e94e83e250f91d6562af4f1, 77059f11c470219c8247e83ab224fdd9e6158abd, d835cc4b1bdfd29994382bfad4f3d1ba07688393, ba2617542153fb250cc36458a408b3bb5e9d7c0d]","4.106 seconds","4.2.7","[cucumber-rails, rspec-rails, simplecov, coveralls, factory_girl]","3","[{path=diaspora_diaspora/features/support/paths.rb, line=60}, {path=diaspora_diaspora/features/support/paths.rb, line=64}]","42","55","[app/controllers/admin/users_controller.rb, app/controllers/api/openid_connect/user_applications_controller.rb, app/controllers/contacts_controller.rb, app/controllers/home_controller.rb, app/controllers/invitation_codes_controller.rb, app/controllers/people_controller.rb, app/controllers/photos_controller.rb, app/controllers/profiles_controller.rb, app/controllers/services_controller.rb, app/controllers/streams_controller.rb, app/controllers/tags_controller.rb, app/controllers/users_controller.rb, app/helpers/people_helper.rb, app/views/api/openid_connect/user_applications/_add_remove_applications.haml, app/views/api/openid_connect/user_applications/index.html.haml, app/views/api/openid_connect/user_applications/index.mobile.haml, app/views/aspect_memberships/_aspect_membership_dropdown.haml, app/views/contacts/_aspect_listings.haml, app/views/contacts/_header.html.haml, app/views/contacts/_sidebar.html.haml, app/views/contacts/index.html.haml, app/views/contacts/index.mobile.haml, app/views/contacts/spotlight.haml, app/views/devise/passwords/new.haml, app/views/devise/passwords/new.mobile.haml, app/views/home/default.haml, app/views/home/podmin.haml, app/views/home/show.haml, app/views/people/_index.html.haml, app/views/people/_person.html.haml, app/views/people/show.html.haml, app/views/people/show.mobile.haml, app/views/photos/_index.mobile.haml, app/views/photos/_new_profile_photo.haml, app/views/photos/show.mobile.haml, app/views/profiles/_edit_private.haml, app/views/profiles/_edit_public.haml, app/views/profiles/edit.haml, app/views/profiles/edit.mobile.haml, app/views/publisher/_aspect_dropdown.html.haml, app/views/publisher/_publisher.html.haml, app/views/services/_add_remove_services.haml, app/views/services/index.html.haml, app/views/services/index.mobile.haml, app/views/sessions/_form.haml, app/views/shared/_public_explain.haml, app/views/shared/_settings_nav.haml, app/views/shared/_stream.haml, app/views/streams/main_stream.html.haml, app/views/streams/main_stream.mobile.haml, app/views/tags/show.haml, app/views/tags/show.mobile.haml, app/views/users/_edit.haml, app/views/users/edit.html.haml, app/views/users/edit.mobile.haml]","true","0.22151898734882236","0","","0",""
"diaspora","555","[26-06-2016]","1","107","[Merge pull request #6887 from SuperTux88/fix-relayable-retraction-sender  Fix relayable retraction sender , use the parent author of the target as sender for relayable retractions , use `match_array` for comment_service_spec , Merge pull request #6886 from SuperTux88/fix-relayable-sender  use the parent author as salmon sender, if the parent author is local , use the parent author as salmon sender, if the parent author is local , Merge pull request #6873 from SuperTux88/federation-gem-salmon  Federation rewrite with diaspora_federation gem , add own posts to activity-stream again , don't participate own posts , use DiasporaFederation::Salmon::MagicEnvelope for federation debug logging , the xml parameter is now filtered in the diaspora_federation gem , remove participation parent author check  the check that the participation parent author is local is now done in the diaspora_federation gem , extract mappings between diaspora and the federation gem , use private_class_method with ret [TOO_LONG]","2","3","3","0","0","[id, click_button, page, have_css, first_name, last_name, have_content, scan, flatten, current_scope, have_content, each, page, have_no_content, is_a?, delete, find, within, person, gsub, send, public_send, sender, diaspora_handle, raise, btn btn-block btn-primary, btn btn-primary, btn btn-large btn-block btn-primary, hashes, has_key?, each, where, connect_users, post, click, create_user, update_attributes!, merge]","3","","0","[[path:app/models/notifications/private_message.rb, msgs:[unexpected kDO_BLOCK]], [path:lib/diaspora/federation/receive.rb, msgs:[unexpected kDO_BLOCK]]]","2","","0","","0","","[app/models/notifications/request_accepted.rb, app/workers/http_multi.rb, app/workers/notify_local_users.rb, app/workers/receive.rb, app/workers/receive_encrypted_salmon.rb, app/workers/receive_local_batch.rb, app/workers/receive_unencrypted_salmon.rb, lib/diaspora/encryptable.rb, lib/diaspora/federated/relayable_retraction.rb, lib/diaspora/federated/request.rb, lib/diaspora/federated/shareable.rb, lib/diaspora/federated/signed_retraction.rb, lib/diaspora/fetcher/single.rb, lib/diaspora/guid.rb, lib/diaspora/parser.rb, lib/encryptor.rb, lib/federated/generator.rb, lib/federated/relayable.rb, lib/hydra_wrapper.rb, lib/postzord.rb, lib/postzord/dispatcher.rb, lib/postzord/dispatcher/private.rb, lib/postzord/dispatcher/public.rb, lib/postzord/receiver.rb, lib/postzord/receiver/local_batch.rb, lib/postzord/receiver/private.rb, lib/postzord/receiver/public.rb, lib/salmon.rb, lib/salmon/encrypted_slap.rb, lib/salmon/magic_sig_envelope.rb, lib/salmon/slap.rb]","[app/views/contacts/_contact.html.haml, app/views/home/_show.html.haml, app/views/shared/_stream_more_button.html.haml, new_integration_sessions, new_registration, new_session, person]","7","63","74","[app/controllers/admin/users_controller.rb, app/controllers/api/openid_connect/user_applications_controller.rb, app/controllers/aspects_controller.rb, app/controllers/contacts_controller.rb, app/controllers/home_controller.rb, app/controllers/invitation_codes_controller.rb, app/controllers/photos_controller.rb, app/controllers/profiles_controller.rb, app/controllers/services_controller.rb, app/controllers/streams_controller.rb, app/controllers/tags_controller.rb, app/controllers/users_controller.rb, app/helpers/people_helper.rb, app/models/invitation_code.rb, app/models/user.rb, app/presenters/post_presenter.rb, app/presenters/user_application_presenter.rb, app/presenters/user_presenter.rb, app/serializers/user_info_serializer.rb, app/services/post_service.rb, app/services/status_message_creation_service.rb, app/views/api/openid_connect/user_applications/_add_remove_applications.haml, app/views/api/openid_connect/user_applications/index.html.haml, app/views/api/openid_connect/user_applications/index.mobile.haml, app/views/contacts/_aspect_listings.haml, app/views/contacts/_header.html.haml, app/views/contacts/_sidebar.html.haml, app/views/contacts/index.html.haml, app/views/contacts/index.mobile.haml, app/views/contacts/spotlight.haml, app/views/devise/passwords/new.haml, app/views/devise/passwords/new.mobile.haml, app/views/home/default.haml, app/views/home/podmin.haml, app/views/home/show.haml, app/views/people/_index.html.haml, app/views/people/_person.html.haml, app/views/photos/_index.mobile.haml, app/views/photos/_new_profile_photo.haml, app/views/photos/show.mobile.haml, app/views/profiles/_edit_private.haml, app/views/profiles/_edit_public.haml, app/views/profiles/edit.haml, app/views/profiles/edit.mobile.haml, app/views/publisher/_aspect_dropdown.html.haml, app/views/publisher/_publisher.html.haml, app/views/services/_add_remove_services.haml, app/views/services/index.html.haml, app/views/services/index.mobile.haml, app/views/sessions/_form.haml, app/views/shared/_public_explain.haml, app/views/shared/_settings_nav.haml, app/views/shared/_stream.haml, app/views/streams/main_stream.html.haml, app/views/streams/main_stream.mobile.haml, app/views/tags/show.haml, app/views/tags/show.mobile.haml, app/views/users/_edit.haml, app/views/users/edit.html.haml, app/views/users/edit.mobile.haml, lib/api/openid_connect/subject_identifier_creator.rb, lib/stream/aspect.rb, lib/stream/base.rb]","[app/controllers/blocks_controller.rb, app/controllers/conversations_controller.rb, app/controllers/messages_controller.rb, app/controllers/posts_controller.rb, app/controllers/reshares_controller.rb, app/models/account_deletion.rb, app/models/comment.rb, app/models/contact.rb, app/models/conversation.rb, app/models/like.rb, app/models/location.rb, app/models/mention.rb, app/models/message.rb, app/models/notification.rb, app/models/notifications/also_commented.rb, app/models/notifications/comment_on_post.rb, app/models/notifications/liked.rb, app/models/notifications/mentioned.rb, app/models/notifications/private_message.rb, app/models/notifications/reshared.rb, app/models/notifications/started_sharing.rb, app/models/participation.rb, app/models/person.rb, app/models/photo.rb, app/models/pod.rb, app/models/poll.rb, app/models/poll_answer.rb, app/models/poll_participation.rb, app/models/post.rb, app/models/profile.rb, app/models/reshare.rb, app/models/service.rb, app/models/services/facebook.rb, app/models/services/tumblr.rb, app/models/services/twitter.rb, app/models/share_visibility.rb, app/models/status_message.rb, app/models/user.rb, app/models/user/connecting.rb, app/models/user/social_actions.rb, app/services/notification_service.rb, app/services/status_message_creation_service.rb, app/views/notifications/_notification.haml, app/workers/base.rb, app/workers/deferred_dispatch.rb, app/workers/deferred_retraction.rb, app/workers/delete_post_from_service.rb, app/workers/receive_base.rb, app/workers/receive_local.rb, app/workers/receive_private.rb, app/workers/receive_public.rb, app/workers/send_base.rb, app/workers/send_private.rb, app/workers/send_public.rb, lib/diaspora.rb, lib/diaspora/exceptions.rb, lib/diaspora/federated.rb, lib/diaspora/federated/base.rb, lib/diaspora/federated/generator.rb, lib/diaspora/federated/retraction.rb, lib/diaspora/federation.rb, lib/diaspora/federation/dispatcher.rb, lib/diaspora/federation/dispatcher/private.rb, lib/diaspora/federation/dispatcher/public.rb, lib/diaspora/federation/entities.rb, lib/diaspora/federation/mappings.rb, lib/diaspora/federation/receive.rb, lib/diaspora/fetcher.rb, lib/diaspora/fields/author.rb, lib/diaspora/fields/guid.rb, lib/diaspora/fields/target.rb, lib/diaspora/relayable.rb, lib/diaspora/shareable.rb, lib/evil_query.rb]","0.0317460317","0.027027027","[9a033c7f68a237a1e9c0e4316d30abaaa02198e2, 9fda255addcebeffb38a007616fb70936848c461, 5e0b1dd28d144dd5e861399336031a88f8adff85, 5bed75b661b4bf46daf81f31a32f180079dc0302, 7241b1c05443b3690e57bcd1dbb2e9c47c49723f, 84ec00fa4d5c1f3a6c9e919617e76e4b630196c2, 3b1d113a9aabd94cd6e7c99909f819ae9d9c14d6, ab2118ffa5a330e7f4e573ee94675ba59d224c3d, 2f2fe71cdc09130317c7c858b5d3be68884c245b, 03317bc3fff824aa7131255c1ca4195b36b21748, e08306dab4ba29a36907fd52d1af8ea0672aae0d, 65f03b2d080f53e4fe10f48943320bef13bf0024, 7bdf4921fd1b8ce154c4e5e457caeb8e419b609a, bb0d7e46dce24892989c9784b89425ee0cc583e7, 1cf11db63414e41b1b12ebf110e27be02b7fb90c, 5e16b9c7cda3e7733b143b35b4f638d882c44af9, a81bdac38c5da390199ebb9f4dde4b3f7d542733, 9dfa8e14428bdf324bdeb58cced1ab65d1ed24f8, b3a9bf392591294f5d957e2da2162f2be3527dea, 70f378a1c197e0b201bcb2e0949aca6f7595bb04, f58167c1545c76fc7e2801b0ca08a2d43ebade56, 2367be3f6607b52f6d88b164e12cfec9cdb257a3, 709ad6e90902178452ad6fc94b4f73761038bf2a, 1c291260a282822d92191d2bbc7143b02b846cd4, c8d43a893da778d1fc1bab8e36ee740a7dd37ac7, 67688a602217f96a1ceec66b6c2820ae448a61d8, cf5a72719edbd2844b1840e590296ed0652715d3, 9fa3cc97d4958643f092724d87f087e9c30f4528, b39f3ccc7486a4fc48973854bf8379e70857fefd, 91c6c74ca0f887658ed6c6b6d7a19225e64a8e2b, 0f6e0b7288ca3350250d2d9f6842ab9dcc02634f, c15babdc9ff7e2842e22e1c2b380219d34b39919, 57dbcc0e67caf41944ff7e0dd70cdc1748b5b615, 03123f1c4d371e9e70ed098c5a3a403e91178bbf, 2476b74dbec83da02cfc88349461b0406e8405a7, dee8bc6f0e955d76055bf0ab4b7a07c0fccd8b37, f95e0faa378e9178fa67792bf033cadebaf962f7, bb66b973a6335f46f04ec513bc26280b9b8a111b, 0e6446d05fa4eb21b18026cf5b20abf585858e10, 4d8211b641d86ad5968ec731fb945cdbdb20c362, 9144a4aaddd47765b05aeee95b6ebb4984883b32, c8c489eafd0c4eb452547254fc8487b5611eb730, 51aca4506f65615571c0bd149b5ea19c3bb99530, ae05d4e92857e14c64fcd2fc233dec19922ccd2b, b0942bc2193b524f36c4526c6bd51419661c0388, 21fd9f23daa001c1d8ece81aab6e75c2886b79b0, fa5a35ed4a0378642986e21fb6ea107f155c36f9, d2219aa58fbf538b52ccaf713b0b27b2fc91e40d, 7893a2392709fb058f9d1947daa25588db5aa8e8, 566f4890a2f6bd7a8936369fbe51468e2c2ee130, 645034800d9e383da68fb10a4747801e6964360d, 902d7faca40e482d5d969266d1c30316613a061a, 42995cacc056869781aece180c2e363d425d6a3a, 3df70bb205eb9e0e35a9059d7173d1ceab8a04c4, 793f45ef2c1f7882bc701dfeb0cc60c485f0c916, 7f11beae376870f73fa751bb8f6f4ffabdc604a7, 65ba573a3b6ea9474dad44497a05dcbdf6809ad4, 89fbcf7c564cd0fe1088619a3730ce2081e4f037, 86b37466d56e3465633fb30cd3e903fb5d96e404, ecbf5fa3e710bafdc899576ece7a465350165fb3, 7db9d7733c80da0a698a520d1c9ef68b0703a521, 9ce9b4bcd06071cc6048cecb778efb59305f2c2e, caf5d562de73a3df7090191cf3292bcc39598b54, e843bf7b3cb68ff4643cfe29bb43163272687408, b89c1d0cd70264622b4388a57fbd4e3aabbe5381, 5f25135848513faafc359794e8d51cd748baf581, 05bd61d4ff4481a0a38d455e4eb03cf1b7cb1a9e, f53b5ffe6b1b9f8e1148fa82e5bdf8f2bcfe7bdf, 7184d4334ecd7bded57d3658d18494d0d59a8c74, 20dabbd15ffdf7f27e962c5cf90e334663a01835, f9f91a0e9e6457508891c9282dd1dcbf2f85b5a6, 970e8bb3ecbe219c3784db79350db6e59823d70c, 596659a78fd129e60ba35079c477f1a15950e9cb, 83f5662d629fd51d7966b42d958a8534034062ad, 645c7bd5ad99cb2484cddbd5cd9e09b3c37a7d93, 7bb172cefb8d4ca383cd791fe557e7e1b09a0f2d, 581f8d7226e79734f594d13452cd5861aecb5311, 102e2a083424c66f0b6cbceb019e6bb2ea7b694a, d87756c4b7db3cf4f2ff904367ba842e402e5164, 6fbfc2bf962567aa3f1435d19e5d4c9a5373ba72, aa3ec1b93caf1820bde7fe03b03c48fa280804ff, a7f6c84bf3a3aba724ac7c734a366d8f33c82156, 59bb46eeb6d15a1b96ff4f9a936ab55fe92c12e9, 58a5a881cff98d6ac3752166d22b473149f94c0d, ae96b4bf559de9b5c6e94c006fab80938f0f4b27, 9b0e40bf91f8c7b66193570df983493eb8c3e6d5, b067c33779d8aaf03af0c60e99e04a0ecd80e067, d55be67df17d303419d1d906f40e0556c6652246, f3466bcfd6955048e75d38ede590fc6a741e8ce7, 4fb34139b0b2fc5ec6556a42868f596de35bbd94, ebfb0aa884dbcfbd09cc6ec32271a583dd452f00, 97f4b0c2e424c8e00665e54312ae9a137bbea0ee, 53e14dd2d6de0f78730935bf0f0acfe973859edb, 481431ea0aaa4995d896d6f3d1c78ea370dfa012, 87666eeb35337b9e925b7b45e5716f6dc4b0b431, e0da6708f4375ae181a3bf8b99122547236fb325, e9f53265c90614dd034331708124d9ace8d78569, 9021268e7a9ddc63f6b98995d13c8b336f9bf8a1, dfe32a5e4b401168ad2a16c9cc95fea5a0628c60, 3a5990c552eda67aeca9fe78e96c1fc68d9c5eaf, 800fa1786cb1ce45af50ff258d0099af3ee003d7, 374915b45fbe2f73be7a8aa43b8625faef69f17c, 1790efad08ae81cd3c1b7a9552d33a3909349633, 4408efdff344178eaf12dfa224290894b327c9e1, 7596a49b469604a4ba4f924e7ece5c07b4333c8d, b1d30aa9ccf91df1131d8818761e4161fcba2e75, 88d91233d39c2fe6a4ee3b99cb8e9fe089cb2d40]","3.574 seconds","4.2.6","[cucumber-rails, rspec-rails, simplecov, factory_girl]","3","[{path=diaspora_diaspora/features/support/paths.rb, line=60}, {path=diaspora_diaspora/features/support/paths.rb, line=64}]","39","51","[app/controllers/admin/users_controller.rb, app/controllers/api/openid_connect/user_applications_controller.rb, app/controllers/contacts_controller.rb, app/controllers/home_controller.rb, app/controllers/invitation_codes_controller.rb, app/controllers/photos_controller.rb, app/controllers/profiles_controller.rb, app/controllers/services_controller.rb, app/controllers/streams_controller.rb, app/controllers/tags_controller.rb, app/controllers/users_controller.rb, app/helpers/people_helper.rb, app/views/api/openid_connect/user_applications/_add_remove_applications.haml, app/views/api/openid_connect/user_applications/index.html.haml, app/views/api/openid_connect/user_applications/index.mobile.haml, app/views/contacts/_aspect_listings.haml, app/views/contacts/_header.html.haml, app/views/contacts/_sidebar.html.haml, app/views/contacts/index.html.haml, app/views/contacts/index.mobile.haml, app/views/contacts/spotlight.haml, app/views/devise/passwords/new.haml, app/views/devise/passwords/new.mobile.haml, app/views/home/default.haml, app/views/home/podmin.haml, app/views/home/show.haml, app/views/people/_index.html.haml, app/views/people/_person.html.haml, app/views/photos/_index.mobile.haml, app/views/photos/_new_profile_photo.haml, app/views/photos/show.mobile.haml, app/views/profiles/_edit_private.haml, app/views/profiles/_edit_public.haml, app/views/profiles/edit.haml, app/views/profiles/edit.mobile.haml, app/views/publisher/_aspect_dropdown.html.haml, app/views/publisher/_publisher.html.haml, app/views/services/_add_remove_services.haml, app/views/services/index.html.haml, app/views/services/index.mobile.haml, app/views/sessions/_form.haml, app/views/shared/_public_explain.haml, app/views/shared/_settings_nav.haml, app/views/shared/_stream.haml, app/views/streams/main_stream.html.haml, app/views/streams/main_stream.mobile.haml, app/views/tags/show.haml, app/views/tags/show.mobile.haml, app/views/users/_edit.haml, app/views/users/edit.html.haml, app/views/users/edit.mobile.haml]","true","0.027855153173287763","0","","0",""
"diaspora","569","[18-06-2016]","1","1","[Use Poltergeist instead of Selenium ]","1","86","83","37","37","[now, within, fill_in, click_button, password, id, click_button, username, page, have_css, first_name, last_name, have_content, page, driver, clear_cookies, click, have_content, have_field, person, gsub, send, public_send, sender, diaspora_handle, raise, btn btn-block btn-primary, btn btn-primary, click_link, click_link, rows_hash, each, select, select, page, execute_script, attach_file, scan, flatten, current_scope, each, scan, flatten, current_scope, have_content, have_no_content, find_field, tag_name, be_truthy, be_falsey, evaluate_script, is_a?, delete, find, person, username, have_path_in, click, click, within, hover, accept_alert, trigger, accept_alert, accept_alert, accept_alert, dismiss_confirm, raise_error, find, have_css, have_no_css, is_a?, be, be_visible, find_field, visible?, delete, create_user, update_attributes!, update_attributes, hashes, has_key?, each, invitation_code, count, aspects, reload, find_by_name, where, connect_users, gsub, save!, connect_users_with_aspects, post, save, deliveries, blank?, html_part, raw_source, Nokogiri, css, detect, attributes, request_uri, length, to_i, response_headers, eq, merge, fill_in, include, assert_selector, have_selector, native, send_key, have_value, find, all, within, have_text, eq, find_button, send_keys, have_no_css, aspects, where, drag_to, have_text, pluck, have_selector, be_nil, native, send_key, include, uncheck, post, current_url, each_with_index, fill_in, gsub, send, public_send, sender, diaspora_handle, raise, btn btn-block btn-primary, btn btn-primary, native, send_key, have_value, have_css]","75","[path:features/desktop/photo_gallery.feature, size:1], [path:features/desktop/signs_up.feature, size:1], [path:features/step_definitions/user_steps.rb, size:1]","3","","0","","0","","0","","[]","[api_openid_connect_clients, app/views/contacts/_contact.html.haml, app/views/home/_show.html.haml, app/views/photos/_index.html.haml, app/views/shared/_stream_more_button.html.haml, have, new_integration_sessions, new_registration, new_session, person]","10","97","2","[app/controllers/admin/users_controller.rb, app/controllers/api/openid_connect/token_endpoint_controller.rb, app/controllers/api/openid_connect/user_applications_controller.rb, app/controllers/aspects_controller.rb, app/controllers/contacts_controller.rb, app/controllers/home_controller.rb, app/controllers/invitation_codes_controller.rb, app/controllers/people_controller.rb, app/controllers/photos_controller.rb, app/controllers/profiles_controller.rb, app/controllers/services_controller.rb, app/controllers/streams_controller.rb, app/controllers/tags_controller.rb, app/controllers/users_controller.rb, app/helpers/people_helper.rb, app/mailers/notification_mailers/base.rb, app/models/aspect.rb, app/models/comment.rb, app/models/conversation.rb, app/models/invitation.rb, app/models/invitation_code.rb, app/models/message.rb, app/models/person.rb, app/models/poll_participation.rb, app/models/post.rb, app/models/profile.rb, app/models/reshare.rb, app/models/status_message.rb, app/models/tag_following.rb, app/models/user.rb, app/models/user/querying.rb, app/models/user/social_actions.rb, app/presenters/node_info_presenter.rb, app/presenters/post_presenter.rb, app/presenters/user_application_presenter.rb, app/presenters/user_presenter.rb, app/serializers/user_info_serializer.rb, app/services/post_service.rb, app/services/status_message_creation_service.rb, app/views/api/openid_connect/user_applications/_add_remove_applications.haml, app/views/api/openid_connect/user_applications/index.html.haml, app/views/api/openid_connect/user_applications/index.mobile.haml, app/views/aspect_memberships/_aspect_membership_dropdown.haml, app/views/contacts/_aspect_listings.haml, app/views/contacts/_header.html.haml, app/views/contacts/_sidebar.html.haml, app/views/contacts/index.html.haml, app/views/contacts/index.mobile.haml, app/views/contacts/spotlight.haml, app/views/devise/passwords/new.haml, app/views/devise/passwords/new.mobile.haml, app/views/home/default.haml, app/views/home/show.haml, app/views/people/_index.html.haml, app/views/people/_person.html.haml, app/views/people/show.html.haml, app/views/people/show.mobile.haml, app/views/photos/_index.mobile.haml, app/views/photos/_new_profile_photo.haml, app/views/photos/show.mobile.haml, app/views/profiles/_edit_private.haml, app/views/profiles/_edit_public.haml, app/views/profiles/edit.haml, app/views/profiles/edit.mobile.haml, app/views/publisher/_aspect_dropdown.html.haml, app/views/publisher/_publisher.html.haml, app/views/services/_add_remove_services.haml, app/views/services/index.html.haml, app/views/services/index.mobile.haml, app/views/shared/_public_explain.haml, app/views/shared/_settings_nav.haml, app/views/shared/_stream.haml, app/views/streams/main_stream.html.haml, app/views/streams/main_stream.mobile.haml, app/views/tags/show.haml, app/views/tags/show.mobile.haml, app/views/users/_edit.haml, app/views/users/edit.html.haml, app/views/users/edit.mobile.haml, app/workers/base.rb, lib/api/openid_connect/subject_identifier_creator.rb, lib/bookmarklet_renderer.rb, lib/connection_tester.rb, lib/diaspora/federated/base.rb, lib/diaspora/federated/relayable_retraction.rb, lib/diaspora/federated/request.rb, lib/diaspora/federated/shareable.rb, lib/diaspora/federated/signed_retraction.rb, lib/diaspora/markdownify/email.rb, lib/diaspora/message_renderer.rb, lib/diaspora/taggable.rb, lib/email_inviter.rb, lib/federated/generator.rb, lib/federated/relayable.rb, lib/publisher.rb, lib/stream/aspect.rb, lib/stream/base.rb]","[app/views/aspect_memberships/_aspect_membership_dropdown.mobile.haml, app/views/photos/_new_profile_photo.haml]","0.0103092784","0.5","[629e6382ec1075c5feeb6b1a5e0e005380f49ad3]","12.262 seconds","4.2.6","[cucumber-rails, rspec-rails, simplecov, factory_girl]","12","[{path=diaspora_diaspora/features/support/paths.rb, line=60}, {path=diaspora_diaspora/features/support/paths.rb, line=64}, {path=diaspora_diaspora/features/step_definitions/user_steps.rb, line=-1}]","40","54","[app/controllers/admin/users_controller.rb, app/controllers/api/openid_connect/token_endpoint_controller.rb, app/controllers/api/openid_connect/user_applications_controller.rb, app/controllers/contacts_controller.rb, app/controllers/home_controller.rb, app/controllers/invitation_codes_controller.rb, app/controllers/people_controller.rb, app/controllers/photos_controller.rb, app/controllers/profiles_controller.rb, app/controllers/services_controller.rb, app/controllers/streams_controller.rb, app/controllers/tags_controller.rb, app/controllers/users_controller.rb, app/helpers/people_helper.rb, app/views/api/openid_connect/user_applications/_add_remove_applications.haml, app/views/api/openid_connect/user_applications/index.html.haml, app/views/api/openid_connect/user_applications/index.mobile.haml, app/views/aspect_memberships/_aspect_membership_dropdown.haml, app/views/contacts/_aspect_listings.haml, app/views/contacts/_header.html.haml, app/views/contacts/_sidebar.html.haml, app/views/contacts/index.html.haml, app/views/contacts/index.mobile.haml, app/views/contacts/spotlight.haml, app/views/devise/passwords/new.haml, app/views/devise/passwords/new.mobile.haml, app/views/home/default.haml, app/views/home/show.haml, app/views/people/_index.html.haml, app/views/people/_person.html.haml, app/views/people/show.html.haml, app/views/people/show.mobile.haml, app/views/photos/_index.mobile.haml, app/views/photos/_new_profile_photo.haml, app/views/photos/show.mobile.haml, app/views/profiles/_edit_private.haml, app/views/profiles/_edit_public.haml, app/views/profiles/edit.haml, app/views/profiles/edit.mobile.haml, app/views/publisher/_aspect_dropdown.html.haml, app/views/publisher/_publisher.html.haml, app/views/services/_add_remove_services.haml, app/views/services/index.html.haml, app/views/services/index.mobile.haml, app/views/shared/_public_explain.haml, app/views/shared/_settings_nav.haml, app/views/shared/_stream.haml, app/views/streams/main_stream.html.haml, app/views/streams/main_stream.mobile.haml, app/views/tags/show.haml, app/views/tags/show.mobile.haml, app/views/users/_edit.haml, app/views/users/edit.html.haml, app/views/users/edit.mobile.haml]","false","0.047619047830204084","0","","0",""
"diaspora","618","[21-03-2016, 22-03-2016]","2","12","[Fix conversations participants design regression , Merge pull request #6535 from Flaburgan/stream-modification  Design of stream pages , split left column , Fix tests , collapse left navbar sections , Max-width for the whole content , Fix original white theme , Fix getting started help  Add temp max-width to the streams  Back to white bg for left menu  Fix invitation code selection  fix pronto errors , remove dark gray left column on tag page , collapse the sidebars to the side of the screen even on big screens  Drop right side bar, move content to left side bar  Move user avatar and name from the left nav bar to the left of the publisher , Merge pull request #6764 from svbergerem/unify-registration-session-form  Unify mobile and desktop registration and session forms , Unify mobile and desktop registration and session forms ]","4","7","7","2","2","[click, click, page, driver, browser, switch_to, alert, accept, each, evaluate_script, be, click_button, click_button, click_link, click_link, rows_hash, scan, flatten, current_scope, have_content, is_a?, delete, find, within, person, gsub, send, public_send, sender, diaspora_handle, raise, btn btn-block btn-primary, btn btn-primary, find, within, hashes, has_key?, each, invitation_code, count, connect_users_with_aspects, where, post, save, deliveries, length, to_i, blank?, html_part, raw_source, fill_in, id, page, first_name, last_name, has_content?, delete_cookie, delete_all_visible_cookies, have_field, person, gsub, send, public_send, sender, diaspora_handle, raise, btn btn-block btn-primary, btn btn-primary, find, native, send_keys, within, name, hover, fill_in, create_user, update_attributes!, merge]","7","[path:features/step_definitions/user_steps.rb, size:1]","1","","0","","0","","0","","[app/views/shared/_right_sections.html.haml]","[app/views/contacts/_contact.html.haml, app/views/home/_show.html.haml, app/views/shared/_stream_more_button.html.haml, have, new_integration_sessions, new_registration, new_session, person]","8","70","18","[app/controllers/admin/users_controller.rb, app/controllers/api/openid_connect/user_applications_controller.rb, app/controllers/aspects_controller.rb, app/controllers/contacts_controller.rb, app/controllers/home_controller.rb, app/controllers/invitation_codes_controller.rb, app/controllers/photos_controller.rb, app/controllers/profiles_controller.rb, app/controllers/services_controller.rb, app/controllers/streams_controller.rb, app/controllers/tags_controller.rb, app/controllers/users_controller.rb, app/helpers/people_helper.rb, app/models/aspect.rb, app/models/invitation.rb, app/models/invitation_code.rb, app/models/person.rb, app/models/user.rb, app/presenters/node_info_presenter.rb, app/presenters/post_presenter.rb, app/presenters/user_application_presenter.rb, app/presenters/user_presenter.rb, app/serializers/user_info_serializer.rb, app/services/post_service.rb, app/services/status_message_creation_service.rb, app/views/api/openid_connect/user_applications/_add_remove_applications.haml, app/views/api/openid_connect/user_applications/index.html.haml, app/views/api/openid_connect/user_applications/index.mobile.haml, app/views/contacts/_aspect_listings.haml, app/views/contacts/_header.html.haml, app/views/contacts/_sidebar.html.haml, app/views/contacts/index.html.haml, app/views/contacts/index.mobile.haml, app/views/contacts/spotlight.haml, app/views/devise/passwords/new.haml, app/views/devise/passwords/new.mobile.haml, app/views/home/default.haml, app/views/home/show.haml, app/views/people/_index.html.haml, app/views/people/_person.html.haml, app/views/photos/_index.mobile.haml, app/views/photos/_new_profile_photo.haml, app/views/photos/show.mobile.haml, app/views/profiles/_edit_private.haml, app/views/profiles/_edit_public.haml, app/views/profiles/edit.haml, app/views/profiles/edit.mobile.haml, app/views/publisher/_aspect_dropdown.html.haml, app/views/publisher/_publisher.html.haml, app/views/services/_add_remove_services.haml, app/views/services/index.html.haml, app/views/services/index.mobile.haml, app/views/shared/_public_explain.haml, app/views/shared/_settings_nav.haml, app/views/shared/_stream.haml, app/views/streams/main_stream.html.haml, app/views/streams/main_stream.mobile.haml, app/views/tags/show.haml, app/views/tags/show.mobile.haml, app/views/users/_edit.haml, app/views/users/edit.html.haml, app/views/users/edit.mobile.haml, lib/api/openid_connect/subject_identifier_creator.rb, lib/bookmarklet_renderer.rb, lib/diaspora/federated/request.rb, lib/diaspora/message_renderer.rb, lib/email_inviter.rb, lib/publisher.rb, lib/stream/aspect.rb, lib/stream/base.rb]","[app/helpers/publisher_helper.rb, app/views/api/openid_connect/user_applications/index.html.haml, app/views/aspects/_aspect_stream.haml, app/views/conversations/_show.haml, app/views/conversations/index.haml, app/views/profiles/edit.haml, app/views/publisher/_publisher.html.haml, app/views/publisher/_publisher.mobile.haml, app/views/registrations/_form.haml, app/views/registrations/new.haml, app/views/registrations/new.mobile.haml, app/views/services/index.html.haml, app/views/sessions/_form.haml, app/views/sessions/new.html.haml, app/views/sessions/new.mobile.haml, app/views/shared/_settings_nav.haml, app/views/streams/main_stream.html.haml, app/views/tags/show.haml]","0.1","0.3888888889","[0cbb1233aabfe10918348f6cad75b0c38ab98041, be05f454e4d210c0dee3463782ea7d028d6b9f12, 847fdb0de9087a8bdb9bba9ac2fe43baf8541ad0, 5ff085affff8f1528e5b6e88df98a281a7fa0344, a10601f9a94c26a6131d84b74217e0110bd70626, 70140259ba8ac15a9af912779115a6eaa76e64c1, d0d3df05eb64b4ad5f42db469572464c22f4e1a5, 3c2bc54061f205565581fe90eae6f24372147bb5, 76f74ebc0becff1f62938e7f31095fd44efd6191, 5f446330e22112b5d99529833da596dabeda9ba1, 49b71d304271f6fa4e0e7de1b8735bc33e2d2a99, 832c85d835501d69580e768b317722ed6bc64519]","6.796 seconds","4.2.5.2","[cucumber-rails, rspec-rails, simplecov, factory_girl]","3","[{path=diaspora_diaspora/features/support/paths.rb, line=60}, {path=diaspora_diaspora/features/support/paths.rb, line=64}]","37","49","[app/controllers/admin/users_controller.rb, app/controllers/api/openid_connect/user_applications_controller.rb, app/controllers/contacts_controller.rb, app/controllers/home_controller.rb, app/controllers/invitation_codes_controller.rb, app/controllers/photos_controller.rb, app/controllers/profiles_controller.rb, app/controllers/services_controller.rb, app/controllers/streams_controller.rb, app/controllers/tags_controller.rb, app/controllers/users_controller.rb, app/helpers/people_helper.rb, app/views/api/openid_connect/user_applications/_add_remove_applications.haml, app/views/api/openid_connect/user_applications/index.html.haml, app/views/api/openid_connect/user_applications/index.mobile.haml, app/views/contacts/_aspect_listings.haml, app/views/contacts/_header.html.haml, app/views/contacts/_sidebar.html.haml, app/views/contacts/index.html.haml, app/views/contacts/index.mobile.haml, app/views/contacts/spotlight.haml, app/views/devise/passwords/new.haml, app/views/devise/passwords/new.mobile.haml, app/views/home/default.haml, app/views/home/show.haml, app/views/people/_index.html.haml, app/views/people/_person.html.haml, app/views/photos/_index.mobile.haml, app/views/photos/_new_profile_photo.haml, app/views/photos/show.mobile.haml, app/views/profiles/_edit_private.haml, app/views/profiles/_edit_public.haml, app/views/profiles/edit.haml, app/views/profiles/edit.mobile.haml, app/views/publisher/_aspect_dropdown.html.haml, app/views/publisher/_publisher.html.haml, app/views/services/_add_remove_services.haml, app/views/services/index.html.haml, app/views/services/index.mobile.haml, app/views/shared/_public_explain.haml, app/views/shared/_settings_nav.haml, app/views/shared/_stream.haml, app/views/streams/main_stream.html.haml, app/views/streams/main_stream.mobile.haml, app/views/tags/show.haml, app/views/tags/show.mobile.haml, app/views/users/_edit.haml, app/views/users/edit.html.haml, app/views/users/edit.mobile.haml]","true","0.24647887324300732","0","","0",""
"diaspora","866","[27-08-2015]","1","1","[Using Blueimp image gallery ]","1","2","0","0","0","[]","0","[path:features/desktop/photo_gallery.feature, size:1]","1","","0","","0","","0","","[]","","0","0","3","[]","[app/views/layouts/_header.html.haml, app/views/layouts/application.html.haml, app/views/people/show.html.haml]","0.0","0.0","[63bfcb7c98e540b1e53cdc74d45687e89d05084a]","0.186 seconds","4.2.4","[cucumber-rails, rspec-rails, simplecov, factory_girl]","0","[]","0","0","[]","false","0.0","0","","0",""
"diaspora","921","[26-07-2015]","1","1","[Merge branch 'release/0.5.2.0' ]","1","5","4","4","4","[scan, flatten, current_scope, have_content, each, is_a?, delete, find, within, person, send, id, sender, diaspora_handle, raise, btn btn-block, btn, button, btn btn-danger, create_user, click_link, fill_in, click_button, page, has_css?, post, to_i, find, click, raise_error, visible?, delete, find]","0","[path:features/desktop/signs_up.feature, size:1]","1","","0","","0","","0","","[app/helpers/publics_helper.rb, app/views/publics/hcard.haml, app/views/publics/host_meta.erb, app/views/publics/webfinger.erb]","[app/views/contacts/_contact.html.haml, app/views/home/_show.html.haml, app/views/shared/_stream_more_button.html.haml, download_photos_user, download_profile_user, getting_started, getting_started_completed, new_integration_sessions, new_registration, new_session, person, privacy_settings]","12","80","18","[app/controllers/admin/users_controller.rb, app/controllers/aspects_controller.rb, app/controllers/blocks_controller.rb, app/controllers/contacts_controller.rb, app/controllers/home_controller.rb, app/controllers/invitation_codes_controller.rb, app/controllers/photos_controller.rb, app/controllers/profiles_controller.rb, app/controllers/services_controller.rb, app/controllers/statistics_controller.rb, app/controllers/status_messages_controller.rb, app/controllers/streams_controller.rb, app/controllers/tags_controller.rb, app/controllers/terms_controller.rb, app/controllers/users_controller.rb, app/helpers/application_helper.rb, app/helpers/people_helper.rb, app/models/block.rb, app/models/invitation_code.rb, app/models/photo.rb, app/models/user.rb, app/presenters/post_presenter.rb, app/views/aspects/_aspect_listings.haml, app/views/aspects/_aspect_stream.haml, app/views/aspects/_no_contacts_message.haml, app/views/aspects/_no_posts_message.haml, app/views/contacts/_aspect_listings.haml, app/views/contacts/_header.html.haml, app/views/contacts/_sidebar.html.haml, app/views/contacts/index.html.haml, app/views/contacts/index.mobile.haml, app/views/contacts/spotlight.haml, app/views/devise/passwords/new.haml, app/views/devise/passwords/new.mobile.haml, app/views/home/default.haml, app/views/home/show.haml, app/views/people/_index.html.haml, app/views/people/_person.html.haml, app/views/photos/_index.html.haml, app/views/photos/_new_profile_photo.haml, app/views/photos/_new_profile_photo.mobile.haml, app/views/photos/_photo.haml, app/views/photos/edit.html.haml, app/views/photos/show.mobile.haml, app/views/profiles/_edit.haml, app/views/profiles/_edit_public.haml, app/views/profiles/edit.haml, app/views/profiles/edit.mobile.haml, app/views/publisher/_aspect_dropdown.html.haml, app/views/publisher/_publisher.html.haml, app/views/services/_add_remove_services.haml, app/views/services/index.html.haml, app/views/shared/_donatepod.html.haml, app/views/shared/_invitations.haml, app/views/shared/_links.haml, app/views/shared/_public_explain.haml, app/views/shared/_right_sections.html.haml, app/views/shared/_settings_nav.haml, app/views/shared/_stream.haml, app/views/statistics/_statistic.haml, app/views/statistics/_statistics.haml, app/views/statistics/statistics.html.haml, app/views/statistics/statistics.mobile.haml, app/views/status_messages/bookmarklet.html.haml, app/views/status_messages/bookmarklet.mobile.haml, app/views/streams/main_stream.html.haml, app/views/streams/main_stream.mobile.haml, app/views/tags/_followed_tags_listings.haml, app/views/tags/show.haml, app/views/tags/show.mobile.haml, app/views/terms/default.haml, app/views/users/_close_account_modal.haml, app/views/users/edit.html.haml, app/views/users/edit.mobile.haml, app/views/users/getting_started.haml, app/views/users/getting_started.mobile.haml, app/views/users/privacy_settings.html.haml, lib/diaspora/federated/request.rb, lib/stream/aspect.rb, lib/stream/base.rb]","[app/controllers/publics_controller.rb, app/controllers/registrations_controller.rb, app/helpers/jsxc_helper.rb, app/helpers/layout_helper.rb, app/helpers/people_helper.rb, app/models/conversation.rb, app/models/person.rb, app/models/user.rb, app/serializers/export/comment_serializer.rb, app/serializers/export/post_serializer.rb, app/views/shared/_links.haml, app/views/shared/_public_explain.haml, app/views/shared/_stream_more_button.mobile.haml, app/workers/clean_cached_files.rb, app/workers/publish_to_hub.rb, lib/configuration_methods.rb, lib/postzord/dispatcher.rb, lib/postzord/receiver/private.rb]","0.05","0.2222222222","[ff6f437c2130d9b3b3431362b4c18511d2d9de2f]","3.859 seconds","4.2.3","[cucumber-rails, rspec-rails, simplecov, factory_girl]","3","[{path=diaspora_diaspora/features/support/paths.rb, line=62}, {path=diaspora_diaspora/features/support/paths.rb, line=60}]","55","70","[app/controllers/admin/users_controller.rb, app/controllers/contacts_controller.rb, app/controllers/home_controller.rb, app/controllers/invitation_codes_controller.rb, app/controllers/photos_controller.rb, app/controllers/profiles_controller.rb, app/controllers/services_controller.rb, app/controllers/statistics_controller.rb, app/controllers/status_messages_controller.rb, app/controllers/streams_controller.rb, app/controllers/tags_controller.rb, app/controllers/terms_controller.rb, app/controllers/users_controller.rb, app/helpers/application_helper.rb, app/helpers/people_helper.rb, app/views/aspects/_aspect_listings.haml, app/views/aspects/_aspect_stream.haml, app/views/aspects/_no_contacts_message.haml, app/views/aspects/_no_posts_message.haml, app/views/contacts/_aspect_listings.haml, app/views/contacts/_header.html.haml, app/views/contacts/_sidebar.html.haml, app/views/contacts/index.html.haml, app/views/contacts/index.mobile.haml, app/views/contacts/spotlight.haml, app/views/devise/passwords/new.haml, app/views/devise/passwords/new.mobile.haml, app/views/home/default.haml, app/views/home/show.haml, app/views/people/_index.html.haml, app/views/people/_person.html.haml, app/views/photos/_index.html.haml, app/views/photos/_new_profile_photo.haml, app/views/photos/_new_profile_photo.mobile.haml, app/views/photos/_photo.haml, app/views/photos/edit.html.haml, app/views/photos/show.mobile.haml, app/views/profiles/_edit.haml, app/views/profiles/_edit_public.haml, app/views/profiles/edit.haml, app/views/profiles/edit.mobile.haml, app/views/publisher/_aspect_dropdown.html.haml, app/views/publisher/_publisher.html.haml, app/views/services/_add_remove_services.haml, app/views/services/index.html.haml, app/views/shared/_donatepod.html.haml, app/views/shared/_invitations.haml, app/views/shared/_links.haml, app/views/shared/_public_explain.haml, app/views/shared/_right_sections.html.haml, app/views/shared/_settings_nav.haml, app/views/shared/_stream.haml, app/views/statistics/_statistic.haml, app/views/statistics/_statistics.haml, app/views/statistics/statistics.html.haml, app/views/statistics/statistics.mobile.haml, app/views/status_messages/bookmarklet.html.haml, app/views/status_messages/bookmarklet.mobile.haml, app/views/streams/main_stream.html.haml, app/views/streams/main_stream.mobile.haml, app/views/tags/_followed_tags_listings.haml, app/views/tags/show.haml, app/views/tags/show.mobile.haml, app/views/terms/default.haml, app/views/users/_close_account_modal.haml, app/views/users/edit.html.haml, app/views/users/edit.mobile.haml, app/views/users/getting_started.haml, app/views/users/getting_started.mobile.haml, app/views/users/privacy_settings.html.haml]","true","0.13157894736218836","0","","0",""
"diaspora","983","[03-07-2015]","1","1","[Fix bug where flash error reappeared #6136  closes #6146 closes #6136 ]","1","1","0","3","3","[raise_error, visible?, delete, find, click_link, fill_in]","0","[path:features/desktop/signs_up.feature, size:1]","1","","0","","0","","0","","[]","","0","0","1","[]","[app/controllers/registrations_controller.rb]","0.0","0.0","[d410d2ee761e0d9c1d940142c9ff59425acc5b25]","0.206 seconds","4.2.3","[cucumber-rails, rspec-rails, simplecov, factory_girl]","0","[]","0","0","[]","false","0.0","0","","0",""
