"Repository","https://github.com/jekyll/jekyll.git"
"Precision mean (RT)","0.2738095238"
"Precision median (RT)","0.3333333333"
"Precision standard deviation (RT)","0.2227177015909458"
"Recall mean (RT)","0.4166666666642857"
"Recall median (RT)","0.29166666664999996"
"Recall standard deviation (RT)","0.4211299411711956"
"F2 mean (RT)","0.3676805650451261"
"F2 median (RT)","0.2982456140163435"
"F2 standard deviation (RT)","0.34987455372296444"
"Correlation #Test-Precision","-0.17"
"Correlation #Test-Recall","-0.13"
"Task","Dates","#Devs","#Commits","Hashes","#Gherkin_Tests","#Sted_defs","#TestI","#TaskI","TestI","TaskI","Precision","Recall","Rails","#visit_call","Lost_visit_call","#Views_TestI","#Code_View_Analysis","Code_View_Analysis","Methods_Unknown_Type","Renamed_Files","Deleted_Files","NotFound_Views","#NotFound_Views","Timestamp","Has_Merge","#FP","#FN","FP","FN","#Hits","Hits","f2"
"2331","[06-01-2010]","1","3","[7806a0d6bb241c578978bbd84a52e61e19ad5933, 5c17d6266d0838b477b07880ac7211e084413c6e, d25f41915987f4daad1488077c1b5cb03d2cc78f]","14","0","3","2","[lib/jekyll/page.rb, lib/jekyll/post.rb, lib/jekyll/static_file.rb]","[lib/jekyll/convertible.rb, lib/jekyll/post.rb]","0.3333333333","0.5","","0","[]","0","0","[]","[close, hashes, strftime, gsub, chomp, each, readlines, assert_match, nil?, system]","","[]","","0","0.066 seconds","false","2","1","[lib/jekyll/page.rb, lib/jekyll/static_file.rb]","[lib/jekyll/convertible.rb]","1","[lib/jekyll/post.rb]","0.4545454545330579"
"2354","[24-04-2009, 25-04-2009]","1","5","[080108b0f0a5cc50aa1eefdc80dc2d03897baef7, 9da140fcb2277c6201e50980a8a6f774dac4cf29, 288d5045d2fbb278505d120259bc29a6b6b9b74f, 73fa7dcad41be24e0d5f32856361c07b5622d7f3, f3fd105b40afa0ee3c6e313123abcb7cfb8b5b68]","7","0","2","1","[lib/jekyll/page.rb, lib/jekyll/post.rb]","[lib/jekyll/post.rb]","0.5","1.0","","0","[]","0","0","[]","[close, hashes, strftime, gsub, chomp, each, readlines, assert_match, system]","","[]","","0","0.031 seconds","false","1","0","[lib/jekyll/page.rb]","[]","1","[lib/jekyll/post.rb]","0.8333333333333333"
"2339","[29-11-2009]","1","1","[fab5a715c5c914bd3b939b7a000b410798f2a8a5]","4","2","2","2","[lib/jekyll/page.rb, lib/jekyll/post.rb]","[lib/jekyll.rb, lib/jekyll/site.rb]","0.0","0.0","","0","[]","0","0","[]","[close, readlines, assert_match, assert_no_match, nil?, system]","","[]","","0","0.135 seconds","false","2","2","[lib/jekyll/page.rb, lib/jekyll/post.rb]","[lib/jekyll.rb, lib/jekyll/site.rb]","0","[]","0.0"
"2349","[01-05-2009, 03-05-2009, 06-05-2009, 08-05-2009, 09-05-2009]","3","9","[8a11c0e92a7efc1013c8af8e9be6afae68fb86c4, 6f90939221248b33f66bcd1a89fbdd9c33ac8f29, 8a926d4f2943f6f1423fadda975a0f019f4e81a8, a42690dd38ab7f7365fe2910a4c30a7439790ba9, d948e0da91b756f5736298d7e6b6d90ec7fb9dfc, 35a467117ee72e92e1b7808a0419f15a487b7b46, 69683467031b3a34c64fc160ff6ea8fd18aa0466, 445347e25995f58cafd22bd374244c257b122876, 53368cc3e1c932726716676a1eea61da898220d8]","4","3","3","3","[lib/jekyll/convertible.rb, lib/jekyll/page.rb, lib/jekyll/post.rb]","[lib/jekyll.rb, lib/jekyll/filters.rb, lib/jekyll/site.rb]","0.0","0.0","","0","[]","0","0","[]","[close, hashes, each, readlines, assert_match, nil?, system]","","[]","","0","0.027 seconds","false","3","3","[lib/jekyll/convertible.rb, lib/jekyll/page.rb, lib/jekyll/post.rb]","[lib/jekyll.rb, lib/jekyll/filters.rb, lib/jekyll/site.rb]","0","[]","0.0"
"2325","[10-01-2010, 12-01-2010, 14-01-2010]","2","6","[2b2e027b34a60cbb438dd048a4a532858cd5bbe6, fff313a62dc6712654e4da6c668caa3c873b54a1, 6dcfe1283a775fcf4a27c3a395e05714c2aa9c4a, b68149c7bc861cb758c6b0f8b211261705cc2452, a076ce070284702b108fd1e128b0de3011df948c, 58b4ffd93595720fa63cec45b349631e90d3b4db]","3","0","3","3","[lib/jekyll/page.rb, lib/jekyll/post.rb, lib/jekyll/static_file.rb]","[lib/jekyll/page.rb, lib/jekyll/site.rb, lib/jekyll/tags/highlight.rb]","0.3333333333","0.3333333333","","0","[]","0","0","[]","[close, hashes, strftime, gsub, chomp, each, readlines, assert_match, nil?, system]","","[]","","0","0.034 seconds","false","2","2","[lib/jekyll/post.rb, lib/jekyll/static_file.rb]","[lib/jekyll/site.rb, lib/jekyll/tags/highlight.rb]","1","[lib/jekyll/page.rb]","0.3333333333"
"2340","[04-01-2010, 05-01-2010]","1","3","[0cb1ebcda18306ab165e18556428c2d940bbcb5b, b5916caf4bc9082574a008a45482c617e19687e1, 5ea06f3ad9bcf62d419ebc8bca505e33d58205c3]","3","4","3","4","[lib/jekyll/page.rb, lib/jekyll/post.rb, lib/jekyll/static_file.rb]","[lib/jekyll.rb, lib/jekyll/pager.rb, lib/jekyll/site.rb, lib/jekyll/static_file.rb]","0.3333333333","0.25","","0","[]","0","0","[]","[close, hashes, strftime, gsub, chomp, each, readlines, assert_match, nil?, system]","","[]","","0","0.047 seconds","false","2","3","[lib/jekyll/page.rb, lib/jekyll/post.rb]","[lib/jekyll.rb, lib/jekyll/pager.rb, lib/jekyll/site.rb]","1","[lib/jekyll/static_file.rb]","0.26315789473268697"
"2348","[01-06-2009, 02-06-2009, 03-06-2009]","1","6","[8379958d957d81065ff6961adca6b427538a2e35, d8d7ae3f0ec2189f5c637538c311b75a098b09f9, 5bbdf2239dfe43bfac637118d2bf8edbc51e2e9d, 937efcf8b8f781b724bcbf4854fcfcd2f658e324, a116eaf0eefd88519a4c0c19910432accb01cc98, d79d94277b72fb8bc429242524fd9dffa0df00fd]","3","0","2","2","[lib/jekyll/page.rb, lib/jekyll/post.rb]","[lib/jekyll/post.rb, lib/jekyll/site.rb]","0.5","0.5","","0","[]","0","0","[]","[close, hashes, strftime, gsub, chomp, each, readlines, assert_match, nil?, system]","","[]","","0","0.025 seconds","false","1","1","[lib/jekyll/page.rb]","[lib/jekyll/site.rb]","1","[lib/jekyll/post.rb]","0.5"
"2352","[23-04-2009, 24-04-2009]","1","3","[1f6940feb2da4f804b7acf0141512d8ad31affa9, 9a0485e81265c892734b4199ca3423610eef12f3, 5b540cf744bf4994c4c374c792da2d3ab17f9fff]","3","0","2","1","[lib/jekyll/page.rb, lib/jekyll/post.rb]","[lib/jekyll/site.rb]","0.0","0.0","","0","[]","0","0","[]","[close, readlines, assert_match, system]","","[]","","0","0.024 seconds","false","2","1","[lib/jekyll/page.rb, lib/jekyll/post.rb]","[lib/jekyll/site.rb]","0","[]","0.0"
"2322","[08-06-2009]","1","2","[0a1e3cd2508c797d7b8d1038636a6e7111e5cd3d, 535d78de7d25045341d0501ac6fbb244a09e5a5c]","2","0","2","1","[lib/jekyll/page.rb, lib/jekyll/post.rb]","[lib/jekyll/post.rb]","0.5","1.0","","0","[]","0","0","[]","[close, hashes, strftime, gsub, chomp, each, readlines, assert_match, nil?, system]","","[]","","0","0.023 seconds","false","1","0","[lib/jekyll/page.rb]","[]","1","[lib/jekyll/post.rb]","0.8333333333333333"
"2323","[14-01-2010]","1","3","[ba77a024d6eeb12c5e3113ab37fa8ef9e8489794, 0756d1f765a7cc7815fad5975a61393234fc0762, d88354e2dff644248c94617b8a20d12c7cb78bb3]","2","1","3","1","[lib/jekyll/page.rb, lib/jekyll/post.rb, lib/jekyll/static_file.rb]","[lib/jekyll/tags/highlight.rb]","0.0","0.0","","0","[]","0","0","[]","[close, readlines, assert_match, nil?, system]","","[]","","0","0.024 seconds","false","3","1","[lib/jekyll/page.rb, lib/jekyll/post.rb, lib/jekyll/static_file.rb]","[lib/jekyll/tags/highlight.rb]","0","[]","0.0"
"2350","[03-04-2009, 04-04-2009, 24-04-2009]","1","5","[6eb29a4808cc9cb585b6d48548d401d23a3d5875, 2e00c5957b408361df3ff261614ac011ef7725b3, f099d00cb0b7875c5cd7dee4fe68fc47bd2b4821, 808d6c6a628de0f50eaee667a13bdbd58d96a4af, 556131793fdde439d58b277cca43cfe843b42d94]","2","2","3","4","[lib/jekyll/convertible.rb, lib/jekyll/page.rb, lib/jekyll/post.rb]","[lib/jekyll.rb, lib/jekyll/page.rb, lib/jekyll/pager.rb, lib/jekyll/site.rb]","0.3333333333","0.25","","0","[]","0","0","[]","[close, hashes, strftime, gsub, chomp, each, readlines, chomp, assert_equal, system]","","[]","","0","0.024 seconds","false","2","3","[lib/jekyll/convertible.rb, lib/jekyll/post.rb]","[lib/jekyll.rb, lib/jekyll/pager.rb, lib/jekyll/site.rb]","1","[lib/jekyll/page.rb]","0.26315789473268697"
"2324","[29-06-2009]","1","1","[a49326719132242c05e744f59d3c8b4afc1435e2]","1","0","2","1","[lib/jekyll/page.rb, lib/jekyll/post.rb]","[lib/jekyll/page.rb]","0.5","1.0","","0","[]","0","0","[]","[close, readlines, assert_match, nil?, system]","","[]","","0","0.022 seconds","false","1","0","[lib/jekyll/post.rb]","[]","1","[lib/jekyll/page.rb]","0.8333333333333333"
"2343","[24-06-2009]","2","5","[ec637a13e9f54a438b023c746c82a2895138f0a3, 05e8deae8dba106475fe596eabb05ebcbdedca68, 3bc4f590eaf3229af82c337c8bbee158d834a1b6, 237df13778a9bb0b5bc27dc90e9a30667fe021ca, 74b17ff777280cb34033236534dd12efdcdd4271]","1","0","2","1","[lib/jekyll/page.rb, lib/jekyll/post.rb]","[lib/jekyll/site.rb]","0.0","0.0","","0","[]","0","0","[]","[close, readlines, assert_match, nil?, system]","","[]","","0","0.019 seconds","false","2","1","[lib/jekyll/page.rb, lib/jekyll/post.rb]","[lib/jekyll/site.rb]","0","[]","0.0"
"2346","[10-05-2009]","1","2","[49c39f43a1c19958ab414692736987b2ae1c8b37, ee0167d7060bd967204d30fb9736a23d3d134974]","1","0","2","1","[lib/jekyll/page.rb, lib/jekyll/post.rb]","[lib/jekyll/page.rb]","0.5","1.0","","0","[]","0","0","[]","[close, readlines, assert_match, nil?, system]","","[]","","0","0.019 seconds","false","1","0","[lib/jekyll/post.rb]","[]","1","[lib/jekyll/page.rb]","0.8333333333333333"
