"Repository","https://github.com/ministryofjustice/Claim-for-Crown-Court-Defence.git"
"TASK","HASH","RUBY","RAILS","COVERAGE","TESTS"
"1118","d2d93a2b60ae7bc844e16791dd7afd803b4a9b4c","2.2.3","4.2.5","simplecov","features/new_user.feature(3);features/new_user.feature(12);features/new_user.feature(21)"
"1119","e218ed5361387aa7756d67ab655c73df8f160bdf","2.2.3","4.2.5","simplecov","features/claim_redetermination.feature(15);features/claim_redetermination.feature(31)"
"1125","3c86a4fb475ad97cb72eda00d78d4f8ea29a0f2b","2.2.3","4.2.5","simplecov","features/advocate_admin_edit_provider.feature(29)"
"1126","f1aba19242cdcb0ba10bb8427381002956330299","2.2.3","4.2.5","simplecov","features/claim_redetermination.feature(31)"
"1131","388b1665901f19a6e7f8bdb50f2d84459a0151cf","2.2.3","4.2.5","simplecov","features/advocate_admin_edit_provider.feature(12);features/advocate_admin_edit_provider.feature(21);features/advocate_admin_edit_provider.feature(29);features/advocate_admin_edit_provider.feature(38);features/new_user.feature(3);features/new_user.feature(12);features/new_user.feature(21)"
"1132","7b3056056360bb9ae71c3e384e4ae3a2b0e2521c","2.2.3","4.2.5","simplecov","features/advocate_admin.feature(7)"
"1147","ab03d8c1174e69ecfa14e54b7be6317bd6152388","2.2.3","4.2.5","simplecov","features/caseworker_admin.feature(7)"
"1163","ff10676b0e1c4d3beef012a16fb4c2bb3c896cb4","2.2.3","4.2.5","simplecov","features/claim_status.feature(50)"
"1164","39c80af85df42c57d36cbfd819e7b4992e6601c0","2.2.3","4.2.5","simplecov","features/caseworker_claims_list.feature(43);features/claim_allocation.feature(26);features/claim_allocation.feature(44);features/claim_allocation.feature(62)"
"1171","da17f96228471137efbe8436224e99de890c85b1","2.2.3","4.2.4","simplecov","features/feedback_loop.feature(11)"
"1200","4e5cf1635d78dadb5146420d38c8fbe7d50a7782","2.2.3","4.2.4","simplecov","features/claim_allocation.feature(43);features/claim_allocation.feature(60)"
"1204","b35d5ef937900d22ae5cdf7b5128ebfd61534eb4","2.2.3","4.2.4","simplecov","features/claim_messages.feature(44);features/claim_messages.feature(66);features/claim_messages.feature(87);features/claim_messages.feature(102);features/claim_messages.feature(125);features/claim_messages.feature(144)"
"1207","d8d6df41f4f4cafa8045346696c0652d721f1744","2.2.3","4.2.4","simplecov","features/claim_evidence_checklist.feature(9);features/claim_evidence_checklist.feature(19)"
"1213","2fde481d2c028860c7a16fdd781b40b6259e1995","2.2.3","4.2.4","simplecov","features/claim_messages.feature(19)"
"1219","a98963b93da12be70f0c7176f6a36ba60b5020fa","2.2.3","4.2.4","simplecov","features/sign_in.feature(41)"
"1221","4292dadc9edd1c441b7d334f8067f933b3bf4cd4","2.2.3","4.2.4","simplecov","features/archive_claim.feature(7);features/archive_claim.feature(21)"
"1237","8a065ecc1610ce717242b6c22f71e775e5d313a1","2.2.3","4.2.4","simplecov","features/feedback_loop.feature(4);features/feedback_loop.feature(11)"
"1249","6856bd5100323f3524bb7523c2cf891f4866d729","2.2.3","4.2.4","simplecov","features/sign_in.feature(3);features/sign_in.feature(11);features/sign_in.feature(18);features/sign_in.feature(26)"
"1252","fb0aa5a78ce0a68cd37f507f7ecdded5f53907de","2.2.3","4.2.4","simplecov","features/new_user.feature(11);features/new_user.feature(26)"
"1255","321ffbdae8854abef910394652704d299522980e","2.2.3","4.2.4","simplecov","features/unhappy_paths.feature(20)"
