"REPO_URL","TASK_ID","#HASHES","HASHES","#PROD_FILES","#TEST_FILES","LAST"
"https://github.com/AgileVentures/WebsiteOne.git","315","6","[cfd625ec429f2b9b2a8c4b37cfdd0bbe29c884e0, facceac49f7b29e3a21e79c11084836c46d6acb0, 221f97e7a61a25cdd731d187b64b3779883740ce, 896e7f3c70a659a92a6dd8bd7c8a5585f1516320, 83e6be8da445b6c5201bc9829c3f6d4ef4c680fe, 9bac68c268e830470d9aaa0c89ea64672d7f28ac]","15","2","cfd625ec429f2b9b2a8c4b37cfdd0bbe29c884e0","4c43c912cdfcd0ec283815752c2eeb204149f63b","604bc2b48511a3f0cf31e3d840ba77fb9fc26089"
"https://github.com/AgileVentures/WebsiteOne.git","316","4","[a2df2250eb55cc947ffb88ba88efd0620f4a7ee6, a7da0a82046bb68037237ff2892d19f3c178dbd4, 5c2187ea953466fa5a3ca82e1c7a85a14869204d, 980656a0a86c66a23171b71c98276a02667f30f1]","7","4","a2df2250eb55cc947ffb88ba88efd0620f4a7ee6","eb683b6ebcb0338ea53988eb26541edd50cb2b0d","e913a0a0c29c1bb47a12fcf3a9cb4e466fa3351a"
"https://github.com/AgileVentures/WebsiteOne.git","317","9","[fd54621fc443b758d2db38fed15c57610756d9e8, 63772a2431c52ac4a7eb3415e3e89122f3079fe4, f2538e6df59bb3eb82248ae9d57eed54889b21c2, f67df3cf333bed08dfdacfdfd10a4fb4591ed2e8, 2e9a83c8718962bc5e1c26e3b8eea1a17e58f97b, beef6c76b1e2d0d3c6c2e9ca9c16d2c3c4ea9538, 1b3517b59d2afb91147b79fc713660e0884baf45, 846f3297a88c205f5be045c50bfa466a2e7ded2d, 52a586b5ecb33011552ca052dd533e3d08800fb4]","3","1","fd54621fc443b758d2db38fed15c57610756d9e8","eb683b6ebcb0338ea53988eb26541edd50cb2b0d","047faa91906479e4443d257d0424a7255ded8070"
"https://github.com/AgileVentures/WebsiteOne.git","318","26","[d0538af1047fcbf353d08666f79a623154b487c5, 159e90d2348b4fbca8d24590e618f2f388ba212e, 62957f103d1b889c9781b15b56d514e729d3fa30, 9ef288576038c37b5af5ce77fc6b4b9285ff2dae, 53ce8f299248c4638701452ca58594bf393c9602, ab102d1fd3b6ae60684baca8d0b650b50ee51204, f9169ffd00a5b541166dc13a3f0ec710008334b4, b0abb1371139400c4f834ffe2e00016e5c1b718a, ebdddb5d5e383eaa27768cdab4ece55337e6189f, 805e6c452bdb003c9ba3964cfc8b8464bf2daf29, 431cf093ca6e6b52c95cdf76545ca1f0e513b521, 34e375d165f0ae2847ec64b898ee3320276f80df, 3519748bc7f442c67824adf4027761690739c4e4, 32460e3fdecaaa71f46d87838d5941f08e35f177, c6f01684c58b350362e96b21fc8202dd38a86c5f, 5f182b1e5c5381ce030554e7fb2d10f979d5cd7e, c567f1f49e6edfdfaf47945844ff54c75d13931d, 41fa29af8861be25ad6e10133599343dcc5edb6f, 6e296ca95898f6ab8acd69c1e20b826d321f7665, 9eab15038baf23e87ea37142af867d757789852f, 85353ed3008a4c4937714a66cdbea34bc09bf1bd, 27e43ba5a8184ce2583f310d76373c3b222b1464, 5b267bf146fe77bb9a76c6b7168ac1cf933d98e9, fc1d2ec4984fe07c26029f9b6399d9f156ba6dd1, 01b5aebebe1a4140589cf0aed16c4de571ec62dd, 7e951d13f346517672b64981e304cceb9ba7c744]","7","3","d0538af1047fcbf353d08666f79a623154b487c5","e913a0a0c29c1bb47a12fcf3a9cb4e466fa3351a","047faa91906479e4443d257d0424a7255ded8070"
"https://github.com/AgileVentures/WebsiteOne.git","319","9","[23d8ba6c6d33cf5bf3f8701d59ec3c11a6c319ae, ebd42ac85fd267bfea2127fece1ca28dd7bc0bdd, 5430b4dadba5c5cc3a11de7bb10a1e638686708a, fb14000dc246f102187504c6b30584e66ea2d379, 7769b38381ecd6ab4c68bd8347897bf3dcdd6c39, 344e56c5cc52d4ab068128f38a76c243c725fd7f, 4b9f4320c65491e62996b02011562edc34a92f92, e2ff741065942a4a4adb61622cf02263dd49777f, 51acafa3022b03817f8a47eebd47e109c83f1d55]","4","3","23d8ba6c6d33cf5bf3f8701d59ec3c11a6c319ae","e913a0a0c29c1bb47a12fcf3a9cb4e466fa3351a","719af4e9538d6b8def280a5a58b210299bcd7826"
"https://github.com/AgileVentures/WebsiteOne.git","322","1","[87641bcd3104ef64a6b27c43c01cf35e8f8e2a15]","66","17","87641bcd3104ef64a6b27c43c01cf35e8f8e2a15","3893d618ec140c5ec89ae00da1472a8e71903725","bd1c989289dcdc882a15183510cc93d7cc72d2fa"
"https://github.com/AgileVentures/WebsiteOne.git","326","2","[db0fbf0fd4180ccec47789a62fe029f0c1d009f5, 1433eef34bcdbff3d7bbc83930500e12059fe678]","6","1","db0fbf0fd4180ccec47789a62fe029f0c1d009f5","604bc2b48511a3f0cf31e3d840ba77fb9fc26089","50823db2adce5c99ad6fc2d222c044098102b273"
"https://github.com/AgileVentures/WebsiteOne.git","327","3","[c8c6e72a63ae973f0adadadeb002d23a8189e8ca, 9904dcd696a4fef5aa23fec1e89dddf724cb6ba6, e71233455bbd4afaf386874fa296f70b7a3b0b5c]","4","1","c8c6e72a63ae973f0adadadeb002d23a8189e8ca","604bc2b48511a3f0cf31e3d840ba77fb9fc26089","544740056aebc6c9dd32cf4bb60f45a23c39a84f"
"https://github.com/AgileVentures/WebsiteOne.git","329","1","[13811515adc6e645bc1911d341f55a04d005510f]","3","1","13811515adc6e645bc1911d341f55a04d005510f","a5cbc5b8bb42fc2d91655d045ffc4a99599e4fbf","ab4a2df174bb5ad303dd4f82b93abde4d027ac74"
"https://github.com/AgileVentures/WebsiteOne.git","330","1","[ccbe9c6b602a030572ca3441d3fae611609cbe82]","32","6","ccbe9c6b602a030572ca3441d3fae611609cbe82","df76210508d9f343aa7cb5573aed970ad318f9e0","4b9b3c5d4a732d939189ba13963d1c708b7b5496"
"https://github.com/AgileVentures/WebsiteOne.git","331","13","[caec037e27cf3178a6ef89eed74b55b55d31f16f, 20bbc4cd85d2fe4669d7f4d7e972b1757e010086, 7fb3b9c45c669dfe5b5ab6400721c847847e1145, 2ea9a45037ea60ac1c9f4738f21428b9abf265da, 9dfeee8e18369c09e783ab194874c080f44329b0, 2dc76e18655002fd4e28b85b35bc1516c64b2a2e, 8a7df6c3b44614c2d2dd7a789fcaf81547331df8, 5179f29b5285ea9245861118514f7eaf32021a74, aa5ebda5f8a78b6ade220d871d49a5de78271b56, 926526288d425afd5a2d60315e66c1643fc0a9ea, 06fd99244c9d4a1932cf7021225f6fff2238cb31, b7e54cd753701b7d1298ed0b0e49a24e9cde8ea1, 2bdeea7894272009c86b6bd1029c062ce3eaf980]","5","1","caec037e27cf3178a6ef89eed74b55b55d31f16f","f3551ab83a37cf03c3f4d1917e6bf512a6db9699","16eacfce49785df644517ee331cc748de776a09b"
"https://github.com/AgileVentures/WebsiteOne.git","337","8","[e0055e324f69fbc8527bab10e616f8bc520108c6, 706671ebf0c176e3ee20b639870581c371bda5f9, 39e7033da651095259bce2db07f9571d426223c1, e8361ba3099f5c9a8bdf1c3c33e1716e4a511ffa, f03fd871123cfb98ae5ffc23a97ecf67e658130f, 7d31aa3e33f2f69af972542cc0c781e8cef95e4c, 78fe5d8caa0353e5dd2c8177c76aede8059e3c91, 1e0d060db69e7d2efcea792e61c8a4f3b58b8cb7]","3","1","e0055e324f69fbc8527bab10e616f8bc520108c6","ab4a2df174bb5ad303dd4f82b93abde4d027ac74","edd61f14c9bcedbaabb6d3ce18e144f40a194c7a"
"https://github.com/AgileVentures/WebsiteOne.git","338","9","[835341fbbd66505ee005d4536b4375bd39b9291d, 590e30dda09155c6a1d5ab1871a35c1d47cdb797, 95039f0eb50539724640c24aa95ee8885f997844, edd61f14c9bcedbaabb6d3ce18e144f40a194c7a, 5e812ff75f8a76f286df39bc4d29732d02c95b21, 7c0ee61aba0176b2d3ead0fa79c683578032a812, 221d48704ecd8fc4cf6efcc278bd710a936737b5, 98461d265d1c5cb6b6f79bb04c1ba2cf6c031b01, ee2b09c038f2a62503588c4ea21018d78eafcc97]","6","3","835341fbbd66505ee005d4536b4375bd39b9291d","1e0286792fa3508000a8bfde8b035d2d43e38086","bb1886b0d50b6c9b5b11d490fca4a4e34913466e"
"https://github.com/AgileVentures/WebsiteOne.git","339","2","[acc7c33be50e2e0635cbd724adcd32d4409f5dfa, c1e788225608a2860bed3d1459aa2ecead6af9de]","5","2","acc7c33be50e2e0635cbd724adcd32d4409f5dfa","1e0286792fa3508000a8bfde8b035d2d43e38086","bb1886b0d50b6c9b5b11d490fca4a4e34913466e"
"https://github.com/AgileVentures/WebsiteOne.git","342","20","[edb5e74f81b7aa15ea80cf0317cdecf35f219a82, f5ed881e7b9df424e09320a8fa633f732ba9f44b, 122c6571edf707eb9660ec0884d1b2647296ad6c, 51dc7ea897dda0769ae1856bc3b186dcec8bddf5, 0e04b1a4aeb67877fa93351d261a459cc6294af8, 6ce7aeaff012533fe75daa5417947619a68dbcf5, 091ebda3f9db0d1d008b1a1619820f16072fbde9, da73e0e9454c1d18c3cf4e22421082927b4cd85b, 060d6fe7bb4688a936fc1ecb9e1adb841a09f0bc, 39d5d013e273ba1d12cccfedaa90228d8581ca9c, 786e2d897f1c85bf58613aae31977f7dbd9c8dee, 5bc9855ec191d7ee11ed9934c5e8f190daaa1d77, 50c833057e1abf63992b667a546bae525ed372cc, cfc2d7f623a67cda9487786ff9b04a35bc3d8304, 5a9b1d2e8c2dafa56329d6942d4b58003ec0934b, aebc6d58b3e827b4183645dd4b741ac6b8b232fb, 514ed497221637f3439a3bd7d390fcae544d12e4, 624f78966d5081394d35da490629623cf3377fee, c957b625a81fb62453a4719f4d6cf77459b48352, 4cc767127c636a125b06cad74856213638194371]","6","2","edb5e74f81b7aa15ea80cf0317cdecf35f219a82","523442a9e63d63a0142fab77626b98c5183ac7b6","2df30a76742230bc8c0e105357baf1a0216113c9"
"https://github.com/AgileVentures/WebsiteOne.git","344","10","[2df30a76742230bc8c0e105357baf1a0216113c9, bf00b75184584c5260f0ca439042c8a1fb5fe917, bb94691cab3a6bda111a7775e47fd8da13ea2c8e, 30513f1e6c08870cc843d0d24dfe79bb438e6233, 432ff7c7370ab42efe6399719c77427194fc1537, c3127f5166f2e20eb83ca04189068791986e2ada, cf50521c9fb451295664e0b0169da32cbca2ddf0, fdbcda5c62f2c2b27e26174c0748dcff9632761c, eb385f44e9f93b4b3cbc7a880553ca3e5cc3fc0f, 26d695e2349ca064cab0edd1b95c15128f1a93c6]","1","1","2df30a76742230bc8c0e105357baf1a0216113c9","53e8030d65fb772a888ef9ebe867e3e22663331e","97ff722ad9eaf7575335c6fa365ae2e11548a203"
"https://github.com/AgileVentures/WebsiteOne.git","345","9","[24c94fd76d5e53350616d186e138480b9be3c39a, d57874a976ae0addaf19465fe405584dc06d5caa, 5b1f35f158b0acef5497a312751e62071250203a, 8520a53e300d826a3cf026f43ff2bd20813db8db, 1dd1415faa457ec2001c890289e092a5e484f24d, 50b1ffafe5abd6095f68e558f5ce380925826374, 5713e93cc45d398f2b39ff241a2f432ee0943100, 7defde0af784cb70630bff1fa3525f0bc90623d1, 796dae870d90c375295a9a7d288e417fbcf95311]","10","1","24c94fd76d5e53350616d186e138480b9be3c39a","53e8030d65fb772a888ef9ebe867e3e22663331e","4266722cef9a893e573110a66025e1c1b657f1a1"
"https://github.com/AgileVentures/WebsiteOne.git","354","40","[8e4f4dba7085f22d831753c4e95f9064c1b5d3e7, a9c8d1156c5ac398d40fbb4dd38175d038f69b8b, a16afa9d9bfaaab82f2ab60efdb3cd48211d668e, 042694fe5dc0b08186dfdf476f7f5904bbd5a617, 104862faa93bc3f769da11b8913d1e413cf139fb, 1aafb56eddc36fe8c3302ab9d1ac0d16638076f2, fb19cc2e008bcb168df59342e8f598ceb2b1a807, 0ae38acc2d8964b05f08e3cab63b57fcf3d112c3, dca8d0f9f59ddd255f2880ed2e4f97c8a77f7a75, ad6edd518e146641de0d778e19495d7f3566cfb1, 84b8f99a0f8a38b0469c938d340feb9e84ab7e54, c7c5125c8cda0dec073b9b63c41e2b9dd208104a, 81bdd34ca91c72aad6f8adb41617f6415b93227e, e6d48a971064f95cd95c0b4da856074524994c52, 1f5595873f2f879545d2d24f474f8f1edc16ff60, 84dc47cc7ce48b5168cb05fad8a2795467e70fda, c27d7a1355f28e970d47269c96e26d20e27b90d4, 5d4db64c2317304abc89aea1557b3372696f46c7, 846cd461f4acfe12537fe3f6131384b8ef4b1872, 2b92ff9b3cd37e31faadf1516417d9fa3e363efe, 63d26a7eee56c23a6fe5687a7a79a00a60cf2cc0, c4af73be61cd6e09dfa636a3d413495db7cfa423, 6f78a54baac00eb78c2bd6b6949eb9d5d959ffd2, e3797a21e604f0350dc015cdab8f7539702fc802, 1cd78faac7eee71b343d0485e5cf6db38858a079, 956aa987bbabc122f9c8f64229127011ca8d36bd, 10d2fb1c27698fcca65a4a9873f48526a7aa7be0, ef484edd6e888800cadf30f41bd3bfa2b3ea6932, 5064da259919ddfd8acff0614af06b4775afb9b9, b21a3dc3ad1c3d76faed6c92b39de854b8fc5b18, 464022234edf7d192a046119581de96944ed159b, 249d4c10847d21475486a61402e36a751910de7a, f3d7db1fdf1e4e832f88e60a6242b5197f01107a, 923d716a8221a67d7fbe3564fc83e6b79684504e, 52d764206ce245399aec326431c7ced6b8201ee9, 600ecd2a36175294d8ba8a18e8b0f0c318402487, c93108679daff7e04ea8d6408b172c1aed987389, 6d7882319b5311dd78529b3f8cfc367263ed96d9, efaf3c04b979be0d7aba2eff22a951a60849bc23, adea5de4cdff090098f745a5e3168678c6341ab6]","20","5","8e4f4dba7085f22d831753c4e95f9064c1b5d3e7","91621e949efe0222e0f1e9db5167a933f691bdff","63e9590f8ccd071bbc02d7f864ab3a7a623c3ecb"
"https://github.com/AgileVentures/WebsiteOne.git","355","4","[7cee5d5452d7b0297d5a12c942a3ab16057ee1ac, ff4ad26a0ed688d0571131b9c398c0e8c7577e3c, 87c30780d5a55ec619a2cb083e73a563eefced79, 17fe9e1f8c80b6e0538c425266e80bf34bd7611d]","1","1","7cee5d5452d7b0297d5a12c942a3ab16057ee1ac","2f41edf2901f0e0921fcc4bbb18938d98d7d5feb","6117eacab484ba10999cfab4b9eda2d51a13a3c9"
"https://github.com/AgileVentures/WebsiteOne.git","357","15","[63e9590f8ccd071bbc02d7f864ab3a7a623c3ecb, 232dbcd5d066f801f47cbbe9cbc4093efda1534a, 2ec97eb99c47890328baa95cc610195f2ccc8551, 582c84a48dc203121556a54b0bd8588e47e48cb6, 36796e39622f41b811d31deeb7b1d4dd78b041e7, 6e3b910ea85e0c521130d083613eec11e28b9eee, b6e065da7751504fa7061cb3b13b884c31715d32, 80883e004d9ce99c039ba7ee4a40684aac7b2200, 270964cb03364601f42be34fca42a4de97fd96ec, 5a4b66a30f2a7345f6d87bce70dbb5e1742449dc, 4a24ad2fc783a27a2c996c58fa7b153f25d6c28a, d1e5e6395bf31da09faa6e9882dd0c1202f08d43, da0b7e83e05f528dae6cc969aeba6be440075288, d2a6aa45f2fd6b58da7da524c83b887cf266c5f8, 678611608cade91737b9d9a5e074420e3ceb0c3f]","9","2","63e9590f8ccd071bbc02d7f864ab3a7a623c3ecb","4bcba5e118f56524732a08f65edbbd588fbb3fad","60877fbd4c549da1ce70ed572f45f9a257ceb68b"
"https://github.com/AgileVentures/WebsiteOne.git","360","10","[c1c6829c3d9020497c832a3ac33b0af000b6c31b, 6e0a4ef24f9b3b139206ee93abf287b7271675de, 69b3fa8ab1d24f8f0c0c269c0e57e9bddb9028f8, a6fae503a1d2f00a6c06025665240efa1b6513aa, 3cb7eb580cf9b1f72b363a2e38d86fc13906d616, 799be9b126407c93934f6af5ddcd5fe59e38979f, 028992046d72d7fc3b50ba05917a447df794e6c8, adcccc0a3d0c5ef59f4e3d3fbec069f7f925de7b, 83a273a0574f8f28735f812b0814a96b2a1b82ba, a761b5d8d178da9ab876fbcfe7ffa2a9213cc9a3]","5","2","c1c6829c3d9020497c832a3ac33b0af000b6c31b","013a446ed4b2b6993a615acc36b9f82c4360caf4","038e40e6818674dd0f3c28681aa401d720db1175"
"https://github.com/AgileVentures/WebsiteOne.git","362","5","[c3bfe030c2a8971ebcd902b6b367665c4171a25e, 40dc5c9615cc3bf228bf3892bf30d86d05599d4d, edcff34facd21435d469ac01086a52fed754f712, 1326c9e592d0cfa30e9ea20e339ad2fd14daf2ca, 2b6a363a9215b1dcecf15f444bfdbc3875c201ec]","5","2","c3bfe030c2a8971ebcd902b6b367665c4171a25e","adf505ef6e898c8c741a359d05cb7c60ed79f1af","4b9b3c5d4a732d939189ba13963d1c708b7b5496"
"https://github.com/AgileVentures/WebsiteOne.git","363","3","[a493879b3a15f9ca576463ffe23021c01cbe8156, c237c4f323aa53b94be3caa7f23d3112f187f41b, 3d2dbcf53af0aed0b9cf48c23cf49427c6b83276]","2","1","a493879b3a15f9ca576463ffe23021c01cbe8156","adf505ef6e898c8c741a359d05cb7c60ed79f1af","4b9b3c5d4a732d939189ba13963d1c708b7b5496"
"https://github.com/AgileVentures/WebsiteOne.git","365","5","[4b9b3c5d4a732d939189ba13963d1c708b7b5496, bbb8ddc5de581761f308aed91d496e63acf13bae, 920ab72088aff2ab02bdcac9e206c8789967b64b, 9f476fc03394641e45dfa51f6d24cfcc4b5e901b, 78f92527fc7d3a2519da5968ecd9fac1be331f8b]","6","1","4b9b3c5d4a732d939189ba13963d1c708b7b5496","038e40e6818674dd0f3c28681aa401d720db1175","264437dc35c2b82b282aa3453fb1a0644fd04278"
"https://github.com/AgileVentures/WebsiteOne.git","366","2","[1a735435c16dc4c904fadacab0ac34c2091b2b1f, 3151cad50f065a92eae964fb5bc4cc56feddfd74]","5","3","1a735435c16dc4c904fadacab0ac34c2091b2b1f","264437dc35c2b82b282aa3453fb1a0644fd04278","20a605664a9ddc58cf88173ea8ddfb3383e5e8e3"
"https://github.com/AgileVentures/WebsiteOne.git","368","36","[62afa199f27022aa224b0e47f08bbed79e166a68, bee97fa30999dcd0fa0ac69589824ffc8c9fcc2b, c5f11d377caf53ee09d7fd1bd84dd520fac0b58b, f3f36c6cad01c175afb14c3dd8e9080db78e5258, 5005914702739352f2844022d0ad5c4b843ad2ee, a63b38888b64e32a092a2ee5759916f51b66f637, e59b84ad710338a82653a0378a6ee8775e3b7fde, 3979f78faf75684f2592234d5145948e9208e5b6, bec4e6d8bb84d5c4e771a2487227beaba8cb840b, 88d08dc9f337b0816cba888ab79fafa294720fa5, 60fbd26aad1933ddffb953a7ae39b2f69b065edb, a426475b9046df032445364bf7048348ef929a3e, 2b320baf12b84808a5916f7024b548133802401f, ad3a48c74108454e32c02b71bc90ddf2fed3eedb, 820821f80acb19af6e9e786d88f3ee3c855a1f03, a6cdbb42256a0b35f89ff2434bf91abe271b70d9, 0cfd74fc4ce2996dac9e60c3b72215ab62715d7a, a580867b41fea224d271bedd3895788776bb2b21, 7d367513736658aa8f82fde3ff96c7fc32c510f3, 1196c0d9809d0c0adcc4480db52e1c624b8f7047, d6518c4a55ceffe52fb135c6e05b7f98239e319b, d04c02a59f284ad680702f415918d03378b84525, 53f08199e3f3aa62d9ca3c5924189e8d191164dd, 7f67615cbfe7b8c50ec33b6f00a6e3ab795195a4, 2bb65e1b5381a7ac2935b0aaa5b4fd098934e278, 46526504cac5e6c0ab7e2f1b6a42da9651c327db, 44c4ed7922c4727b6692fe39b8039872f41be78d, 5cb70e6e2fd72fef36780e0c625aace3f5cc45f8, 437efeda97b1906d2b2b04ab6e4c5409223eb3c4, 6b90dff70f0d0d53972e4dbf5d5e1301aecffa7b, e7ebf8f188376c2ad46ba0bf7e1e9ef4a7366e3e, 0051151db087e796fb2ef3f22a26a4306b4f7bcc, 8e8e0fc0e3aedf06dba63b4c4067ad6e21d94683, cb43f256987f813904cf465e6d0f6de3ce89ea4b, 02d108f3bc57905208ee015b37c40c4776b8fdb2, 0c953d5c22725c13098a6e1534f90bee7c27da77]","5","1","62afa199f27022aa224b0e47f08bbed79e166a68","20a605664a9ddc58cf88173ea8ddfb3383e5e8e3","6ab810f9e05f132136633dc0d6702ed4c25318ce"
"https://github.com/AgileVentures/WebsiteOne.git","369","10","[b6cce37eebd1b2076c42d97ad9550bc1f19daa6b, 161ab7f9ec0c7aa9400e8abe10353830e64a1573, d160a5043d5e34d3bbd7ebb6885600decf030c08, 18c0d620b9581ee5cb2704999e45c7bd8f2f8bad, e01db928196c23adcfde53f1201c031aa0735da4, 2633b5faa0d44cca6ce3b30e2548a3f3ccd5d16e, f75e7c38430d68cbdcc63fe8ee1bf13ee5a1c982, e566a7e821d645adc71c14952b8a149e44c61066, c871b1dd9da8d8838f421d7644ec811016f2bf14, 4e411deac93e44da73ed34753ca02a71a80458ae]","5","1","b6cce37eebd1b2076c42d97ad9550bc1f19daa6b","1a345446d08c004b68debf4198ad7bd3a24dc50b","9055dd2acf80c6e6a7811f5ae7bd6eef02e9ea81"
"https://github.com/AgileVentures/WebsiteOne.git","370","21","[275b85321a34f8de686e398c67dfe686a1c19436, 8190402916bfc19e69d375c9225ba309817c744f, d24c8c532d7c48b40cdbbba425aeedb56b2a5c2e, 5e26891d631ed3b69e03879e5c264b1274b6cb4b, 9c13d516d730b8c5131e8b9a42facbeee725118c, e8d7b444b019257aca498591354d2458c1d52455, 776d7a484e1e1e5681d4b27df32a1673c0e9a8f4, b3ef801af6ce7be9c08bef43839414f7e56cec6a, 5f1ca3d9ed4ce11451e1bdf0e5878c26fa4c58ea, 52425daa393777cda1ca9b0ed4d026ea65c3de5a, 384ed262a898fe6c90173a2cadebafffce67de48, 0630cae9286dc6649447af755068d51c3a07ee17, 499b4a51026652202694d4d62c1b066f8bf330bc, fc8d306344427c48424da8dc5037dd086d0c42fc, adec7f92d671109026e98798b1ee6215ee4f00eb, 250f8afc33a453fc8eb453ca50bf6ed06877ab83, f4584e15a89bd787a552bc55b1d5ac93673d6bbc, 9dd7691a60d755869e8828779129034deb9ff8f6, ce2a0aec69427cd9b041c6e83a3313853232bb6d, 8295855e8966d2d19a0e862c6500a2f84d89ef36, 2818eeac95f9d9c217d7b7dac10386e346637817]","11","1","275b85321a34f8de686e398c67dfe686a1c19436","2a8c6b36132de38bf95ab05eb2d70bbf7210ffdf","6359f0f456dc65780eb0d718e49762ded8f73b3c"
"https://github.com/AgileVentures/WebsiteOne.git","381","38","[9fca26c47ac5b379bafc67ad7115ae593b211bcc, d169909430b0e5e506e6c860db19759765f53b59, 8e69ea3f433432ee09e765827b607496ede9b3a7, 59dcc2f0b8268782f90e5b2fa02a05496e9fa8b4, 609e4fc9275dc5d4c8a2dc917bb28d90b23cec81, eaaee9f7eb69374c052081d07ee3e295d9a8032a, 86c82a7777f542e3fa1cd7877787a7e4eb215eb4, 969006f12a7cc45f17df00b3e4092a809be7970d, 3354cd763f9bfa2ad47151647490f9de87ca2ce6, ca36e7c8bbf0634503140735a8d9d713ae2ca6a1, 725af1cae590cdf569e6ede4e1e2e81e994e1982, da9c664e49c8933cecee2c606e40ea065a246d43, 3eacde01e831010badef3ac5bd85f8bffe81ce9b, 96ecd73d2dfa9e4ea5a889332386920729ce7d9a, fcf80ea9cfc695ce172eeec0e6a5ec590cd50241, fecee8867494f33cc5da05eef15b26409a2ae7b4, ca33f5f1bd61cb6707b3ffa39fae07cce937b2b2, 46ed04892fdebdbafdd2af7b24e14914b840f8aa, de16cd648e306b5194b3b60062b03eb79b837907, f36de30b37983e7e0fa23b08933689d890bf4a61, 9bc3dd9d888c23bf9355338752bb69258e39246e, 1c2271d5e9cf2d55bca8fbe1a57da80edf48cb7f, f8913c8c8a59529f74f9f5eff1e7d20e57c0b2f2, 4c64d7d273b413d50b2ccb2c55bec3c75a3e34e0, 2963ff4d92c60ee25c78e04fd9c47bbf8977e95b, 54b12dc35e16f49ebab3ceffdd9f3c9231bdb0d1, ef1d27de7ff6850aa411766ed770605cfcda8a38, b951cc19b772f9aac9bdcf85ffbc571bdcd936b1, 43f1cf8ea2d14cf3f3df50a4e8c650252cc3c019, 17bf68b752c013d86921a9fe0e25b9660d01b7ab, 47e533d35812533638453584e98ed16fbc043eae, 16d0b2e80ad3c67acd01f82d653e03e79d145094, 5c6585752524b0f6d62bfa8bcca695ae001308f0, bb4e8ecfbde3bec6beccf843e7a7d4603cde2f41, 26ab3abb5ddc4acb8e907ebfdd6e77c0b480c096, eba767ba982a2171b12e5f97d3104593fc396c38, 9d0bdd2afd99cc20a9568876e104413308d6982d, 4f775a22be7485113e344d394e8aa9013f85b374]","9","2","9fca26c47ac5b379bafc67ad7115ae593b211bcc","a60b6a830e2573664be9b8bf578061726f65c937","6115ad59d3ac93f87f95fa90b91a88b3a8ccd9e5"
"https://github.com/AgileVentures/WebsiteOne.git","385","3","[18c9f6834fd0fdb722aafd86b53cddfa9c2c583d, f1e3061d27321233eb9dcdf165720ef3df46c3b0, 7e5f93879e5546c966802832d03cd0217b79a051]","2","1","18c9f6834fd0fdb722aafd86b53cddfa9c2c583d","a8fd52bff0e69447c1453253a1fb6ac36759d174","d229ac4c2503f5ce6f1f5383f81882a7b5d174c3"
