"REPO_URL","TASK_ID","#HASHES","HASHES","#PROD_FILES","#TEST_FILES","LAST"
"https://github.com/alphagov/whitehall.git","3301","6","[0419af7162a6c07326ec87551b5ade81d0ac8cef, eb8996df244ee216a45fe30846c6b53f6e2ee8d0, 578c4a5fa8a9182599165747aa89e3cc118bbbee, 6c67c52e52abcd5aef06669fb8c66f1bea093e48, 06d170c558ec9a5128f3931470f377bc14d8f65a, 8bdba22136f3c58cb49fa41fa76d9f8508497f3d]","8","1","0419af7162a6c07326ec87551b5ade81d0ac8cef","eee7426b968caef19286478880ac215f93aef79b","a00af78690bac9d58dd7cddf36f959786510bb10"
"https://github.com/alphagov/whitehall.git","3308","9","[18a5e24afe6e0e4d4b3542b4185a9a3e099c864b, d963bd6c630eefc0f2881b25dc6a234fb9a36b96, becbf6975ac1824f4a144a1fcb52d2f9b09fed69, eb1041e893cfcfa2ebed89705d98fa3a38d41781, e860ceb9d677b3df91c82a2dc71b8da1673fbe3e, 60e28355da988f8037842ab9a9973628ae9bab87, a2f9af94fbd2145919870d14acbb11dd19ecda99, bacdf3a445b0347c6d58200d07c2cd3fcc155e59, 9b0b527b0afa40be53f069709668e4da9a692c9c]","37","2","18a5e24afe6e0e4d4b3542b4185a9a3e099c864b","8c73dc27a891f320d26599b048de64ead52d739d","74f3cdbcca318b6a0b871337db7ca9f041c29d2e"
"https://github.com/alphagov/whitehall.git","3315","21","[1ddebec66ab6a07b08d41b91140012ee01720f48, 2a046b6d611e868a41e6ead02bf11c415cf6ffa6, 83c562480a6906e4c7092e3e58e400a48ae86702, 5a513cb5edf630518401d6e62db8c4c979f28d16, fbf02cb45b1b4983965cefbe30498f357dbbc646, b4db3e7e0929362893c8ae2461e85217e3aa92a9, 0acf412cbeeb1acbd984c39bff672bea328ae7f9, eb214d9072049ba1d8ff4e07cd91ae0334d06cac, 17c147d43471de2a91bfa32f930413f761320465, 5ac62ca486fc39fee822434589aa9428ef591323, 5a211e101a49bdca6fa0396ceec9e42ec114f609, 70407f83c872fece87ba7778143d7c7261262c7e, 4c72f891a54ed62fec80304d8b7daa6e67f46004, c3a637bfcb04b84f9646143ff0c1c8969906bc1b, a2774b5ee4f509c7ff62ad97fd01733c062a9c48, 301579ba7b25ecd2c9f5495e470470848d9291cf, a9d73468bce586b5abc606a466f5218bd50415c9, 84d03c596134fbd5b6d697c75ed2a6f98d4d5d62, 51530fb320f8d56d375e5eacc85345e2591798c5, 386b5c07276d60ff063c9cdd75915d7ed12e472f, 7b9af73ab7e4c8860e3f12e2275bb9c1a4f81872]","38","1","1ddebec66ab6a07b08d41b91140012ee01720f48","74f3cdbcca318b6a0b871337db7ca9f041c29d2e","cd72796d4a305ea2efa8994faf55cace75b40175"
"https://github.com/alphagov/whitehall.git","3320","1","[0efce103b3c9fc31d78820348b540c54ab233bda]","8","1","0efce103b3c9fc31d78820348b540c54ab233bda","8ed265df558bf9ab0a7ab3b395fa906b4ef25d4e","c2e89786496e47a2d81ab3d09f2d137f5ea25e0d"
"https://github.com/alphagov/whitehall.git","3321","3","[2307b3ee0342d283782ba4a06084b8f31942b8ba, a1fa319b3c741a8e7b8b990be0e511f845a10730, 55be3e56946cb2fcd729472e405944683152f180]","4","1","2307b3ee0342d283782ba4a06084b8f31942b8ba","93ec378f6e1f46406626b56db570be4e07c88cb6","7426e5914258ff80f7641830104970d6d90f3c93"
"https://github.com/alphagov/whitehall.git","3325","4","[3845dfe4cb75d29b7f75a1faf8e965a62a8328f0, c6c86d61eb3d394faf28ea2b7059ed93a1481138, 863e266457f0028cd22632df334bf8d629b204aa, b5d9e3710dd13684c90a50b2372a8b1c04c46f4b]","5","2","3845dfe4cb75d29b7f75a1faf8e965a62a8328f0","7426e5914258ff80f7641830104970d6d90f3c93","8c01216c5c1aab1ac4203e3cf945cd9503437533"
"https://github.com/alphagov/whitehall.git","3345","6","[cc1e65f792b56162d290ab252281e98087f3abb0, d7766daa741cd187952aaa4ff0e52cca7e960eec, 6c4bb96f6dd5a1abba0093969e992bd117919962, 955715c587e67960da65ef93eb4489f2a8dfd991, 400ff116251cdf36d2b7fe3d4c01e831a7030553, b59b97a2bcb2fdfa97f87b05dd238363010c9c03]","12","1","cc1e65f792b56162d290ab252281e98087f3abb0","220d69703ee2f56de49e96ec2222691d7c2d01d0","d5af56f2c3e91c20aa8a28116d4dcf5f7c741f37"
"https://github.com/alphagov/whitehall.git","3360","14","[b8ca9d294c7626bfa679780ac55c8ead0f9cdb3e, a33135c66a675ddd03a7a48a9543fe11fdcb1023, 86af7d617e7eb1e13a43a34ac4ea03bd5f2ee2e7, f694ec6afe8af1aa83904d50e2f340cf7bae610c, ce616db491c0dad3baefc593ef59ee85c720ba0b, 53ca4dd7722d2e2e7181bc73f8bde14a3ce11667, 87ff3726ede1e188e406d5cee0cc3bba4f68d420, bf639af930f1bb0c9318093c4d0f83b41a61c7b5, 00ea175d5c2267a69e3183cc092e6004587c05c4, abc2f6cda1878fc6072bb1dc7bb8050cfbc94faa, a74a4e8cf02d76cbd7303f6d954dd6cf4bdf6051, 19c406681f8fdc15906d0365f740f1020f7b1340, 2b4b7343a5c120651394224560595c56005b445d, 98e9828eb2b36ebd1b72cf5993aecf05d1066be7]","19","1","b8ca9d294c7626bfa679780ac55c8ead0f9cdb3e","2fc58b2461a4f8da18a3e41f599ae706dc1c54b4","b632d2aec12b8e9dca6ccdb930154d6346d1698b"
"https://github.com/alphagov/whitehall.git","3376","30","[f30ba208da63ae55a4a411f0ec79a19f84b2dfe6, 8ad7c35b6d569a56fea62a93b7b765ace9d762d7, 01c2e2b2161d6343d73c64dd12c3de22ac6eb771, 9835d0f47595ed77a84f20479e99d102ccea28ac, c868f593abf96d23d8fa6c4590dc04055faeb3b8, 9a7398b3b7ed33bb2d9325abad332005f8a1df7e, 14d0849fbf9566281df3f4a11a925fb0d32490ca, c8245742ad8f992bbd77e47dd3a404a97133858d, 71f6d1e506172ed9077673a8ba8ff5e3d5c0f3da, 1bd766acaa97069823e80b36ef75d36fd4f18401, bd317517ebf585dae76c8e277f8857ea53efe6d1, d678e48c151125244f0b861b0a287e67634fd702, bd252616d66b8414db40c9bf15527015a1152f4b, bf2ed4fb0dd69fe826c6f03abcd0fc0dadd83424, 6f4d7ac769f69f7595db15544eed325b37413bdc, d01dbbf02b0cd7415d26220fbfe6e1265cacea8c, 38ea78c152ff979fc9a6ea889377cc168af068e1, 1a08484d3e673471afca7d655a3593bf34421a2f, 642c77e551cfba984cdad7ad3bd4a120c8a8f965, da454df9e749a4a219c3548367652424815c876d, b1b800601b33825236394fe6e5e8e9bb06e158d2, eeda34d73249a4fb6ebdadda1ad57fa430aa408c, 4fb3028f856e39bb193810e9e0b9c530edee1e1e, eb0f7c222ee3727cc5f89349db2952e433776daa, 59c38bb0d193c938a4c7d2ea3cea140664606424, 3cbbd10ec450be1c2a181321930ff9f90d1a46ac, c2663c3ce6e19d58337600ee4f283f767da8ff6a, ddd7821c5758c7bc6d5dc14f806b68f0c6f294ec, 193a9d839931dc0036f8563101d51ca760d47259, 33b9dc434d4cbd790f570e7661f4a8afe537ece3]","40","3","f30ba208da63ae55a4a411f0ec79a19f84b2dfe6","8fd117626e85d82495f64343b2f33bf5a59847ff","d2730d11b54a9e1453e1324ad6014a7b95203f2a"
"https://github.com/alphagov/whitehall.git","3391","5","[e9da78baee93fe193764e392a2289b34388dd281, e335b1f3cb11dd646ee7705f1cd553c8ebf728a6, 1d0fc8bd9956f251786b86868f4c72c534701d1e, bd01f89b5e415ffb30892dc04f248ac4d8c1f4db, 21ae9b4c30d8b312c9ca657f36fa2fa2f2e07540]","9","1","e9da78baee93fe193764e392a2289b34388dd281","ec4c6a2d7d0e0d9bef760bbac0acc1fd8cd6d613","360b3752a1300dd9eb2d9e02e430d6b68fed5bf2"
"https://github.com/alphagov/whitehall.git","3395","1","[33a2eea41851854f95dd8b94f91c22996a2fc2f0]","4","1","33a2eea41851854f95dd8b94f91c22996a2fc2f0","455c6dadb966a5020e53010c5d5a559adb4eb30e","c758d0c2efb9e329386bd79ab471ca77b9fe7723"
"https://github.com/alphagov/whitehall.git","3406","20","[63908418a5f3afca21d25f0bd292a044a625dd53, f39ff6dbe67c4ef191d110b4d0c5d8b6fe3276fd, a7a07b932308126f58ad3d1e107949aec815280c, 07a1219a2bbf506377bd0825069ce1749b9a7dba, a3c31c1508c910a12ea5b501e2b33744f2370b38, 59a7de879a19f45cc8a29079e27d47c70a6ead1f, 822f97bdb418c87aaa60aef90eaa05ec69878305, 8593134a6f80db6de67079d813afa62e5f5b3213, 41013402d5248f8778ebfa308f8a939c0d02f937, 4436c06ca6a099099e1cdd69afcedc2e384c070c, d822e9ef490623a48eb02c942078ae5e52967877, 0a0618df041bef61f6c89c158ce48dbc3eecb9e3, eaa216ce578afecb548a1342c76ac17e8a4fa9dc, cfb1a7f2a329d49028e4002d38c1cbe5ea2c471b, 84f16df9b00d3e560efdaf4238b9a12b7d084b49, 3eef0b5fd126ae3dda5a8516e2f5e716ba73c46b, ab32c90a325e8925b163ac7de4c9843007fe5339, 2444b38004e0c705f2929dfce9050d77148dace1, f19f5f9af20f3b873a9e71cd3220379df1e795a7, 1cafb0adf8f2e18f361f492ac457956c0c8c1298]","13","1","63908418a5f3afca21d25f0bd292a044a625dd53","7cb42854a3e0656e6c5309a32a16880588cb4d53","2fdc3139d19f3614451a560101133254554257ea"
"https://github.com/alphagov/whitehall.git","3410","10","[743201b18549d9255ac798d13686d7359dfa3655, 180f13443911a500b5e0a328d76cfc7a1993be77, ec4054d2fe30b275b6e1b3a989e869218273600b, 8ad59a353022a1a0e8ddbe3674b41477bdd18fef, a786adb17792ff15189f9a243c9dd4e3e3b8207c, 9e5e60a19e5721618588ceb1715629bbf0707b5e, efaaff2d441642820161efd648d7fe9f03d9fcdb, ec736b409b772f1042c35b58802b383ffbbeea0f, 964a314005abaea5ee5c57c7b73ed79203b6d526, 6b52a209e8d715896758c77acac1c1690e9d5aa7]","7","2","743201b18549d9255ac798d13686d7359dfa3655","4b1bfb44b2480ff3790e533282ca4f04e35d8ab1","ed03a99061049eb838a4039a275e8e151856778f"
"https://github.com/alphagov/whitehall.git","3412","3","[880fd023d5f83010398ef8856d0d436c94167e97, 0755fa7337fc6801cd63df4a6d19911778645020, 4320ecf7f722008d9ec624c4b0a6071cdd03e20d]","4","1","880fd023d5f83010398ef8856d0d436c94167e97","1260624f6a5882a9ef1a1b93c3af08252775afa0","749c8f6f78d8ed460da98f82b73cb9424466440c"
"https://github.com/alphagov/whitehall.git","3433","3","[2b2ac8457b09d54f9eca16de105710bbf028d625, dabe5d2a8e0649a9bda33d2aa79130037119ff4c, ff3761f1e743d859782705a7a666cc96866eeade]","4","1","2b2ac8457b09d54f9eca16de105710bbf028d625","bea79889585361f97ad2aa45fefa2573f9d6fcd7","c4d5570bf2388171a6ae030d3a975e4679b3f740"
"https://github.com/alphagov/whitehall.git","3440","10","[482d138aa3b8da9c1ed36c29a53652f33df48043, 768fe9b511fb6bff81246dab5f7351088fc25625, f454b038537c9ab8710190c68178fed054d387cd, 21424110916c75363c75bef9401da3f8fb4f5857, b51eb38a46e27181a7dff1cc049bf57f4446a48f, 88835fa44beb8eedad2088ad00303d9c2fc46712, aad74baff78d95d436c950cb5abe0c1a3958b61e, 21593d4ac6c403b471aded614e537a684590061d, 54c9aeccce84b656f215ead0351f32b340171e97, 667e68403602780943b9eadcbc7d30286bbaa1f0]","10","2","482d138aa3b8da9c1ed36c29a53652f33df48043","b0a06d17aa35005f7f46666c33ca47d9458f9b22","acf9f627092595ca1393f8ad6273aa9e91185ad2"
"https://github.com/alphagov/whitehall.git","3442","23","[c093d8806a2d850b10b579c01b2ad7e49354d562, 2b5448d0ce2012a660d63e42d61c938736d69e6f, 47ff0a4a89967a5fc47c28b60fccd5601d8e72ad, 6fd2592aa0bba54d3fe64deb8ec6158d28d6beb9, b6825c1a8b6de90c8ed9ff98c488bcd4b6ab3a5c, 063bb3448fa6613783baaff2955ae3aba3c97072, 17f96cbe0fd53c1baf401d488438b637c0b4b212, 3ade7768509cf9536326c1119189465442882520, 09636e518506c93520a567938d56e3df3b5213e3, c3ca7c8ad4f8eddc6ab7a1239a9b66e0beee1561, 5f5a14fdf99a31f3e8f08fc920a22cf4244026d8, 75ebc48d468d1571533b5c00bc32f679387c496a, af2b998a006571d6c1a3d2619a3b1cf42e708809, 1ec1a4b11e1d8f95690ee52aa5ad2474359aef20, 6c6b85e9fb0aad37971c05075aef2e339f1d43ca, 35cb53c76380814207bbce8a16a22fff7c8c3b03, 51bd9df9c01418ce5b591bb49c626727dc4c36f0, ba238cb0ca0e28b6c9b1cc1e6a320a4e9a4c0eec, 3ec1e0243ece7fa0edd7d944982f680a34121e52, 57427eda1e3ea09f7254cce1b433c78f70a58b37, 600b6825140698f22111d240de11f8abfff161ff, dea981d80ebf17d55690ad4b6cdf1ca29fcc62f9, 540723d31a8b5456779c72c0d12beba755200429]","11","1","c093d8806a2d850b10b579c01b2ad7e49354d562","c87e710c3a51ee5108bd9ae885365fec3b1e01c5","00d6cacdf5a51c07f49d3ea411f672431dde6c96"
"https://github.com/alphagov/whitehall.git","3451","1","[54092387e9b5978c46c1fc2ab52536e5dddc525c]","3","2","54092387e9b5978c46c1fc2ab52536e5dddc525c","acf9f627092595ca1393f8ad6273aa9e91185ad2","a1bb72baa59631980186d07407a8bf69be8e00fe"
"https://github.com/alphagov/whitehall.git","3452","6","[1d207442a97d6b116e86d76b5a0c1868abb90a68, e9193501ef64818140e20ab92848e48150721dfa, 4f1b987afab3b469dfe03c34a5838c3250c3c33d, 3c321d701eb7d72c400d3fef972d287bd91a5c9c, 1c7e058d05f13d53ca8c219173fef7f70c10b5fa, cac7f461cb9640f46c7d1b87f8afba9097347daf]","4","2","1d207442a97d6b116e86d76b5a0c1868abb90a68","acf9f627092595ca1393f8ad6273aa9e91185ad2","a1bb72baa59631980186d07407a8bf69be8e00fe"
"https://github.com/alphagov/whitehall.git","3469","1","[16f93cf941430414f6d3dd7315f70f0fe5ed72da]","2","1","16f93cf941430414f6d3dd7315f70f0fe5ed72da","500f31da9b5a89808b857bca7023c677a8b9c222","816993132d228f14d7c944b0f959ea6d358d9ef3"
"https://github.com/alphagov/whitehall.git","3474","4","[e0fbbf98d9d78b3e00aefbc58df240dfd71ca3b3, 32fe6230d329d5bc58e728d617c5bb8a2ea113a8, 5b11065ddd3ef8a49b0e966a25eea11e8035c6d2, 198b7f830cab62d2e69a8f32ed3425130d54bab0]","4","1","e0fbbf98d9d78b3e00aefbc58df240dfd71ca3b3","f8e542dc1c3b92f000dea6cc102d49e56ee0068b","2352cf99a8d26fde5d26755ccaa68707548400cf"
"https://github.com/alphagov/whitehall.git","3476","4","[75c0bd9658df3b8949555d85e82841eff3f09419, 54437bc7403a0d9920cc50acea4aff2205099f48, 7effc82b69c1d3d4cef9146164a89d7086e924e3, 3b9f627a265550a2550d9d6c18d945b9ee30c005]","2","1","75c0bd9658df3b8949555d85e82841eff3f09419","794d40291d4e3db312d05613560e30c6f38f090c","3d9225129b40234454882146d20325a64d7b7625"
"https://github.com/alphagov/whitehall.git","3481","1","[b736ba801baa5621939fe8cb39d92c9ca8b3f1ff]","1","1","b736ba801baa5621939fe8cb39d92c9ca8b3f1ff","f38342576ece0b41e5c443e470e4082b64769342","3d9225129b40234454882146d20325a64d7b7625"
"https://github.com/alphagov/whitehall.git","3482","13","[848f35bbfe973b911cad683f901a4689e486f227, e3909baff2ca7f7eeee8b5ae00364ff990b91b03, 11bf68d6f86e9d3b055f98ba257e41b51a8ba13c, d55acf358c52a06b162f0b2715af4d6a151aeea7, b752ad593b757d0adf6d557a47f4b43fecd7025a, 041b27b539c4258ce752677445e852fe22822c7c, 67f431c2367c492d031027a75e3d7091c072ab65, 01efe9cd8255c1d35366447d712b6027738e5c67, 7ed949ae27f5d56f1c8d8d3af1532c340602e6a3, d060d19f86360c9b2a566e66059dca5142eeddae, d8c724b3bac93254b5a88d3a58ee2e6ac7eb4869, 0835a1e9ca69834dfb7c1608bdfc911aaf0edfce, 615b0cd3243abe91186b890d577364c64507eca8]","36","1","848f35bbfe973b911cad683f901a4689e486f227","635b919d2f1ae39315196b4eb0823dcef0009f97","cf42d058f0ab226e97952f840c77e37a8de410d1"
"https://github.com/alphagov/whitehall.git","3493","2","[46012799c71c3d11bb3f980259743842fda78efb, 06877c69d4ac5e46faeac62c00fdb851774867d9]","3","1","46012799c71c3d11bb3f980259743842fda78efb","4099d3a58811ca8494fa27de74adde8551f9bfac","81bd22d5cafbed188c711425af3557be9dd3275d"
"https://github.com/alphagov/whitehall.git","3498","4","[02cdafaa00763e2b1a03076973f184f30ebcc0cb, c9f769e71241ed145804b4bcb2f0649be275016c, 306b7a447d6ab4e79f2a42698cd26ea29392ed20, 8b1be545c4a8036b7b55e103834f94a368555ef8]","5","6","02cdafaa00763e2b1a03076973f184f30ebcc0cb","175c73c212788fcc9406b55e5f803671ba268650","545ac30982f794bdff11ba1aa11d62215408e23e"
"https://github.com/alphagov/whitehall.git","3508","8","[ff99cb4d18058e8da15080aa1eef51e6c95d699f, 2bcb1ddbf853c669181b4e5ad727003241475cbe, 9c346bcbffd23b26c203b4de9150175ee86efe36, 107f7bedc4d40eb17f18de164ab92ef164fe9e5f, 067a950360de7b2d0514880157f15798ab09f0ee, cf4039e2e6dbbeab6a5d68f658adc3b0bab69f24, c083c8814be7784386e91c2fd0a8795570eaa44b, b99d643124793f2087ee544f98e403d57c31c878]","21","1","ff99cb4d18058e8da15080aa1eef51e6c95d699f","28e6ad252eb08fd82a39328affcbb6833ab3a750","011dd5f83055ecd6b9a8b81b230a58352ef87cd1"
"https://github.com/alphagov/whitehall.git","3511","5","[f9b0b7c0397139a337a6a574b400695688a18474, 99eab88386399a8194902024c407c78eff081df5, 32d1fcda8a7286dba33777462a636573a0b9b535, e4da2482196c023b0fd1555d46b9ad4f2ad404b7, 67a5c0d4835e6655545159048177ff7b85c9f669]","9","1","f9b0b7c0397139a337a6a574b400695688a18474","011dd5f83055ecd6b9a8b81b230a58352ef87cd1","9abd41ca5a14bd56e93dfc026fe3ff9e162b6eac"
"https://github.com/alphagov/whitehall.git","3513","4","[d244d9e82c6fefbac71d68232a2da78f5081c387, ac4a32cdb697f73b071ea02a7b16990c2257086d, 15c28d6a475f34e29cbdcf2691368813ff0760cb, b2740770ce3ee44d8d950f5a303ae1b7e5c2a018]","3","2","d244d9e82c6fefbac71d68232a2da78f5081c387","6d2dbd642fea810438c1f3980404870a4e46983e","2ac06e4cd5df98b40d349fa88c59f7abbed3429f"
"https://github.com/alphagov/whitehall.git","3514","2","[1f6c19c4bdeb6fc98c982fb0200aa3006f84a082, 2582a838afc774093b630de9247dc72f5780713c]","15","1","1f6c19c4bdeb6fc98c982fb0200aa3006f84a082","6d2dbd642fea810438c1f3980404870a4e46983e","f08e9135c6292d9ee47ca07b5df238387c505be0"
