"REPO_URL","TASK_ID","#HASHES","HASHES","#PROD_FILES","#TEST_FILES","LAST"
"https://github.com/concord-consortium/rigse.git","359","7","[0159ec0ef9c54cb4ac3ea8ab4dfd74ae2bc6058b, 59f7111c3c581f0b35985eb26b347e53b251f793, d4fe48917e72debd2a1ba55b3213cbbec610fd6a, affb248d3349949009eed0b15c2bd3b19c2f5598, 94db85b17ce038687deec41b2de91bd1463c0474, 56326e581cab425e89655e6e9e6bd742d6fbb563, 7fa160ffae2baa449ac853589a851789a937f99b]","1","1","0159ec0ef9c54cb4ac3ea8ab4dfd74ae2bc6058b","0094c11ec55fba1d4d6a16419102ca32d09dc5d7","c6ced96805ea1efde3ca404f9b0dd561222e9a8b"
"https://github.com/concord-consortium/rigse.git","360","7","[3accba24917af3f997b30a4d1696539afa44d16e, 44cba748c91522aaeaf245dfbd675c73307afd9b, 1e79e1e642e72b444349facb5d931f56bf855cae, 31fd3539c3ec0133ddc9760f7a3fcd0f82e4bd87, 47b59196a469e4e1fab5b54908df807a29e2e862, 83f44aea299c2609479216bf41dd4a12bbabbfda, 81c49ae799e0bf606295147bfc66042d00caf159]","12","1","3accba24917af3f997b30a4d1696539afa44d16e","38de00615985586483ef16ef641317cfdd2552fe","476dded3e5d047ef321e1aa05a5388d027b16778"
"https://github.com/concord-consortium/rigse.git","369","3","[7b05452eff73f603e738e78f452e3a334fb6b989, 637dd342309afc7be349918c4f879395760ab269, 5c77f7c5d35acbcd50c89818ceb97e2d18714c4b]","6","1","7b05452eff73f603e738e78f452e3a334fb6b989","3afc547dae27052630be1571ea36555656efe31b","f7f0ccfae45e7af5b06e92fb3b81ea7c55a488a1"
"https://github.com/concord-consortium/rigse.git","380","17","[7e5dfe3e0c4f40cc55186c9b40c2a7673c401e38, 6aadb7fe484b1612bd387f0cccc9398891ac2683, 97c0146b782c4683246bb32eae6962e6d92bfd61, 528d9a50514d599dd6d0fb484dc27a0692a93a91, 43e1fad48899cbfdbaa9cb8b792f6e9488672929, fe34b89b020d849ebc45f202f54f59a05000f6bc, 31f4941decbf00fb203a1995db089537001d1b56, 134f5c4cae5036bf1b5e3e9a852c8c3b7a0c6220, caf9a099312c9e929424b25ddb02cbd4b2b84d3e, aa8bf3c08474a236cf8762d20e6d1285e41abee2, 9d82c0b810d467f5d9e6bec07d8f061c94835cb4, 2616144924c0c6d8f0f0b6425b33965600f25c73, 06248fb34adda45920dcbb385e37d4835cb0a5f7, a60e5615015246af7ac8d4ec1c19c6339570c3c1, 687a660dbcf7abf5956af6dd42536686007b3dc2, e7e093fcc82d66dd21977a82e0b60a5b573e6c75, 198338d9c271489cfe551270c9c685209274640e]","6","1","7e5dfe3e0c4f40cc55186c9b40c2a7673c401e38","0e32fdbdeddd9c70ca5846ea85374ad6a5b9461d","72b8c6a456f570d842c57dd7bd828b89dd750305"
"https://github.com/concord-consortium/rigse.git","381","17","[278e5c631e9eacf6005fe3a812c528546f0e23b3, 40de784d425659ee0bd6213d3693b3a3beefbdb4, 846a90201d1c1c83b7d3678dfe7356f3c31cd35c, 69032400c71511fe4446603aca77367abf7400b9, 6ca31606e4a0f8cedf91b8a69a87b9bb7a4e2618, b07bce3ea442a6a3cea4b0515cea6478c11d2e07, cdc5e401848cf69c92336a9a23aa890ec426a00f, 440a13d3f1c1c91b247ac99629133f7d81221d88, 805907801b6b5e9ccc94d9554551ccb163f1b2cf, b6cf6cbdafa6eb1d4e01d1b5757c0be1facd1fb8, 56ec6296bf527b6fa500218d4df4ca71176f510e, 34883d6112eac5e2e947607c5d4ac5350ac8d8f7, ccd58771363af17804c269a28009e916a7d76e19, db625334f0b29aad05242774a114925a10fc428d, bc13b233103556855ffb812f7bb1b7396dd39b37, 9b22e4563968104a5aea79215caa2088930c7970, a2c7f053cc141818001c268e17cacbd5fa6e9a51]","8","1","278e5c631e9eacf6005fe3a812c528546f0e23b3","0e32fdbdeddd9c70ca5846ea85374ad6a5b9461d","c5acf8f582c4fd4591e7d6d33fbb6fa627dc2d5e"
"https://github.com/concord-consortium/rigse.git","385","2","[d7d2770748d6cd0e1f3154ea13775d975f890978, 17f79ffa669a497fa7ee8dbb9c12d2f0a56a4dd5]","3","1","d7d2770748d6cd0e1f3154ea13775d975f890978","59f5baa9b0f470a323ee90269e075c4258264777","72b8c6a456f570d842c57dd7bd828b89dd750305"
"https://github.com/concord-consortium/rigse.git","388","4","[9d2345c5a670c24a94f53dc3a349cf66368d47ba, b4dc77265e7be86ec021b8a1304114864d20cdea, cca588aa5c08f7bfe1e5e3c46e10eb7f3e850b51, c93b5c471baf4d9947fd4add382aceb1b89ead6d]","38","7","9d2345c5a670c24a94f53dc3a349cf66368d47ba","8ef966e47722216b1407c07d0d9e2629a78461e9","1daab4746d8ed3c0a3ea1237b2bbd9e772d6b07c"
"https://github.com/concord-consortium/rigse.git","390","1","[6bc33cfdd2e72b00c2caf17699c48351938d98b6]","3","1","6bc33cfdd2e72b00c2caf17699c48351938d98b6","0720e7591c7647089ead080746481d1e2b3be19f","1daab4746d8ed3c0a3ea1237b2bbd9e772d6b07c"
"https://github.com/concord-consortium/rigse.git","413","20","[67721137363ecc09b53effc04c328631e3ea99b7, 10bbdd2f0cb022a87506f161f97be0c00640a200, 4de588349b303a73626997a2507200c16fd26222, f306d2b1f50d520a009de6eb4ef4701beb414695, 6c135403059939e445fac51807445ce1e190a5a7, 241e846211fcfd871c205741be34d42fe4cc447c, 901ca47714c63abdb38a08921e3ac3b53d44246a, c9460b2ad8539139cf2892124227caeec058cbd1, 2a5150ed72e724cbad3fe40480fc9889b67e9dc6, a2961b87eec3a4902b9d98c534018af7acc6a35f, 52b5c06bddfa8ba1b477344a5623142550cf8174, 807cdef7a7cc9ae08490428a0bc6a2a79b2c493b, cc3a65dd023f51629cba0983889ade96db62a158, 0ad37f09be4e767413a0ab32421ff1a74820b892, 2315939c7aeec806296bfafbab7c1671876df1f7, 42ea44063f6934eedc6f20125017b79df67e55b7, 9e740cca2d87da603857879448cc61d5091cb1a5, cee01df85a4cca0e75cefcbbf3215c0dafa64abb, 7c24561cacb3d9101de58d7d7c1a87e77394cd09, 8eb9dc01ac5ca8e7e78c1d68e04a2603bb829fce]","29","2","67721137363ecc09b53effc04c328631e3ea99b7","49ccfb166121c3a693bb88def8e5930d6616af59","e78232d7a91412d73d47c7e8856258159a247f33"
"https://github.com/concord-consortium/rigse.git","433","1","[77ab56866dc8817bdef1ae97981b749ac15878b0]","1","1","77ab56866dc8817bdef1ae97981b749ac15878b0","462cc3bd600745fe2210d9f5a0c86d2eccec0a05","a2a727c1b2e54b8f23d6f204b87a606deccbf71b"
"https://github.com/concord-consortium/rigse.git","436","6","[bf9e300a394d9baa52d0dba7581c79daf663c757, f591eb680ddc894602f3bdc15e66009b41e14b15, 04d20d8eebf17f6ae55c8bcd77570ae5f098c69f, 6b69ad9382570b31b73c790645bb0c64f2762c92, e9f1e3a9ccb98fbd9793b0ea8c1beebde93dcfe3, 3c25d1d31e6e64cf7648b46c14e7b03758d14deb]","2","2","bf9e300a394d9baa52d0dba7581c79daf663c757","e8bbe1330ba38dcc455d3578131c9f42642421a8","1fff056c8d1754dbd8e5cc2d4391ca8948e7983b"
"https://github.com/concord-consortium/rigse.git","441","8","[6453ff305b8369a60547390c740a58f38aad8fc5, ede0cb3c7a67fb97efa6da8422305047b0824995, e86a5e8032fa752dfb32c0ae370f4ecbf6dfab8b, 81ca6dc731a381aa128cb01f72e6aa9e3b915142, 232c633adcfce9c1f3da8a985ef6321ec6634744, 62a9b7c6c8ccc78ea49fa0f94375e4554b3024de, 0fe1386f8b8d0e0060c50b79ead3021ae70251b3, 53568d5da6040423d224335bce7f1af03e586dfc]","8","1","6453ff305b8369a60547390c740a58f38aad8fc5","c49446d4e7e4992d63c0e3e84577144f6eef2332","909be3cd2ea2307634a78a55941d2f039b50d762"
"https://github.com/concord-consortium/rigse.git","445","4","[9773c5b47bd347de1ae83113bc26d5bcf826edfa, 8a698ca887968a83e20aa05e121749a66d0407a7, 6256abc2fad70608dcddc9d852c12c3cf9b2d48f, 2f39916274b5fe94f4098ae0496be377f54b3cec]","2","1","9773c5b47bd347de1ae83113bc26d5bcf826edfa","c78c5f71b08aa521e11fa280adac73cacd8194ea","1fff056c8d1754dbd8e5cc2d4391ca8948e7983b"
"https://github.com/concord-consortium/rigse.git","453","1","[27dc4de44cf77fdddd5289e6be630157bfe809c9]","3","4","27dc4de44cf77fdddd5289e6be630157bfe809c9","0ca096fe6830425df0eaa13c833605d5ac8e2afa","a516616f39f85752b8210ad61e01fc49e5a4d8b1"
"https://github.com/concord-consortium/rigse.git","455","6","[a20c0b20225ec3bc3c03968c3d37c8d03e0a2748, d0167112d5093216aac7dd715fed3aaf585599dd, 24c2e38e96cea232f56f7130ff43fc708a203593, fca40681af7a53dea4ad58421058b5fd45724201, 3f7638aa652c4e63b5e41b6fffe99186fad6b88f, f575bddddc4c23580aa6f03bb99fe0acaef6c1dd]","8","4","a20c0b20225ec3bc3c03968c3d37c8d03e0a2748","4b7a2e413abee0bb71c5ad4ee432578d43135f2b","2b36fa237fdbb1839c5b44499827bb852a07b68e"
"https://github.com/concord-consortium/rigse.git","459","12","[ff7aae693a71f6c8ba7874c92bfc2ba77012bcc9, 1a37ad173c41e5e161a3c22d91e6e22cd383f37a, 064a98b24abd7c8c279864e6de90da935f4376da, 6e77744113c42c2927014d233cf9708a08c7e011, cd26fdca3598ec83e2c59f090e39c437ed890a05, b6f56cd677d98e40058ac6126b51411cbb3b7ff2, 0040494b2614a8347e160a903075534607367159, db084536a01fa8d2c36f847b08621fe5727ccbc2, 4d8338f9fe3ce070b14d84c2b3db060b9d5809f3, e77daaa351b4e9428c5fb387999f8ad6ff55a3d7, 5cd5352fdd7dd23b197df58997fcf95842b1be2d, 2eca0bc4fb5cb4df4e95eb2c849315230108dc98]","29","11","ff7aae693a71f6c8ba7874c92bfc2ba77012bcc9","51054693ac688764bc582b5dc6b41804fd7cc38b","2cd16b4a1517c6ca140ec00ac4cf9c82a198f819"
"https://github.com/concord-consortium/rigse.git","466","4","[157ceb3d127d945ce6a3808e6726c28627ace737, 2eb3b865fc7cc1da6d38db2ced264e75f5c0a137, df7127a28e81639b8b6db3dd96deeac94a2a0540, ed8379814f37b25bd32725668f7b875e070dc7d2]","8","1","157ceb3d127d945ce6a3808e6726c28627ace737","707466be9577cd3b23e3767bf891150e7f6896c8","16fc44dcd8d364eec818fcef9045a156ae96e47d"
"https://github.com/concord-consortium/rigse.git","473","4","[bec79fdef55c8df34297486c50862e0e8efd1136, 187edd677eb07c3b717c07880fa0f2ce4773415a, 44da174e035482f7d75be719801e4b73f32929ed, 8371217cf0fa1726d212160437aa27fe57512adb]","5","1","bec79fdef55c8df34297486c50862e0e8efd1136","9b6f6bd370f7543f4518602f1e4befc294ca66e6","b619bfda71a13b8e0a9409f739b506fb2d344377"
"https://github.com/concord-consortium/rigse.git","481","1","[10dbf65a29ed0454caa008a18ddea45c178fceaf]","7","1","10dbf65a29ed0454caa008a18ddea45c178fceaf","d2bd405d2cbf85bd0765036d2e726ee908e27565","e0218500b33b7c564f4267966d63914b1e8b149a"
"https://github.com/concord-consortium/rigse.git","509","2","[a6fbe30f7ea88d9f6a6b76ccda5c4aca73cb6f02, 8115ce76eab37d049812b6b84c752e0a79bd4fc8]","3","1","a6fbe30f7ea88d9f6a6b76ccda5c4aca73cb6f02","0695a0bbfbe523d2a0ee032597813024da217878","1b27696f20b4904220e4c331fce947ac1306399e"
"https://github.com/concord-consortium/rigse.git","517","2","[f3585f15f7069bbd9545ee6411cde492e067a04a, 249de84eea71d8ece39458460a942d8776c0b009]","2","1","f3585f15f7069bbd9545ee6411cde492e067a04a","723ec322fe429a3516f7552b34a16ad90e7c72f6","1099feebd1ef0ee9b127c265325b4d51bd8f858e"
"https://github.com/concord-consortium/rigse.git","520","3","[eba8c693088c28aa7d466b1f5b8be1d92e878c95, 0627621968aecfed2166164a315d9bd08f59c318, b1b17682cfc27b471a03a906d48bb8fc2282044c]","7","1","eba8c693088c28aa7d466b1f5b8be1d92e878c95","4be9b34345ae4a709276865e162d4cf1fbae1579","11c5f244b37bf397c1f307a1c466338d9340462a"
"https://github.com/concord-consortium/rigse.git","523","1","[069cf624ec3a253992d0bfdbd60c50942fbe1cc6]","7","1","069cf624ec3a253992d0bfdbd60c50942fbe1cc6","11c5f244b37bf397c1f307a1c466338d9340462a","74d538ad6fb355004854044d38b18cde1545ddb6"
"https://github.com/concord-consortium/rigse.git","524","3","[c7421180d5722eb3e55f0728da4fbbde92b1e3f9, bedc3c201f02622bd71f01e28285189ff545ba02, b9ed9899df612362985d4315e1e0014beaeaabbf]","1","1","c7421180d5722eb3e55f0728da4fbbde92b1e3f9","63fc9e7a828f67e392ea829077144d4ade6d1d25","1f3fd9c21451ca9aaad108c91920211f9af4f442"
"https://github.com/concord-consortium/rigse.git","561","4","[f38738551a9e4f95b6dcca08e7133c2cfce9f036, b6e949b44bd5b2b41d5d0cddb6c47df51d9162d7, 094beb57563b8aaa6d09da6f45896a8ecaa69a5f, 412a39788527829c2f04c51fd4c15614e07d89e3]","32","1","f38738551a9e4f95b6dcca08e7133c2cfce9f036","9208736ae605efd191f727ee055969cd20a91181","f446892bcb9321993f9dc06c986495f659b83944"
"https://github.com/concord-consortium/rigse.git","565","3","[d845ec703e8a10fce1fd8999c4968812a140c65c, b0e6c06b526ef964fa11bda0322c4f6f1ebc0ac9, 8fabbb8425049779fff40878562ee87a9de84b30]","1","1","d845ec703e8a10fce1fd8999c4968812a140c65c","f446892bcb9321993f9dc06c986495f659b83944","01587813880409057fc13da07ba3cfc2451a4b2c"
"https://github.com/concord-consortium/rigse.git","568","1","[a5825682b8238f8698d3167bb67409ff1fee0ce5]","1","1","a5825682b8238f8698d3167bb67409ff1fee0ce5","01587813880409057fc13da07ba3cfc2451a4b2c","5c804541e06684eafba48e3f1aab6e1f9fb63969"
"https://github.com/concord-consortium/rigse.git","570","7","[5bea8d16b959f800b139568566df14b52a586f05, 3ff1e2f9b005180fdfac109f1e5396ad112fabcf, 47e7a938423d6f26463b518c3c6864408ef7241a, 9d53bbbc91a2e3b21e7d2aa12c025a748101daa9, c8e09a53dd65ae338a37ac0211cb9913595ba985, 7c3964854a937cc1983bf4e794031a7c6d0b7c1e, bcd3c3ca22c697a1ecf82a6bebccffe1e31ca035]","1","1","5bea8d16b959f800b139568566df14b52a586f05","b7ecb419622bbdb00ca921580cb102a6c00ba45a","8bb6597c98057a82e19e324108dd66076e81b0ee"
"https://github.com/concord-consortium/rigse.git","589","1","[8208d54a99dd38f3451f3c71d52e760680e1d58b]","4","1","8208d54a99dd38f3451f3c71d52e760680e1d58b","7ddc0efa57d37dfb8533f0e6f85d6a05e00140e7","ab69d90b1145812ad1706501d9e98bfe3256ebd7"
"https://github.com/concord-consortium/rigse.git","591","4","[60e2cdc310ed93984bfa23a274a64dc2348ba2dd, f9090d62f52e150bce236424aeebfafff03edb06, 4892637752468bafb6ef2411607284ae7d06afa7, 2589430789be0f27e74372d581322651ca11663d]","2","1","60e2cdc310ed93984bfa23a274a64dc2348ba2dd","c258fa512f68d532293bd111b4e9cd85d9e2baaf","ab69d90b1145812ad1706501d9e98bfe3256ebd7"
