"REPO_URL","TASK_ID","#HASHES","HASHES","#PROD_FILES","#TEST_FILES","LAST"
"https://github.com/cul-it/blacklight-cornell.git","912","5","[3ed23f08ca610dba3b4ec1b11f08cfe1be956051, c4bb6b271b71ad1a9ff283a644e6f4d482bce147, 511b580d770d222cd5c7b8884cc7508bded7e6a7, 61db67adce5701445b44dafc1951916923a457a0, 4b4b8bc3a1de12cd613c110245f890c544239c46]","3","2","3ed23f08ca610dba3b4ec1b11f08cfe1be956051","39d4c3547f4709f327444a226cdfd0981278c9ac","e635e2395d4d4fa6bb654cd022ae83621460d8bd"
"https://github.com/cul-it/blacklight-cornell.git","919","4","[2ae77a49c50a694c6d518e27d81a505c5c08d0b7, 2aed17c213b752e7055495525c2bc938b775f33a, 88b4c62941b1225bc26b035c66614348df3eef68, 8ac4f3025e47bb9fab3cebe683c8d33395d8b3cf]","1","3","2ae77a49c50a694c6d518e27d81a505c5c08d0b7","159b653bc42f7da2e732f18beec544eeaf0622bf","e73c16f188ec840e824274560d59e1b8474be266"
"https://github.com/cul-it/blacklight-cornell.git","929","2","[2476c008f72c8f7308f9ac4e4429f9759132ed3f, f689a3cad34612cc9abe783934b504a9f08a4bfb]","10","1","2476c008f72c8f7308f9ac4e4429f9759132ed3f","f6e315ec400830ba2bcf4c5360dae844e568e5f2","10900751452b27d556979261dfdfef7ebda2af23"
"https://github.com/cul-it/blacklight-cornell.git","936","7","[21d23591bedd7373c0981ed10021366e05a85b12, 44df314688d068ab6754093379d0992745c28975, e786359eb84db9e6295472964aac54e30d0c9c7e, 5b5730a3e5fdd99467519e3b3655cae21d0d896e, da75bcf53af4c110b8bd83888a90d0147267e40d, 3976826e23497e8ff4d0ed0ce1160a08c47afd4e, ad3fed5f040c66cd76fdbef22df1f4f2971be76f]","5","1","21d23591bedd7373c0981ed10021366e05a85b12","447eda7563e91575bf466ddfba5abeef2d76fb71","a10f99b2b504868e2f8c3f28abbc5260f321a5e8"
"https://github.com/cul-it/blacklight-cornell.git","937","1","[a10f99b2b504868e2f8c3f28abbc5260f321a5e8]","1","1","a10f99b2b504868e2f8c3f28abbc5260f321a5e8","a5fda465fd914fc77ed171e666a7f571a1b3bd62","5d0f05caafd249fa24ce37453a0f79ec6f5fd6f9"
"https://github.com/cul-it/blacklight-cornell.git","943","3","[aacdf7b27ddae5e00acaa233c74c6ae5f80b7f05, eeadc7e453f4ce163441c40675a829117a314f15, eed30f9cc37199640e77e93c6bfabf1940d1c857]","1","3","aacdf7b27ddae5e00acaa233c74c6ae5f80b7f05","d9b5a3942abf487354cbd06e343ea67b8919a5c8","76c2f3d32df403f580a81b60d69b883656dfee53"
"https://github.com/cul-it/blacklight-cornell.git","951","1","[4a61e5b1333d1bc74b8a17320de3f44a2d3533b6]","2","2","4a61e5b1333d1bc74b8a17320de3f44a2d3533b6","3ec27eb82476fe7630b1cad2886b43a5429ef164","e8334759c05afaf3c8c405eaf1da54b1da08e640"
"https://github.com/cul-it/blacklight-cornell.git","954","4","[3d4c0a987af4cc91cf210b6c4c8839f1ae597037, 4710229f5df84e6eadfca298d597c41738256378, a5ab4caf09ccb0ffc9f72adf09cdedf663d9a953, 3267e2c3bb1b0116716275ee2ddb38ec5aa7c6d5]","2","1","3d4c0a987af4cc91cf210b6c4c8839f1ae597037","e8334759c05afaf3c8c405eaf1da54b1da08e640","7d036698035ff9246f72f6e602196f5ca4162f8f"
"https://github.com/cul-it/blacklight-cornell.git","961","1","[c251938ff3e848554f562da18e261cfe93bf5175]","1","2","c251938ff3e848554f562da18e261cfe93bf5175","e3831aeb5c706382151f80d1808d071d3a21c4cf","f2b0c3ec3b444d26989d97ded7703cc929938b98"
"https://github.com/cul-it/blacklight-cornell.git","986","3","[2394c46f816c3ec727f73fc52987c824bedd39e2, 354b2b46368bddea84a53ee0554545dbc2c561b6, 4021fda231f014938c012a5087e0377fe6e47a10]","2","1","2394c46f816c3ec727f73fc52987c824bedd39e2","694b272cd8d9c603c63921a5884a86303b43cfd4","ad7f56dcd4619bf48bd54b65340bbef376dd4e8b"
"https://github.com/cul-it/blacklight-cornell.git","992","1","[83e04de5b89499852136510c433def5fabc6cce9]","1","1","83e04de5b89499852136510c433def5fabc6cce9","0d2922c382b3b71cc174263d78905be2ff064537","556aeead6a42484de15c09f45e853e5f840b9a4b"
"https://github.com/cul-it/blacklight-cornell.git","1015","3","[f78c1d87809d3ffb21eb6ffaa0a90278e1e21d09, 3a7ae0fc217a47488e17560462af2ccc6955a8f4, 93162ac8d2196cf347a620ab5188af41562eff17]","2","3","f78c1d87809d3ffb21eb6ffaa0a90278e1e21d09","8f1e262d4e0a4b4ee61772f7334533de781a582b","93254b1b3ba9bdeb5f16a72958bb34c4442b48b5"
"https://github.com/cul-it/blacklight-cornell.git","1027","3","[9cbce0bee6f32d8f5fe1f10c144f40e2eaa04172, 515ccd5ee59c09c66316bdafb655b0cabdea999f, 53465631607b9e11d0f9a41eb87888a3e5a97464]","1","1","9cbce0bee6f32d8f5fe1f10c144f40e2eaa04172","125b056867b0d5f0b9eb577ffb0e68b17ce30577","59fa5355721142ef3016befdfb0f417bb1ea3a82"
"https://github.com/cul-it/blacklight-cornell.git","1056","2","[b571169a28c30e2d144b0bf7a2b8de83ebdbfd92, 8d9f272c08535447e6d73f35f34209c0eeee0b7a]","1","1","b571169a28c30e2d144b0bf7a2b8de83ebdbfd92","c05aa64bd13d5ab8188a421cfb0a39880d23053f","b79d0d786a5b9d51cbc3fd4126507b01229a7ac4"
"https://github.com/cul-it/blacklight-cornell.git","1093","1","[f37f0fead9c5404e7aab39883e58090ee88e6b5f]","8","1","f37f0fead9c5404e7aab39883e58090ee88e6b5f","39189aef6b3f178fc9ff580f22310d515c677980","c33d1bd5ff4592d20540c6e991887714af37f715"
"https://github.com/cul-it/blacklight-cornell.git","1101","4","[83ba01fd222dcfbc6f6d0cff1da619f0c5dadb51, cac4686f96820e0ead39e8e0a97161c625e569db, 12fe59448ddcae7b25e1f2b80485fd23fbb2b9b1, a16fb52054c1c59d746c56a4deb40a026941a5a9]","3","1","83ba01fd222dcfbc6f6d0cff1da619f0c5dadb51","90c5864a41edae102ba9c6a45ccd756811a7ada7","1d1b86d833dc5e6fbbcd6493b5568e229c31bef3"
"https://github.com/cul-it/blacklight-cornell.git","1266","1","[569d22050100b418e3ab6eeae7456dceeda8d07a]","40","1","569d22050100b418e3ab6eeae7456dceeda8d07a","a97f35a90a6a2e4f13697c0f0968ec4c4e41e3c6","2b5b7e49e05ee6aa532addc4c4d28acc89e2d964"
"https://github.com/cul-it/blacklight-cornell.git","1460","1","[ab18b8f82ba9e61fc65cdf12c732febe1704d19e]","61","5","ab18b8f82ba9e61fc65cdf12c732febe1704d19e","7f5f5625149ce96bed21c721653c5d02b2e15cc1","ecd8a1e0fd7f75b2d5145811208e725527036dc1"
"https://github.com/cul-it/blacklight-cornell.git","1476","25","[866a946429312defae3d954b535fa5be3b0d2a6b, 5e8b437ce04daed1da032e01114abce68d236ab4, 0b16e2636b1e77e8521ba10da677d03cd173d0b7, 169f977d55a0f30ede27902dda77a7e286992268, aea7540cf4bc4da87b273cc2d126138f75dd672e, e83745d9218e9985ad0f7bdfb3075544e2f81fe4, 2d41293b4ffd7c14a7e96fe20004d5dce1862646, 94711756587815934c3b61733022ef2ed558bf34, 7b4681056e400fc6f1f5091753b0571327935a47, 252c217c3f6a82eb9c70074a2995bd364bcdc0c6, d06f798ad7b27646c128947215071585a43e7303, c9c7e86f212759432ceb51aa02e07f4de4942b0d, 354d2667168aac1a49b5de46b8adf56643b6cacf, 00948cc714ade0691c2873e21aae7eedda52cf8f, be7c1768234ee31d86112f792738925af766ec6a, d024274285811f3b2582af17f995e2fbf066fb66, e6f5cdaa5a527e39effa8386f8e5ac9433b58aa7, 2e988dac7e2ad4f20ab25e62745f7a7868e4aa9e, eb40a718b6055df507c14480a0d6debd63709651, 20debc2afcd65082dfaccf16668e2a998181db0a, 8a1061c5e5efeb3c4849b5da057b06d8ff562953, bbd676f821222f6ca9ed29c6d485bb3e41a9ba67, 8a49fde30c09c6c65f78cad62efea594a1c83660, 85ef829572cd13be991d607504969baea5c2b1ba, 1a8077d1fbf89bd55649316bfac4c77a5ec8cf10]","25","3","866a946429312defae3d954b535fa5be3b0d2a6b","fc9ec5e99575af0ccb00cb145e4e61303e02a7ff","9089f0c705ad93c50e13cb34dd0b087973ef5c67"
