"REPO_URL","TASK_ID","#HASHES","HASHES","#PROD_FILES","#TEST_FILES","LAST"
"https://github.com/otwcode/otwarchive.git","2604","6","[2e9794345cc7b213e23fe25cdbe460bc4c99b28d, e3fb4331100422d4a9949611ecaaccea38e072e0, e750114913cc0108d87f5f09ac851ec827f3cf01, 28ff96e39e5f0a038c3e9caf8be3ddacbb8da33b, 787ad9c3d12b8700ee79b36eeb0075161280b166, 36cd9acf27bdad7651c778daac04209f0a9827e7]","11","2","2e9794345cc7b213e23fe25cdbe460bc4c99b28d","76692f4ed1c2afe9cedfb0f2aea1105c77eccd00","eb7f7b5ccf5590bdb9dc7f7c87092ba2e6d12d56"
"https://github.com/otwcode/otwarchive.git","2605","2","[b8f77912bd0516199f7ad1b2db10e76e6e726a5e, b596c3dfbbc9a39467aa8ef2e26afeec07983dc3]","3","1","b8f77912bd0516199f7ad1b2db10e76e6e726a5e","76692f4ed1c2afe9cedfb0f2aea1105c77eccd00","906971addf994dcd8cb35835105f044a78f50b96"
"https://github.com/otwcode/otwarchive.git","2608","1","[7b419ca26e520d7aec709a2a4fa73b61ee9736a5]","1","1","7b419ca26e520d7aec709a2a4fa73b61ee9736a5","b4ec10b3a388de9265ae1cf7f59debb3da2abfb2","8dffc741babc4d71fda6baba58b652d73adfb8d9"
"https://github.com/otwcode/otwarchive.git","2609","8","[e6a418775ac7c115c31033f8f092e0035c11a432, 3126d802550b5f20d1ce4e9c6408dc53881f6e42, e14d1f3baad4ed6940644777e2d5e51ac083e416, 16ad7981180caa6b1b9f0217e2157a1d8bc78fc3, 8552381f3000c827681c2e76e233a8b3beb75d74, 90db23df2a6eb86537bcee48fb80ff02d03ab08c, 36f0e3cb27a7872d5d07c75ba94f88164c1b93ca, 4faa41f69738ebe96aea7a2addc80cfa507107db]","7","2","e6a418775ac7c115c31033f8f092e0035c11a432","8c02c4393cc352e3c002c26838d80462121d3943","0b461393ac5a3a5d8042ff5704957047504ae870"
"https://github.com/otwcode/otwarchive.git","2612","1","[3e34b1e2b5987adc3642588f24bc7e6ad6bd18ac]","1","1","3e34b1e2b5987adc3642588f24bc7e6ad6bd18ac","ccbb9c47f3de3e810f6759037ae6f951febd82b5","8dffc741babc4d71fda6baba58b652d73adfb8d9"
"https://github.com/otwcode/otwarchive.git","2614","1","[31f5cdb692334eeed82f0b435b0fe916953289ef]","2","1","31f5cdb692334eeed82f0b435b0fe916953289ef","6e79dd2093797c7fc1a31b9afd4e027db6c08f7d","90974119c72131c229d9d25d3dd2fe0f24e8f0a3"
"https://github.com/otwcode/otwarchive.git","2615","3","[981df5fef94a57123cf551f172ad2cc04edc9049, 084e1ee97f2a4e51cdb4191ead36d5f3dfcd32ec, f0deca398e0346137ea156486f40269e1eb5c555]","1","1","981df5fef94a57123cf551f172ad2cc04edc9049","e50ad366d49f278cab79ed4647cba8844a2543f3","90974119c72131c229d9d25d3dd2fe0f24e8f0a3"
"https://github.com/otwcode/otwarchive.git","2616","2","[f9c6c3e28e9993e84eceeceba018e2b426f6cb35, ac200a3e76cd98f8949b4820cfb3abde9bb9c6ff]","4","1","f9c6c3e28e9993e84eceeceba018e2b426f6cb35","71fcf162d8cc1219c2afe74ad9dcf46de88a57d7","906971addf994dcd8cb35835105f044a78f50b96"
"https://github.com/otwcode/otwarchive.git","2617","1","[61066479690fe26a51148b3e7f12e936c11f22a3]","3","1","61066479690fe26a51148b3e7f12e936c11f22a3","90974119c72131c229d9d25d3dd2fe0f24e8f0a3","906971addf994dcd8cb35835105f044a78f50b96"
"https://github.com/otwcode/otwarchive.git","2619","1","[a6453e57696bd2fe7e38aaf4d7d829d94a4f118c]","2","2","a6453e57696bd2fe7e38aaf4d7d829d94a4f118c","07e7ea37b14abf1a8f09bd4dbde1dc9f2fb0fa28","906971addf994dcd8cb35835105f044a78f50b96"
"https://github.com/otwcode/otwarchive.git","2620","5","[3f13997c970fb1e24b12d16171f0bd57f491e277, 26a428d50ab4044a2718d7afee0cb95f15729138, 97c1467a05ad7d705601ace2728947d34c460090, f0d6433d9b19c461b180f00ef7190f27fd909b27, e9bd09a847dc816d924c848056527a404b5f2196]","3","2","3f13997c970fb1e24b12d16171f0bd57f491e277","96b17a0fa94dfd29f4dad4352aca59d332fef5d1","906971addf994dcd8cb35835105f044a78f50b96"
"https://github.com/otwcode/otwarchive.git","2623","4","[b881b27b2ed2c5d912387ae9715895fc2c906905, 3353293f9c80d0a682fe8b59796a8dca913cb161, f71e122ded3fbf2a9bad6314917b30c3ca3c355f, d8eaeeab553fea0e592afd97e8f4675ee674e744]","2","3","b881b27b2ed2c5d912387ae9715895fc2c906905","906971addf994dcd8cb35835105f044a78f50b96","8dffc741babc4d71fda6baba58b652d73adfb8d9"
"https://github.com/otwcode/otwarchive.git","2624","2","[8379df91064474a89c22616e6b2cc69892df3c42, a137c1806e0170d661a22816c73a4f5291687b67]","1","1","8379df91064474a89c22616e6b2cc69892df3c42","8dffc741babc4d71fda6baba58b652d73adfb8d9","9af0f5eca42de3ae4b509bc5135df06e7083a865"
"https://github.com/otwcode/otwarchive.git","2625","2","[c351d15d6ab25dfc9fa4e2491506e00aef62edc8, 049750fad8d8409d72d5612a45a83a9c6bebaf58]","2","1","c351d15d6ab25dfc9fa4e2491506e00aef62edc8","a89960bfaf92a3c4fd0a5631b1a901cc79558d7c","9af0f5eca42de3ae4b509bc5135df06e7083a865"
"https://github.com/otwcode/otwarchive.git","2627","2","[643f1785d8b3a37b2106908a6c86decdcce64bab, 2d14d17b2f2940c074b602a60ce108d4dca49b28]","2","1","643f1785d8b3a37b2106908a6c86decdcce64bab","900ff3d00b358efc4109d0bb1735aaee0713eede","02e977a05e2ce960b5187c18af7e49dcaae6ab4f"
"https://github.com/otwcode/otwarchive.git","2630","3","[cb21af8618b74e18202f237c77b0212bfbc4fe6d, 68ab5c2b32f88a28d0145a2efdfe33eaf4381536, e7fff928145f9eb3a555c7155bf63848cf807196]","1","1","cb21af8618b74e18202f237c77b0212bfbc4fe6d","cb52fbb726767488ee9e029cf37f096007e222fb","46d58dd2b6ec63be690dc97e51c0a8261cd8fe40"
"https://github.com/otwcode/otwarchive.git","2631","7","[5407c2cced58e0c727b8f8c2d5caf53a6391cb57, bfad1e7b349d180cab22cc4ef81590466522f5ab, d36b9a3cfc771728276adda2b71b292e963ef43b, 36b71d0ba86ef09b295c1d986dd2638336ac8000, 7a12b6dda52cb6465072a24d0bd1181c81be87ee, b61fbb32ef603ccdcc0322cca21cf506d8764cc7, 476a5977491d63e7ddd0a06a07a0293716f0dda9]","5","2","5407c2cced58e0c727b8f8c2d5caf53a6391cb57","30b2d48fa4833d793d3d0bea3af5d6f8f2784d11","46d58dd2b6ec63be690dc97e51c0a8261cd8fe40"
"https://github.com/otwcode/otwarchive.git","2633","1","[830aadf804d6924e7100018e30beb10eeec56b79]","1","1","830aadf804d6924e7100018e30beb10eeec56b79","5c68dd91f707772f9ff27acd6db119a9ff63a8d8","f8042216d13f2336682de87d5dc127e6033d81f0"
"https://github.com/otwcode/otwarchive.git","2636","1","[b1f57c1071b9b49ad04f10cadd029dbfc535eaca]","1","1","b1f57c1071b9b49ad04f10cadd029dbfc535eaca","38f80dda7d38edae81754b212606f2b17ec47125","f8042216d13f2336682de87d5dc127e6033d81f0"
"https://github.com/otwcode/otwarchive.git","2638","3","[57b1bf9b7e291726d505a93dea383434d0653bee, 6f57053daf13a09881104d81b1df1a8cbb91ac4f, 6f2ad7c63ce58e7cb8baaa5a3ae5419542690672]","3","1","57b1bf9b7e291726d505a93dea383434d0653bee","46d58dd2b6ec63be690dc97e51c0a8261cd8fe40","1cbb9dfc115ba9942cffc0228effefee66e174a3"
"https://github.com/otwcode/otwarchive.git","2639","4","[93b4ac1cb882e0c02e178cfc71b981242a0e5730, d749ecefe0af0f92ab07ac3504cb85922fb6bad3, 1e61bbce27afeccc387f73dbbb455862b6959255, 3e32f0a55ed12ec52eef1577f419cf7f5a18ad30]","1","8","93b4ac1cb882e0c02e178cfc71b981242a0e5730","d960db17a94baf6e716945c8af964ce6958a384b","1cbb9dfc115ba9942cffc0228effefee66e174a3"
"https://github.com/otwcode/otwarchive.git","2640","2","[760cd55293fdbc6af6fcaeac9eb12b42d8d67c2a, db9c3efed6f000fa742f2805b47a0cfe3d4b3a90]","2","1","760cd55293fdbc6af6fcaeac9eb12b42d8d67c2a","d960db17a94baf6e716945c8af964ce6958a384b","1cbb9dfc115ba9942cffc0228effefee66e174a3"
"https://github.com/otwcode/otwarchive.git","2643","1","[a5ae6abb0b60aaaaf9d2d5afd10a2ee988d8a444]","3","1","a5ae6abb0b60aaaaf9d2d5afd10a2ee988d8a444","d06a24ed5b2ebfab441ab3c6b0a334b03619b262","d466270368e5b1c843f5122da7d562f272b6c43f"
"https://github.com/otwcode/otwarchive.git","2646","2","[6b21806d7cb69fce9ee0352b12d341aa0a5cd24e, 1e4b34af2e3e57fbc14634edfec7b4a50e4ad7ba]","5","2","6b21806d7cb69fce9ee0352b12d341aa0a5cd24e","d466270368e5b1c843f5122da7d562f272b6c43f","25aa7974f330486ce8d08cabe9115171a3e816f0"
"https://github.com/otwcode/otwarchive.git","2650","3","[e7cd96a1ab65473f47d44634e05eeb7b5ae4896d, c0808bfe24599cd61305a2fc059bb8266dc097e2, 197b349ce0bb2db29b3de3afa1e5cf941ecb8ab4]","4","1","e7cd96a1ab65473f47d44634e05eeb7b5ae4896d","3d5ca2fd122cfe898235949185b0caeddc98c3fe","e1d18b0028a9c0c7862b32c9cd86d8c852354f13"
"https://github.com/otwcode/otwarchive.git","2652","1","[58c6f1959003f25497d5ca0ffca59f1a0854fca2]","1","1","58c6f1959003f25497d5ca0ffca59f1a0854fca2","70978c95912be8cbb9c76e507f6d6c2908ed23c6","a844fb525f7cee2a63d6f690e72c145af82189e2"
"https://github.com/otwcode/otwarchive.git","2653","2","[a42751b01d734542b1312f07b57d3f441744f0e9, cc8ff92790d9253d052eadefc852f7d4a3351a15]","1","4","a42751b01d734542b1312f07b57d3f441744f0e9","9f4fe759aead39c6f3f196909c59e623ee2de011","a844fb525f7cee2a63d6f690e72c145af82189e2"
"https://github.com/otwcode/otwarchive.git","2654","1","[e0843e870eade7540d24738d6549f40fd82e4890]","1","1","e0843e870eade7540d24738d6549f40fd82e4890","9f4fe759aead39c6f3f196909c59e623ee2de011","a844fb525f7cee2a63d6f690e72c145af82189e2"
"https://github.com/otwcode/otwarchive.git","2655","3","[82099c8f5a103ede7bf10067e3788c3416b213e1, 5509aea381ba0a5e1df295eb6eb7e834f11a0b6e, 87cc2e84cabf34f7f9d89d0d4f5791c1b0743950]","4","1","82099c8f5a103ede7bf10067e3788c3416b213e1","a844fb525f7cee2a63d6f690e72c145af82189e2","aa8c15af5e37be876f466c82558d700f0508d4f6"
"https://github.com/otwcode/otwarchive.git","2656","1","[8780f2a8fc9ddbde1e8a17cb3e57e4c912900f39]","2","1","8780f2a8fc9ddbde1e8a17cb3e57e4c912900f39","2d0a9e52ddaa88401bf6deb28bd1cd8be5467ada","d1903a321aac06cf745a360ba4f485ea82ee9408"
