"REPO_URL","TASK_ID","#HASHES","HASHES","#PROD_FILES","#TEST_FILES","LAST"
"https://github.com/otwcode/otwarchive.git","2660","1","[76b58fe34198d807bbad681af7bb90204d0c0ff2]","5","4","76b58fe34198d807bbad681af7bb90204d0c0ff2","393529915d6f709095cc7bb2edc5183de7e8d04b","9ebb90cc37c76b03d172375a0af1665cad031dc2"
"https://github.com/otwcode/otwarchive.git","2661","3","[93340cacb34607cdbb047795ee74ee0d396a47f9, 48797dd8ae2f102cd843190c856950a4a937c027, 6d2395378d07a073bd0c6b6c1995ffb8de3de786]","1","4","93340cacb34607cdbb047795ee74ee0d396a47f9","729b428ea03f65bcd6064ed1e8e2af9a5d1aa4fb","4cb9a62ed93f12391ebdda18c14ea377c8bebf9c"
"https://github.com/otwcode/otwarchive.git","2662","1","[7ba3a58f1ed212d3e712a7e35b14baf60d02a089]","2","1","7ba3a58f1ed212d3e712a7e35b14baf60d02a089","4031638212bf7b00497442d3f61b6c5f80956750","bbaf6356f33436669cbf2922797f3d1a701627e6"
"https://github.com/otwcode/otwarchive.git","2664","2","[110110499d10668f0df32667b7bd7d9787f72268, cec16677c4ac858078df8356fc50736664738174]","2","1","110110499d10668f0df32667b7bd7d9787f72268","b826761535e1d6267a544cbff324e19ee34f14fb","73de6d3a87763d055eed85c6cd02f99c3a64b4de"
"https://github.com/otwcode/otwarchive.git","2666","4","[4cb9a62ed93f12391ebdda18c14ea377c8bebf9c, ab6891f503ed0f24fd3e9fa0b2d97726eb8cfc9b, 2321fab6f2f4d87bd8e81f5ff56bda3024597f6a, 877e2cc1900d367f269fb6019dd6a9a0b3acee6e]","4","1","4cb9a62ed93f12391ebdda18c14ea377c8bebf9c","edcea9d7b0a81944a9362a84ba94d06599e3930d","ee09a5763c4c710998528da6199616fbdb51348d"
"https://github.com/otwcode/otwarchive.git","2670","2","[9c9db6edc33b4304308119ca0ca6431978b252f6, aa420d0a7adcf17361974260f6279198eaf73745]","2","2","9c9db6edc33b4304308119ca0ca6431978b252f6","f455d7bbd5df5a5b9f59972c24207c545d9d0c91","ee09a5763c4c710998528da6199616fbdb51348d"
"https://github.com/otwcode/otwarchive.git","2671","2","[9b3b9ed1944dfb6eb8cf050fd29b63e9dd43e407, 14711e534bf62de2357562127eb83b470ed2f5ca]","2","1","9b3b9ed1944dfb6eb8cf050fd29b63e9dd43e407","80a08fea01ea0572666f0b79babe79385750b056","7a67d6078a19b4e89c63dc5d9674d7d4600c7b7c"
"https://github.com/otwcode/otwarchive.git","2672","2","[1f80470745887e652d4c074878d87e36d4145503, 2ccba8d6443fdf08a5c0f15e109d9600168bb3f3]","1","4","1f80470745887e652d4c074878d87e36d4145503","80a08fea01ea0572666f0b79babe79385750b056","1cb8af5dbdfdedd0340620adccff5dade47dabfc"
"https://github.com/otwcode/otwarchive.git","2673","1","[448836ebb0b0eae4ad1e08413acb2632a71384a6]","1","1","448836ebb0b0eae4ad1e08413acb2632a71384a6","ee09a5763c4c710998528da6199616fbdb51348d","be4cb9bbdf34c91eff897d2c3338681a5ba03e19"
"https://github.com/otwcode/otwarchive.git","2675","2","[b34982fa13802ef7b9c26bdbc187f7c42ad7738e, 414e302f9500f9f4169d603aa9bacf58d2b2b289]","1","1","b34982fa13802ef7b9c26bdbc187f7c42ad7738e","7a67d6078a19b4e89c63dc5d9674d7d4600c7b7c","8a12b437ac7d94fbc2b6f82e99f03ff4dbcc1766"
"https://github.com/otwcode/otwarchive.git","2678","2","[8a12b437ac7d94fbc2b6f82e99f03ff4dbcc1766, 37430e8d1e51ca853c23889c6227123fedbb16a3]","6","1","8a12b437ac7d94fbc2b6f82e99f03ff4dbcc1766","aa8c15af5e37be876f466c82558d700f0508d4f6","68b96cef7599fad6cc18194d81c2a2c8f2958b3d"
"https://github.com/otwcode/otwarchive.git","2680","4","[703719142afb2563faa958c3f12ec0c1ae492e65, f0cb89e882f9df8ca148cec6ff8a8afd7375ae07, 396b20c1119fcd6ee90888a08c530c8623fc1967, 6580e0e72445c2ea24a8efa26f0a081427171428]","6","2","703719142afb2563faa958c3f12ec0c1ae492e65","9fee52993381be078306bffae09f9add29724cc5","569e4a576e9cd0addbec6ff3e519fe67aed2393d"
"https://github.com/otwcode/otwarchive.git","2681","2","[569e4a576e9cd0addbec6ff3e519fe67aed2393d, 517da24b12f15f760101be5535b0330e7275c19d]","5","2","569e4a576e9cd0addbec6ff3e519fe67aed2393d","9eea83f0d205d1974332ee5099667580d0f89c18","1cb8af5dbdfdedd0340620adccff5dade47dabfc"
"https://github.com/otwcode/otwarchive.git","2682","2","[f389413a56f65b72c64ad524d95af028a46bf1c1, ec9207a42fd101c585e2d78492cc8e445eddfb88]","5","2","f389413a56f65b72c64ad524d95af028a46bf1c1","0ece218c69985bf81d540b78869407cc4258e550","0bb6cb6ef88a1e186bb369e5601f1c9614049006"
"https://github.com/otwcode/otwarchive.git","2686","3","[e02a1a3ea71aaeda0a7703a7199c74a5012215c2, 42d60ef669f99812347102011a80571d19143634, 3972047216effacfe7b419ecd1b4282a6222f273]","4","1","e02a1a3ea71aaeda0a7703a7199c74a5012215c2","dd5b1c0633668757d0ce558ae68fd7968d702c9f","79045b9b4fcffde0c211e66bd1ad979d306c8207"
"https://github.com/otwcode/otwarchive.git","2688","4","[0b87900593a6da684fdc658daf1c0cd2079f7f5b, 49ef20dac255364e3b712e1d743794b41a5dc4ab, b13b55a30ea73bad48c96b2b390615c20235f87c, c5470429673259e3a32a87bf052a50cac48d4bda]","4","2","0b87900593a6da684fdc658daf1c0cd2079f7f5b","11382db654c219625d9bda84c53023eb1f76eaed","4e6d25a0478b6381872117cfaeb0057d190b7ae8"
"https://github.com/otwcode/otwarchive.git","2689","3","[79045b9b4fcffde0c211e66bd1ad979d306c8207, fe5b699d139e15359b5c2e7990e0e354064224df, 81a50f8bcd6a04c83d4eedc079115d000b5acfe1]","4","1","79045b9b4fcffde0c211e66bd1ad979d306c8207","51ff15f23ca4aeac6cac57e5561dac6c36711a8c","017a458321ba548b42f8547ddc5dbd4b024ea869"
"https://github.com/otwcode/otwarchive.git","2690","4","[2e4b3da3501e7fbf7f74af7842954de1f55f3e91, 9814267cf309b6ee318c1f1da1460327520f5922, 47812c33ec69d42e42c3294b8b718ee10b23428d, a61357d1776e5f919c88f2a0546b1eae97a22e67]","31","1","2e4b3da3501e7fbf7f74af7842954de1f55f3e91","ba752f0990206b5b2aa95711b011ac214e433e03","f060b28a30ed6d4d6e4565135e413b3980a82af9"
"https://github.com/otwcode/otwarchive.git","2695","2","[f060b28a30ed6d4d6e4565135e413b3980a82af9, d2246bfb2229164bc02fba45906d0188bc7c1147]","1","1","f060b28a30ed6d4d6e4565135e413b3980a82af9","51eda320f4bc45f74c972fa82bbf2ade164ee472","0ca45873a7d01db6fb42ab9c86bfe52458b5cfef"
"https://github.com/otwcode/otwarchive.git","2698","1","[6e87362ed6dda9e4525d7c679378d7631fce5a6d]","1","1","6e87362ed6dda9e4525d7c679378d7631fce5a6d","4e6d25a0478b6381872117cfaeb0057d190b7ae8","363f34d8d3b1f3f360bba6e0cc3a27d83321386f"
"https://github.com/otwcode/otwarchive.git","2704","2","[04f3e3ff5b3323272ab7236e079c9530d198829f, 7bdd84aa3d65a91847e8ede4f7352c92f54d4978]","1","2","04f3e3ff5b3323272ab7236e079c9530d198829f","068c3bd478a81859505d26a827f2959bdd55423d","a01c520d4d83081a10b62ef0b3389f69e1a9c164"
"https://github.com/otwcode/otwarchive.git","2705","7","[35ba89eeb53630d37cb9e085d3efc873043a5039, 363f34d8d3b1f3f360bba6e0cc3a27d83321386f, c9a5cd39c1bea8acccf34f16091f07608bb805fe, a0e932dc1d06c7c85dd1e8205f240d0657fb94d1, 6b1a25617cf459e8d54f018ee0184a13b265e365, 9c6c83d9bf5a59a14c4c7954ddcf676e5609790e, 80ef85caf5d9329c31711656b2a932688d1eaf7e]","17","2","35ba89eeb53630d37cb9e085d3efc873043a5039","e8bdf862570ca8214dcbe7184dcbf2786a7f50a7","8ffc4dea9d29c23b6da018a3f3b9d057e2df6ea2"
"https://github.com/otwcode/otwarchive.git","2708","33","[945e02e9c9c497a83b71ad8c79c079141b50b2a8, 4949adc3b6d81f664cfbbd6b844208db4054782c, 9a9832e724a045b1d256ec28ff04ed46a59962cb, cc49bc50cb7d98b528d41a394896a14d596b7089, 3a93ec3b888747a6687c9f5103cacd63e12bbe7b, 69840d8c254b4aa14fc760f962be909635d951c5, f709365c79b918dda002177093a0d43f8c694402, dc284b19559bbe35e3487e03112175bf75f42213, 8df709000fcf063b67779c919e3038fe9b5b9f74, d107064d26b4843f040b2a32e97dd301216cbcb6, 0822adf38720adf47ccf1bd5ff7b0bd517ad681f, 90916b01d9e7f7588aab785cd0bf24c584b50efa, 59a40af52f137c8e41927e9e6029143eabfe7e72, b09b63a541ec663f698604fed955e11e29e7da03, e8fbaa202b7a3d6c5dd1d9b0a5a4631802c8bc14, 3615e554a170b07c60db42b3df629db49d6ff77d, 0034996259e383a3940c93bcbd4dd33748692812, 8b690c5970dbd3b184290051a0e2cdf2b635a292, 99df120605bd52bd845bdaa0f8bb50bc8b8cb1d0, e76830a3770a5d3db33e4c8de09ba2c4ce5b2724, f072865fefa4bc16adea8fb02f91ffc44f84f2d2, a0c0562eca3297f8bb8b59960ec4f94f53900927, 73fbb62eeac3f5ad238b01b51d3dbcba9e82be93, 268c323083f49ed556681fcbb52e112abd63def6, 3c1be9fb060dab54837a6ed47e226886a4496d5a, 415b41cde3dca3a4ef414508660a2e9719a8cfa3, 3f359b93428e85a80d87228fb18d23cde3bcae23, dc8b0229a9a64d766549b230752ad9102ef4f736, 9355c30fcb8e93e0fb867ce37f466ed2b8211e86, a97dffa0d479cdfcbb15bac64e938d3b9e4dfc45, 89ab811812e0989dbb3bde50d9994c93e4c900b6, 13a2aaac7c6cde09c5c2b0ae4ed9cac798911268, 91dcc2006b921cc04b73c125d88c1410b6ce963a]","51","4","945e02e9c9c497a83b71ad8c79c079141b50b2a8","a01c520d4d83081a10b62ef0b3389f69e1a9c164","8ffc4dea9d29c23b6da018a3f3b9d057e2df6ea2"
"https://github.com/otwcode/otwarchive.git","2712","1","[9e8ec184a3419ab4abbe40da5b8bc629710c85e1]","4","1","9e8ec184a3419ab4abbe40da5b8bc629710c85e1","c23aee9e7b7795c10258ac5e9edba6bd6df0ac36","5ec97dd58c140aa73ab15518b729641948b9e634"
"https://github.com/otwcode/otwarchive.git","2713","5","[058daaa9fb8f06b1ffb165c072938ce1812e58de, 2b8756c5ca62ff6942b4cabe82df69a73dd5e3de, e3086b7ffc7fd299500258b7541b651ba9be1d2e, f2677c098b60c9d918d0b64eb0fd8d1f6961aa69, be456dd6a6c43ec89d0840ee22aaaee9f506b72f]","9","1","058daaa9fb8f06b1ffb165c072938ce1812e58de","0be485fc4a4937acdc0b6df5c08e0248a77c4220","6e8917592780941726ab7a62626381fc2ec39b5c"
"https://github.com/otwcode/otwarchive.git","2714","1","[425340560e0fdb8ef5602047773629bf26340ab4]","5","1","425340560e0fdb8ef5602047773629bf26340ab4","8d0294e508de93e54756ac6c3bb6d7df16b9d414","6e8917592780941726ab7a62626381fc2ec39b5c"
"https://github.com/otwcode/otwarchive.git","2719","2","[5e9f84cc8d7b2d2218d7b4d4ca0e75f4c7f2396b, 348474f4c05ea8bc5a2c48dfa1e43b2b093e7ea8]","33","1","5e9f84cc8d7b2d2218d7b4d4ca0e75f4c7f2396b","65ce2d433f0675738e4a4ea2f952c7a5bd6f7c24","725fb8141440be51e84f682f1f89e24b2eaac87f"
"https://github.com/otwcode/otwarchive.git","2725","2","[ee0e5287689b264a642585cc3592a1fcd3728cb1, 18f643c711ae131dfb906dde520f898dd1d512f2]","2","1","ee0e5287689b264a642585cc3592a1fcd3728cb1","6cf76f25642b32200793c811d9cec5526b4cc69f","87f3bb3254a460cb74010db45bd5c74302454040"
"https://github.com/otwcode/otwarchive.git","2728","3","[eee06a62deab28319703ab4dca84244dc4671408, ab0aab2a45ceaacf500d2211ef9fe69710f592b1, 8e60b158da546ebdef575a3d08e5d559d1f5f69d]","1","1","eee06a62deab28319703ab4dca84244dc4671408","fee239b98a8e5dfb14b2f58d9f34baab0a7823cf","b7604837986889ddde8313c77d2427480c2ce824"
"https://github.com/otwcode/otwarchive.git","2729","5","[b7604837986889ddde8313c77d2427480c2ce824, 0840009b0db033d085799a67b76307f06a7f5f2e, 109b1ba7577180fd0fe9b90900ee1e2986494b2e, 98a290dea4fad0dbf2f9bf5f44ffdfe43c3a6ccf, f20c97efc503db74b8886465ab0e41b9d0bd4973]","1","1","b7604837986889ddde8313c77d2427480c2ce824","3265ff69824e88cf91fcbb3e5d1a59348b2fc876","95d947dca4ac6924cf3cb980bd96cf592917ebba"
