"REPO_URL","TASK_ID","#HASHES","HASHES","#PROD_FILES","#TEST_FILES","LAST"
"https://github.com/rapidftr/RapidFTR.git","1215","1","[d3e84ffe68dd240d842d4423807f191f62fbe974]","1","2","d3e84ffe68dd240d842d4423807f191f62fbe974","4afc10c783af473e66983b6f3094a1d81550b603","ab50eed73e888b1a42343087ee75073b77135f32"
"https://github.com/rapidftr/RapidFTR.git","1216","1","[58e19992d2f7c89c79cff5ae2510b0edb5a23949]","6","1","58e19992d2f7c89c79cff5ae2510b0edb5a23949","000a192672ae6d3e235338a6a97bc9320967e417","0f5f788d5bd0605b6ca5d931dbe3fe617201ebef"
"https://github.com/rapidftr/RapidFTR.git","1217","1","[962c3af2c68f922b00c1eccf0df362fc0c6ce94f]","2","1","962c3af2c68f922b00c1eccf0df362fc0c6ce94f","8daef9fc0852355b1622d817565b953390f8ea06","b20aa825dd60c2e1be702ab8dd7c13d1dff90a46"
"https://github.com/rapidftr/RapidFTR.git","1218","3","[2f35e7237056242e2fd00fef46a0a08c11644271, a517b6b34297d4aa8c34bdfc8f129d6d46f746e4, b0fabf2b74de9d3c05e3f38f1459ebc334e683df]","5","1","2f35e7237056242e2fd00fef46a0a08c11644271","0f5f788d5bd0605b6ca5d931dbe3fe617201ebef","ab50eed73e888b1a42343087ee75073b77135f32"
"https://github.com/rapidftr/RapidFTR.git","1219","1","[b20aa825dd60c2e1be702ab8dd7c13d1dff90a46]","1","1","b20aa825dd60c2e1be702ab8dd7c13d1dff90a46","0f5f788d5bd0605b6ca5d931dbe3fe617201ebef","ab50eed73e888b1a42343087ee75073b77135f32"
"https://github.com/rapidftr/RapidFTR.git","1221","2","[f8800626107675b63f6ffad5024db56576df11d1, 58de33d2545acb64130a9f1efa80dbac4c073dd5]","4","1","f8800626107675b63f6ffad5024db56576df11d1","831a5e50cec81971707e5d020058c162aa75bf46","5089bdab70374e352c12d3fde1b48959b8c9b3ca"
"https://github.com/rapidftr/RapidFTR.git","1222","6","[34631c0d2f209076192b653fd1b958e09a8eda77, 9ac2b0098e2e229fe491d930b197ed3b3f01b945, 78ba89dfb084877de46838a50f344942e8956090, e4c073359fd1cf0ee4c3d08be2c0b5810949ded7, 38708dccaf81cb01ce69be09974d7ad2c65c155c, 9d732a06e3ea723329e00f9f31fe033faa110733]","6","4","34631c0d2f209076192b653fd1b958e09a8eda77","ecebbf71ddf3ca1129f8366118a13b3e05a97c45","c235b4a9bb9e81fc7b54ed6d4ba2144950986419"
"https://github.com/rapidftr/RapidFTR.git","1224","2","[59646732a0720b00229fc5cb7424d3e31215b6da, f4a9fac809caec9c0f64b2aa03c7b4e224ccc805]","5","1","59646732a0720b00229fc5cb7424d3e31215b6da","5089bdab70374e352c12d3fde1b48959b8c9b3ca","4dd93ad647d2e47576fcd88347e6af231e73bfa3"
"https://github.com/rapidftr/RapidFTR.git","1225","2","[c235b4a9bb9e81fc7b54ed6d4ba2144950986419, c8b7269a4d5616f3ae68080a86f28c3ce3b7e9ed]","7","7","c235b4a9bb9e81fc7b54ed6d4ba2144950986419","5089bdab70374e352c12d3fde1b48959b8c9b3ca","4dd93ad647d2e47576fcd88347e6af231e73bfa3"
"https://github.com/rapidftr/RapidFTR.git","1227","6","[740f0e839793aaa0743390d754c505d82e976a97, cad0d8b095e2a5bc08e67edde1889c6d2be549ae, e721d08fda12922380c3727658c6b55aef1334fb, 8de8fb85644bdd8d82b597a3bb30282f9dbdbf60, 60673d09f8f47fa0afd420d2ba28f92f4b013f4c, a5f8e9bb50dadf2440303eb72f24e9480e9efc3e]","4","1","740f0e839793aaa0743390d754c505d82e976a97","50f47ef261d5ad1db19b0a16390887f2e739092f","3849dc6e65cf1d47647a2187f4d975df97dbd63a"
"https://github.com/rapidftr/RapidFTR.git","1229","1","[92708a73d88580ede11ce79fd8ee78f6006788cb]","3","1","92708a73d88580ede11ce79fd8ee78f6006788cb","871f0442174ec948956c845b297d7636fda2fca2","8edfc1fa9a6b9b25e9a510251550729e5eef97a8"
"https://github.com/rapidftr/RapidFTR.git","1230","1","[23ef944aec703bd4a21b7823b792cc446d303f04]","1","1","23ef944aec703bd4a21b7823b792cc446d303f04","8edfc1fa9a6b9b25e9a510251550729e5eef97a8","9806ba37f106ee979188ad85ce1abfadcfb332a9"
"https://github.com/rapidftr/RapidFTR.git","1233","2","[fff477153399fe8068423ca3ae5d052b5ddb8b4c, f8ad22cbe8709ebc25182906bf4f0821e192b45a]","2","2","fff477153399fe8068423ca3ae5d052b5ddb8b4c","fe25a59636326c604e24a04450d93b5d6696634b","6230800aab2420a78c129f2b326511f238c25af8"
"https://github.com/rapidftr/RapidFTR.git","1234","1","[41a16e6a8d7a733c09eb9d7e3b2d325b2953eaec]","2","1","41a16e6a8d7a733c09eb9d7e3b2d325b2953eaec","a72fd3424491086ed32d7b896e1f65a962275c8f","dcd37027672a9ee349da7a4f70f1e41d663d59bb"
"https://github.com/rapidftr/RapidFTR.git","1235","2","[6230800aab2420a78c129f2b326511f238c25af8, 1bec753d4ba6494133bc6832ba17638bebe588b2]","3","1","6230800aab2420a78c129f2b326511f238c25af8","a72fd3424491086ed32d7b896e1f65a962275c8f","dcd37027672a9ee349da7a4f70f1e41d663d59bb"
"https://github.com/rapidftr/RapidFTR.git","1236","2","[364caaab056e91b314f12910766eb42960bfed97, 9321b910649d1895574d76edd73b6dbc3d414621]","2","1","364caaab056e91b314f12910766eb42960bfed97","321740d8c441b86c9fd57ab1b38f05fe201e1ead","6230800aab2420a78c129f2b326511f238c25af8"
"https://github.com/rapidftr/RapidFTR.git","1237","12","[d5bf3c10edced3362c91a7dfea7bcd2b87e5d6e7, 36e0de8eecbe70a9aca0457096041ad860b7c991, 393838bdc9a186e3a09aca9e43c8046b9c111fb6, 402598154764ff1ea7878ead248bbfc8b39fdbfd, fcbdc255822d624fa4c7560dd783f4fc7fd21b90, fc72478fdd7a2973a2942b0cd31acff508f4141b, c8b9e1e622849fea83c926965736d730498d6132, 837c8695546f2bf1d9062a6390f5d9df95bdd4a6, bba4319c7b74a83c72739741d1167e63d1a8b6f1, f230bddf9705e37cf52987de2a5dcccbc43da718, 4464be49414430003a1caf95ba7b12bcf780e9f2, 9c4df9fff0ec6589d8f537adfc4cb23b75e945f7]","7","1","d5bf3c10edced3362c91a7dfea7bcd2b87e5d6e7","321740d8c441b86c9fd57ab1b38f05fe201e1ead","6230800aab2420a78c129f2b326511f238c25af8"
"https://github.com/rapidftr/RapidFTR.git","1241","5","[3686ed8841ce3b3c78d65e3291a6ced767c415ef, 5fc88b3e3b3de3f48e15141752927cbbdb7dd8c4, 6714ebc2835d6edeefca6a0f0f7fe63f340291ee, 7f895f4f841df2244b5b096c2a2b084bb5c722fb, 185ea961f15695a9f88f743f8f9422aa72b5a936]","4","2","3686ed8841ce3b3c78d65e3291a6ced767c415ef","bf92b2fd8e7f10167c01828b9bc7dcbcedcc4942","31d2c939b1678c796c6c20a684a3346ccb745139"
"https://github.com/rapidftr/RapidFTR.git","1243","2","[398352f94c2c549e76a7ab9ee78779f13dbc641b, 0142deecc9ada1f1f14e1bfdf52ec9809353bd3c]","16","2","398352f94c2c549e76a7ab9ee78779f13dbc641b","56c118c9c50d8f5a4cd2003111a259bcdc3a8b11","055ff32341b4bf8ed24ce0299561c4c12bfe9c67"
"https://github.com/rapidftr/RapidFTR.git","1244","12","[d043300c116a93d4f0d78299c8410616ae89b52f, 9142556775c69c89400400ffacd4420f99a732e3, 5a120bd7e8cfc620e6f675a1fec3d3af479076d3, 395ecdb06889dc29a7a058de04b44a5d65a441b9, 733b7568929c655124317b94dd8fcce7770109ad, 40c6119fa229c29b0a29ea31f9c750c0b1106a7b, b5a2aba5de805db0255fa2792792e148340d2408, 89ad82b2de4e86992e1da3d0ea52f3e11785ee98, 7b2474b9edd087d73773ff33368779acf19908ff, e47cc91fd5898c3689932a7a8f661d15907de740, 91f350448a6588d8803b36de59fb64d9b78ffd17, 06008765d7dc2d62a941697095bc95f9a33d7a18]","24","3","d043300c116a93d4f0d78299c8410616ae89b52f","56c118c9c50d8f5a4cd2003111a259bcdc3a8b11","438e4f1a7205702602f6329e4870c41a87180d39"
"https://github.com/rapidftr/RapidFTR.git","1246","5","[438e4f1a7205702602f6329e4870c41a87180d39, 3460b2e4f68fb33e92615c9ee30d8ddbbf5d850e, f4b503f3a33cfd8ddb8985d92eb826ea57bb5b23, 8037b64f37390a7af3768a43277b727c91873ab7, 656408df770ecf0490824783ca9c7cecc72f31f2]","9","3","438e4f1a7205702602f6329e4870c41a87180d39","055ff32341b4bf8ed24ce0299561c4c12bfe9c67","c9f4c12a6230a42dcf9a49400ee8abf607be2af7"
"https://github.com/rapidftr/RapidFTR.git","1247","2","[156fcc15fa3987e3a967b4c57a21f1f0a2188ffd, 38e3f7ecde2a7704b3a2af20c77ad267f8e7a717]","4","1","156fcc15fa3987e3a967b4c57a21f1f0a2188ffd","c9f4c12a6230a42dcf9a49400ee8abf607be2af7","e9ad056d582303762153019647217f806373fe22"
"https://github.com/rapidftr/RapidFTR.git","1251","1","[2e0cacd740da1b3c29b537baf4627ec8e62d60b6]","6","1","2e0cacd740da1b3c29b537baf4627ec8e62d60b6","b4ebab0dec0a0fa997be8f7bab8ddef44e60120b","d091a2014dac0bf87b2603f50d20588e02df9eef"
"https://github.com/rapidftr/RapidFTR.git","1256","2","[6250aeed93faa0ada4b108a794ee5bd09c226efa, b476dfea2d0df9bd4ee600c53c53aa693c39f610]","4","2","6250aeed93faa0ada4b108a794ee5bd09c226efa","847456bf064e9a7c17e2816f24b614434dc823aa","e5145e5d842a2e912435e84f3a22666a18f1b708"
"https://github.com/rapidftr/RapidFTR.git","1259","2","[a99a0e787d07f39be071a17cb923f50f129748b8, 300c253fe54dced688ac8947d2e1ca304d66dbe7]","1","1","a99a0e787d07f39be071a17cb923f50f129748b8","2b09215a9b94990938eb77fe03475a3cb83da60c","2c598c71810d27af294ec8899bbc6aec1bd3130f"
"https://github.com/rapidftr/RapidFTR.git","1261","1","[b47b89e3ae8bf3c05fb62c8ed07772fa2fff3933]","1","2","b47b89e3ae8bf3c05fb62c8ed07772fa2fff3933","5d85605078412cd739207d51d9fb77e189c280c2","81d7ab15d8ea97b565bdf28fa37a19bae53558c4"
"https://github.com/rapidftr/RapidFTR.git","1262","2","[300c253fe54dced688ac8947d2e1ca304d66dbe7, 2c598c71810d27af294ec8899bbc6aec1bd3130f]","2","1","300c253fe54dced688ac8947d2e1ca304d66dbe7","5d85605078412cd739207d51d9fb77e189c280c2","81d7ab15d8ea97b565bdf28fa37a19bae53558c4"
"https://github.com/rapidftr/RapidFTR.git","1265","3","[fb62e500a5355d40cb1ded0b5f85399709c87de4, a188b75af903d9fb993c608105cef8432040ac3d, d7dabf8a997579462781cc3408abd25fb9c1cc57]","5","1","fb62e500a5355d40cb1ded0b5f85399709c87de4","8bbd6e3f30fba7b213073b6042f36cc8fbba60cc","4bbee28482d992c38705f38cb3bd9d1d3026b0c5"
"https://github.com/rapidftr/RapidFTR.git","1266","7","[07e44c9a6b9cc954ab50e0f7201dd2ddab9796b6, c17351ced18dec3411a91a17d8de3ae0526bde86, 104f6d86b15727a62e78da375d37f41d388cc2a3, 17a836d5a3bca2a5039c9a68e84ea3cfabdceea0, 6c468294ab3879706940927038f4ded06c9c36d6, 551d58952801baacac956b2ea99e871d45330ff3, ab1e3fd30c947f90ce4a399eeb55fdf133614f1d]","12","5","07e44c9a6b9cc954ab50e0f7201dd2ddab9796b6","542ff2d7706855b04672d0dee1479ee69893ab0a","6db4f0d7252c3033c1373e954ea0e573a8bb4389"
"https://github.com/rapidftr/RapidFTR.git","1271","3","[742cab401097ad50412a35b93d86848654b2b39f, f16f09c5ca9cd2d1a2c34e66805c5dbf839743a7, 829158362012dbe8fbf060cb62d0b642d754a422]","11","10","742cab401097ad50412a35b93d86848654b2b39f","b06bbdb95421d185d2ca17c3d8f29f7ff6343e4d","c2d506b5f7f8a04821aaddf4b7d107307b40af3d"
