"REPO_URL","TASK_ID","#HASHES","HASHES","#PROD_FILES","#TEST_FILES","LAST","MERGE","BASE"
"https://github.com/TheOdinProject/theodinproject.git","249","1","[c74eca2617e7b750facaf511b84ff28c7e27510e]","15","8","c74eca2617e7b750facaf511b84ff28c7e27510e","0baa48af940377486c27d4f4c3a757900d2b3c61","423d9903547cb10039456820d2219e4b46cb31ae"
"https://github.com/TheOdinProject/theodinproject.git","250","1","[c36355831c330be7f0bb751a385d438bd7c245f1]","3","1","c36355831c330be7f0bb751a385d438bd7c245f1","0baa48af940377486c27d4f4c3a757900d2b3c61","423d9903547cb10039456820d2219e4b46cb31ae"
"https://github.com/TheOdinProject/theodinproject.git","285","1","[6c114edb7ef805e53a4eb4fadab0310186b79c7c]","2","1","6c114edb7ef805e53a4eb4fadab0310186b79c7c","620cbfc0a84c6d5e4c632b4c5defd6263a0dbaaa","f069707c5a9282bf5fb8512bff26ba3d55e0a5b4"
"https://github.com/TheOdinProject/theodinproject.git","288","5","[f1a46a07e518b40d6cfd5050a844e732a70b89f8, 293511dc1b83ff51145fc0cf4666bfba4815f42b, c428cdca4abfb40cd66835c7636a7ea45dc3339b, 05850db395fb6f26699ea380ae372ad5a00f68c4, bfcb46d13bd71febeb05ba0bc989f7c0d906edb2]","2","1","f1a46a07e518b40d6cfd5050a844e732a70b89f8","1002d86c7a40a31a5cfd09a3e504278d9b029544","d9d74f8f5e711de13e33e751ac4888d29faaae2c"
"https://github.com/TheOdinProject/theodinproject.git","333","6","[7cb2e9c3aa6b5c286121e898a0b1f5f313ee54ad, 8fb5053803f1e15c9c19a2f475911b6df97bc862, 08d7dd149427c1c4d1b805898c547646bb309f60, ccd5e2292478bb6aa5a293e90de8439cd45670de, 0a0d08987be6a0ef43ab8b7633782b385c3354c8, 2b39663941613af2ad573d095ebfc1444f7a1bca]","1","1","7cb2e9c3aa6b5c286121e898a0b1f5f313ee54ad","ac5809ff80228e67dc8c33001b8c60fc3a2cf1e8","d5d366e309b3bde10237ca6c8172e427118f7106"
