"Repository","https://github.com/ministryofjustice/Claim-for-Crown-Court-Defence.git"
"TASK","HASH","RUBY","RAILS","COVERAGE","TESTS"
"1561","ab1bc9cf8478ed2806b0d9a63c8d915ddaf48f7c","2.2.3","4.1.8","simplecov","features/unhappy_paths.feature(20)"
"1582","be5120dfc2fa22ac06d47281ad7aa2a65f3f9d6b","2.2.3","4.1.8","simplecov","features/claim_status.feature(8);features/claim_status.feature(28)"
"1584","de8d1e14c81725e55ee299c2e9634fa33f3225f9","2.2.3","4.1.8","simplecov","features/caseworker_claims_list.feature(46)"
"1585","bb98538639c15acef9a5ee44f93beaf87c681c8c","2.2.3","4.1.8","simplecov","features/caseworker_claims_list.feature(46)"
"1587","1af6ec54bf09eb7769d56566ceeb462b11e36fc2","2.2.3","4.1.8","simplecov","features/guilty_plea_case_type.feature(10);features/guilty_plea_case_type.feature(20);features/guilty_plea_case_type.feature(28)"
"1590","2ff9ec4956e2079a48190cb5f548ce72b36d5002","2.2.3","4.1.8","simplecov","features/view_claim_evidence.feature(20);features/view_claim_evidence.feature(36);features/view_claim_evidence.feature(43);features/view_claim_evidence.feature(51);features/view_claim_evidence.feature(59)"
"1627","c707ed1a6f852022aed4e38fbb6f8ec3f9aeab5b","2.2.2","4.1.8","simplecov","features/caseworker_admin_claims_list.feature(5);features/caseworker_admin_claims_list.feature(13);features/caseworker_admin_claims_list.feature(21);features/caseworker_claims_list.feature(47)"
"1630","a6e636b2b03c479cf57c12992c1fdc9e98da1719","2.2.3","4.1.8","simplecov","features/claim_redetermination.feature(46)"
"1632","195e72bf943df51c30778f80460b229aa2e05b92","2.2.3","4.1.8","simplecov","features/caseworker_notes.feature(13);features/claim_additional_information.feature(7);features/claim_additional_information.feature(14);features/claim_additional_information.feature(20);features/claim_additional_information.feature(27)"
"1639","57726985208adc32dab6424e5fcb97893bbef0fa","2.2.2","4.1.8","simplecov","features/advocate_new_claim.feature(4);features/advocate_new_claim.feature(66);features/advocate_new_claim.feature(86);features/advocate_new_claim.feature(99);features/advocate_new_claim.feature(124);features/advocate_new_claim.feature(138);features/claim_history.feature(12)"
"1641","264cc9de1cc6da2c42d575a375e1f473b4d540c2","2.2.2","4.1.8","simplecov","features/advocate_new_claim.feature(4);features/advocate_new_claim.feature(66);features/advocate_new_claim.feature(86);features/advocate_new_claim.feature(99);features/advocate_new_claim.feature(124);features/advocate_new_claim.feature(138);features/claim_history.feature(12)"
"1644","d4336838085888b836f82b4ffae186c662b89aee","2.2.2","4.1.8","simplecov","features/claim_redetermination.feature(6);features/claim_redetermination.feature(18);features/claim_redetermination.feature(36);features/claim_redetermination.feature(46);features/claim_redetermination.feature(63);features/claim_redetermination.feature(73)"
"1652","9f62a2ad78b45de45fca3aa1a44a6130641b7789","2.2.2","4.1.8","simplecov","features/advocate_new_claim.feature(4);features/advocate_new_claim.feature(30);features/advocate_new_claim.feature(93);features/advocate_new_claim.feature(106);features/advocate_new_claim.feature(116);features/advocate_new_claim.feature(128);features/advocate_new_claim.feature(139);features/advocate_new_claim.feature(151);features/advocate_new_claim.feature(188);features/claim_allocation.feature(35);features/claim_evidence_checklist.feature(21);features/unhappy_paths.feature(10);features/unhappy_paths.feature(20)"
"1654","3e307f101b68c024c390bc98f82d1718643592df","2.2.2","4.1.8","simplecov","features/advocate_new_claim.feature(4);features/advocate_new_claim.feature(30);features/advocate_new_claim.feature(93);features/advocate_new_claim.feature(106);features/advocate_new_claim.feature(116);features/advocate_new_claim.feature(128);features/advocate_new_claim.feature(139);features/advocate_new_claim.feature(151);features/advocate_new_claim.feature(188);features/claim_allocation.feature(35);features/claim_evidence_checklist.feature(21);features/unhappy_paths.feature(10);features/unhappy_paths.feature(20)"
"1663","edf393561db2537518688cb0e361b2a4663702c7","2.2.2","4.1.8","simplecov","features/claim_status.feature(8);features/claim_status.feature(43);features/claim_status.feature(59)"
"1671","5a5bf425a40d337c5231b16d4a71e76625d9a3fc","2.2.2","4.1.8","simplecov","features/advocate_claims_list.feature(68);features/claim_status.feature(8);features/claim_status.feature(43);features/claim_status.feature(59)"
"1675","00a5c4796ce12dddbf74237da49180b539e60672","2.2.2","4.1.8","simplecov","features/claims_carousel.feature(8);features/claims_carousel.feature(17);features/claims_carousel.feature(26)"
"1676","b3e9223f2e0961677d253416ab49be6c42d6cd21","2.2.2","4.1.8","simplecov","features/advocate_claims_list.feature(68);features/caseworker_claims_list.feature(47)"
"1683","fced59092d2b276ba61eb4b09856c95493b7f3d2","2.2.2","4.1.8","simplecov","features/caseworker_notes.feature(7);features/caseworker_notes.feature(13)"
"1691","7a3c252c991007860b07e865d382a58c3971417e","2.2.2","4.1.8","simplecov","features/sign_in.feature(2)"
"1701","0a53af9aa30e1346aa879d7326ea0e90d0346b8f","2.2.2","4.1.8","simplecov","features/caseworker_admin_claims_list.feature(29);features/sign_in.feature(2);features/sign_in.feature(9);features/sign_in.feature(15);features/sign_in.feature(22)"
"1702","33a5232269443b76623b1777d823b0cc2238318e","2.2.2","4.1.8","simplecov","features/claim_redetermination.feature(6);features/claim_redetermination.feature(18);features/claim_redetermination.feature(36);features/claim_redetermination.feature(44);features/claim_history.feature(5);features/claim_history.feature(12)"
"1713","40fdd5113048b93cec93f726ea5989de8d3cf3f6","2.2.2","4.1.8","simplecov","features/sign_in.feature(2);features/sign_in.feature(13);features/sign_in.feature(19);features/unhappy_paths.feature(5)"
"1719","dbe7eff9a458d26867eb1b5d05add9b3ec87efd8","2.2.2","4.1.8","simplecov","features/advocate_claims_list.feature(68)"
