Given /^no children exist$/ do
  Child.all.each{|child| child.destroy }
end
Given /^(?:|I )am on (.+)$/ do |page_name|
  visit path_to(page_name)
end
When /^(?:|I )press "([^\"]*)"$/ do |button|
  click_button(button)
end
When /^(?:|I )follow "([^\"]*)"$/ do |link|
  click_link(link)
end
When /^(?:|I )fill in "([^\"]*)" for "([^\"]*)"$/ do |value, field|
  fill_in(field, :with => value)
end
When /^(?:|I )select "([^\"]*)" from "([^\"]*)"$/ do |value, field|
  select(value, :from => field)
end
When /^(?:|I )choose "([^\"]*)"$/ do |field|
  choose(field)
end
When /^(?:|I )attach the file "([^\"]*)" to "([^\"]*)"$/ do |path, field|
  type = path.split(".")[1]

  case type
  when "jpg"
    type = "image/jpg" 
  when "jpeg"
    type = "image/jpeg" 
  when "png"
    type = "image/png" 
  when "gif"
    type = "image/gif"
  end
  
  attach_file(field, path, type)
end
Then /^(?:|I )should see "([^\"]*)"$/ do |text|
  if defined?(Spec::Rails::Matchers)
    response.should contain(text)
  else
    assert_contain text
  end
end
  def path_to(page_name)
    case page_name

      when /the home\s?page/
        '/'
      when /the new assign_unique_id_to_a_child page/
        new_assign_unique_id_to_a_child_path


      when /new child page/
        new_child_path

      when /children listing page/
        children_path

      when /saved record page/

      when /new user page/
        new_user_path

      when /manage users page/
        users_path

      when /search page/
        search_url
        
      when /login page/
        new_session_path
        
      when /child summaries page/
        children_summary_path


      # Add more mappings here.
      # Here is an example that pulls values out of the Regexp:
      #
      #   when /^(.*)'s profile page$/i
      #     user_profile_path(User.find_by_login($1))

      else
        raise "Can't find mapping from \"#{page_name}\" to a path.\n" +
                "Now, go and add a mapping in #{__FILE__}"
    end
  end
When /^the date\/time is "([^\"]*)"$/ do |datetime|
  Child.stub!(:current_date_and_time).and_return datetime
end
