"Repository","https://github.com/jasnow/atlrug500.git"
"Precision mean (RT)","0.4920634920333333"
"Precision median (RT)","0.5714285714"
"Precision standard deviation (RT)","0.13746434980980307"
"Recall mean (RT)","0.29210658619999996"
"Recall median (RT)","0.3076923077"
"Recall standard deviation (RT)","0.050843957259191115"
"F2 mean (RT)","0.3129943502566608"
"F2 median (RT)","0.3333333333"
"F2 standard deviation (RT)","0.040220275119206644"
"Correlation #Test-Precision","0.5"
"Correlation #Test-Recall","0.0"
"Task","Dates","#Devs","#Commits","Hashes","#Gherkin_Tests","#Sted_defs","#TestI","#TaskI","TestI","TaskI","Precision","Recall","Rails","#visit_call","Lost_visit_call","#Views_TestI","#Code_View_Analysis","Code_View_Analysis","Methods_Unknown_Type","Renamed_Files","Deleted_Files","NotFound_Views","#NotFound_Views","Timestamp","Has_Merge","#FP","#FN","FP","FN","#Hits","Hits","f2"
"18","[15-03-2014, 20-03-2014, 23-03-2014, 24-03-2014, 30-03-2014, 31-03-2014, 01-04-2014, 03-04-2014, 05-04-2014]","4","20","[aa09992f76c48fd412887400abd18b1d3abd69fe, 5710c8a753f71fb8c6e206224e34999eccdba2f7, f557e41672dc30bf139d631c5b94792a0af209a8, a858456ef7eb3e16d0aa32ab1b9ef6a9fc2178d9, ee9532d46085b2b9f6adbb464f48f982806d93eb, 1f5684aa7b18cb747e8200624669be051a558215, fff3d7e2fea253fc011f4a307a5804ee85c7611b, dd156940eba70bf4828bd6892be5cc2d2cf46deb, b7e63ebbd0baf7c73001f451900e0790c310fcaa, 55c4eef7cd232702377d72862c895df39d1a81dc, 49efbeb47812a16bd2dcc3f0a44427203f68ae6a, 63ee1d27a02c680a7066d8943acf17d2402ee730, 07d928d86b737d0fcd0e9ecc7c97dfb2f2b90bfc, d16fdb006f72c9b4326249d979ee76c5f13d92e5, 510f3b838d23d4131dd04abd1e61ae262cf71cc6, 4a9465734b2020b5359649bf8e4946a80da7f03b, be007993bf585c405917c4808d8542730c852261, e061fa96b08f860a43403122029d382d1f92ff12, 3cf57502a80b7b65c920ac9f2ad96c2d0c419a6c, 815770305dd60055e93bd65439b7e6b4610efa23]","13","8","7","13","[app/controllers/content_controller.rb, app/controllers/jobs_controller.rb, app/controllers/resumes_controller.rb, app/views/content/index.html.haml, app/views/jobs/new.html.haml, app/views/layouts/_banner.html.haml, app/views/resumes/new.html.haml]","[app/controllers/jobs_controller.rb, app/controllers/resumes_controller.rb, app/helpers/jobs_helper.rb, app/helpers/resumes_helper.rb, app/models/job.rb, app/models/resume.rb, app/views/jobs/index.html.haml, app/views/jobs/new.html.haml, app/views/jobs/view.html.haml, app/views/layouts/_navbar.html.haml, app/views/resumes/index.html.haml, app/views/resumes/new.html.haml, app/views/resumes/view.html.haml]","0.5714285714","0.3076923077","4.1.0.2","3","[]","4","7","[app/controllers/content_controller.rb, app/controllers/jobs_controller.rb, app/controllers/resumes_controller.rb, app/views/content/index.html.haml, app/views/jobs/new.html.haml, app/views/layouts/_banner.html.haml, app/views/resumes/new.html.haml]","[page, have_content, has_content?, page, have_content, has_content?, click_link, fill_in, select, click_button, body]","","[]","","0","1.201 seconds","true","3","9","[app/controllers/content_controller.rb, app/views/content/index.html.haml, app/views/layouts/_banner.html.haml]","[app/helpers/jobs_helper.rb, app/helpers/resumes_helper.rb, app/models/job.rb, app/models/resume.rb, app/views/jobs/index.html.haml, app/views/jobs/view.html.haml, app/views/layouts/_navbar.html.haml, app/views/resumes/index.html.haml, app/views/resumes/view.html.haml]","4","[app/controllers/jobs_controller.rb, app/controllers/resumes_controller.rb, app/views/jobs/new.html.haml, app/views/resumes/new.html.haml]","0.3389830508529158"
"11","[13-10-2015, 14-10-2015]","1","8","[34ae59067a29d4273b6c2f64060cf38a7774430d, 2586fd49163b61cdc35219d96f7f465a6166ef31, f4931ff67539ec90092b47fa6c9cf0144ed621ff, 28319abb61ec79f8469a28b0d3706cc6b4c34c84, e56984171c827a86792da3c058a107a29427f64e, 770092a9b982785b3dde45cab021f3c877c3aaa5, 206a61e788576b43a8cd391706fbd88735cb8cab, 1fd1cc9497b2c7654e734048c85dfb777b832d8a]","1","13","7","17","[app/controllers/content_controller.rb, app/controllers/talks_controller.rb, app/models/talk.rb, app/models/user.rb, app/views/content/index.html.haml, app/views/layouts/_banner.html.haml, app/views/talks/approve.html.haml]","[app/controllers/content_controller.rb, app/controllers/jobs_controller.rb, app/controllers/resumes_controller.rb, app/controllers/sessions_controller.rb, app/controllers/talks_controller.rb, app/helpers/application_helper.rb, app/helpers/jobs_helper.rb, app/helpers/resumes_helper.rb, app/models/job.rb, app/models/meetup_event.rb, app/models/resume.rb, app/models/talk.rb, app/models/user.rb, app/models/video.rb, app/views/content/_videos.html.haml, app/views/layouts/_footer.html.haml, app/views/layouts/_footerlinks.html.haml]","0.5714285714","0.2352941176","","6","[{path=jasnow_atlrug500/features/step_definitions/proposals_steps.rb, line=-1}]","3","5","[app/controllers/content_controller.rb, app/controllers/talks_controller.rb, app/views/content/index.html.haml, app/views/layouts/_banner.html.haml, app/views/talks/approve.html.haml]","[page, have_content, has_content?, have_xpath, fill_in, select, click_button, page, body, new_talk_url, allow_any_instance_of, receive_messages, allow, uid, add_mock, click_link]","","[]","[/auth/github/, accept_talk]","2","2.848 seconds","false","3","13","[app/views/content/index.html.haml, app/views/layouts/_banner.html.haml, app/views/talks/approve.html.haml]","[app/controllers/jobs_controller.rb, app/controllers/resumes_controller.rb, app/controllers/sessions_controller.rb, app/helpers/application_helper.rb, app/helpers/jobs_helper.rb, app/helpers/resumes_helper.rb, app/models/job.rb, app/models/meetup_event.rb, app/models/resume.rb, app/models/video.rb, app/views/content/_videos.html.haml, app/views/layouts/_footer.html.haml, app/views/layouts/_footerlinks.html.haml]","4","[app/controllers/content_controller.rb, app/controllers/talks_controller.rb, app/models/talk.rb, app/models/user.rb]","0.2666666666170666"
"17","[13-03-2014, 14-03-2014]","1","3","[e5c7d04b503155bde9d3295c63b6d49cc6ad200b, 95248fad2f50d92688704c4787518fffc69724c8, 7a088fb45d3834e97cfcffdb5f8884a88655ef2d]","1","0","3","3","[app/controllers/content_controller.rb, app/views/content/index.html.haml, app/views/layouts/_banner.html.haml]","[app/controllers/content_controller.rb, app/models/video.rb, app/views/content/_videos.html.haml]","0.3333333333","0.3333333333","4.1.0.1","1","[]","2","3","[app/controllers/content_controller.rb, app/views/content/index.html.haml, app/views/layouts/_banner.html.haml]","[page, have_content, has_content?, click_link]","","[app/models/blip_video.rb]","","0","0.426 seconds","false","2","2","[app/views/content/index.html.haml, app/views/layouts/_banner.html.haml]","[app/models/video.rb, app/views/content/_videos.html.haml]","1","[app/controllers/content_controller.rb]","0.3333333333"
