"Repository","https://github.com/jasnow/atlrug500.git"
"TASK","HASH","RUBY","RAILS","COVERAGE","TESTS"
"11","34ae59067a29d4273b6c2f64060cf38a7774430d","2.2.3","","simplecov","features/main_page.feature(6)"
"17","e5c7d04b503155bde9d3295c63b6d49cc6ad200b","2.1.1","4.1.0.1","simplecov","features/main_page.feature(41)"
"18","aa09992f76c48fd412887400abd18b1d3abd69fe","2.1.1","4.1.0.2","simplecov","features/jobs.feature(6);features/jobs.feature(10);features/jobs.feature(19);features/jobs.feature(23);features/resumes.feature(6);features/resumes.feature(10);features/resumes.feature(20);features/resumes.feature(24);features/main_page.feature(41);features/main_page.feature(58);features/main_page.feature(67);features/main_page.feature(80);features/main_page.feature(88)"
