"Repository","https://github.com/AgileVentures/WebsiteOne.git"
"Precision mean (RT)","0.173333333324"
"Precision median (RT)","0.0"
"Precision standard deviation (RT)","0.2567604446244412"
"Recall mean (RT)","0.3400000000000001"
"Recall median (RT)","0.0"
"Recall standard deviation (RT)","0.4525647078769407"
"F2 mean (RT)","0.26961038960254674"
"F2 median (RT)","0.0"
"F2 standard deviation (RT)","0.3539154536989873"
"Correlation #Test-Precision","0.81"
"Correlation #Test-Recall","0.79"
"Task","Dates","#Devs","#Commits","Hashes","#Gherkin_Tests","#Sted_defs","#TestI","#TaskI","TestI","TaskI","Precision","Recall","Rails","#visit_call","Lost_visit_call","#Views_TestI","#Code_View_Analysis","Code_View_Analysis","Methods_Unknown_Type","Renamed_Files","Deleted_Files","NotFound_Views","#NotFound_Views","Timestamp","Has_Merge","#FP","#FN","FP","FN","#Hits","Hits","f2"
"808","[21-01-2014, 24-01-2014]","1","2","[05b1e530a7f4965a59592bb72763ec7365ee6917, a471d6c5ea15061f815bacf247ab162ccaf54ef0]","45","51","3","3","[app/controllers/documents_controller.rb, app/controllers/projects_controller.rb, app/controllers/visitors_controller.rb]","[app/controllers/application_controller.rb, app/controllers/documents_controller.rb, app/controllers/projects_controller.rb]","0.6666666667","0.6666666667","4.0.2","34","[{path=AgileVentures_WebsiteOne/features/step_definitions/documents_steps.rb, line=68}]","0","16","[app/controllers/documents_controller.rb, app/controllers/projects_controller.rb, app/controllers/visitors_controller.rb, app/views/devise/registrations/new.html.erb, app/views/devise/sessions/new.html.erb, app/views/devise/shared/_links.erb, app/views/documents/_form.html.erb, app/views/documents/index.html.erb, app/views/documents/new.html.erb, app/views/documents/show.html.erb, app/views/projects/_form.html.erb, app/views/projects/edit.html.erb, app/views/projects/index.html.erb, app/views/projects/new.html.erb, app/views/projects/show.html.erb, app/views/visitors/index.html.erb]","[find, within, page, have_text, within, click_link_or_button, click_button, click_link, click_link, fill_in, fill_in, rows, each, page, driver, browser, accept_js_confirms, current_path, eq, rows, each, flatten, page, have_text, have_link, be_false, be_true, find_field, tag_name, text, url_for_title, has_link?, raise, selector_for, has_button?, sign up, sign in, html, include, evaluate_script, all, have_css, hashes, save, each, id, within, url_for_title, execute_script, p, sleep, driver, within_frame, find, set, within_frame, current_path, within, submit, merge, click_button, have_content, page, have_field, have_button, sign up, sign in, have_xpath]","","[]","[/editor, /users/edit, mercury_edit, new_confirmation, new_password, new_registration, new_session, new_unlock, omniauth_authorize]","9","1.387 seconds","true","1","1","[app/controllers/visitors_controller.rb]","[app/controllers/application_controller.rb]","2","[app/controllers/documents_controller.rb, app/controllers/projects_controller.rb]","0.6666666667"
"851","[18-01-2014, 19-01-2014]","2","2","[5f03ad2579ebeeda19358815cd9be8476b2ce718, ce227f009e167b8c84ee6b69666e113a7301837d]","26","27","3","1","[app/controllers/documents_controller.rb, app/controllers/projects_controller.rb, app/controllers/visitors_controller.rb]","[app/controllers/projects_controller.rb]","0.3333333333","1.0","4.0.2","13","[]","0","17","[app/controllers/documents_controller.rb, app/controllers/projects_controller.rb, app/controllers/visitors_controller.rb, app/views/devise/registrations/new.html.erb, app/views/devise/sessions/new.html.erb, app/views/devise/shared/_links.erb, app/views/documents/_form.html.erb, app/views/documents/edit.html.erb, app/views/documents/index.html.erb, app/views/documents/new.html.erb, app/views/documents/show.html.erb, app/views/projects/_form.html.erb, app/views/projects/edit.html.erb, app/views/projects/index.html.erb, app/views/projects/new.html.erb, app/views/projects/show.html.erb, app/views/visitors/index.html.erb]","[find, within, click_link_or_button, click_button, click_button, click_link, click_link, fill_in, fill_in, rows, each, current_path, eq, rows, each, flatten, page, have_text, have_link, be_false, be_true, find_field, tag_name, text, url_for_title, has_link?, raise, selector_for, has_button?, sign up, sign in, have_css, have_field, page, driver, submit, merge, within, have_content, within, sign in, hashes, save, each, id, all, find]","","[]","[/users/edit, new_confirmation, new_password, new_registration, new_session, new_unlock, omniauth_authorize]","7","1.661 seconds","true","2","0","[app/controllers/documents_controller.rb, app/controllers/visitors_controller.rb]","[]","1","[app/controllers/projects_controller.rb]","0.714285714255102"
"852","[18-01-2014]","1","3","[85469f2bcd0043c61b103722069b7055d23100db, 86828a8598a6b5778f044c8be6cf33f58162099f, 6f05e7a361512912d56b31048d3884da31720027]","26","27","3","1","[app/controllers/documents_controller.rb, app/controllers/projects_controller.rb, app/controllers/visitors_controller.rb]","[app/controllers/projects_controller.rb]","0.3333333333","1.0","4.0.2","13","[]","0","17","[app/controllers/documents_controller.rb, app/controllers/projects_controller.rb, app/controllers/visitors_controller.rb, app/views/devise/registrations/new.html.erb, app/views/devise/sessions/new.html.erb, app/views/devise/shared/_links.erb, app/views/documents/_form.html.erb, app/views/documents/edit.html.erb, app/views/documents/index.html.erb, app/views/documents/new.html.erb, app/views/documents/show.html.erb, app/views/projects/_form.html.erb, app/views/projects/edit.html.erb, app/views/projects/index.html.erb, app/views/projects/new.html.erb, app/views/projects/show.html.erb, app/views/visitors/index.html.erb]","[page, have_text, have_css, have_field, have_link, fill_in, page, driver, submit, merge, fill_in, click_button, within, have_content, click_button, within, sign in, click_link_or_button, click_link, click_link, rows, each, current_path, eq, rows, each, flatten, be_false, be_true, find_field, tag_name, text, url_for_title, has_link?, raise, selector_for, within, has_button?, sign up, sign in, find, hashes, save, id, all, find, each]","","[]","[/users/edit, new_confirmation, new_password, new_registration, new_session, new_unlock, omniauth_authorize]","7","0.999 seconds","false","2","0","[app/controllers/documents_controller.rb, app/controllers/visitors_controller.rb]","[]","1","[app/controllers/projects_controller.rb]","0.714285714255102"
"857","[18-01-2014]","1","3","[3ebfdee072b1152cfb3808958e4abafe5e2e5088, 86828a8598a6b5778f044c8be6cf33f58162099f, 6f05e7a361512912d56b31048d3884da31720027]","26","27","3","3","[app/controllers/documents_controller.rb, app/controllers/projects_controller.rb, app/controllers/visitors_controller.rb]","[app/controllers/projects_controller.rb, app/controllers/users/registrations_controller.rb, app/controllers/users/sessions_controller.rb]","0.3333333333","0.3333333333","4.0.2","13","[]","0","14","[app/controllers/documents_controller.rb, app/controllers/projects_controller.rb, app/controllers/visitors_controller.rb, app/views/documents/_form.html.erb, app/views/documents/edit.html.erb, app/views/documents/index.html.erb, app/views/documents/new.html.erb, app/views/documents/show.html.erb, app/views/projects/_form.html.erb, app/views/projects/edit.html.erb, app/views/projects/index.html.erb, app/views/projects/new.html.erb, app/views/projects/show.html.erb, app/views/visitors/index.html.erb]","[page, have_text, have_css, have_field, have_link, fill_in, page, driver, submit, merge, fill_in, click_button, within, have_content, click_button, within, click_link_or_button, click_link, click_link, rows, each, current_path, eq, rows, each, flatten, be_false, be_true, find_field, tag_name, text, url_for_title, has_link?, raise, selector_for, within, has_button?, find, hashes, save, id, all, find, each]","","[app/views/devise/registrations/edit.html.erb, app/views/devise/registrations/new.html.erb, app/views/devise/sessions/new.html.erb]","[/users/edit]","1","0.747 seconds","false","2","2","[app/controllers/documents_controller.rb, app/controllers/visitors_controller.rb]","[app/controllers/users/registrations_controller.rb, app/controllers/users/sessions_controller.rb]","1","[app/controllers/projects_controller.rb]","0.3333333333"
"858","[18-01-2014]","2","3","[c900ff0a579d434f22dbabadd7c25f22b1afdfba, 86828a8598a6b5778f044c8be6cf33f58162099f, 6f05e7a361512912d56b31048d3884da31720027]","19","25","3","1","[app/controllers/documents_controller.rb, app/controllers/projects_controller.rb, app/controllers/visitors_controller.rb]","[app/controllers/projects_controller.rb]","0.3333333333","1.0","4.0.2","12","[]","0","17","[app/controllers/documents_controller.rb, app/controllers/projects_controller.rb, app/controllers/visitors_controller.rb, app/views/devise/registrations/new.html.erb, app/views/devise/sessions/new.html.erb, app/views/devise/shared/_links.erb, app/views/documents/_form.html.erb, app/views/documents/edit.html.erb, app/views/documents/index.html.erb, app/views/documents/new.html.erb, app/views/documents/show.html.erb, app/views/projects/_form.html.erb, app/views/projects/edit.html.erb, app/views/projects/index.html.erb, app/views/projects/new.html.erb, app/views/projects/show.html.erb, app/views/visitors/index.html.erb]","[find, within, click_link_or_button, click_button, click_button, click_link, click_link, fill_in, fill_in, rows, each, current_path, eq, rows, each, flatten, page, have_text, have_link, be_false, be_true, find_field, tag_name, text, url_for_title, has_link?, raise, selector_for, has_button?, sign up, sign in, within, have_content, within, sign in, have_css, hashes, save, each, id, all, find, page, driver, submit, sign in]","","[]","[/users/edit, new_confirmation, new_password, new_registration, new_session, new_unlock, omniauth_authorize]","7","1.021 seconds","true","2","0","[app/controllers/documents_controller.rb, app/controllers/visitors_controller.rb]","[]","1","[app/controllers/projects_controller.rb]","0.714285714255102"
"860","[18-01-2014]","1","1","[3d22c3bba404593b153a66b8b7c5707f0f22704c]","12","11","3","1","[app/controllers/documents_controller.rb, app/controllers/projects_controller.rb, app/controllers/visitors_controller.rb]","[app/controllers/documents_controller.rb]","0.3333333333","1.0","4.0.2","7","[]","0","17","[app/controllers/documents_controller.rb, app/controllers/projects_controller.rb, app/controllers/visitors_controller.rb, app/views/devise/registrations/new.html.erb, app/views/devise/sessions/new.html.erb, app/views/devise/shared/_links.erb, app/views/documents/_form.html.erb, app/views/documents/edit.html.erb, app/views/documents/index.html.erb, app/views/documents/new.html.erb, app/views/documents/show.html.erb, app/views/projects/_form.html.erb, app/views/projects/edit.html.erb, app/views/projects/index.html.erb, app/views/projects/new.html.erb, app/views/projects/show.html.erb, app/views/visitors/index.html.erb]","[page, have_link, current_path, eq, click_link, have_text, page, have_text, have_link, click_link_or_button, fill_in, url_for_title, has_link?, sign up, sign in, have_css, within, hashes, save, each, save_and_open_page, id, title, within, nil?, id, click_link, change, by, all, find, each, page, driver, submit, fill_in, click_button, within, sign in]","","[]","[new_confirmation, new_password, new_registration, new_session, new_unlock, omniauth_authorize]","6","0.947 seconds","true","2","0","[app/controllers/projects_controller.rb, app/controllers/visitors_controller.rb]","[]","1","[app/controllers/documents_controller.rb]","0.714285714255102"
"829","[20-01-2014]","1","1","[ebed2c9ba1e0af5acf98ae0b01ee302e406e00b6]","6","14","3","1","[app/controllers/documents_controller.rb, app/controllers/projects_controller.rb, app/controllers/visitors_controller.rb]","[app/controllers/documents_controller.rb]","0.3333333333","1.0","4.0.2","19","[{path=AgileVentures_WebsiteOne/features/step_definitions/documents_steps.rb, line=68}]","0","16","[app/controllers/documents_controller.rb, app/controllers/projects_controller.rb, app/controllers/visitors_controller.rb, app/views/devise/registrations/new.html.erb, app/views/devise/sessions/new.html.erb, app/views/devise/shared/_links.erb, app/views/documents/_form.html.erb, app/views/documents/index.html.erb, app/views/documents/new.html.erb, app/views/documents/show.html.erb, app/views/projects/_form.html.erb, app/views/projects/edit.html.erb, app/views/projects/index.html.erb, app/views/projects/new.html.erb, app/views/projects/show.html.erb, app/views/visitors/index.html.erb]","[fill_in, page, have_content, click_button, within, sign in, click_link_or_button, current_path, eq, have_text, url_for_title, raise, sign up, sign in, hashes, save, each, id, within, url_for_title, find, page, execute_script, p, sleep, driver, within_frame, driver, find, set, within_frame, current_path, html, include, each, evaluate_script, be_true, all, page, driver, submit, sign in, click_link_or_button, id]","","[]","[/editor, mercury_edit, new_confirmation, new_password, new_registration, new_session, new_unlock, omniauth_authorize]","8","1.486 seconds","true","2","0","[app/controllers/projects_controller.rb, app/controllers/visitors_controller.rb]","[]","1","[app/controllers/documents_controller.rb]","0.714285714255102"
"848","[19-01-2014]","1","4","[6d2d8e4f71f212304276b2b3a17bb5ecfaf97485, ab9ebbb67a0b1bed79ea798b91a0b2ba83db204d, 1407152605ccfc4683218e90e1750d9432447afe, d5e85267196575f125267070325c4616c2761601]","6","2","3","0","[app/controllers/documents_controller.rb, app/controllers/projects_controller.rb, app/controllers/visitors_controller.rb]","[]","0.0","0.0","4.0.2","2","[]","0","17","[app/controllers/documents_controller.rb, app/controllers/projects_controller.rb, app/controllers/visitors_controller.rb, app/views/devise/registrations/new.html.erb, app/views/devise/sessions/new.html.erb, app/views/devise/shared/_links.erb, app/views/documents/_form.html.erb, app/views/documents/edit.html.erb, app/views/documents/index.html.erb, app/views/documents/new.html.erb, app/views/documents/show.html.erb, app/views/projects/_form.html.erb, app/views/projects/edit.html.erb, app/views/projects/index.html.erb, app/views/projects/new.html.erb, app/views/projects/show.html.erb, app/views/visitors/index.html.erb]","[click_button, current_path, eq, raise, sign up, sign in, fill_in, merge, page, have_content, fill_in, click_button, within, sign up, page, driver, submit, sign in]","","[]","[new_confirmation, new_password, new_registration, new_session, new_unlock, omniauth_authorize]","6","0.933 seconds","true","3","0","[app/controllers/documents_controller.rb, app/controllers/projects_controller.rb, app/controllers/visitors_controller.rb]","[]","0","[]","0"
"859","[17-01-2014, 18-01-2014]","3","10","[2bb50197fd8223f057331d5017e071d62632f620, 8a2d9f3134a2baf8af2f49d857fe506ee93ac409, 3cf364351469072c3c8e3e382d7ceac72c115435, 83571edcc96a4a679484c4ee3d1193a27928b465, c4f6464c98c037b17d13346b4e8757c53b7233aa, 54e077a7f37cedbb5a92d8a4b12cbdbf09cdaf43, 8d4a5dd4f49588d46f6e0cead1d3d19bc526db90, 6e4060d30c6ee552514924052a5585d574cb6ac0, 3f2c1e758fd8ccf4b2dfda5e66acd0cfb6c23756, ba4b5036b377aefd0932979d085a7b2e7723616b]","6","1","3","1","[app/controllers/documents_controller.rb, app/controllers/projects_controller.rb, app/controllers/visitors_controller.rb]","[app/controllers/documents_controller.rb]","0.3333333333","1.0","4.0.2","5","[]","0","17","[app/controllers/documents_controller.rb, app/controllers/projects_controller.rb, app/controllers/visitors_controller.rb, app/views/devise/registrations/new.html.erb, app/views/devise/sessions/new.html.erb, app/views/devise/shared/_links.erb, app/views/documents/_form.html.erb, app/views/documents/edit.html.erb, app/views/documents/index.html.erb, app/views/documents/new.html.erb, app/views/documents/show.html.erb, app/views/projects/_form.html.erb, app/views/projects/edit.html.erb, app/views/projects/index.html.erb, app/views/projects/new.html.erb, app/views/projects/show.html.erb, app/views/visitors/index.html.erb]","[page, have_link, current_path, eq, click_link, have_text, page, have_text, have_link, click_link_or_button, sign up, sign in, have_css, within, hashes, save, each, id, title, within, fill_in, click_button, within, sign in]","","[]","[new_confirmation, new_password, new_registration, new_session, new_unlock, omniauth_authorize]","6","0.853 seconds","false","2","0","[app/controllers/projects_controller.rb, app/controllers/visitors_controller.rb]","[]","1","[app/controllers/documents_controller.rb]","0.714285714255102"
"876","[14-01-2014]","1","1","[a6c891aa8c28209c5b09924cd7c7f7be2eb486d4]","6","2","1","1","[app/controllers/projects_controller.rb]","[app/controllers/projects_controller.rb]","1.0","1.0","4.0.2","4","[]","0","8","[app/controllers/projects_controller.rb, app/views/devise/sessions/new.html.erb, app/views/devise/shared/_links.erb, app/views/projects/_form.html.erb, app/views/projects/edit.html.erb, app/views/projects/index.html.erb, app/views/projects/new.html.erb, app/views/projects/show.html.erb]","[fill_in, click_button, within, sign in, page, have_link, click_link, have_text, have_css, within, hashes, save, each]","","[]","[new_confirmation, new_password, new_registration, new_session, new_unlock, omniauth_authorize]","6","0.410 seconds","true","0","0","[]","[]","1","[app/controllers/projects_controller.rb]","1.0"
"820","[23-01-2014]","1","1","[a7230877e378cdc718f7dab172aa325d64053334]","5","3","3","0","[app/controllers/documents_controller.rb, app/controllers/projects_controller.rb, app/controllers/visitors_controller.rb]","[]","0.0","0.0","4.0.2","5","[]","0","15","[app/controllers/documents_controller.rb, app/controllers/projects_controller.rb, app/controllers/visitors_controller.rb, app/views/devise/registrations/new.html.erb, app/views/devise/sessions/new.html.erb, app/views/documents/_form.html.erb, app/views/documents/index.html.erb, app/views/documents/new.html.erb, app/views/documents/show.html.erb, app/views/projects/_form.html.erb, app/views/projects/edit.html.erb, app/views/projects/index.html.erb, app/views/projects/new.html.erb, app/views/projects/show.html.erb, app/views/visitors/index.html.erb]","[click_link_or_button, click_link_or_button, fill_in, fill_in, current_path, eq, rows, flatten, page, have_text, each, page, have_text, raise, sign up, sign in, hashes, save, each, page, within, click_button, within, sign in]","","[]","[mercury_edit, new_registration, new_session]","3","1.329 seconds","false","3","0","[app/controllers/documents_controller.rb, app/controllers/projects_controller.rb, app/controllers/visitors_controller.rb]","[]","0","[]","0"
"832","[20-01-2014]","2","6","[3455236c93ad50808bb00b2b76e2e13e4657b2cc, b8a3b508f8634fb9c10dd992488f119c4fa4c7d9, fc761f7794ee5737b73c370829cd879a71bb0ef2, 053ec7c6fde8ca2a3bc7a754e2ae027ed15fd6d8, 01f49d30213c53da34798cf3906e5d257aae3529, 6819becd7fb9cd8b2b2120eae4f683bf9cd9f2b3]","5","8","3","0","[app/controllers/documents_controller.rb, app/controllers/projects_controller.rb, app/controllers/visitors_controller.rb]","[]","0.0","0.0","4.0.2","13","[{path=AgileVentures_WebsiteOne/features/step_definitions/documents_steps.rb, line=68}]","0","16","[app/controllers/documents_controller.rb, app/controllers/projects_controller.rb, app/controllers/visitors_controller.rb, app/views/devise/registrations/new.html.erb, app/views/devise/sessions/new.html.erb, app/views/devise/shared/_links.erb, app/views/documents/_form.html.erb, app/views/documents/index.html.erb, app/views/documents/new.html.erb, app/views/documents/show.html.erb, app/views/projects/_form.html.erb, app/views/projects/edit.html.erb, app/views/projects/index.html.erb, app/views/projects/new.html.erb, app/views/projects/show.html.erb, app/views/visitors/index.html.erb]","[click_link_or_button, click_button, current_path, eq, page, have_text, url_for_title, raise, sign up, sign in, hashes, save, each, id, within, url_for_title, find, page, execute_script, p, sleep, driver, find, set, within_frame, current_path, fill_in, have_content, within, sign in, page, driver, submit, sign in, click_link_or_button, id]","","[]","[/editor, mercury_edit, new_confirmation, new_password, new_registration, new_session, new_unlock, omniauth_authorize]","8","1.573 seconds","false","3","0","[app/controllers/documents_controller.rb, app/controllers/projects_controller.rb, app/controllers/visitors_controller.rb]","[]","0","[]","0"
"839","[20-01-2014]","1","3","[09d61367ef8f07266318f0c029e7cfd099b3a239, 7b760c5e9784fd045515e3693e8407476e1e60ce, 08af89ed7e14f045c3c41e9acc9e3cbc4dd982b4]","5","6","3","2","[app/controllers/documents_controller.rb, app/controllers/projects_controller.rb, app/controllers/visitors_controller.rb]","[app/controllers/application_controller.rb, app/controllers/documents_controller.rb]","0.3333333333","0.5","4.0.2","5","[]","0","17","[app/controllers/documents_controller.rb, app/controllers/projects_controller.rb, app/controllers/visitors_controller.rb, app/views/devise/registrations/new.html.erb, app/views/devise/sessions/new.html.erb, app/views/devise/shared/_links.erb, app/views/documents/_form.html.erb, app/views/documents/edit.html.erb, app/views/documents/index.html.erb, app/views/documents/new.html.erb, app/views/documents/show.html.erb, app/views/projects/_form.html.erb, app/views/projects/edit.html.erb, app/views/projects/index.html.erb, app/views/projects/new.html.erb, app/views/projects/show.html.erb, app/views/visitors/index.html.erb]","[click_link_or_button, click_button, click_link, rows, fill_in, each, page, driver, browser, accept_js_confirms, current_path, eq, rows, each, page, have_text, raise, sign up, sign in, have_xpath, click_button, within, page, have_field, have_button, be_false, sign in, find_field, tag_name, text, selector_for, within]","","[]","[mercury_edit, new_confirmation, new_password, new_registration, new_session, new_unlock, omniauth_authorize]","7","0.820 seconds","true","2","1","[app/controllers/projects_controller.rb, app/controllers/visitors_controller.rb]","[app/controllers/application_controller.rb]","1","[app/controllers/documents_controller.rb]","0.4545454545330579"
"843","[19-01-2014, 20-01-2014]","1","7","[487fcac9545efaffa90969c4afcbb8e3bb485a56, bd91b3c436436004c85765b2922d7915d8b740b9, 14a2d8691005199d3ea31cf05567795a62d7a474, 0c29ce78c62309cb3945f89307381086061e6989, fd6dd36b65563aa7995fbc608e33f247e0efae0a, 5643b06df010afe02613df820b451763cf2861ab, acf546c631f4fbcfeefaefa919cee75e60f17866]","4","5","3","1","[app/controllers/documents_controller.rb, app/controllers/projects_controller.rb, app/controllers/visitors_controller.rb]","[app/controllers/application_controller.rb]","0.0","0.0","4.0.2","4","[]","0","17","[app/controllers/documents_controller.rb, app/controllers/projects_controller.rb, app/controllers/visitors_controller.rb, app/views/devise/registrations/new.html.erb, app/views/devise/sessions/new.html.erb, app/views/devise/shared/_links.erb, app/views/documents/_form.html.erb, app/views/documents/edit.html.erb, app/views/documents/index.html.erb, app/views/documents/new.html.erb, app/views/documents/show.html.erb, app/views/projects/_form.html.erb, app/views/projects/edit.html.erb, app/views/projects/index.html.erb, app/views/projects/new.html.erb, app/views/projects/show.html.erb, app/views/visitors/index.html.erb]","[click_link_or_button, click_button, click_link, rows, fill_in, each, page, driver, browser, accept_js_confirms, current_path, eq, rows, each, page, have_text, raise, sign up, sign in, click_button, within, be_false, sign in, have_xpath, find_field, tag_name, text, selector_for, within]","","[]","[mercury_edit, new_confirmation, new_password, new_registration, new_session, new_unlock, omniauth_authorize]","7","0.826 seconds","false","3","1","[app/controllers/documents_controller.rb, app/controllers/projects_controller.rb, app/controllers/visitors_controller.rb]","[app/controllers/application_controller.rb]","0","[]","0"
"837","[18-01-2014, 19-01-2014, 20-01-2014]","2","6","[4465b3fbe6e5e9e2f5aee0ae50d5b6b408bbc2d4, 1da48b369b7646b33dc89b37eb9bf53de903f26f, bd87d72e3f6580401e466af34b6d6fd6ba1bdd75, 070e9c137670964fdce03d1095c18b3121f175df, 3d160a7c3ba83d5fcd11a3260b792c93b7528e5b, 96141b54b411f3bdab43160f4ff6184782236219]","3","9","1","1","[app/controllers/visitors_controller.rb]","[app/controllers/documents_controller.rb]","0.0","0.0","4.0.2","9","[]","0","4","[app/controllers/visitors_controller.rb, app/views/devise/sessions/new.html.erb, app/views/devise/shared/_links.erb, app/views/visitors/index.html.erb]","[fill_in, click_button, within, sign in, page, have_text, click_link_or_button, current_path, url_for_title, eq, hashes, save, each, url_for_title, find, page, execute_script, p, sleep, driver, within_frame, html, include, each, evaluate_script, be_true, all]","","[]","[/editor, new_confirmation, new_password, new_registration, new_session, new_unlock, omniauth_authorize]","7","0.362 seconds","false","1","1","[app/controllers/visitors_controller.rb]","[app/controllers/documents_controller.rb]","0","[]","0"
"842","[19-01-2014]","1","1","[9f4de4f08bedde8f40ad76f730684d60b15004d1]","3","1","2","0","[app/controllers/documents_controller.rb, app/controllers/projects_controller.rb]","[]","0.0","0.0","4.0.2","5","[]","0","14","[app/controllers/documents_controller.rb, app/controllers/projects_controller.rb, app/views/devise/sessions/new.html.erb, app/views/devise/shared/_links.erb, app/views/documents/_form.html.erb, app/views/documents/edit.html.erb, app/views/documents/index.html.erb, app/views/documents/new.html.erb, app/views/documents/show.html.erb, app/views/projects/_form.html.erb, app/views/projects/edit.html.erb, app/views/projects/index.html.erb, app/views/projects/new.html.erb, app/views/projects/show.html.erb]","[fill_in, click_button, within, sign in, hashes, save, each, click_link_or_button, fill_in, page, have_text, current_path, url_for_title, eq, has_link?, id, within, click_link_or_button, id]","","[]","[new_confirmation, new_password, new_registration, new_session, new_unlock, omniauth_authorize]","6","0.814 seconds","true","2","0","[app/controllers/documents_controller.rb, app/controllers/projects_controller.rb]","[]","0","[]","0"
"845","[19-01-2014]","2","3","[1f6d2f54acc4fd6eeda3cb82109749dbeafa33eb, f248815fc897a2eee3a6b6f3f77f6dbde1a5b1ce, e4a91235ae76028be4c572880709882ff6b234cb]","3","1","2","0","[app/controllers/documents_controller.rb, app/controllers/projects_controller.rb]","[]","0.0","0.0","4.0.2","5","[]","0","14","[app/controllers/documents_controller.rb, app/controllers/projects_controller.rb, app/views/devise/sessions/new.html.erb, app/views/devise/shared/_links.erb, app/views/documents/_form.html.erb, app/views/documents/edit.html.erb, app/views/documents/index.html.erb, app/views/documents/new.html.erb, app/views/documents/show.html.erb, app/views/projects/_form.html.erb, app/views/projects/edit.html.erb, app/views/projects/index.html.erb, app/views/projects/new.html.erb, app/views/projects/show.html.erb]","[fill_in, click_button, within, sign in, hashes, save, each, click_link_or_button, fill_in, page, have_text, current_path, url_for_title, eq, has_link?, id, within, click_link_or_button, id]","","[]","[new_confirmation, new_password, new_registration, new_session, new_unlock, omniauth_authorize]","6","0.716 seconds","false","2","0","[app/controllers/documents_controller.rb, app/controllers/projects_controller.rb]","[]","0","[]","0"
"855","[18-01-2014]","1","2","[90df80f112fedfc04da2dcc4c6381f1a90633aa0, 0479b5e048ad7a8512759734b7538eeae7f6811f]","2","1","1","0","[app/controllers/visitors_controller.rb]","[]","0.0","0.0","4.0.2","2","[]","0","2","[app/controllers/visitors_controller.rb, app/views/visitors/index.html.erb]","[click_link_or_button, rows, each, page, have_text, fill_in, click_button, within, find_field, tag_name, text, selector_for, within]","","[]","","0","0.094 seconds","false","1","0","[app/controllers/visitors_controller.rb]","[]","0","[]","0"
"869","[16-01-2014]","2","4","[f820921b18ea111d95794c06e0d013c72e14b598, 03c8948d75745da86cf1ba9e7178e13bc25c7eae, ce895cc40c06393a71f6c3c5bbab5bf364578d0a, a33b5f557120230f7a27c0d6e681949352664c9f]","2","5","0","1","[]","[app/controllers/documents_controller.rb]","0.0","0.0","4.0.2","2","[]","0","2","[app/views/devise/sessions/new.html.erb, app/views/devise/shared/_links.erb]","[hashes, save, each, id, current_path, eval, eq, page, have_text, click_link_or_button, fill_in, all, find, each, fill_in, click_button, within, sign in, id, click_link]","","[]","[new_confirmation, new_password, new_registration, new_session, new_unlock, omniauth_authorize]","6","0.269 seconds","false","0","1","[]","[app/controllers/documents_controller.rb]","0","[]","0"
"812","[24-01-2014]","2","4","[70b4a1797d9178b19443e56769c4af28340fce63, 89b9cbcaf0a9e10a0736edb13ba014daafb59f6f, 208a69443e6fb7bd4db6759c2e0e5a6c6506880f, c7d44a3e1054151e6f20d6bcefed382f637eea98]","1","2","1","0","[app/controllers/visitors_controller.rb]","[]","0.0","0.0","4.0.2","2","[]","0","2","[app/controllers/visitors_controller.rb, app/views/visitors/index.html.erb]","[click_link_or_button, page, have_text, have_link, gsub, current_path, eq]","","[]","[page]","1","0.053 seconds","true","1","0","[app/controllers/visitors_controller.rb]","[]","0","[]","0"
"825","[22-01-2014, 23-01-2014]","1","5","[2026ec30f3c7ca7e7cc0d46c0bd49b335e7e4dbe, 088cd6d47eb39984903f03bd148832a9ae5a292a, 5c7c764f62853607ebdb286b1e1c257b4c314cc2, f27fd4d2667ec9b3e5cff9edfe7db16b96f34da6, 4b41cf6aa44afa28ecc540e08b43523ce9acbb1e]","1","0","1","0","[app/controllers/visitors_controller.rb]","[]","0.0","0.0","4.0.2","2","[]","0","3","[app/controllers/visitors_controller.rb, app/views/devise/sessions/new.html.erb, app/views/visitors/index.html.erb]","[click_link_or_button, rows, each, page, have_text, fill_in, click_button, within, sign in, find_field, tag_name, text, selector_for, within]","","[]","[new_registration]","1","0.065 seconds","true","1","0","[app/controllers/visitors_controller.rb]","[]","0","[]","0"
"840","[18-01-2014]","1","1","[9bd83b9916bdd722f618284f58e24ada102c40b9]","1","1","1","0","[app/controllers/visitors_controller.rb]","[]","0.0","0.0","4.0.2","2","[]","0","2","[app/controllers/visitors_controller.rb, app/views/visitors/index.html.erb]","[click_link_or_button, page, find, fill_in, click_button, within]","","[]","","0","0.089 seconds","false","1","0","[app/controllers/visitors_controller.rb]","[]","0","[]","0"
"844","[19-01-2014]","1","1","[044c5d98f53862a24029637539776e284fa990b4]","1","3","1","0","[app/controllers/visitors_controller.rb]","[]","0.0","0.0","4.0.2","3","[]","0","4","[app/controllers/visitors_controller.rb, app/views/devise/sessions/new.html.erb, app/views/devise/shared/_links.erb, app/views/visitors/index.html.erb]","[click_link_or_button, rows, each, page, have_text, fill_in, click_button, within, sign in, have_xpath, find_field, tag_name, text, selector_for, within]","","[]","[new_confirmation, new_password, new_registration, new_session, new_unlock, omniauth_authorize]","6","0.224 seconds","false","1","0","[app/controllers/visitors_controller.rb]","[]","0","[]","0"
"871","[13-01-2014, 14-01-2014]","2","3","[fdb0f969a43f29a06a4f01c78b3962ba3917079c, eab27a571a1f3e3922592d25d7359561061e82c5, 0dd70f7238b4e92b34259e886a479b1609e876e9]","1","2","1","0","[app/controllers/projects_controller.rb]","[]","0.0","0.0","4.0.2","2","[]","0","8","[app/controllers/projects_controller.rb, app/views/devise/sessions/new.html.erb, app/views/devise/shared/_links.erb, app/views/projects/_form.html.erb, app/views/projects/edit.html.erb, app/views/projects/index.html.erb, app/views/projects/new.html.erb, app/views/projects/show.html.erb]","[hashes, save, each, click_link_or_button, fill_in, click_button, within, sign in, id, click_link]","","[]","[new_confirmation, new_password, new_registration, new_session, new_unlock, omniauth_authorize]","6","0.458 seconds","false","1","0","[app/controllers/projects_controller.rb]","[]","0","[]","0"
"872","[15-01-2014]","1","2","[99164cd82c113a9e5a2d66cb849adc6dc24021a4, b1d24fb7988240a5473e7453e46342e315ece3af]","1","2","2","0","[app/controllers/projects_controller.rb, app/controllers/visitors_controller.rb]","[]","0.0","0.0","4.0.2","1","[]","0","11","[app/controllers/projects_controller.rb, app/controllers/visitors_controller.rb, app/views/devise/registrations/new.html.erb, app/views/devise/sessions/new.html.erb, app/views/devise/shared/_links.erb, app/views/projects/_form.html.erb, app/views/projects/edit.html.erb, app/views/projects/index.html.erb, app/views/projects/new.html.erb, app/views/projects/show.html.erb, app/views/visitors/index.html.erb]","[current_path, eq, click_link, sign up, sign in, hashes, save, each, id, click_link, within]","","[]","[new_confirmation, new_password, new_registration, new_session, new_unlock, omniauth_authorize]","6","0.389 seconds","false","2","0","[app/controllers/projects_controller.rb, app/controllers/visitors_controller.rb]","[]","0","[]","0"
