"REPO_URL","TASK_ID","#HASHES","HASHES","#PROD_FILES","#TEST_FILES","LAST"
"https://github.com/opf/openproject.git","8236","6","[22f34cb9bbce3fc76fb5630e70e8c88e35b49f73, 0eb9ce9d034d506e747f32f6d3971f195bb6ad35, 1c609be71648a83e831381a640eb6423e46f98cd, 6e9e864bda18e1e6e0aef81031d202f2cec30712, eb70332a0b77bec1f09fad746b7e26841ca6bf2c, e4cce1f77eca200caafcdb38a93d794d587d365e]","2","1","22f34cb9bbce3fc76fb5630e70e8c88e35b49f73","93a5b72cc0d7f2e4744b804d9f5b3d5d00650dc4","ab3c7c8361787875c68e76232d1e4d12339fb63a"
"https://github.com/opf/openproject.git","8239","34","[7505973b23bd505009305193a9e864dda5a4d924, 7239cf1963d971021d2f1560109f9f19b689ac92, 8a9c57ca372c980b5c48bc44116b97801eb197c1, 3f5e359391335befe51fa29510f81a847f3e2a5f, 3b5b5b2da19a98272be33dbc4a612458f6fe16e5, 8021bba3a9f22451e76f95e2eeb108e1dc7def61, 95e29a569f78786128cde8acc9591a45425edb00, 7960863ffde956e9e3c990c9fa2133f5f33b28a6, 52f4d480ea23f43985478c48fa8a0e8da46fb614, 39b10b06693bc3c7af9c1b335e5c9886caf17c5d, 35f9372e9e475e9f91bc678e1ab03cacdc892357, a7d7449579c14d684c0d5f3aa54187ce00b344a8, 4abf1b092ed2e33f880e2fb991d28370cc9da9a4, 85a21dd0ab3a28ba6e997fb2cbd12b623149d78c, ab3b835c76bb0057ae40806118553576cf462cf2, c2f54635518f5d39fd45fe66e3dc07b4b37734df, 33d947cf5f088cf184d029ea8aeeb3c4cb1a6c71, 61f00abf7f92d7c0578f377ef7f00830f67bbd9a, 759088c0b84080bf675e6f6ad347fd656fc14a45, 3877e38d1e088bdb90c07d0f72a8208208045ec5, 513bffdcd41576bf1346764057bd2c53f5ecd6c4, 08a7ee5fea58c9c692f8abbdde1f7e308541993d, 9725feec1f4ed3d639c7480fc80ea84779cac23f, 11149fbc25282792d7b9f1966a65b89df8b1e9d6, d0f6c2e76aa194b25b484d0bded3048c85c0b994, 7609698a0df4b21cda57563db9521784dee630a4, 31220947ea07f7afa1f00558e2c9366d1d2482e0, 7d32f19f8b44f3daddcd314c4fdcf41378e2d71e, fedc398b91efe2bdaaa3d91bb4597dacc3fd193a, fddfd1c4b8153ba0eb32409477cde9f5b9092c47, 4af54ff9f7d1c47d5fa89e4f68191ec7f6c98e7e, 841005ca9f473657df77991b3b407b46037f509b, 86228f0d763e36bfdb3c1cb726cf1bef56a8520d, 5f2f09d1ec54b084536ab2664c9122b0669ccc4c]","60","3","7505973b23bd505009305193a9e864dda5a4d924","926f782b57b08471557ef22d9127e0100494e0a2","91be15902a04886e86257e8af1485c72e9a89110"
"https://github.com/opf/openproject.git","8241","2","[0a369c591c6cf0ac939359246d544494ef6bf188, 4922ead57a7261be8e3b62d5e5e798b056423727]","1","1","0a369c591c6cf0ac939359246d544494ef6bf188","8292313f911eb3faef35a98e720e8c6e9ad119ca","88c6912b410e44ad093fb84ba06d74d5e2d549b0"
"https://github.com/opf/openproject.git","8259","23","[896f4e570ea96351b4a9f77aed3eaefb805c15dc, a3e854dcdabace1f70011f653d4d391c67ba2833, aba7cbae76089f45ed5c9f1b9228aa27205bec25, 7c6473b8eceeb6aec9bcfc5dff406718c8fa0852, 71d6c0d12c9a09123dd6450856e73d68e7aa44f8, 0fd3c645dbb34e23e3c2372ece6c78c5cdcba0f7, 6e753408358be486727757748b5f5c3edc923abe, 94c41db2f7c70c5eed15aa1b209dfababcca055b, 20054fd54b267a9f9ba3003da30df944360763ae, 17d2adb3a36c3af039eb51b46477349f3d2e5600, eca826ba9437958ba3ca84e648cb312cf5d190c1, 1d5819ba1cb664d1378df7ed43a1ead3783de52e, 084a038812389be358ee1f167ccb65cd34948ee5, 2494a40c77c1403d35577c4457e5a10201d77861, 35097cdd0536c1fc9e8b10e44111689df7bf2091, 6405febe2a6d235608373e0a49d621f40b4ae190, fe974fd7f5fd808aab65b11bdf1c6cd8d21e6423, 15dc5ef955c20efd2632d68822c5f1378fbb2a90, 24c48b7fb37fec285453e0342568fb1bf87d967c, ab60afd583d8ead6415d21c120a5b03fce6c72d3, 853aca2d5443399059fffea7b5fa25e701a1c623, ad50efc57db5ff89baadb2e603f64c42351b91c1, 7650f53e8a028363ca3f9606b9afa3727dd310bc]","16","1","896f4e570ea96351b4a9f77aed3eaefb805c15dc","9c9f800cee1995d3d8a21bb5adaaaba752953476","9b2b448bf6e37455b758c10829660cb11c1f5dc7"
"https://github.com/opf/openproject.git","8294","7","[dc944ffe5e275733276f287c4fd7c4c61f62e3e3, 0d4f023d88d05e9f267392843473f51bfb58e552, 96c88c87a5a8f7eb1659d4a26a3ec9c1aab97afb, 7130428ff3478860b537c05e8a985c89113a1dfa, 4705f22f3d1d52f2591c3d4c92189d61cd3f4540, 128a6fd336eaa0af1df0676f3649c295345fce8e, ca5c9faedef4b3b5b2d35b7b07a0de0e283b6e2d]","12","4","dc944ffe5e275733276f287c4fd7c4c61f62e3e3","4a936c3627b78df11f930a7d088b2d8539a58ca3","9a16e051f925a4ed249ccdf1a0233532ea0c1882"
"https://github.com/opf/openproject.git","8316","6","[1482eb058b3506812e396a5ffc5102c85e49f14c, f561794aa52b44927e41453e90bdb52d1066e58e, 8e0f9db59d1b34b83e433a79a3e6e969257ecb5e, 703128ff247e40060c05fa428b599a64db1d38df, 29e51c401e44a2b90a9475353b10504cf7948612, 03414845703fd20b87cf1b6eb929fb4105ab891c]","4","3","1482eb058b3506812e396a5ffc5102c85e49f14c","7066d8601327473a6257361665eab25dfb497018","6e2e0e742501b114045eee932c7988abb5aed4f9"
"https://github.com/opf/openproject.git","8318","1","[e3fb94dfd21d01a40f1722fa54bbb238166f7c60]","5","4","e3fb94dfd21d01a40f1722fa54bbb238166f7c60","6e2e0e742501b114045eee932c7988abb5aed4f9","0e8eaa46592fea188220d64083a78e96f7c15854"
"https://github.com/opf/openproject.git","8319","10","[8408bfc71a458abaf8e778241fb5eb6101467dff, 22372e41eb6a2b452176e3a4de0cbed17dc7dafa, 09976b709825e146fd593c98636b74337ec85491, 4ee10647cee845729e5d669a02c15c2b72b756c6, b88b80b98dfe3eeaf311d5b99399d93c818a6228, 0fc83e2232d6bf1e88c76b7687cb34b4542eb598, b8b22a19ce6439aaba2048f8395c2052818b84b6, 8cc680d64b7e853780d5653599290bd14e76c616, c43b98756c96c3ea0f646c784c691c599ba62b8e, bc47488f8e5f85e1bd792ccd4fdf9f1ad438f601]","12","4","8408bfc71a458abaf8e778241fb5eb6101467dff","358b1b7f6cbb4e4aa9454329a1ebfa3001cb365f","a5145a6c33ee77c6e1509296dd31d82725dabe3b"
"https://github.com/opf/openproject.git","8321","5","[ca28d92a9e8ff624cfa80615f606a53463dda623, 024cb06e1bd4f1153bf63e513fce6cf78aa16afe, fa86624d91663975c9cd935d0e88b2d56fbbdc14, b684eb5f0a0788686f44975e5a76480bfeaf6e69, 8c758ae7fa433c6e7738c5932874c98701fc8914]","8","1","ca28d92a9e8ff624cfa80615f606a53463dda623","a357e2b6ba517b938e3e0ac3692d4b9244c04d7f","3303fa9633ae412bfaa86864cc9691457ea94c82"
"https://github.com/opf/openproject.git","8323","11","[8de113ba1adb80b952d1758c512d34de0a15fc03, ae0ff087fa0dcf879b4c5dd8ded44ef2186e9613, ab8e36d446d2dc7312ef8c4df38184295da7b787, a1e57fbb3beaea6261e8919f10e956bb9108ef66, 9cc5bf4d388e94fac8df30f66a9720d497adf7fb, 99c52bfea2eec52a264707725c3005cb1fbcfdf9, 7c545ca592bb345af03b2e52e384edea4d1d26f8, 34e4dc7d1b366a461b3560d4e0b379264495e957, 51eed6f84300afa7d25eb67971b99d0ca0d03bcd, 32f117201889eccb4007a789a4e0acbccfa5f5ea, 9cd5a986b75fb049d83fe396211acde5761eafca]","5","4","8de113ba1adb80b952d1758c512d34de0a15fc03","0e8eaa46592fea188220d64083a78e96f7c15854","a5145a6c33ee77c6e1509296dd31d82725dabe3b"
"https://github.com/opf/openproject.git","8324","8","[eb098d672d2bd600cbee0accec90d4e463469e03, c57369a3866f89d53f762e519c169a5efcbc8f9b, b12e40c66bfdadb1ac5568c2ee88f3353d786a09, cd8859b16a655681e50bf8ef327f8517399a1924, 3ffbec5309353722b5d680dc28ded73ef066a788, a66ccfb0f2f78952eaf06faf244dba5d574bfed1, 4bddfe5263a38c963042ffa3e01c2732d42e44ce, 4102e3c45d65df06b06347bc0767239acfa8862e]","4","1","eb098d672d2bd600cbee0accec90d4e463469e03","87220d5cdb4bcc3c8ac0d968afcffff0a7345b6e","112da70a62197aecc3ce56aa77e63da1d9bdac85"
"https://github.com/opf/openproject.git","8328","2","[57e938360959b195a0e6ee0d66d0353910e9b9c1, f1e2794642d890aef72dc47fdd1705cc9392d9af]","1","1","57e938360959b195a0e6ee0d66d0353910e9b9c1","83d265077f5fab1b74030089a9a6cfbe72e93ece","cd6ac595199b9c3d33f56d351ea3895aa17507dd"
"https://github.com/opf/openproject.git","8331","6","[1be68719e1af0b973187a7039dd9fe34c2a628df, 77700f0906741c093e9b0ea35524ee81538928f4, b0d3243287a5b3694d46c79a9b2e92fc726272f5, e9d8c932cef1c2a5524e7580ae26f6bbb3840a77, 08480c1b52a491a2ab6a797a9f4fa4c4e9b56bd3, 84143823101f6f874213999d314dc088b810f5a8]","5","2","1be68719e1af0b973187a7039dd9fe34c2a628df","3e49aa36ad70f0f28e9c04d5dbfe5f0553d0d95e","7fa5b22a3bfe066148999516ae8c4fda5621c488"
"https://github.com/opf/openproject.git","8335","16","[582ee8b9fb22c83ab3ed375bd713a64e0f4d2bea, c26e1f6e83a2c76137a08807b950707079c97462, 69477d434c377bccc40882cee6f1cb7b219d8a5c, 595ed30186c4e12ffa0420eff7a943852ba041d4, ff5d65793164896bcc7b06d2848935cef4b273aa, 783303f82c03afb3c8324c833485f53516f44135, 9e11019ee121113c0314f5b0b97258b0c40c9076, 8e4933266a2cdd10697dcf071a2a6509a8c5c173, 686f1b9eb72cc7d3d5c6deff25b29f1eeeb66840, 012a030188151bbd02ba0273442c5f283836a872, d11c442aa09424989fa60e0ce7a51f70ae38781c, 1754eb9338141be32498e697f9fc50eb5eaf59cf, b722e4f838681e821a3b74552d60d5222f5660af, 8d6734a01a6581443c77efe01bc12214b44004a7, a6811b7d067699a403b630d535fd32304f0c886f, fbda734b595a7d7ee739b1c2b25c330db946ee33]","8","2","582ee8b9fb22c83ab3ed375bd713a64e0f4d2bea","f41d86fda604bb8d5d630c6a1351d1c2e8a8d957","7090cb5995a24cda82be42a218623854d1ebfb49"
"https://github.com/opf/openproject.git","8342","1","[7d1fff540a12d332ee64431104dfa855e7c96f48]","12","36","7d1fff540a12d332ee64431104dfa855e7c96f48","2aa1be78971f506226c9d2aea7203c3e27b08685","990794d1110758b11489e961cf98c7f5f31ef6aa"
"https://github.com/opf/openproject.git","8343","8","[e9b4a832d139050dda2044f64d8aff70cc74f7cc, fa0ad125174ecc28caa075aa178bc74deca7c7fd, 5a6839f3028ce8a48c38ffac9a8079d6c5b53ace, 5d14204ed9035f39d43980c5718b1513e96a5bbe, 38098eac5bb023820aba4efc1a22d0006c6e2bcb, 6681e59d0ae73eabf6cdd114af4e8448c0def77e, 48658490a9da41e6c4eee228665b619a8b4c59f4, c07e65e773418242171b3e0ebd68fd104e9488bb]","7","1","e9b4a832d139050dda2044f64d8aff70cc74f7cc","17cfaebc8e9e78f4aca08fc8230cf79154150c17","e47e88bf466c78801a101f4125db2c5ef4f237ef"
"https://github.com/opf/openproject.git","8351","2","[86a1c5aec5665b459d4fddcdd8641349f7346a37, a2752d872a6daca041e2eae000c25997a9da7b38]","1","1","86a1c5aec5665b459d4fddcdd8641349f7346a37","7fa5b22a3bfe066148999516ae8c4fda5621c488","1841d26208115722b73b8c808279ee5157d76a07"
"https://github.com/opf/openproject.git","8356","2","[cca054ebbe48713b0b70b9c9c631286365f25bf5, 275aa7d033fcd5dd4f1b43364a9c104d0683b4d6]","7","12","cca054ebbe48713b0b70b9c9c631286365f25bf5","0f0316cfc6fd3daaebb91eab25096fb32c4f186d","38e939f811f1f616f4b04258289df3e3c5463d82"
"https://github.com/opf/openproject.git","8360","2","[3dd32b7a6e76e7a33a7ae4938a01186fa4c67355, 75cb2d1cf21b21b667801300c3a214a5e4855666]","1","1","3dd32b7a6e76e7a33a7ae4938a01186fa4c67355","c34f979132bc34b8e5240470851e658997583854","2937051c6d4258cc5c95a6685f329610441e9259"
"https://github.com/opf/openproject.git","8366","34","[95b5c79e9b30412dffe66bcfcf92c26d0abce274, a730bbfcd225bdd41c5129c2fb106bf4476ad239, ec032025277c4a433d7cb70fada467dd94576753, 48186dcdf89e5195d6fc53f797037c84b3ad15aa, 65c09b3c2a33c6e092ad27bd656615c0761b1368, e111759c31e46a24ff5cae121378da9de4838da4, 3b7dfb15528592c53fe5166688b2baeac030913e, dcb694f7656faca8be1b00193d831f709670615c, 3b011dab78ffffe26b4c8d192b4957091f783f05, c5f40d84c485cc91467976de0df1fecfc630964c, 0def3223c4359c5101fdc0eff8b9d14bfff1f813, f24e88878ed11b8933a84c39cc77aa20256e95d7, a8a7e0b2b2669948fad1df989c00832765355462, 87b99d02e7a04da6b178169a7a74033615660cd5, 7120f0be35b5ef3b7e7500217e37be2285ea4d8b, 980ef16b31016938db6cc06323b5cb28dbbbb4df, 90fcf47c14efe10ad65a5026ac048c0b5bef7552, 520d5553ba50969058879603aa42bb07c4f2d955, 5c4d3e924013b9d4a17e2378dd6412678e39feaf, 98e94f892f3969a6f2a6c2ce0abe905cbf0bbee0, 5a03ad9bbac52039bb3fa84924b88cd054e256ab, e7661e7f8025316c3e5a8cc94ce373572a729e8c, e2fa0684d159f4090e7f6fb7e012e8f9b2e5c558, f786a37b4cbf1a69f970eef2554cea53ec288e63, 8fea1a93bb062d6385cddbb7698c5f2e440691c2, cd7b2c4228cffbf47d8ebf0c850a8989c4a88678, fb8458118953059fda75ef7658bef43756d2d11c, 116b5628fac5b99783f77b19b78c5ccfc4f1ea7a, bb85b6bfb0f692e0d866914160dfb3fcc62382ed, 0c9539fbf3ad18c5978c8086667ec19939a17b89, 59b6bfcb500382b1c76ae5e99f0bb0aa2bb235e3, d116c1cdb15e36cfbafa526ca31cbba8e6acc29c, ce51a4aa5f0cb8b00f4b814c94a1dfe52c9e1133, 878cba65133b5ed9b39b0624ef6aeff1ae8b8120]","21","12","95b5c79e9b30412dffe66bcfcf92c26d0abce274","f36ab9628762f08ac5db64c4eeeae89200b8880d","80eecbdd517efbaefd87159d0070bd52513fb2ac"
"https://github.com/opf/openproject.git","8369","2","[2dcdf9c7ea3970db31439784376c3b26d93664e7, ee6c9f792ea279d97277d056ea7794f74b3c7c79]","6","11","2dcdf9c7ea3970db31439784376c3b26d93664e7","f8f33d1dab57c23ae89e4f8a0861adeab020f263","6eb1665c48f2701bf1abac1b0897dff7c0417d04"
"https://github.com/opf/openproject.git","8374","9","[8db791cab279e7752765a06fdb8f865ceb5a5d02, 5d8bd8001e94af5d35aac938ba1363dd6d322e32, ce99ea4b8f7f1502a1da088bd3a49a073a0da0de, 0d6f9db9994f9b95046d8caad29d9cd9d9da99a0, d84b469ff547ee2e961ee54104f49184209ee9c4, 26477251f0ab4abcef8fec0eb82a3990133f1b70, 0db4c95028c0617337b7a6c7d0d62f81837fef57, 2d3e2d2c22234e2b4c5e25a290204843f2e03125, bacf5069a80f8ad78801883f8743448ad0d021dd]","30","11","8db791cab279e7752765a06fdb8f865ceb5a5d02","b2696f223c9fb394b9810ac0005c04249327bea4","16f77c6fc6683fb487b0a7bb2960704b638ec292"
"https://github.com/opf/openproject.git","8375","11","[16f77c6fc6683fb487b0a7bb2960704b638ec292, df07412df363db15a665c4d17b57702e9c09e208, 2d4f8c15b3c6ef348ed5b09310cb71b3e5a6ff71, 4a633c1743a09523d27ec8c5e4654d464f888235, a3b01240914027944e6c849227971882b0de675c, 54f38ea623e9dd37c74f294b2692b242dad383a7, e8f846019d68cf91bbc60814d929dd6e4a2bded1, ec12936bee720434994ce3e0def1816ca907bee4, 42e8e74ffa27367d885b07c608bc3e81d92ac7f7, a1bc9531eaaeb05e4facc05d0e3e1549c2e3a71d, e0e204f493b4438233db9a4cf6b95ca25e7c5b81]","10","1","16f77c6fc6683fb487b0a7bb2960704b638ec292","d173ef3b306cc6ef4313f41def9a051995c1ee57","c5f0341a3ed8470099422927e7d3701a7b55cbcb"
