"REPO_URL","TASK_ID","#HASHES","HASHES","#PROD_FILES","#TEST_FILES","LAST"
"https://github.com/opf/openproject.git","1156","2","[2acb314363f3325fc64961edf5a124a28b8073d8, f9353b8a0cd2fbfcc01c241ed3e449fa4b3d2dde]","2","1","2acb314363f3325fc64961edf5a124a28b8073d8","ea4c1f50311e64aec80769ae804fb87582445a74","c7ae53d605d06c50df877904b518f3b6a63b8afc"
"https://github.com/opf/openproject.git","1267","2","[77d81c018158e43f54cb5e65bcd17d68d3d049b5, 90d8aaecaa7ee5dc1859e403b768bdf6e12b5566]","4","1","77d81c018158e43f54cb5e65bcd17d68d3d049b5","5aa5efdf3994b3caf5e675ba1ba6815cf5447a27","d42048764f00ceffdcfe8d545f79e4e0f4d87fb7"
"https://github.com/opf/openproject.git","1377","2","[6741cdb5406324fe543774a8bed687265001cea8, b2c782c2c5534b65d5c86bcde6b7c0d77afc3446]","5","1","6741cdb5406324fe543774a8bed687265001cea8","e0d7bc82d5778c56044efa25a3dde45310b409b8","ab504cfbf1f313edd2d3e2bf5d9ae51d73a4d0b2"
"https://github.com/opf/openproject.git","1468","29","[3b9d92fb1f92ac927dd36349b0367d1ebc91e8af, d1b3fb87532ec804df58cd3b45228d16e28dd6a2, 27c73d90a413e3a82e714b74f155646ce261032b, 8edf39e2753725abb5539bf0efe9cd2df4138993, e848ec21c498d1c578be80a85c6978c59f8e6160, d4d63e79c75e9a6f773ec0a1c6b9a247ae5d5d91, 34156060e5266328071689167bb5c13a975a411d, 16d19f68cde05844f984c93f950a4f827921cef5, d904bd6a9b7279e4231df7a421ed1cbb0062a903, c1722d3d72dc8823e0c8ef9048f972e7830b207b, ecc267fdebffdff5faba1cd965caf5bb8f41a362, b7c57031080ae2ef5fdaaf431441394d90bb530a, 7d72871a7bf2f9c3946c1710e474b9aaad0805f8, 95d3803864e7d28f062922d58da042e34a0c9345, 75749978e1647489d56549ef6de6f06d46b6b04b, 49ffba5a463368329c48af20e4300b912395e1e0, 81acf257dca32f6e02a3e24eade62753a7978252, 5c8d7fa688801bd395037cab9b82be41141fbd60, fa2905b8512a06cc64455fde081e491520e62d34, c523eb339f66521f16bff39dd88033cfa3aee9a6, abee0edfa51571d910a1cac99305c538aa4818f5, aa3e959f6d98ab084bc0ec42a9d9a7ed3d7af9ae, 36e690932e7382ad8c6f5ec4dbc9cf7350a93139, c47f487bb238a6c632dec7e66bdf1371eb6ca848, 01efd62ee8304b6683b76357496efdaa466f6c08, 1c3ea0a370abd5b59ea27819215c235a485a7bf6, 94a1ecd446b1de3e341fab046ceea6a51d1bd0ed, e5694d20283e11ba0138b8eb8c2b61a6bf184487, 2fd3ba53cbb6e4481301683a0b4d20f467b36f1c]","10","3","3b9d92fb1f92ac927dd36349b0367d1ebc91e8af","bc4c4a1f64cf95a9737acba3a0df2b2e11cb4067","5535490cc23f4e4bc8f394de0f1109fe51ea7c53"
"https://github.com/opf/openproject.git","1543","6","[f6e325b533c7400b55fd6e46848e92b14a2ec966, e015ca555dd463ba50bce0aef460846a3e7614f4, d7fd3ab535a92af1c4f5f56bed5b2f3054b9c67a, a76cdd287e891a3d59d9f5dd0dc08b910f3f84ed, 4913cc01e220c46346357a40313c0239124c8ab1, fa71e2627a61625fbf5ae29dac55f430d8f2c002]","2","1","f6e325b533c7400b55fd6e46848e92b14a2ec966","21fbd2ae21c30bb2caf221f2ea8f5fa87bdf5592","363f263257c9b4af0b77050c8927f72970a62da6"
"https://github.com/opf/openproject.git","1726","2","[acc7567f8ad683cd9eb8418520c74425fe780f38, 6ef4211e77826c99cf48dcca1cd2615174cd8495]","1281","41","acc7567f8ad683cd9eb8418520c74425fe780f38","d756c2f7901cad17ba6cec32a1ef5e46e2645cbb","b6ba08f2845313c15ec15e6f7811cafb440462a1"
"https://github.com/opf/openproject.git","1767","21","[45e8b64db529001438db17fa6d429988baaa2a79, 960e7b30c64ae9f8b09ec4d16835cd44263fe423, 366fb79c940d4692414b0b56248ff6b1633334a4, 9ef157f13e57d5017819d3b7decda2734c7c7943, 5dadaca42f08ec1f41ad3bb224728c87c3ae4d11, baa7e99d1d012dc9f9fdb993c29052ecf1bab5e8, dd80b0d670d969cb9b7a169580b964866075e29d, 5370e146df8d2d3ff5301237fe1f69d7807928eb, d6bdf7edeb47ad09d22e56815a42bcc0f4695fe0, 0496edb9afca2ef5f54df3f7b8b2a2fe1bf2fc2b, ce4dad45a1c89f2e5022fcd289c24d8d9868e390, f5ab27373ea66c38d1a3c364f4be4d1ee0f1c577, ac76be14b1cf37f6dbb20424d76cc60f93e9d4bc, bd55b36da53f310b017bfda99118026a12f674c2, d9b647472c3ca4cc39f0dcf060f91aa664c8623a, c82338cbbea14b51abfdd20fd9d7f2e1082b4363, 46fdced4883072797d9a8cc51f013795ee253c74, 735515a37a05686027830fac98cc5c517a98f869, 177f4e89635aa356332c1065cdcd8cc913af9482, a0150fffa005cfa0719803f913c9554597595e9d, 665c0791b4670b1e485ee30318b87818f1da51af]","92","4","45e8b64db529001438db17fa6d429988baaa2a79","ecc75db6d6144f9a3ce41edbf2163e938111c59b","8945430cf9d20309cb81f3ab57fc5859d8b62431"
"https://github.com/opf/openproject.git","1792","2","[95c3b4ae0849cbaae4839cf38c3d505958666046, 5ea3713937024c3dfcf6511d82fe829dec46eac7]","3","1","95c3b4ae0849cbaae4839cf38c3d505958666046","028eb69fe2a55d1a3c2c8781b33525b0982a05b6","a1e05d4a919cd22f97458d7d838cf271c7cf85a9"
"https://github.com/opf/openproject.git","1817","85","[85a6522628d200618f344fa505bd0dcdedcfc1f7, 43e17f18eb1aa31c2d118ea3a1e77097f2561939, 11fddf9985c1874aa97f6ddf4e0216e5add1291e, 412100472322e4f50c5418ce600f03340d1be74a, 1f01b1ad5f50a91b046c9aae8b92512cc3359c63, 13c5b018518a023e00b5a637d0dc145c22625838, 891e8d46343ea202b18f6fc3361dfb7bdc17adfd, 253083f76604a4aa02d90df43901a56c4229f376, a8b2067f23ce27b217153a9eee448072cf9f5809, 75695aca3f3f4c257905447f86ae0f8602b58b4d, eb6d2662238d9987074562b1aabe9d93e05e4f39, 8476aaa8c4e071033b1b9b76e7221f895b00a5d5, 3717f6e0d340263e6d6a0efb164931d384dd26ea, d8ec874dc1359c4f364c6e1fb2ec57473094d0cb, 80c559c7e8bda7b8fc413bd4c0bf2ba06c886780, ee343e3e403032c203135726bc493ed59bc6237d, 0f9313dd26ca87ab795e1b33f29dc63b7653ffd6, b0d2eda3516d33a2d671b9b6935f448b087ed52a, 5bdaa68261787a8985d63de00639fe210e7bbb62, 8842558aac494201046884cbf767b17e82f9bb72, 5ae86d962446b357570d45ad348c419adeb7d6eb, 66f3c0b5b708071eaff1691967850f568ee95bd4, 503e3e09b4ac295c1a03e1f891349659402fd389, 970d80a8853eaf8f7191a186c142e5d0ac060345, 86b7636334f4e29649bb53eb98c3c1cc496048b0, d902e7d628da45ba6654b6aa1b7de8b573c72dd1, c61619b6ef09883c3bca83f53cc1ed0578920265, 67e8d7ceadf92d778fba64f87f34d1203f9a2648, b815d730af9cf225f79e74c13e424ea2778005cc, 403bf905e9c9d0b00a101e1d57800398a95c68ac, 8573b63b9e2b4b62459b8cc8c29c1a34c09b7254, 64c3256bd616bb9a8b43f3d8cac9b5d9c6c9690d, fd93d6c1f8477f1659e157f09631500ce7a0c209, 4e7ad6b39833029f3984271e53226a94b106877b, 83b43a5f6dcf51dfa29838ef07a39ec1f0722157, 768966bce0f305a1ef7911f7860ffb4750de66ef, 5ca61f666fef2ad8c46502369c2314ad9ea9ede5, e12554203ba44b468d6db928b192e59b1c0f859f, e1c4772c25718b2fa5ab57780a13b21ccb707fc7, dc0ca9edc0754720f5cc9d50d64ac65effee0da2, 9edc28e18cf9be29babfea24f6a96ecb96ee72ff, 2d450acc305ce80909d8605d41b46fdfaef6ec46, c1fd9e45524b88bf00620b1fbaeb18be3b298fcd, 897437d9b60300f013fd0330d72e30cc7dafbb08, 46a692cef8c6750e14e95138d81cc7b6be87b867, 1c066afc6d2e89d5e58f678b7039a231490e3361, 4e507e376072d4b64554a4fbba3adeb8dc8244e4, ac9406683f89b80a1b0e7725d84df3ce58cad9ea, 27beec07d96114cb9a8e844f4ce9dd6609a992dd, 2eca03a4cc1dedfdede0004b6bfb773a10a21bfc, ac73314016d6a07cc5ffcca481ec0335b040d73e, 3c24c573381b7a7c8cf026fa00aee3f252fb4cda, 3ab14c057d4ea3bb6f59aea26a1dac3def6ff98f, 071c911f450746a905f72febc97778239756bad0, 101f49d975536be719a319c141ade68d62a37419, 64429ed21eb0cffcccf7658cc2aa4c3db7a41fb5, 9dba9b61afdfe732b4431da666dc755e1939a225, fa49f6b2a5f7cb09ad488aaefc39ecf3e004ff5c, fb2c60fbcacf20a0b8be92a02ea57f24381299c7, 2407e8d44f662896091baaba53bf9d444ad001ab, c9690c9e5ff1fb83eea776464532cbba481483b3, b83e15a8fa84d9058a7b6098791ef9655b9f9ff4, 1d865b50ae6b61d993887337394dd2f2aa55a887, 68b19e47a23f4d582adbbb3d3dea007f8c6816bd, ce7a941c6f13351e8acc17dcd7833bc63e9b7597, c290432070d4544c93b748f0728b20f24db13a52, a7cea140fda278dd3cdd80052fddbe6401e42a15, ce3e5c6d25aff6722a9796af9e9db5e18b78f456, 7289211c5cc84666b02f9c78ee5da64ed9e9b15e, 932a07493404a32c8e6f825ae925e62d972b7660, b92df1045a78e1a406cff5534dd013f527e96085, dd6f9c0a4eaef4b25ab1b075fb7156aa41704295, 8735d13eb7fe323a577557373ed1b79635472402, 244f568649111ee43faf012b3d4baa01ef7a4150, 754dcde833292017a4acd26016758206780974a1, 9af8ed3b01c1f5bc7204c2831f84b15da9ce65b1, 4899b49f0442b613384b7245d2848413d4a724f8, 444cf2d6e7bafb3b9485fd056778c9be0a057a19, 1d779ea70788b8f0fe80a60d56b34570257c87c5, 22dffad38daa578c26ccd127107d7d7f31c75b40, f3f498baa125480bf508b1d4e584366325b4942a, b9ab0d6906883c768cbc395379340839c898e42a, 5f0a58a2c1f6ef74375f8827d7f1e73cf50d0503, 39f53d2a00726c7ca746c8fa2a44fff2ab3a013c, 2939edc9b0e635895d619846360a0fc9bf0171f6]","67","1","85a6522628d200618f344fa505bd0dcdedcfc1f7","c766c858b626d7dae9f6c771ee1791652b43e052","8575bc863208bfe944564f7212f7be9eb59036a5"
"https://github.com/opf/openproject.git","1852","5","[c7e916f9086997cafce3529bdfd3b983f7854a4b, 6830c46827cd1ad88a0bc8e183197da0215f52cc, a27bb5d85dff6ed5da1a31b2492be1f6eacfa089, fc8a993836adf0eaad2f1b967767c3c2a02fa96e, 005012b4ecc18784e4f1a5da29abe0106da8c86b]","10","2","c7e916f9086997cafce3529bdfd3b983f7854a4b","6c96dfa70b45d5994be0f6b9c73d1a51e3ef0693","6743c1f4222ecec6a0ffbda108ebbdb9dcd1f41a"
"https://github.com/opf/openproject.git","1921","9","[f405d68f73d22371640e8902461c681e07a62f4f, 48f85890879c1234105677613db4b581a7801780, 70da4c93e708c72e6f7c4109749feac8165d5692, 34a92da62b341452e17601a3a66bfe65fa03f9a3, cbb7fe754397a939a9166bd2981ab872e00e5b1c, a666acd15beb02befed7fe280cebd22623fc3ae8, 38f6bbcd1976e4ecf2a7318d08c3e89579a10a3b, 5a3f606207e5e495bdf665e73962f84743ef79eb, 02c66e01a274fe0c651a86f852442884032ceb8f]","4","1","f405d68f73d22371640e8902461c681e07a62f4f","9989ebda2085c2b98c396e8420aadad90691c84a","695a8cc3fd180fab6507b17f4eef1832cc47cce0"
