"Repository","https://github.com/sharetribe/sharetribe.git"
"TASK","HASH","RUBY","RAILS","COVERAGE","TESTS"
"2593","7fcb0b2f88be76fe651c980e34526ee63b9b7264","1.9.3","3.2.13","","features/dashboard/user_views_dashboard.feature(8)"
"2596","baf2363031e7b344d0388e4f0890728ea70b6316","1.9.3","3.2.13","","features/listings/user_edits_his_own_listing.feature(59)"
"2601","d325ff543b1d55f7d075c3dd053f4aca05964302","1.9.3","3.2.13","","features/infos/user_views_info_about_sharetribe.feature(7)"
"2608","ba1e2799e81481364aac4367e384c5d827d1d7f7","1.9.3","3.2.13","","features/invitations/user_invites_another_user.feature(33);features/people/user_views_profile_page.feature(39);features/people/user_views_profile_page.feature(61)"
"2615","e9bd40c1edef80cd1e376fe67cafc92d0f037706","1.9.3","3.2.13","","features/people/user_creates_a_new_account.feature(71)"
"2618","1ec2287f5a58663e77e31fba4e90b86a1352c869","1.9.3","3.2.13","","features/communities/user_sees_available_locales.feature(31);features/conversations/user_cancels_a_transaction.feature(30);features/organizations/payment.feature(66);features/organizations/payment.feature(87)"
"2628","0a0145d1c02e82f1b3c115aad84daf0bbc33822a","1.9.3","3.2.13","","features/organizations/user_joins_an_organization.feature(7);features/organizations/user_joins_an_organization.feature(43)"
"2636","348b3ee8405560ab09d10a4eeb563024383d97d5","1.9.3","3.2.12","","features/organizations/modify_or_add_organizations.feature(7);features/organizations/modify_or_add_organizations.feature(30);features/organizations/user_joins_an_organization.feature(7)"
"2652","771f935d354e914cd16dfbab35f3e5e958929f80","1.9.3","3.2.12","","features/conversations/user_accepts_a_transaction.feature(46);features/conversations/user_rejects_a_transaction.feature(30);features/organizations/payment.feature(7)"
"2655","1e5e58ba66d68f00cf7d5e1021ba92ebd090a184","1.9.3","3.2.12","","features/organizations/payment.feature(7)"
"2657","dab4f46c856f57ef5177cb5d2999d89c34481eec","1.9.3","3.2.12","","features/organizations/user_joins_an_organization.feature(39);features/organizations/user_joins_an_organization.feature(67)"
"2659","c3ae35f7788c44e4cc694d59b98b66876df572d1","1.9.3","3.2.12","","features/organizations/user_joins_an_organization.feature(7);features/organizations/user_joins_an_organization.feature(39);features/invitations/user_joins_invite_only_community.feature(7)"
"2671","f8d4d1197e0908000fac1e44d0c3771e0bfdd4fd","1.9.3","3.2.12","","features/listings/user_browses_listings.feature(7);features/listings/user_browses_listings.feature(71);features/listings/user_browses_listings.feature(135);features/listings/user_creates_a_new_listing.feature(85);features/ridesharing/user_browses_offered_rides.feature(7)"
"2674","bbe17edf1f3a8140aa258d56417c760ddbe1ffd8","1.9.3","3.2.11","","features/listings/user_creates_a_new_listing.feature(7);features/listings/user_creates_a_new_listing.feature(27);features/listings/user_creates_a_new_listing.feature(137)"
