"Repository","https://github.com/sharetribe/sharetribe.git"
"Tasks with empty IReal","0"
"Tasks with no-empty IReal","11"
"Tasks with relevant AST error","1"
"Tasks with AST error of Gherkin files","1"
"Tasks with AST error of StepDef files","0"
"Tasks with AST error of production files","0"
"Tasks with AST error of unit test files","0"
"Tasks with step match error","10"
"Tasks without required gems","0"
"Tasks with changed stepdef","7"
"Tasks with changed Gherkin","11"
"Tasks with implemented Gherkin scenarios","11"
"All invalid tasks","11"
"All valid tasks (Gherkin scenario, no empty IReal, no error)","0"
"Valid tasks, but empty ITest","0"
"Valid tasks, no empty ITest, but zero precision-recall","0"
"Valid tasks, no empty ITest, no zero precision-recall","0"
"Project","Task","Date","#Days","#Commits","Commit_Message","#Devs","#Gherkin_Tests","#Impl_Gherkin_Tests","#StepDef","#Impl_StepDef","Methods_Unknown_Type","#Step_Call","Step_Match_Errors","#Step_Match_Error","AST_Errors","#AST_Errors","Gherkin_AST_Errors","#Gherkin_AST_Errors","Steps_AST_Errors","#Steps_AST_Errors","Renamed_Files","Deleted_Files","NotFound_Views","#Views","#TestI","#TaskI","TestI","TaskI","Precision","Recall","Hashes","Timestamp","Rails","Gems","#Visit_Call","Lost_visit_call","#Views_ITest","#Code_View_Analysis","Code_View_Analysis","Has_Merge","F2","#Multiple_Step_Matches","Multiple_Step_Matches","#Generic_Step_Keyword","Generic_Step_Keyword"
"sharetribe","2993","[17-11-2010]","1","6","[Hidden link to badges page is displayed again. , Removed printlines from job file. , Badges active member, listing freak, enthusiast, commentator and jack of all trades thoroughly tested. , Some more tests for badges. , Added following badges: commentator, enthusiast, jack of all trades, listing freak. Tests for them not completely finished. , Active member -badge ready (minus tests). ]","1","5","4","12","12","[find, find, nil?, nil?, find, nil?, to_i, Factory, participants, id, times, to_i, Factory, participants, id, times, save, from_now, from_now, click_button, click_link, click_link, fill_in, page, have_content, has_content?, have_no_content, has_no_content?, within, listing, send_button]","17","[path:features/badges/user_views_badges.feature, size:1], [path:features/step_definitions/badge_steps.rb, size:2]","3","","0","","0","","0","","[]","[app/views/conversations/_author.html.haml, app/views/conversations/_listing.html.haml, app/views/homepage/_welcome_text.html.haml, app/views/listings/_author.html.haml, close_person_listing, edit_listing, listing, listing_image, new_listing, new_person_message_feedback, person_badges, skip_person_message_feedbacks]","12","58","18","[app/controllers/conversations_controller.rb, app/controllers/homepage_controller.rb, app/controllers/listings_controller.rb, app/controllers/people_controller.rb, app/controllers/sessions_controller.rb, app/models/conversation.rb, app/models/listing.rb, app/models/participation.rb, app/models/person.rb, app/models/testimonial.rb, app/views/common/_staples.haml, app/views/conversations/_additional_messages.haml, app/views/conversations/_additional_notifications.haml, app/views/conversations/_inbox_spacer.haml, app/views/conversations/_message.haml, app/views/conversations/_notification.haml, app/views/conversations/_received_conversation.haml, app/views/conversations/_sent_conversation.haml, app/views/conversations/_status.haml, app/views/conversations/_status_link.haml, app/views/conversations/index.haml, app/views/conversations/new.haml, app/views/conversations/notifications.haml, app/views/conversations/show.haml, app/views/homepage/_recent_listing.haml, app/views/homepage/index.haml, app/views/listings/_additional_listings.haml, app/views/listings/_comment.haml, app/views/listings/_comment_form.haml, app/views/listings/_edit_links.haml, app/views/listings/_help_texts.haml, app/views/listings/_left_panel_link.haml, app/views/listings/_listed_listing.haml, app/views/listings/_listed_listings.haml, app/views/listings/_listing_spacer.haml, app/views/listings/_reply_link.haml, app/views/listings/edit.haml, app/views/listings/form/_departure_time.haml, app/views/listings/form/_description.haml, app/views/listings/form/_destination.haml, app/views/listings/form/_form_content.haml, app/views/listings/form/_images.haml, app/views/listings/form/_javascripts.haml, app/views/listings/form/_origin.haml, app/views/listings/form/_send_button.haml, app/views/listings/form/_share_type.haml, app/views/listings/form/_tag_list.haml, app/views/listings/form/_title.haml, app/views/listings/form/_valid_until.haml, app/views/listings/form/_valid_until_radio_buttons.haml, app/views/listings/form/_visibility.haml, app/views/listings/index.haml, app/views/listings/new.haml, app/views/listings/show.haml, app/views/people/_help_texts.haml, app/views/people/new.haml, app/views/sessions/_password_forgotten.haml, app/views/sessions/new.haml]","[app/controllers/application_controller.rb, app/controllers/comments_controller.rb, app/controllers/conversations_controller.rb, app/controllers/people_controller.rb, app/jobs/comment_created_job.rb, app/jobs/listing_created_job.rb, app/jobs/page_loaded_job.rb, app/jobs/testimonial_given_job.rb, app/mailers/person_mailer.rb, app/models/badge.rb, app/models/comment.rb, app/models/person.rb, app/models/testimonial.rb, app/views/homepage/_recent_listing.haml, app/views/layouts/_profile_extras_header.haml, app/views/listings/_listed_listing.haml, app/views/people/show.haml, app/views/testimonials/_testimonial.haml]","0.1034482759","0.3333333333","[abb32b75bbf619bea1cf19d7555768b8c4902073, 72dc0247870b3d793c5736f5ff38ecf05618b705, 99dbdf6208947ebb678c3da522f26f7d5681acb3, d68787975d7186314a5cd59ef7408e3843b91959, 1a07888964ecbe309c661da5f1e2d3ca864143c1, 1d3c78b51a18dbe0c2ce9782af4bddcb42afdff9]","8.337 seconds","3.0.0","[cucumber-rails, rspec-rails, factory_girl]","5","[]","48","54","[app/controllers/conversations_controller.rb, app/controllers/homepage_controller.rb, app/controllers/listings_controller.rb, app/controllers/people_controller.rb, app/controllers/sessions_controller.rb, app/models/conversation.rb, app/views/common/_staples.haml, app/views/conversations/_additional_messages.haml, app/views/conversations/_additional_notifications.haml, app/views/conversations/_inbox_spacer.haml, app/views/conversations/_message.haml, app/views/conversations/_notification.haml, app/views/conversations/_received_conversation.haml, app/views/conversations/_sent_conversation.haml, app/views/conversations/_status.haml, app/views/conversations/_status_link.haml, app/views/conversations/index.haml, app/views/conversations/new.haml, app/views/conversations/notifications.haml, app/views/conversations/show.haml, app/views/homepage/_recent_listing.haml, app/views/homepage/index.haml, app/views/listings/_additional_listings.haml, app/views/listings/_comment.haml, app/views/listings/_comment_form.haml, app/views/listings/_edit_links.haml, app/views/listings/_help_texts.haml, app/views/listings/_left_panel_link.haml, app/views/listings/_listed_listing.haml, app/views/listings/_listed_listings.haml, app/views/listings/_listing_spacer.haml, app/views/listings/_reply_link.haml, app/views/listings/edit.haml, app/views/listings/form/_departure_time.haml, app/views/listings/form/_description.haml, app/views/listings/form/_destination.haml, app/views/listings/form/_form_content.haml, app/views/listings/form/_images.haml, app/views/listings/form/_javascripts.haml, app/views/listings/form/_origin.haml, app/views/listings/form/_send_button.haml, app/views/listings/form/_share_type.haml, app/views/listings/form/_tag_list.haml, app/views/listings/form/_title.haml, app/views/listings/form/_valid_until.haml, app/views/listings/form/_valid_until_radio_buttons.haml, app/views/listings/form/_visibility.haml, app/views/listings/index.haml, app/views/listings/new.haml, app/views/listings/show.haml, app/views/people/_help_texts.haml, app/views/people/new.haml, app/views/sessions/_password_forgotten.haml, app/views/sessions/new.haml]","false","0.2307692307942012","0","","0",""
"sharetribe","2997","[01-11-2010, 02-11-2010, 04-11-2010, 05-11-2010]","5","8","[Make also the tests check if APP_CONFIG.use_sms is true or false , cleanup deploy.rb and change the default branches where Kassi is deployed from. , make the rideshare matching be dependent on the APP_CONFIG.use_sms , methods for checking if two rideshare listings have origins and destinations in close distance. , more tests for sms ridesharing feature , Spec tests for sms ridesharing helper and controller classes. , Add index action to sessions_controller to avoid too many reported errors when bots try that URL. , Fix some errors and remove unnecessary files in merging left in the previous commit ]","1","6","4","4","4","[fill_in, click_button, set_given_name, raise, nil?, set_phone_number, hashes, get_test_person_and_session, cookie, update_attributes, each, id, from_now, click_link, page, have_content, has_content?, have_no_content, has_no_content?, within, send_button, listing, phone_number, and_return]","0","[path:features/ridesharing/driver_offers_a_ride.feature, size:1]","1","","0","","0","","0","","[]","[app/views/conversations/_author.html.haml, app/views/conversations/_listing.html.haml, app/views/homepage/_welcome_text.html.haml, app/views/listings/_author.html.haml, close_person_listing, edit_listing, listing, listing_image, new_listing, new_person_message_feedback, skip_person_message_feedbacks]","11","58","5","[app/controllers/conversations_controller.rb, app/controllers/homepage_controller.rb, app/controllers/listings_controller.rb, app/controllers/people_controller.rb, app/controllers/sessions_controller.rb, app/helpers/rest_helper.rb, app/helpers/sms_helper.rb, app/models/conversation.rb, app/models/listing.rb, app/models/person.rb, app/models/session.rb, app/views/common/_staples.haml, app/views/conversations/_additional_messages.haml, app/views/conversations/_inbox_spacer.haml, app/views/conversations/_message.haml, app/views/conversations/_notification.haml, app/views/conversations/_received_conversation.haml, app/views/conversations/_sent_conversation.haml, app/views/conversations/_status.haml, app/views/conversations/_status_link.haml, app/views/conversations/index.haml, app/views/conversations/new.haml, app/views/conversations/notifications.haml, app/views/conversations/show.haml, app/views/homepage/_recent_listing.haml, app/views/homepage/index.haml, app/views/listings/_additional_listings.haml, app/views/listings/_comment.haml, app/views/listings/_comment_form.haml, app/views/listings/_edit_links.haml, app/views/listings/_help_texts.haml, app/views/listings/_left_panel_link.haml, app/views/listings/_listed_listing.haml, app/views/listings/_listed_listings.haml, app/views/listings/_listing_spacer.haml, app/views/listings/_reply_link.haml, app/views/listings/edit.haml, app/views/listings/form/_departure_time.haml, app/views/listings/form/_description.haml, app/views/listings/form/_destination.haml, app/views/listings/form/_form_content.haml, app/views/listings/form/_images.haml, app/views/listings/form/_javascripts.haml, app/views/listings/form/_origin.haml, app/views/listings/form/_send_button.haml, app/views/listings/form/_share_type.haml, app/views/listings/form/_tag_list.haml, app/views/listings/form/_title.haml, app/views/listings/form/_valid_until.haml, app/views/listings/form/_valid_until_radio_buttons.haml, app/views/listings/form/_visibility.haml, app/views/listings/index.haml, app/views/listings/new.haml, app/views/listings/show.haml, app/views/people/_help_texts.haml, app/views/people/new.haml, app/views/sessions/_password_forgotten.haml, app/views/sessions/new.haml]","[app/controllers/sessions_controller.rb, app/controllers/sms_controller.rb, app/helpers/locations_helper.rb, app/helpers/sms_helper.rb, app/models/listing.rb]","0.0517241379","0.6","[b60e2a3e8e3561e373c9058fdeecdef103c0b752, 2688123563d30770704c71761d79ec7798dac3c4, 8cd987521c90008b0268cf3e68a20787400b983b, 953b3ba2c112aa97ddbe767942c8b55b414aa7fa, ae4486ce72715afa0b3c05a002256707a112bb14, fab6e85c0ed43d117eaa089734920d8ec5194982, af0d053880ae37254bb3b01749edff3a25284e5c, 412fdb48fc43407eba5bd49247601289382b704f]","2 minutes, 30.707 seconds","3.0.0","[cucumber-rails, rspec-rails, factory_girl]","4","[]","47","53","[app/controllers/conversations_controller.rb, app/controllers/homepage_controller.rb, app/controllers/listings_controller.rb, app/controllers/people_controller.rb, app/controllers/sessions_controller.rb, app/models/conversation.rb, app/views/common/_staples.haml, app/views/conversations/_additional_messages.haml, app/views/conversations/_inbox_spacer.haml, app/views/conversations/_message.haml, app/views/conversations/_notification.haml, app/views/conversations/_received_conversation.haml, app/views/conversations/_sent_conversation.haml, app/views/conversations/_status.haml, app/views/conversations/_status_link.haml, app/views/conversations/index.haml, app/views/conversations/new.haml, app/views/conversations/notifications.haml, app/views/conversations/show.haml, app/views/homepage/_recent_listing.haml, app/views/homepage/index.haml, app/views/listings/_additional_listings.haml, app/views/listings/_comment.haml, app/views/listings/_comment_form.haml, app/views/listings/_edit_links.haml, app/views/listings/_help_texts.haml, app/views/listings/_left_panel_link.haml, app/views/listings/_listed_listing.haml, app/views/listings/_listed_listings.haml, app/views/listings/_listing_spacer.haml, app/views/listings/_reply_link.haml, app/views/listings/edit.haml, app/views/listings/form/_departure_time.haml, app/views/listings/form/_description.haml, app/views/listings/form/_destination.haml, app/views/listings/form/_form_content.haml, app/views/listings/form/_images.haml, app/views/listings/form/_javascripts.haml, app/views/listings/form/_origin.haml, app/views/listings/form/_send_button.haml, app/views/listings/form/_share_type.haml, app/views/listings/form/_tag_list.haml, app/views/listings/form/_title.haml, app/views/listings/form/_valid_until.haml, app/views/listings/form/_valid_until_radio_buttons.haml, app/views/listings/form/_visibility.haml, app/views/listings/index.haml, app/views/listings/new.haml, app/views/listings/show.haml, app/views/people/_help_texts.haml, app/views/people/new.haml, app/views/sessions/_password_forgotten.haml, app/views/sessions/new.haml]","false","0.19230769222189353","0","","0",""
"sharetribe","2998","[29-10-2010, 02-11-2010, 03-11-2010, 05-11-2010]","8","7","[Mail and notification about new feedback finished and tested. , Emails and notifications about new feedback almost ready. , Include target id to testimonial_given_job parameters. , Feedback profile ready and tested. , Feedback profile ready, except description text and tests. , A template for person testimonials view. , Added pagination to notifications, started building feedback view. ]","1","6","3","1","1","[fill_in, click_button, hashes, get_test_person_and_session, cookie, update_attributes, each, id, from_now, find_by_person_id, click_button, click_link, uncheck, page, have_content, has_content?, have_no_content, has_no_content?, find_field, be_true, find_field, be_false, within]","0","[path:features/conversations/user_gives_feedback_from_transaction.feature, size:1], [path:features/people/user_views_profile_badges.feature, size:1]","2","","0","","0","","0","","[]","[person]","1","10","27","[app/controllers/people_controller.rb, app/controllers/sessions_controller.rb, app/models/conversation.rb, app/models/listing.rb, app/models/person.rb, app/models/testimonial.rb, app/views/people/_help_texts.haml, app/views/people/new.haml, app/views/sessions/_password_forgotten.haml, app/views/sessions/new.haml]","[app/controllers/conversations_controller.rb, app/controllers/people_controller.rb, app/controllers/testimonials_controller.rb, app/helpers/people_helper.rb, app/helpers/testimonials_helper.rb, app/jobs/testimonial_given_job.rb, app/mailers/person_mailer.rb, app/models/badge.rb, app/models/badge_notification.rb, app/models/person.rb, app/models/testimonial.rb, app/models/testimonial_notification.rb, app/views/conversations/_additional_notifications.haml, app/views/conversations/_notification.haml, app/views/conversations/notifications.haml, app/views/layouts/_logged_in_notifications_icon.haml, app/views/layouts/_profile_extras_header.haml, app/views/layouts/settings.haml, app/views/people/_help_texts.haml, app/views/people/_profile_feedback.haml, app/views/people/show.haml, app/views/person_mailer/new_testimonial.html.haml, app/views/testimonials/_additional_testimonials.haml, app/views/testimonials/_feedback_type_description.haml, app/views/testimonials/_testimonial.haml, app/views/testimonials/index.haml, app/views/testimonials/new.haml]","0.4","0.1481481481","[9625056dd6e5cfb2f7e4b6ded5fbe6cb284d7de5, 3f82795a03f54b109df5f19b64a2b692894f0e44, 4d3d3305cf5cb6dc2f36d330ca7c47ff1475f2ab, 8d813a63febc3bfbae0fd96274cd5911bc8af6ce, 69eaee71d7bd49b0ef2a6d9e1ad97e31d8d59e5d, 7eae17ff6273212e83ed7460ab9aa8538247d75a, b0040e7562edb97ed5b9abe62c40e1ee7a576210]","9.829 seconds","3.0.0","[cucumber-rails, rspec-rails, factory_girl]","2","[]","4","6","[app/controllers/people_controller.rb, app/controllers/sessions_controller.rb, app/views/people/_help_texts.haml, app/views/people/new.haml, app/views/sessions/_password_forgotten.haml, app/views/sessions/new.haml]","false","0.16949152537331227","0","","0",""
"sharetribe","3000","[01-10-2010, 08-10-2010, 11-10-2010, 14-10-2010, 15-10-2010, 19-10-2010, 26-10-2010, 27-10-2010, 28-10-2010, 29-10-2010]","29","34","[Fixed a bug in translation file. , Email about new badges, some specs for badge and notification functionality. , A separate page for badges. , User gets notifications from badges. , Began notification functionality. , News about AARREmarkkinat to front page , Added ""aarremarkkinat"" tag to show on the front page, added the word ""open"" to column titles on the front page, hid badges and other reputation information one more time. , Ignore hidden elements -setting commented out because it breaks current tests and does not work due to a bug. , Fixed more authorization bugs and a text display bug in sent inbox. , Admin can now edit all listings. Fixed a few authorization-related bugs. , More spam filtering to feedback, added sender email address to the notification mail sent to admins. , Badges first transaction and rookie are now ready. Badge descriptions can be viewed by clicking the badge in profile page. Added timestamps to badges. , Badge system improved, reputation information hidde [TOO_LONG]","2","14","12","6","6","[fill_in, click_button, pending, hashes, get_test_person_and_session, cookie, update_attributes, each, update_attribute, click_button, click_link, click_link, fill_in, page, have_content, has_content?, have_no_content, has_no_content?, page, have_no_content, has_no_content?, within, listing, send_button, id, from_now, id, find_by_person_id, pending, find]","0","[path:features/people/user_views_profile_badges.feature, size:1]","1","","0","","0","","0","","[]","[app/views/conversations/_author.html.haml, app/views/conversations/_listing.html.haml, app/views/homepage/_welcome_text.html.haml, app/views/listings/_author.html.haml, close_person_listing, edit_listing, listing, listing_image, new_listing, new_person_message_feedback, person_message, received_person_messages, skip_person_message_feedbacks]","13","57","50","[app/controllers/conversations_controller.rb, app/controllers/homepage_controller.rb, app/controllers/listings_controller.rb, app/controllers/people_controller.rb, app/controllers/sessions_controller.rb, app/models/conversation.rb, app/models/listing.rb, app/models/message.rb, app/models/person.rb, app/models/testimonial.rb, app/views/common/_staples.haml, app/views/conversations/_additional_messages.haml, app/views/conversations/_inbox_spacer.haml, app/views/conversations/_message.haml, app/views/conversations/_notification.haml, app/views/conversations/_received_conversation.haml, app/views/conversations/_sent_conversation.haml, app/views/conversations/_status.haml, app/views/conversations/_status_link.haml, app/views/conversations/index.haml, app/views/conversations/new.haml, app/views/conversations/notifications.haml, app/views/conversations/show.haml, app/views/homepage/_recent_listing.haml, app/views/homepage/index.haml, app/views/listings/_additional_listings.haml, app/views/listings/_comment.haml, app/views/listings/_comment_form.haml, app/views/listings/_edit_links.haml, app/views/listings/_help_texts.haml, app/views/listings/_left_panel_link.haml, app/views/listings/_listed_listing.haml, app/views/listings/_listed_listings.haml, app/views/listings/_listing_spacer.haml, app/views/listings/_reply_link.haml, app/views/listings/edit.haml, app/views/listings/form/_departure_time.haml, app/views/listings/form/_description.haml, app/views/listings/form/_destination.haml, app/views/listings/form/_form_content.haml, app/views/listings/form/_images.haml, app/views/listings/form/_javascripts.haml, app/views/listings/form/_origin.haml, app/views/listings/form/_send_button.haml, app/views/listings/form/_share_type.haml, app/views/listings/form/_tag_list.haml, app/views/listings/form/_title.haml, app/views/listings/form/_valid_until.haml, app/views/listings/form/_valid_until_radio_buttons.haml, app/views/listings/form/_visibility.haml, app/views/listings/index.haml, app/views/listings/new.haml, app/views/listings/show.haml, app/views/people/_help_texts.haml, app/views/people/new.haml, app/views/sessions/_password_forgotten.haml, app/views/sessions/new.haml]","[app/controllers/admin/feedbacks_controller.rb, app/controllers/application_controller.rb, app/controllers/badges_controller.rb, app/controllers/conversations_controller.rb, app/controllers/listings_controller.rb, app/controllers/people_controller.rb, app/controllers/sms_controller.rb, app/controllers/testimonials_controller.rb, app/helpers/application_helper.rb, app/helpers/people_helper.rb, app/helpers/sms_helper.rb, app/jobs/listing_created_job.rb, app/jobs/testimonial_given_job.rb, app/mailers/person_mailer.rb, app/models/badge.rb, app/models/badge_notification.rb, app/models/listing.rb, app/models/notification.rb, app/models/person.rb, app/models/person_connection.rb, app/models/testimonial.rb, app/views/badges/_badge.haml, app/views/badges/index.haml, app/views/conversations/_notification.haml, app/views/conversations/_received_conversation.haml, app/views/conversations/_sent_conversation.haml, app/views/conversations/notifications.haml, app/views/conversations/show.haml, app/views/homepage/_recent_listing.haml, app/views/homepage/index.haml, app/views/layouts/_logged_in.haml, app/views/layouts/_logged_in_notifications_icon.haml, app/views/layouts/_profile_extras_header.haml, app/views/layouts/admin.haml, app/views/layouts/application.haml, app/views/layouts/conversations.haml, app/views/listings/_listed_listing.haml, app/views/listings/_listed_listings.haml, app/views/listings/form/_form_content.haml, app/views/listings/show.haml, app/views/people/_badge_description.haml, app/views/people/_profile_badge.haml, app/views/people/_profile_feedback.haml, app/views/people/_profile_feedback_spacer.haml, app/views/people/new.haml, app/views/people/show.haml, app/views/person_mailer/new_badge.html.haml, app/views/person_mailer/new_feedback.html.haml, app/views/search/show.haml, app/views/testimonials/new.haml]","0.3157894737","0.36","[16897917ec1029307926780e670fcb55cc1ecd56, 8cbecdf7cced38862ae5d83b95949d51f66f9e40, dde76889557acbcf272a3dc6c84dcb16b5f148ac, f5009abaaf4d8ccd9acacf8c3610915165759d9b, 97e1a5d9747bd5a7b1dc70c942825f40666ed024, 7c14f9940db09e87313cf3ffbd182990d97a816b, 245f0289c6b94d8c7f370180ecbad295551af0ff, a4d4d2ae88dec39f70ae00c50c9ea367628aa900, e928b8a626e09025e00fbac8bd2e132a0af5110d, 2ed21491fb5b4679d1e4c093ec54085b605b432a, 7dcba9ea0db81daad0077e453ecaf38271759e06, d9dd04a73291496aba3ec5871a8a6ccb731a5918, 94e6863708b3c953ab8ba2aea65c1b8d04a1419f, ee3de2ed851276496d04e018f68ff3e9c2d17d9c, 82685aec3a39ac9ef49bd0d88b7184ff296eadc9, 7d2f653cf82ee5167e0aa112c41e8aa1b1a4f8dc, e39401f1f810b442678884d2784a8833ee13ee95, bd16291929470b18f989c3a05742ce984d9ef566, 88279c7ceb3b31946ce58f9ec725db21e8687169, 69d4c1b9a25b9224910e0bde09f7f267ae093729, 3cc4d07570da43d47b9ba6f43ea2f8d5ebc68139, 47c4511cde4443c78f5bd0c37515224e0b84ab49, 51578490d4775b31ebd14984c4c32ef800809e10, 2ce521c7e006ce53ab0e2686ff9c36f0c7b2037e, 65461f308c33566b3005d3b577026fa536c84dc7, 94fe1c94fa635932f6f143af3e3365eff995e985, f47b0f5f1f29b698b5ac1e168a0c64e5f950fbaa, d0f9a543c97fa40e6d91ad21b745e5bf72ffe1a1, c64c843f2b220ee28270f94150e778305d245f66, 68823f5075a119a61fa63dead4d531f787373c1f, cdf3a073e3532a028d2982be97fd821a4d7ee4bc, 303dcb8d63955650b21bcf52a385fb7ef2505a84, 89aee96a604348a876a33251f4fe637438cb1b99, f7e7a7d7f1fac1324bdd9de339b3198a26f81723]","18.891 seconds","3.0.0","[cucumber-rails, rspec-rails, factory_girl]","9","[]","47","53","[app/controllers/conversations_controller.rb, app/controllers/homepage_controller.rb, app/controllers/listings_controller.rb, app/controllers/people_controller.rb, app/controllers/sessions_controller.rb, app/models/conversation.rb, app/views/common/_staples.haml, app/views/conversations/_additional_messages.haml, app/views/conversations/_inbox_spacer.haml, app/views/conversations/_message.haml, app/views/conversations/_notification.haml, app/views/conversations/_received_conversation.haml, app/views/conversations/_sent_conversation.haml, app/views/conversations/_status.haml, app/views/conversations/_status_link.haml, app/views/conversations/index.haml, app/views/conversations/new.haml, app/views/conversations/notifications.haml, app/views/conversations/show.haml, app/views/homepage/_recent_listing.haml, app/views/homepage/index.haml, app/views/listings/_additional_listings.haml, app/views/listings/_comment.haml, app/views/listings/_comment_form.haml, app/views/listings/_edit_links.haml, app/views/listings/_help_texts.haml, app/views/listings/_left_panel_link.haml, app/views/listings/_listed_listing.haml, app/views/listings/_listed_listings.haml, app/views/listings/_listing_spacer.haml, app/views/listings/_reply_link.haml, app/views/listings/edit.haml, app/views/listings/form/_departure_time.haml, app/views/listings/form/_description.haml, app/views/listings/form/_destination.haml, app/views/listings/form/_form_content.haml, app/views/listings/form/_images.haml, app/views/listings/form/_javascripts.haml, app/views/listings/form/_origin.haml, app/views/listings/form/_send_button.haml, app/views/listings/form/_share_type.haml, app/views/listings/form/_tag_list.haml, app/views/listings/form/_title.haml, app/views/listings/form/_valid_until.haml, app/views/listings/form/_valid_until_radio_buttons.haml, app/views/listings/form/_visibility.haml, app/views/listings/index.haml, app/views/listings/new.haml, app/views/listings/show.haml, app/views/people/_help_texts.haml, app/views/people/new.haml, app/views/sessions/_password_forgotten.haml, app/views/sessions/new.haml]","false","0.35019455253306636","0","","0",""
"sharetribe","3012","[08-09-2010, 09-09-2010]","2","2","[Tests for viewing only open listings in homepage and viewing both open and all listings in profile page. , User can select whether he sees all or only open listings in person's profile. ]","1","6","4","1","1","[fill_in, click_button, hashes, get_test_person_and_session, cookie, update_attributes, each, id, from_now, click_button, click_link, click_link, page, have_content, has_content?, have_no_content, has_no_content?, within, listing, send_button]","0","[path:features/homepage/user_views_homepage.feature, size:2]","2","","0","","0","","0","","[]","[app/views/conversations/_author.html.haml, app/views/conversations/_listing.html.haml, listing, new_person_message_feedback, skip_person_message_feedbacks]","5","24","5","[app/controllers/conversations_controller.rb, app/controllers/homepage_controller.rb, app/controllers/listings_controller.rb, app/controllers/sessions_controller.rb, app/models/conversation.rb, app/models/listing.rb, app/models/person.rb, app/views/common/_staples.haml, app/views/conversations/_additional_messages.haml, app/views/conversations/_inbox_spacer.haml, app/views/conversations/_message.haml, app/views/conversations/_received_conversation.haml, app/views/conversations/_sent_conversation.haml, app/views/conversations/_status.haml, app/views/conversations/_status_link.haml, app/views/conversations/index.haml, app/views/conversations/new.haml, app/views/conversations/show.haml, app/views/homepage/_recent_event.haml, app/views/homepage/_recent_listing.haml, app/views/homepage/index.haml, app/views/listings/new.haml, app/views/sessions/_password_forgotten.haml, app/views/sessions/new.haml]","[app/controllers/people_controller.rb, app/controllers/search_controller.rb, app/helpers/application_helper.rb, app/views/listings/_listed_listing.haml, app/views/people/_profile_listings.haml]","0.0","0.0","[df05038155dde95154af7df2bc6536077e5007e3, 3c371b646f4887bce813f2ffe40cf2aa65543df7]","2.813 seconds","3.0.0.","[cucumber-rails, rspec-rails, factory_girl]","2","[]","17","21","[app/controllers/conversations_controller.rb, app/controllers/homepage_controller.rb, app/controllers/listings_controller.rb, app/controllers/sessions_controller.rb, app/views/common/_staples.haml, app/views/conversations/_additional_messages.haml, app/views/conversations/_inbox_spacer.haml, app/views/conversations/_message.haml, app/views/conversations/_received_conversation.haml, app/views/conversations/_sent_conversation.haml, app/views/conversations/_status.haml, app/views/conversations/_status_link.haml, app/views/conversations/index.haml, app/views/conversations/new.haml, app/views/conversations/show.haml, app/views/homepage/_recent_event.haml, app/views/homepage/_recent_listing.haml, app/views/homepage/index.haml, app/views/listings/new.haml, app/views/sessions/_password_forgotten.haml, app/views/sessions/new.haml]","false","0.0","0","","0",""
"sharetribe","3023","[30-07-2010, 02-08-2010]","4","4","[Frontpage listing titles now link to listing page , add newrelic_rpm back to gemfile , Homepage now shows actual listings from the database , first feature tests for homepage ]","1","3","2","1","1","[be_valid, page, have_content, has_content?, within, field, send_button]","0","[path:features/homepage.feature, size:1]","1","","0","","0","","0","","[]","[listing, new_listing]","2","18","4","[app/controllers/homepage_controller.rb, app/controllers/listings_controller.rb, app/models/listing.rb, app/views/common/_staples.haml, app/views/homepage/_recent_event.haml, app/views/homepage/_recent_listing.haml, app/views/homepage/index.haml, app/views/listings/_help_texts.haml, app/views/listings/_listing_description.haml, app/views/listings/_listing_destination.haml, app/views/listings/_listing_form_content.haml, app/views/listings/_listing_images.haml, app/views/listings/_listing_origin.haml, app/views/listings/_listing_send_button.haml, app/views/listings/_listing_share_type.haml, app/views/listings/_listing_tag_list.haml, app/views/listings/_listing_title.haml, app/views/listings/new.haml]","[app/controllers/homepage_controller.rb, app/helpers/application_helper.rb, app/models/listing.rb, app/views/homepage/_recent_listing.haml]","0.1666666667","0.75","[d3efd473fff54cb6e1a311b05631ff3627aa685d, 30d118d7db8d1e3f71d05620cf582d8df79b62b5, 91a5cdbf8ea34fa82f1c1a39e7bbc419f1094144, 4338ae30980e1725fff0ae358edd8f27860c7b9e]","3 minutes, 34.349 seconds","3.0.0.4","[cucumber-rails, rspec-rails]","1","[]","15","17","[app/controllers/homepage_controller.rb, app/controllers/listings_controller.rb, app/views/common/_staples.haml, app/views/homepage/_recent_event.haml, app/views/homepage/_recent_listing.haml, app/views/homepage/index.haml, app/views/listings/_help_texts.haml, app/views/listings/_listing_description.haml, app/views/listings/_listing_destination.haml, app/views/listings/_listing_form_content.haml, app/views/listings/_listing_images.haml, app/views/listings/_listing_origin.haml, app/views/listings/_listing_send_button.haml, app/views/listings/_listing_share_type.haml, app/views/listings/_listing_tag_list.haml, app/views/listings/_listing_title.haml, app/views/listings/new.haml]","false","0.44117647063494814","0","","0",""
"sharetribe","3034","[26-07-2010]","1","1","[The category of a new listing can now changed by clicking the category icons on the top of the listing form. The form changes accordingly. ]","1","1","1","0","0","[fill_in, click_button, click_button, click_link, fill_in, page, have_content, has_content?, within, send_button item favor rideshare housing]","0","","0","[[path:features/user_views_new_listing_form.feature, msgs:[class gherkin.ParserException$CompositeParserException]]]","1","[{path=features/user_views_new_listing_form.feature, msgs=[class gherkin.ParserException$CompositeParserException]}]","1","","0","","[]","[app/views/listings/_help_tags.html.haml]","1","14","7","[app/controllers/homepage_controller.rb, app/controllers/listings_controller.rb, app/controllers/sessions_controller.rb, app/views/common/_staples.haml, app/views/homepage/_recent_event.haml, app/views/homepage/_recent_listing.haml, app/views/homepage/index.haml, app/views/listings/_listing_description.haml, app/views/listings/_listing_origin.haml, app/views/listings/_listing_send_button.haml, app/views/listings/_listing_title.haml, app/views/listings/new.haml, app/views/sessions/_password_forgotten.haml, app/views/sessions/new.haml]","[app/models/listing.rb, app/views/listings/_listing_description.haml, app/views/listings/_listing_origin.haml, app/views/listings/_listing_send_button.haml, app/views/listings/_listing_title.haml, app/views/listings/new.haml, app/views/listings/show.haml]","0.3571428571","0.7142857143","[5d565c1246d85fb3453ee420df8e562310b6e05e]","1 minutes, 18.430 seconds","3.0.0.4","[cucumber-rails, rspec-rails]","2","[]","11","14","[app/controllers/homepage_controller.rb, app/controllers/listings_controller.rb, app/controllers/sessions_controller.rb, app/views/common/_staples.haml, app/views/homepage/_recent_event.haml, app/views/homepage/_recent_listing.haml, app/views/homepage/index.haml, app/views/listings/_listing_description.haml, app/views/listings/_listing_origin.haml, app/views/listings/_listing_send_button.haml, app/views/listings/_listing_title.haml, app/views/listings/new.haml, app/views/sessions/_password_forgotten.haml, app/views/sessions/new.haml]","false","0.5952380952222223","0","","0",""
"sharetribe","3037","[23-07-2010]","1","4","[New listing form title is now validated using jquery. , Jquery functions are now called from proper places, front page listings use the same icons than the new listing page, listing input field max width limited to 100 characters, other small adjustments. , Finalized cucumber feature for trying to add a new request without logging in. , A bit prettier type select buttons for adding a new listing, fixed login and logout notifications, default text for search field with javascript. ]","1","3","2","0","0","[fill_in, click_button, click_button, click_link, page, have_content, has_content?, within]","0","[path:features/user_creates_a_new_request.feature, size:1]","1","","0","","0","","0","","[]","[new_listing]","1","8","10","[app/controllers/homepage_controller.rb, app/controllers/sessions_controller.rb, app/views/common/_staples.haml, app/views/homepage/_recent_event.haml, app/views/homepage/_recent_listing.haml, app/views/homepage/index.haml, app/views/sessions/_password_forgotten.haml, app/views/sessions/new.haml]","[app/controllers/homepage_controller.rb, app/controllers/sessions_controller.rb, app/views/homepage/_recent_listing.haml, app/views/homepage/index.haml, app/views/layouts/_logged_in.haml, app/views/layouts/_notifications.haml, app/views/layouts/application.haml, app/views/listings/new.haml, app/views/listings/temp.haml, app/views/sessions/new.haml]","0.625","0.5","[7466708e77ba4541e8c51aa6f8a05f2560ed5624, e26b02f222b1893b2925efe529e1b552c1481f01, 0b9933727d2b5613d7519842528fbc31eef9a123, a43be72aa54d65b135d1897bffce80b723f2373e]","1 minutes, 19.892 seconds","3.0.0.4","[cucumber-rails, rspec-rails]","2","[]","6","8","[app/controllers/homepage_controller.rb, app/controllers/sessions_controller.rb, app/views/common/_staples.haml, app/views/homepage/_recent_event.haml, app/views/homepage/_recent_listing.haml, app/views/homepage/index.haml, app/views/sessions/_password_forgotten.haml, app/views/sessions/new.haml]","false","0.5208333333333334","0","","0",""
"sharetribe","3040","[22-07-2010]","1","1","[Changed header tabs, added housing to create new listing icons. ]","1","2","1","0","0","[click_link, page, have_content, has_content?, within]","0","[path:features/user_creates_a_new_request.feature, size:1]","1","","0","","0","","0","","[]","[new_listing]","1","5","4","[app/controllers/homepage_controller.rb, app/views/common/_staples.haml, app/views/homepage/_recent_event.haml, app/views/homepage/_recent_listing.haml, app/views/homepage/index.haml]","[app/controllers/application_controller.rb, app/controllers/listings_controller.rb, app/views/layouts/application.haml, app/views/listings/new.haml]","0.0","0.0","[5555841d985d4d2909cd2fae9f3c2cdb46910502]","53.237 seconds","3.0.0.4","[cucumber-rails, rspec-rails]","1","[]","4","5","[app/controllers/homepage_controller.rb, app/views/common/_staples.haml, app/views/homepage/_recent_event.haml, app/views/homepage/_recent_listing.haml, app/views/homepage/index.haml]","false","0.0","0","","0",""
"sharetribe","3041","[22-07-2010]","1","1","[When a listing is created, a success notification is displayed. The notification can be closed by clicking ""x"" on it's right corner. ]","1","3","1","0","0","[fill_in, click_button, click_button, click_link, fill_in, page, have_content, has_content?, within]","0","[path:features/user_creates_a_new_request.feature, size:2]","2","","0","","0","","0","","[]","[new_listing]","1","8","4","[app/controllers/homepage_controller.rb, app/controllers/sessions_controller.rb, app/views/common/_staples.haml, app/views/homepage/_recent_event.haml, app/views/homepage/_recent_listing.haml, app/views/homepage/index.haml, app/views/sessions/_password_forgotten.haml, app/views/sessions/new.haml]","[app/controllers/listings_controller.rb, app/models/listing.rb, app/views/layouts/_notifications.haml, app/views/layouts/application.haml]","0.0","0.0","[32f819551fd39fe916f5155cc4847f014f7e4cf8]","42.731 seconds","3.0.0.4","[cucumber-rails, rspec-rails]","2","[]","6","8","[app/controllers/homepage_controller.rb, app/controllers/sessions_controller.rb, app/views/common/_staples.haml, app/views/homepage/_recent_event.haml, app/views/homepage/_recent_listing.haml, app/views/homepage/index.haml, app/views/sessions/_password_forgotten.haml, app/views/sessions/new.haml]","false","0.0","0","","0",""
"sharetribe","3043","[21-07-2010]","1","1","[Basic functionality for creating a new listing, with cucumber ""happy"" scenario and spec for listing model. ]","1","10","1","1","1","[fill_in, click_button, click_button, click_link, fill_in, page, have_content, has_content?, within]","0","[path:features/listing/user_creates_a_new_offer.feature, size:1], [path:features/user_creates_a_new_request.feature, size:1]","2","","0","","0","","0","","[]","[new_listing]","1","8","8","[app/controllers/homepage_controller.rb, app/controllers/sessions_controller.rb, app/views/common/_staples.haml, app/views/homepage/_recent_event.haml, app/views/homepage/_recent_listing.haml, app/views/homepage/index.haml, app/views/sessions/_password_forgotten.haml, app/views/sessions/new.haml]","[app/controllers/application_controller.rb, app/controllers/homepage_controller.rb, app/controllers/listings_controller.rb, app/models/listing.rb, app/models/person.rb, app/views/listings/new.haml, app/views/listings/show.haml, app/views/listings/temp.haml]","0.125","0.125","[df5f6e493e2229186c52a171ff924f947b983f46]","15.035 seconds","3.0.0.4","[cucumber-rails, rspec-rails]","2","[]","6","8","[app/controllers/homepage_controller.rb, app/controllers/sessions_controller.rb, app/views/common/_staples.haml, app/views/homepage/_recent_event.haml, app/views/homepage/_recent_listing.haml, app/views/homepage/index.haml, app/views/sessions/_password_forgotten.haml, app/views/sessions/new.haml]","false","0.125","0","","0",""
