"Repository","https://github.com/alphagov/whitehall.git"
"Precision mean (RT)","0.14840485602173914"
"Precision median (RT)","0.0"
"Precision standard deviation (RT)","0.25486602981019685"
"Recall mean (RT)","0.3526570048304348"
"Recall median (RT)","0.0"
"Recall standard deviation (RT)","0.44115216702503873"
"F2 mean (RT)","0.22685136689480173"
"F2 median (RT)","0.0"
"F2 standard deviation (RT)","0.31850247672586035"
"Correlation #Test-Precision","0.0"
"Correlation #Test-Recall","0.02"
"Task","Dates","#Devs","#Commits","Hashes","#Gherkin_Tests","#Sted_defs","#TestI","#TaskI","TestI","TaskI","Precision","Recall","Rails","#visit_call","Lost_visit_call","#Views_TestI","#Code_View_Analysis","Code_View_Analysis","Methods_Unknown_Type","Renamed_Files","Deleted_Files","NotFound_Views","#NotFound_Views","Timestamp","Has_Merge","#FP","#FN","FP","FN","#Hits","Hits","f2"
"4283","[14-06-2012]","2","5","[83c180e9f25d4aca3eb747b4c23a48c07c2b6e52, 7edd9e3b0f6f2840e31699183b52d694d9c4c74c, bf4f7ad174a71673fa76e7825f81716cda23d433, 36880a308f5c6f58189f1e1dfc5d560c6f5c26f8, 3b525bbaffaafc364d2be94023f56b1787f49452]","13","30","15","9","[app/controllers/admin/consultations_controller.rb, app/controllers/admin/editions_controller.rb, app/controllers/admin/international_priorities_controller.rb, app/controllers/admin/news_articles_controller.rb, app/controllers/admin/organisations_controller.rb, app/controllers/admin/people_controller.rb, app/controllers/admin/policies_controller.rb, app/controllers/admin/publications_controller.rb, app/controllers/admin/specialist_guides_controller.rb, app/controllers/admin/speeches_controller.rb, app/controllers/admin/topics_controller.rb, app/controllers/organisations_controller.rb, app/controllers/people_controller.rb, app/controllers/policies_controller.rb, app/controllers/topics_controller.rb]","[app/controllers/admin/editions_controller.rb, app/controllers/admin/organisations_controller.rb, app/controllers/admin/topics_controller.rb, app/controllers/consultation_responses_controller.rb, app/controllers/consultations_controller.rb, app/controllers/publications_controller.rb, app/controllers/site_controller.rb, app/controllers/speeches_controller.rb, app/controllers/topics_controller.rb]","0.2666666667","0.4444444444","3.1.3","22","[]","0","58","[app/controllers/admin/consultations_controller.rb, app/controllers/admin/editions_controller.rb, app/controllers/admin/international_priorities_controller.rb, app/controllers/admin/news_articles_controller.rb, app/controllers/admin/organisations_controller.rb, app/controllers/admin/people_controller.rb, app/controllers/admin/policies_controller.rb, app/controllers/admin/publications_controller.rb, app/controllers/admin/specialist_guides_controller.rb, app/controllers/admin/speeches_controller.rb, app/controllers/admin/topics_controller.rb, app/controllers/organisations_controller.rb, app/controllers/people_controller.rb, app/controllers/policies_controller.rb, app/controllers/topics_controller.rb, app/helpers/admin/edition_routes_helper.rb, app/helpers/public_document_routes_helper.rb, app/models/edition/featurable.rb, app/models/topic.rb, app/views/admin/consultations/_edition.html.erb, app/views/admin/consultations/_form.html.erb, app/views/admin/editions/index.html.erb, app/views/admin/international_priorities/_form.html.erb, app/views/admin/news_articles/_form.html.erb, app/views/admin/policies/_form.html.erb, app/views/admin/publications/_edition.html.erb, app/views/admin/publications/_form.html.erb, app/views/admin/specialist_guides/_form.html.erb, app/views/admin/speeches/_form.html.erb, app/views/admin/topics/_form.html.erb, app/views/admin/topics/edit.html.erb, app/views/admin/topics/index.html.erb, app/views/admin/topics/new.html.erb, app/views/documents/_attachment_meta.html.erb, app/views/documents/_attachments.html.erb, app/views/documents/_policies.html.erb, app/views/documents/_recently_changed_documents.html.erb, app/views/documents/_topics.html.erb, app/views/organisations/_beta_warning.html.erb, app/views/organisations/_header.html.erb, app/views/organisations/_navigation.html.erb, app/views/organisations/_sidebar.html.erb, app/views/organisations/_social_media_accounts.html.erb, app/views/organisations/management_team.html.erb, app/views/organisations/ministers.html.erb, app/views/organisations/show.html.erb, app/views/people/show.html.erb, app/views/policies/_grouped_list.html.erb, app/views/policies/_list.html.erb, app/views/policies/index.html.erb, app/views/shared/_hero_rotator.html.erb, app/views/shared/_recently_updated.html.erb, app/views/topics/_exemplars.html.erb, app/views/topics/_grouped_list.html.erb, app/views/topics/_list.html.erb, app/views/topics/_related_topics.html.erb, app/views/topics/index.html.erb, app/views/topics/show.html.erb]","[create, create_topic, build, update_attributes!, create_topic, click_link, fill_in, click_button, rows, each_with_index, record_css_selector, check, within, click_link, page, has_css?, record_css_selector, click_button, find, all, text, diff!, records_from_elements, all?, select, description, merge, has_css?, find_by_title, find_by_title!, gsub, find_by_title]","","[app/controllers/admin/policy_topics_controller.rb, app/controllers/policy_topics_controller.rb, app/helpers/admin/policy_topics_helper.rb, app/models/edition/policy_topics.rb, app/models/organisation_policy_topic.rb, app/models/policy_topic.rb, app/models/policy_topic_membership.rb, app/models/policy_topic_relation.rb, app/views/admin/editions/_policy_topic_fields.html.erb, app/views/admin/policy_topics/_form.html.erb, app/views/admin/policy_topics/edit.html.erb, app/views/admin/policy_topics/index.html.erb, app/views/admin/policy_topics/new.html.erb, app/views/documents/_policy_topics.html.erb, app/views/policy_topics/_exemplars.html.erb, app/views/policy_topics/_grouped_list.html.erb, app/views/policy_topics/_list.html.erb, app/views/policy_topics/_related_policy_topics.html.erb, app/views/policy_topics/index.html.erb, app/views/policy_topics/show.html.erb]","[app/views/admin/consultations/_attachment_fields.html.erb, app/views/admin/consultations/_authors.html.erb, app/views/admin/consultations/_minister_fields.html.erb, app/views/admin/consultations/_nation_fields.html.erb, app/views/admin/consultations/_organisation_fields.html.erb, app/views/admin/consultations/_related_policy_fields.html.erb, app/views/admin/consultations/_standard_elements.html.erb, app/views/admin/international_priorities/_country_fields.html.erb, app/views/admin/international_priorities/_organisation_fields.html.erb, app/views/admin/news_articles/_country_fields.html.erb, app/views/admin/news_articles/_first_published_at.html.erb, app/views/admin/news_articles/_minister_fields.html.erb, app/views/admin/news_articles/_organisation_fields.html.erb, app/views/admin/news_articles/_related_policy_fields.html.erb, app/views/admin/policies/_country_fields.html.erb, app/views/admin/policies/_minister_fields.html.erb, app/views/admin/policies/_nation_fields.html.erb, app/views/admin/policies/_organisation_fields.html.erb, app/views/admin/policies/_topic_fields.html.erb, app/views/admin/publications/_attachment_fields.html.erb, app/views/admin/publications/_authors.html.erb, app/views/admin/publications/_country_fields.html.erb, app/views/admin/publications/_minister_fields.html.erb, app/views/admin/publications/_nation_fields.html.erb, app/views/admin/publications/_organisation_fields.html.erb, app/views/admin/publications/_related_policy_fields.html.erb, app/views/admin/publications/_standard_elements.html.erb, app/views/admin/specialist_guides/_organisation_fields.html.erb, app/views/admin/specialist_guides/_related_policy_fields.html.erb, app/views/admin/speeches/_country_fields.html.erb, app/views/admin/speeches/_first_published_at.html.erb, app/views/admin/speeches/_related_policy_fields.html.erb]","32","3.667 seconds","false","11","5","[app/controllers/admin/consultations_controller.rb, app/controllers/admin/international_priorities_controller.rb, app/controllers/admin/news_articles_controller.rb, app/controllers/admin/people_controller.rb, app/controllers/admin/policies_controller.rb, app/controllers/admin/publications_controller.rb, app/controllers/admin/specialist_guides_controller.rb, app/controllers/admin/speeches_controller.rb, app/controllers/organisations_controller.rb, app/controllers/people_controller.rb, app/controllers/policies_controller.rb]","[app/controllers/consultation_responses_controller.rb, app/controllers/consultations_controller.rb, app/controllers/publications_controller.rb, app/controllers/site_controller.rb, app/controllers/speeches_controller.rb]","4","[app/controllers/admin/editions_controller.rb, app/controllers/admin/organisations_controller.rb, app/controllers/admin/topics_controller.rb, app/controllers/topics_controller.rb]","0.3921568627318339"
"4379","[01-06-2012]","1","2","[6369f92d213825a55abd19b2fa3ccc334687b13f, 4b95b22a9af1c753a01cc2bf102c3791897361ed]","3","5","7","1","[app/controllers/admin/consultations_controller.rb, app/controllers/admin/editions_controller.rb, app/controllers/admin/international_priorities_controller.rb, app/controllers/admin/news_articles_controller.rb, app/controllers/admin/policies_controller.rb, app/controllers/admin/publications_controller.rb, app/controllers/admin/speeches_controller.rb]","[app/controllers/admin/editions_controller.rb]","0.1428571429","1.0","3.1.3","6","[]","0","20","[app/controllers/admin/consultations_controller.rb, app/controllers/admin/editions_controller.rb, app/controllers/admin/international_priorities_controller.rb, app/controllers/admin/news_articles_controller.rb, app/controllers/admin/policies_controller.rb, app/controllers/admin/publications_controller.rb, app/controllers/admin/speeches_controller.rb, app/helpers/admin/edition_routes_helper.rb, app/helpers/public_document_routes_helper.rb, app/views/admin/consultations/_edition.html.erb, app/views/admin/consultations/_form.html.erb, app/views/admin/editions/index.html.erb, app/views/admin/international_priorities/_form.html.erb, app/views/admin/news_articles/_form.html.erb, app/views/admin/policies/_form.html.erb, app/views/admin/publications/_edition.html.erb, app/views/admin/publications/_form.html.erb, app/views/admin/speeches/_form.html.erb, app/views/documents/_attachment_meta.html.erb, app/views/documents/_attachments.html.erb]","[create, begin_drafting_document, fill_in, attach_file, within, check, select, click_button, select_date, click_link, record_css_selector, has_css?, refute, gsub, click_link, page, merge, click_link, create, fill_in, click_button, within]","","[]","[app/views/admin/consultations/_attachment_fields.html.erb, app/views/admin/consultations/_authors.html.erb, app/views/admin/consultations/_minister_fields.html.erb, app/views/admin/consultations/_nation_fields.html.erb, app/views/admin/consultations/_organisation_fields.html.erb, app/views/admin/consultations/_related_policy_fields.html.erb, app/views/admin/consultations/_standard_elements.html.erb, app/views/admin/international_priorities/_country_fields.html.erb, app/views/admin/international_priorities/_organisation_fields.html.erb, app/views/admin/news_articles/_country_fields.html.erb, app/views/admin/news_articles/_first_published_at.html.erb, app/views/admin/news_articles/_minister_fields.html.erb, app/views/admin/news_articles/_organisation_fields.html.erb, app/views/admin/news_articles/_related_policy_fields.html.erb, app/views/admin/policies/_country_fields.html.erb, app/views/admin/policies/_minister_fields.html.erb, app/views/admin/policies/_nation_fields.html.erb, app/views/admin/policies/_organisation_fields.html.erb, app/views/admin/policies/_policy_topic_fields.html.erb, app/views/admin/publications/_attachment_fields.html.erb, app/views/admin/publications/_authors.html.erb, app/views/admin/publications/_country_fields.html.erb, app/views/admin/publications/_minister_fields.html.erb, app/views/admin/publications/_nation_fields.html.erb, app/views/admin/publications/_organisation_fields.html.erb, app/views/admin/publications/_related_policy_fields.html.erb, app/views/admin/publications/_standard_elements.html.erb, app/views/admin/speeches/_country_fields.html.erb, app/views/admin/speeches/_first_published_at.html.erb, app/views/admin/speeches/_related_policy_fields.html.erb]","30","3.604 seconds","false","6","0","[app/controllers/admin/consultations_controller.rb, app/controllers/admin/international_priorities_controller.rb, app/controllers/admin/news_articles_controller.rb, app/controllers/admin/policies_controller.rb, app/controllers/admin/publications_controller.rb, app/controllers/admin/speeches_controller.rb]","[]","1","[app/controllers/admin/editions_controller.rb]","0.4545454546322314"
"4240","[20-06-2012]","1","4","[ade76f693f401143746eaffa84f593ffee4fef73, 19bcdc3303d5bfeb4c46ac8bd586315cbf695f39, 4b73e8bbf8156cd85e5076f7100ad13ed07b02c2, 319bba3572a76b88a751d14bbc56aabc9b56d913]","2","1","4","2","[app/controllers/admin/organisations_controller.rb, app/controllers/admin/topics_controller.rb, app/controllers/organisations_controller.rb, app/controllers/topics_controller.rb]","[app/controllers/publications_controller.rb, app/controllers/topics_controller.rb]","0.25","0.5","3.1.3","1","[]","0","22","[app/controllers/admin/organisations_controller.rb, app/controllers/admin/topics_controller.rb, app/controllers/organisations_controller.rb, app/controllers/topics_controller.rb, app/helpers/public_document_routes_helper.rb, app/views/documents/_policies.html.erb, app/views/documents/_recently_changed_documents.html.erb, app/views/documents/_specialist_guides.html.erb, app/views/documents/_topics.html.erb, app/views/organisations/_beta_warning.html.erb, app/views/organisations/_header.html.erb, app/views/organisations/_navigation.html.erb, app/views/organisations/_sidebar.html.erb, app/views/organisations/_social_media_accounts.html.erb, app/views/organisations/management_team.html.erb, app/views/organisations/ministers.html.erb, app/views/organisations/show.html.erb, app/views/shared/_hero_rotator.html.erb, app/views/shared/_recently_updated.html.erb, app/views/topics/_list.html.erb, app/views/topics/_related_topics.html.erb, app/views/topics/show.html.erb]","[create, build, update_attributes!, page, all, records_from_elements, sort_by, assert_equal, specialist_guides, record_css_selector, has_css?]","","[app/views/topics/_exemplars.html.erb]","","0","0.896 seconds","false","3","1","[app/controllers/admin/organisations_controller.rb, app/controllers/admin/topics_controller.rb, app/controllers/organisations_controller.rb]","[app/controllers/publications_controller.rb]","1","[app/controllers/topics_controller.rb]","0.41666666666666663"
"4249","[18-06-2012]","1","1","[0fbb48b1f168f609608f0c6cbd34499d424f4129]","2","0","9","0","[app/controllers/admin/consultations_controller.rb, app/controllers/admin/editions_controller.rb, app/controllers/admin/international_priorities_controller.rb, app/controllers/admin/news_articles_controller.rb, app/controllers/admin/policies_controller.rb, app/controllers/admin/publications_controller.rb, app/controllers/admin/specialist_guides_controller.rb, app/controllers/admin/speeches_controller.rb, app/controllers/admin/topics_controller.rb]","[]","0.0","0.0","3.1.3","3","[]","0","25","[app/controllers/admin/consultations_controller.rb, app/controllers/admin/editions_controller.rb, app/controllers/admin/international_priorities_controller.rb, app/controllers/admin/news_articles_controller.rb, app/controllers/admin/policies_controller.rb, app/controllers/admin/publications_controller.rb, app/controllers/admin/specialist_guides_controller.rb, app/controllers/admin/speeches_controller.rb, app/controllers/admin/topics_controller.rb, app/helpers/admin/edition_routes_helper.rb, app/helpers/public_document_routes_helper.rb, app/models/edition/featurable.rb, app/models/topic.rb, app/views/admin/consultations/_edition.html.erb, app/views/admin/consultations/_form.html.erb, app/views/admin/editions/index.html.erb, app/views/admin/international_priorities/_form.html.erb, app/views/admin/news_articles/_form.html.erb, app/views/admin/policies/_form.html.erb, app/views/admin/publications/_edition.html.erb, app/views/admin/publications/_form.html.erb, app/views/admin/specialist_guides/_form.html.erb, app/views/admin/speeches/_form.html.erb, app/views/documents/_attachment_meta.html.erb, app/views/documents/_attachments.html.erb]","[begin_drafting_policy, click_button, click_link, record_css_selector, has_css?, begin_drafting_speech]","","[app/views/admin/editions/_authors.html.erb]","[app/views/admin/consultations/_attachment_fields.html.erb, app/views/admin/consultations/_minister_fields.html.erb, app/views/admin/consultations/_nation_fields.html.erb, app/views/admin/consultations/_organisation_fields.html.erb, app/views/admin/consultations/_related_policy_fields.html.erb, app/views/admin/consultations/_standard_elements.html.erb, app/views/admin/international_priorities/_country_fields.html.erb, app/views/admin/international_priorities/_organisation_fields.html.erb, app/views/admin/news_articles/_country_fields.html.erb, app/views/admin/news_articles/_first_published_at.html.erb, app/views/admin/news_articles/_minister_fields.html.erb, app/views/admin/news_articles/_organisation_fields.html.erb, app/views/admin/news_articles/_related_policy_fields.html.erb, app/views/admin/policies/_country_fields.html.erb, app/views/admin/policies/_minister_fields.html.erb, app/views/admin/policies/_nation_fields.html.erb, app/views/admin/policies/_organisation_fields.html.erb, app/views/admin/policies/_policy_team_fields.html.erb, app/views/admin/policies/_topic_fields.html.erb, app/views/admin/publications/_attachment_fields.html.erb, app/views/admin/publications/_country_fields.html.erb, app/views/admin/publications/_minister_fields.html.erb, app/views/admin/publications/_nation_fields.html.erb, app/views/admin/publications/_organisation_fields.html.erb, app/views/admin/publications/_related_policy_fields.html.erb, app/views/admin/publications/_standard_elements.html.erb, app/views/admin/specialist_guides/_organisation_fields.html.erb, app/views/admin/specialist_guides/_topic_fields.html.erb, app/views/admin/speeches/_country_fields.html.erb, app/views/admin/speeches/_first_published_at.html.erb, app/views/admin/speeches/_related_policy_fields.html.erb]","31","2.204 seconds","false","9","0","[app/controllers/admin/consultations_controller.rb, app/controllers/admin/editions_controller.rb, app/controllers/admin/international_priorities_controller.rb, app/controllers/admin/news_articles_controller.rb, app/controllers/admin/policies_controller.rb, app/controllers/admin/publications_controller.rb, app/controllers/admin/specialist_guides_controller.rb, app/controllers/admin/speeches_controller.rb, app/controllers/admin/topics_controller.rb]","[]","0","[]","0"
"4310","[12-06-2012]","1","2","[c3320793447d20df01c852bd43430b93dbf2ab23, e3df43a3c718994fadbdcab0bbfc51e4295f503d]","2","7","8","0","[app/controllers/admin/consultations_controller.rb, app/controllers/admin/editions_controller.rb, app/controllers/admin/international_priorities_controller.rb, app/controllers/admin/news_articles_controller.rb, app/controllers/admin/policies_controller.rb, app/controllers/admin/publications_controller.rb, app/controllers/admin/specialist_guides_controller.rb, app/controllers/admin/speeches_controller.rb]","[]","0.0","0.0","3.1.3","2","[]","0","22","[app/controllers/admin/consultations_controller.rb, app/controllers/admin/editions_controller.rb, app/controllers/admin/international_priorities_controller.rb, app/controllers/admin/news_articles_controller.rb, app/controllers/admin/policies_controller.rb, app/controllers/admin/publications_controller.rb, app/controllers/admin/specialist_guides_controller.rb, app/controllers/admin/speeches_controller.rb, app/helpers/admin/edition_routes_helper.rb, app/helpers/public_document_routes_helper.rb, app/views/admin/consultations/_edition.html.erb, app/views/admin/consultations/_form.html.erb, app/views/admin/editions/index.html.erb, app/views/admin/international_priorities/_form.html.erb, app/views/admin/news_articles/_form.html.erb, app/views/admin/policies/_form.html.erb, app/views/admin/publications/_edition.html.erb, app/views/admin/publications/_form.html.erb, app/views/admin/specialist_guides/_form.html.erb, app/views/admin/speeches/_form.html.erb, app/views/documents/_attachment_meta.html.erb, app/views/documents/_attachments.html.erb]","[create, fill_in, path, attach_file, within, click_button, raw, flatten, check, fill_in, click_button, select, begin_drafting_document, select, select_date, check, click_link, within, record_css_selector, has_css?, refute, gsub, merge, click_link]","","[]","[app/views/admin/consultations/_attachment_fields.html.erb, app/views/admin/consultations/_authors.html.erb, app/views/admin/consultations/_minister_fields.html.erb, app/views/admin/consultations/_nation_fields.html.erb, app/views/admin/consultations/_organisation_fields.html.erb, app/views/admin/consultations/_related_policy_fields.html.erb, app/views/admin/consultations/_standard_elements.html.erb, app/views/admin/international_priorities/_country_fields.html.erb, app/views/admin/international_priorities/_organisation_fields.html.erb, app/views/admin/news_articles/_country_fields.html.erb, app/views/admin/news_articles/_first_published_at.html.erb, app/views/admin/news_articles/_minister_fields.html.erb, app/views/admin/news_articles/_organisation_fields.html.erb, app/views/admin/news_articles/_related_policy_fields.html.erb, app/views/admin/policies/_country_fields.html.erb, app/views/admin/policies/_minister_fields.html.erb, app/views/admin/policies/_nation_fields.html.erb, app/views/admin/policies/_organisation_fields.html.erb, app/views/admin/policies/_policy_topic_fields.html.erb, app/views/admin/publications/_attachment_fields.html.erb, app/views/admin/publications/_authors.html.erb, app/views/admin/publications/_country_fields.html.erb, app/views/admin/publications/_minister_fields.html.erb, app/views/admin/publications/_nation_fields.html.erb, app/views/admin/publications/_organisation_fields.html.erb, app/views/admin/publications/_related_policy_fields.html.erb, app/views/admin/publications/_standard_elements.html.erb, app/views/admin/specialist_guides/_organisation_fields.html.erb, app/views/admin/specialist_guides/_related_policy_fields.html.erb, app/views/admin/speeches/_country_fields.html.erb, app/views/admin/speeches/_first_published_at.html.erb, app/views/admin/speeches/_related_policy_fields.html.erb]","32","2.129 seconds","false","8","0","[app/controllers/admin/consultations_controller.rb, app/controllers/admin/editions_controller.rb, app/controllers/admin/international_priorities_controller.rb, app/controllers/admin/news_articles_controller.rb, app/controllers/admin/policies_controller.rb, app/controllers/admin/publications_controller.rb, app/controllers/admin/specialist_guides_controller.rb, app/controllers/admin/speeches_controller.rb]","[]","0","[]","0"
"4319","[12-06-2012]","1","2","[bbd3f01559065c83133b866d5c08e89ccc984cf7, 00844d206a5198208be59e88a8fdadc0b42ad503]","2","3","24","2","[app/controllers/admin/consultations_controller.rb, app/controllers/admin/countries_controller.rb, app/controllers/admin/edition_workflow_controller.rb, app/controllers/admin/international_priorities_controller.rb, app/controllers/admin/news_articles_controller.rb, app/controllers/admin/organisations_controller.rb, app/controllers/admin/people_controller.rb, app/controllers/admin/policies_controller.rb, app/controllers/admin/policy_topics_controller.rb, app/controllers/admin/publications_controller.rb, app/controllers/admin/speeches_controller.rb, app/controllers/announcements_controller.rb, app/controllers/consultations_controller.rb, app/controllers/countries_controller.rb, app/controllers/international_priorities_controller.rb, app/controllers/ministerial_roles_controller.rb, app/controllers/news_articles_controller.rb, app/controllers/organisations_controller.rb, app/controllers/people_controller.rb, app/controllers/policies_controller.rb, app/controllers/policy_topics_controller.rb, app/controllers/publications_controller.rb, app/controllers/site_controller.rb, app/controllers/speeches_controller.rb]","[app/controllers/admin/specialist_guides_controller.rb, app/controllers/specialist_guides_controller.rb]","0.0","0.0","3.1.3","33","[]","0","72","[app/controllers/admin/consultations_controller.rb, app/controllers/admin/countries_controller.rb, app/controllers/admin/international_priorities_controller.rb, app/controllers/admin/news_articles_controller.rb, app/controllers/admin/organisations_controller.rb, app/controllers/admin/people_controller.rb, app/controllers/admin/policies_controller.rb, app/controllers/admin/policy_topics_controller.rb, app/controllers/admin/publications_controller.rb, app/controllers/admin/speeches_controller.rb, app/controllers/announcements_controller.rb, app/controllers/consultations_controller.rb, app/controllers/countries_controller.rb, app/controllers/international_priorities_controller.rb, app/controllers/ministerial_roles_controller.rb, app/controllers/news_articles_controller.rb, app/controllers/organisations_controller.rb, app/controllers/people_controller.rb, app/controllers/policies_controller.rb, app/controllers/policy_topics_controller.rb, app/controllers/publications_controller.rb, app/controllers/site_controller.rb, app/controllers/speeches_controller.rb, app/helpers/public_document_routes_helper.rb, app/views/announcements/index.html.erb, app/views/consultations/index.html.erb, app/views/countries/_beta_warning.html.erb, app/views/countries/_grouped_list.html.erb, app/views/countries/_list.html.erb, app/views/countries/_navigation.html.erb, app/views/countries/index.html.erb, app/views/countries/show.html.erb, app/views/documents/_document_li.html.erb, app/views/documents/_policies.html.erb, app/views/documents/_policy_topics.html.erb, app/views/documents/_recently_changed_documents.html.erb, app/views/international_priorities/_grouped_list.html.erb, app/views/international_priorities/index.html.erb, app/views/ministerial_roles/_grouped_list.html.erb, app/views/ministerial_roles/index.html.erb, app/views/ministerial_roles/show.html.erb, app/views/news_articles/index.html.erb, app/views/organisations/_beta_warning.html.erb, app/views/organisations/_grouped_list.html.erb, app/views/organisations/_header.html.erb, app/views/organisations/_list.html.erb, app/views/organisations/_navigation.html.erb, app/views/organisations/_organisation.html.erb, app/views/organisations/_organisations_logo_list.html.erb, app/views/organisations/_sidebar.html.erb, app/views/organisations/_social_media_accounts.html.erb, app/views/organisations/alphabetical.html.erb, app/views/organisations/index.html.erb, app/views/organisations/management_team.html.erb, app/views/organisations/ministers.html.erb, app/views/organisations/show.html.erb, app/views/people/show.html.erb, app/views/policies/_grouped_list.html.erb, app/views/policies/_list.html.erb, app/views/policies/index.html.erb, app/views/policy_topics/_exemplars.html.erb, app/views/policy_topics/_grouped_list.html.erb, app/views/policy_topics/_list.html.erb, app/views/policy_topics/_related_policy_topics.html.erb, app/views/policy_topics/index.html.erb, app/views/policy_topics/show.html.erb, app/views/publications/index.html.erb, app/views/shared/_hero_rotator.html.erb, app/views/shared/_recently_updated.html.erb, app/views/site/index.html.erb, app/views/site/tour.html.erb, app/views/speeches/index.html.erb]","[begin_drafting_document, click_button, create, record_css_selector, has_css?, click_link, class, raise, page, gsub, find_by_title, has_css?, refute, organisations, published_at, description, attachments, summary, publication_date]","","[]","[specialist_guides]","1","2.500 seconds","false","24","2","[app/controllers/admin/consultations_controller.rb, app/controllers/admin/countries_controller.rb, app/controllers/admin/edition_workflow_controller.rb, app/controllers/admin/international_priorities_controller.rb, app/controllers/admin/news_articles_controller.rb, app/controllers/admin/organisations_controller.rb, app/controllers/admin/people_controller.rb, app/controllers/admin/policies_controller.rb, app/controllers/admin/policy_topics_controller.rb, app/controllers/admin/publications_controller.rb, app/controllers/admin/speeches_controller.rb, app/controllers/announcements_controller.rb, app/controllers/consultations_controller.rb, app/controllers/countries_controller.rb, app/controllers/international_priorities_controller.rb, app/controllers/ministerial_roles_controller.rb, app/controllers/news_articles_controller.rb, app/controllers/organisations_controller.rb, app/controllers/people_controller.rb, app/controllers/policies_controller.rb, app/controllers/policy_topics_controller.rb, app/controllers/publications_controller.rb, app/controllers/site_controller.rb, app/controllers/speeches_controller.rb]","[app/controllers/admin/specialist_guides_controller.rb, app/controllers/specialist_guides_controller.rb]","0","[]","0"
"4325","[11-06-2012]","1","2","[36efed2e3696049b0d23e7f5c5479ee038f45c92, 6f95e368fa8543c78245e9dc26b6a1bee8a282cb]","2","1","7","0","[app/controllers/admin/consultations_controller.rb, app/controllers/admin/editions_controller.rb, app/controllers/admin/international_priorities_controller.rb, app/controllers/admin/news_articles_controller.rb, app/controllers/admin/policies_controller.rb, app/controllers/admin/publications_controller.rb, app/controllers/admin/speeches_controller.rb]","[]","0.0","0.0","3.1.3","2","[]","0","20","[app/controllers/admin/consultations_controller.rb, app/controllers/admin/editions_controller.rb, app/controllers/admin/international_priorities_controller.rb, app/controllers/admin/news_articles_controller.rb, app/controllers/admin/policies_controller.rb, app/controllers/admin/publications_controller.rb, app/controllers/admin/speeches_controller.rb, app/helpers/admin/edition_routes_helper.rb, app/helpers/public_document_routes_helper.rb, app/views/admin/consultations/_edition.html.erb, app/views/admin/consultations/_form.html.erb, app/views/admin/editions/index.html.erb, app/views/admin/international_priorities/_form.html.erb, app/views/admin/news_articles/_form.html.erb, app/views/admin/policies/_form.html.erb, app/views/admin/publications/_edition.html.erb, app/views/admin/publications/_form.html.erb, app/views/admin/speeches/_form.html.erb, app/views/documents/_attachment_meta.html.erb, app/views/documents/_attachments.html.erb]","[create, begin_drafting_document, fill_in, attach_file, within, check, select, click_button, select_date, click_link, select, click_button, within, record_css_selector, has_css?, refute, gsub, merge, click_link]","","[]","[app/views/admin/consultations/_attachment_fields.html.erb, app/views/admin/consultations/_authors.html.erb, app/views/admin/consultations/_minister_fields.html.erb, app/views/admin/consultations/_nation_fields.html.erb, app/views/admin/consultations/_organisation_fields.html.erb, app/views/admin/consultations/_related_policy_fields.html.erb, app/views/admin/consultations/_standard_elements.html.erb, app/views/admin/international_priorities/_country_fields.html.erb, app/views/admin/international_priorities/_organisation_fields.html.erb, app/views/admin/news_articles/_country_fields.html.erb, app/views/admin/news_articles/_first_published_at.html.erb, app/views/admin/news_articles/_minister_fields.html.erb, app/views/admin/news_articles/_organisation_fields.html.erb, app/views/admin/news_articles/_related_policy_fields.html.erb, app/views/admin/policies/_country_fields.html.erb, app/views/admin/policies/_minister_fields.html.erb, app/views/admin/policies/_nation_fields.html.erb, app/views/admin/policies/_organisation_fields.html.erb, app/views/admin/policies/_policy_topic_fields.html.erb, app/views/admin/publications/_attachment_fields.html.erb, app/views/admin/publications/_authors.html.erb, app/views/admin/publications/_country_fields.html.erb, app/views/admin/publications/_minister_fields.html.erb, app/views/admin/publications/_nation_fields.html.erb, app/views/admin/publications/_organisation_fields.html.erb, app/views/admin/publications/_related_policy_fields.html.erb, app/views/admin/publications/_standard_elements.html.erb, app/views/admin/speeches/_country_fields.html.erb, app/views/admin/speeches/_first_published_at.html.erb, app/views/admin/speeches/_related_policy_fields.html.erb]","30","1.994 seconds","false","7","0","[app/controllers/admin/consultations_controller.rb, app/controllers/admin/editions_controller.rb, app/controllers/admin/international_priorities_controller.rb, app/controllers/admin/news_articles_controller.rb, app/controllers/admin/policies_controller.rb, app/controllers/admin/publications_controller.rb, app/controllers/admin/speeches_controller.rb]","[]","0","[]","0"
"4391","[31-05-2012]","1","1","[bf2ba74ffe4d4dde910c0d25e53ffeab9e4e565c]","2","2","22","1","[app/controllers/admin/consultations_controller.rb, app/controllers/admin/countries_controller.rb, app/controllers/admin/editions_controller.rb, app/controllers/admin/international_priorities_controller.rb, app/controllers/admin/news_articles_controller.rb, app/controllers/admin/organisations_controller.rb, app/controllers/admin/policies_controller.rb, app/controllers/admin/policy_topics_controller.rb, app/controllers/admin/publications_controller.rb, app/controllers/admin/speeches_controller.rb, app/controllers/announcements_controller.rb, app/controllers/consultations_controller.rb, app/controllers/countries_controller.rb, app/controllers/international_priorities_controller.rb, app/controllers/ministerial_roles_controller.rb, app/controllers/news_articles_controller.rb, app/controllers/organisations_controller.rb, app/controllers/policies_controller.rb, app/controllers/policy_topics_controller.rb, app/controllers/publications_controller.rb, app/controllers/site_controller.rb, app/controllers/speeches_controller.rb]","[app/controllers/admin/edition_workflow_controller.rb]","0.0","0.0","3.1.3","16","[]","0","80","[app/controllers/admin/consultations_controller.rb, app/controllers/admin/countries_controller.rb, app/controllers/admin/editions_controller.rb, app/controllers/admin/international_priorities_controller.rb, app/controllers/admin/news_articles_controller.rb, app/controllers/admin/organisations_controller.rb, app/controllers/admin/policies_controller.rb, app/controllers/admin/policy_topics_controller.rb, app/controllers/admin/publications_controller.rb, app/controllers/admin/speeches_controller.rb, app/controllers/announcements_controller.rb, app/controllers/consultations_controller.rb, app/controllers/countries_controller.rb, app/controllers/international_priorities_controller.rb, app/controllers/ministerial_roles_controller.rb, app/controllers/news_articles_controller.rb, app/controllers/organisations_controller.rb, app/controllers/policies_controller.rb, app/controllers/policy_topics_controller.rb, app/controllers/publications_controller.rb, app/controllers/site_controller.rb, app/controllers/speeches_controller.rb, app/helpers/admin/edition_routes_helper.rb, app/helpers/public_document_routes_helper.rb, app/views/admin/consultations/_edition.html.erb, app/views/admin/consultations/_form.html.erb, app/views/admin/editions/index.html.erb, app/views/admin/international_priorities/_form.html.erb, app/views/admin/news_articles/_form.html.erb, app/views/admin/policies/_form.html.erb, app/views/admin/publications/_edition.html.erb, app/views/admin/publications/_form.html.erb, app/views/admin/speeches/_form.html.erb, app/views/announcements/index.html.erb, app/views/consultations/index.html.erb, app/views/countries/_beta_warning.html.erb, app/views/countries/_grouped_list.html.erb, app/views/countries/_list.html.erb, app/views/countries/_navigation.html.erb, app/views/countries/index.html.erb, app/views/countries/show.html.erb, app/views/documents/_attachment_meta.html.erb, app/views/documents/_attachments.html.erb, app/views/documents/_policies.html.erb, app/views/documents/_policy_topics.html.erb, app/views/documents/_recently_changed_documents.html.erb, app/views/international_priorities/_grouped_list.html.erb, app/views/international_priorities/index.html.erb, app/views/ministerial_roles/_grouped_list.html.erb, app/views/ministerial_roles/index.html.erb, app/views/news_articles/index.html.erb, app/views/organisations/_beta_warning.html.erb, app/views/organisations/_grouped_list.html.erb, app/views/organisations/_header.html.erb, app/views/organisations/_list.html.erb, app/views/organisations/_navigation.html.erb, app/views/organisations/_organisation.html.erb, app/views/organisations/_organisations_logo_list.html.erb, app/views/organisations/_sidebar.html.erb, app/views/organisations/_social_media_accounts.html.erb, app/views/organisations/alphabetical.html.erb, app/views/organisations/index.html.erb, app/views/organisations/management_team.html.erb, app/views/organisations/ministers.html.erb, app/views/organisations/show.html.erb, app/views/policies/_grouped_list.html.erb, app/views/policies/_list.html.erb, app/views/policies/index.html.erb, app/views/policy_topics/_exemplars.html.erb, app/views/policy_topics/_grouped_list.html.erb, app/views/policy_topics/_list.html.erb, app/views/policy_topics/_related_policy_topics.html.erb, app/views/policy_topics/index.html.erb, app/views/policy_topics/show.html.erb, app/views/publications/index.html.erb, app/views/shared/_hero_rotator.html.erb, app/views/shared/_recently_updated.html.erb, app/views/site/index.html.erb, app/views/site/tour.html.erb, app/views/speeches/index.html.erb]","[click_button, merge, fill_in, click_link, click_link, click_button, record_css_selector, has_css?, click_link, class, raise, page, find_by_title, has_css?, fill_in, refute, organisations, published_at, description, attachments, summary, publication_date, create, create, has_no_css?]","","[]","[app/views/admin/consultations/_attachment_fields.html.erb, app/views/admin/consultations/_authors.html.erb, app/views/admin/consultations/_minister_fields.html.erb, app/views/admin/consultations/_nation_fields.html.erb, app/views/admin/consultations/_organisation_fields.html.erb, app/views/admin/consultations/_related_policy_fields.html.erb, app/views/admin/consultations/_standard_elements.html.erb, app/views/admin/international_priorities/_country_fields.html.erb, app/views/admin/international_priorities/_organisation_fields.html.erb, app/views/admin/news_articles/_country_fields.html.erb, app/views/admin/news_articles/_first_published_at.html.erb, app/views/admin/news_articles/_minister_fields.html.erb, app/views/admin/news_articles/_organisation_fields.html.erb, app/views/admin/news_articles/_related_policy_fields.html.erb, app/views/admin/policies/_country_fields.html.erb, app/views/admin/policies/_minister_fields.html.erb, app/views/admin/policies/_nation_fields.html.erb, app/views/admin/policies/_organisation_fields.html.erb, app/views/admin/policies/_policy_topic_fields.html.erb, app/views/admin/publications/_attachment_fields.html.erb, app/views/admin/publications/_authors.html.erb, app/views/admin/publications/_country_fields.html.erb, app/views/admin/publications/_minister_fields.html.erb, app/views/admin/publications/_nation_fields.html.erb, app/views/admin/publications/_organisation_fields.html.erb, app/views/admin/publications/_related_policy_fields.html.erb, app/views/admin/publications/_standard_elements.html.erb, app/views/admin/speeches/_country_fields.html.erb, app/views/admin/speeches/_first_published_at.html.erb, app/views/admin/speeches/_related_policy_fields.html.erb]","30","4.267 seconds","false","22","1","[app/controllers/admin/consultations_controller.rb, app/controllers/admin/countries_controller.rb, app/controllers/admin/editions_controller.rb, app/controllers/admin/international_priorities_controller.rb, app/controllers/admin/news_articles_controller.rb, app/controllers/admin/organisations_controller.rb, app/controllers/admin/policies_controller.rb, app/controllers/admin/policy_topics_controller.rb, app/controllers/admin/publications_controller.rb, app/controllers/admin/speeches_controller.rb, app/controllers/announcements_controller.rb, app/controllers/consultations_controller.rb, app/controllers/countries_controller.rb, app/controllers/international_priorities_controller.rb, app/controllers/ministerial_roles_controller.rb, app/controllers/news_articles_controller.rb, app/controllers/organisations_controller.rb, app/controllers/policies_controller.rb, app/controllers/policy_topics_controller.rb, app/controllers/publications_controller.rb, app/controllers/site_controller.rb, app/controllers/speeches_controller.rb]","[app/controllers/admin/edition_workflow_controller.rb]","0","[]","0"
"4458","[29-05-2012]","1","2","[b68ac566946fc38ea1800ac66b2eb8b2dea0294d, 6a695533555d43a1dd9d90b36fe6faca359b8338]","2","2","22","1","[app/controllers/admin/consultations_controller.rb, app/controllers/admin/countries_controller.rb, app/controllers/admin/edition_workflow_controller.rb, app/controllers/admin/international_priorities_controller.rb, app/controllers/admin/news_articles_controller.rb, app/controllers/admin/organisations_controller.rb, app/controllers/admin/policies_controller.rb, app/controllers/admin/policy_topics_controller.rb, app/controllers/admin/publications_controller.rb, app/controllers/admin/speeches_controller.rb, app/controllers/announcements_controller.rb, app/controllers/consultations_controller.rb, app/controllers/countries_controller.rb, app/controllers/international_priorities_controller.rb, app/controllers/ministerial_roles_controller.rb, app/controllers/news_articles_controller.rb, app/controllers/organisations_controller.rb, app/controllers/policies_controller.rb, app/controllers/policy_topics_controller.rb, app/controllers/publications_controller.rb, app/controllers/site_controller.rb, app/controllers/speeches_controller.rb]","[app/controllers/admin/edition_workflow_controller.rb]","0.0454545455","1.0","3.1.3","12","[]","0","71","[app/controllers/admin/consultations_controller.rb, app/controllers/admin/countries_controller.rb, app/controllers/admin/international_priorities_controller.rb, app/controllers/admin/news_articles_controller.rb, app/controllers/admin/organisations_controller.rb, app/controllers/admin/policies_controller.rb, app/controllers/admin/policy_topics_controller.rb, app/controllers/admin/publications_controller.rb, app/controllers/admin/speeches_controller.rb, app/controllers/announcements_controller.rb, app/controllers/consultations_controller.rb, app/controllers/countries_controller.rb, app/controllers/international_priorities_controller.rb, app/controllers/ministerial_roles_controller.rb, app/controllers/news_articles_controller.rb, app/controllers/organisations_controller.rb, app/controllers/policies_controller.rb, app/controllers/policy_topics_controller.rb, app/controllers/publications_controller.rb, app/controllers/site_controller.rb, app/controllers/speeches_controller.rb, app/helpers/public_document_routes_helper.rb, app/views/admin/policies/_form.html.erb, app/views/announcements/index.html.erb, app/views/consultations/_consultation_index_item.html.erb, app/views/consultations/index.html.erb, app/views/countries/_beta_warning.html.erb, app/views/countries/_grouped_list.html.erb, app/views/countries/_list.html.erb, app/views/countries/_navigation.html.erb, app/views/countries/index.html.erb, app/views/countries/show.html.erb, app/views/documents/_policies.html.erb, app/views/documents/_policy_topics.html.erb, app/views/documents/_recently_changed_documents.html.erb, app/views/international_priorities/_grouped_list.html.erb, app/views/international_priorities/index.html.erb, app/views/ministerial_roles/_grouped_list.html.erb, app/views/ministerial_roles/index.html.erb, app/views/news_articles/index.html.erb, app/views/organisations/_beta_warning.html.erb, app/views/organisations/_grouped_list.html.erb, app/views/organisations/_header.html.erb, app/views/organisations/_list.html.erb, app/views/organisations/_navigation.html.erb, app/views/organisations/_organisation.html.erb, app/views/organisations/_organisations_logo_list.html.erb, app/views/organisations/_sidebar.html.erb, app/views/organisations/_social_media_accounts.html.erb, app/views/organisations/alphabetical.html.erb, app/views/organisations/index.html.erb, app/views/organisations/management_team.html.erb, app/views/organisations/ministers.html.erb, app/views/organisations/show.html.erb, app/views/policies/_grouped_list.html.erb, app/views/policies/_list.html.erb, app/views/policies/index.html.erb, app/views/policy_topics/_exemplars.html.erb, app/views/policy_topics/_grouped_list.html.erb, app/views/policy_topics/_list.html.erb, app/views/policy_topics/_related_policy_topics.html.erb, app/views/policy_topics/index.html.erb, app/views/policy_topics/show.html.erb, app/views/publications/_all_publications.html.erb, app/views/publications/_publication.html.erb, app/views/publications/index.html.erb, app/views/shared/_hero_rotator.html.erb, app/views/shared/_recently_updated.html.erb, app/views/site/index.html.erb, app/views/site/tour.html.erb, app/views/speeches/index.html.erb]","[create, record_css_selector, has_css?, click_link, class, raise, page, find_by_title!, gsub, find_by_title, check, fill_in, click_button, has_css?, refute, organisations, published_at, description, authors, email, assert_equal, subject, assert_match, select]","","[]","[app/views/admin/policies/_country_fields.html.erb, app/views/admin/policies/_minister_fields.html.erb, app/views/admin/policies/_nation_fields.html.erb, app/views/admin/policies/_organisation_fields.html.erb, app/views/admin/policies/_policy_topic_fields.html.erb, app/views/admin/policies/_standard_fields.html.erb]","6","2.530 seconds","false","21","0","[app/controllers/admin/consultations_controller.rb, app/controllers/admin/countries_controller.rb, app/controllers/admin/international_priorities_controller.rb, app/controllers/admin/news_articles_controller.rb, app/controllers/admin/organisations_controller.rb, app/controllers/admin/policies_controller.rb, app/controllers/admin/policy_topics_controller.rb, app/controllers/admin/publications_controller.rb, app/controllers/admin/speeches_controller.rb, app/controllers/announcements_controller.rb, app/controllers/consultations_controller.rb, app/controllers/countries_controller.rb, app/controllers/international_priorities_controller.rb, app/controllers/ministerial_roles_controller.rb, app/controllers/news_articles_controller.rb, app/controllers/organisations_controller.rb, app/controllers/policies_controller.rb, app/controllers/policy_topics_controller.rb, app/controllers/publications_controller.rb, app/controllers/site_controller.rb, app/controllers/speeches_controller.rb]","[]","1","[app/controllers/admin/edition_workflow_controller.rb]","0.1923076924704142"
"4177","[02-07-2012]","1","1","[aab68fca3ff7213a4c54f2f1c419c9e99587d914]","1","2","24","1","[app/controllers/admin/consultations_controller.rb, app/controllers/admin/countries_controller.rb, app/controllers/admin/edition_workflow_controller.rb, app/controllers/admin/international_priorities_controller.rb, app/controllers/admin/news_articles_controller.rb, app/controllers/admin/organisations_controller.rb, app/controllers/admin/policies_controller.rb, app/controllers/admin/publications_controller.rb, app/controllers/admin/specialist_guides_controller.rb, app/controllers/admin/speeches_controller.rb, app/controllers/admin/topics_controller.rb, app/controllers/announcements_controller.rb, app/controllers/consultations_controller.rb, app/controllers/countries_controller.rb, app/controllers/international_priorities_controller.rb, app/controllers/ministerial_roles_controller.rb, app/controllers/news_articles_controller.rb, app/controllers/organisations_controller.rb, app/controllers/policies_controller.rb, app/controllers/publications_controller.rb, app/controllers/site_controller.rb, app/controllers/specialist_guides_controller.rb, app/controllers/speeches_controller.rb, app/controllers/topics_controller.rb]","[app/controllers/specialist_guides_controller.rb]","0.0416666667","1.0","3.1.3","17","[]","0","72","[app/controllers/admin/consultations_controller.rb, app/controllers/admin/countries_controller.rb, app/controllers/admin/international_priorities_controller.rb, app/controllers/admin/news_articles_controller.rb, app/controllers/admin/organisations_controller.rb, app/controllers/admin/policies_controller.rb, app/controllers/admin/publications_controller.rb, app/controllers/admin/specialist_guides_controller.rb, app/controllers/admin/speeches_controller.rb, app/controllers/admin/topics_controller.rb, app/controllers/announcements_controller.rb, app/controllers/consultations_controller.rb, app/controllers/countries_controller.rb, app/controllers/international_priorities_controller.rb, app/controllers/ministerial_roles_controller.rb, app/controllers/news_articles_controller.rb, app/controllers/organisations_controller.rb, app/controllers/policies_controller.rb, app/controllers/publications_controller.rb, app/controllers/site_controller.rb, app/controllers/specialist_guides_controller.rb, app/controllers/speeches_controller.rb, app/controllers/topics_controller.rb, app/helpers/public_document_routes_helper.rb, app/models/speech.rb, app/views/announcements/index.html.erb, app/views/consultations/index.html.erb, app/views/countries/_beta_warning.html.erb, app/views/countries/_grouped_list.html.erb, app/views/countries/_list.html.erb, app/views/countries/_navigation.html.erb, app/views/countries/index.html.erb, app/views/countries/show.html.erb, app/views/documents/_policies.html.erb, app/views/documents/_recently_changed_documents.html.erb, app/views/documents/_specialist_guides.html.erb, app/views/documents/_topics.html.erb, app/views/international_priorities/_grouped_list.html.erb, app/views/international_priorities/index.html.erb, app/views/ministerial_roles/_role.html.erb, app/views/ministerial_roles/index.html.erb, app/views/news_articles/index.html.erb, app/views/organisations/_beta_warning.html.erb, app/views/organisations/_grouped_list.html.erb, app/views/organisations/_header.html.erb, app/views/organisations/_list.html.erb, app/views/organisations/_navigation.html.erb, app/views/organisations/_organisation.html.erb, app/views/organisations/_organisations_logo_list.html.erb, app/views/organisations/_sidebar.html.erb, app/views/organisations/_social_media_accounts.html.erb, app/views/organisations/alphabetical.html.erb, app/views/organisations/chiefs_of_staff.html.erb, app/views/organisations/index.html.erb, app/views/organisations/management_team.html.erb, app/views/organisations/ministers.html.erb, app/views/organisations/show.html.erb, app/views/policies/_grouped_list.html.erb, app/views/policies/_list.html.erb, app/views/policies/index.html.erb, app/views/publications/index.html.erb, app/views/shared/_hero_rotator.html.erb, app/views/shared/_recently_updated.html.erb, app/views/site/index.html.erb, app/views/site/tour.html.erb, app/views/specialist_guides/index.html.erb, app/views/speeches/index.html.erb, app/views/topics/_grouped_list.html.erb, app/views/topics/_list.html.erb, app/views/topics/_related_topics.html.erb, app/views/topics/index.html.erb, app/views/topics/show.html.erb]","[create, title, record_css_selector, has_css?, click_link, class, raise, page, title, gsub, find_by_title, click_button, has_css?, refute, organisations, published_at, published_specialist_guides, summary, attachments, publication_date, description]","","[]","","0","3.118 seconds","false","23","0","[app/controllers/admin/consultations_controller.rb, app/controllers/admin/countries_controller.rb, app/controllers/admin/edition_workflow_controller.rb, app/controllers/admin/international_priorities_controller.rb, app/controllers/admin/news_articles_controller.rb, app/controllers/admin/organisations_controller.rb, app/controllers/admin/policies_controller.rb, app/controllers/admin/publications_controller.rb, app/controllers/admin/specialist_guides_controller.rb, app/controllers/admin/speeches_controller.rb, app/controllers/admin/topics_controller.rb, app/controllers/announcements_controller.rb, app/controllers/consultations_controller.rb, app/controllers/countries_controller.rb, app/controllers/international_priorities_controller.rb, app/controllers/ministerial_roles_controller.rb, app/controllers/news_articles_controller.rb, app/controllers/organisations_controller.rb, app/controllers/policies_controller.rb, app/controllers/publications_controller.rb, app/controllers/site_controller.rb, app/controllers/speeches_controller.rb, app/controllers/topics_controller.rb]","[]","1","[app/controllers/specialist_guides_controller.rb]","0.17857142869387754"
"4180","[28-06-2012, 30-06-2012]","2","3","[7087d985ef6f93cbc3baa08806b11ff33fe124cf, 8ac1a3ce5b5175a78d4d4d95600ccae6a1822ddf, 0f7c4a2ff2e9caa9da7b9d6966e6e0e94f41a9e5]","1","5","2","0","[app/controllers/admin/specialist_guides_controller.rb, app/controllers/specialist_guides_controller.rb]","[]","0.0","0.0","3.1.3","4","[]","0","5","[app/controllers/admin/specialist_guides_controller.rb, app/controllers/specialist_guides_controller.rb, app/helpers/public_document_routes_helper.rb, app/views/specialist_guides/index.html.erb, app/views/specialist_guides/show.html.erb]","[create, click_link, evaluate_script, fragment, assert_equal, document, record_css_selector, has_css?, refute]","","[]","[app/views/documents/_show.html.erb]","1","0.288 seconds","false","2","0","[app/controllers/admin/specialist_guides_controller.rb, app/controllers/specialist_guides_controller.rb]","[]","0","[]","0"
"4189","[28-06-2012]","1","1","[7d74dc8d8b98e70c8a30d9bb62a5ffb8103b4c54]","1","1","2","2","[app/controllers/admin/policies_controller.rb, app/controllers/policies_controller.rb]","[app/controllers/policies_controller.rb, app/controllers/supporting_pages_controller.rb]","0.5","0.5","3.1.3","2","[]","0","5","[app/controllers/admin/policies_controller.rb, app/controllers/policies_controller.rb, app/helpers/public_document_routes_helper.rb, app/views/documents/_recently_changed_documents.html.erb, app/views/policies/activity.html.erb]","[create, gsub, find_by_title!, document, page, record_css_selector, title, has_css?]","","[]","","0","0.667 seconds","false","1","1","[app/controllers/admin/policies_controller.rb]","[app/controllers/supporting_pages_controller.rb]","1","[app/controllers/policies_controller.rb]","0.5"
"4236","[20-06-2012, 21-06-2012]","1","6","[d8b462eedfb5c9ab22197876aa26893326ae28ae, aa43e92839cefd2f1dcb22394c28c45d52f67195, d40e99880dfef3fbee50ab6f681d173bff2ca8c9, 52bef86cfb629e6831324af1f6296dbd6290645b, 63d8485da9cb90201821f2f0d4f77011024c3adb, 4a1984bcbb720e87164b59ac2afa24bf04a0242f]","1","2","12","3","[app/controllers/admin/consultations_controller.rb, app/controllers/admin/editions_controller.rb, app/controllers/admin/international_priorities_controller.rb, app/controllers/admin/news_articles_controller.rb, app/controllers/admin/organisations_controller.rb, app/controllers/admin/policies_controller.rb, app/controllers/admin/publications_controller.rb, app/controllers/admin/specialist_guides_controller.rb, app/controllers/admin/speeches_controller.rb, app/controllers/admin/topics_controller.rb, app/controllers/organisations_controller.rb, app/controllers/topics_controller.rb]","[app/controllers/admin/edition_organisations_controller.rb, app/controllers/admin/organisations_controller.rb, app/controllers/organisations_controller.rb]","0.1666666667","0.6666666667","3.1.3","4","[]","0","50","[app/controllers/admin/consultations_controller.rb, app/controllers/admin/editions_controller.rb, app/controllers/admin/international_priorities_controller.rb, app/controllers/admin/news_articles_controller.rb, app/controllers/admin/organisations_controller.rb, app/controllers/admin/policies_controller.rb, app/controllers/admin/publications_controller.rb, app/controllers/admin/specialist_guides_controller.rb, app/controllers/admin/speeches_controller.rb, app/controllers/admin/topics_controller.rb, app/controllers/organisations_controller.rb, app/controllers/topics_controller.rb, app/helpers/admin/edition_routes_helper.rb, app/helpers/public_document_routes_helper.rb, app/models/edition/featurable.rb, app/models/topic.rb, app/views/admin/consultations/_edition.html.erb, app/views/admin/consultations/_form.html.erb, app/views/admin/editions/index.html.erb, app/views/admin/international_priorities/_form.html.erb, app/views/admin/news_articles/_form.html.erb, app/views/admin/organisations/_contacts_form.html.erb, app/views/admin/organisations/_form.html.erb, app/views/admin/organisations/_sidebar.html.erb, app/views/admin/organisations/edit.html.erb, app/views/admin/organisations/show.html.erb, app/views/admin/policies/_form.html.erb, app/views/admin/publications/_edition.html.erb, app/views/admin/publications/_form.html.erb, app/views/admin/specialist_guides/_form.html.erb, app/views/admin/speeches/_form.html.erb, app/views/documents/_attachment_meta.html.erb, app/views/documents/_attachments.html.erb, app/views/documents/_policies.html.erb, app/views/documents/_recently_changed_documents.html.erb, app/views/documents/_specialist_guides.html.erb, app/views/documents/_topics.html.erb, app/views/organisations/_beta_warning.html.erb, app/views/organisations/_header.html.erb, app/views/organisations/_navigation.html.erb, app/views/organisations/_sidebar.html.erb, app/views/organisations/_social_media_accounts.html.erb, app/views/organisations/management_team.html.erb, app/views/organisations/ministers.html.erb, app/views/organisations/show.html.erb, app/views/shared/_hero_rotator.html.erb, app/views/shared/_recently_updated.html.erb, app/views/topics/_list.html.erb, app/views/topics/_related_topics.html.erb, app/views/topics/show.html.erb]","[create, rows, record_css_selector, click_button, within, each, fill_in, each_with_index, published_at, record_css_selector, has_css?, gsub]","","[]","[admin_ssociation, app/views/admin/consultations/_attachment_fields.html.erb, app/views/admin/consultations/_minister_fields.html.erb, app/views/admin/consultations/_nation_fields.html.erb, app/views/admin/consultations/_organisation_fields.html.erb, app/views/admin/consultations/_related_policy_fields.html.erb, app/views/admin/consultations/_standard_elements.html.erb, app/views/admin/international_priorities/_country_fields.html.erb, app/views/admin/international_priorities/_organisation_fields.html.erb, app/views/admin/news_articles/_country_fields.html.erb, app/views/admin/news_articles/_first_published_at.html.erb, app/views/admin/news_articles/_minister_fields.html.erb, app/views/admin/news_articles/_organisation_fields.html.erb, app/views/admin/news_articles/_related_policy_fields.html.erb, app/views/admin/organisations/_url.html.erb, app/views/admin/policies/_country_fields.html.erb, app/views/admin/policies/_minister_fields.html.erb, app/views/admin/policies/_nation_fields.html.erb, app/views/admin/policies/_organisation_fields.html.erb, app/views/admin/policies/_policy_team_fields.html.erb, app/views/admin/policies/_topic_fields.html.erb, app/views/admin/publications/_attachment_fields.html.erb, app/views/admin/publications/_country_fields.html.erb, app/views/admin/publications/_minister_fields.html.erb, app/views/admin/publications/_nation_fields.html.erb, app/views/admin/publications/_organisation_fields.html.erb, app/views/admin/publications/_related_policy_fields.html.erb, app/views/admin/publications/_standard_elements.html.erb, app/views/admin/specialist_guides/_organisation_fields.html.erb, app/views/admin/specialist_guides/_topic_fields.html.erb, app/views/admin/speeches/_country_fields.html.erb, app/views/admin/speeches/_first_published_at.html.erb, app/views/admin/speeches/_related_policy_fields.html.erb]","33","2.319 seconds","false","10","1","[app/controllers/admin/consultations_controller.rb, app/controllers/admin/editions_controller.rb, app/controllers/admin/international_priorities_controller.rb, app/controllers/admin/news_articles_controller.rb, app/controllers/admin/policies_controller.rb, app/controllers/admin/publications_controller.rb, app/controllers/admin/specialist_guides_controller.rb, app/controllers/admin/speeches_controller.rb, app/controllers/admin/topics_controller.rb, app/controllers/topics_controller.rb]","[app/controllers/admin/edition_organisations_controller.rb]","2","[app/controllers/admin/organisations_controller.rb, app/controllers/organisations_controller.rb]","0.41666666671874997"
"4259","[18-06-2012]","1","3","[dfaf840a1d1cc1dc8f68c328eba4cccd570ce039, 385ee09601316bc82a5a8d72ca0cd96eee2fbfb7, c867137eb7455ff18254e7a999b892a477d7dbc4]","1","5","1","1","[app/controllers/organisations_controller.rb]","[app/controllers/topics_controller.rb]","0.0","0.0","3.1.3","0","[]","0","0","[]","[build, create, page, all, records_from_elements, sort_by, assert_equal, specialist_guides, begin_drafting_document, select, click_button, record_css_selector, has_css?]","","[]","","0","0.323 seconds","false","1","1","[app/controllers/organisations_controller.rb]","[app/controllers/topics_controller.rb]","0","[]","0"
"4260","[18-06-2012]","1","2","[f26b64029bb51366d66ba8e494369efe55fc9b52, f7878a9f152abf18a190142ee8d94387e9d17be4]","1","5","0","0","[]","[]","0.0","0.0","3.1.3","1","[]","0","1","[app/helpers/admin/edition_routes_helper.rb]","[create, page, has_css?, refute, record_css_selector]","","[]","","0","0.262 seconds","false","0","0","[]","[]","0","[]","0"
"4280","[14-06-2012]","2","2","[b0e99e3163e47bcaaf37459b8d3752a17747e88d, 4a332e3befecb84509f7c97479993b7ca025700f]","1","0","9","0","[app/controllers/admin/consultations_controller.rb, app/controllers/admin/editions_controller.rb, app/controllers/admin/international_priorities_controller.rb, app/controllers/admin/news_articles_controller.rb, app/controllers/admin/policies_controller.rb, app/controllers/admin/publications_controller.rb, app/controllers/admin/specialist_guides_controller.rb, app/controllers/admin/speeches_controller.rb, app/controllers/admin/topics_controller.rb]","[]","0.0","0.0","3.1.3","1","[]","0","25","[app/controllers/admin/consultations_controller.rb, app/controllers/admin/editions_controller.rb, app/controllers/admin/international_priorities_controller.rb, app/controllers/admin/news_articles_controller.rb, app/controllers/admin/policies_controller.rb, app/controllers/admin/publications_controller.rb, app/controllers/admin/specialist_guides_controller.rb, app/controllers/admin/speeches_controller.rb, app/controllers/admin/topics_controller.rb, app/helpers/admin/edition_routes_helper.rb, app/helpers/public_document_routes_helper.rb, app/models/edition/featurable.rb, app/models/topic.rb, app/views/admin/consultations/_edition.html.erb, app/views/admin/consultations/_form.html.erb, app/views/admin/editions/index.html.erb, app/views/admin/international_priorities/_form.html.erb, app/views/admin/news_articles/_form.html.erb, app/views/admin/policies/_form.html.erb, app/views/admin/publications/_edition.html.erb, app/views/admin/publications/_form.html.erb, app/views/admin/specialist_guides/_form.html.erb, app/views/admin/speeches/_form.html.erb, app/views/documents/_attachment_meta.html.erb, app/views/documents/_attachments.html.erb]","[hashes, create, each, captures, raise, select, click_button, merge, fill_in, click_link, record_css_selector, has_css?]","","[]","[app/views/admin/consultations/_attachment_fields.html.erb, app/views/admin/consultations/_authors.html.erb, app/views/admin/consultations/_minister_fields.html.erb, app/views/admin/consultations/_nation_fields.html.erb, app/views/admin/consultations/_organisation_fields.html.erb, app/views/admin/consultations/_related_policy_fields.html.erb, app/views/admin/consultations/_standard_elements.html.erb, app/views/admin/international_priorities/_country_fields.html.erb, app/views/admin/international_priorities/_organisation_fields.html.erb, app/views/admin/news_articles/_country_fields.html.erb, app/views/admin/news_articles/_first_published_at.html.erb, app/views/admin/news_articles/_minister_fields.html.erb, app/views/admin/news_articles/_organisation_fields.html.erb, app/views/admin/news_articles/_related_policy_fields.html.erb, app/views/admin/policies/_country_fields.html.erb, app/views/admin/policies/_minister_fields.html.erb, app/views/admin/policies/_nation_fields.html.erb, app/views/admin/policies/_organisation_fields.html.erb, app/views/admin/policies/_topic_fields.html.erb, app/views/admin/publications/_attachment_fields.html.erb, app/views/admin/publications/_authors.html.erb, app/views/admin/publications/_country_fields.html.erb, app/views/admin/publications/_minister_fields.html.erb, app/views/admin/publications/_nation_fields.html.erb, app/views/admin/publications/_organisation_fields.html.erb, app/views/admin/publications/_related_policy_fields.html.erb, app/views/admin/publications/_standard_elements.html.erb, app/views/admin/specialist_guides/_organisation_fields.html.erb, app/views/admin/specialist_guides/_related_policy_fields.html.erb, app/views/admin/speeches/_country_fields.html.erb, app/views/admin/speeches/_first_published_at.html.erb, app/views/admin/speeches/_related_policy_fields.html.erb]","32","1.241 seconds","false","9","0","[app/controllers/admin/consultations_controller.rb, app/controllers/admin/editions_controller.rb, app/controllers/admin/international_priorities_controller.rb, app/controllers/admin/news_articles_controller.rb, app/controllers/admin/policies_controller.rb, app/controllers/admin/publications_controller.rb, app/controllers/admin/specialist_guides_controller.rb, app/controllers/admin/speeches_controller.rb, app/controllers/admin/topics_controller.rb]","[]","0","[]","0"
"4305","[13-06-2012]","1","5","[0dbffdba4e9a2b8c5907e1659640db73209e07fd, 62235e3e013708365a70f66f91c4561a953c426b, ef0e891f9de7e778dad00ae4b5b2c3c779696ec5, 7301745ac509c49b9fa931c810c4c569210e710f, 07a9628b9f00e4c55b85568c031709ae669fdb77]","1","1","0","3","[]","[app/controllers/admin/policy_topics_controller.rb, app/controllers/people_controller.rb, app/controllers/policy_topics_controller.rb]","0.0","0.0","3.1.3","1","[{path=alphagov_whitehall/features/step_definitions/person_steps.rb, line=-1}]","0","0","[]","[create, ago, page, has_css?, captures, raise, record_css_selector]","","[lib/whitehall/presenters/collection.rb, lib/whitehall/presenters/object.rb]","","0","0.252 seconds","false","0","3","[]","[app/controllers/admin/policy_topics_controller.rb, app/controllers/people_controller.rb, app/controllers/policy_topics_controller.rb]","0","[]","0"
"4332","[11-06-2012]","1","4","[17d0814c67d80a2d71427a1b363191cdb6cf7d11, 60b7a225bc74a6d1e57b0cc8044ebd844b2b6132, 8b5a6639e44b64167083395f4ffe36bc9a73f927, 96dc94577333dc1e26cc120602e7ecab4709d918]","1","2","1","1","[app/controllers/admin/organisations_controller.rb]","[app/controllers/admin/organisations_controller.rb]","1.0","1.0","3.1.3","2","[]","0","7","[app/controllers/admin/organisations_controller.rb, app/helpers/admin/edition_routes_helper.rb, app/views/admin/editions/_govspeak_help.html.erb, app/views/admin/organisations/_contacts_form.html.erb, app/views/admin/organisations/_form.html.erb, app/views/admin/organisations/_sidebar.html.erb, app/views/admin/organisations/edit.html.erb]","[create, click_button, refute, find_by_title]","","[]","[admin_ssociation]","1","0.766 seconds","false","0","0","[]","[]","1","[app/controllers/admin/organisations_controller.rb]","1.0"
"4360","[06-06-2012]","1","4","[32a330101461b134ee8b4289b60c2640a6a4e588, e88716fecd7d4a6efa39cc2f3c7117f83e6b77b9, c1cb90b181416789f3342dbd3599fc6ef3471a0d, 117205004e305a36b5e3c6ce0c54a85f93c579f8]","1","1","7","1","[app/controllers/admin/consultations_controller.rb, app/controllers/admin/editions_controller.rb, app/controllers/admin/international_priorities_controller.rb, app/controllers/admin/news_articles_controller.rb, app/controllers/admin/policies_controller.rb, app/controllers/admin/publications_controller.rb, app/controllers/admin/speeches_controller.rb]","[app/controllers/admin/edition_workflow_controller.rb]","0.0","0.0","3.1.3","5","[]","0","20","[app/controllers/admin/consultations_controller.rb, app/controllers/admin/editions_controller.rb, app/controllers/admin/international_priorities_controller.rb, app/controllers/admin/news_articles_controller.rb, app/controllers/admin/policies_controller.rb, app/controllers/admin/publications_controller.rb, app/controllers/admin/speeches_controller.rb, app/helpers/admin/edition_routes_helper.rb, app/helpers/public_document_routes_helper.rb, app/views/admin/consultations/_edition.html.erb, app/views/admin/consultations/_form.html.erb, app/views/admin/editions/index.html.erb, app/views/admin/international_priorities/_form.html.erb, app/views/admin/news_articles/_form.html.erb, app/views/admin/policies/_form.html.erb, app/views/admin/publications/_edition.html.erb, app/views/admin/publications/_form.html.erb, app/views/admin/speeches/_form.html.erb, app/views/documents/_attachment_meta.html.erb, app/views/documents/_attachments.html.erb]","[click_button, merge, fill_in, click_link, find_by_title, has_css?, refute, create, click_link, click_button, page, record_css_selector, has_css?, has_no_css?, create]","","[]","[app/views/admin/consultations/_attachment_fields.html.erb, app/views/admin/consultations/_authors.html.erb, app/views/admin/consultations/_minister_fields.html.erb, app/views/admin/consultations/_nation_fields.html.erb, app/views/admin/consultations/_organisation_fields.html.erb, app/views/admin/consultations/_related_policy_fields.html.erb, app/views/admin/consultations/_standard_elements.html.erb, app/views/admin/international_priorities/_country_fields.html.erb, app/views/admin/international_priorities/_organisation_fields.html.erb, app/views/admin/news_articles/_country_fields.html.erb, app/views/admin/news_articles/_first_published_at.html.erb, app/views/admin/news_articles/_minister_fields.html.erb, app/views/admin/news_articles/_organisation_fields.html.erb, app/views/admin/news_articles/_related_policy_fields.html.erb, app/views/admin/policies/_country_fields.html.erb, app/views/admin/policies/_minister_fields.html.erb, app/views/admin/policies/_nation_fields.html.erb, app/views/admin/policies/_organisation_fields.html.erb, app/views/admin/policies/_policy_topic_fields.html.erb, app/views/admin/publications/_attachment_fields.html.erb, app/views/admin/publications/_authors.html.erb, app/views/admin/publications/_country_fields.html.erb, app/views/admin/publications/_minister_fields.html.erb, app/views/admin/publications/_nation_fields.html.erb, app/views/admin/publications/_organisation_fields.html.erb, app/views/admin/publications/_related_policy_fields.html.erb, app/views/admin/publications/_standard_elements.html.erb, app/views/admin/speeches/_country_fields.html.erb, app/views/admin/speeches/_first_published_at.html.erb, app/views/admin/speeches/_related_policy_fields.html.erb]","30","2.802 seconds","false","7","1","[app/controllers/admin/consultations_controller.rb, app/controllers/admin/editions_controller.rb, app/controllers/admin/international_priorities_controller.rb, app/controllers/admin/news_articles_controller.rb, app/controllers/admin/policies_controller.rb, app/controllers/admin/publications_controller.rb, app/controllers/admin/speeches_controller.rb]","[app/controllers/admin/edition_workflow_controller.rb]","0","[]","0"
"4376","[01-06-2012]","1","1","[49f70b30b47507bd75f5dbcb7fc07bf005818ed3]","1","3","0","1","[]","[app/controllers/people_controller.rb]","0.0","0.0","3.1.3","2","[{path=alphagov_whitehall/features/step_definitions/person_steps.rb, line=-1}]","0","0","[]","[create, ago, page, has_css?, biography, captures, raise, record_css_selector]","","[]","","0","0.241 seconds","false","0","1","[]","[app/controllers/people_controller.rb]","0","[]","0"
"4408","[31-05-2012]","1","1","[e063e663d6b72f33f9bc3d7a1f505afd2aa354c0]","1","1","7","0","[app/controllers/admin/consultations_controller.rb, app/controllers/admin/editions_controller.rb, app/controllers/admin/international_priorities_controller.rb, app/controllers/admin/news_articles_controller.rb, app/controllers/admin/policies_controller.rb, app/controllers/admin/publications_controller.rb, app/controllers/admin/speeches_controller.rb]","[]","0.0","0.0","3.1.3","2","[]","0","20","[app/controllers/admin/consultations_controller.rb, app/controllers/admin/editions_controller.rb, app/controllers/admin/international_priorities_controller.rb, app/controllers/admin/news_articles_controller.rb, app/controllers/admin/policies_controller.rb, app/controllers/admin/publications_controller.rb, app/controllers/admin/speeches_controller.rb, app/helpers/admin/edition_routes_helper.rb, app/helpers/public_document_routes_helper.rb, app/views/admin/consultations/_edition.html.erb, app/views/admin/consultations/_form.html.erb, app/views/admin/editions/index.html.erb, app/views/admin/international_priorities/_form.html.erb, app/views/admin/news_articles/_form.html.erb, app/views/admin/policies/_form.html.erb, app/views/admin/publications/_edition.html.erb, app/views/admin/publications/_form.html.erb, app/views/admin/speeches/_form.html.erb, app/views/documents/_attachment_meta.html.erb, app/views/documents/_attachments.html.erb]","[create, click_link, click_link, click_button, record_css_selector, has_css?]","","[]","[app/views/admin/consultations/_attachment_fields.html.erb, app/views/admin/consultations/_authors.html.erb, app/views/admin/consultations/_minister_fields.html.erb, app/views/admin/consultations/_nation_fields.html.erb, app/views/admin/consultations/_organisation_fields.html.erb, app/views/admin/consultations/_related_policy_fields.html.erb, app/views/admin/consultations/_standard_elements.html.erb, app/views/admin/international_priorities/_country_fields.html.erb, app/views/admin/international_priorities/_organisation_fields.html.erb, app/views/admin/news_articles/_country_fields.html.erb, app/views/admin/news_articles/_first_published_at.html.erb, app/views/admin/news_articles/_minister_fields.html.erb, app/views/admin/news_articles/_organisation_fields.html.erb, app/views/admin/news_articles/_related_policy_fields.html.erb, app/views/admin/policies/_country_fields.html.erb, app/views/admin/policies/_minister_fields.html.erb, app/views/admin/policies/_nation_fields.html.erb, app/views/admin/policies/_organisation_fields.html.erb, app/views/admin/policies/_policy_topic_fields.html.erb, app/views/admin/publications/_attachment_fields.html.erb, app/views/admin/publications/_authors.html.erb, app/views/admin/publications/_country_fields.html.erb, app/views/admin/publications/_minister_fields.html.erb, app/views/admin/publications/_nation_fields.html.erb, app/views/admin/publications/_organisation_fields.html.erb, app/views/admin/publications/_related_policy_fields.html.erb, app/views/admin/publications/_standard_elements.html.erb, app/views/admin/speeches/_country_fields.html.erb, app/views/admin/speeches/_first_published_at.html.erb, app/views/admin/speeches/_related_policy_fields.html.erb]","30","1.030 seconds","false","7","0","[app/controllers/admin/consultations_controller.rb, app/controllers/admin/editions_controller.rb, app/controllers/admin/international_priorities_controller.rb, app/controllers/admin/news_articles_controller.rb, app/controllers/admin/policies_controller.rb, app/controllers/admin/publications_controller.rb, app/controllers/admin/speeches_controller.rb]","[]","0","[]","0"
"4437","[30-05-2012]","1","1","[005adc7edc999fac9a3b4f74609ac0d5c21a8298]","1","0","2","1","[app/controllers/admin/consultations_controller.rb, app/controllers/consultations_controller.rb]","[app/controllers/consultations_controller.rb]","0.5","1.0","3.1.3","1","[]","0","4","[app/controllers/admin/consultations_controller.rb, app/controllers/consultations_controller.rb, app/helpers/public_document_routes_helper.rb, app/views/consultations/index.html.erb]","[to_i, create, times, featured_consultations_selector, to_i, has_css?]","","[]","","0","0.450 seconds","false","1","0","[app/controllers/admin/consultations_controller.rb]","[]","1","[app/controllers/consultations_controller.rb]","0.8333333333333333"
"4441","[30-05-2012]","1","1","[3738ac8c902a41bf6458bccc9f8acca747b0b1e0]","1","1","2","1","[app/controllers/admin/publications_controller.rb, app/controllers/publications_controller.rb]","[app/controllers/publications_controller.rb]","0.5","1.0","3.1.3","2","[]","0","4","[app/controllers/admin/publications_controller.rb, app/controllers/publications_controller.rb, app/helpers/public_document_routes_helper.rb, app/views/publications/index.html.erb]","[build, create, click_link, find_by_title!, record_css_selector, has_css?, refute, attachments, summary, publication_date]","","[app/views/publications/_all_publications.html.erb, app/views/publications/_publication.html.erb]","[/]","1","0.596 seconds","false","1","0","[app/controllers/admin/publications_controller.rb]","[]","1","[app/controllers/publications_controller.rb]","0.8333333333333333"
