"Repository","https://github.com/gleneivey/wontomedia.git"
"TASK","HASH","RUBY","RAILS","COVERAGE","TESTS"
"34","1a7aad1b94a5cb358b0240455d1994f84aee7c08","","","","features/stories/static/class_selection_in_items_pages.feature(7);features/stories/static/class_selection_in_items_pages.feature(29);features/stories/static/class_selection_in_items_pages.feature(39);features/stories/static/class_selection_in_items_pages.feature(48);features/stories/static/class_selection_in_items_pages.feature(63);features/stories/static/class_selection_in_items_pages.feature(76)"
"36","43cac5327e43e4c743b04d732354209800e051b2","","","","features/stories/dynamic/items_create_required_fields.feature(29);features/stories/static/class_selection_in_items_pages.feature(7);features/stories/static/class_selection_in_items_pages.feature(29);features/stories/static/class_selection_in_items_pages.feature(39);features/stories/static/class_selection_in_items_pages.feature(45);features/stories/static/class_selection_in_items_pages.feature(54);features/stories/static/class_selection_in_items_pages.feature(69);features/stories/static/class_selection_in_items_pages.feature(82);features/stories/static/items_create_pages.feature(6)"
"42","1617a32eb6d007893b84bcae562d576f9a278d87","","","","features/stories/dynamic/connections_create_item_create.feature(68);features/stories/dynamic/connections_create_item_info.feature(14);features/stories/dynamic/connections_create_required.feature(28);features/stories/dynamic/connections_create_required.feature(96);features/stories/dynamic/connections_create_required.feature(188);features/stories/dynamic/connections_create_required.feature(207);features/stories/static/connections_create_pages.feature(6);features/stories/static/connections_create_pages.feature(19);features/stories/static/connections_create_pages.feature(32);features/stories/static/connections_create_pages.feature(45);features/stories/static/connections_create_pages.feature(57);features/stories/static/connections_create_pages.feature(69);features/stories/static/connections_create_pages.feature(81);features/stories/static/connections_create_pages.feature(93);features/stories/static/connections_create_pages.feature(105);features/stories/static/connections_create_pages.feature(121);features/stories/static/connections_create_pages.feature(132);features/stories/static/connections_create_pages.feature(143)"
"48","4439ba28230a15b60dc75fe37cfc388a107c7b29","","","","features/stories/static/items_indexes.feature(37)"
"53","061a7be264ce06b281e9b75124eddb0d35e7d258","","","","features/stories/static/items_indexes.feature(37)"
"59","562d57a236e6ff60a232fb93295e12e5883e2544","","","","features/stories/static/items_update_pages.feature(65)"
"60","2919146f5acc237ff80b27da184f7ff824045bce","","","","features/stories/static/connections_backup_restore.feature(7);features/stories/static/items_backup_restore.feature(7);features/stories/static/items_update_pages.feature(42);features/stories/static/items_update_pages.feature(58);features/stories/static/items_update_pages.feature(65)"
