"Repository","https://github.com/gleneivey/wontomedia.git"
"Tasks with empty IReal","0"
"Tasks with no-empty IReal","8"
"Tasks with relevant AST error","0"
"Tasks with AST error of Gherkin files","0"
"Tasks with AST error of StepDef files","0"
"Tasks with AST error of production files","0"
"Tasks with AST error of unit test files","0"
"Tasks with step match error","0"
"Tasks without required gems","0"
"Tasks with changed stepdef","3"
"Tasks with changed Gherkin","8"
"Tasks with implemented Gherkin scenarios","8"
"All invalid tasks","0"
"All valid tasks (Gherkin scenario, no empty IReal, no error)","8"
"Valid tasks, but empty ITest","1"
"Valid tasks, no empty ITest, but zero precision-recall","4"
"Valid tasks, no empty ITest, no zero precision-recall","3"
"Project","Task","Date","#Days","#Commits","Commit_Message","#Devs","#Gherkin_Tests","#Impl_Gherkin_Tests","#StepDef","#Impl_StepDef","Methods_Unknown_Type","#Step_Call","Step_Match_Errors","#Step_Match_Error","AST_Errors","#AST_Errors","Gherkin_AST_Errors","#Gherkin_AST_Errors","Steps_AST_Errors","#Steps_AST_Errors","Renamed_Files","Deleted_Files","NotFound_Views","#Views","#TestI","#TaskI","TestI","TaskI","Precision","Recall","Hashes","Timestamp","Rails","Gems","#Visit_Call","Lost_visit_call","#Views_ITest","#Code_View_Analysis","Code_View_Analysis","Has_Merge","F2","#Multiple_Step_Matches","Multiple_Step_Matches","#Generic_Step_Keyword","Generic_Step_Keyword"
"wontomedia","33","[19-03-2010, 20-03-2010]","2","9","[Implemented view portions of class_item/sti_type URL parameters. , Implemented controller portions of URL parameters for specifying class_item and/or sti_type of new item being created.  Also renamed the parameter for the popup new-item form from :type to :popup_type to be clearer. , Have mapping of class items to their required types per class_item_type_is, items new/edit pages auto-select (and protect) Type based on class. , Implemented core_tasks.  Moved more from most_populous into items controller so it could be shared between both partials. , Refactored last. , New module for lower-right column on home page:  Most Used (Classes). , Display class select controller drop-down with sorted content. , Random fixes & cleanup: item_controller_test was broken by changes in fixtures.  db/fixtures/connections.yml and features/stories/dynamic/... ...items_create_required_fields.feature had type-o's mismatching other files.  Fixed up Rake/Cucumber bits to better run features from the comman [TOO_LONG]","1","2","2","0","0","[nil?, selenium, get_eval, oct, sub!, fill_in, oct, sub!, fill_in, select, response, contain, assert_contain, nil?, click_button, selenium, key_press_native, focus, selenium, is_element_present, get_eval]","0","","0","","0","","0","","0","","[]","[/w/:id/]","1","0","13","[]","[app/controllers/items_controller.rb, app/helpers/format_helper.rb, app/helpers/items_helper.rb, app/models/item.rb, app/views/items/_class_select.html.erb, app/views/items/_core_tasks.html.erb, app/views/items/_form_fields.html.erb, app/views/items/_most_populous_classes.html.erb, app/views/items/_type_select.html.erb, app/views/items/edit.html.erb, app/views/items/new.html.erb, app/views/items/newpop.html.erb, lib/helpers/item_helper.rb]","0.0","0.0","[643785e446281f2630c56c3d4ff06a70d2ccf467, 72a4ee191ebf437d93f6f082c5bf4aa8563cc4e3, 8d75087e4bd7f2ba1cd43037af00fdef59f6986d, 0ff3e15813ab551dbc794c70a3e4f7e2ed9bbef6, 23f037f82382625a42e1a685228d6aab90c167d2, e33d3dead5e2cd5a5eddac1bb897044a127a3d23, cd0e59cc05e52f22a2e9be485c894487cc38ae26, b5517cfdf47b5c3a9edd6498548bde3ba1f53458, a5a784c37e6f59ff2879f14adad89508f927f57c]","3.368 seconds","","[]","2","[]","0","0","[]","false","0.0","0","","0",""
"wontomedia","34","[19-03-2010]","1","3","[Finished implementation of basic item class handling in views. , More aliases for silly Rails naming scheme. , Finished implementing item.class_item support in controller's CRUD operations. ]","1","6","6","0","0","[to_i, save, times, nil?, selenium, get_eval, nil?, selenium, get_eval, id, id, title, name, description, select, select, response, contain, assert_contain, response_body, assert_match, assert_not_contain, oct, sub!, fill_in, click_button, webrat, inner_text, to_i, length]","0","","0","","0","","0","","0","","[]","[/w/:id/, /w/connections/, /w/connections/0, /w/connections/0/, /w/connections/:id/, /w/items/0/, /w/items/:id/, item_by_name]","8","24","12","[app/controllers/connections_controller.rb, app/controllers/items_controller.rb, app/models/connection.rb, app/models/item.rb, app/views/connections/_index_outbound_links.html.erb, app/views/connections/_spo_select_controls.html.erb, app/views/connections/index.html.erb, app/views/connections/new.html.erb, app/views/items/_active_content.html.erb, app/views/items/_class_select.html.erb, app/views/items/_content_examples.html.erb, app/views/items/_core_tasks.html.erb, app/views/items/_form_fields.html.erb, app/views/items/_list_outbound_links.html.erb, app/views/items/_screen_select.html.erb, app/views/items/_show_outbound_links.html.erb, app/views/items/_topic_list.html.erb, app/views/items/_type_select.html.erb, app/views/items/edit.html.erb, app/views/items/index.html.erb, app/views/items/new.html.erb, app/views/items/newpop.html.erb, app/views/items/show.html.erb, lib/helpers/item_helper.rb]","[app/controllers/items_controller.rb, app/models/item.rb, app/views/items/_class_select.html.erb, app/views/items/_form_fields.html.erb, app/views/items/_type_select.html.erb, app/views/items/edit.html.erb, app/views/items/index.html.erb, app/views/items/new.html.erb, app/views/items/newpop.html.erb, app/views/items/show.html.erb, app/views/layouts/base.html.erb, lib/helpers/item_helper.rb]","0.4583333333","0.9166666667","[1a7aad1b94a5cb358b0240455d1994f84aee7c08, 2342ef1bb23c83970f106df3b7423290ccbaf412, a35039b8027c0f5325a401049afc9c25e9bb74f0]","19.615 seconds","","[]","18","[]","19","21","[app/controllers/connections_controller.rb, app/controllers/items_controller.rb, app/views/connections/_index_outbound_links.html.erb, app/views/connections/_spo_select_controls.html.erb, app/views/connections/index.html.erb, app/views/connections/new.html.erb, app/views/items/_active_content.html.erb, app/views/items/_class_select.html.erb, app/views/items/_content_examples.html.erb, app/views/items/_core_tasks.html.erb, app/views/items/_form_fields.html.erb, app/views/items/_list_outbound_links.html.erb, app/views/items/_screen_select.html.erb, app/views/items/_show_outbound_links.html.erb, app/views/items/_topic_list.html.erb, app/views/items/_type_select.html.erb, app/views/items/edit.html.erb, app/views/items/index.html.erb, app/views/items/new.html.erb, app/views/items/newpop.html.erb, app/views/items/show.html.erb]","false","0.7638888888888888","0","","0",""
"wontomedia","36","[18-03-2010]","1","4","[Ooops--fixing white-space problems. , Implemented .class_item simulated property for Item model.  Controller's ""update"" action (for item creation) passes its unit tests with just the model improvements.  (Changes to home-page view test necessary because expansion of fixture data has pushed the item whose presence we were testing for off of the home page, and new target items was needed.) , And controller provides class list to pop-up ""new"" form. , Implemented Items controller providing a list of classes in items/new page. ]","1","9","9","1","1","[nil?, selenium, get_eval, id, nil?, id, title, name, description, click_button, key_press_native, focus, selenium, is_element_present, get_eval, to_i, save, times, to_i, save, times, select, select, response, contain, assert_contain, response_body, assert_match, assert_not_contain, oct, sub!, fill_in, oct, sub!, fill_in]","0","","0","","0","","0","","0","","[]","[/w/:id/, /w/connections/, /w/connections/0, /w/connections/0/, /w/connections/:id/, /w/items/0/, /w/items/:id/, item_by_name]","8","23","2","[app/controllers/connections_controller.rb, app/controllers/items_controller.rb, app/models/connection.rb, app/models/item.rb, app/views/connections/_index_outbound_links.html.erb, app/views/connections/_spo_select_controls.html.erb, app/views/connections/index.html.erb, app/views/connections/new.html.erb, app/views/items/_active_content.html.erb, app/views/items/_content_examples.html.erb, app/views/items/_core_tasks.html.erb, app/views/items/_form_fields.html.erb, app/views/items/_list_outbound_links.html.erb, app/views/items/_screen_select.html.erb, app/views/items/_show_outbound_links.html.erb, app/views/items/_topic_list.html.erb, app/views/items/_type_select.html.erb, app/views/items/edit.html.erb, app/views/items/index.html.erb, app/views/items/new.html.erb, app/views/items/newpop.html.erb, app/views/items/show.html.erb, lib/helpers/item_helper.rb]","[app/controllers/items_controller.rb, app/models/item.rb]","0.0869565217","1.0","[43cac5327e43e4c743b04d732354209800e051b2, 4f1a89df281a38454c471e0ab4a2906a6fff609b, 4de49a2f941d89dc78ba690e1b5f690a01553b23, 1d56ac5760fa002a654ac5faa45e1e1af1e30aa4]","8.981 seconds","","[]","22","[]","18","20","[app/controllers/connections_controller.rb, app/controllers/items_controller.rb, app/views/connections/_index_outbound_links.html.erb, app/views/connections/_spo_select_controls.html.erb, app/views/connections/index.html.erb, app/views/connections/new.html.erb, app/views/items/_active_content.html.erb, app/views/items/_content_examples.html.erb, app/views/items/_core_tasks.html.erb, app/views/items/_form_fields.html.erb, app/views/items/_list_outbound_links.html.erb, app/views/items/_screen_select.html.erb, app/views/items/_show_outbound_links.html.erb, app/views/items/_topic_list.html.erb, app/views/items/_type_select.html.erb, app/views/items/edit.html.erb, app/views/items/index.html.erb, app/views/items/new.html.erb, app/views/items/newpop.html.erb, app/views/items/show.html.erb]","false","0.32258064505359","0","","0",""
"wontomedia","42","[15-03-2010, 16-03-2010]","2","8","[Completed scalar-object connection implementation:  client-side behavior (JavaScript), styling changes, and supporting changes. , Additions to tests for connection display in items/show.  (All necessary code had been written just to get tests to run without existing cases failing earlier on.) , Finished (Ruby) work on Connections views to support scalar objects.  Still have to update the client-side error checks in JavaScript and deal with enabled/disabled states of controls. , Implemented connection-object-is-scalar handling in Connections controller. Mostly new test cases, plus tweaks in associated files.  Did very rudimentary updates in views to get controller test to run cleanly, but real view work is next. , Implemented basic model handling for scalar-object'ed Connections. , Updating fixtures (deployment bulit-in data and test data) for new db schema. , Cleanup after last commit.  (Oh, yeah, migrations need copyright notices too...) , Adding new columns to allow Connections wit [TOO_LONG]","1","18","18","4","4","[nil?, selenium, get_eval, select, select, choose, choose, response, contain, assert_contain, selenium, key_press_native, focus, selenium, is_element_present, get_eval, to_i, assert_have_selector, nil?, wait_for_ajax, oct, sub!, fill_in, oct, sub!, fill_in, nil?, click_button, click_link, webrat, response_body, inner_text, length, to_i, save, times]","0","","0","","0","","0","","0","","[]","[/w/:id/]","1","3","10","[app/models/connection.rb, app/models/item.rb, lib/helpers/item_helper.rb]","[app/controllers/admin_controller.rb, app/controllers/connections_controller.rb, app/controllers/items_controller.rb, app/models/connection.rb, app/views/connections/_spo_select_controls.html.erb, app/views/connections/edit.html.erb, app/views/connections/index.html.erb, app/views/connections/show.html.erb, app/views/items/show.html.erb, lib/helpers/connection_helper.rb]","0.3333333333","0.1","[1617a32eb6d007893b84bcae562d576f9a278d87, e872403e53d8967f65e4a7b157fde43c1a1704a7, e913be57c09c26fabdeda7c0baa539608c0a8438, 9f99066c6095437e19232a028789cfa4ccb9f166, 7888a100539b66c8da5056aa96eea2ddd47bf06c, 682a0ad1f13b4fc7a8b0c3e32fa407f705ebea82, c7d21469ce99709c0c025d858138d8362649bc79, 01735da63c3edee2ed22efe91e4f1ad16a5432e9]","2.054 seconds","","[]","2","[]","0","0","[]","false","0.11627906976663062","0","","0",""
"wontomedia","48","[14-03-2010]","1","2","[Implied connections listed in items/show now have 'View source' links that point to connections/show page for source ""implying"" connection. , Moved page fetches out of unnecessary loops. ]","1","1","1","0","0","[to_i, save, times, nil?, id, to_xpath, webrat, response_body, document, xpath, inner_text, to_i, length]","0","","0","","0","","0","","0","","[]","[/w/items/, /w/items/0, /w/items/0/, /w/items/:id/]","4","3","3","[app/models/connection.rb, app/models/item.rb, lib/helpers/item_helper.rb]","[app/controllers/items_controller.rb, app/helpers/connections_helper.rb, app/views/items/show.html.erb]","0.0","0.0","[4439ba28230a15b60dc75fe37cfc388a107c7b29, d08aa1a6ef6e52ca0cc415b0c5ada06aab573e5e]","0.742 seconds","","[]","4","[]","0","0","[]","false","0.0","0","","0",""
"wontomedia","53","[14-03-2010]","1","1","[Listing of implied connections in items/show:  Controller changes done and initial acceptance test passes.  More work to do on view (distinguishing implied from ""real"" connections). ]","1","1","1","0","0","[to_i, save, times, nil?, id, webrat, response_body, inner_text, to_i, length]","0","","0","","0","","0","","0","","[]","[/w/items/, /w/items/0, /w/items/0/, /w/items/:id/]","4","3","3","[app/models/connection.rb, app/models/item.rb, lib/helpers/item_helper.rb]","[app/controllers/items_controller.rb, app/views/items/show.html.erb, lib/helpers/tripple_navigation.rb]","0.0","0.0","[061a7be264ce06b281e9b75124eddb0d35e7d258]","0.568 seconds","","[]","4","[]","0","0","[]","false","0.0","0","","0",""
"wontomedia","59","[11-03-2010]","1","1","[Implemented pretty routes.  Items/show and items/edit now available at /[item.name]  All internally-generated URLs now use the pretty format.  Tests updated to match. ]","1","1","1","0","0","[to_i, save, times, nil?, selenium, get_eval, assert_have_selector, assert_have_no_selector, sub!]","0","","0","","0","","0","","0","","[]","[/w/:id/]","1","2","9","[app/models/item.rb, lib/helpers/item_helper.rb]","[app/controllers/items_controller.rb, app/helpers/items_helper.rb, app/views/connections/index.html.erb, app/views/connections/show.html.erb, app/views/items/_content_examples.html.erb, app/views/items/_show_outbound_links.html.erb, app/views/items/edit.html.erb, app/views/items/index.html.erb, app/views/items/show.html.erb]","0.0","0.0","[562d57a236e6ff60a232fb93295e12e5883e2544]","0.330 seconds","","[]","2","[]","0","0","[]","false","0.0","0","","0",""
"wontomedia","60","[11-03-2010]","1","1","[Moved RESTful routes under URL prefix ""/w/"", and added 301 redirects for old URLs.  Changed routing and routing unit test.  Added ""redirect_routing"" plugin to provide 301s.  Updated robots.txt and comments to match new paths.  Updated all hard-coded URLs in tests to include new prefix. ]","1","5","5","5","5","[to_i, save, times, nil?, assert_have_selector, assert_have_no_selector, webrat, response_body, to_i, sub!, length, selenium, get_eval, id, nil?, id, title, description, click_link, selenium, click, get_confirmation, response, contain, assert_contain]","0","","0","","0","","0","","0","","[]","[/w/:id/, /w/connections/, /w/connections/0, /w/connections/0/, /w/connections/:id/, /w/items/, /w/items/0, /w/items/0/, /w/items/:id/]","9","23","1","[app/controllers/connections_controller.rb, app/controllers/items_controller.rb, app/models/connection.rb, app/models/item.rb, app/views/connections/_index_outbound_links.html.erb, app/views/connections/_spo_select_controls.html.erb, app/views/connections/index.html.erb, app/views/connections/new.html.erb, app/views/items/_active_content.html.erb, app/views/items/_content_examples.html.erb, app/views/items/_core_tasks.html.erb, app/views/items/_form_fields.html.erb, app/views/items/_list_outbound_links.html.erb, app/views/items/_screen_select.html.erb, app/views/items/_show_outbound_links.html.erb, app/views/items/_topic_list.html.erb, app/views/items/_type_select.html.erb, app/views/items/edit.html.erb, app/views/items/index.html.erb, app/views/items/new.html.erb, app/views/items/newpop.html.erb, app/views/items/show.html.erb, lib/helpers/item_helper.rb]","[app/controllers/admin_controller.rb]","0.0","0.0","[2919146f5acc237ff80b27da184f7ff824045bce]","8.528 seconds","","[]","23","[]","18","20","[app/controllers/connections_controller.rb, app/controllers/items_controller.rb, app/views/connections/_index_outbound_links.html.erb, app/views/connections/_spo_select_controls.html.erb, app/views/connections/index.html.erb, app/views/connections/new.html.erb, app/views/items/_active_content.html.erb, app/views/items/_content_examples.html.erb, app/views/items/_core_tasks.html.erb, app/views/items/_form_fields.html.erb, app/views/items/_list_outbound_links.html.erb, app/views/items/_screen_select.html.erb, app/views/items/_show_outbound_links.html.erb, app/views/items/_topic_list.html.erb, app/views/items/_type_select.html.erb, app/views/items/edit.html.erb, app/views/items/index.html.erb, app/views/items/new.html.erb, app/views/items/newpop.html.erb, app/views/items/show.html.erb]","false","0.0","0","","0",""
