[path:/features/step_definitions/web_steps.rb, methods:[284, 362, 366, 256, 20, 108, 129, 391, 40, 77, 383, 216, 508, 516, 461, 264, 395, 196, 71, 83, 247, 274, 409, 437, 452, 480, 491, [name:with_scope, step:Given ], [name:with_scope, step:Then ]]]
[path:/features/support/paths.rb, methods:[[name:path_to, step:Then ]]]
[path:/test/factories/page_template.rb, methods:[[name:find_or_create_by, step:Given ]]]
