"Repository","https://github.com/newscloud/n2.git"
"Precision mean (RT)","0.0"
"Precision median (RT)","0.0"
"Precision standard deviation (RT)","0.0"
"Recall mean (RT)","0.0"
"Recall median (RT)","0.0"
"Recall standard deviation (RT)","0.0"
"F2 mean (RT)","0.0"
"F2 median (RT)","0.0"
"F2 standard deviation (RT)","0.0"
"Correlation #Test-Precision","null"
"Correlation #Test-Recall","null"
"Task","Dates","#Devs","#Commits","Hashes","#Gherkin_Tests","#Sted_defs","#TestI","#TaskI","TestI","TaskI","Precision","Recall","Rails","#visit_call","Lost_visit_call","#Views_TestI","#Code_View_Analysis","Code_View_Analysis","Methods_Unknown_Type","Renamed_Files","Deleted_Files","NotFound_Views","#NotFound_Views","Timestamp","Has_Merge","#FP","#FN","FP","FN","#Hits","Hits","f2"
"278","[17-01-2011]","1","1","[874c212cacf6e5c9bfda158630458b51a464d176]","6","62","1","2","[app/controllers/sessions_controller.rb]","[app/controllers/admin/widgets_controller.rb, app/controllers/galleries_controller.rb]","0.0","0.0","2.3.4","8","[]","0","2","[app/controllers/sessions_controller.rb, app/views/sessions/new.html.erb]","[capture_model, capture_fields, create_model, capture_plural_factory, to_i, times, create_models_from_table, capture_model, capture_fields, find_model!, find_model, be_nil, capture_plural_factory, find_models_from_table, be_any, find_models, to_i, model!, send, include, capture_predicate, gsub, capture_value, model, to_f, eql, eval, click_button, click_link, fill_in, rows_hash, each, select, check, uncheck, choose, attach_file, require, response, body, page, have_content, has_content?, have_xpath, has_xpath?, have_no_content, has_no_content?, have_no_xpath, has_no_xpath?, find_field, tag_name, text, assert_match, assert_no_match, be_true, be_false, current_url, path, assert_equal, query, rows_hash, each_pair, within, raise, have_selector, have_no_selector, model, title, pending, hashes, all, select, have, things, each, nil?, to_i, all, count, rand, gallery_items, count, has_selector?, create_model!, login, password, capture_model, created_model!, login, password, fill_in, click_button, have_at_least, reload]","","[]","[edit_polymorphic, polymorphic, send]","3","35.851 seconds","false","1","2","[app/controllers/sessions_controller.rb]","[app/controllers/admin/widgets_controller.rb, app/controllers/galleries_controller.rb]","0","[]","0"
