[path:/features/step_definitions/comment_steps.rb, methods:[0, 4]]
[path:/features/step_definitions/custom_web_steps.rb, methods:[96, 38, 54, 46, 6, 74, 130, 42, 171]]
[path:/features/step_definitions/session_steps.rb, methods:[34, 49]]
[path:/features/step_definitions/user_steps.rb, methods:[26, 72, 149, 19, 78, 50, 55]]
[path:/features/step_definitions/web_steps.rb, methods:[18, 108, 40, 26, 129, 34, 22, 196, [name:with_scope, step:When ], [name:with_scope, step:Then ]]]
[path:/features/support/paths.rb, methods:[[name:path_to, step:Then ]]]
