"Repository","https://github.com/otwcode/otwarchive.git"
"TASK","HASH","RUBY","RAILS","COVERAGE","TESTS"
"2516","70321cc0b7aa7b839bf806d61c4b1441abaef3b2","","3.0.4","","features/collection_static.feature(4)"
"2524","6dae1fe0d7b173afdec2af4d395967420baa6c68","","3.0.4","","features/challenge_giftexchange.feature(172);features/challenge_promptmeme.feature(36);features/challenge_promptmeme.feature(46);features/challenge_promptmeme.feature(244);features/challenge_promptmeme.feature(257);features/challenge_promptmeme.feature(302);features/challenge_promptmeme.feature(616);features/challenge_promptmeme.feature(635);features/challenge_promptmeme.feature(651);features/challenge_promptmeme.feature(671)"
"2525","b00766dd5900c91c02ace2e09629f5c14b7661a3","","3.0.4","","features/profile_edit.feature(92)"
"2534","01b217610cf6077de6acbcee6690d8f6350ef30d","","3.0.4","","features/challenge_promptmeme.feature(229);features/challenge_promptmeme.feature(242);features/challenge_promptmeme.feature(275);features/challenge_promptmeme.feature(493);features/challenge_promptmeme.feature(512);features/challenge_promptmeme.feature(715);features/challenge_promptmeme.feature(726);features/challenge_promptmeme.feature(757);features/challenge_promptmeme.feature(771);features/challenge_promptmeme.feature(837);features/challenge_promptmeme.feature(875);features/challenge_promptmeme.feature(913);features/series.feature(193);features/series.feature(201)"
"2538","6d58f895694b818c271a86a69c10405f58ae7c98","","3.0.4","","features/challenge_promptmeme.feature(229);features/challenge_promptmeme.feature(242);features/challenge_promptmeme.feature(336);features/challenge_promptmeme.feature(679)"
"2539","92c04256c77036b39479935e69eae059a00e990e","","3.0.4","","features/challenge_promptmeme.feature(229);features/challenge_promptmeme.feature(242);features/challenge_promptmeme.feature(293);features/challenge_promptmeme.feature(405);features/challenge_promptmeme.feature(426);features/challenge_promptmeme.feature(569);features/challenge_promptmeme.feature(684);features/challenge_promptmeme.feature(748);features/challenge_promptmeme.feature(770);features/challenge_promptmeme.feature(788);features/challenge_promptmeme.feature(809);features/challenge_promptmeme.feature(823);features/challenge_promptmeme.feature(833);features/challenge_promptmeme.feature(848);features/challenge_promptmeme.feature(869);features/challenge_promptmeme.feature(883);features/challenge_promptmeme.feature(899);features/challenge_promptmeme.feature(923);features/challenge_promptmeme.feature(938);features/challenge_promptmeme.feature(953);features/challenge_promptmeme.feature(970);features/challenge_promptmeme.feature(991);features/abuse_report.feature(6);features/abuse_report.feature(22);features/abuse_report.feature(30);features/abuse_report.feature(45);features/abuse_report.feature(60);features/abuse_report.feature(76);features/abuse_report.feature(91);features/support.feature(6);features/support.feature(31);features/support.feature(45);features/tag_comment.feature(6);features/tag_comment.feature(18);features/tag_comment.feature(37);features/tag_comment.feature(50);features/tag_comment.feature(67);features/tag_comment.feature(80);features/add_comment.feature(7);features/add_comment.feature(18)"
"2546","a353bf9a620eb82b9de10d16743f16a5af3f8232","","3.0.4","","features/preferences_edit.feature(7);features/profile_edit.feature(34);features/profile_edit.feature(49)"
"2547","ab5d5f3f4c59d745fd0eec984361386235125d85","","3.0.4","","features/work_create.feature(306)"
"2549","4bc088fd34dc5679bd2e195c47f3c7375edf647f","","3.0.4","","features/admin_tasks.feature(250)"
"2557","3aae119fc5141b765242b2e398628ca00f202fb5","","3.0.4","","features/subscriptions.feature(54)"
"2560","055d213341f26ada2f1649c0e44234e30774e9ff","","3.0.4","","features/banner_general.feature(11);features/banner_general.feature(17);features/banner_general.feature(25);features/banner_general.feature(34);features/banner_general.feature(49);features/banner_general.feature(57);features/banner_general.feature(76);features/banner_general.feature(82);features/banner_login.feature(4);features/banner_login.feature(10);features/banner_login.feature(17);features/banner_login.feature(25);features/banner_login.feature(37);features/banner_login.feature(44);features/banner_login.feature(55);features/banner_login.feature(62)"
"2575","abea2636725351f383b4ba80bf81b361d088f8c0","","3.0.4","","features/challenge_promptmeme.feature(252);features/challenge_promptmeme.feature(262)"
"2576","18dab6e4bc01b97029514674222c50df378b3479","","3.0.4","","features/challenge_promptmeme.feature(262);features/challenge_promptmeme.feature(273);features/challenge_promptmeme.feature(283);features/challenge_promptmeme.feature(292);features/challenge_promptmeme.feature(553)"
"2577","87a2e15248c85f0a62575f02cdcd878858d423d6","","3.0.4","","features/challenge_promptmeme.feature(229);features/challenge_promptmeme.feature(242);features/challenge_promptmeme.feature(256)"
"2578","2490f030f706b43c6ac2d193b3eeccc6f7e2dfe8","","3.0.4","","features/banner_general.feature(43)"
"2579","6451af00962422dd1440ac53a650aea738b02fe6","","3.0.4","","features/challenge_promptmeme.feature(66);features/challenge_promptmeme.feature(132);features/challenge_promptmeme.feature(229);features/challenge_promptmeme_unlimited.feature(44)"
"2580","29d80033f490531e6df4508c40943039811ec093","","3.0.4","","features/challenge_promptmeme.feature(132);features/challenge_promptmeme.feature(229);features/challenge_promptmeme_unlimited.feature(44)"
"2584","bda4637e5552fe19391430eb6744b2bb1587d5b2","","3.0.4","","features/challenge_promptmeme.feature(132);features/challenge_promptmeme.feature(229);features/challenge_promptmeme_unlimited.feature(44)"
"2587","71d924d4fb09f413da8e432068aa3609e2813f92","","3.0.4","","features/work_import_lj.feature(137)"
"2590","cc232c22d8289bbb14dfdb9de2014306799b4f83","","3.0.4","","features/challenge_giftexchange.feature(216);features/challenge_giftexchange.feature(229);features/challenge_promptmeme.feature(249);features/challenge_promptmeme.feature(355);features/challenge_promptmeme.feature(395);features/challenge_promptmeme.feature(444);features/challenge_promptmeme.feature(472)"
"2593","e82b10e3ee5121b849f3a1bbd82d06ae3264938f","","3.0.4","","features/challenge_promptmeme.feature(143);features/challenge_promptmeme.feature(150);features/challenge_promptmeme.feature(159);features/challenge_promptmeme.feature(295);features/challenge_promptmeme.feature(304)"
"2594","c472881eaab6876ad3457ebb631b0558c23c8d9c","","3.0.4","","features/challenge_giftexchange.feature(193);features/challenge_giftexchange.feature(203);features/challenge_promptmeme.feature(182);features/challenge_promptmeme.feature(190)"
"2598","0806e723d50150b4fd37ee6a1fda0caa62533b18","","3.0.4","","features/challenge_promptmeme_unlimited.feature(7);features/challenge_promptmeme_unlimited.feature(44);features/tag_wrangling.feature(4);features/tag_wrangling.feature(194);features/challenge_promptmeme.feature(152);features/challenge_promptmeme.feature(371);features/challenge_promptmeme.feature(414);features/autocomplete.feature(5);features/autocomplete.feature(12);features/autocomplete.feature(18);features/autocomplete.feature(25);features/autocomplete.feature(34);features/autocomplete.feature(43);features/work_create.feature(67);features/work_create.feature(261);features/tag_wrangling_characters.feature(5);features/tag_wrangling_fandoms.feature(5);features/tag_wrangling_freeforms.feature(5);features/tag_wrangling_relationships.feature(5);features/work_delete.feature(64);features/work_languages.feature(8)"
"2602","565a676e3e527b0cdd32b529aa6a32e8e361580a","","3.0.4","","features/chapter_edit.feature(172)"
"2603","ade24036c99ddfce4cfbb22611428827480ab6ca","","3.0.4","","features/collection_create.feature(93);features/collection_create.feature(105)"
