[path:/features/step_definitions/challenge_steps.rb, methods:[80, 101, 534, 333, 608, 655, 663, 562, 576, 119, 558]]
[path:/features/step_definitions/email_steps.rb, methods:[12, 16]]
[path:/features/step_definitions/generic_steps.rb, methods:[84, 127, 96]]
[path:/features/step_definitions/user_steps.rb, methods:[46]]
[path:/features/step_definitions/web_steps.rb, methods:[22, 32, 106, 137, 18, 26, 75, [name:with_scope, step:When ], [name:with_scope, step:Then ]]]
[path:/features/step_definitions/work_steps.rb, methods:[152, 81, 132, 88]]
