"Repository","https://github.com/otwcode/otwarchive.git"
"TASK","HASH","RUBY","RAILS","COVERAGE","TESTS"
"1382","09b8d68cd76405b529d548462348aeffc87fc462","1.9.3","3.2.13","","features/other/reading.feature(82);features/other/reading.feature(106);features/other/reading.feature(119)"
"1401","a973359a88f73ebd00c4d972a64f8f4f669f3ebc","1.9.3","3.2.13","","features/works/work_create.feature(315)"
"1412","ec79d8faec0d21c9b9b2fcc28487186b031dee06","1.9.3","3.2.13","","features/other/series.feature(7);features/other/series.feature(93);features/other/series.feature(182);features/other/kudos.feature(16);features/other/kudos.feature(55);features/other/kudos.feature(69);features/other/kudos.feature(107);features/collections/collectible.feature(47);features/other/bookmark_privacy.feature(7);features/users/user_delete.feature(74);features/works/work_edit.feature(7)"
"1418","3ad2bcd79a279b242cffb7eb32706d28742c5262","1.9.3","3.2.13","","features/works/work_edit_tags.feature(34)"
"1419","a4847d84bca362893bcbcd5d976354fcee9e952d","1.9.3","3.2.13","","features/other/invite_queue.feature(24)"
"1438","3b37bc07f5b6633113ed52217bbb0d967bad6a2b","1.9.3","3.2.13","","features/users/user_dashboard.feature(70);features/collections/collection_dashboard.feature(7)"
"1444","9746f1e9882fc0fed2c3700ac87171e68a4eb7c0","1.9.3","3.2.13","","features/works/work_create.feature(323)"
"1462","320fe184e3d3076add4841e800b86b8a98673dc3","1.9.3","3.2.13","","features/tags_and_wrangling/tag_comment.feature(183);features/tags_and_wrangling/tag_comment.feature(199)"
"1478","d70d87c45dca5226bdc21dd87e6518f08ed85f6b","1.9.3","3.2.13","","features/other/skin.feature(313);features/other/skin.feature(323)"
"1481","03bf0e23d36b26c03a7f3c4fd4dd8d82e544f981","1.9.3","3.2.13","","features/tags_and_wrangling/tag_comment.feature(68);features/tags_and_wrangling/tag_comment.feature(89);features/tags_and_wrangling/tag_comment.feature(169)"
"1494","75e9af5df45e27053ab4c576666d17c46bde54e0","1.9.3","3.2.13","","features/other/skin.feature(288);features/other/skin.feature(297)"
"1499","957c7de0ddb7f71970ee7c5b73905dfc50816a40","1.9.3","3.2.13","","features/works/chapter_edit.feature(7);features/works/chapter_edit.feature(256);features/works/chapter_edit.feature(279);features/works/work_dates_edit.feature(7);features/works/work_edit.feature(7);features/works/work_edit.feature(77);features/works/work_edit.feature(112)"
"1501","d759f186f511d7edaa15395acfa128163f79b24e","1.9.3","3.2.13","","features/tags_and_wrangling/tag_wrangling_unsorted.feature(5)"
"1502","35ca8a9db21a38662556520c2dffd3055c696d98","1.9.3","3.2.13","","features/works/work_edit.feature(77)"
"1520","10b56b881102fb8851315b3ca240edded835b9f5","","3.0.20","","features/challenges/challenge_promptmeme.feature(1387)"
"1524","9ef8cab748ab7ca44b93ed4d3532db13a66ea566","1.9.3","3.2.13","","features/works/chapter_edit.feature(229);features/works/work_drafts.feature(11);features/works/work_drafts.feature(92)"
"1526","e8da1039b6f2b3553f366c2be7619e24e41b3897","","3.0.20","","features/other/autocomplete.feature(43)"
"1534","f4ecb609a4c61d31beaff929eddcb0ac3cde52db","1.9.3","3.2.13","","features/collections/icon.feature(4);features/collections/icon.feature(12);features/collections/icon.feature(20)"
