"Repository","https://github.com/moneyadviceservice/wpcc.git"
"Tasks with empty IReal","0"
"Tasks with no-empty IReal","19"
"Tasks with relevant AST error","0"
"Tasks with AST error of Gherkin files","0"
"Tasks with AST error of StepDef files","0"
"Tasks with AST error of production files","0"
"Tasks with AST error of unit test files","0"
"Tasks with step match error","0"
"Tasks without required gems","0"
"Tasks with changed stepdef","17"
"Tasks with changed Gherkin","19"
"Tasks with implemented Gherkin scenarios","19"
"All invalid tasks","0"
"All valid tasks (Gherkin scenario, no empty IReal, no error)","19"
"Valid tasks, but empty ITest","0"
"Valid tasks, no empty ITest, but zero precision-recall","12"
"Valid tasks, no empty ITest, no zero precision-recall","7"
"Project","Task","Date","#Days","#Commits","Commit_Message","#Devs","#Gherkin_Tests","#Impl_Gherkin_Tests","#StepDef","#Impl_StepDef","Methods_Unknown_Type","#Step_Call","Step_Match_Errors","#Step_Match_Error","AST_Errors","#AST_Errors","Gherkin_AST_Errors","#Gherkin_AST_Errors","Steps_AST_Errors","#Steps_AST_Errors","Renamed_Files","Deleted_Files","NotFound_Views","#Views","#TestI","#TaskI","TestI","TaskI","Precision","Recall","Hashes","Timestamp","Rails","Gems","#Visit_Call","Lost_visit_call","#Views_ITest","#Code_View_Analysis","Code_View_Analysis","Has_Merge","F2","#Multiple_Step_Matches","Multiple_Step_Matches","#Generic_Step_Keyword","Generic_Step_Keyword"
"wpcc","5","[23-02-2018]","1","5","[Removes employeeTip & employerTip from js, as this logic is handled by message presenter , General renaming in spec descriptions , Rename translations , Rename data-wpcc hooks , Rename js variables and functions ]","1","1","1","0","0","[your_details_page, your_details_page, full_contribution_button, set, your_contributions_page, contributions_description, have_content, page, html, your_details_page, age, set, genders, select, salary, salary_frequencies, minimum_contribution_button, next_button, click, page, html]","6","","0","","0","","0","","0","","[]","","0","1","2","[app/models/wpcc/config_loader.rb]","[app/presenters/wpcc/message_presenter.rb, app/views/wpcc/your_details/new.html.erb]","0.0","0.0","[1bb20d13f27858ebf72649a385e4eeffa633e3f7, 01d7a75051c27badd85803368249536bd63f7430, 5f7979ec4fe73a56d7e9ce7f4cf2779165451760, adb8f00c685809218de7c204e245467fde745a43, d60a2811bba6aa9dd923510e7601720234b61889]","1.599 seconds","4.2.7","[cucumber-rails, rspec-rails, simplecov]","0","[]","0","0","[]","false","0.0","0","","0",""
"wpcc","9","[24-10-2017, 25-10-2017, 26-10-2017, 20-11-2017, 22-11-2017, 23-11-2017, 27-11-2017, 05-12-2017, 08-12-2017, 12-12-2017, 13-12-2017, 15-12-2017, 02-01-2018, 18-01-2018]","87","41","[Merge pull request #189 from moneyadviceservice/8446-store-app-specific-settings  Bump to 1.14.0, Bump to 1.14.0 , Merge pull request #186 from moneyadviceservice/8446-store-app-specific-settings  [DEV APPROVED] 8446 store app specific settings, Convert Javascript opt in salary thresholds to use a yml file.  The Dough convention for loading components, e.g data-dough-component=SalaryConditions, is: the html attribute called 'data-dough' PLUS the name of the component PLUS 'config' (e.g data-dough-salary-conditions-config).  Dough then parses the object and stores the data in the config variable, which is the second argument of the initialise function.  Because the javascript and backend format the salary_threshold data differently, it is necessary to convert the backend format to the format required by the js.  Prior to this change, the JS 'optInTriggers' variable was on local scope of the salary conditions file. Now it is an attribute of the object salary conditions which necessitat [TOO_LONG]","5","10","10","2","2","[your_details_page, your_details_page, next_button, click, page, html, your_contributions_page, have_content, to_not, raw, flatten, your_results_page, percent_table_headings, text, eq, table_cells, age, set, genders, select, salary, set, salary, salary_frequencies, select, send, minimum_contribution_button]","125","","0","","0","","0","","0","","[app/concerns/wpcc/salary_threshold.rb, app/views/wpcc/shared/_beta_warning.html.erb, app/views/wpcc/tooltips/_close.html.erb, app/views/wpcc/tooltips/_content_qualifying_earnings.html.erb, app/views/wpcc/tooltips/_trigger.html.erb]","","0","1","20","[app/models/wpcc/config_loader.rb]","[app/filters/wpcc/session_expirer.rb, app/models/wpcc/config_loader.rb, app/models/wpcc/contribution_calculator.rb, app/models/wpcc/period_contribution_calculator.rb, app/models/wpcc/period_filter.rb, app/models/wpcc/salary_frequency_converter.rb, app/models/wpcc/salary_message.rb, app/models/wpcc/your_details_form.rb, app/presenters/wpcc/message_presenter.rb, app/validators/wpcc/salary_threshold_validator.rb, app/views/layouts/wpcc/engine.html.erb, app/views/wpcc/shared/_your_contributions.html.erb, app/views/wpcc/shared/_your_details.html.erb, app/views/wpcc/your_contributions/new.html.erb, app/views/wpcc/your_details/new.html.erb, app/views/wpcc/your_results/_contributions_table.html.erb, app/views/wpcc/your_results/_frequency_selector_form.html.erb, app/views/wpcc/your_results/_period_percents_table.html.erb, app/views/wpcc/your_results/index.html.erb, lib/wpcc/version.rb]","1.0","0.05","[ab2de95398d41ebbf88d3fda9815ed0864ea1948, 558944c585496386f2fa9c197af326addf6cd5aa, 2c3d57b42fa5701a99110bdeb43ce1db07e48c2a, b12850f5887cf9f8c88b22248e6fd21bc0b21030, a6e6c437389ca7d8d7fd60bea052fbda1c12efd8, 5e301bd917e03e0287743a0478ac44bbe3b0a8bb, 4d447f1acae0b12e702d1fb8910be6380034b000, 1f178c8e5d903e888cb5fb0abfe6f434634e83ec, 62418d419ff4a7ca632219a9889c3b36ca963acf, 8733619863fbc619086e4c74c0e499d1819ffee6, d1915fb0a60cb11ae865702ab6a883b8e1d57072, 4719d43c97df9893e109ceed1c045738fd72d2ce, c8dd5cb714c5365f80de81873665e1cc29e8f81e, 1e25270872940b46ff9a75b174c3215f3fe145e8, 6f6c08a96c0100a5ce108a02c6f55376d0e86c8b, 42108d55a1f5190d765c09c3f2b1e385814b5731, 28367ca57aa094f2c173ba3788f883e8bfec98e1, 5753c024849dd1c76722ff522ea9dd65f1b53f5f, 84f76864dfd0aaef766a964331b3e7d12a8190ba, 685121f74c2c75671adac960ee5e2cc20c440e10, 06b8d9bf4b880afb57034ca9c424f1dc15f928e6, ce951e05ca357b030e0bf24f3034bb7e14ce93bf, ea3dfa13d686cb2340d482012afd328e36d45228, 37c4dd0988f5042889451b734bb0cd28f0ca884e, f7ee697557a761070026d7fca9ca3eb9081a9bed, 449bcfb96d0cd0d37e36c81c3581e9c5535b63f5, 481d27c93c8e8d97461479690b83ceb0e1206863, 84a534eb5ee231d01dd01a87d1bc564d33e7f076, 16d2483bd1cfd4c05210eddaaff23a5501705957, d1ebd388f39e12f9f30fc4bf07e6f098dfb00799, cfc0b5955305fa3694fa88235b0a80eec793e0c8, 3b591865b6bfd7a23504da3b31a96e52ce78e194, 874227a7d89bec4afafb4f931f36cdae63962abc, b29f803248e776392e684ac77638400f540d825c, 673f7deca8be4fd66cda618ac718174bef80b0ca, 1a7ba17ed8307f3e40bd2b849a17cf3a5c3e4194, 42151de3b8f5c1633b0d100fda150dfbdf25bdc5, 4952a92c533578c67ec9c4773e3e4fc293861b82, d2600d38f57f7afcaccf72b2091925e93c974ff3, 4424e8f546691068718701416eb71e51eac92c4a, 36e28598bf5cdd330ea84dd28f266a8bb8410fb9]","1.006 seconds","4.2.7","[cucumber-rails, rspec-rails, simplecov]","0","[]","0","0","[]","true","0.0617283950617284","0","","0",""
"wpcc","13","[06-10-2017, 09-10-2017, 11-10-2017, 12-10-2017]","7","15","[Merge pull request #163 from moneyadviceservice/8611_Beta-tag_Text-change  [DEV APPROVED] TP: 8611, Comment: Updates text in Beta tag, TP: 8611, Comment: Updates text in Beta tag , Merge pull request #155 from moneyadviceservice/8605-employer-percent  [DEV APPROVED] 8605 - Incorrect employer percent, update version , update tests to catch original bug , pass annual salary , Merge pull request #162 from moneyadviceservice/bump_up  bump version to 1.11.6, bump version to 1.11.6 , Add build step to jenkins (#160)  * add build step to Jenkins  * bump release version , Merge pull request #161 from moneyadviceservice/bump_version  bump to 1.11.5, bump to 1.11.5 , Merge pull request #158 from moneyadviceservice/8591-auto-enrol-quirky-thresholds  [DEV APPROVED] 8591 Amend values that trigger the Manual Opt In message, js for new triggers , Refactor salary_message to define constants more consistently  * update cukes for new yml file stuff , Manual-opt-in message is triggered by values which  [TOO_LONG]","3","4","4","4","4","[your_details_page, your_details_page, next_button, click, page, html, your_contributions_page, set, your_contributions_page, next_button, click, your_contributions_page, have_content, to_not, page, html, your_results_page, salary_frequencies, select, recalculate_button, click, age, genders, select, salary, set, salary, salary_frequencies, select, send, minimum_contribution_button, next_button, click, current_period, text, eq, has_no_second_period?, second_period, third_period]","58","","0","","0","","0","","0","","[]","","0","6","5","[app/models/wpcc/contribution_calculator.rb, app/models/wpcc/full_contribution_calculator.rb, app/models/wpcc/minimum_contribution_calculator.rb, app/models/wpcc/period_contribution_calculator.rb, app/models/wpcc/your_contributions_form.rb, app/presenters/wpcc/period_presenter.rb]","[app/controllers/wpcc/your_results_controller.rb, app/models/wpcc/contributions_calendar.rb, app/models/wpcc/salary_frequency_converter.rb, app/models/wpcc/salary_message.rb, lib/wpcc/version.rb]","0.0","0.0","[4f1794375ba8e5396905c4a17753aab5daf82ad8, 402e3f740fe33486d16364aa63bbfbd73503a5c9, 1fa7f7681b8599cac6ddfbe278e3837f6e1f0745, 2e383c0baad72410e764cb366bb091796e73259d, 4196b8776da4c317d1916c4c17476c8bc94369bc, b0d4ee3c38a61a4389ed4590a7b8697dcfecb386, 864cecafdb2240668599d606eba6e4ededb2a666, c0e8ba72cf5cf9aeed98b67b4cdd44e639fd74ed, 77283aca28304cd7ed0d08fc4fce44bc87aebeb7, 25528621a15bb953c4983f56ea50ff95eecc375a, 55d5fdb268fe1b3e297141683941d9c1232256c1, e8f70859dc1038d4a62ac4a8cbd8ea2c69bfc74c, ffd061d0ecdf64e18cff65d1f8ccf3758754a80d, 4dc50b87d8bd604b8cd722e196fb5f418fdf326b, 44379fc333b85250c73ef58246c3f5660aef43ff]","0.688 seconds","4.2.7","[cucumber-rails, rspec-rails, simplecov]","0","[]","0","0","[]","true","0.0","0","","0",""
"wpcc","15","[29-09-2017, 02-10-2017]","4","2","[Merge pull request #154 from moneyadviceservice/8601-increasing-employer-contributions  [DEV APPROVED] - 8601 increasing employer contributions, use salary not qualifying earnings to determine employer_contribution_percent ]","1","6","6","2","2","[your_details_page, age, set, genders, select, salary, salary_frequencies, send, hashes, page, html, your_contributions_page, your_contributions_page, next_button, click, page, html, your_results_page, salary_frequencies, select, recalculate_button, your_results_page, have_select, current_period, text, eq, has_no_second_period?, second_period, third_period, transpose, raw, next_button, click]","104","","0","","0","","0","","0","","[]","","0","7","3","[app/models/wpcc/contribution_calculator.rb, app/models/wpcc/full_contribution_calculator.rb, app/models/wpcc/minimum_contribution_calculator.rb, app/models/wpcc/period_contribution_calculator.rb, app/models/wpcc/salary_message.rb, app/models/wpcc/your_contributions_form.rb, app/presenters/wpcc/period_presenter.rb]","[app/controllers/wpcc/your_results_controller.rb, app/models/wpcc/contributions_calendar.rb, app/models/wpcc/period.rb]","0.0","0.0","[83fa770c332e3746647894d699ff0d30c02105b1, e259c2befa0b96f0ec61a3aea568fc124fb69dbe]","1.259 seconds","4.2.7","[cucumber-rails, rspec-rails, simplecov]","0","[]","0","0","[]","true","0.0","0","","0",""
"wpcc","18","[08-09-2017]","1","1","[determine if employee_contributions are above the amount for which tax relief is applicable  * new method in SalaryMessage to make this check * method in messagePresenter which gets the translation text using the max amount * correct figure to pass to the translation * move your_contributions markup in your_results view into a partial ]","1","1","1","3","3","[your_details_page, your_contributions_page, next_button, click, page, have_content, your_details_page, age, set, genders, select, salary, salary_frequencies, send]","27","","0","","0","","0","","0","","[]","","0","5","7","[app/models/wpcc/contribution_calculator.rb, app/models/wpcc/full_contribution_calculator.rb, app/models/wpcc/minimum_contribution_calculator.rb, app/models/wpcc/your_contributions_form.rb, app/presenters/wpcc/period_presenter.rb]","[app/controllers/wpcc/your_contributions_controller.rb, app/controllers/wpcc/your_results_controller.rb, app/models/wpcc/salary_message.rb, app/presenters/wpcc/message_presenter.rb, app/views/wpcc/shared/_your_contributions.html.erb, app/views/wpcc/your_contributions/new.html.erb, app/views/wpcc/your_results/index.html.erb]","0.0","0.0","[1ad93cc9c9cdf342d86b3be1eafa8d75dbe18cc3]","0.151 seconds","4.2.7","[cucumber-rails, rspec-rails, simplecov]","0","[]","0","0","[]","false","0.0","0","","0",""
"wpcc","32","[29-08-2017]","1","1","[link for clearing inputs ]","1","1","1","2","2","[your_details_page, form, be_visible, age, be_nil, genders, eq, salary, salary_frequencies, minimum_contribution_button, be_truthy, your_results_page, reset_calculator_link, click, your_details_page, age, set, genders, select, salary, salary_frequencies, minimum_contribution_button, next_button, click, your_contributions_page]","12","","0","","0","","0","","0","","[]","","0","5","3","[app/models/wpcc/contribution_calculator.rb, app/models/wpcc/full_contribution_calculator.rb, app/models/wpcc/minimum_contribution_calculator.rb, app/models/wpcc/your_contributions_form.rb, app/presenters/wpcc/period_presenter.rb]","[app/controllers/wpcc/your_details_controller.rb, app/filters/wpcc/session_resetter.rb, app/views/wpcc/your_results/index.html.erb]","0.0","0.0","[a84913cf93c311aeafde9996e38196bcf69bd003]","0.300 seconds","4.2.7","[cucumber-rails, rspec-rails, simplecov]","0","[]","0","0","[]","false","0.0","0","","0",""
"wpcc","38","[22-08-2017]","1","2","[convert contribution percents to floats not integers , Display messaging based on results table  The tables on step 3 appear based on the % contribution set by the user while completing the tool, depending on the % selected by the user and what is minimum % set by the govt.  In order to accomplish this the Period Filter need to be accessible on the controller because this class was responsible to hold the user contributions with the period percents configration. ]","2","4","4","2","2","[hashes, your_contributions_page, next_button, click, your_contributions_page, eq, your_results_page, description, have_content, your_contributions_page, set, your_details_page, age, genders, select, salary, salary_frequencies, minimum_contribution_button, next_button, click]","9","","0","","0","","0","","0","","[]","","0","5","5","[app/models/wpcc/contribution_calculator.rb, app/models/wpcc/full_contribution_calculator.rb, app/models/wpcc/minimum_contribution_calculator.rb, app/models/wpcc/your_contributions_form.rb, app/presenters/wpcc/period_presenter.rb]","[app/controllers/wpcc/your_results_controller.rb, app/models/wpcc/contributions_calendar.rb, app/models/wpcc/your_contributions_form.rb, app/presenters/wpcc/period_filter_presenter.rb, app/views/wpcc/your_results/index.html.erb]","0.2","0.2","[6ce99eb2e8407f02bf8327e262fa14f4cd831df3, f101be1c70bd330784f440998bbb9ee1ea80e9a7]","0.225 seconds","4.2.7","[cucumber-rails, rspec-rails, simplecov]","0","[]","0","0","[]","false","0.20000000000000004","0","","0",""
"wpcc","40","[22-08-2017]","1","2","[Merge pull request #74 from moneyadviceservice/8439_Step-3_Client-side-updates  TP: 8439, Comment: Dynamically update values on results page, TP: 8439, Comment: Adds component to dynamically update values on results page ]","1","6","6","0","0","[your_results_page, salary_frequencies, select, recalculate_button, click, transpose, raw, your_details_page, your_contributions_page, next_button, your_results_page, current_period, text, eq, has_no_second_period?, second_period, third_period, age, set, genders, select, salary, salary_frequencies, send, next_button, click, your_contributions_page]","19","","0","","0","","0","","0","","[]","","0","6","6","[app/models/wpcc/contribution_calculator.rb, app/models/wpcc/full_contribution_calculator.rb, app/models/wpcc/minimum_contribution_calculator.rb, app/models/wpcc/period_contribution_calculator.rb, app/models/wpcc/your_contributions_form.rb, app/presenters/wpcc/period_presenter.rb]","[app/models/wpcc/period_contribution_calculator.rb, app/presenters/wpcc/period_contribution_presenter.rb, app/presenters/wpcc/presenter.rb, app/views/wpcc/your_results/_contributions_table.html.erb, app/views/wpcc/your_results/_frequency_selector_form.html.erb, app/views/wpcc/your_results/index.html.erb]","0.1666666667","0.1666666667","[ad072dc4aa725a6dc22770d130681633359bfd4c, 6c4952d2a14815be8f73af8aa104ce68c53bb639]","0.270 seconds","4.2.7","[cucumber-rails, rspec-rails, simplecov]","0","[]","0","0","[]","true","0.1666666667","0","","0",""
"wpcc","51","[14-08-2017]","1","3","[Reorganise the calendar -> period filter -> period objects  Make these classes be more cohesive , Refactor results controller to use helper methods.  * The helper methods include wrapping in presenters * The views do not need to pass locals when calling partials , Get all percents for each period and display.  * Additional paritialisation of the results index view. * Use a table in the view instead of divs. It makes for more semantic markup but does require looping thru the periods 3 times instead of once. * Add a presenter for PeriodContributionCalculator.  * Add translations. ]","2","1","1","4","4","[your_details_page, your_contributions_page, set, your_contributions_page, next_button, click, your_results_page, have_legal_contributions_table_link, raw, flatten, percent_table_headings, text, eq, table_cells, hashes, age, genders, select, salary, salary_frequencies, send, minimum_contribution_button, next_button, click]","14","","0","","0","","0","","0","","[app/models/wpcc/legal_period.rb, app/presenters/wpcc/legal_period_presenter.rb, app/presenters/wpcc/period_contribution_calculator_presenter.rb]","","0","5","11","[app/models/wpcc/contribution_calculator.rb, app/models/wpcc/full_contribution_calculator.rb, app/models/wpcc/minimum_contribution_calculator.rb, app/models/wpcc/your_contributions_form.rb, app/presenters/wpcc/period_presenter.rb]","[app/controllers/wpcc/your_results_controller.rb, app/models/wpcc/contributions_calendar.rb, app/models/wpcc/period.rb, app/models/wpcc/period_filter.rb, app/presenters/wpcc/period_contribution_presenter.rb, app/presenters/wpcc/period_presenter.rb, app/presenters/wpcc/presenter.rb, app/views/wpcc/your_results/_contributions_table.html.erb, app/views/wpcc/your_results/_frequency_selector_form.html.erb, app/views/wpcc/your_results/_period_percents_table.html.erb, app/views/wpcc/your_results/index.html.erb]","0.2","0.0909090909","[2f77be2cf73fafb47c3537a223ae0bf0d72626de, 3e06701e148fe58f843c5e481e785dd30f1aa069, 92e85947d29f00f22e42fd964d2f98ad3c34bcd5]","0.196 seconds","4.2.7","[cucumber-rails, rspec-rails, simplecov]","0","[]","0","0","[]","false","0.10204081631736776","0","","0",""
"wpcc","52","[08-08-2017, 09-08-2017]","2","8","[Merge pull request #94 from moneyadviceservice/8445-refactor-cukes  8445 refactor cucumber  ### Refactoring Feature files - Rename `calculating eligible salary` to `calculating qualifying earnings` - Moved language tests into a tagged hook. Now when you want to run welsh tests add an `@welsh` scenario - Stripped back long/verbose/unwieldy scenarios. Now hopefully reads a lot more simple and keeps the focus of the scenario on the the bits that are actually being tested. <hr>  ### Refactoring step definition files - Removed any now unused steps - Any duplicate steps that are worded differently I have got one 'active' step and all others refer to this 'active' step as a nested definition. This means any code changes required only has to be done in one step. ``` When(/^I submit my details$/) do   your_details_page.next_button.click end  When(/^I click the Next button$/) do   step 'I submit my details' end ``` <hr>  - Any steps that are essentially doing multiple steps I have nested. The  [TOO_LONG]","2","20","20","38","38","[your_details_page, your_details_page, age, set, age, set, genders, select, genders, select, salary, your_details_page, salary, set, salary, salary_frequencies, salary_frequencies, send, minimum_contribution_button, full_contribution_button, hashes, next_button, click, page, have_content, your_contributions_page, contributions_description, your_details_page, form, be_visible, have_css, find, eq, within, minimum_contribution_button, be_checked, full_contribution_button, not_to, your_contributions_page, your_contributions_page, your_contributions_page, next_button, click, your_results_page, your_results_page, your_contributions_edit, recalculate_button, your_results_page, have_select, current_period, text, has_no_second_period?, second_period, third_period, to_not, page, have_content, to_not, transpose, raw, send]","87","","0","","0","","0","","0","","[app/views/wpcc/shared/_popup_tip_close.html.erb]","","0","7","5","[app/models/wpcc/contribution_calculator.rb, app/models/wpcc/full_contribution_calculator.rb, app/models/wpcc/minimum_contribution_calculator.rb, app/models/wpcc/period.rb, app/models/wpcc/period_contribution_calculator.rb, app/models/wpcc/your_contributions_form.rb, app/presenters/wpcc/period_contribution_presenter.rb]","[app/views/wpcc/tooltips/_close.html.erb, app/views/wpcc/tooltips/_trigger.html.erb, app/views/wpcc/your_contributions/new.html.erb, app/views/wpcc/your_details/new.html.erb, app/views/wpcc/your_results/index.html.erb]","0.0","0.0","[36df096661517759acc6d577ab33fc7851d8bc82, c38ab4e9ab566c1d9135112a23a6a5becbbc78df, 55278bad81c1599db75544ce9175f846d30f8fc7, 3d7f1cdb23246de6ba52b1db33ea10ae05432723, 0d89db4b0469202f91fb1b06e91cce5a34b0ee5d, d3f630b666cad6269d758477e963f7a18bd32078, 3004900bb5228e75cdccac10b8e50f8996cdddd7, f89a8e37c33bb32ddc747573450ca4f23cb0db2f]","0.431 seconds","4.2.7","[cucumber-rails, rspec-rails, simplecov]","0","[]","0","0","[]","true","0.0","0","","0",""
"wpcc","55","[07-08-2017]","1","4","[Merge pull request #77 from moneyadviceservice/8407-limit-tax-relief  8407 limit tax relief, Makes the steps less ""mechanical"" and more ""business-focus"" like  Before the steps were too mechanical like: ""Given I fill this, Given I select that""  This commit aims to make the steps in a more ""profile"" way like:  ""Given I am a 27 years old male""  And aims to make the steps more focused on what the scenario is about:  ""Given my salary is £4000 per Year on Full contribution"" , Add tax relief limit scenarios by monthly & per 4 weeks , Limit tax relief if user contributing more than 40k per year  I added a salary frequency conversion values to hold the values in one place in case salary frequency is changed/added in the future. ]","1","4","4","3","3","[your_details_page, next_button, click, click_button, transpose, raw, age, set, genders, select, salary, salary_frequencies, send, your_contributions_page, your_results_page, current_period, text, eq, has_no_second_period?, second_period, third_period]","35","","0","","0","","0","","0","","[]","","0","7","2","[app/models/wpcc/contribution_calculator.rb, app/models/wpcc/full_contribution_calculator.rb, app/models/wpcc/minimum_contribution_calculator.rb, app/models/wpcc/period.rb, app/models/wpcc/period_contribution_calculator.rb, app/models/wpcc/your_contributions_form.rb, app/presenters/wpcc/period_contribution_presenter.rb]","[app/models/wpcc/period_contribution_calculator.rb, app/models/wpcc/salary_frequency_converter.rb]","0.1428571429","0.5","[f0f519029dae491dcd57f03c6a3133ea3ed4bb2d, 5696f41a495d10340a8602d246f729797a4a5cdd, c082fbc5671c4610d913775f1a929bc0215aea4e, 676014e5fce15661ca4ba1334b72b9f045ffbec7]","0.156 seconds","4.2.7","[cucumber-rails, rspec-rails, simplecov]","0","[]","0","0","[]","true","0.33333333338000004","0","","0",""
"wpcc","58","[07-08-2017]","1","2","[Use a presenter to summarise your_details , TP: 8469, Comment: Adds checked property to ""part salary"" radio button by default ]","2","1","1","1","1","[your_details_page, your_details_page, next_button, click, age, set, genders, select, salary, send, page, have_content]","0","","0","","0","","0","","0","","[]","","0","1","3","[app/models/wpcc/salary_frequency_converter.rb]","[app/presenters/wpcc/message_presenter.rb, app/views/wpcc/shared/_your_details.html.erb, app/views/wpcc/your_details/new.html.erb]","0.0","0.0","[16ba7e2d532c98a8256b1fd01160180ef8205d6c, d7190dddb248414d3822e2b121c7d22ce86b9de6]","0.115 seconds","4.2.7","[cucumber-rails, rspec-rails, simplecov]","0","[]","0","0","[]","false","0.0","0","","0",""
"wpcc","60","[02-08-2017, 03-08-2017]","2","11","[Merge pull request #83 from moneyadviceservice/hotfix-cucumber-step  Fix broken cucumber step, Fix broken cucumber step , Merge pull request #75 from moneyadviceservice/8214_Step-3_Print-results  [DEV APPROVED] TP: 8214, Comment: Adds ""Print your results"" link to Step 3, TP: 8214, Comment: Adds ""Print your results"" link to Step 3 , Merge pull request #71 from moneyadviceservice/8445-refactor-cukes  8445 - Refactor cucumber, Refactor some Features - Remove redundant steps - Move cucumber steps to specific files  Adjust indents to fit standard  - Fix wording , Fix routes and language for world , Replace scenario outlines with datatables , Reword Features to follow same format with summary , Merge pull request #78 from moneyadviceservice/fixing_missing_welsh  [DEV APPROVED] - This PR updates 2 conditional messages with Welsh translations, This PR updates 2 conditional messages with Welsh translations ]","4","12","12","21","21","[your_details_page, your_details_page, age, set, genders, select, salary, minimum_contribution_button, next_button, click, page, have_content, your_contributions_page, your_results_page, hashes, next_button, click, your_details_page, minimum_contribution_button, be_disabled, full_contribution_button, current_url, your_contributions_page, your_results_page, your_contributions_information, text, eq, your_contributions_page, form, be_visible, edit_link, have_css, find, your_results_page, your_contributions_edit, click_button, transpose, raw, to_not, age, set, genders, select, salary, send, current_period, has_no_second_period?, second_period, third_period]","29","","0","","0","","0","","0","","[]","","0","8","4","[app/models/wpcc/contribution_calculator.rb, app/models/wpcc/full_contribution_calculator.rb, app/models/wpcc/minimum_contribution_calculator.rb, app/models/wpcc/period.rb, app/models/wpcc/period_contribution_calculator.rb, app/models/wpcc/salary_frequency_converter.rb, app/models/wpcc/your_contributions_form.rb, app/presenters/wpcc/period_contribution_presenter.rb]","[app/views/layouts/wpcc/engine.html.erb, app/views/wpcc/shared/_your_details.html.erb, app/views/wpcc/your_results/index.html.erb, lib/wpcc/engine.rb]","0.0","0.0","[9f4f6fe428704e33ecadfb49a4fbd8125a167301, e57d8c49e3721bf6d60e84f261d5d49f3f0f4e72, f2ffa52d6b28b77cc3e34d406007fbfd7902c5fb, e8594b8052926d9e27fec2fe9de80cf4302169f7, d8dc207266e120f0c0e441ab6dbf88e84773ec9c, deb93407c4743e5dc2a2fc7ad3b6e7d91f98f5a8, 5e28c9a5bfcac218399e0be74269e784f1f66b90, 3c1cbf3deb721d93e98717d87742cf3445675e50, 1970f9abb0e394200dda2dab32d2930589cf9ae4, fc300023399aa94cafe682b8b83e0704344338dd, 4517c9fc7079ebe582972df92adb6d984baacac3]","0.307 seconds","4.2.7","[cucumber-rails, rspec-rails, simplecov]","0","[]","0","0","[]","true","0.0","0","","0",""
"wpcc","62","[26-07-2017]","1","5","[Merge pull request #48 from moneyadviceservice/8406-frequency-selector  [DEV APPROVED] 8406 frequency selector, Markup and styling of the frequency selector; also styling for the edit links , Refactor presenters  * abstract the salary frequency options to make it available to all presenters , route and basic form for salary_frequency  * create a route for the form to post to, * amend your_results controller to use form param or session for salary_frequency , salary_frequency feature ]","2","1","1","4","4","[your_details_page, age, set, genders, select, salary, minimum_contribution_button, your_results_page, select, recalculate_button, click, your_results_page, current_period, text, eq, has_no_second_period?, second_period, third_period, next_button, click, your_contributions_page]","3","","0","","0","","0","","0","","[]","","0","3","8","[app/models/wpcc/period_contribution_calculator.rb, app/models/wpcc/salary_frequency_converter.rb, app/presenters/wpcc/period_contribution_presenter.rb]","[app/controllers/wpcc/your_details_controller.rb, app/controllers/wpcc/your_results_controller.rb, app/presenters/wpcc/period_contribution_presenter.rb, app/presenters/wpcc/presenter.rb, app/presenters/wpcc/your_details_form_presenter.rb, app/views/wpcc/shared/_your_details.html.erb, app/views/wpcc/your_results/_frequency_selector_form.html.erb, app/views/wpcc/your_results/index.html.erb]","0.3333333333","0.125","[6e1167c7d19ce12f2e55e62655c3158e76241f08, 93d82d376561967bbe9d3bea9f664b0be650dbbf, 73f1559c2eaa11686c13c468ae233699b7978762, 97dcf5c6ad077c5ebc106719439406ee4bc332c6, d43a1b6d40b9eba0e010f8a4e405ada4d2e3c31a]","0.179 seconds","4.2.7","[cucumber-rails, rspec-rails, simplecov]","0","[]","0","0","[]","true","0.14285714285591836","0","","0",""
"wpcc","69","[20-07-2017]","1","1","[Disables min contribution radio for a given scenario    * creates low salary threshold validator class   * adds page object for checking disabled radio input   * stores salary frequency in yaml file   * adds disabled class into the presenter ]","1","2","2","10","10","[your_details_page, your_details_page, age, set, genders, select, salary, minimum_contribution_button, next_button, click, your_details_page, minimum_contribution_button, be_disabled, full_contribution_button, page, current_url, have_content]","0","","0","","0","","0","","0","","[]","","0","1","7","[app/models/wpcc/salary_frequency_converter.rb]","[app/concerns/wpcc/salary_threshold.rb, app/controllers/wpcc/your_details_controller.rb, app/models/wpcc/your_details_form.rb, app/presenters/wpcc/your_details_form_presenter.rb, app/validators/wpcc/salary_threshold_validator.rb, app/views/wpcc/your_details/new.html.erb, lib/wpcc/engine.rb]","0.0","0.0","[ccf77724c40fe6e2c33ec7e9e5d460cb17575e13]","0.080 seconds","4.2.7","[cucumber-rails, rspec-rails, simplecov]","0","[]","0","0","[]","false","0.0","0","","0",""
"wpcc","73","[17-07-2017, 18-07-2017, 19-07-2017]","3","8","[Make sure the cucumber steps has the right figures  - Skip steps when the app does not render the three period tables , Change contribution calculator to receive salary per year  This enables to calculate using other frequencies as weekly, monthly 4-weekly and yearly too! , Add salary per year calculator  Basically this class will be responsible to receive a salary and a frequency and convert to a yearly salary. , Add cucumber steps for the second & third period results , Move the results logic to a presenter object.  This makes the cucumber pass with the two decimal values on each value of the table , Remove the converter to integer on controller  This method could be handle separated, plus not all the values should be integer since the percents can be a float as well. , Refactor CalculatorDelegator removing unecessary steps  Since the output of this class was the eligible salary and the employee and employer percent, I renamed this class to be YourContributionGenerator.  I removed  [TOO_LONG]","1","1","1","17","17","[your_details_page, age, set, genders, select, salary, send, next_button, click, your_contributions_page, click_button, your_results_page, current_period, text, eq, has_no_second_period?, second_period, third_period]","1","","0","","0","","0","","0","","[app/models/wpcc/calculator_delegator.rb, app/models/wpcc/your_contribution.rb]","","0","7","10","[app/models/wpcc/contribution_calculator.rb, app/models/wpcc/full_contribution_calculator.rb, app/models/wpcc/minimum_contribution_calculator.rb, app/models/wpcc/period_contribution_calculator.rb, app/models/wpcc/salary_frequency_converter.rb, app/models/wpcc/your_contributions_form.rb, app/presenters/wpcc/period_contribution_presenter.rb]","[app/controllers/wpcc/your_contributions_controller.rb, app/models/wpcc/contribution_calculator.rb, app/models/wpcc/full_contribution_calculator.rb, app/models/wpcc/minimum_contribution_calculator.rb, app/models/wpcc/salary_per_year.rb, app/models/wpcc/your_contribution_generator.rb, app/models/wpcc/your_contributions_form.rb, app/presenters/wpcc/period_contribution_presenter.rb, app/views/wpcc/your_contributions/new.html.erb, app/views/wpcc/your_results/index.html.erb]","0.7142857143","0.5","[dd25ec7be647d60351c5e5b0c8dad50ef6d707e5, 8c767078921c3300ad1268ed3f5fe5f427ed0a73, c8f8e734ef7fb77cd97ec4c28e176a11e5d87971, abf2edee4ab36920a8cd1ec038d670a430d71331, 511ac820ae8b3eceba92a768dbc2fb3a9bde92d0, 9501874c5e91996ba146becea33c5407b0c1d44b, 9b98ff49006a381e140f223408f4da2fa7119c81, d019ed6799c399362842f6f210bda083f3122791]","0.242 seconds","4.2.7","[cucumber-rails, rspec-rails, simplecov]","0","[]","0","0","[]","false","0.5319148936186057","0","","0",""
"wpcc","74","[14-07-2017]","1","3","[Merge pull request #43 from moneyadviceservice/8286-bugfix-contribution-information  8286 bugfix contribution information, Remove duplicated cucumber steps  Now that we are using scenario outlines, this steps are not needed anymore. , Fix bug when displaying the contributions section  There was a typo duplicating the section showing the employee contributions two times. A simple fix on the name solves the issue but I added acceptance specs there was not there for the feature. ]","1","1","1","1","1","[your_contributions_page, set, click_button, your_results_page, your_contributions_information, text, eq, your_details_page, age, set, genders, select, salary, minimum_contribution_button, next_button, click, your_details_page]","1","","0","","0","","0","","0","","[]","","0","4","1","[app/models/wpcc/contribution_calculator.rb, app/models/wpcc/full_contribution_calculator.rb, app/models/wpcc/minimum_contribution_calculator.rb, app/models/wpcc/salary_frequency_converter.rb]","[app/views/wpcc/your_results/index.html.erb]","0.0","0.0","[65f883411ecc4db08e8c294f1c5722dae31e36d2, 4079d9ff2d6c2012ac344971555ff19c933f5e3f, cfda906a314e9ea7056f5010f93e741f0929431b]","0.104 seconds","4.2.7","[cucumber-rails, rspec-rails, simplecov]","0","[]","0","0","[]","true","0.0","0","","0",""
"wpcc","76","[13-07-2017, 14-07-2017]","2","2","[Edit your contributions step  Now it is possible to go back and edit your contributions (step 2).  * Added the launchy gem to help when we are creating the cucumber specs. Because it is annoying to save_and_open_page and not open due to the gem not be in the project. * Changed the button on step 2 to be an input submit of the form. * Use a generic ""edit"" link since this name is too generic (but that's what the user story is asking to). , Add launchy gem  This will become easier to understand cucumber step definition using save_page or save_and_open_page ]","1","1","1","8","8","[your_contributions_page, set, your_results_page, your_contributions_edit, click, your_contributions_page, eq, click_button, your_details_page, age, set, genders, select, salary, minimum_contribution_button, next_button, your_details_page, minimum_contribution_button, set, full_contribution_button, your_details_page]","1","","0","","0","","0","","0","","[]","","0","4","3","[app/models/wpcc/contribution_calculator.rb, app/models/wpcc/full_contribution_calculator.rb, app/models/wpcc/minimum_contribution_calculator.rb, app/models/wpcc/salary_frequency_converter.rb]","[app/controllers/wpcc/your_contributions_controller.rb, app/views/wpcc/your_contributions/new.html.erb, app/views/wpcc/your_results/index.html.erb]","0.0","0.0","[2aa7cca3dd5d033a67391b9e938cdd1fdbd991a4, 21da059e907c87f659aa70559b348d6cb739a3fb]","0.142 seconds","4.2.7","[cucumber-rails, rspec-rails, simplecov]","0","[]","0","0","[]","false","0.0","0","","0",""
"wpcc","83","[11-07-2017]","1","1","[Add ability to edit your details to the your contributions page ]","1","1","1","17","17","[click, page, have_css, your_details_page, age, set, genders, select, salary, minimum_contribution_button, next_button, your_contributions_page, contributions_description, have_content, within, your_details_page, age, set, genders, select, salary, minimum_contribution_button, next_button, click]","5","","0","","0","","0","","0","","[]","","0","1","3","[app/models/wpcc/salary_frequency_converter.rb]","[app/controllers/wpcc/your_details_controller.rb, app/views/wpcc/your_contributions/new.html.erb, app/views/wpcc/your_details/new.html.erb]","0.0","0.0","[8b67e391142da6090435d13369114850962d96ae]","0.153 seconds","4.2.7","[cucumber-rails, rspec-rails, simplecov]","0","[]","0","0","[]","false","0.0","0","","0",""
