"Repository","https://github.com/diaspora/diaspora.git"
"TASK","HASH","RUBY","RAILS","COVERAGE","TESTS"
"1759","b257939f7ed36d24a16334ad9e2170a6d86e821d","","3.2.13","","features/multiphoto_mobile.feature(13);features/multiphoto_mobile.feature(22)"
"1765","6bb3967d33756d378a4a8e873c2c1e52d87b860d","","3.2.12","","features/reshare_mobile.feature(17);features/reshare_mobile.feature(25);features/reshare_mobile.feature(35)"
"1774","c7283c60a177b6c60586d5f6d366de288c0b3491","","3.2.12","","features/posts_from_profile_page.feature(15);features/posts_from_profile_page.feature(49)"
"1776","7a8269ebf37ac15ff89eb9f78ff66ceb1d2acd53","","3.2.12","","features/conversations_mobile.feature(14);features/edits_profile.feature(3);features/edits_profile_mobile.feature(3);features/getting_started_mobile.feature(4);features/posts_from_main_page.feature(101);features/posts_from_main_page_mobile.feature(29);features/posts_from_main_page_mobile.feature(44)"
"1789","76b1e9b0dc4431b4a779e3321e4cb0d34e7573f1","","3.2.12","","features/posts_from_main_page_mobile.feature(21);features/posts_from_main_page_mobile.feature(29);features/posts_from_main_page_mobile.feature(43);features/posts_from_main_page_mobile.feature(51)"
"1791","b487c389bcd463965db2f6c392a040ed3cf2e0e9","","3.2.12","","features/posts_from_profile_page.feature(15);features/posts_from_profile_page.feature(49)"
"1793","fe850e9e6edf89b4b3e1d7eba013c13a1d78e169","","3.2.12","","features/posts_from_profile_page.feature(15);features/posts_from_profile_page.feature(49)"
"1813","ff10ffe43c427ee99e05fed5605e4fff5e0d3f3e","","3.2.11","","features/closes_account.feature(7)"
"1830","abce12f27422b85f4abd4c3d473afb1657147fae","","3.2.11","","features/reshare.feature(16)"
"1836","beb32ce91f9746ec509397ba55e72ab92631b765","","3.2.9","","features/screenshots.feature(18);features/screenshots.feature(26)"
"1909","8193978fd2a7e93a4208941cff2b51dc55182e4f","1.9.3' if ENV['HEROKU'","3.2.8","","features/mentions_from_profile_page.feature(24);features/mentions_from_profile_page.feature(41)"
"1943","e0408e6fae1fb4f8fbd409ec7e21e33875ac498c","1.9.3' if ENV['HEROKU'","3.2.6","","features/connects_users.feature(85);features/connects_users.feature(92);features/connects_users.feature(99);features/not_safe_for_work.feature(17);features/posts_from_main_page.feature(160)"
"1974","b0e428b34e5f21c7c990491b67c937cee79c1142","1.9.3' if ENV['HEROKU'","3.2.6","","features/tags_and_comments.feature(11);features/tags_and_comments.feature(16)"
"1976","05c856170e66bfb800450530953761dcca3746a7","1.9.3' if ENV['HEROKU'","3.2.6","","features/signs_up.feature(40)"
"1982","8ca39f593646c5c84c04ccd4c893e7928f6b0e1a","1.9.3' if ENV['HEROKU'","3.2.5","","features/logged_out_browsing.feature(25)"
"2027","605b418d424e3384476d97f3b07c694a63e70da3","","3.1.4","","features/not_safe_for_work.feature(45)"
"2032","1c135b61fdd9a58f51a0592d9fe84a88455641d6","","3.1.4","","features/invitations.feature(4)"
"2049","9cb803831f72326200913332ce808bfcfbd63f16","","3.1.4","","features/edits_profile.feature(3)"
"2051","3ff94b0312d5cc655fceac5651c7d78bf3334c0a","","3.1.4","","features/posts_from_main_page.feature(27);features/trumpeter.feature(45)"
"2064","9791d8bfa94a6d3a8bba7675e0e539cfede10ad8","","3.1.4","","features/trumpeter.feature(26)"
"2104","9550082a9499411b23779f0890e0bf82ac053adb","","3.1.4","","features/notifications.feature(59);features/trumpeter.feature(8);features/trumpeter.feature(18);features/trumpeter.feature(26);features/trumpeter.feature(34);features/trumpeter.feature(42)"
"2116","f213500451dcaf2732f34ee76160f37cef57ed4a","","3.1.4","","features/closes_account.feature(7);features/connects_users.feature(67)"
"2121","491d484a2e1571d8eaf64399ddc21a613e531dec","","3.0.11","","features/accepts_invitation.feature(21);features/accepts_invitation.feature(43);features/invitations.feature(4)"
"2165","b28508ecbc8188a031fece291240d876e7f1b493","","3.0.11","","features/logged_out_browsing.feature(12);features/logged_out_browsing.feature(16);features/logged_out_browsing.feature(21)"
"2166","2c0cfa53dceaeb276b0f15e2e27ec502792963c5","","3.0.11","","features/comments.feature(50);features/post_viewer.feature(11)"
"2174","4aa86750b9f1fee4a13e485d5565a9ec9f810018","","3.0.11","","features/logged_out_browsing.feature(11);features/blocks_user.feature(11);features/blocks_user.feature(20)"
