"REPO_URL","TASK_ID","#HASHES","HASHES","#PROD_FILES","#TEST_FILES","LAST"
"https://github.com/alphagov/e-petitions.git","126","1","[11fc547b2e0887ed754eb59640f591c07567e643]","3","1","11fc547b2e0887ed754eb59640f591c07567e643","261a33c25f564b65de10eac829cf3c8a8234fd3a","83162465f627f85afa578d1fcb574da41dc606c7"
"https://github.com/alphagov/e-petitions.git","145","4","[630149da7446ac76dd8c46fb8cfb1c84cf9180fb, b4863e640cdfbacb162af285043b08739a5b7c7c, 15cd3088db8d835a97068ff0c343ce9a4c5eef73, 73e954c7a7019f9f8dc2a6b054354b3e7c652264]","6","1","630149da7446ac76dd8c46fb8cfb1c84cf9180fb","ffdc8942ca8d30bc15ae9aace23e47d8431174da","25d6e6bc7df335cb41093c46091a077aa8d51d13"
"https://github.com/alphagov/e-petitions.git","148","14","[29699705f65b9d7958f87fa2aa1427b65cc8cfd3, 24efc06a4371eb0eba354b4957a79af9eb75eb5e, d585e99d2ca35360bfe3dd5e6b04883d495ac57e, c7b912d382beaf9fd07a19c2afa322b3a74b83dd, 23958ba99bb32aff504f3ec85f0f35edf55618e7, dde54cd392bc7e4320b8e732f55ddd34cbb5288d, 3580e35097d77b9147f6c264724fc2bb31f72114, de7de0bebe6409c8cd14f45be367f7513afaf836, 71772b2ebbeb6ce74581eb09fb62197ca4e4138b, aa1c3c613e761909d23ecd178867c7da028319b1, 7ef2d04ee6aed5cf0c2f8ad7b78ee4e5989ad729, f705fe10eb81dbfde49d6be49c2a1369b30db884, bceec4f91b6a333e8d4b792dd7c535f9725c6917, 9d5525dd78a51da6a0c5dfccab7dc81a5db8de03]","14","1","29699705f65b9d7958f87fa2aa1427b65cc8cfd3","27f8481ed49ca724690e09701d3488738e5f0bb9","29abb34bfb10d2a37a041cca1119715e2f5322cb"
"https://github.com/alphagov/e-petitions.git","149","13","[8c4482a23d2143818eebbb9231ebecd3ab057f09, 84dc9225025f353d70ca730664f0e2463660a78a, fb88edc9ae49efd65c42f6b66dc4b64bd20c1b1d, 1514c42270a9153f9e840c52902635d7953a581b, 6727c798c0fd77546c6b7032bd4e11bd17672aad, c55ef19fd8ff24db32af2adac47c90100e69b0e9, 7736969c2e08f2da9baa79dc7be32134948dbfe0, 3451f102c64564a01b587ea49858183cf109916d, c35829cf664ea1e00411b3521be904015625e88a, 97727c2b7eb48691f357e2d6f68621aaa3fe3a9f, fac6ce7ecf7bb8ab1daa297868b49d505b1fc5ed, 0f7d92b80ef2d169cd1129fa15d5a5356bfd783e, 830df4a9506bdaede0268f2adea24715cb05adef]","14","1","8c4482a23d2143818eebbb9231ebecd3ab057f09","27f8481ed49ca724690e09701d3488738e5f0bb9","29abb34bfb10d2a37a041cca1119715e2f5322cb"
"https://github.com/alphagov/e-petitions.git","150","1","[046113e0c696a852fa8bfd239719d3cdbb03eb03]","3","1","046113e0c696a852fa8bfd239719d3cdbb03eb03","5a768efd036bdfcded0a4724249d8d184c8e4c5b","8c093a71456bd26d157c4bc24b5717e3d4103069"
"https://github.com/alphagov/e-petitions.git","152","1","[a84d3d222a739444404caa364d111230538e1ed2]","2","1","a84d3d222a739444404caa364d111230538e1ed2","572c7f87bf08b122a6b90e7376a62f9880e9d227","1ed58e9acb0e1703be598eb47a6eb684a16fffe3"
"https://github.com/alphagov/e-petitions.git","153","20","[c5340d874622c54b398cce1055c6d0f055f3e0ae, edddd2fabaf9cce7d8066441a7500d2b74f147ea, 42bb1df7e2f4dafe1b5bb3c5f2211b72de36782b, e7dba58774fe9305f3f0e165bb46edb5ef86e47b, 736a23dbd0c8f4003cbebde9f9de648d3016f20b, 15223000cd9197574062f7b85ffc965b56d34fe5, 55a3d00e0b2c8b22d5df845b085d9089492bd6af, 382eef57340a57f34c2dd14fb6692f9185307cff, 120d3150c4054415e56614dd2bf09ccaa567297e, 21664cb7d8dc6c91a7ca09374b7a4a859a4cb445, 91e8de7606a94ccc56bb175140a032b8347e216e, d09bbba7b401ef1f4816e0c4d9191ffc8724a0ac, 2049e5dcfcfcd61930905bd3f98a53b78845e47b, 442cddd1e740e9288656bf4aa2742db9d8aedd76, 341eee92758bfe922be6e76fe45999bd505cc390, 77520d4fb2a72b651ccd9f941e9307ad2d82a11f, cb5ec43c0ba84dd1d6fb531038bba09c1e9b4418, 7df9bc6af68b1857b6e2f7dceff9b9216fefa1ce, 633730e151eea645f92cd32931b5eddc9f3e0e0d, c6023892cfb555a53fd3e6d495f5cd12e5331929]","33","5","c5340d874622c54b398cce1055c6d0f055f3e0ae","fd37dda12111b4b3bf396268843b08841d99bcd2","6e45634339f6ec7b1b2eaa4547969fc53831301f"
"https://github.com/alphagov/e-petitions.git","155","4","[157645baabddec50d3ee08b6c190fe24d2b079c0, 6efa8218854302d9ec72bfa50ed3523e72c10f62, d2a32a9a1ade7975016de3a95d76cdaa2b54ce9f, 6f83dbc04fef86d9b72c645c7ed61ccaaa490773]","7","2","157645baabddec50d3ee08b6c190fe24d2b079c0","37220fc373c34085149ece2b166e328cd7932caf","36382a821e8a3408b61658fdb5f79c58d196f295"
"https://github.com/alphagov/e-petitions.git","157","1","[182539451f7d154a16341c83b4827b9e3747c603]","1","1","182539451f7d154a16341c83b4827b9e3747c603","343737a805e0b6301fa17d1d603b52f82eb528be","3245469a49db91e2cd220b10b75ce62e829c685d"
"https://github.com/alphagov/e-petitions.git","159","7","[48263469d8690139428154753bb83e7e4fbebbb0, af7b474c0ba338d0097c48c274b94df4620f1438, b0a7a06bb402ca7250b7afe1e1408a2155a19312, da869b569a5e46a57afbbe7d5054b69c93f87e0f, 17807da3ed1e1dee95d0a736f55c1eb7e6baa2f7, b77f352d9d90bb4cf7cf04af516406b2febe5c18, d201383952d8c55034c5d4494ac1897eae7c5fc4]","6","1","48263469d8690139428154753bb83e7e4fbebbb0","bf1ae40b5968c0375d45dc91aa837e82ea40e6b9","d1aa8a3723cd1b14976138077ca63bfea9cc75ce"
"https://github.com/alphagov/e-petitions.git","165","1","[af3fe776a1dd4679e0e9a57b928291c8879e42c2]","7","1","af3fe776a1dd4679e0e9a57b928291c8879e42c2","fda8d56ea278b48c4d7dbc08d42572bd36159fa8","e9166b00916eb9a01435aa1c576baebc7fafdc10"
"https://github.com/alphagov/e-petitions.git","169","1","[7721490a645d5ecdbc2a87426cc4d673a8ec1eee]","10","1","7721490a645d5ecdbc2a87426cc4d673a8ec1eee","8895db95b68851b8503da237525d7a6a95e4a240","c742d7ac74b1fbb963e1ab14983581f782c9c022"
"https://github.com/alphagov/e-petitions.git","171","9","[f716fce538cc4928a099682c9264ce744b9cd140, a76d28c114d734996afebcc3bedb227ad34471e5, 0afe2cb0252cdef6a2297fe2de9b746186b062e1, d3b3fccaea229d15d670263b87a18be6e51d02ee, 08166da0b2cbf9ac18aaa6fb0cba2e51fbaee249, fe8e54fab95cc43381df46a0662db62e59c59872, bbf4dddb2226dc5ab488995ebb323cf2b535c1ac, 988cf7e888ba8dbe60fd8277c9b6a4a55212e4ac, 7c2b3cc128b1e8edafc113b4c53d91cd0d8307c0]","25","1","f716fce538cc4928a099682c9264ce744b9cd140","8a7f5d774cde5c61aeb28e1dd5df3d02659f4956","c742d7ac74b1fbb963e1ab14983581f782c9c022"
"https://github.com/alphagov/e-petitions.git","172","5","[8da610fac9e537db72f8aaa7b40e9255779a13b4, 1a4a3683f49150261df5dff41f36b12703ab7ab8, 8e651b4486341f6e6aaa71f87124398504a9d9a2, 2f7677ad90afff30f4aed5ada025422c7b8074f6, 86adab671c50948d61631231bcbfaef1cdbbe6a6]","6","3","8da610fac9e537db72f8aaa7b40e9255779a13b4","6b54fd04def2a3b03557de33e283723a85733727","ec4feae7efe367a0f900d64762d030aa54d1c54e"
"https://github.com/alphagov/e-petitions.git","177","2","[be4cb3b6cadf5e2b3be79d0051aa3a8dba6d00e8, 31793816305c8d357dc82df52ff71572af37496f]","2","1","be4cb3b6cadf5e2b3be79d0051aa3a8dba6d00e8","af8299f85c7639592f64a43be608a87421d7e12f","4db911a3fecaa61a05aba9ddb7a215e4151b885a"
"https://github.com/alphagov/e-petitions.git","178","6","[7d12e1beb945e3754d1a59f1fa56f642fe151747, 8d8339e33ad70d1a8e46777c5670c9f7191c67fe, 23c7a4ec67a45ac36c732154aad1473df4fcb73d, 5e7454487429d77ab10f6448a1d932bbc2181ad4, e0683384888c238bd123d482e2e0141a39264d13, c3d96d141e7d41504d072df9e1e68bd5fa4b1f34]","6","1","7d12e1beb945e3754d1a59f1fa56f642fe151747","73bd48da2b30cc760c42f6d4dbbcad7dbdd67c24","4db911a3fecaa61a05aba9ddb7a215e4151b885a"
"https://github.com/alphagov/e-petitions.git","214","3","[e9e5356278204395d65f5be9468e0ad6dacfbe7d, 54668571126c83d94575aa92b766f625e4927668, 0493c38fa681061f9e48d6786aade1313b69b751]","5","1","e9e5356278204395d65f5be9468e0ad6dacfbe7d","b9f9a2a82d1eeb44f810758fbec199efeaaaf5e1","34cb7232adbab27bfbb9189f403465efafa71224"
"https://github.com/alphagov/e-petitions.git","215","9","[70f5c8ed32934c916b0087432bd51b6f9c4b4c61, 2e1bd7a6c0b2d26828c3dbfa65e166e0e32b10a1, 05243acddbec700610390dc18b880491593d31d2, 8bda66400b33f7c796fbe7b4e5650779a3d4d537, 15a44babc15ea40df659bbf7aa1aa91da3714d8a, 97b03c3400122b5cba01f25debbaca8c7c905e4b, 6647ad9ba381d0ee4ec1be07ee2ad379650358c5, e9e2d1b90380cae71140455f27650928359d217f, d1574db238b50992dbc13a677355890ea7ab4bc1]","8","1","70f5c8ed32934c916b0087432bd51b6f9c4b4c61","b9f9a2a82d1eeb44f810758fbec199efeaaaf5e1","34cb7232adbab27bfbb9189f403465efafa71224"
"https://github.com/alphagov/e-petitions.git","225","19","[a5fd3940274eee92f28d49abf6019834596796d1, f3b75b42ca96035e8291fa319e7a2691b51a928d, 22a2f6237a7ded6dd39ead4df058dc9d26d53e72, 7144e2abb27e966f5bbabe6f32816bb13a4da4ab, a12c5d053a0488c0f9a5f5d6226d0b8fbed674c4, d31cbaac2f96fc48b44794240169c3a4e5b98492, ff1600356d02c3c676d402c1814014c87a5ac530, 91f501d62b0bab8eb76042730fca6521922b9767, ab9a012f43c5bff2e82fd428890240fa75913fae, 13bb8d315e795e6e70748a2525ff7a6d0b906478, 3fe92bdf399a5f66e529b2a8c3584192c0fb1895, 8441b65dc5adf7f48eae9c3a4aefeac49c6cde30, 7df83ad1e45a094202236cc9377e017b439143ee, fab37276d09cae68a72b1fa783668709ae3a36a2, a715a5939a8e6cb262b749e63cfd08e570bcc32f, 2cc6cb80f26eae60d3ccf1f73dc5c98fc87c8b24, a63cfb38a2583b6ecf216fdc9ae018a19df1dc01, 04e4ae271723d47a91a8fe1506138a8a51a8acd7, f5f3c92e88c2d4eaabac38c82a31a5a0dc4dc8c6]","19","4","a5fd3940274eee92f28d49abf6019834596796d1","fa2d7fdb5cf7ab1d3628dc9f921a32e6f3564101","2bb5fec2a7712118927690e226ef25a011ac3b7e"
"https://github.com/alphagov/e-petitions.git","231","16","[e4da92edcc01ff7b7707c9c1ad7cccebeb60f52e, ef6448ab8eb23c42d9590a4b92715c7d0c7f1314, d6c9dc11944748be5004d5450a299e51e6f1e97e, 9d09a62fb17acdf8367d497eee1ba96e3e00d153, 7f06e4b77d06d373b0afa4998d0a99b84cdc78b6, f0a79868e4c4fbd914ac70e92d6d18dfd138ac13, 4bf00d6e2f4da0f0af666220b5841761e2a9db1f, fd5ed80688349f94100b13b2fd677dab8465ee20, 807638776df8b3236f851acea1b86fe691424699, 52b523f5b829fbf9b79807c54b98832e307a86a4, 7b7e37ad28688fd8cc50ca756d38245115fcbc39, daff8f64f6ffe466465e3eac62c3962513a6e3c2, 98dcfe04c5df218275742bdda1132f550e296824, 741a58ff88e2fd14debad1db2aacdb599aa5cdae, 394a084c995f5b4424e017e0c2055df9b92acca9, 9d33178d8569ffe041cc6036caa86a8abfeb7b52]","18","1","e4da92edcc01ff7b7707c9c1ad7cccebeb60f52e","68bb673bb86d3a2564d0aabd26835adbbb5983ce","64270bd57d2e460f8f5a311ec209338b7a52dce9"
"https://github.com/alphagov/e-petitions.git","236","19","[5074f4534eb4c8ccee316434017ba1765f7d07d6, aaa97e0ff7046d6bd21516ff1257c0aa4715f632, e816e567d640b5b90c17388742401daa0835ddab, c64698ea0d171b9849cd0437bb70cb24f3ec632e, 267bc984520248b46583f590903f6dbf548e1b75, 244914bc78d1c5c12476059ae66e0793db8d00ef, d113a29bd2159952148d6ddbf96c9d19746874ee, e1f789ab7bfcdb172e78254c262b4152e1b6b9db, 0a826305abdc4a5f9e0efdbf4d6d5e840968688f, ec9b07887287278e5deba502cdcb706dea903218, e55d63a12835e39573f653172c7cc455fe1737e2, 5554d21a50658523b0a8851f089527c12580f56b, 367f96c2c994ffbf43580658d3913a2e0ab949c5, 763cd81c16c293fb84be1e20d372365bdd583abc, 0bd5c2e9f98cddbfbaeb742b718cba166a3808bf, 62e37ffcf7f5b3a0f85befb2f84aafbc7172d54f, e8a3c0ab80d6b814fbcff0c8b582e5cfedc62650, bb4f8748f1cd31ef41caeefb896d86fba38fd467, a02b93ab65b893f918ded6d25766448ce3bb51f5]","26","13","5074f4534eb4c8ccee316434017ba1765f7d07d6","dc840d0f72439c1cb078c1d49c958d58bc88bcc8","b670dae9fb4e7ae69d6a251a85fee34cb7659516"
"https://github.com/alphagov/e-petitions.git","242","1","[dcc3f3051028a876da12f9f5e6bd8dee5888b9db]","2","1","dcc3f3051028a876da12f9f5e6bd8dee5888b9db","6aa53867d8f5b1f7b1fbb4dfd9bbd3aa2ecc6106","93fc7baa5ec76d50f0d2fd02258bedf8a0ffb0f7"
"https://github.com/alphagov/e-petitions.git","247","4","[1ad0b8e2924bb3c2771c935e057c3ff6ebe00b61, 6d82dc0db5d754947dbf003d967e13da98d9f582, daf44048a865a9545065fdabec139eb8569a98e4, d2c68c657448cd4f1ffaedb03b41ae6b065d6b85]","1","2","1ad0b8e2924bb3c2771c935e057c3ff6ebe00b61","bda059103045a48c007da72cc5ca1e696ba8186f","3b9dc952b1f13b54ef7d789e91ec42976c3f8feb"
"https://github.com/alphagov/e-petitions.git","249","3","[87404ae94e51d0a92cdf3eb1ff52e6f6cc8d2cf4, b12f69b92daff7d8cda60f1d9b2fe85c222bbff3, a4cb92b2561c8a7b664a4d0f39bbd70247d42944]","4","2","87404ae94e51d0a92cdf3eb1ff52e6f6cc8d2cf4","c0bd50bdd435ae32044cf9b41a2d2369928c5891","3f76f7042215597cc6f0c8596b7d76d09009e451"
"https://github.com/alphagov/e-petitions.git","252","2","[c9afd67fd657990328e31b9003803a6d673d0781, 5d821d3f752a24a59dbb4e0652ae82eb8c070a3e]","1","2","c9afd67fd657990328e31b9003803a6d673d0781","6bdac7526ef45b6beaf9a74bedb45af898abfda9","7e5bc521c5af8795bcd0429a818c617a9c38e8ef"
"https://github.com/alphagov/e-petitions.git","254","1","[220638fb13864714418b6c85dec92cb887aab776]","4","1","220638fb13864714418b6c85dec92cb887aab776","e1ba581b0ba1820155c22a4b1f3cee01c741287d","7e5bc521c5af8795bcd0429a818c617a9c38e8ef"
"https://github.com/alphagov/e-petitions.git","256","8","[5b356a34867b4fe364dbdc0b99e4a490db54d60b, 1f17330abc225f545e917fee49538909daf4d4ee, 5ad259f78552a85a1a12364d6283d5d8c3ec5efb, 24decb3c2d3ed9cb0f58af8d526adbb3c225a02f, cb8a3d879aab1a8d1054a1de21ac3250225d0755, 96887ab3a1e7a8596eb264b1561f89c375f36dea, 829dc25a1ce3a79334ef6be1e2a247c41717e022, 7af196cee76c617021716d0365cbd3fedad8a99d]","26","3","5b356a34867b4fe364dbdc0b99e4a490db54d60b","a1b900145b3f14d7b26ae2a17b37e12072dae4b0","5f8cb63c96f498e37f1c0dc8fb33a26b047fd818"
"https://github.com/alphagov/e-petitions.git","261","1","[6121d86e667b30f76a752c4623bb9a048b34e8a4]","3","1","6121d86e667b30f76a752c4623bb9a048b34e8a4","5f8cb63c96f498e37f1c0dc8fb33a26b047fd818","004d481060ed6244b1a27decf468d1066c4b7f4d"
"https://github.com/alphagov/e-petitions.git","263","1","[f05e204441773ff1f655b57a4067df476303bfb2]","1","1","f05e204441773ff1f655b57a4067df476303bfb2","bb728ae325dd503fffc3694c7bba185d34163312","8d18669c179d2f7e99816c7659b3600c064107f4"
"https://github.com/alphagov/e-petitions.git","267","12","[28a02265722117235e77becf799328959cdc7cc2, ef23a05d4bddeeb39e3cfe60e4cf95482a0bcd92, f05444dc1e24479ba8c8ce5e5faeff71430e262d, 543e087661b13bbc17c4c18e5be03ee9f5ebc3d5, 16c7d228100a53322e5dc5f1e57c14c304a7a0ad, 9b4718c116d18fac5291cebe6ad5a03a6e43d509, be5f46aaa6315ad162ae6cabb2a3e257e2672d4c, 9cdf97d5c7f4f2f828caf938f147c74728b91c7e, 2846c1bf816902dc290e984b6efc86401a96d37f, 7b41985e97fa8b239a03eac37839efe1a4adb7fa, 572b3b9a9bd92e3f187b901263ed4fcd87448a3b, 71cf2f650a7bb7a39b0a52d9b6f9f6e8a68ef4b5]","37","3","28a02265722117235e77becf799328959cdc7cc2","157e4716852ba0877cf546cecaadee6b5c174c50","63eb71d39d9501ec3a7fccb2cd201d981090fec8"
