"REPO_URL","TASK_ID","#HASHES","HASHES","#PROD_FILES","#TEST_FILES","LAST"
"https://github.com/alphagov/whitehall.git","4462","2","[5ffcc291035012549bc0fcacd9c4fe6521d0bc1c, 35a659484a28b5210b63d72fb1d123174ca6e3ca]","1","1","5ffcc291035012549bc0fcacd9c4fe6521d0bc1c","bd80446dd8765922dbcdcc23128a788421e30c26","fbd5ea3ceb30ebe5d7dc42e8b090f695afe72d30"
"https://github.com/alphagov/whitehall.git","4486","1","[4c7ea662c68946110a28e9d4ed61681ea621caf8]","4","1","4c7ea662c68946110a28e9d4ed61681ea621caf8","a78e9561585996541c40c87cfeb7d37c34bca032","45e01741e204472b5a06198ac8faed1e564606a5"
"https://github.com/alphagov/whitehall.git","4498","2","[84de25fdfddb25a3e56c2d2995df50a21ac8d1d3, ed8f49b3925cf96958b8a859e6fbf25c26048b6c]","6","1","84de25fdfddb25a3e56c2d2995df50a21ac8d1d3","c8d85ef46a6c9d680ecb462d01c715d5a9e9fa70","ab4ddca67f2d1fa3ebda43decd7084a355caa26a"
"https://github.com/alphagov/whitehall.git","4527","3","[e6a704b4235eaba4566066b72cbb673419bb1055, 7075af5728cccf21c1ce8fb4066459149c2163b9, 2b04097d092d0195c8a9371b252d510e50fe824a]","5","1","e6a704b4235eaba4566066b72cbb673419bb1055","e888e738ffa8bbb25d196dd2cd6c17f66ffddb0a","0c354953cc289b06246545e7f1d8c31316e5c96c"
"https://github.com/alphagov/whitehall.git","4531","6","[59dea1e6c2c9caff54eae18ec90992e18a74e9dc, 217947f5e96a85c8b5729e9548bc10d1f10455a8, 4c12dbbaec29aa2bbb6ec76464cc0d7ec436ecc7, 95e2811fd38d8879fdd23a7153a006b3427d5b3e, 021db53ec664ea76604496d0b1692d6b8b670ae3, 4498d9ea24e032b47968aa6bb4b246076580bc0f]","6","2","59dea1e6c2c9caff54eae18ec90992e18a74e9dc","f04b316b2d4e9ba07384a3423f0320fb0bd26083","8ec7a1461722c68167f206c9e91649d08ba5254c"
