"REPO_URL","TASK_ID","#HASHES","HASHES","#PROD_FILES","#TEST_FILES","LAST"
"https://github.com/alphagov/whitehall.git","2581","10","[2d426425f5821ca2789fefdef94b1549f2b8c7a2, 4f00eedc72df8a2069d1d77535f5351b5f99200e, d89fa97b3b926c0cf2556aa420846a354d94b7de, 6c74d596423363dc68ca77ada5ba0e1601f94fcd, 7632c5c0f23a3b6fb2f397974eb4e586cd55f5df, df9694ea519093a3ad5d99ca18490c602dfc3fd4, dcfda4c46156fefa12922efeb13dc80632083acd, 14b4bc0f52e3892a498d46b58d72ea96c2ac81f4, 8b022694bbb47111f488495ef6f1ab48f0dacf2a, 940f316512734fc9d7ec2e643238f67a10fdd2ce]","9","1","2d426425f5821ca2789fefdef94b1549f2b8c7a2","fa8f3d6339b55ac5e092ad9271cbaf40383cb3ce","3500a71fc867a0b71d648ac3bb4defc2bd8b6405"
"https://github.com/alphagov/whitehall.git","2616","7","[955175082a7002c4e75453fa9b679c101805700c, e957750f38dfe3604a9c9fcc4641b4b0b32f573f, f180fd2148a26c7006ebba2c57e27cb0fbbfadb9, 69a4671cf4cc968247679168756edfcff006301d, e8e4dd75663a415817be57ff8b946b507b2fdc53, e3d264ad51f3c975353a0ee84e6db26482cd8a69, 658716f24b79a563b2f6001999f6a684e04e502b]","5","1","955175082a7002c4e75453fa9b679c101805700c","23a852659cba3868037493e14cf2e5f32c49ba14","9acb3d249573026ea961402991c605af0ac9fef9"
"https://github.com/alphagov/whitehall.git","2621","2","[6fe537678cdc153e20476a7deef2daed4ea0416f, 93a9480473486b4f56b597b72a407804e4c089fd]","10","1","6fe537678cdc153e20476a7deef2daed4ea0416f","36f308b8db4507588693fe51691cd162d44f7622","f93f9b0864565f52d490dbbc640a4679b56ee9f9"
"https://github.com/alphagov/whitehall.git","2632","18","[f7d5e32e955f3e719cbabb439b13bfc1cec5a615, f972a8e6b0ae48788436ca940ecbabb328c47152, eec531d2fa03224d438453f26777ee3f4d4e9b97, d32266c19b6c4eb0a53c254a2c88f856e4cb2881, eb7a3f09d516fa8b8fbee69574e8a0d5c921d91c, 6350867cb8b9ae33cc6a1ef6d5460c6a45c8b492, 6910da6022970f6cd3f33cf194c1b0aa66fe6428, 246f2bff4b1b8c326ede59f300f041bb6f9a4b36, e7a7b50326aac72508593ea166e7385b228a6b01, 20848f61a0a6c3e519978ae47c1a08e60c499014, 6710e72599b32198ca23bbcabf8fbdc5dc264d90, 876335900aa1b08a4c257cd02edf2574ead37126, fdfa1f33ff9266e979002b964056bde310191f8e, 247f6cc6dd0cfbb07bd5320a355febd86bf073f2, dde26cfdb6129bec0d0e11f454d162b6b2db5633, 89178d4eda9c08bcf45349787e3db642b6ff76ce, 691e369811a49b5e102e0c296a8e6d2f65788cea, 48e657e29fc232728c91747888ae1812c97b7f24]","17","1","f7d5e32e955f3e719cbabb439b13bfc1cec5a615","37f3d02221a13dc108e8a24e5575d6742d205247","4f94730d198eba2d5e84bf6352f560f1eb16d4ac"
"https://github.com/alphagov/whitehall.git","2678","3","[410f5d93d1b2d47f2be5d01e81436f6df32fef5c, 7296d65073e7dbd0e9ccb87c797b89d687fda36d, f23aa6c765da9a83949b6c943b5eb3b8eceea34c]","3","1","410f5d93d1b2d47f2be5d01e81436f6df32fef5c","2efc1c684bedc1d28a70cfc971e6ab881e679c97","b4d10ec6c043e70ee4bfc715cec3ce4b0ee89dd4"
"https://github.com/alphagov/whitehall.git","2706","16","[195ab612f15f42dc9c09f9452f98826d70ef769c, ba5ae725430ef9ee37d94b0cd21c579f379b374c, cd80fec6216651f8d5cf0538dd5b700c12c27dd9, d6aae9576e1966d60c89bcd6b85fcc89ace33d5d, 9273396baa49f2a87a66770fe34b43184e0fa71e, 97c55d17edfd6ec79e44ba0a357d6571bef23ab3, 4804f34f48fa73f56e28bcade9a313ec835e99f3, ec59a518d40923d1aeb1d2799412948ede81645f, 80f8b2d5c61d3c7b65b6baf658a5cc8d3333493c, 72fbc3186e136d47a66401e9e2444eba5c366ac3, c3ff5cc1563561b1e7c6b834df73671b2981e3d8, 391cf612645509f0879634b66e505971ce697892, 57942ade0293c568f19df775093c9b879d99b6db, 4e43c8b6cfc9a71600dd0761d7c2caf0736e9f00, a51d459a4478ed0c42e67beee177f39259cf42f2, 8c93668ac804c829462fb0cf3200e95fbf72519e]","12","1","195ab612f15f42dc9c09f9452f98826d70ef769c","415b43f9df2b1eaf4c45e58769e62866c96e8ce2","182a5a3047231bdb8b3fdcb0dd0145c6b48bc428"
"https://github.com/alphagov/whitehall.git","2712","18","[ea3cec389b7546a217efa20a5c852936669893cc, 90fd75d4fd666ea49f09c0ee40b0f56be38d2682, 7db851b66dcc6a144443ee281c5c03ae32d54253, a3af52eeb1b4480652005a6cd94125273b4165ff, 555e483ebc416d23cf7d9f049d5014fcf0471132, f25fd303617d56b233a63fe09da09dac1ab57d39, c9bbcb60fdf8a06060543f651be32a89045b8443, 32d12eb67b9079bf38a74295f77328def66bf133, 5445d468f49126bf88abf4dda20c9c0622547e8c, ff757484d157a22757582a7a2aff92db83bce7f1, de2de92712241aac19cc26e71966dd85ff10fb63, 382df231a0d9e7ec29cafe214f2c9e504721887d, e7f9c490a101fd3c1b394fef8bfe0d91a056c5e9, 8b5c5861f091f7e3c43c51f3a37418bd09d456c5, 294debebedbcbed721b20085edba40ad299261dd, 7314aaf6ab83c97c8d7055f0a8b553d9a4014beb, f0f442d0487a900add46fa25bd96dfaf2fa47c5a, f56165ddf73447a8e00a6cd380b8a24140264232]","23","1","ea3cec389b7546a217efa20a5c852936669893cc","80dc3004d1f54b040cf708f8101bb96a1d858e3b","5c112ceb8468d342dd8d2420b020d8323e02cda7"
"https://github.com/alphagov/whitehall.git","2715","7","[61163f158bae16c67f11684cb8e33edd47668d08, abe5e2adf71214ae578e5d6311d12189ecff61d8, 52327e648173bf376a294077ef7a4dc555bc75ed, da23f07bf0bf8a8f6dae0ded9a3d3da0f39900cf, e7e4738d07267033d2292bce2ff8d011c26f0cc3, 9275d3642c977aaba40fe8e535bf37d88897471a, 1137ba788555d032673b769613ebd58a580ede8c]","12","1","61163f158bae16c67f11684cb8e33edd47668d08","2320bc73d3fdb10e06d0375fb5e01d851e8ff76f","182a5a3047231bdb8b3fdcb0dd0145c6b48bc428"
"https://github.com/alphagov/whitehall.git","2728","12","[cd40d1d1c4855e41f73aba28cc12e9240301a91f, 03af7efd5743916288296dab4aef29588580dbaf, 9c75ca4cfa30cf0b1247d86b9f20c6f5cfb4befc, f8c39dc4954081a46e1babf77cc13fc490e95b66, e73e7a057e04a69dffe43cb7c5f5534b89c957cb, abeeaa7b1c3a9751a600381b79277780375b3c78, 912aeffdbbd95138060d334bf0f32021a9a76d39, ff24f2c69750f0991dfc761eafa7eb51bc946066, 2474badf77b3ddd3af41214ae9087e53134018bc, f83605e59c161db4cb9a53eef0090667ab34f5c5, f03c1d9db226aa42ab0288fec1e5f1e102d53d64, 3faeda00afe04e428d6840faa30dccf49ed4da04]","21","1","cd40d1d1c4855e41f73aba28cc12e9240301a91f","0106fcc024c212d8fa8253ef29a40eeba81e06d4","59eede36d6d93fdcb810428c08eaf70a9600826d"
"https://github.com/alphagov/whitehall.git","2741","1","[2590b60a88625cf5a538e1e2e63f4f8b26e700a9]","2","1","2590b60a88625cf5a538e1e2e63f4f8b26e700a9","f074b09fab5ad05236dc750fc0fb377f1abca290","a86f158e48c3bfb8050c2bea2052b933df6ee843"
"https://github.com/alphagov/whitehall.git","2750","64","[e94abd030b5b030a413691aad31d2ab939097eb4, 1e3055cdaea9c24627e522c223e068463f52740d, 3050767f66f4a9f28e989873e6bb93a9e9d7a601, d9a4f3ca1b893a8a4da85eb15209cec226c21eb2, 3f97cf45f490576448a1ed9ec5cb6f2e342092b3, 471ee5915fccbd0123c346319c4aace24f9572fc, d41e56e04d87a5c567d626027689e492d4dbd953, 05816c694514f9e2b884f3604e3e887a1236bcb4, 343fe6fdb867375cd86171ac4638a77b4e23cd6a, 8c26f1f68f836d27239c43e175b7b720b51f4272, 40e41c8ee072b29ff597182b51637ee637c6150f, ce69e164f81aae9dc592e7fac815901571ead2ec, f69a9f52ce8ee51e63a5d0dad2ca88da29f78e11, 6e11bd13c4adc5aaadbd0610481b9cd131af36a3, 30fb9b814e851824a2aec9238f521761a1032ab4, 94636c5b1026bd5a9f0e12a75bd295dc334d912f, 46c1457f13c89c58f989d2f8dc500816ac962ed9, ef03720308547000e6465858185d70244b37682e, 6039887bb8871d1d329a295ea5bec83b8f12a5b5, c2d4b0672af684f5700ef2c36646ae965fe45485, 50ff1eb1f45dba40ab3b2f06302d8bdcf0e0301c, 02a802bde71604828af41727de3417fdcf5be5b0, 26dcd4c6bf1ee8f93d20595a884cc10f202eb398, b74328aa825e40d683928ecd2e2bb4884604b63e, e5ffe907b86481d7240619faed6c6dced6cf21c1, 63a9cc96ce647333df157ae81a8553d3467aa576, 855a4dbdbd8d0109c8c0d809c99b93b9f098ded4, a9c909268a228d52693340cc88964bfe2f55e483, b2682e4322319489a55bc80ebdab8f3cb46f1c41, 339a415a2fe64ba536a9936843cf6d33f27537db, fd0e59de3b509088da2e3dab3d5290a59877df49, 9539c5e6c7fb446aea83f061b357140ad845e598, b89b6d2da274d2b7363d7f0882a32f8349bf46b9, 03074c7e8716fd2dc8157c1cf1a80cecfba1e946, 14a384ea1c4af63672d0dec9c7da25cbec6ea8f9, f3b8e539fc0ed66aaa98629545d7c5c4e5458c88, 8d785216d09c3645a6b8a35e939941d7205b47a5, cfff28bba97aff2413fa0d8c03a152991436c283, 9e625c0cd1087a6fe7fa098ae7afe94748a6fed3, 6f8e2ada124375396fb992954f6aad443a9f1bbb, 75de116b55799512cecefa014d6f3fde7f9daa9c, 8ec07b3faf2078294d4829f3dfa6b85b17902ffb, 8d1e49b9c4ccedcf05dbdc2167ea72ee73f8f4b4, a44c95f9c1dba02b9e0d638fa110f32d8bb0838e, 2031a1e526367142d74180b13b3259edac03794f, d219e3c0be1e1f000e3fc5f54bcba7ca326010d0, a1de960a36e7fb1e8d5b2acc52c8b5ae24850d63, 15c29a2bf5f79a94f666558343ada5f5be10e61b, 67e81ab29cb0bce6ca62d784d10abfc837eaeed0, 41d24f9f5577575c429c7f56de661ebadb703903, 54732da369b173510c6f59fd415efebafb61c124, 24c65d946c4187b50d147c0d13e8b98452de43e5, f4651c0f8aab1ce642273b09ebbb8ef9241bf42b, 993a9ff3e710dec92feac7b4a2ac825794d86518, be1c01c5026f3f3b90ce79a163b44a744251f5bd, 034b9ba697eca66e6b9192a557d0d7366c8889ae, 78733d325565036ff48f26b33d039c2fee92ceb7, 172b4cc48781f0b211721c6d7bc7a40da08d5468, 3751388b5df2f9cceb3d202bdb9e42d26120ae1d, 221b415159bd92b5e3e24740ea1f17d8334014d5, 6400a55f3576eaac48a4121f6faeeed2ded88aa9, 6ad1e7d796f803feb95493e2977a92a2e0fe8d69, 5cc8e04b01b47f80058c4d673aff1946deaeea81, 05c127d9b9d1f3ea743daebc25468044c8229442]","63","3","e94abd030b5b030a413691aad31d2ab939097eb4","df2eef599af1c6e01d1ea98e4efe8ffbf232fb00","19ed1a4f51513d1d1c23f55f4793b44aef058d51"
"https://github.com/alphagov/whitehall.git","2764","3","[dbae799ce847cacd5e2fba75a04168ad387002c0, c576251bbe547b52132e2840902d34ca4d60e215, 9d17064d053724be0badd9eaec8baa1f5d205733]","2","1","dbae799ce847cacd5e2fba75a04168ad387002c0","3f1fbf8adf7cf7646dbc1244723099a67cd27c49","4b9dc1e057f17206276ab74261955c5b6191c155"
"https://github.com/alphagov/whitehall.git","2769","25","[12aa2b6fe00b9d30f157717806306a55a111a968, 8e1ef8d24d4a959ffde5eaa0199770d4cd60b20f, 7324b6dc60087f9628a5e865ac3673284552cd2a, 1edb327560f11debd9751b1a395089329849c6f1, d5116b25b922124434d34ad5aa98af40d7dae128, b6797948f429ec582b2997975eb5a22cedab7584, 9155c20a4bbdd262360bba83ae43fecd458da750, 27deb1002202f32336b6ea0f07eb7135d12a1306, 6d5e98b57c7e322f4b8054fc171a32f8349bcc7d, 872d19bcd78343ec3b9ebdc5d2c2289342022e88, a056eca963531ab79f9c7e6b8a1262fd839c405d, 79a16fb3ebe916a060b3843a2eb03fe49ac2f259, 2e6c473108308b967bc0187872bcbeb48afb55a9, 6a0f9b7b3a35d8c0a954c2799c58213569d00ffa, 47127243aca005cc9b4a42cff1c3a4be8808475e, e8035b5acdbd6eadd54f3f7fe730aa777a6eea05, ca9fbe2b411be966e816de6ee39c9159e0253319, eec008bcf743df38da248fa0aa745ea74844d67c, 9706b68580b78a5b808858477796da4853bc43da, 0ec40e03605004481ac14e5e33315a5908cf5e54, 22a0ddf477a84e12f961042fe2f2e603158f3162, d4a9b4f5b824cc1acc1b257ffa3de6b7aa2f799b, d135d37fd05321b11697bc1b9c343708cb022812, 48270c8c34ea7d0f2c7c4d0c96c44706b8aeace2, af647d8c6301531d65daa54e8acad428dacaeccb]","19","1","12aa2b6fe00b9d30f157717806306a55a111a968","e6475acb7ae8462bfcf0ad176c5d6ab1d2fcda4a","44df635712618238b11b16818b49dd640935606f"
"https://github.com/alphagov/whitehall.git","2771","3","[5b65aff1bdbab07763cb0ac1ccec4ddbebe513ac, 708bd0628a9e843e6aae9f68c9052cf24ded4838, e4fdb0e4e7e631e0b47ec212b851fe70329b8cc3]","7","1","5b65aff1bdbab07763cb0ac1ccec4ddbebe513ac","692fe40d711e523642e62428fd9913c4f6df9049","8adcccd1ac4dffcb31c58e0632163b36bcc21628"
"https://github.com/alphagov/whitehall.git","2773","2","[3703e6b7f13d097adeb3ab35d291633a46630ffc, b2c119945514cdae891e9c061cac5504070ec021]","13","1","3703e6b7f13d097adeb3ab35d291633a46630ffc","88d818769757ea086226a72f532000c4e4d9f0ae","1a3995419851f1474f7be041fb60d1ae0aea74e8"
"https://github.com/alphagov/whitehall.git","2782","12","[7c8f0d04dab70c0ad24c308af25e1a5be5a062a1, 7fe4db087243311b5abddf5528ed0d43356e091c, 340aad52266d663fde705a7610c04156bd28af40, 55ecccf70da02f85ceed88034448d2fb2fd4e689, 26f996827a3346c6a59463b56aa1eedd67970f9d, 532ceab0b8dc804573d053aea932d6f02fe61cc4, 3fd738490861c04ace6bfb039ee083db2e0ef634, 861352ccc54b0c7f3c40a2d6a744c6389b5be0d9, a6a18dba5619eee364b369cbabb4bc84b0e5841f, db1fe13c37943dee67fa1bbbd9ff79bf3eec53b8, a7b7ae74e2c46c2b92fafaf55a05b038a99703c6, 009dd637383d9eaf5038f7587d113156b49db835]","23","1","7c8f0d04dab70c0ad24c308af25e1a5be5a062a1","83ea1556e467507b384ddd7824e12f4dc92bb6ce","2f667e299f36e9bbaaae5651402c8e4b390a2f1e"
"https://github.com/alphagov/whitehall.git","2784","19","[2f667e299f36e9bbaaae5651402c8e4b390a2f1e, 987bf29d890815921aaf92eee660a630379176ce, 8ffa85923f27e9804a6252ab645cfc3139e1401e, 85c248e7963d4623ee7124526be38f50dc888b13, c902ba0d4c886475491608ebfae4b7853a23e62b, 034d73b1706100bb369b5abf527c9d3d5ab5bf22, 7a16f92c3380a79fce071cf28ba7ec7b87b692ae, 3771504c12212e91c6f324a9f61def3dc6903134, 8c616732ba5c3df6a9d22567b6a9fdf0ba9cedeb, 4be6a4bc4fb4b929b97bb4c72ef4729dcf2c62b0, b1006ee4a5f896096192e3ca951b4be1ab45b7a4, 555eab8041717dd780f05681d4528487fef5d694, 00e482615d1a535e87f98b3826ac46666851136f, 91eadd8e08acf12a68db2bc8bc135a5d3eeb2796, f6f145cc0f421674e584ca470375a950bc6172f1, 85b35b8111cf959657627068ff84cba122d26c18, 361b852c216f548a1544113e9de0588e29196084, 2649b8c3f985df35c28634d3fb4c27d783155722, 77467ada80cb38a02ce7f244411b4f803525e5eb]","31","1","2f667e299f36e9bbaaae5651402c8e4b390a2f1e","21631e1fc90f859941d31b4d97a630cabc96bf8f","8adcccd1ac4dffcb31c58e0632163b36bcc21628"
"https://github.com/alphagov/whitehall.git","2786","9","[4a25a2747df82fe90ea0e4f7e0ee2a570e950270, 57ee045bf111a3e8f0256eeba3cb664c22239a49, 81712f337dc5116d56bcb9c66c67ca5f32feba38, 7f15a10599c0476b6944abed69ab29648326c968, 51ec8efc436d77eeb5d074b3d5d04a29e4eb4fb1, d99aea9b67cb017c7311b1998b7404b02c91790e, f8d4e027c7b16c618aa31c5eacae66266fe6ef2a, c382e943e9aeaaba89906f6253e699d6ecc0b56b, 0b9d9de550df4870e29e2252de9f317bbba61c1f]","3","1","4a25a2747df82fe90ea0e4f7e0ee2a570e950270","c83f7dad10e87c88b15e8328642a7423837c913b","285522bada9601f3657169239931c180dbb848b7"
"https://github.com/alphagov/whitehall.git","2827","22","[7ac2b6cafc6e7b890415cc390ae43d0b303706d3, 39cca63344a2608435da95896729d2a5a79b3716, ffa932a82742f2dd6a9fd3502bf5dac35ff4b31d, e37a1aba69fcbb6b9b6d09a2a5ac6370c4b07b85, 69e598bc03647716381231855727106ce1d7f098, cd86dbc853af9e69b9434b637cb50961bfe4522a, 16694440ea9eace837e2bdedd0a9bf253572414d, 4752c162b5b2ccda944baf47f1e3ea2205cabb4d, 9e915d71e45458459deee3325dd6e3086eb6eec6, 8353b4aaad3cec619d4a1b3a8dc8ff601f2a9e57, cca8ae5a1b2202fc569939616bcef55d6e173f6d, c886371140df77bb6f33e106981f30c7474d2674, 3ce63be59aac56a7d527322c6992ee6598d83c6f, fdd8b55c15f96143ee9170ea96ede3ce95c76506, 10c8805bacd3a67e4d058668494b7fecac8d72df, 1c99af7313154c29a81e09469229c249f01ecc10, cb5227fa72c3b46a328e7def7448e1008e264648, a127af61c95a56d8b42d6c371c86866a9aeff349, 300a2704281b865e54d6390e133ae3775badd1f6, 3793559fa60d41e1d66607beb6994aa961ef0681, 108817beb6b54a020bdb4b4781023ef58e60734d, e9913c8b3432bad4da9685c521711b50e688028b]","16","1","7ac2b6cafc6e7b890415cc390ae43d0b303706d3","2f17698148b785207a06b2feb3d9a5d8533ad716","ee1ef82304cc42fea195a846d6919e9a03d53ac6"
"https://github.com/alphagov/whitehall.git","2832","2","[2603e8eb1b031318624c84597d8d1652fec6679a, 6ef783fbd820b1341568a4c414b2511a224a75cd]","3","1","2603e8eb1b031318624c84597d8d1652fec6679a","ee1ef82304cc42fea195a846d6919e9a03d53ac6","ec947b61ec869f6bab5475f25f1241d7e15b5d4c"
"https://github.com/alphagov/whitehall.git","2847","9","[f82796ca190dcfc72d01991cf92b586527d1dc16, f95e5db81ffd8541053ce3a6539f3135ef441b7a, 44d889ac8d0319b20325469a3d4c5088ef7f5e71, 20e2bcfd8e4cbb1968f5c96c3434c87f7d235416, bd7875282234c151f0a7b26bc7f9a84fdd3d3d5d, bf2f25c1c6b481f118433d48f7676b64e4ccfd26, 4e1fa5627c0810ed31ea0dda4c460ff6c20c4f20, c9f3ba237b42f063a99441e80f21177760c8351a, 1da4f1079830d3ae9112fe9b376dcd34f0be8484]","25","2","f82796ca190dcfc72d01991cf92b586527d1dc16","207183f154b2dac51fbc0f74d1ed651c6d699f5b","1a883e791ab5556f6f99f53a29d858ba8b0b744e"
"https://github.com/alphagov/whitehall.git","2850","12","[de5de2f4d53f1f7b956139bcadacad0d48e7802f, 8ab08815661f79d4a0e7a67fa4f013f0bfa54293, cedfbd2b0d4aa0412792938cfa1b79d4e14ac0b8, d07d8a10438eb6f4648b51f2bf1ee9324af6354c, 123ce41cea4f6b9f408aa38e72509ba65dedc3b3, 7987e9708823f88a94c6cd9ad8e38c399e7200e1, 4546186192e9a70172cf4c9f6b1a24d461edeca7, 1516a6c7baade9cb04a59b58ddefefce371b2c3d, 9a9d12113ad4a1b2f7bb043511cb83d00881c37f, 6165a36560da0b4ee8790a78102389824d4d6547, ac11750f8d32f58d8f802cd0b93aeeed40d53f89, 3de6e42b2cd3c62630af820a263f714696407b1b]","13","2","de5de2f4d53f1f7b956139bcadacad0d48e7802f","40ad24656284bf07976699027bac7f12f32f7cb1","cdb1c52815c9c6e95bd64b736f6f0f4cebb3929d"
"https://github.com/alphagov/whitehall.git","2851","14","[d57fce3bcf30c37200f2a912f14430b1aaac4174, c1011c399314b65661139bc978e32b95a7e1da00, 29fddcdddf992af75dc97300fcd470feee9b4bde, ec6938e86ef88f0478e9ee9edbecb3b95d1a6b8c, 1fabba27156a2e8215f7cb67e5e31b28f9da809b, 00a9b3e64f3e6f5db2b13564d0f4744227ff4a48, 3911876c9bd0e6cbad8460682e15763e5c5cf598, 915fe0dce6bf626b61eb72f574d431dc3585a9cb, 3be9bb00653bcf7dda394c47ebf5f8b25dd7743e, 928deedde6531642cb3ef93ca4ea29b019304e5b, 542446e931c5fa5b6f014d61522aa82eee19e93b, 1885a126d5937a0dd99b7c5c28eb6c4942d272bc, 95466ecff33de53ac625171729a899dc8d8696e0, 0e8ca253ca8d7df44f0a4296aaf6456fcdee2573]","21","1","d57fce3bcf30c37200f2a912f14430b1aaac4174","40ad24656284bf07976699027bac7f12f32f7cb1","a62a47d87a9bdabbe63af7c7dbd19df562db4e4b"
"https://github.com/alphagov/whitehall.git","2871","24","[900f3451ca4f9dc015d92e7a3e544723f8d4b3e4, 00a4a2af584a16360ecb02b1c4206a233bb5f95b, 1fcd39cada078ae576151a1a2da129d573121ac2, 4744a304b9cdce84dbf9368b8ab61f3452c43ac2, 90cbc628271f2ce84bfd7d46a33600f350eaff5d, 8b4ed91f5cb5d3d7690f410b9b0cd748c7b94e5d, 548c10cf6ec8b2e3c802a4ceb5d1b2ee0c76fec6, b01eb72181b5af21785e9ca46ceb383c1a9f0b43, 7a953af8caa97348c61d8a80ec166e3bdb2dc4c5, efc9526bfcc5d26a019d0c68e44ac96dc72c7bcc, 81a788f0159355cf3b6892008030f35d6e35c119, 5b2eab4311a09866523568b8f636b8eeb22846b5, efa01c4439cee629fb06b38dfd3f4da43dc467e7, 5e0b62abfd98971f39513f7b3ce872e77d3ecb08, 3942b03dcb68d5f554110198b5837fedc7e4f72d, 87fdf06a2a01a7a80c5fbac013df7eee58790425, 27b69c7a0468ad06a4d4445b69989ca3bb5533c4, d5df15b2203f1aaa3b76fabac59e1c8b9bc5483a, c8e010e5400fcccea7136de6247d739643c470e9, 676a8c63abd77b1479171e82b52aadb8757d499f, 72576d8288f6a183b657ef83194a63c163f0078e, 58018960bec7739082e16176d18b3649fa55486d, b605e2b4812c759762981c100e452ae7cdde8e97, 39552c2ff340d300efa108228e219d66b785203c]","79","6","900f3451ca4f9dc015d92e7a3e544723f8d4b3e4","cdb1c52815c9c6e95bd64b736f6f0f4cebb3929d","b75beaa6466a14efeae21ad49f129d996c1e7e9c"
"https://github.com/alphagov/whitehall.git","2895","11","[3dbcc7ed941b2353b920c7269b47a369b8cc691d, 31eb4bb62bca0e10923e3aaddb235d3dc107869f, 595e6eebdbb6003c148dae1c7115aab8b989faf1, c8d2f8e21a477546baaade2d1a7f3a320b196949, 3787221e48879d1a08d09a9a29600ae7e126f017, c748187dccd66b95cea16a1f718f51e88afc51d2, b3001c6e038dab9804d436a1971fcfdefb58bfd2, 15039a6b1c8fc0661339b08efd72ba4df98652c3, 6c22b12cd87c2913e8e8b25b6aaf771436279b80, 4c10295b1fd3cb8e9264eac31f5b18833107fcbf, 1ef540ba3dd65f97cd204f8eb3bffc1ec5b879ab]","5","2","3dbcc7ed941b2353b920c7269b47a369b8cc691d","0084b2b65cd5ca7bd4fad05cbdb4790ea50d13d4","8441301af7e8e51abd15a12d608616be3baeec7d"
"https://github.com/alphagov/whitehall.git","2898","23","[d81c463f19cb8d9a9a8420eb22b21ffe8ece842a, 688abe7a17f36f9f6a03688b359ab88aa73bd2bc, 37adfa370452bd66cf033d711a1022830a94bfa3, 2e7ac301631c1540c9e56338ef94e3d073ee8277, 43c162a327f8072d7586c51d0855823bf32f0b06, 60b6cd5ed09da03c7f3265892717c27215b8e865, ddfe899d20263c87c4c8ea099e3c8db10f68bb31, bfec61df71fb8e6814460d53a197155b3f4f853c, 1d74b296115bf19cc0e87a5d0d01a527650c9816, 2881aca939ce86cd3c6c6a5b11d70d7a781c4642, 2da7809e7daf6495f1ad6aa6e6bee5539f80be5c, cf52d9f2bc0c08c31831c2ddb53bea62b926333d, c691de64dd09f15004a73873b783a05d7ae7ee0a, e22029daf7ff721e7dadfdfbe11f0a650d9895e9, 564cf76f96a19e03c7008fff10f4d49709eaded2, 518267fc95b179db98b9d1eb655c9ed450285c9c, a9d8f892690641623d619c658828616ff4d5d1cd, ef2ac70a215dc241db9e510a334b7a33211c1735, 5797ff9645c3ae9b75720521f794bc6ec15fb162, f4b444681e5d65b289ce023e7212428e8aff07b9, 75651120071154603ce9b6a761bbe926988fd7b0, cd03234315ff698579feafd1e16f4d31bf0e44fc, 1afea186b369acd15dccbbde9f6f915c167f6a68]","34","2","d81c463f19cb8d9a9a8420eb22b21ffe8ece842a","cc479b553bab3fae41abe03857f71cedd971ac66","34ccb4a3f5c2cfe5534f41a73b5e9a57635e7b61"
"https://github.com/alphagov/whitehall.git","2899","12","[e6e9b1ef85c881a4f0edd559f506547d946dfae4, 1a78dbb6a1d7f0bc07663add2d002e5389ee5640, 1cbda1693173a53323f708b8b147ae5635db3386, 8a02c9e7be3463362a23fbadb9a16999e611d388, c0c3ac22b58acab6d53050c960fac99479158386, 45de04ca9c46b0c9021ca6a051c3c613e1678f6d, f2158e6ac468232186c94e75cc2353402ef403c0, 9b52046086c49c61a36047ba7c9da238078fda52, 932fc6d00cb2c310eb3b38f4794ce51bcc7069c8, a7ae2208de74c485b5206b9fb8da022771c9fee0, afa05e337ca97bc887c9bbd79c5ed08f91f1adb3, 8d0f2649125c0f340b6a62640c97c306e3876496]","9","2","e6e9b1ef85c881a4f0edd559f506547d946dfae4","8fe9858403f9e1bce337943f5954ff40a8749bd9","bf5a919eaca885b9b979042f5103df819ff6c0de"
"https://github.com/alphagov/whitehall.git","2901","7","[48753536661884a4a9cf9b9d6e9aa82bea885ded, a364bf9e319c45fcbbb3d8fc32cb57b5ef3cc64e, 78a30d495126837efa19fe7597a6a4a832f6d8c3, 8de304604779de83a87d0a7723029583086d581e, 1ea0843aca0c4166021fcb2779e8d301e06984f4, 5ddd70c13a406ed5680683fa42ca9d556948676a, 41bde3834901c6dc22183663432fea98f7f444f1]","12","1","48753536661884a4a9cf9b9d6e9aa82bea885ded","bd79fc7bc42ea09962cd78f3f9d676a0a4a4bf7e","3bea0e854bcf37ab504ef525f8b76d45193ba81f"
"https://github.com/alphagov/whitehall.git","2902","7","[e6d84356a52f98a3cc42744e636da49cc1aaf91c, e3801b95bd38dac71376266a362be997bb5b3a8d, 67dd0cb0a1c1ca7ace2ada31b259cc1ec5b8892b, 3e08d4d61f2b3003cf194b3784beba0e6cffe90b, bfd4c7387ef82c9b30b4479041d0423d5389442d, 96cb8a3f0b310e26dad9b8bfed0f76898e5036aa, 41b0013e8f60475cb5a9e01290a59e56eb67a639]","12","1","e6d84356a52f98a3cc42744e636da49cc1aaf91c","bd79fc7bc42ea09962cd78f3f9d676a0a4a4bf7e","cd424587dfb1cb691ce7829501d9c4a93772b119"
"https://github.com/alphagov/whitehall.git","2988","46","[78ad9cdfd55e5d7d07e96f4107777d5dba52c7f5, 02dc58ec7b932144439cacee244b45af070394df, 1751eac22d072c0e3930475f0b19228bc9f04566, 7bc531d3b7b73e9b7c2c10b3d26fd1f773900812, 96a80e24ed4f0c72b52d882ea0a78d1856557b52, e539016b07c82735f88f946a5c3987a7483a5f3a, 15c2d6836bc186d4ded009d492f84c5db1652dfd, 57b17ebaf75b6f544000a3765af014c2c839c915, 7ef7625018b90d3fdb9a7f3d60f37b46f9f05e36, ed895abe05934e803d7e382d244ef63b660b7a7e, 1d0d2bf4fd3717daa45ce66300f9d71a03cb1d46, 0c602770e3a9fcd4bd636e0d26d21d2cf3d59c09, 03c84b04e6868fd233be9f1f7f19404236347702, 69b3e940a83123d58ed4f434a1c5772fc337a8f3, e65b800073b0df59b191001c32b8a8bc85aa895a, 0ccff8f5eef4eb68b22be4b2920106cfa0f149a1, 945100334c07e81b586150744cf338fe32eb0726, 3746a9feb495b02a01db54204e08d5e37356f9cd, 37c8531d04b7ffd110cfb1271de0709fef2c49fd, 4c22c99fa1776a7f23ec67b0a9bafb4c06373aee, 52c2e48548d88c60759eb389c21f4163b9923eed, ccbaf4499674e54b59f016a986d470d89f805117, 1e724d0c1bb5dbd6644982abbbc36bd1ba5229e7, 4a277bf638dc87720804315be67ed3146de66198, a844bb955614b4eb771b57712210fe7be43da3c7, de9fee552c3a8b7c95e4c6df3b3b9d0b1d9a14e2, cb51943f515a02bae99214912de5a7b7d3412ff1, fcd7e786486ba25ad70dd202b450488af8543de0, 237cb02c6b93725baa4c183a1b31ed5e8b35a78b, 02fefe28b6e7472711ed34cb8f42a76ed9c15406, 3a51d847e092b8725c4f7bfa7c762c9c43e83d9f, dee53d1e208f6b9ac412314646c44ea726b5542b, abff0df67ccbfa821aaed27c1a4b0a01adac7316, 69c36204546fce689a9d2633a42ab74178bcb4bb, ed8dd7004e2bb645bdf750f0000d0ca560ab404d, 998ec91bcb5a2bf547cbfe1c8f2cd5c2b5e308d9, 866d57c1d8839acafe4309dc37bcc391ee55503f, e9d1c53287848345e7c5de6944c2f0a45609d883, bb063daf4c1f11fa0ab44aff5f88e34189bc07cd, 3e3fa77ba8f340341436662f0123e03e00e66a4e, b0662de38130d2373f4295824aeb6cae722532c6, 4adc3dac0949f9491aa045507136a92bf3f9806f, d4e53da05b8d33681066ea65fee1c52b02dbe547, bf1574a05f0b628fd7418892062ed8913cb5b50f, d86a7010ffc826e7e0e8afdfdeb7031ec4c0764f, e1b0166d6bf98c91de9d4c626fd611f1aa5d942e]","30","2","78ad9cdfd55e5d7d07e96f4107777d5dba52c7f5","9725d34ee65265e4ea5836665e5401c829507a99","c570f749339f9c0a99f7af3f8810b5eb255c5f49"
