"REPO_URL","TASK_ID","#HASHES","HASHES","#PROD_FILES","#TEST_FILES","LAST"
"https://github.com/alphagov/whitehall.git","4177","1","[aab68fca3ff7213a4c54f2f1c419c9e99587d914]","3","1","aab68fca3ff7213a4c54f2f1c419c9e99587d914","9a68950ecd54cfc3148abe94074eea9fd3d71f57","2528acec560df10b6d090581ca9c4888b2ef735b"
"https://github.com/alphagov/whitehall.git","4180","3","[7087d985ef6f93cbc3baa08806b11ff33fe124cf, 8ac1a3ce5b5175a78d4d4d95600ccae6a1822ddf, 0f7c4a2ff2e9caa9da7b9d6966e6e0e94f41a9e5]","1","1","7087d985ef6f93cbc3baa08806b11ff33fe124cf","90e62b9e551e9fbdbedfc67462d8f4c2c0e9e3dc","ad067ce5d96b27f29d2dda92ef8272234a6181e6"
"https://github.com/alphagov/whitehall.git","4187","1","[550e3a68beba6f69daaa290ebf287c5e1fb70fa2]","5","1","550e3a68beba6f69daaa290ebf287c5e1fb70fa2","a1bc06c04515da8e692b8bcb9f0fd316ae5a16cd","2d85569672cbac4fbe560295930de90c6e0464bc"
"https://github.com/alphagov/whitehall.git","4189","1","[7d74dc8d8b98e70c8a30d9bb62a5ffb8103b4c54]","6","1","7d74dc8d8b98e70c8a30d9bb62a5ffb8103b4c54","7aad8a352105578f0d93050521378923735a9ed2","531a9e64b8c0c6ed4ae9138d79233a0cc0b67c98"
"https://github.com/alphagov/whitehall.git","4192","1","[3f2a4d65f864dcd3067b36c8e3acb5ba6238436b]","5","1","3f2a4d65f864dcd3067b36c8e3acb5ba6238436b","82720f805eac1436d4adb7ae35d82ad8ba274702","4e1e0e3364f59803eaea60f6237659d7e57da639"
"https://github.com/alphagov/whitehall.git","4236","6","[d8b462eedfb5c9ab22197876aa26893326ae28ae, aa43e92839cefd2f1dcb22394c28c45d52f67195, d40e99880dfef3fbee50ab6f681d173bff2ca8c9, 52bef86cfb629e6831324af1f6296dbd6290645b, 63d8485da9cb90201821f2f0d4f77011024c3adb, 4a1984bcbb720e87164b59ac2afa24bf04a0242f]","10","1","d8b462eedfb5c9ab22197876aa26893326ae28ae","d73ba2512579dbba02c605592ca13e41e7e555cf","8d84ea5a47abd57116ab54cc6bc359cf109dfa7a"
"https://github.com/alphagov/whitehall.git","4240","4","[ade76f693f401143746eaffa84f593ffee4fef73, 19bcdc3303d5bfeb4c46ac8bd586315cbf695f39, 4b73e8bbf8156cd85e5076f7100ad13ed07b02c2, 319bba3572a76b88a751d14bbc56aabc9b56d913]","7","1","ade76f693f401143746eaffa84f593ffee4fef73","910da4a79d185905735c9a2b6ec462f8b254599d","cbdb8cb5540cb99de09b44adf1032c0b83526e75"
"https://github.com/alphagov/whitehall.git","4249","1","[0fbb48b1f168f609608f0c6cbd34499d424f4129]","5","2","0fbb48b1f168f609608f0c6cbd34499d424f4129","1231c1473f0f69ef5432b3c192a255fb88f23b35","32d3027ac38e9a53bd12ddd5f999861ed939dac8"
"https://github.com/alphagov/whitehall.git","4258","1","[ba672e8da899dfb5156afbe4eb3f7a32913c5443]","1","1","ba672e8da899dfb5156afbe4eb3f7a32913c5443","6419fce0e5bb64e152f16c85f55bfa8a556c6699","dfaf840a1d1cc1dc8f68c328eba4cccd570ce039"
"https://github.com/alphagov/whitehall.git","4259","3","[dfaf840a1d1cc1dc8f68c328eba4cccd570ce039, 385ee09601316bc82a5a8d72ca0cd96eee2fbfb7, c867137eb7455ff18254e7a999b892a477d7dbc4]","7","2","dfaf840a1d1cc1dc8f68c328eba4cccd570ce039","4bd61ce8cb41910ff9db16e4c6f291953a9c403a","f26b64029bb51366d66ba8e494369efe55fc9b52"
"https://github.com/alphagov/whitehall.git","4260","2","[f26b64029bb51366d66ba8e494369efe55fc9b52, f7878a9f152abf18a190142ee8d94387e9d17be4]","3","2","f26b64029bb51366d66ba8e494369efe55fc9b52","5e9ac32547744b954d4350a85dcffac79e82a989","51cff621e804128794df582cdcfe4a4985e794b8"
"https://github.com/alphagov/whitehall.git","4280","2","[b0e99e3163e47bcaaf37459b8d3752a17747e88d, 4a332e3befecb84509f7c97479993b7ca025700f]","7","1","b0e99e3163e47bcaaf37459b8d3752a17747e88d","391ffe518be7fcd54fe216dfe4f6b0a6ed9b8365","f270cbcc37aed6ec6d29f77494b01d5453e939c0"
"https://github.com/alphagov/whitehall.git","4283","5","[83c180e9f25d4aca3eb747b4c23a48c07c2b6e52, 7edd9e3b0f6f2840e31699183b52d694d9c4c74c, bf4f7ad174a71673fa76e7825f81716cda23d433, 36880a308f5c6f58189f1e1dfc5d560c6f5c26f8, 3b525bbaffaafc364d2be94023f56b1787f49452]","69","7","83c180e9f25d4aca3eb747b4c23a48c07c2b6e52","d4b39ae45033ad1733a0d4ee0043f75b1e3173e4","04c467c6fc18241fff5b31e0d676ae9424b61812"
"https://github.com/alphagov/whitehall.git","4295","1","[5f14118b7869a9a18c143e2c6aee54f3f23d65d6]","5","1","5f14118b7869a9a18c143e2c6aee54f3f23d65d6","63eb8459d457a7cfad361c1b8e66ed2603800eb2","e7c4a2dbf97170edd50cede7117e6c49a5460b0d"
"https://github.com/alphagov/whitehall.git","4305","5","[0dbffdba4e9a2b8c5907e1659640db73209e07fd, 62235e3e013708365a70f66f91c4561a953c426b, ef0e891f9de7e778dad00ae4b5b2c3c779696ec5, 7301745ac509c49b9fa931c810c4c569210e710f, 07a9628b9f00e4c55b85568c031709ae669fdb77]","15","1","0dbffdba4e9a2b8c5907e1659640db73209e07fd","6afe579f0854eca3b158f66918e9f7db9be157c4","a1ad261448146a7371bf3df43865af7dfd42381d"
"https://github.com/alphagov/whitehall.git","4310","2","[c3320793447d20df01c852bd43430b93dbf2ab23, e3df43a3c718994fadbdcab0bbfc51e4295f503d]","1","1","c3320793447d20df01c852bd43430b93dbf2ab23","b9507d1aebc82d405da65d32c2d452cacdda6454","3c5a341fda7646756ce2563f10133c9c4120b5a8"
"https://github.com/alphagov/whitehall.git","4319","2","[bbd3f01559065c83133b866d5c08e89ccc984cf7, 00844d206a5198208be59e88a8fdadc0b42ad503]","9","2","bbd3f01559065c83133b866d5c08e89ccc984cf7","a9cc45ced0aea4771e5f56714267c0176e8ae237","e1e8d5c24f35019996c9c30319d46a9358695642"
"https://github.com/alphagov/whitehall.git","4325","2","[36efed2e3696049b0d23e7f5c5479ee038f45c92, 6f95e368fa8543c78245e9dc26b6a1bee8a282cb]","1","1","36efed2e3696049b0d23e7f5c5479ee038f45c92","424d6bec25970c8bb7e6116929e8c8cab2385251","23b8a4e6f9f525e462925dacd2e051e67e43bbd4"
"https://github.com/alphagov/whitehall.git","4332","4","[17d0814c67d80a2d71427a1b363191cdb6cf7d11, 60b7a225bc74a6d1e57b0cc8044ebd844b2b6132, 8b5a6639e44b64167083395f4ffe36bc9a73f927, 96dc94577333dc1e26cc120602e7ecab4709d918]","4","1","17d0814c67d80a2d71427a1b363191cdb6cf7d11","1fe51a5dc493d1cf32dd0f171ae474e071121c77","28d87d9863ac6625250f4791c4006e99f79372e9"
"https://github.com/alphagov/whitehall.git","4340","1","[1fa9365c37026ebb94e1064479f01e493b4d8877]","1","1","1fa9365c37026ebb94e1064479f01e493b4d8877","9fe3d408fa47d7b16f896aa4ab288b1fc1edc3e8","7d284af64285b382a940edcfa18d5a079a5e8451"
"https://github.com/alphagov/whitehall.git","4347","1","[402e2a6fb0876b21313054be5edf67599689deef]","1","1","402e2a6fb0876b21313054be5edf67599689deef","d9ee9d880c9e2c70d0a7de69d822eab5b66fc5a0","d925d3bed994c65c520c2b656d257ab30b8511ca"
"https://github.com/alphagov/whitehall.git","4350","1","[ec82660af68dfdfa9a1ff47394e3a117c9f8f3e4]","4","1","ec82660af68dfdfa9a1ff47394e3a117c9f8f3e4","8154c7df747af154fde775ef803efe5efce7885b","fc79c8949535431af1251256ad4ca8eb699b7b00"
"https://github.com/alphagov/whitehall.git","4360","4","[32a330101461b134ee8b4289b60c2640a6a4e588, e88716fecd7d4a6efa39cc2f3c7117f83e6b77b9, c1cb90b181416789f3342dbd3599fc6ef3471a0d, 117205004e305a36b5e3c6ce0c54a85f93c579f8]","5","1","32a330101461b134ee8b4289b60c2640a6a4e588","4318e213136ad0127c27688186849450bfe303fa","7ac207b229e1a273d6a599ec9639528421debecb"
"https://github.com/alphagov/whitehall.git","4376","1","[49f70b30b47507bd75f5dbcb7fc07bf005818ed3]","4","1","49f70b30b47507bd75f5dbcb7fc07bf005818ed3","80d9a0fd72abdab17968405ce0c8e364ccd3e4d0","f5a6e17e63354962e6ff36914a964a8261a828f2"
"https://github.com/alphagov/whitehall.git","4379","2","[6369f92d213825a55abd19b2fa3ccc334687b13f, 4b95b22a9af1c753a01cc2bf102c3791897361ed]","4","1","6369f92d213825a55abd19b2fa3ccc334687b13f","f78e27f237e6ac7f5e51ba1be07467c7a0c94709","8f0489bbd4ae6befa394de50b3ba8089d308f753"
"https://github.com/alphagov/whitehall.git","4391","1","[bf2ba74ffe4d4dde910c0d25e53ffeab9e4e565c]","6","1","bf2ba74ffe4d4dde910c0d25e53ffeab9e4e565c","e71c4b5d9d1e5f20e465e5e167ab2c73f437e178","e7561ca0f3958ef17dc9bd5c3e508e5eaa69856f"
"https://github.com/alphagov/whitehall.git","4408","1","[e063e663d6b72f33f9bc3d7a1f505afd2aa354c0]","3","1","e063e663d6b72f33f9bc3d7a1f505afd2aa354c0","1b280fc504ed487ab79a755c897e053185cd1829","cb7ad09c551b518983dc0aef6035598926867569"
"https://github.com/alphagov/whitehall.git","4437","1","[005adc7edc999fac9a3b4f74609ac0d5c21a8298]","2","1","005adc7edc999fac9a3b4f74609ac0d5c21a8298","b01f0b55643cfa0a15e6c52c52397db62bd59f1c","a823afa49dfd449375b2a2f6ffcce69291d2ad15"
"https://github.com/alphagov/whitehall.git","4441","1","[3738ac8c902a41bf6458bccc9f8acca747b0b1e0]","5","1","3738ac8c902a41bf6458bccc9f8acca747b0b1e0","09ae3269624bab973cd94fc85f1db2c1f6d20298","6ff020437eaeb39715d9d08885375ee4c3b10688"
"https://github.com/alphagov/whitehall.git","4458","2","[b68ac566946fc38ea1800ac66b2eb8b2dea0294d, 6a695533555d43a1dd9d90b36fe6faca359b8338]","2","2","b68ac566946fc38ea1800ac66b2eb8b2dea0294d","441fdefcf7c164de03a627e2654faeedcdb15697","6eaf1e2b81fe275580d24d63a72d56ef5c897049"
