"REPO_URL","TASK_ID","#HASHES","HASHES","#PROD_FILES","#TEST_FILES","LAST"
"https://github.com/concord-consortium/rigse.git","934","13","[3d404c2d01b41bb7398304a013b11cc6cc8ec073, 0397643ba130b41a9b988ee0c8820c22742de57b, 5f363918bd874d436de1d60b016adc51e73beb75, bcbb4250a6e980e30da90d3c2cddadb2f940c71b, e2545ff2d18b5805570f81a071d39ea9ae37ce89, 9210da7dfba9c3931bb9cc8ed19922b5c1fb45ac, f2a5a98dc3ce416ae878de3b3895bbe7c0b6fc75, 20f70097c8d8f779e5dbf381b3edfe833c10e7d8, 7c668b2a57ebb47d54a4d38cc3a9141c7655d259, 5b39e65369c05be4433f7d859d7bd5f806ec25f1, 7b09c528021e18680a4d2ef1d409d68bcc53aba4, f3f204c2ad4d185b3580b486b6937a58584fd726, 22e8fabde08c97635c5012a7a0ffa83d1639ae36]","27","3","3d404c2d01b41bb7398304a013b11cc6cc8ec073","4f520ca3cf79a67b1d0362d1d2eb2c94ff7d037e","7bb9e6fbdde657b0c02e2897937ed672072d3758"
"https://github.com/concord-consortium/rigse.git","944","19","[851f106ce2e0d607619575008f397160e8dde92e, e016758e80bc03e762bc78635ecaedd9bdaad110, f70756743c0925734e62a6c786fce7309e71af33, 706a8e06ea93d949eaf56fe7fb269a3778e66732, f4f0598adfadcacb5706ac63829300a0b83f4606, f19adc5df20f315a1bcf83b051a44d538986a462, 4f5c813e67cbf3d0b4396e8193404e91526950d0, 9ba70ee3610441fd9718c4ea10f0c9dd0bd33b14, c411db6fb5eb2bd85e357ffe4352d54c8cd8b676, b7b21099b714003856e2b54262e88048a65941f5, 8b2e060c7fbde983c4aa9c745c8b1b8e0557a758, 06ac5f8174d91cc3ee6ce9f9039000578677d7bf, 41989c2f55ba779f0f681c1fd5150e8679b92427, 91c513aeec6a248ce1f0d92b8c93a38a1334e9a1, f1716140b91332850c25d93817538945e5c32553, 5c1b59195e3cabab8f6589a09d1ee17f7209958a, aaabc8d81a722190668f3339ce1fbead6163ec42, 538a97edca01583486c3aada65f0ad859ec26bf7, b76c2391dd45f65ba0e482eb6ea93b2ee0953936]","11","1","851f106ce2e0d607619575008f397160e8dde92e","91fa7893d1e82e2f0b388072c6b7e5b55029a59c","ae48f10d0620a9bd46e8492bc00c4ea153b0f9b4"
"https://github.com/concord-consortium/rigse.git","953","17","[614c93503239b823720e1d9194327083807cb03a, 538e92bb5b9560e8880b6a252debe8e8834d38df, 5c9b6816f9de87c213d79a0c1cc17bad20cda3f4, e3bb949a6727020dcd9731a025455fe0fd9c34e3, 7dce00f8f539d15d95d4d500ebec5ffcaed47fb0, 36de54ee668d4aa77dcdc406ca5c6f2b1d76d5ac, 3ffc84bbe60efed52c895795dc02334312b3862d, bee19969b16876185f2c130c4628b634ec66bd45, 3f9b940feae77a1a852fe404c36a5d14b145ce25, 3a093838b4e6f6ceabe237bf49632f2a6124e79c, dfa40f1a3122c71902a1d91631ff7575f43a17b8, e42c4b19108f8a4e968b44d4b6c9bc249ede11c4, 2b97247203128b476ef3d73fd5d56c62ed58d066, 9f9cc07988aa8f05647fbc557faf10217d6f8be1, 9c27fdb3c0f01105c6d6138147de2dd287ed7fb5, a55d1b86cf7334069e7f5228318924d2f7d24d56, ec660dbae33f673cfd0ccc46811a8eb2cfcb2d22]","12","1","614c93503239b823720e1d9194327083807cb03a","decb7857c600ec6fcdffc9d8e3e8be2222efcd7c","160d14a71dfc25e0baf103cb65b8fef240142fff"
"https://github.com/concord-consortium/rigse.git","955","11","[e8c18ddfc5526ea168df1cb52f82ae2ec26b12ea, 7af0e2fd2eff6e865287aa55f8818e71e26636dd, a1b16e6c13153f8bd0f15d46ec3a68a3dc290023, b6169ab7e89df8df5d3b9d252b6eff050cc928b3, 3ebe725c32028c43608616e5d7cb4db1f0cd1e1e, ca701cf53253923e35458447432fe9bb6bf1aed1, 917cb153783f791a109c4ea764feecf0826b1d85, 773672620d1373bd179b0e795a4dfb5b2f7bb1f0, 2b374194e242702ab1131fee7f53580978b253d1, 6f49ed63aa0af6fd54684dc941b01e7237e143f9, af402efbee0bbbfe16d8a903e9fa59b3f446ef3c]","10","2","e8c18ddfc5526ea168df1cb52f82ae2ec26b12ea","081555052f7d291b6ab242841fa67181410dde2a","9c84869c266c9b7966390157c2bd47a6e4e837de"
"https://github.com/concord-consortium/rigse.git","958","21","[8f3afe61caf2eaf7f07d7f8a450e145de0fd43e4, bbeb58f9f91f200d505f13089efc64332537c5bf, 99100add342bce5fb7eff552f1f11f541cbf680e, 33e67bff701d6584459597f5bbc3b963829f8ef8, 123feca941103fb9678e6a4c15782fb3a2b569ef, 840d6192517ea770bfb5bf7757c13387c38494e9, 0db1ac62425b5b8b1f748327e0af32bf7e9de819, 97ca85a6840bbbec1fd976c605419653b62f88fa, 20d3f92215464d8747b22292155c808d4111ac8e, e6e9f6ce282ad76633e7c5e073dbe553bcc143ae, 3692d21a58ab7c4408c7eccf93305de869a0cc6c, a07ea381247a9fc99ec1342d7880418f64c57e6a, b7bd92f48d37c8994c73351cabd881bcb43e42b9, e75c907ec6781e3afd1e839af5ebfbe5b72f7328, 96eba000a64bf757be6309f9b7e0b7fe863ef7f0, 33e622ca92a9449ad3f784d9fa8f7f7f56195a1c, eb4add57958788955fa5c956bb11bb03864f6128, 4159d98fd807b801489122bca406039ec120ff1e, 58f8d43111ebe4d02de2f5cb7401adc949cdc914, 8499750824ee62c9116b811b7fe262f1e6196d71, 830cc0612ff8a9f1021d57505d47b11f785cd315]","9","1","8f3afe61caf2eaf7f07d7f8a450e145de0fd43e4","a2b2182d6e21a965cd55579bb50a70553e2ace9a","f8c2344b7dd0ee3ef538c9ca3b9dd61994c619b9"
"https://github.com/concord-consortium/rigse.git","971","11","[26483eef1e6bdce8867789c69e466c796192d4ef, d17c004f25b2bf6653452201960744d0d27394e9, 6640934dcda98e49bf9bb2db735b9c0403de8f73, 08955ddd9ddde57d77f8a7b40cc0e217ccbca988, 26294e2fb26def33fe6fd40c0428f63b6b6d54be, 078a057b007e72fa0bb69087fa5115f181a90557, 95a36764d1e5ed1b423179e7fc7d37be5bd7b9a9, 631bc4d837768898719d2f02325629e672d77e18, dfc5a9c03c93a8115a234416ea27aa2e0a0d5336, 4c65a6268e33053de390b607feba2a95d2ab2b26, 5011da351885067a601e6e7972c5b0698d0ed705]","11","1","26483eef1e6bdce8867789c69e466c796192d4ef","cf5600d87bc706178fa06d0e97f19850ab08af50","4a15bd98f9bcef24c17a51163aa619ede37e1af7"
"https://github.com/concord-consortium/rigse.git","978","7","[fb9177205b53f88ba5706888d25c0ba4621c774d, 20cc802bb19c3a1bb422de2ad2b88baa71396edb, ea01c91673707fe47b2c6c5400919ab32a75b81f, d013c842b979ce2f76971d8bf93bd711f58f174a, 69e7624b81827dc0cecff4d5434e3bd599d489ec, 3605311ffdbd0d56b57b485cda6bca30c844eaa5, c28695b6ff7b1c89f455d6eb987c40200ec82947]","1","16","fb9177205b53f88ba5706888d25c0ba4621c774d","4277deda98e8a18ef232fbc91af08b48e881f2c1","be998872981df65e1760ba61538c09e969004a9d"
"https://github.com/concord-consortium/rigse.git","979","9","[de912524f6bbc18ab025ece7c1931715c9d6152e, 92fd83a2a1f78e576ee676b3b4387e39855919bc, e9d061749b39003ec489f519e8ca24b0213c24ab, 7ca9c27cd05756055b231cb10689f577433381bf, bc44b28aa5e45129ee002eda9dc145d712eb084a, 589565492141ba2ab96254a2fdd7fbf9b52c7027, e905c15d5a50dacb30fca7f764c7d9e4cbaaee3e, d9e329af65555eb53026cdb5ae66af31d220ed15, 969d7cb1d38fed167f028addc6e8f602b22724c0]","11","4","de912524f6bbc18ab025ece7c1931715c9d6152e","4277deda98e8a18ef232fbc91af08b48e881f2c1","18c1e651337f59c535e767127152acf44a3a869f"
"https://github.com/concord-consortium/rigse.git","983","13","[4b4453883a08bfdf632d55a3d0d43e91c090f9dc, 60b6a6377b5c21f6b634adc981263850c486703f, fc66244582c61f1e873a69af35fa5c087a022a94, 2d8c33f66c51a5f5bade2d869270bf52d0239b9a, a88323f67b735706b4996bf622ebaca8cce4bb1e, 0fadf5d4bc560edeb83b09822f03d1d73e9ac769, 4424bb530fe68d8dd7f729d8ddfbf73e33682c2d, 041ea99e202128560e52ca21c30f7a3c8f75a395, 2d48af1efd40357aa4901a1768682a1f1cceca0b, d9ba06b8ce782649ac489ef00d6a9a6b401cf8bc, dbfacc0de41812bec1a4211805d9d9eae5596599, 4d3980cc86792fb37154d8f8b46ad0bb39f5b2ce, e1158e987983bfc2b78b01795d5dce3b77b2670b]","5","3","4b4453883a08bfdf632d55a3d0d43e91c090f9dc","b2a2895fae0687d76d1aa834e5eefd9dadfe3c6c","720967642dc0fb59bc69c340a6f3806445ae8b34"
"https://github.com/concord-consortium/rigse.git","986","9","[8488fb424643e3dba714e1ab6086a3d531abff27, 1557419adc72ae72784e707df71f65b3aacd8de0, 536e7d4beca0910e73a747c4b3353544f80f1c39, 7410a24efa03da651da5c59b08a687f13ad354f7, a8ac2a2aa6a2b18abc0798584d79a255354b3690, ce4b8c0d22fa761d05cb28f5397da34793eae372, 61959a8d949574dc232a0a5f125816e89a54df27, 61d29c1fbfad16e0f69288015979f157fdc163a3, c5a5bc83c4e655bdd06fc7725a1dcd3089998603]","10","4","8488fb424643e3dba714e1ab6086a3d531abff27","ef10b76a013e828b34143014cc706e51bef02ae1","dde41a90016ad3571b951df815ebbdb8de1d5b5e"
"https://github.com/concord-consortium/rigse.git","987","17","[720967642dc0fb59bc69c340a6f3806445ae8b34, a76f985b23676f86b473cead721ea10dbaa38617, e4cbca25be965731783daac5e3b8c7ee67b2ad71, 0cd86c2d7eb1f9c533d732831791bf6c4eaf750a, 031e6f52a12b11ca0c2bc7e54dac1f508e37cd38, 4ea329a789c1274ac95b33d11dd3d4de6475d831, 45ace0351800c96410904e8e84b5c4e2b0fb21b7, 74912695a8a37c613d751d7d04a5474c5a1032fb, 4f4bf303b9798ae4ac2ea67ac2ae44bd1b89c94f, 86a0e8a0971c5fba474e2bcc1a88bcb47be42f6c, 7c22ede62ca25ca270bb8b55fcb745cc247735cf, af0f73077b228676ddd4e6a939b14affce967a8e, d7cf513decbc9af08e155c599d5c4839467f2bf7, 684eb4e61a337d89d5a1c6dab4a17e00ad8e6186, 4bd4090311211219ed22982cfb53792735aeb866, 9738bd7376755d708e60f3990a006e115c94a945, 61940fcecf2ab1375b7beee36466c0b132b2e8fa]","13","21","720967642dc0fb59bc69c340a6f3806445ae8b34","ef10b76a013e828b34143014cc706e51bef02ae1","dde41a90016ad3571b951df815ebbdb8de1d5b5e"
"https://github.com/concord-consortium/rigse.git","991","15","[9607867ffc46fdc362f954395fb4b73f37c457a5, f4dc08d64191a4ee47b6aa63192a95222b542570, 7a9855a496187c38e891b185096266f061e18db6, 361e903ce75f9eff288385a870e4648a72e12380, 6fc1badfc4deb39ed1ff9fbc7b60aad1a41c7da6, 2d849f7a5be146e4a628a2b5a8b22c01986a929a, 2c1fe3e20cedb0dcb3599e84108d25d7d68e3fad, 4dc134cfa85101af10d0318a0188185fc0b24340, 4d122e050cac4d85b0f5ee2cd1001799e40e8c61, 0571c4bc0ca26832e7e8b69dd09de92ef2bf6842, c029d7d3aecae10d5989fdc375916fb61febe7ef, 89630cf6543826084c2cc0bc1453954e448ff4ed, 51fdf519ab1bae4d46f0669bce038d314e580d25, 786880a94c7f822728cf16451bd0a6264503dbb9, 7ac928e8194dbd2dcf84db1c48a2cb0311dd6827]","6","10","9607867ffc46fdc362f954395fb4b73f37c457a5","41029ed50a802dad745591fa3f931e876c9d72b1","473673ebe8b99654810c558b28e277f504b6724a"
"https://github.com/concord-consortium/rigse.git","992","24","[7147c47ba8816d67bbacffb0594fc52a174ba009, c6ee20e6a85f5b627673cde1ce4fcebc2a2af74c, 49e063747a2a30491412d920c582b8cbaa1ef890, 8b30a6ec9c01e80df0a6d7eaa9a0b9422390900f, 7536d929258da495d35897041fe2ebbf9c68016c, b0da1c88817c9c8a26c45f352fee6ef4d0bda8dd, a64d74d2dc61cf7ec3eea62515922e027b370fdb, 392be49ca0525f2400e2d2ab3f9bf9dfd2bb1778, 8362af49ae3b5a1ab8d7111dcb1d1c1b65408d25, a7ec58c8975ed4c6c28ebb319ff43b3e0241ff16, acec2646cd8231e4180eecb0b596a87720b3f100, 485d40b84c815db7effcd9ad7ccd524094886f69, afc5b26e08d2fc24a7c5c0824f75d6a9d8a08e3e, 2ed704cf8877e968044abc1533367b2c0a179fb4, 125fdaec512f3eaa02fff5149c5e47d265afc543, d30453257c5b3d4a54b7241eeff7ade4c1397e33, 061eab13bd123d444afa2af3a0f6c9b378de147e, 8ac2c9403cd992e2fc46beb669e70489c900a15a, 57744da6350f51cd9f9dcc5d2cf24b09bd2faaf8, dc0ccd194e1d478a093add65f675eb08ce17c645, 401fb8d72125e1e32f530823aa8ac53b09cd3c66, e9425c4f210f46b51e44bbf6dbc91e5bdef4e56e, cfbe1a3753be253771b8e61122fab05e2883b6a8, 8f326113ba64be4f53fdf8bd71aa6d5b95e6adfd]","27","10","7147c47ba8816d67bbacffb0594fc52a174ba009","41029ed50a802dad745591fa3f931e876c9d72b1","e3549245e49c72735d5c62a7fdf3a3b291d23103"
"https://github.com/concord-consortium/rigse.git","997","50","[899504c5ce567f71be1e179dd7ff269f49aaed03, 0470b41d060f0d591fc730738b7c898f626fe634, 983066ed8f6ef384b39f2c0b48b8ed9d67d3ac72, 368e904757701712d4f3aec86ceb54cff364c5f9, b154412c615ad5f50cb4a20baa6030099f39b334, 28694a44a59b511e17665f82b745edb867db6694, e3c2af9ca874d650e6149af00a5bfaa3849cfa2d, cb9a56b925471718a4f5ae1f908a8afab2dad0f9, 8bd5d07924b440d80de96751c612c9e8d0ca35ad, 311d495ceaaea94022bf972b4863447f6d52ba69, e6f1c293690bb6717f412c24601632d069fefd7c, d722ec90187eb53c262f9298f5e3f5f6933fd008, 2eb259f99f7491f69256d855e43e4c17383f6259, f72a2fa91b762d7466c904dd93f3113bd7343b66, ffdc5f33942b20eead2a4c0869c1977256aedec7, f7bdd72dafd6865b09f2826c58b3a9f5c8e2e682, d2c04d297c87abd2f9f157efaa8beb8df191e967, bc0d1b151c35d32d2578948f61f66580a2d41329, c9d5d0558c6197bdd155ff355e17a1ca796fd2be, d3d79ea4ead369f3f93ff6092556badc69ca851b, 6505892848d9097e6a0046dcbfa9afd880c964ff, 9455250ceb105d16a305c8f5f1ea55c62f084a45, 863ef670920b4f755f78cddcbfde60c73985c932, 11b43c8d292b3ace75306f78118765c53a77a091, e1d2d3acb5c0a18016f747b0813680c0b3a61f9e, 1f2aa8349c4dc4279e9aa0373f344034694d9771, abc0529c43a6fbf4b5e24f9df74f53352f42ac10, dadbd5b5997b50b30982e33a15c2ff43c36890ce, 37acba92f5f1bd0642d860a03779c731b20f8284, c17739a26aa78412517d30a50c77d58790230672, a450e9bce0eef5b9444e19887a8d29a1f690cc5d, 9e8b7a756958f2d792e4c03b22a846ae9e995241, ad8adf2d85f9aa2897f0be34e9cf4bb8e968f39c, bc65d9eb5d91fe7b1f05d0373e9e73659881e6c5, 1c0a569f10f91697d87d378c2891e2d5fa527602, bf2a19b028d25fed003a6e2e315c0cda1b5c4263, 55244e8f7f41e6e1453fe5e39ae2cf662c0dfded, 63d5c1e91c8f8f2ff6575c0dcef9b4d37a4e1999, bd8fbf9c3d00c81df7eac855fbef51a6365efb0f, 0204282adacadaae015b2460ebade08d0ce82975, d33f426ca22558719fd545ea8790a10981dd3784, e6294327468034199ebeccef5fa8ca6b2582d5de, eb61b33b8aa10674f405a8a40f064bb6067b3b76, aec9c094cd32dd5754cf5b80de254c990bb25ccf, 041bd7a2378a9014059590cb6425ac31d4a16221, 5db330227a7440760cc9c85a0c953173eef4b744, 4b8e1c6aa2544eb558e429a47f8dd2dff61da26d, 89170b96086f640cdd72385c90423a5ebfa159b9, 678c27b5f685ddbc375dd68b729dd0ba11100477, 0c4bd58d32fc43e23528adc5313d9c6c887a94a1]","41","5","899504c5ce567f71be1e179dd7ff269f49aaed03","e3549245e49c72735d5c62a7fdf3a3b291d23103","adb110e26772cf2706a7d0de02dd9e9d9414dffb"
"https://github.com/concord-consortium/rigse.git","999","17","[06c74f43c92a20a81e2018d9942a6000ce1ea951, fe0e83e8edbef3cae563295c5521bd2e952c929f, 6c426ee3fe599602f69ee9ec5502849696b2f8ea, fb993518d63b037cf81e794c8d7887d531646c14, 6c26f5082134f86ae601b02ecef975ede00ae50f, 1f0ce49be1b7ffb5d07ba4166600bae76fb29694, 29a483bab512744fc49c32dde0b4f0ef48d39fcd, e3f682183a9d0bd966809179e511db356edb73a8, f276e9a828b88549682f8d37b1a538b9569d669c, 8be4b853330ac95e5817742888762c3abb4079dc, 754073a414c5e79e4865dee0dab292d3d0f7e1f4, 43cb4c6abfe86701fdae1bbccc29d5f84b289dff, 1b577edb0fd2ac0f338322afa47271733c50939b, 8160d7f627758a69c26cdffaa9b88ce5cc367f52, c697a2050e1bb5c8d4b84e40ee2d470bb0449c81, 464359a279826ec02c39b954d1469e3495056012, 907f1faf89cefde022bd68af7343b6e620d28338]","10","8","06c74f43c92a20a81e2018d9942a6000ce1ea951","c4b7dc6bd7ef56497b3b0cc9165b99e29764a65c","3396b8c927d9dc0d69ded83259b28dc8b9cc0e32"
"https://github.com/concord-consortium/rigse.git","1001","2","[7eb9bc4236436c1aa9bfa8a4e4274f62bd12ce91, 5ab821199032cc65fd4eadc12a22cc314345c9f1]","14","8","7eb9bc4236436c1aa9bfa8a4e4274f62bd12ce91","3396b8c927d9dc0d69ded83259b28dc8b9cc0e32","f236fc885ad356c9a599d96a330f5f20251b3c2c"
"https://github.com/concord-consortium/rigse.git","1008","3","[17add7a369e4c3f287de36c131cce1a6dc007d3b, 7db292a56b38e4e6c451a7767979f205902e34cf, da69e5a0a8c42c8e3d0a4e44965826e82102632d]","3","1","17add7a369e4c3f287de36c131cce1a6dc007d3b","40d56f948e5414034551c93ded6a53daf1f7087d","21f2e2eaa2fbdf36702b80580eb56b8070912a75"
"https://github.com/concord-consortium/rigse.git","1025","11","[9e58e17bc9ed2bde2cbb3b58162b83cf0c37cdbc, fd26e3c0134d65a67246dedf73e975f7fd0c0ae4, 21865d8be3d9a5da1cbc2097cb93ee8808614aea, 29fff4cedee666f797503933278e30214273d83d, 95d3f665a1c827fbc657a2bc8a0fd515eda4b79c, e5fce070cb6be21021b3c54091969724cb0bb268, 15792cc556bbfd2bbc850903beb430ffbe0f4225, 16e8f13941bfa15a9af1527df5076dd6cf221931, 262df3c41eb46df0d427aca5d288012b124d5d09, 4190c6f3973b5053be0b7350369efb8406d7069a, 03a3864944d2b21b1584fd21170c1c6d531c2ff1]","16","2","9e58e17bc9ed2bde2cbb3b58162b83cf0c37cdbc","b1e94e60871856e1c8b306e9bc95fe752a67bbe1","16981134d2bc2a0dbf839dfea8eb8c001303897e"
"https://github.com/concord-consortium/rigse.git","1027","51","[3b6dc06463f95c53e9c19a5374d0309e13faf708, 4c7c06c453ac423ef58a30282bab480b171aa3ce, 3fb0ffe54416071090f58588852eb634085813ab, 09142bf84e3a54eed5d3563efac414e802d56523, 641e59bd0ece51d5f090383f3a7a9baafce58654, e6d6b36d280835134fd6b34750fd5e1c1a79ca39, ecf2f4986a03980f1377f181273db927f74449a3, 1b2832f3dc266b3b9ea91269bb087644ebac90ed, e7982c0bb8aa78f7c2d4e076401bdd0aec672e16, e761693ce0111aa8e28c0b1959c85177a792d91a, c9e497a7b17a83b620ba177799800792e5836a85, 443c7c69a65b729c97824876133cde9be8923de0, 1d1807cacbad432f1602f6568be73668d8f962c3, ff252136e26baa326eac99043ff6cf60d233c977, 3e15805ba87f487832cdfaab1e05c5310f4af448, 8f4bff15b080a3631b8658b9cb246a38cbdde66b, 9618a0de1992efec626e0c6e47e5c1960534a4f0, 180b8966975e853185dbd54b54d601f51a62aa9f, 1b0f72296bdf1119161036abd2822e8a422ead50, 8c47a2d7a652032045fc8975c017a1285c1e688d, 78e44a6b7adc052308572e558b5e17bb9c68b9fa, ce91b3439e09438ed90be33e39bca8f3a428ea18, 36dab49a2b7c09da038b2dc2dda03232a3c09aea, a642ea639292c102ba1a6eaf968fce08fca3b652, 6dcd150d5c58d578427969aaa2e68a1d0a4777e1, 71168b0fd74d63b3bf6b328f1239ec10d8d2e452, e13d8a8d780327e90705a477f32b769507f394c5, c6caecdc95dba36d09fb262ec48e18e3496e6f95, 4db2116c5fd01b66b97e1d32fa84affb41e51e39, 30c80ac8b18fe78a6af4d9d1402eded6bfbdb713, 4b140257c233dcfa1661367452597c7dc0738828, d84faa5365a6b6e8bdd652303cb75d6853bd8478, 915299fc0c43256235fae7a1b3650042c95d57e1, 75c9fecde2f134396f144559c073695ccb85b3d4, 281d77a128b62f701e5fc30fbb328aa81b5088d9, 59dbde26a8e0070d37ff0c05ef3e5d418fd1bf0e, 36cbaa37538a780c115616741e50a131dcfca19d, 5dcd258b2204165f6e59fc45bd8ac66766819861, b328626e3b07bc1fec0ede64cf378e7295aaf0de, babc19f039c1887e76e0f4e983fa80351a90740c, 5e71d598bb3a578bfa80a3103f3d1b8938771fba, 187244c8ed7fcafc5a920b059a95b30d9bdbc95d, 6d1a11546fba213884236ff17db500a3505a6514, 43208740e0885c57f3907a9e70eefc14c58dda15, 6fb477c17064c47d83ce6e6cadc1442acf706349, 8881cbd6b9f5b335e1bd2d161a8f41b223ab8d66, ebf98d84f631a8fcb304a2415cec534794460f10, b0af2224f9492c76f4d9efdf01ff707a9d9c8405, ba5754c201ec8b62f40137302278da374b0e784f, 723f4a6c756c3f7c02313b0fce3e4a27d8b9be54, f5bf8ce9025d1c8ec767e137fe2af74e0dcbd566]","49","13","3b6dc06463f95c53e9c19a5374d0309e13faf708","16981134d2bc2a0dbf839dfea8eb8c001303897e","9b57692443290784694a53d4ef86062da7f5b624"
"https://github.com/concord-consortium/rigse.git","1029","26","[c5b0193f2601a9d8ba748dfae546b2d11fa9619f, 83fbc89f560b01b22c9adf45c4e5a9f97dcb4746, 54ccc300441e8268a009d967399c74d29f430a43, d788d51a22a14066d8909bdb18f6fb75afb00f00, a66fca2d929624aee99eb3cfc71ad798d74f3941, 4c46807514c217a20939aae7a43fc5351587db1e, d49a04e6145f7fe5f6d309730f8108f8f030aeee, 677cab15af1941e886a0145fccfd7833c0f27aba, 3adc1bd0cc0cc8ec5349007192a9352aae2a2ecc, 5fd929b87f7ae14852ba83c9fc51ccb266e6d837, a2fd1c59c644fa29902f68778f5b58f385828f74, 15e9c406db2d29660d40fb67e76033cf3fe3dcda, 3405543b6df02a0e49396a1382d9490945aca721, ecc0053ee4617f395beb9f1aef87cbc84c717924, 35d265e4dec66669d23aa9b68be9494052cd1806, 41aa4d1735e36ce062a816cc5010cbb379af3ae1, 288dc1c14b5dc2260571ee0bfe0f74ca06926cdb, 4a3a8089ff15e4caf5778085a7c7bd5c713d9e2c, 3e7967f7b8dfa8b286cbad97de5d1cfa95e87f7c, b0a5081372af2b7e723e856cb8170a9509c0827e, 5079ce202ed07f0ff27eb24cb8eac2801182fa0e, 0ca8c0eb4e43e8dd6da6a46dc5c660448a82db8e, 0af1795c6bb7ad44e6580ef2dab5ad6dd093ccda, f4e1bc65c92c8987808b896e083c4d61a2a19975, de9a4d5b6c81c939d07145571f0817a69bdbf7a6, 1bae9bc0881c03da3edffb1387bcd276e73d4b8e]","29","4","c5b0193f2601a9d8ba748dfae546b2d11fa9619f","adb110e26772cf2706a7d0de02dd9e9d9414dffb","a008ace662671627220f566d818febc8ff89ac22"
"https://github.com/concord-consortium/rigse.git","1032","15","[4ef5dbb4d6d58ba086cf0e46541ca650cfc4aba9, 916c84c38162fbcc9d3ee770307824881322ab0c, bb92092b2b736305afe290516b9a061d6f6a3399, c47b21308eaf3ec98af0bbfc3063e17a094aab9e, 1640eb2f9164897646c94aa1b4885c6f4ed334e7, 46d6ec6eaf1c0975fc4044d0e8129043511a7006, 3cb345831204687132c2c5ec6d2037c97defeb04, a9f30c3c40d53a1b57a2ac80ecd6c2baa9f27eec, 0ddf5f4e97a2b713a09a68e71ea0dc0fcdaf2ce2, d9cf11bb5b4f5ae7ab277d772aefb4fdeb933fed, c2238d856d6e870d6bd5ec4c037392612073eb40, 81c553005c6dfa1cf7a61e0b753dd43612636123, 7856f1fb4b90a65d07023423f8ce6df977cbbbcd, ebd1a0e87e336fa4804539676e33e9ad9d92da71, c737a68cb227474931502df3b7d7e77a4cf22961]","11","4","4ef5dbb4d6d58ba086cf0e46541ca650cfc4aba9","a008ace662671627220f566d818febc8ff89ac22","a1a31c063ea6e4a6bd4d9af84dd414c432083910"
"https://github.com/concord-consortium/rigse.git","1049","20","[0219530bc79278f2085ec90f6b62cfaff3b0ee56, bc1419f70ce19755bba869f46c18158f245a5f87, 1c3a5a4b91d7db2a6b4a62b1c56d1da1f7a9643b, bb553f847f674fb613ee9181d1a2e0c582f36348, bfadc61f2a9a0dd4c07e61dc189763a9ef97ee28, a6f94c8bb231aae32dddceaa2206700876c6c25d, 90a6237909be50db79664ebddc27ae14f6ba9667, 8664f3297ff4c5f27e8071ce7cdab2f86fbe2d3f, 9ef2ecaec4f6ef49d3edaeab0e0ee5bd53e97553, 402b9df0cff9484fac38d5c20017cbe4fb4218ad, 294c4e8ff822ee72d1920a616b243ea51dfcb666, 73cc59fc9488e0ed83e4e78889d59ac7f50eabc1, 220894b1f6f7231d6440df935450086783907a3f, b0886c687082c3d2c3842840c409e5d451fba418, 753a06f185fc3c47b4048a2177d5738c893e1b62, 366baf888c39e238dedf837507f5bca842879886, f856bb1363b4c4b0fcc6e75f532ab69f88ceab40, 732cb48bcf0e3638cb327868af95a364312ea5c4, 9a8c2b8075cd129ec44ca18219c48bee5543edd4, 8590b87f08fdc40fa287b519c1f382db830cf0b4]","16","1","0219530bc79278f2085ec90f6b62cfaff3b0ee56","f30fb1573191cbf653de57589261ee41658bdb33","68fcb6a051f4e2bc1273125eed831e4ed5c32dbe"
"https://github.com/concord-consortium/rigse.git","1050","4","[310e100bdb4f92c34623403f371279bd79fc7f01, 21064a3fa6721bf8446e10999060754bde2b59e8, 282bd35b5b462f90dbb4984ef051bc070baa968b, 1e2db6d0c78fbeb6a0edbd2067e653b66549da18]","4","5","310e100bdb4f92c34623403f371279bd79fc7f01","ea4edfa28198d6597c2b7dbee701a3aea86f19d8","1b93fb716c6c152d29996c4d96975b9594c4d165"
"https://github.com/concord-consortium/rigse.git","1055","2","[bb66472afcebd3a499f5b29cbc64736220b930ea, 681690f2c06230db6b96d9becbc42a92ef87f72e]","1","1","bb66472afcebd3a499f5b29cbc64736220b930ea","7a796287d2fc6aa1193ba4b58560e3bd23218624","e85e157c1ed0c071fd7cf253526c39d610f41ca5"
"https://github.com/concord-consortium/rigse.git","1057","9","[eade6ce981bdbcad2c6be2a91168f4a963b462c9, 5f77b5ff0c2669707e9b74fa6bffec23f94972fe, e2ecbd8679caa3f9de66e0892af03f7fec2adbea, dadea520e3cda26a721e01428527a86222143c68, 79ec149dd129f4bfc9a7f528ea3472b67a4bf8f9, 291fd63d287020a41ab7e02689f4732215ff4c7e, 7b2b04d7177f3086914520fceb6948ab651f6f6d, a9f1cbba4cc26d39caaae8ae5a7105f43e1e14f0, f7b7b8cb067712b104b9ea69e977bbe3a1610761]","24","12","eade6ce981bdbcad2c6be2a91168f4a963b462c9","e85e157c1ed0c071fd7cf253526c39d610f41ca5","31da4fd037a81efa9e5c22176bed0199b68c1bf9"
"https://github.com/concord-consortium/rigse.git","1058","1","[8913b03b5bce86cfa2dd0af4a604134838b66e81]","4","1","8913b03b5bce86cfa2dd0af4a604134838b66e81","31da4fd037a81efa9e5c22176bed0199b68c1bf9","e0c13c5dc4791be6be3db15f9eaac8a9775a2772"
"https://github.com/concord-consortium/rigse.git","1060","3","[e0c13c5dc4791be6be3db15f9eaac8a9775a2772, 52237ff283c4a7c2c9c2df217dfcbdf032eb6b73, b489f0cde77f03558615caeda834c02e8785a469]","5","1","e0c13c5dc4791be6be3db15f9eaac8a9775a2772","8b855dad00170a7ca313b62d0875fec82ad048fa","2cb27b3cae06e5e88e7f89c5f3b8b3aeff7db902"
"https://github.com/concord-consortium/rigse.git","1061","2","[ecc884b58d0be52e6d850769b97fed1c5c14a8ca, 4d0dfaf117030ebe256529c89b45532286ecf1f7]","4","1","ecc884b58d0be52e6d850769b97fed1c5c14a8ca","faf9528fd0633a13f062a9df1f8c48a4cc170345","9629e58524ef8c33e63185998f223dd479ebe588"
"https://github.com/concord-consortium/rigse.git","1063","4","[541a4def30d6be2babba329540aa43927b328334, c164e41eaad15f4939980df3763be9d23dd0a621, 5631b1b05c251e46f5c9303395abecf603ae9519, f535c7700b71be7eeaed3cbd6af8c88f4612415e]","11","1","541a4def30d6be2babba329540aa43927b328334","f47264bfcd33c7a1dd6df49e7009f8299a16e98e","621059deb9f8309a605cab0d0fbfb91d1bb70b2f"
"https://github.com/concord-consortium/rigse.git","1071","3","[6f9fb92bfa5143832d3767c46091a0591ba55dfb, 77e9eacca3b6d3446cc1310ceb22e4edf5bbed1c, ddd104352ad627efa3aaa3666d893a750071893e]","4","1","6f9fb92bfa5143832d3767c46091a0591ba55dfb","6dade70c532822f8a4fabda62598ed35c42d1613","577d5e2c382b482e5b2ebfe3dbf5223624e5c423"
