"REPO_URL","TASK_ID","#HASHES","HASHES","#PROD_FILES","#TEST_FILES","LAST"
"https://github.com/gitlabhq/gitlabhq.git","7789","6","[0eb74426b3eeacf92cd144e6ddc336adbe43ca1e, c0c21960ef4dfcd2ce539cad2b73fc3f8b5aa006, cb7a6d343a75497312b35739272cf994a0bc5e7b, 18094a17458aab8c9d629b86946b61e0e7bab251, 9a2d09e3a9ae16f62cba317d8064d9409c95321a, d550211eb101d82da2887e1eccde5c338388669d]","1","1","0eb74426b3eeacf92cd144e6ddc336adbe43ca1e","3aa5317d93b14817c11631cde36cc111b3cb2e70","f9fcd2b4100d54255c2508439e9f924543aed7a7"
"https://github.com/gitlabhq/gitlabhq.git","8294","6","[89c3c4ccec639f23fd7b2c7f64e5b60b1b5708c8, 3e35f65394fad201a9277667772f3ad9c6940d07, bc841c7db9c37f6ea91911cb921db07608d8bdec, 13f7415afd3fe32cb7d5c7f8a89ce332d08f143e, 2d54dfb25134cbdf5b4f506b69d13241130bc132, ffc9a470a8bf02d6ac97ea1bb00a0a4fab664314]","2","1","89c3c4ccec639f23fd7b2c7f64e5b60b1b5708c8","74bb5b21bfaeaceec582934e2f7cf3603e63bef7","91a3a4b526214f4174f4f12de23dfb5baf033211"
"https://github.com/gitlabhq/gitlabhq.git","9528","5","[1123d9dc460353cbc3b46606cc2235f0433f35e1, 449b0ebaf6f3ca65b48f372293117acc9a7e0abc, bfc2b8a3d2c06c80126365348ce75b3985185e83, 6042454600d79f1d6fb8e216c78b3e8b619a7a3e, 405d8b456f65c7165e8cca83ab0be4c9db6cadd2]","2","1","1123d9dc460353cbc3b46606cc2235f0433f35e1","72be759af17c1b93f44caa8eaaae2037ae158c62","03f386c2b20f95272e4846f5ecab54fd8b2566e0"
"https://github.com/gitlabhq/gitlabhq.git","9654","1","[b8506500f9d0c3314ff1faf23e16e1e4940fec9e]","4","1","b8506500f9d0c3314ff1faf23e16e1e4940fec9e","f9b946c1c9756533fd95c8735803d7b54d6dd204","dcb79741a170eaf673237bb2becbf6fb742a8bfd"
"https://github.com/gitlabhq/gitlabhq.git","10067","1","[27a75ea1757d1c1b67bf501ec333221ed5e92d04]","12","1","27a75ea1757d1c1b67bf501ec333221ed5e92d04","6eeb69fc9a216bd1874cba85214af5b1da1a46d0","1560c234d2410ccbd163b9aedecf2d8b7a596627"
"https://github.com/gitlabhq/gitlabhq.git","11249","15","[893402d477436d36b48c2fd0244576a0d16e9425, 4d79159973d7b51230ceb9efd33bb1cbb191621b, a1bfdf76f25c273fa7e4a694d4934e7f4585d8d7, 934f4c6ea4ebaf7a0c1935e1138fdfa1244312e0, d72b95cfb7a538c9385f373747e3675de8acb980, 92ed1fecdcc621b7940466becb4d10de56ec20f2, d2a9d95a2237aa3d6a93be5df012838180b704b7, 2c25a7ae3453e72ad6cab504255e327c17df0a95, d8e504a8f790f032f5d7757c6d61093faa7a2542, 18907efbc9209ee39d8348eef5b3c7321b9aca26, 8cde1e3285c870c85bee3a9a9ff4b8e5f53cff86, bd8943f5adfc377491bedb2a794d8c39b2b4c45e, 2c6c2ed6faded64277565b4c15455fe813753b8a, 5a903149e75465e4025f154977597aeef94b618c, 99c76e9fe89434f05f63eb6227597aed882c8388]","9","1","893402d477436d36b48c2fd0244576a0d16e9425","79e889122b9f1cb41eb75ee33e94e625a8c679e2","741fb49378abbf66fbd8d6ad27b94f1040bf3123"
"https://github.com/gitlabhq/gitlabhq.git","11625","20","[59d631371ce22e702791504a544c1be61fceb676, a48c07da9865c0c97fa0a9ed62783ba038920713, f2c23ab89425e14254a87f5f7a489cdcb38cabde, 5fd3ec1cfcc7e3109a76c905c1918602eeb4b65c, 19a62632f7cc2130d999778b4de85fe1d52fcffa, 3940ac85200d43555e215a4f7e198999617b896a, 172bae0c9d841f035ba0f2a528c3bae822717a30, 761b2e98903aaa3fe731c8572dd8b1761c650cdc, 1849336a221ba21f9d7c052e5cd8938499a98476, fab5567a09cffe4f070913ff3a2205ece0e31904, fb59f55f47c3b19c0cebcba319cbe89c8db3d509, 8e7b88155658165baf70981033a9737ee0ad09f2, f7f9847b26fd9f401039908843de2b660473e73d, ccdf687baa82dd0e0f809cfb24dc892db756bad7, 08db378269ec622d7216295b0e304d84400a0cc3, 9cc8c631ba237fefdc8c97aeee1baf2dd2514581, ffa2c5d41e5247bee0d94bee4ec33ac1566e829c, dd35c1d556ea5809ef2aefd8ec5741d7b4d83372, 7af585f1667935165701ec290e6ce37a436ad4c6, dede5f01889e31ae7dd1e3b45f6b3852e7c0e18a]","9","1","59d631371ce22e702791504a544c1be61fceb676","6f9a6d37a9237d19447c7936c53df02d841f5c66","2608e269a528290db1bc6d6c0d97b71b5bc3ff26"
"https://github.com/gitlabhq/gitlabhq.git","11658","1","[0d236638b683d368d5384e95dd75772a68c727c2]","6","2","0d236638b683d368d5384e95dd75772a68c727c2","972734a9ce00925b88440b28a83cfd7c8e9b84f6","024d10b7adabe4ca2fc42107837367cb086fe75c"
"https://github.com/gitlabhq/gitlabhq.git","12490","14","[ab88fcf117c4f55071ffaa476b7e72e0c11a967f, a3cf3e5074fdad83120d1b2815e422f342c6de42, c7dbba8bf1e87bb69656ce7a99fb10633d6c78da, 8b01ef826df97fa23db657ba5826cb0dd0d0b38f, cbddad5a2d22767d2dc7d7214f09e7b3ab8bf322, cedee0124020120f4dc74a5548038df715fb1213, cf77cdba51059cd3ae99a66b7bf103cd0bde1171, 3e92f44ff223c9252f7726dcad46a3cb46298001, e81dd24251c20a89231637b05f04abf9d2e039ea, d78037c246d14817937abbc4369e30ae12b022bc, 345df20870b718daa74c0177221c00cdec6083f3, b96a3d4d60747102bc437c99b4d040c5c0329689, b38e690344a3d37e3be0305c88ea96adbc82aca6, fc9e57434c57c8ebd36e7f038cf7535422e893e9]","7","1","ab88fcf117c4f55071ffaa476b7e72e0c11a967f","e93214bce63518b31532d9406d00703aa2ef2d26","d542c2f1564eba2f0f5321d6b6a36f5ae0d7ea50"
"https://github.com/gitlabhq/gitlabhq.git","12797","125","[c92881c394a482bdb6d3f0f0a5f3cc95d5eed1fc, 9ff88aa2834374a2c5f217b355f314cdfda0819b, cefc0af14a31464547f15840329078398b67972d, b8957b0d8a839742868af94fee00b4b933768f6a, 9daae8cc31700ebb23319aef775257dbf689488a, f5a21c596b79c5f86c6b8034e1d0bf1d7078c593, 9b87e680ca9653f40897ab8fa916d44fcfd1f4d5, 2845dad2afcfd1f6e4d48d96d957ac7b33051524, 7a251207e1b6f2b4c709d319d870694ace620e0c, b45b604d9410e19b7a6c0783343626f1ff163708, c433f5203fa12619dce53c2fc4c1c69d698f2172, b27fb2337ef43bd7060ef1d3cdf46cbb6d794d8e, 7639fb189c2fb5664cc8a89c03680d5de4b22db3, 6530035fb031ab00a8d3fd6726b6d71296b462e8, ed05a62c4ab3407c21bdda2625c2286a704bf353, 3343bf30f737b25fe5337c1e6c21180649f8dc3d, d34c620fae23597e0130474fe20883f0718ded58, 487ed06f444892abce47a6e21aaea79c9ca9c800, 57b1b8156ab5be99e926d5d4bfcfc256482c3d4d, 0663eb4cc2d9df6db375a233cbffd75fdec9bb62, d2cfd4060ff2516f6613a29facd3db7b31613a50, ffef16690c61581e3254dd074e55b58dc4d2b7bb, 4e81ad2ab9eb0190527514cd8b7cef44df4a9bfc, cf5cc6a9cc0ac1a8fe2ae9dff260fd66e316e483, fbdc02adc1682fe40c68e850496d94b89491a6f9, 33c20468cc2456c03431a1e32d84cd1fb31ea3c5, 99b82a0716b53b6edf5057fa05736f6c5d00a5b8, 562ccdae3efad9ae883867bd21bf7b274a9163f8, 14eb2abaa373cfd060e943e60f2b4d75fe45ab67, 8fa1f65e71d5462fe08dce06df4f8bd77be375e4, c00ff16ffe7559c46e53f8788836ac4e98b8f589, a2b2f1ead7f247e37f8e07feb7e6d1ab9997bc00, c09b5852a98dad9ccd1d66993021ec548695871c, 6c3723d2d34cc3803ed65562b1471ea4ebd82123, a2326c8a12a84028ea05cc7803788a34c12d109c, 787616d418460509e5468e8207dacfaf8a96b959, cd5599a59c38b4882697fc84072e97839f809d12, a59f23695b9d05b0d9b6d7afae13a5fcd232a5e5, 0b4a3d848323a0f8bab12df0f4ea8bc9c24660c9, 6b80d13e402f6a96c87b9ac762968ea0645c4e39, cbdbd24617b906f5aeb8c2441f686440b1f35056, d493c16fb1f88d6c89228c1008dade426ede35fb, 4ab0aaeba33bec17e0828ea948cd98cff21f90cc, 665471e5f8aa7b547ac3bb0838d66402e2af0646, a22665931d85f3980f9b0f0e5301142a0803087d, 0555d6918ccb92faf7a62927820efdac3576f1f3, 8a130d850487a27535dce420eab7230748a3cf0a, 47bd607e83d72fdc15c8efa1b6dda2c772cbac4c, 44306f2662cdf8dcd43b123fb02cd5b099d29acf, 397686df515eac5123c9fdc1abfdcce6b27601d1, 3c946b932b60ffa58245a091b58108396e5b6546, 72dfc763b47dc63bd43170c0439869d97635fe7b, 3c2d98f4c2bad4cccc981ff2e4bc2b5212eba9d6, b26637c5b127caddc72484ae7d7adbf702dfc967, db0b7fb39e921728385b3287d206aabbeb88690e, aed5632ca4d848ebc1e0cfed3465807cf36afe9e, eae72cc71436d80395a3dcb4316b48c768a17d19, 4dce23c00b88a1010877464c7f5e6413889de813, b3da0ab5e827af4b3ba99c488c9c9c9ef5940450, bf88af0e24ab79f998f311db8d7dc7fca675318e, d9928d1a7c8d9ea08759b26b49a874d4ad0138f1, 820c0d6dd120f1bf137a985bba8abf5a8ca97ac0, f15be51b6c30b967a2adcf16d5a0eb227e2f951e, a45157783320422a500b2b62a318558199ca5081, 77f6f0b88b1367c72c4c28a254e7c874f64b4b67, 4e86445b9da91762f278619bfe490f9c76f4531b, ddb193d09d280495ba60dab2ee0c097a57ce4752, 717c30221cbaa348ce0f448e57bd3e2620c9cbcf, d45a8e006a4718b30a2669f7b888447e8b6dcb4f, 08d597c7ce779608a689a85b63387a1f9da3e898, 3d4d9c5ab9464954d80a7bad3cff70d49af9b74f, d9a9c33bcafc334226d279f3f202e503543967cd, a32f291a9e8c9d868904ec56f8b1bbceb497f836, 7edc1bc3a62769f5186d237ca716b321a4a88d56, 575544f6d5477504821a0f73b9ec3407a6242170, 9869b6b38943cad9064d0c0906414686908ad733, deed4725e32361f84440c33c2b8d8006e05d158e, a2cba2b1ef7d408c4fd573f838adbc2b45fde4cc, 993936fbd0ea62acb37da865767a1e67bea5cc1f, b72db79668ff5ede3124933a989a547cf17c4dee, afece66004420bdb18edf0891fa9c6dfa86ce87c, 116474c50690f5b99ebcce46c6bc93f743ac256e, 0f098eb60a706fb69f1a822ee409826f663ee82f, d6dab4dbcca61684c15f46976f0cfd9443436637, 1f093bcda5cc848d5031f80ecc66f17da3a13aa9, 7fcc1eef9e0c082baf0c97c287ea0627678867cd, 0c0b5fab13582da3240dbc1526c8758033646c70, d9bf04f69c81f21a4c5a0d20d00c57a517499c34, 91f490690103fc20a772b39b31cddbb5927e08b9, 15f3362d343ab7ea51402b81c339bc1bd25fa9eb, 17d67a989bb1a87df17583e96b387aa3fa3a9f56, d24e47a983fd074fade60f44889bb304bf274d0d, 44ccf2b1148e53a3b9148ea90a2f45cc8c8a000e, 01496486382b90dd6642057370a9c710c80d2b41, 73b813117a5297aba8bcf38a4a3f98e471dda82b, cf926f6b7f412c194a47329f101dee1adc6d19dc, ebf915511359c336b99c1127c5b902f8757ba5e0, e57093ff627a8fdf97fc5398808f1427e26463ad, 998299e22531afb3d18889f77aebce8185b69622, 092d4ca60c5f2640b154ad2a2abfd7efabc87091, ff6acdf1807d235d91479511f957e750bc7baca4, 905ad9cdd54464876a712e4fe8acbac1c54cb8c1, b3704dafacc0ff77523d091a2c74b4b8265f451e, 696de46ace53f7022c23d03748ef2f6b284ed937, 96ede7f73191909e68156fba3e9e2c3f9a8e723f, 66f4af5c65a6721666f05ac75b07f7495f8e86d0, c77b2649ca0b49fb48730e99de4b070f2092e739, ce80c46adceca97494db6c738caaeb3e06b9a233, a4cb06f92478f1cd719cee9b2e2837c34af6e997, c3a4fa4101bc2d71dba8dacac8154469175a7ab9, 7433377adf6e716696f9cc7521053d8ec97810b7, 36f84ce79e6d1fefdfd4c3c1b18d76874160e66a, d110f38d9075f9061869d8427773dd499aee92b6, 82f973070777f7738614ebf62d947d84ec7b23b3, 0f6ecaa1a6df1c1b0e0605b367104653653fa090, 654355a0f0f3031cbd11bb4dff537ffb5a75b771, 0df662feeee6c15ebb81963b0d739db5a1261720, 7374d2cc9b678ead83076b28b11c370bb6db5bd2, 57ccfb9a4f88a652b02ca89d7a98326006a24227, 16a5808e6061cce75f84de8cfb332ec2f5c81ef6, 0273b1188b939b157d439247a97e6c2d24a9f0b4, 4b87ecd37d3ef0d0e2d0bbe59d6a4d0a409e19f9, 76c3d2d434d3c550c3de912abc0a5b1dc1455368, cb2287df0ad9396d1f075bde1c4f6de481d908e6, f7344338985338df3d0958ef9d362b9624723e0f]","26","1","c92881c394a482bdb6d3f0f0a5f3cc95d5eed1fc","95f9d6d83bcb7a9f45601f828c34301e536fc195","f23d74345a3e64ff7560cbff3019a86d399bd3ad"
"https://github.com/gitlabhq/gitlabhq.git","12889","1","[7f82d2968a6792a9c5f874be5d455b8c9e3f5abc]","169","1","7f82d2968a6792a9c5f874be5d455b8c9e3f5abc","0c563225b663742b4f26731dc7bc822a38f7289b","5de3ec64da3f7154f72413ae12d2e13935533f2b"
"https://github.com/gitlabhq/gitlabhq.git","12916","1","[22e54c97188ef745486b1fbed34a8266f4eb4ab8]","140","1","22e54c97188ef745486b1fbed34a8266f4eb4ab8","2a572d2634891b367052897bd1e4a8825fc443d6","ac948684fc9f4ded80a028ad2136cfbff90a4b45"
"https://github.com/gitlabhq/gitlabhq.git","12976","3","[0d3b8fad9742e6568458f2a8e4d66f0b36d731ec, 8877f2e8c16ebb0c1251124659117c7d2c209399, 2086483b24e719ec8d82b3e7a52476626952885a]","5","1","0d3b8fad9742e6568458f2a8e4d66f0b36d731ec","d950e4d937f06fb9c09847301a908839cf78dae1","eaceee0fb9e23982571c9c2a878d662ba241240e"
"https://github.com/gitlabhq/gitlabhq.git","13258","2","[59f4fb7a18ee3311af7ff73c0a4f98ce26024e5f, b5f596c3ffb655b6e4fee127fa9336c829198b5b]","29","1","59f4fb7a18ee3311af7ff73c0a4f98ce26024e5f","897240289877f768709c31a1b5f369574595344d","1a3edcec4363239a4d080bc9af53d9d455dccfb4"
"https://github.com/gitlabhq/gitlabhq.git","13262","2","[4ccdb83ae489014e671c3fbe75a4d899913c5163, 64e589c581589e42dfa1b12a22011f88cd3e62bc]","12","1","4ccdb83ae489014e671c3fbe75a4d899913c5163","1a3edcec4363239a4d080bc9af53d9d455dccfb4","86fc4a1f3c8a72ba361d7fa64551c9d1522c255e"
"https://github.com/gitlabhq/gitlabhq.git","13318","2","[1207d451ed934f3ce2d8c02130a8e6b2cac88a70, d1e0b1b3a8404f3a7b54db09c46fb614ca3fcb93]","3","1","1207d451ed934f3ce2d8c02130a8e6b2cac88a70","793ce6fef635bc405f47b58e4b62bf1d48ca5078","81dba76b9d7d120cd22e3619a4058bd4885be9bc"
"https://github.com/gitlabhq/gitlabhq.git","13835","2","[194c40df208526d5dc4401bc06f91d803def3740, 452202e36d3e20755b099a718a92d3f7b80fabb8]","5","2","194c40df208526d5dc4401bc06f91d803def3740","1feb0894f73142c0127db86a3a84833d501e474f","d25f6fcf629bd773ccac49a799393479c48f4673"
"https://github.com/gitlabhq/gitlabhq.git","13903","9","[39d976cf5881c947eefeb45a2f8fe2922923eac6, 81b565ee36179561dcae8d428a712fa5fe1cc04b, 9647d2e76d05e8720bfe695918e292e57307900e, bf601f0775d0138f30721f350f9ed3535c7e701f, c7bf2bfdaaa2f1aaff0cb1118260db744abb5633, f20337ca8ef39bf9907a09e23111262d0dfa4e49, beb41aac383dbe525403b418841c55fbb13d7440, 4871cb7aeed1939fb54563633ffee60e4c1eb46b, ebd0767fc76c820088efce236a57e36619f08b6d]","1","2","39d976cf5881c947eefeb45a2f8fe2922923eac6","27f68edd35d55e5620458a27321b8a440aa2f9fd","6b7b7f9f1953ac61f4b2de7a8a8a2f30365aa3b4"
"https://github.com/gitlabhq/gitlabhq.git","13915","3","[60d2a7c3557964da7425c37bb871c5131f615d5e, d565b30ce60e0ad83f8a63b235eb923524665712, f1dc6b57d78ff1af6758061873f2dd7e85feeff7]","1","2","60d2a7c3557964da7425c37bb871c5131f615d5e","986eff1cf230eee7792fcce8ebb1a00320a7f691","b6bded14be238b0170518ff516ff1e0545164565"
"https://github.com/gitlabhq/gitlabhq.git","13935","13","[288b2e71c28ddff1ae6372bc8256d9f972aa6c27, e05e530fe6f77b207adc9d4541955c952a291aa6, 1707c79d0bf9b390f17a163fe846410b76e4a215, 1e4fb1f8fdc42e2e9d0cd2098821b4901f4023be, 4e2f5eac1b1834fc0ce60f7742c5bc556411db2d, c61d598b3ae02cabc2e9406a1f8d6363a6273e9c, 33748960716916f0e6c6bbc168d4ad7f76120102, 6709e65cfc9fcfbe90427645cd1cf679a28ebddd, 5677cb0114de78559bb626aa3b0bb456271429df, f51e78715f77846f3326a0cad18a826f138f2dff, 0dbc5cd87b611a80c55bb46a1ca40e21a7ecf760, dddc54aa0aea4088e5a233d18a62cb2435590fe9, 4b1d956e1308f6c0a9dc03a2693f52eb1d782fd7]","7","1","288b2e71c28ddff1ae6372bc8256d9f972aa6c27","6b7b7f9f1953ac61f4b2de7a8a8a2f30365aa3b4","5f6926f63249b3bcc6b94d27e038213aa55c9f06"
"https://github.com/gitlabhq/gitlabhq.git","13957","13","[fd01aeda887520af068bf8719d8d729855bf59fd, 2d87b79a497a13244057e416ed116d0d8754e36b, d81d940fa2979e3de8391187e0cbc7eed6d24969, 028266089a9aa6d90aa90c72493706cfdad0b2f7, 696a43e0832c982465718d557fcbdadc6d67e370, 19950d601105a53dba7549135b05c3907075cdce, 73b64f1f5b040e8f8f3e421e685acde5219d5b99, 4b6ab497796972ac7c3af8668f2e238f5190f059, 9387dd5f86e47641c455fb6f92c1d293828d88a7, f55b041fb6068673f5fdf9f892066ed0d131ada9, f952957cf3c0d26274ad13b6d03bde1d2a183a7b, 02a877acc19d821e4ae2a9e81b58c058dd5d2159, d54faf2cdd5d642a50065e1756e6d64a20abb2d6]","7","1","fd01aeda887520af068bf8719d8d729855bf59fd","74bb5792cd149a3a1e8f933eea82d5a8806c083a","2f02843fe9fbcbef09ef8f122e9a84d809f2c29a"
"https://github.com/gitlabhq/gitlabhq.git","13958","3","[4ef728e6153224ef08d055ba235c1f76d1c4f1f1, 6e3ec3efb6f3a8a05e62ec4b447d4d263bcf033e, 0917ad7269084ef92a6d1bfc940530fca28303d8]","1","1","4ef728e6153224ef08d055ba235c1f76d1c4f1f1","74bb5792cd149a3a1e8f933eea82d5a8806c083a","ef5bf2f2e5ff621e15c7ed50831874942264f492"
"https://github.com/gitlabhq/gitlabhq.git","14042","26","[6838c16c49185fb72aa58a9c6591da4ec0fc7acb, b487a32cc0fc14e4c0977cb6ff298131818fea16, 112d540df4a37aeca198dc39e715e04e3655c1f7, 73af7178a5d5002924603b5688adfaac2d5736eb, dc3de71fb79e1b9bb72eb9cf283fb94d7a089c90, 576e30ee60f02c8af4cc50e3cc44b9f519e89170, 325c55fb24e00883ee11738bd0f3695e45ace468, 7357d35494103f6f728736e9bf1264a979e02a86, 00cc34cc73572c3b700976166e483d79a2ccdaed, 84c68bb1402528944aa433b7a120d392fd93845b, a678f42ebb5bcb7434954865b2b2ecd67463aa3c, f57a4a945a60bd41d46d3253178bff7b1879799f, 4341801a416a30319cdf646c647b03b629491e05, 6fad5640e73837ba148b0ed005205adff91d8a4e, b71025c014babf9663e0451ad21eabde91570259, 44f2504a811b107a35403d9c0a8b8fce66f502c8, 095d9b5b238caf27ac9a9023bfed81629e9ecb5c, 69c47658c7d21c577c6ce73806e62be9ff713084, c5e28a7b411fee60b9151f1477c420af46bcdf02, 791e5024efbfaadf342f9a019b59e65af0249c3b, fb1ba0a55f07eca026b67c0c48c00be3569653b2, fc2cc1e235f9d760b9b69fe5911f8e4396ab8965, c1ef4347ed2f2767e045f0d145092abd7d525465, f5f20274fa6b27b40182e4d1a2c7164f4ca51543, 338a73ec03ceb2b61a824aebe4437a52b56f0f03, 33d82ccb453ef020d28f1307be1a3a97130c9e0b]","26","1","6838c16c49185fb72aa58a9c6591da4ec0fc7acb","dab266219441144a74b86fa27f4e0528810482d1","dd0f8b8ccc3b5f61e31703f7391a919b702934a5"
"https://github.com/gitlabhq/gitlabhq.git","14196","1","[330789c23c777d8ca646eba7c25f39cb7342cdee]","23","1","330789c23c777d8ca646eba7c25f39cb7342cdee","1ed7b7629a2c0fbcdfeeda386ec6292e57728e74","a5f0656392699dad7677a368c315217ea99b3982"
"https://github.com/gitlabhq/gitlabhq.git","14402","4","[3d44ec3f4aa7180f2226f09064abe281c6b9d7be, b3da5e15bd8b7259a6eaef139b63a61bd2e32c39, c6fd3b6a676195e3ed14738df2ad49ab78b12943, adc34e1cfe971c9a186791be607f47977c003f73]","5","2","3d44ec3f4aa7180f2226f09064abe281c6b9d7be","0a8f3ba4d2fae41d232246b40f27e9d188e6f981","e407279fd021d1da9dcb3a05a04579bcc0550299"
"https://github.com/gitlabhq/gitlabhq.git","14463","8","[c757000e83f57eb9e71dbf5505a3b1cd21bd8105, b29414dfc0b5f24c3773596eae7bb9a70275a44e, 0278b912038b1c70f289ab915c4d0752f9aff4b0, 94919b472425a7149f85cab0f3990e2f16d57c39, 9059b99b75cd7ab5462ff36a36fe7a6c9984b0bf, 5e9625bf1b0da3bc7a88cdd0d2b33a0813190c98, cfea48832db7d716a1efc1499fbe5b50ece7ccac, 52accce3854df8f6258c1699aacff8d460c8048d]","5","1","c757000e83f57eb9e71dbf5505a3b1cd21bd8105","d63de44d26f1b50e62d25c6db8f3a63d98f13d45","c266b5f57a09c13feef9c066856715f339076285"
"https://github.com/gitlabhq/gitlabhq.git","14545","1","[00fc9f260706cfd6d6f4261eea24eb3ff455b3e0]","6","2","00fc9f260706cfd6d6f4261eea24eb3ff455b3e0","d81794ad4992aa234a8916088616c0faac731e49","ecc6cc8be75b5c66fdf7f5595b71aabf9366a5e1"
"https://github.com/gitlabhq/gitlabhq.git","14581","2","[8db76243abfd1ebc98553426075f3fb4ddab54fe, 0151325dacebb99d54b6effb1d5842c0c712168c]","54","3","8db76243abfd1ebc98553426075f3fb4ddab54fe","7ea12d8067357f8e846e26b05a1dc4ab3d5a5a93","9ada13d343a4736275d2c026ee980abe5c5e5763"
"https://github.com/gitlabhq/gitlabhq.git","14623","1","[c1d5af67d3743b12718939c9d60c38035d388176]","73","1","c1d5af67d3743b12718939c9d60c38035d388176","86e75ae09238c7f73347c0e310c47f6070c005b9","61bc0c28c988f932473858283a988a41e9f4033a"
"https://github.com/gitlabhq/gitlabhq.git","14630","27","[8985ea1b9c649183e997a76c32aca927a258b51e, 541c8da0103d008471b8c6389451e6370a3992f3, 62f7b206b936bbd58d3f18021df37920a5c34ddd, 58b560fae0f75f5f5de0960d055791c471d58af7, 5fb98734d5b91ee6eb57b5fbe098e401d490d946, 0c46b3b8ad1bd251125773649138231482397614, c59f80ff2d50fccb31625eb617be1374a7ad1264, 082b868ecda0b30193a93b32d9614aef1f204484, 3af533f7b62c6b94f230f66e9cbd3bbd775d969f, 57731bbc6063f781a07511a3acb434a3eadf6afc, 05c409d28eaacde527a9260a1828fcd2b720a93c, 7a37ada12f8c2dc033594fecddf63345f1addf37, 4fd874219318b4ac195264f390c1b04912aff7e1, 0a725c80ea6a0ac0544188c743ee3755190334d8, 9773b5a3d4a736d933fc8ff3b6652981507b2cbd, 93a20ea87261c05e34db708f33441c36d2dc68bd, b29f91b06cc90f48c8322175ad92087579f96bdd, c50c5e92e9619cbb2a0ae7cc49697af5df46988c, f6df135717a09b7598f274a1c9d877ffcb59be26, 290cba5b23118bd40d64e5c6187afc820a6a0e38, e2bc67c91fc3ccbcbe5ed5b391d805b5da2f4d02, cfc03dab245843b924c353e50e15e2e59733048e, 7021e867e41f86343fa8fe9cef75f89d466b2ef6, 60b27b1b3e76b4b848b044c1f64a6d27a67b9424, dd9f848653d9635e7f17e608e8ff6cceca608068, a194e874e2bcd61b9ca5f87a6918a69eb8833aa9, 78a8be969f47af2fca2bff8b177f47238f8e7516]","3","1","8985ea1b9c649183e997a76c32aca927a258b51e","240400152242924e75ea81918b5cfdcf2441549c","f23264406d600655a4fd0a07ec6bdef902c9d613"
