"REPO_URL","TASK_ID","#HASHES","HASHES","#PROD_FILES","#TEST_FILES","LAST"
"https://github.com/gitlabhq/gitlabhq.git","21801","3","[f79687ea9763a7c7f5ade988ed76b0128de9098e, 0591a7820beaa8e710e9239e7a455eba529797c6, 51031a68f76b23b8936bf674d9bc65491b207ebe]","1","1","f79687ea9763a7c7f5ade988ed76b0128de9098e","2fb7392ed7afeb47cfaae4059426aeda45a12cff","673bb9ef1e9ca7c6a2fdd16bb75289181e076b08"
"https://github.com/gitlabhq/gitlabhq.git","21808","19","[1a293a43847b30d4357116f830a1b22d370c4a6f, 065faac3a390f29b57db5261e9eab4efa076554c, 49f9873ce2a88fb38f23f7eb09471e8b58aebe1d, 949431fa02da18257c8b7c7a24c03faa04c02c5e, 26631f9981a826ebe4aeba726e9be2b813d2c5c5, 729fe42bff474535c9eebb0b73974a79756372b8, 5583197e091e8f75ad9c99a1bbc46e6a0b7279d4, f8f68d6b8c5b5d85b4798257ae3ae4bf4ec8fadc, 71e7b398431506c8bac2e8e6014b0f3891a41f95, 630c86a7a36cee36ed6b9c93644a6cb51e2b3b23, 86418c475be1b2a37e89682bc87055b7372bbcfb, 08b3d7f6ef23b7a8a83c7e71e2d04f6416e73406, 855b2820c16c6e569d5c38b7def8ead18c86cecd, 4ca73f56cb59b86f25b55ff02800571fb82c742f, b8f38437900cdddac9d19d5c48a2a8e5bb037f41, 7ea1bcab45697556d4ffd79ab680872ed823d4a3, 359157c097993a9b917ca590e128e85cf358d95d, 73c5a3410596165244bfa3d2f657c313ec1c558c, 31b0e53015e38e51d9c02cca85c9279600b1bf85]","21","1","1a293a43847b30d4357116f830a1b22d370c4a6f","877f56c9370eef9affef3cc3438c5d4fe11b123c","a9346cab20f7e54a849877e2aa8601b8b3707652"
"https://github.com/gitlabhq/gitlabhq.git","21851","7","[179bae9968e6da5c09a1789fba7c4b706e144804, 3dc0c3e473a68056c237de3d31415c8034ba1e52, ed8e1faa4c72e138f3a75139fa216873a8b67850, 9e7e2c6b9d2e46720c0375b6c44a2fb5e0f7acbe, b105b84e3ac34915cf00b7bfec923abf98d035ab, 3b1543cd15fcc52c2f5f3b7f4ccf391334fb6028, d21b3a0211061a2fed5949e92320f100ab3df05b]","3","1","179bae9968e6da5c09a1789fba7c4b706e144804","2fdf928afaed93958e86aa951897bf63757a578d","ffe5ac41b84c342a8b1d099afe116cb1522da8f2"
"https://github.com/gitlabhq/gitlabhq.git","21911","5","[75aaf91cb1d08c4350e2881b18118faf30e1f310, fc5ff7af61e14b89b67febf4167a03a0133e55ed, 295fdf720ae664200fce8c316fbda1931f4ae61d, 68a4c98f5074bd34f0178f2f967153c8d5c71237, 41b8d22631053e66043d05695d65f4961b91efd8]","5","1","75aaf91cb1d08c4350e2881b18118faf30e1f310","ffc3acd498e5cfeb98f6104421cba32acdd7ee64","3f22a92f4a561543c2249786b695d0c65120455b"
"https://github.com/gitlabhq/gitlabhq.git","22012","4","[e90d6ec1d83ff86743e70931b49647eaf3e3e67a, c98089b2b29bbcb44cdce7ce23bff3fa5d10d3f3, 54ec7e959900493b6e9174bf4dfe09ed0afd1e46, 0444fa560acd07255960284f19b1de6499cd5910]","21","1","e90d6ec1d83ff86743e70931b49647eaf3e3e67a","bc590ce63bd2f1af5545b648e6d028a557e7c792","178c80a561fa10a157bae6e5d4682b232ae727c7"
"https://github.com/gitlabhq/gitlabhq.git","22021","1","[e632bd26e4b70b100e5c9891b4b2cc7e267080c9]","1","1","e632bd26e4b70b100e5c9891b4b2cc7e267080c9","6f50cef8094d9b14d2bdff731f0eeb01c31516bf","36730e8e63c0ebe16785f33cb2b740f8d67b2b25"
"https://github.com/gitlabhq/gitlabhq.git","22024","6","[8f21e2ae408a4ebd0e115846b9a639e7ce09a126, 9f673aa498fed240db5c408b10d9107cec938aa3, b03df1758bfa592c0bb6804f1f6bf540b792f3e9, be390cff65de0bf6f0fc1f059c4243fcb85d43d0, c2377a11957c6e5f8514ff0d68b2af343d3427d0, 33ba32e6cc12eb8a8bddd957bb99bd2df7628a70]","7","1","8f21e2ae408a4ebd0e115846b9a639e7ce09a126","90e91e28e40f2d5d5205e62f6e01e23af4da117f","f8c4dc97230c520df077c1274fd8d88680da5242"
"https://github.com/gitlabhq/gitlabhq.git","22042","10","[e8b3b92ddebc47595fe4b69dc5b5a3a6dd1365ab, e1dffa32db3d2ac877c0fc6f1728566d46c9e93f, e12e937b943be2d9dce062cde10b02b6474e170b, 55ceda12045ffb59187b7104a3b28a34e28a8b87, 9a95b15552fa8920800274324aa65900360e8038, 068fd5de8a45ef0814c500df10d3b9d39496fcd9, 8901336c78a9075a6a64205500e6019c40fd632f, f8163c81e7c765ea654ea81818eb3f8a9da7648e, 746ac56b6f92991bc15d3cd787094b9555825ac3, ea5f4cae53eb571b250fcbaa3649cefe3083a636]","19","3","e8b3b92ddebc47595fe4b69dc5b5a3a6dd1365ab","d324bf84340b58452181eeadb68c64d1888b3f9e","29ac9f64ea6d0a9e5a7615a9597c668dd129f5ae"
"https://github.com/gitlabhq/gitlabhq.git","22066","2","[90ffb1c0dbed6f695cedb3b7ded2a1769136f238, e3efce9237ea15c7b1c609a364d3dac927ac6286]","5","1","90ffb1c0dbed6f695cedb3b7ded2a1769136f238","ee14ac68a5c08566cc4a9afb4a7c6874f440019b","491ac7ce4b79c901e23799d2062f9f013f08c6c3"
"https://github.com/gitlabhq/gitlabhq.git","22125","8","[7a311c23494b26d5212cac98318273fc9d2c69d1, 62067c5b0f9bc7764a88b9bc618d21cae4f90875, 619321dc8d02aac16576d8407238acef0069f3ba, 38984a59ac6c540b1cb97518d48386f5fc42490c, ee0f5bb511802c6aefe725eed67b366601c9aad8, 2c431f89b1d172bdff326c93d58732a0d0a3f3bc, bebf34aa47235899b54c54995a8b6a13534f2eab, acb211215c30244612eae6219539ced4a071b0dc]","11","2","7a311c23494b26d5212cac98318273fc9d2c69d1","c674ffe0e045e46fd0f2754b77b1042444d95388","cb73470b933088721dbfa63840f191307a79a394"
"https://github.com/gitlabhq/gitlabhq.git","22141","16","[95b06a62c0db5f8c285a1d24fa1994e10c70ff27, c91554de09cb2b19e1403fdf50f691004e6befdb, baa782ac9a29ba8fe162287511cbc9e4810fc4ee, 3f2d82485ed84247d88cde6423c9df517c8962b5, 96058605c39ed2a7f6fdbdbbc3da05fdbe170681, 3c157b6bf7fa97cba769ecacd11cdcdba43adf4a, b6e5de2cfbc396ae4f59de2c2bb56432e705d695, 7cc102a0e6568fdfa08e63ba3a0b31ced2c30a7e, e0a18829ee7f1d681500002a2b6bda122b64b4c7, 32f8fc1f9a493dca41f5b67a15bb7ff37e5d78c9, ed4808555877c668366d98a5408937712ad10d52, 834b5d49ecb486065e3ecbf8b36becb416eff366, e805becfe838b6ac351a15a01d58e355a0b1763b, 37d92d0b7b91c678ce71393e73aa94860051fd5a, 70028d36bee51a9ed86d20fe5d6c895772cc476a, a056dfa9a077def4c3ffb958d3f86f7c9d7c2096]","42","1","95b06a62c0db5f8c285a1d24fa1994e10c70ff27","903aa7c95e82949ca0a7b18e1f6d2f25fe1b04f4","3231ea10b7319f6fe50c0ec1407ddaac69089641"
"https://github.com/gitlabhq/gitlabhq.git","22144","2","[543845f7efe0b70926ea699eaf1e413fa878b285, 566ea8543d971c4b811b2939b0677c5db52feab3]","2","1","543845f7efe0b70926ea699eaf1e413fa878b285","d43c778402b481569cb8b2fffed45a7c939e0c75","7e710acc1c72de7d11ad393ee3e111e250e0cb66"
"https://github.com/gitlabhq/gitlabhq.git","22167","3","[b763c65eff0412051b29d7ea3290b1a12d575c53, 0196c949f7f3ebbdfad2dff7f497635fdfeddccf, bf921d084e9f5e9e541d033db49c5c99eed1deb2]","1","1","b763c65eff0412051b29d7ea3290b1a12d575c53","d6f26e41dbf06ae9066d2b76147a361e6dee0015","f8c4dc97230c520df077c1274fd8d88680da5242"
"https://github.com/gitlabhq/gitlabhq.git","22170","11","[518dd9347bfb520d749cc1d36c459f867ed3fea8, 70d2fde4922eadb50fb720c9afa7a1ce38b1f20f, 1b10724e08ebce422366745013fb785fc993f1c7, 01b89ee8f17f837544d744c021b92950426a60d8, 9db57bc65a53b19714e7b867bdb75c85058013cf, 2c760487be653a3cc4f9214a72d9c9149147263e, 0f237dd8fa842941dd51419dbd8095f3a6f2cb5e, 034ad4e20119fda5821d101aac841315da781277, 36aad293b992e999b77e7145f0c6f36b7b02eaeb, 1d4418bc5feb0f3ac2ac2f1a468e4c5b92f7b518, 1efe1054150177ac5eb31ff85e2c18c5856d480a]","9","1","518dd9347bfb520d749cc1d36c459f867ed3fea8","f2a9455c388cdd37a212428d9ebcac08459a4f88","ba869ae50d0c43867f7d34a4f7e08520c1e4c7f1"
"https://github.com/gitlabhq/gitlabhq.git","22184","3","[7dd2e37a9d5c2c6acc45bf636432154ed0d73164, b41a274b62804d93e1dec57d8886d86602274dac, 0b86b46a2c0eeaa397d2dccb49bf51d096ac12c6]","4","1","7dd2e37a9d5c2c6acc45bf636432154ed0d73164","7e710acc1c72de7d11ad393ee3e111e250e0cb66","6aa50165b0acc355925e271f07ef8e87291e0232"
"https://github.com/gitlabhq/gitlabhq.git","22186","11","[d4981e9b4a9a548725eedff98b93c7ff3596c437, c3d3e34e811638463a73a5d85dc3cfdcc7aac370, bb1eb4b5dea70bcf4afa85bc180826582752b9a5, 3c9e860f5ee2393c01096337822f2542020c6c23, 85e672b150a947a45604c673c6828267f3c8a8d5, 7ff635d946325c4b68657efc7f8a0aee87d8532b, 2b9e5c99961261bc3c9419cf9bb29c115c59eb99, 8f598b5a8eb155b223d4bcaf3d5145563f4d0114, 6bcfccf749caf083cb3c3955cd8d5e5e329d6e9b, cb7dd09a9c85a35052b0776b84a7adf02695db8c, 8b9a94af79ef3c5824ca62c5392fa4a01c41525e]","2","1","d4981e9b4a9a548725eedff98b93c7ff3596c437","1fa7671f44291f78131c0fa31f6d1ffcb3ff6bbc","9f1c3bb7659365d09f2482d57621a3ff0510d9bf"
"https://github.com/gitlabhq/gitlabhq.git","22210","3","[4c8721b25abf460b309bbe636ecf559e4a9a339f, b4c842b321eff7358ac437ce7f8bf867d068f88f, c9a8f2a03ec6510b5579cf51798b6f2bf870089b]","6","1","4c8721b25abf460b309bbe636ecf559e4a9a339f","6aa50165b0acc355925e271f07ef8e87291e0232","b2f0b3f14582f92f94fe12ca7c2694c213d9bbc4"
"https://github.com/gitlabhq/gitlabhq.git","22211","21","[fefa6a6f9e8f484300a808f1db6254a502cef73a, 69a76baed92a3a9a1b35c0ff636a77ffd52c4c7b, 3b489ad1d798d640d8d6cddd20d0ed10563d725b, 2816a227ae9cbfc017a935988ff0ca1973726ae3, 9062f14617a754f81ddc05e3242be13f15d5fe2c, f0b877904703b9e22ffd4556a1872b0a20f55d36, 10eb6d3cd7c9777d38558017073997d3b5be1c98, 48ae8ef165a426e5899201789f9b6714ca21e808, 8c90b6ecca1ccf21fd30231531208c8b6fdcca10, ef9b78c1e3ab8f14381ca6382aeea34401568aa8, eed8b179b686fa98256a79e5ae8d2b5967bc5ecd, c6b27550c82c8c123047cae5c85bf3271a531d6a, 4c4d7424313a2c46b62d611c6d5f55ae91a7c7c6, 2888cc93bd061e089968589c0df8d2f507940e1a, b522ef4b690d97ee732f3ce2adc7eedd6b465535, 703ea298d65a455fcb60f3119d0ff94f6a6f16c6, 237290bcc45997a7c370b07d0ec20017b8a909f7, 97400ef8525c58174e42f3afd55978607cbfeca7, d941aee4001e002045b10997cd268c87820832a8, 99d75a2770c39dcd430da9805e8f16d20f460555, cc9f93f9d26a18a7e867384e1e3cf34a3197ba5c]","5","1","fefa6a6f9e8f484300a808f1db6254a502cef73a","9f1c3bb7659365d09f2482d57621a3ff0510d9bf","cd391b66e9d480c3143b63d32f893c6a1015f04e"
"https://github.com/gitlabhq/gitlabhq.git","22240","1","[9a2869ab4674b8a6b94ec206660e083a00d4db37]","8","1","9a2869ab4674b8a6b94ec206660e083a00d4db37","2ea8f71bb42e63caf58ab285d0c4e483c2c4de19","bb3563b5cd063772fa16c934404e7912d9f3d726"
"https://github.com/gitlabhq/gitlabhq.git","22242","1","[3d96bfaa8aa24f6ecdfb6c2e4189b01bb0ce1b51]","1","1","3d96bfaa8aa24f6ecdfb6c2e4189b01bb0ce1b51","a297e4404855bc79c53d5c1ca4df023a238c1798","2cc9a42ca45d14fc7fe35ea6f8bc4f9275f33144"
"https://github.com/gitlabhq/gitlabhq.git","22261","1","[b95ef77e233eab3b3d37a4a7dce545d9da36f8a0]","2","1","b95ef77e233eab3b3d37a4a7dce545d9da36f8a0","bb3563b5cd063772fa16c934404e7912d9f3d726","4a9affa7330f2099f6385d3d74150f93cfd008f1"
"https://github.com/gitlabhq/gitlabhq.git","22267","2","[f36fde94d0f72bc86abf4a424710f9e5c72cfc30, bea6aa3377dfc685ed2d6427609e17318279e8b1]","1","1","f36fde94d0f72bc86abf4a424710f9e5c72cfc30","820d227b9e233b8bb8c78b49ef4a26f757e86953","493d166d66902e645f3b0afb76526317fd98ceeb"
"https://github.com/gitlabhq/gitlabhq.git","22295","2","[eb178f6d66b65035ce5795cac517d3389a187acc, dcaeee45790480210cf241d5dfead86803fa16a7]","1","1","eb178f6d66b65035ce5795cac517d3389a187acc","ad3433f91e4366b7ee9f92ae6e16792536c65795","06f7fd2fb75293ca2bfeb36dd0552d88a8ca855a"
"https://github.com/gitlabhq/gitlabhq.git","22301","2","[3ec1bffc6c902fa04d7d4281b26225a9d640424e, 62f4a9de1997fb1281e4d73753d157d2e29940c4]","1","2","3ec1bffc6c902fa04d7d4281b26225a9d640424e","06f7fd2fb75293ca2bfeb36dd0552d88a8ca855a","5803a5308f5a7a84cc84dd0a7d8a89565bae0717"
"https://github.com/gitlabhq/gitlabhq.git","22325","50","[2ef1ea501f48e29399d94ec5843984e4f7014b99, f37765efa237fdc26b9937bcb2128910eccbaf91, 7f3026854515d0c9d713ad9356016a1fa55a3200, 42cbcb23478f7b07c0c49e0020a8d3c834322e87, d53ae7f14d7c24ee590ba57632d267ec01706aa4, 57d16552ff769cc5b41737de803bc2ddc4813f4e, 0e9775816a13feabf1ae0d4940ef30bba1196d40, f42b1fa6e5d84b84ede5bcc853dd2df9c6b5836d, 3d52e139b13ad077286f2f9f46b7e98f43ad9564, 408e010d65e7e2e2b64a694e12d44636d7d81dec, a7dee0ab018d8ce660d7ec778b68291ee3b3689b, d80678c0da431517498ddf54d3b439498177e696, ce78813c2abb8e65739a0a95d8044e3dca1bfbe6, a57bf9bd39816cebec5da3da35a1aabbf7462069, fc3f8a8ff75a09aae62b2a56c7f78fd9d21d2af3, 44656136475d8842628d0a1112aecc9ec412a16f, 424cb9ccaef35717bd934dd48f8bd69515210a50, 72009896758dfcf73f94146b67e7758190ce7039, 8673a70f500ae5b0e93336f9213947f0aba67033, a74a69db689b7e36c0e275a1094b1ad757bd6e86, bc54300ce5329b66d0ba726f814d9e761e782668, 139c513da609d2def0d4122789e94fe29b557e67, 1bda6fdf6eceac6db8cff13d9e79fded3f41e407, b13a73446a5cda8076b7d4639ff7e70bc1cdbca1, 07eb334c2546294acea43e85308bec907b13467c, c4c4b808f3ff7944e6b4216e910cc40a0fa2ebec, 3b98adcc75f82f4e5e469da5c164467da02b0f0c, 4120b7941d75217d013dcc9612e3e5dff76f10d5, 1d476b0656b3ec24e264d7a7c30bdca83704b3bd, 14fc05ebfdfb6654859ee6f57aa462420a6bcb56, 4bfc377ff62656879691c0a6fc03a4b2c534f42e, 56a5fc0cd331143c9a2b4215db3dba6cefd6cc3e, 372cdf4ce5fa124e03e2c93e9d1ed586d489b1d8, c86b12bf69828da47dc535021aa3847d61d2d642, 7bed6ee21d1615b4625754f3af803496938ecef6, 802bf6d012bf8edb8ea35429bd8b8cc4fe8e9bf1, 9da03c45c9e313e8adb170ee9933bd94efbf747c, 49cd19652ade0eb81126caa590461e8340d63d26, 917081fe9dd3da2995faf8f5555ed120ec4c4ea5, a56ada0a1e92b9ce919fd75edb6508514d00148a, e81061a211fedf9adaca8b053b6633988fdd5644, 48ddf9a407e0f98949301de7a2cbd7d62f8a4e47, b05ab108f8f054e137d6ca3df9c211152afa23c7, 38026e5f7708473d2ae7a284a174fea7dac1e5db, 77d7910b8b4497dc52a80f8a35b765c978d547a4, c8f2d18abde050c3b6d15ee32c99495c77b2a222, 422a01fc853a93e8946c69dc2ad0ad1dea261653, 1e0053f2dca63fdba18811a2194a36f828d45486, 7cafa2ce923df9c034ba0b64907b4b6eb6b3c1e2, 41d8f5649e3c8a1e37be4608fd03153005c3fa58]","34","3","2ef1ea501f48e29399d94ec5843984e4f7014b99","04d1b412587028260ac219a32bdf3b03ac022308","040ae7e3e0c6f4d97fe6366bff9b05831283db7e"
"https://github.com/gitlabhq/gitlabhq.git","22338","17","[62dd6745bd5d3fd1a144b13701bf80f4cb13f887, dba0d7c9f96529d32c1a94bb29ef87c5fc3839f8, 31e1a38b63e7ecd555d09c5a5e34107d50a6a73c, 5bad3516d4bfac6d3445c06f5dc105ebe36c5c11, d618e9c8f819053c9c3122cfa1baa4f61d0aebce, 0a08b105801dd9eb0c32e2619a905650e7fe46e5, d151b3878877b74f2493015d8da7812448da1b41, bf181c614abd57f3b40db1b080a143559800766f, 4dff27eca50339b799b26338543648953760f1b8, 2ac744e9d9986f6ddf14e5d016a4a9ae9b38af85, 7ecd30a840fb00f7a3831adba5349cb89ecfb104, 2c31ebff889a0bee1ef6c56ff80a56deebc2d67b, 46b5f83a1b482bc92ab2985d70d8ab07551b75e6, e6be134b6c3b56dd7afd2b5aadbd40c958895eab, 1162f8d77eda707269ce3214ade25bf1c64d304b, 4e8266e8df3a5a66a2622e4c5e1ee902cf3a66b5, 365d96ca850caf653f48a611f4a6dd785487e526]","7","1","62dd6745bd5d3fd1a144b13701bf80f4cb13f887","de84fa365eff85a3d21a664f24e9832a664c10c9","c4c919e59ded2fbf29dc3085b6621e02c0b10f54"
"https://github.com/gitlabhq/gitlabhq.git","22341","56","[cc5ff3b5a4d63dd079e02029be36646261770f66, b79c8b5228fe929d429f386950ca1c79b4909f19, 5ef3f80d41198bff244f6a6d2e3146b4741e81c1, 78d3444fa7db81e2e2f947e066a3bbe6514be9ef, a63bcb7b6d796843dedf312c831affbfc574d7bf, e406eb7d6aaa48aa3d45539b22160636a8183a40, d521079fd89dccb2b52c5ed8ffac38f80a9a783f, d6e3abccb82ac112979cb1cea0b34faddbced358, 112b1add4c4f9347d4bc0f6b20a8fd37384a81f2, 87b076f2ce6a791f6173eedda3ad4505d165451c, 28aaef24adba2b39e0744d888b0e02c7bdb95c0b, 169070ba4b83b1cbb4084abcf8ffeb9f492fcffa, 6908663479b267cd82402439a3e5059a1477b4d9, d958d027dc8a3b20dd5bf7460ec59d3ca3a7f446, d34733efc4ac24979587a7ce6ac69db41a2003c3, e8d15f1339b1dac1c97516c320631e04c3e5e4d7, a07021fa8e8abcf5881cece65bbe0248338d16b6, be54ba33ed1fed6ddef5d544c25b293a9669142f, 02f48053f1328055bef548bf2627e8f71c919a11, f088caca3b3f90829735c23d061fd55230d1be3e, 5ad78cdbda7e5393bda5267adc7e7aab3c11956f, b8295fc3232a3d9ca2af524225f9a66ab7735926, ccd2a8d6b577e9a5a0ea3a350e6bc039550bc1ae, 477ae66b4ddd3ace948f47c7bfa60085d6e320ae, 2ea5b37f2effacc98dd15e1d86386c40bc719200, 11345866d8ae3198c0f5523e8dee1e14cb21b3c7, 328b52d58a36525fdc853f15877f87bcd7832d1c, 38e708f0cea2f6707a26854b9d077182c063dd51, 9d4c105ab0054d99ae43675e758af6b8098a191a, a28eef1d1a871c14142d01f1ef8c76660da34c21, 38752d159d4f7c06d374666f95fd52864449d838, 1469b72c462264e3b969a59c8411e4c403731975, e22cdb40ec29178576a147a62e7bfe119ada9a25, 4dc835051705d5354645d39823b390f40175dbb2, ef591b87d157d29796e34968ac98e5a7a671b17e, b0693318c39f347ef57caf51b0b0e70ef5ec898c, 6b0e4783530f58d7bd9e425f21c170b83a8d0dfa, 91e6e32d130308496065d2efbf71d61e0eeff784, b36319a17cf82ee9782a572fab741938662a1c6b, 806139936898726b32c4fe216ac3a9f4419ce91e, 34e26b8212954dba32165c39b63858658b82c0f0, 006089f97219825b2ec9406c0f2abfb3b67ca68f, b6fe51b901ebba9892718df53b5c0b4515b8d758, 1708e1fc03439adec8e4f3aa341faaf6f378f192, df5f362c3423cc0d3f5f5c64038594e468d8ffdb, b5935f0782028aa8270ebb1a78e157d746864d7e, ae46d6ea046874f3e4d21239169a14e56eb5b4a4, 5bb5019e043b470a1e09dec2fe05efd57498dce0, 0b7d70a35ee8e743e69102c3ee6d7c73d7f4a89a, e1a3c8cd1a4f2a9a8a8cb4bc2df50398fbf1d604, f4ff2ba57b54d54a623140391470de9aece1a75a, 207522f923063132ba9bb3c95b7404d0eaae3760, f56ee9d3b92d97560d3c35f25736556ae3861343, 720e52d9d9d53854f21de6ce634fa26bd358c453, d7511a4b04f89a29057dbab2f5e3500fad4e5c18, d3c243732869ca927406020bc5088b1931e4dc0c]","22","2","cc5ff3b5a4d63dd079e02029be36646261770f66","a5c7aea3a95e14fd02ceea9b1ff6678b3ce37e68","96158aa6b377d6f683d560689562293c36e05002"
"https://github.com/gitlabhq/gitlabhq.git","22344","31","[73c9d80bdcc24ab178fa2a38eb822232b4c2be34, fb62196f430a12e93ab3cf70b3182df130fef6fe, 36971a50464506c88535b3bfd9300b37c2e07ca3, 7d5a182624acd2e48eba2531f7597a93b117c056, 08b8f489290c3b0456fcaef3064d1c333717cb6f, 86a49dfb88c45f241ec2edf1914199993a4563d7, 287cc838ceb4bc1878db7a33eb82d4639d7ed337, c4f6a9359320ccee512e78f8e99a00844330dbdf, cf3860848658b4d6956cff5ef9f3014fb1b71c3f, 73faddedbf368742044d244539a403c9e9d1322e, 293999cabbceab43ca82c5178285d52dfb55cb08, ec5c3c029ce220f5a1c0fd10d0d3bf17951a07c9, b14c9fcdbbc24f3d50c1c04091522470e64ccda9, 13f92521c22f63140adbf933737e0c5dc988a8d4, a2eac4684c0562df06d28617f81e2494e673bbb4, df313634d0e247fb39726dc3b070c707100275ed, 21152d7d51815622fd3cbb93836cb8fa7b753ec8, 6ca99bd899322ff4ada84f119907eb0210485482, c850ceec5d595d3808fa566db3d2e88faa3797cf, 433de7baca62060cec1adda7183ede1acdd03da7, ede451c851f2bc5f445a1ff7a418735f4a98405f, 2c7f36f43072dcffca13c7e248f8df1bf226ce1a, bae3701073783c0b6f2a831bb96413ea0f85b42e, bd7c52c734bd25b4b2549baf35b2957b45c7a972, f3e92fb4d04f69deddcf1daf3dde8a79cf942bd5, c8102d938bf8f1c73058281b2724730c6d88a53b, 89b181204c9f8d05761463bbf0f5cb1a6be24611, 5e1edd372f2522866805093d04b7127661083647, f6a91ccc5b21d26c677bf828fa255f16f453e1e0, 9972abc2951e2d2c7c4c94189199234c39d25ceb, c1affed19696ec9d78dbca3b5654d41e94282267]","9","1","73c9d80bdcc24ab178fa2a38eb822232b4c2be34","96158aa6b377d6f683d560689562293c36e05002","75ad91822d638f05f09da5c570dfe16b4a8dd8ea"
"https://github.com/gitlabhq/gitlabhq.git","22352","2","[f3b6839a4add7c74dd864dbdf016f5bc3fa7216a, 4b650fac76c35bd8666d7a53ad6ff02f256ad64d]","3","1","f3b6839a4add7c74dd864dbdf016f5bc3fa7216a","cb0b7de48267abee85d39571ae55a0e988cc21eb","dd68d100e659d315ce6b21dac914beeda0fd1d4c"
"https://github.com/gitlabhq/gitlabhq.git","22373","1","[9823d00e0b13224ae9e820e7d3f9fade69201e99]","5","2","9823d00e0b13224ae9e820e7d3f9fade69201e99","ff28ac9c18231c54b9a925d26915bf3e29548ddd","943bed68bc42d02246ddea63a25432d3aba709e7"
