"REPO_URL","TASK_ID","#HASHES","HASHES","#PROD_FILES","#TEST_FILES","LAST"
"https://github.com/ministryofjustice/Claim-for-Crown-Court-Defence.git","2040","3","[b53d9cf9a0d3dc1b7fcd21973c4da80326ed702d, 3a3c68897829920675de2f00d6f0ad5af76e19ac, 3ed5fb89930441ef0a55e341b28c8b8db05be208]","2","1","b53d9cf9a0d3dc1b7fcd21973c4da80326ed702d","bfa4930bcc7ea433ff3905221bf5de72604fd89c","e09bd91159db31f78d1f2dc06cc7409e9c045c25"
"https://github.com/ministryofjustice/Claim-for-Crown-Court-Defence.git","2042","1","[3608d526425309723d1b076a4174cb10ba829d7c]","4","2","3608d526425309723d1b076a4174cb10ba829d7c","32392c8441ba24309d3a815dbfcf6afaea3686e5","5f825312731b58f2be1e1983a0bae055821ecba4"
"https://github.com/ministryofjustice/Claim-for-Crown-Court-Defence.git","2048","1","[0d4011fa1ced3e975d8de9c169f92f043c0f5f33]","5","1","0d4011fa1ced3e975d8de9c169f92f043c0f5f33","8c7c48480e76362cb6af1072fbe18b77095b4a23","4ccd50af24e09911539d865db9e8b179ae6de8cb"
"https://github.com/ministryofjustice/Claim-for-Crown-Court-Defence.git","2049","1","[228cec19bc087faadf03e98e21a8adeb9b90e6e1]","3","1","228cec19bc087faadf03e98e21a8adeb9b90e6e1","1a636975855592f4570078ea490f16421f044b34","3a1062f37d196d4c7d944cf1f7ef3fb68d3dbf69"
"https://github.com/ministryofjustice/Claim-for-Crown-Court-Defence.git","2060","3","[2c8c931abb0be0139104e861398a079f7265cc59, b44c48f82f0641e0d63e6c9f58f545adb96bd97e, 17daf577642b61194b50973621fa6bc0b61c35ae]","2","1","2c8c931abb0be0139104e861398a079f7265cc59","b0e555393bbabefb0a73a3a9b0e7593a1330b24b","f3bd980b81cc9240214306c969bc1cbce74a776f"
"https://github.com/ministryofjustice/Claim-for-Crown-Court-Defence.git","2070","6","[86bebe9e12fa6809765a5695a6ff43da790ba4f8, 40b26b8adeef44ad9782daa0b979a38c2c9be863, f73e1a5cf78e38e6d14131271e3bb7dadfe39c94, e1c71b62798885faf86e8368a02f1ab90f36c589, 3cd0e9830980ef03be428cf2e4fe2e8ea58df1de, 9c910d24e215e8ca293ca8fc5a492f2f170aaec2]","24","3","86bebe9e12fa6809765a5695a6ff43da790ba4f8","0d3466ff4306206b4c03917f1bb9f014117d75a4","27e70c468050d0f7276cdd1bd0c0e72020720407"
"https://github.com/ministryofjustice/Claim-for-Crown-Court-Defence.git","2072","2","[964148517ecb4359cc33e638069b4a6fe8d6bf32, a8041e340f7d865c8df26aee07b7ba4d8f5b38d0]","3","1","964148517ecb4359cc33e638069b4a6fe8d6bf32","04522a9dc8ce5726efe0d7e163bbceddb901133f","e072e401e113d1141356f18cafa70fd151f04461"
"https://github.com/ministryofjustice/Claim-for-Crown-Court-Defence.git","2080","1","[e072e401e113d1141356f18cafa70fd151f04461]","1","1","e072e401e113d1141356f18cafa70fd151f04461","c05a587ac6abfcfcdb169d10255487181616c3fe","6e353ac1f90a353697d10e4570637e92a6aa9f26"
"https://github.com/ministryofjustice/Claim-for-Crown-Court-Defence.git","2082","6","[64a1631bf88d901a209e0d169c9268af250117c9, eb8064eb03657f18bcd3a6fa5f2f49ddd4901265, bded1886ad760469584cfbd0d204ab3defc9a18a, e7ba9883557d67bdf4543f1fbae9430ea00a46e6, d8aaf00224b961f7456adc7faccf19e767c32c45, 8cbecbbe9488ae2e96c93eb6fcaf19cbe1967d26]","3","1","64a1631bf88d901a209e0d169c9268af250117c9","6e353ac1f90a353697d10e4570637e92a6aa9f26","11ef33ca18a959749b20d42193a86a21715cb3fc"
"https://github.com/ministryofjustice/Claim-for-Crown-Court-Defence.git","2087","3","[c54e1e933c875d54522e930909b2df4f1bbd3230, 8ca6e898f5011701d2376284fc052feed0e2dee7, 144bbed1b6a2b0ac664ecd1eccffc0dadbdc82e0]","4","2","c54e1e933c875d54522e930909b2df4f1bbd3230","39defd6f021c3ec2147043cd6eb98afc6f7a79ad","c8c9ef9c3e20dad850c2559206ef277c98aa571c"
"https://github.com/ministryofjustice/Claim-for-Crown-Court-Defence.git","2088","1","[4c6605bda9cb6e872b54d0897b34428f4616160c]","3","1","4c6605bda9cb6e872b54d0897b34428f4616160c","b72a8effdd014be5beeb78d46b2fc70dfa8aaa13","22e06ea286883f015ae508ed11fc1f81055dad90"
"https://github.com/ministryofjustice/Claim-for-Crown-Court-Defence.git","2094","1","[2878b4305f4e56a29d7de307ccea9e09f1b8fb45]","4","1","2878b4305f4e56a29d7de307ccea9e09f1b8fb45","c8c9ef9c3e20dad850c2559206ef277c98aa571c","0408230686556ab405bee52278883b5dd286f966"
"https://github.com/ministryofjustice/Claim-for-Crown-Court-Defence.git","2100","1","[49304e634f0b58512f344a339dfa848921327b55]","13","1","49304e634f0b58512f344a339dfa848921327b55","bf05bb503ea990f31b382a5a1d43303bd1eedede","3419a6e1d920571916832592e50dd7534b3b74a4"
"https://github.com/ministryofjustice/Claim-for-Crown-Court-Defence.git","2110","2","[07a6db98eb93bbe77438d11d4d0c0fa2ae8f31a1, 90ec751e9ee58fdc73601add3a0181c231360347]","10","1","07a6db98eb93bbe77438d11d4d0c0fa2ae8f31a1","df6bae1b687a47be9030b1acca9dbf043922f202","64f409b3ce63195c87e22854d359a123abe0f7a1"
"https://github.com/ministryofjustice/Claim-for-Crown-Court-Defence.git","2111","4","[cfa8faac6b7136a0b4f46cf807a9d3d96e465017, f81c0e7bbb12afa4868c1e565952faa1c8801f92, 3fb6f4055a1c198a9b8d7e049a7f5fbfc42b17ca, b764c8babe1d8d6100c700f934c95ca4508ed098]","10","1","cfa8faac6b7136a0b4f46cf807a9d3d96e465017","64f409b3ce63195c87e22854d359a123abe0f7a1","7d624c8d334bc503bb7cd343a84761ac24b635b2"
"https://github.com/ministryofjustice/Claim-for-Crown-Court-Defence.git","2115","9","[5a35f4e271a052e7bf93ca7bdfb4c04e1b249ab5, 1e238c630cfb43991185e3b091b3c07036948ce7, 967a18eaf185ef1501621db49cd9ab265bca27a5, 9d76c90fd635f911581acbe2ea8d5536aeaa773d, f640ceac2871e87796c8d8fdc536d30570965854, eab731365d8d7735bcb655d746a32a81063119c5, 14c64bfd23ca7c29fd458b299d8b45ab3ec5de23, a3706d844df9b59f3d579f6aa1c2fc6cdbbbdc67, 5fc481b0e45c7f673b23290153f46ff148424038]","31","1","5a35f4e271a052e7bf93ca7bdfb4c04e1b249ab5","4262655fac6aaf3468fe94286ba761edd0cb0063","17d780c54708ccb2f61da5206b2a731431ce08f9"
"https://github.com/ministryofjustice/Claim-for-Crown-Court-Defence.git","2124","1","[16409e5743063aa412062ffb7c532e1533ed8580]","6","2","16409e5743063aa412062ffb7c532e1533ed8580","37218372080e5b6189c9c13c5aaf845ab4bca2bd","d7a2891b50e75c3203365c6c6f18303dd5d1436a"
"https://github.com/ministryofjustice/Claim-for-Crown-Court-Defence.git","2127","1","[a8e238efa8e4a23f7146764ab8e53ed8537ed1c2]","6","2","a8e238efa8e4a23f7146764ab8e53ed8537ed1c2","d7a2891b50e75c3203365c6c6f18303dd5d1436a","382f0949091207808306fb729297be1937b88777"
"https://github.com/ministryofjustice/Claim-for-Crown-Court-Defence.git","2150","1","[d0aa80501321ea6d573459eca3ae27fe91f5a63b]","3","1","d0aa80501321ea6d573459eca3ae27fe91f5a63b","c6885a438e7eb1d3a5caf6cebff8e89634e9fbef","07130ab84d577580129172885ec0a58571f8ef83"
"https://github.com/ministryofjustice/Claim-for-Crown-Court-Defence.git","2153","3","[4825748be8172bfcd2644083c8bc8027444757e5, 711958332e13a44d94d01aeb2ddb9f1969de0b3e, 7acb857a967bfa8f5862ed42180ef1bd74b04c1a]","3","1","4825748be8172bfcd2644083c8bc8027444757e5","07130ab84d577580129172885ec0a58571f8ef83","24936b20687c0ac56672e538b6213bd1f949b5f1"
"https://github.com/ministryofjustice/Claim-for-Crown-Court-Defence.git","2161","7","[d8caa24ae0cbf2bdb8095456af1616f82dacf621, 36b2a1986ac51bc8829870efd0f04a8ac16d2c33, 66bf13c120262c457333aee048e0fc031d646090, b69ff49f506f9e1626f711069d43c75ab3b7c4a3, fe0951ca3bd24fc11e78ed02173e6f0f5869a019, a7df4f3d6bd8f57bb178ba97e50e1dee22341e8a, 161e5920523008a1ccc349a4462031d3a9282b8e]","5","1","d8caa24ae0cbf2bdb8095456af1616f82dacf621","4636256d75e895c5b2aa6e79f15db54cfd85e186","c67969f59e2784e09d1e4371bfcff9abffc0fe06"
"https://github.com/ministryofjustice/Claim-for-Crown-Court-Defence.git","2169","12","[37e6ec451db849843fcd2d18cda0762a0929442f, 73f2313e6529f962935d05f619000745d7c63c89, 6fb22154f5465ebb8d609c3f47ab201c5a35db20, 586109109c2cf3ffd59c6caa07ff5f251ff179f5, 6bcd02e075399a8da265a0a4ec2670466a350ed9, f7c7a4159b15a14d352a6002d8cfe55860426f91, 6b746b2c37dfcc9f41c21c5b99c48b647939b6c6, efaad5377847f2d2c13a82809391f63c402bc1d9, c9318aa7b3716cf882686542428fd90f69d28633, bc7f24bf7a5523e9a8d48e84819ec260b1323137, 3c65225fe819442ec64c9b19940c7a2a88c7d825, 9a54555692014dbaf955f26aba4da44adac1bab4]","1","1","37e6ec451db849843fcd2d18cda0762a0929442f","c67969f59e2784e09d1e4371bfcff9abffc0fe06","d3fa64709c290844cffbdb97696cd45e748ca147"
"https://github.com/ministryofjustice/Claim-for-Crown-Court-Defence.git","2174","1","[dd500ccf0d630c08ca5b8c8f916ade86b73357c2]","5","1","dd500ccf0d630c08ca5b8c8f916ade86b73357c2","4993bdbf3314e117013796521c203ded842bfb48","87eb5cc2135e1cc9b680f5b1a804b1cb1f5d8203"
"https://github.com/ministryofjustice/Claim-for-Crown-Court-Defence.git","2175","9","[d1f180f0473be13674df8bf6b4d08d5e55c72434, c2ffbf7b444d3f7790a11ea86eeb80574e9dbd22, cda14f26d6919d0d67337cd9b85e5c7bb48aa52d, 4a59585bc48253e5acde8207f9555387f38e0b88, 0581ffb5d39c621fadd8208910a4f801d8cfd7e4, 4ff2a0d607ad253fd7c899ceedba9c684a642b99, 740f5a1534d151fe5efbe531c1ad61234be06252, a6768089b70e862f8c30054c1881083dd93680b6, 572d0e4739d258fec5a3d3b12b27aeb0b50123bf]","7","1","d1f180f0473be13674df8bf6b4d08d5e55c72434","4993bdbf3314e117013796521c203ded842bfb48","87eb5cc2135e1cc9b680f5b1a804b1cb1f5d8203"
"https://github.com/ministryofjustice/Claim-for-Crown-Court-Defence.git","2178","16","[5891a7a047c7ee4aa7b0dc1552408a3a1c0b1810, a22e46d0346b552a08c355d72c7e542d85fb3869, e054e975e78e1ffb184d3108cc1409bdb6c14b98, 52f2f828b2a3f4f5b519e60f2a7326e2356161b1, b7fced4e1f33fefb369840b890097239c0374984, b545ab5c4b7beee8962e589bf500ea982b43d562, bd9a220038006d27fab2185d68fc19ed3caa4495, 4dfd74ea24899652429643d5e80b418e9f5c4c92, e15a0c0d7211308c59b1e3edd82ae2ff643ea9bc, 1e7d0d733d1c332c5e04e92a9b65daba1fd4e899, 566ed202d6e3be1dd2bc82a07a3d9450b2365f94, 0cc3ccccb45773d5777f6b6dfb231208a00f465d, 8fc4394e8ff661da3ccc3bcac0cc4f5a620011bf, 8bf7524c631099c1c9a32b9b96922d8fdc7f5ed6, c361f3b807a8daa243516cae6f9070ae779e4deb, d39ba5d5a8f7930b176b3667fdc2d7253801a2f6]","6","1","5891a7a047c7ee4aa7b0dc1552408a3a1c0b1810","d3fa64709c290844cffbdb97696cd45e748ca147","a3bf550865ba91ea107c5e60e508c8286a1a61ca"
"https://github.com/ministryofjustice/Claim-for-Crown-Court-Defence.git","2179","11","[1790aec9c4979089ae2b9c93802248954a32360b, 85abbff71d30f5dee1ee750784cc47ffeccc986f, ca2750b3981b298da2a671687eff2426ed61afb8, 126f7a49fd1c067b6b5f0d0265ff9a60a6c9875b, 123ab93c89972643dae335f60f42df99fcedbfe2, 8be972aed128483722a6b604e4b4688a165a9b4a, d5453a90d11f61c596660919f1466290777c7282, 00a0f75cd97a1acca13d7648f16c1503b688e6f1, 3bc8d46476d580f13da95b2807017cab7133e8eb, b3de856969f6c61a4d5c1e33f3fd830dc48ebb75, 2fcbc694a7981fd9103a3b857fcc514aad2962c2]","6","1","1790aec9c4979089ae2b9c93802248954a32360b","d3fa64709c290844cffbdb97696cd45e748ca147","14e4d04367ee3f43d790ba664e476213c986e65f"
"https://github.com/ministryofjustice/Claim-for-Crown-Court-Defence.git","2183","5","[1dc06b796ba95d75ff87dbf817acaf810656ffe8, f991953907c6e8e52d3ee5099087ef01c988f474, db761b6e14a0f82cbc56b3f09b5a8094623b28f5, 236272cacb767900e9f5c54a2f1064d42b2b4d48, 9351ae4a22bbe6b9bed369299b2815d32e506fb9]","1","1","1dc06b796ba95d75ff87dbf817acaf810656ffe8","13742a9db7fb609a0c0b649f9f5532a24f20b23e","0af4617016e1dde407952661c62dfeb78aabf91c"
"https://github.com/ministryofjustice/Claim-for-Crown-Court-Defence.git","2211","3","[6d180d9ed290f8234f8126cbc7dcd0a1a61ed0cd, 0222432e95866d5ff430db09049a33d409410b0c, 0f4fa54be16fa9f3ac6dc11bbf85db8c09f80043]","1","1","6d180d9ed290f8234f8126cbc7dcd0a1a61ed0cd","807ad13475fc18f56873935ee796e493845d2e4b","331b8e56bd5acc997312913b4960cb8111103d04"
