"REPO_URL","TASK_ID","#HASHES","HASHES","#PROD_FILES","#TEST_FILES","LAST"
"https://github.com/ministryofjustice/Claim-for-Crown-Court-Defence.git","1118","1","[d2d93a2b60ae7bc844e16791dd7afd803b4a9b4c]","104","1","d2d93a2b60ae7bc844e16791dd7afd803b4a9b4c","125dbf5655660dda40e3f3aced3859b08ee98219","b9a44ca798786d938f7eef69056b34fb9b689bd6"
"https://github.com/ministryofjustice/Claim-for-Crown-Court-Defence.git","1119","1","[e218ed5361387aa7756d67ab655c73df8f160bdf]","2","1","e218ed5361387aa7756d67ab655c73df8f160bdf","66e01e28cb23adf25e8084eb8b240484bc9dff76","b9a44ca798786d938f7eef69056b34fb9b689bd6"
"https://github.com/ministryofjustice/Claim-for-Crown-Court-Defence.git","1125","2","[3c86a4fb475ad97cb72eda00d78d4f8ea29a0f2b, bd431306cf6f91755330cc21ef1433bd98c02137]","3","1","3c86a4fb475ad97cb72eda00d78d4f8ea29a0f2b","06602d34ffafd2634bb0dd6c493a890b92852de3","d5d7cc31bf0c274baf68a5081e6eff43c8376ac9"
"https://github.com/ministryofjustice/Claim-for-Crown-Court-Defence.git","1126","2","[f1aba19242cdcb0ba10bb8427381002956330299, cf573368f49e9b31cfa0652d2803fd71398af7ca]","1","1","f1aba19242cdcb0ba10bb8427381002956330299","496fa87b2fe51d4efcf035b0543d75560852fc81","5f368e74b432a3dd20140e381b6711415db4e17f"
"https://github.com/ministryofjustice/Claim-for-Crown-Court-Defence.git","1131","8","[388b1665901f19a6e7f8bdb50f2d84459a0151cf, 5ce5e10c75ad2297a32fcdda580a628ec3aa0bf4, b0f8a59b0e0c4b7f58fac215d552651016f8a8a9, 25c08f2c910d0afdae530add14b26ace1272ac3b, 9af878c706a1c0fce0ccd2cc6f77f8d5e06ee243, ac2e1206808c2558e4336d7dac7191c7d4573f40, c2512fafb09a18b7a81b6e43529e59d7789a4ec8, 9630f2de6a1d704e64149ccbde1daa7b230c0f8a]","3","2","388b1665901f19a6e7f8bdb50f2d84459a0151cf","54ba9d53c167da5d32bc683c3486ab0613e96e51","a9382f1029deedfd3246cf2871d3e8af7a609c07"
"https://github.com/ministryofjustice/Claim-for-Crown-Court-Defence.git","1132","4","[7b3056056360bb9ae71c3e384e4ae3a2b0e2521c, ec0488f3b2777ab79f832ad34b8fc4b438409ffa, 823efab672ff6ced9b73d9a37ba91f5f132fa8c1, a9a14f87262368e044f4e67e0fc1789a50f18b80]","2","1","7b3056056360bb9ae71c3e384e4ae3a2b0e2521c","54ba9d53c167da5d32bc683c3486ab0613e96e51","c090108fef57ac77d628e2a0e39d957ec12b05e5"
"https://github.com/ministryofjustice/Claim-for-Crown-Court-Defence.git","1136","2","[6eeaf66d0c0fccb88c4d04cc22a3edd70655093d, 43eb89b781443f2299a8e91d9766cec76d0c1681]","1","1","6eeaf66d0c0fccb88c4d04cc22a3edd70655093d","1fa0783a42a9a6c914d1c44694fbc52edf00c1c6","78e76bfc92345a9ad68acabab4bb94a5fe904b61"
"https://github.com/ministryofjustice/Claim-for-Crown-Court-Defence.git","1147","6","[ab03d8c1174e69ecfa14e54b7be6317bd6152388, 8d080ec74c850d593a94efc59fbcef6a8cad8798, cbc074b4a70baf210c80d7131a5dfba3292e03d6, f280493c534a19941a793fd580753fac676ae216, e044510be88c4c5c20a4b04563ee6597f70eea6f, 72eda7e793f40c7ab9a56e90c2117611df3bda34]","2","1","ab03d8c1174e69ecfa14e54b7be6317bd6152388","b32c0d3dba12ea1302277ca49a998fee8a5c002e","03805572885365ec9ca4f0dc2fd5c076051ac770"
"https://github.com/ministryofjustice/Claim-for-Crown-Court-Defence.git","1161","2","[a39d3201de11cbb77f886e1cdc23f96078d9e3b4, 17d202e28b4a57ced016fc6e642078351d328d2d]","13","1","a39d3201de11cbb77f886e1cdc23f96078d9e3b4","cb701f42b10eac752b8ec2c24bbe758824631d0f","88f7f4cf8cd1912394efe7cc6387edfbfd16fdbe"
"https://github.com/ministryofjustice/Claim-for-Crown-Court-Defence.git","1163","13","[ff10676b0e1c4d3beef012a16fb4c2bb3c896cb4, 980de9b19a000b471dbd8afa9b18a24152156dae, 2f00ad81c7a1a6c60569c85785639d268f09a939, 33050ff2e02574d693faefa4960100a9c778abaf, f2785e3d9c0f6976e6855e3a08f1e31f2cc44ae6, 02f9e31e78dc2d4cbe511fef090bd4946e95bb25, 70e14f053d350b1e7f6ae91063e064791d98ebd9, dbd2ef4ad68ffb7ca973433905b4ca31264f6235, 311bc16cb1754e097b293d7725f85a076d82c5ca, 02ce0c81febec0460dab25f0a255ecbcec379b99, 04ec8e796f8fccba92dae17f82bbcffc0aa1f48c, aedaa658f1a460d384d3eac0f50432b06c117fe9, 5e92d778cec95463687503d045405e9e78827648]","14","1","ff10676b0e1c4d3beef012a16fb4c2bb3c896cb4","8bc3c8bd740d8d71c84c7d34348f26b993e83ba9","ae62b354c33774406d7cad58f3103aad79add139"
"https://github.com/ministryofjustice/Claim-for-Crown-Court-Defence.git","1164","4","[39c80af85df42c57d36cbfd819e7b4992e6601c0, 6613825005461a399cf1b2121984a1072080f93d, 52f112f79cc4011e27f4c45f7eac7e390e4c4db9, 65f0367783c5974c6193579bea1ac9ea3b9078a5]","2","2","39c80af85df42c57d36cbfd819e7b4992e6601c0","8bc3c8bd740d8d71c84c7d34348f26b993e83ba9","ae62b354c33774406d7cad58f3103aad79add139"
"https://github.com/ministryofjustice/Claim-for-Crown-Court-Defence.git","1166","9","[ec964c2ee47c3923566bae955c8b35a99d017546, 82213df48adedf96aab3157ec336d2b711fd0eb5, 3198fcfc44cecc24c16940bacb7b306d384c0ade, db7a70c0334b7adbd160cddae207c10323efe1e0, e778b6930ec0ea206b192c9408b2ce267f72ce76, b80a534710cf90614f6f4440fc99dae2fdc674ad, add52a97082cd6a19c756a9099c52b590fb1dc8b, a69cb687f86d8522b138610df6df6227aa86fc1f, 484677b1cb0d92e84c2f61023960f100ec845670]","3","1","ec964c2ee47c3923566bae955c8b35a99d017546","ae62b354c33774406d7cad58f3103aad79add139","b46ea3a5806fbbb115d8db0ab0e5e3b96c91ed73"
"https://github.com/ministryofjustice/Claim-for-Crown-Court-Defence.git","1171","1","[da17f96228471137efbe8436224e99de890c85b1]","3","1","da17f96228471137efbe8436224e99de890c85b1","c0005a0c58207d1af5d967b966fd777cc19523b9","769a05efabfb3c4e6a39c42fcc8820f98a74b47e"
"https://github.com/ministryofjustice/Claim-for-Crown-Court-Defence.git","1178","3","[2aff359300044359c28bb054e0e313cadb6b0bf7, 1d06d46263ed82ae8d861527b95f69de0bf9aa5f, ffa3fb18c020c5e4429550e70067c4a7bc9c1adb]","5","2","2aff359300044359c28bb054e0e313cadb6b0bf7","a180d96e52dc5a4da616ffbf1d709dd2806cb77b","046304f95e30c627ebf2c8505ffeda8c05dee19b"
"https://github.com/ministryofjustice/Claim-for-Crown-Court-Defence.git","1180","4","[66fe3b7d29e51e961671473a5fb729b88132b594, 2a8b8bfbaba281bee109491820cd49f986cfa81e, 2820ae7603fe6f485d28707266dc7f138fd1144d, 11a360e140a5aae1fc734a4e01f725ae96f7b42d]","1","1","66fe3b7d29e51e961671473a5fb729b88132b594","769a05efabfb3c4e6a39c42fcc8820f98a74b47e","d876fa3956a265c4ce7120d3057e5891f3ca4902"
"https://github.com/ministryofjustice/Claim-for-Crown-Court-Defence.git","1200","2","[4e5cf1635d78dadb5146420d38c8fbe7d50a7782, 8eafb904a56d3563232424ee15ed9b822306e3b7]","1","1","4e5cf1635d78dadb5146420d38c8fbe7d50a7782","cbb48bc0d4ac6732865a7c522e9cc9fb5867a0d9","6f616ea9def586ff7245a3f6e5955109b97de347"
"https://github.com/ministryofjustice/Claim-for-Crown-Court-Defence.git","1204","6","[b35d5ef937900d22ae5cdf7b5128ebfd61534eb4, 3168a21806846af6f7220c63a5d49b2518e9f427, d408a3d8f8c7942e55206ab1be40059ed24d645d, 49c51659d360b23566355d31e770f4896d3c8a9b, f262eeb13d368f344d5652b5609e4adbeba07e1c, ce09e6b05ded534b3dda2a67352a757fad5ef8cf]","7","2","b35d5ef937900d22ae5cdf7b5128ebfd61534eb4","659a706175920018ce194eebf37809c4db1c0c13","e8a8c0f37ba2194534a13cacec32b62af6136c14"
"https://github.com/ministryofjustice/Claim-for-Crown-Court-Defence.git","1207","4","[d8d6df41f4f4cafa8045346696c0652d721f1744, dd60ec48331c10e14ee143b8e5e8ae8ac84b1849, 8941d06538c92d940c9ffea79b28f7992b2143f2, d33ab8592972b3951828b845cc2f8078769df0ac]","13","1","d8d6df41f4f4cafa8045346696c0652d721f1744","e8a8c0f37ba2194534a13cacec32b62af6136c14","00c4ec2d925f1e4cdf2c9706bd257b1489babf2e"
"https://github.com/ministryofjustice/Claim-for-Crown-Court-Defence.git","1208","6","[6203e530f9419806c332181bc46254d391bc5686, f0686e162b0df099955697f51ecc45c391911dda, 25fed89bf2f76f8d42aa0c0429be540b7c0083d9, c176fe0b9d8f3d30f8e27c204e4dfe37f00e08c2, 836eea83f8290c6cef0d4367d6ab78707efa37ac, 5c61b27efb8a4b66a718d075d3c59e99d39cf595]","2","2","6203e530f9419806c332181bc46254d391bc5686","e8a8c0f37ba2194534a13cacec32b62af6136c14","7ada2d3a23d5495fad75820602d8e36892a018c1"
"https://github.com/ministryofjustice/Claim-for-Crown-Court-Defence.git","1213","1","[2fde481d2c028860c7a16fdd781b40b6259e1995]","1","1","2fde481d2c028860c7a16fdd781b40b6259e1995","0e8b3efd0b503bac5fdeea997b891895396adcad","8d8957be3eb6e5d0012a0368cc2a86198bf95447"
"https://github.com/ministryofjustice/Claim-for-Crown-Court-Defence.git","1217","1","[6e3b6d4a451dac34c09d91563b6c79c3a616d583]","1","1","6e3b6d4a451dac34c09d91563b6c79c3a616d583","475c13836235968c72c194f9bc5687eb119d1c3b","8d8957be3eb6e5d0012a0368cc2a86198bf95447"
"https://github.com/ministryofjustice/Claim-for-Crown-Court-Defence.git","1219","6","[a98963b93da12be70f0c7176f6a36ba60b5020fa, 26c351ef8b86dc0a19be56ec6c2217d0f1f81e58, b26fb621f91bece1631233d2755d2131799ab710, e486faccbfea55acfbeb12719f9913bef8bcb11c, 2f4e08f68eb947217005850cbe9edcda2ccb83b8, 94b717c5e3f0c1f02ecceb48f5afb6999678dfc9]","25","1","a98963b93da12be70f0c7176f6a36ba60b5020fa","38e276c38856a25481551ba6f31eb29630ed7039","db5f84ff2104d2f938ade98358504892d124e712"
"https://github.com/ministryofjustice/Claim-for-Crown-Court-Defence.git","1221","1","[4292dadc9edd1c441b7d334f8067f933b3bf4cd4]","3","1","4292dadc9edd1c441b7d334f8067f933b3bf4cd4","a3c07f45dc7870d2a8c8c3a4acab6e6078dfe26e","2f65849e9bb8f1a99b5db6836b0c3c6c15428779"
"https://github.com/ministryofjustice/Claim-for-Crown-Court-Defence.git","1235","3","[19b83409f391273651059a3bcff3090335f33e80, 0ec665804fdb7d94a0ea0ec2d5a1af8f14eaaf61, e9a2acfeeff7e87dddf756b38056ca28061c5f38]","4","1","19b83409f391273651059a3bcff3090335f33e80","bf5f37046e6ae10fabd18e426d7c068fedddc3ae","276e0af6d9dd9f6c6c3e58275eb73f2bd373d521"
"https://github.com/ministryofjustice/Claim-for-Crown-Court-Defence.git","1237","2","[8a065ecc1610ce717242b6c22f71e775e5d313a1, bd927e3fe4b0ae7d58590f68a3dd613b0b8ad6e3]","5","1","8a065ecc1610ce717242b6c22f71e775e5d313a1","7110e5d13438b25430713a8e3288474d3dade562","dca0a844a36453b05295845bba5b08c6076aae29"
"https://github.com/ministryofjustice/Claim-for-Crown-Court-Defence.git","1247","6","[f4d47a87e7f73e457f7618d116bf92f13b660b14, 928772a26eb9193438b88bc16c0ad6e95354e4b4, 165a6988ae498bc9df815f5f1f6e4d906b68a0fb, 7330221dd6eac9737301d0925179e9f51795fc0b, 73dc69744be610f6ab3627e8ec989bc8cb5a25ba, 5a48732dcf618c440382a027d463f7cbac0e47e6]","1","1","f4d47a87e7f73e457f7618d116bf92f13b660b14","dca0a844a36453b05295845bba5b08c6076aae29","1e99929323e7e099154a17cf632dd26027652607"
"https://github.com/ministryofjustice/Claim-for-Crown-Court-Defence.git","1249","2","[6856bd5100323f3524bb7523c2cf891f4866d729, 457eac74f9548eae6484c277e683f5cfb9616b73]","10","1","6856bd5100323f3524bb7523c2cf891f4866d729","1e99929323e7e099154a17cf632dd26027652607","e71f1127059034820512b0dd16e8cd60831461b3"
"https://github.com/ministryofjustice/Claim-for-Crown-Court-Defence.git","1251","2","[68d6b409888460cda3137952a819aef0584f5e20, 70a3490fc53a89e145fe18ccbf30264888c537e5]","8","1","68d6b409888460cda3137952a819aef0584f5e20","663efc2058c25f461636de0de02400da828e1179","8cc105c35711d8babd15e6c10c2293330689638d"
"https://github.com/ministryofjustice/Claim-for-Crown-Court-Defence.git","1252","1","[fb0aa5a78ce0a68cd37f507f7ecdded5f53907de]","5","1","fb0aa5a78ce0a68cd37f507f7ecdded5f53907de","0653a5289aea6e3b3d681212b14ceda794293ff6","f1d2099896d2a5c485c16846d2a029e6307fee06"
"https://github.com/ministryofjustice/Claim-for-Crown-Court-Defence.git","1255","6","[321ffbdae8854abef910394652704d299522980e, d0b09a049455f8b7da91ce65317353d201ccb7cb, fa4b4c1029edbf418de05c7d9f533ed0b93a2475, a179c59135a14616c4004724e7e3b3348644f9c3, 01b878f85f5d7a8ebea0ae761d64bae8d713da58, 83146e68fe22901873c8ac07b0896b0d7c5c0a23]","19","1","321ffbdae8854abef910394652704d299522980e","8cc105c35711d8babd15e6c10c2293330689638d","2c1184bd619ab8636f8205a1dc40cbff5470331c"
