"REPO_URL","TASK_ID","#HASHES","HASHES","#PROD_FILES","#TEST_FILES","LAST"
"https://github.com/opf/openproject-ce.git","9166","3","[057f2bd4cc68e7db2e2f3fabeb06b3225c8f0901, d17143ecf015b74b8a97d8a291a999954823e2e0, ed974e3d3c8ad5769427dc126308e879ad9835f7]","1","3","057f2bd4cc68e7db2e2f3fabeb06b3225c8f0901","f3d8b4acbef3783ff69198226bbfde7a537561e8","6ce7c06258871d8b21c242344a6b3f8a046c8632"
"https://github.com/opf/openproject-ce.git","9191","5","[398bea3856910f3f54aa53a1c628566fb0a650c0, 0494cd1f0a67f0ee79e674fe674ce490a73cb965, 831602465fcf67cca1c2dff3241aa4eedfa946ab, 844e72d5a53341013c921899bf96250016ad9ad2, 43a1a5b5de60c3485d42701425e6083ec85b15b7]","6","1","398bea3856910f3f54aa53a1c628566fb0a650c0","38505bf9111b9d34548f65b6d7bcf098a286245d","f6224b271262f574f6f8af87e5cb461065313326"
"https://github.com/opf/openproject-ce.git","9209","5","[dd3042e9fc559865170068be0378bd9fe8ad33e3, 89ae2fd1ca311916f7e69cae946681c0d9064c60, 8290253caf0a60094e52cee3a69f3b8caa6a85ad, 6d0e73e893272907d562e34075366d5f2e1ad6f3, a985fea54340bf7779943fe3015f6139f0917f51]","1","1","dd3042e9fc559865170068be0378bd9fe8ad33e3","9cdbfb36621dfffbd455dc82339ff5e97557afd0","a6ef4ff09f1b1137f996723db2f305958275b318"
"https://github.com/opf/openproject-ce.git","9216","12","[eb61c16d28d3bd93b76f1ad1bf7925a587c2bd23, 478568c0ff09a187eb7338559e6a4f423ab26d80, 82ac5e75a95cb39cf276af4e701e98b5ed32aa92, aab31e57a95eed4fd8bc2a3b0f8c76f4a71ae2dd, 14e335f06009cc1b31ccafa0155dee5b5ab3535e, 167bc35d362f407e87c209b7c256b68b5482dea2, 72f4718a208742507b7c1f9195ccf0d8a049135c, bbc3b35877f5c67eae74e703105adb334ad89d9a, b0246c55195c426f6a86bade399ede936bd84b65, 881cb1fd7262c8d9c3d980ddb81b0a9b2edf1fad, 9d51e51c4a6e381d6a76bbe4be0f71a8eb60cf14, ff79891ce5108ff2cbbef33e706c7baef814884c]","7","3","eb61c16d28d3bd93b76f1ad1bf7925a587c2bd23","01106e5360e539b05e8acf7b31fb943746b42cf5","2a0d491615d4431fd3b0f24477f0082060d86991"
"https://github.com/opf/openproject-ce.git","9262","3","[ee82980ba2b2b2d1db332fca9f91caa75036675e, 943c1efdda474c1a33ee5c5d8b5565238c58e1c8, 75471bd88130c5b1dd463141b111fe84bc16af6a]","45","2","ee82980ba2b2b2d1db332fca9f91caa75036675e","11a63dad0a81c06a6469fb708724d4a55abb8dad","58d7d89da5553affd86bbd3af4af2e9634b8f197"
"https://github.com/opf/openproject-ce.git","9265","1","[53ed99df285b21532bcf2acf1187a198a0fadc3b]","45","2","53ed99df285b21532bcf2acf1187a198a0fadc3b","c4b0df3143c6955dc834b96a7877be1069668676","877d3a17e970241c799bee6cb6749aa40c3ceeee"
"https://github.com/opf/openproject-ce.git","9269","2","[877d3a17e970241c799bee6cb6749aa40c3ceeee, 85238b569160ebc54b9709f4060141cbc83ba09a]","45","2","877d3a17e970241c799bee6cb6749aa40c3ceeee","58d7d89da5553affd86bbd3af4af2e9634b8f197","886418492fbda50d5378f7f058556aa6ecebc3f1"
"https://github.com/opf/openproject-ce.git","9272","2","[2a11815ffccdb20ff40b6a0646090cc009ca00d1, 5300bcdc48d3753cbf0ef18c7a855d324841f81b]","73","6","2a11815ffccdb20ff40b6a0646090cc009ca00d1","2bf87b32bfd49e776ad3074d31fdd19398ac0a9e","882179c8b318a0d5a6650f631c135861d3748080"
"https://github.com/opf/openproject-ce.git","9282","10","[1875fd1435bdaa3c6ba061c94f48824467103a7e, 928d97baefac682db1ff01855ee519656d40a493, 4781b120346a1dfefbe10ed09f67b451385b0249, f187de9470853ca36eead2712263d0a87138e472, 9a7aae9834a5c5a491a5f209e1524ffd9f0c85ee, 107abe61b8b1980ac7315df6365f75c1d22a8283, 067d0c824958430ecc3288c1cac8ad5541448da5, 487a18587472fd4e430cbea1233a82d5130376ec, cfde6e27647980db3babd1eb49484e4ebd2a8908, 882179c8b318a0d5a6650f631c135861d3748080]","73","6","1875fd1435bdaa3c6ba061c94f48824467103a7e","356382517e6cc00a22992fd2770d42d59bac5f7d","5a49adc08c9d2235107649ba5541f04001608d16"
"https://github.com/opf/openproject-ce.git","9289","155","[9fc095317c3c3f8c7bcb2cc25a107eace92362c1, 006c9a8626952478d567564b279048c78053696b, 319312ba4232c4e4c3ef961094b1eb5b3af9ab4a, 11a7a61a56535b94eb11078a7de8899657675315, 79e2d81333fb4eea7134ade4dfc9670ef3848cd6, 47299d3c2e8f70af7326d8a0272880e3e4891fcf, a2a8c9e2371572985227e09c5ada33398766c2e4, 92c7b97cca0d1c60f28178ba28582fec9bd29139, bcd5a5c38e26ff6bcad8d32b676ca657b020d4bb, 2144293491999fdf77cab4b7e988bfac9e0f0dde, 951c1a353694a451e1c27d2cad4a956dc476929a, 8784636088ded645a3e8581ac26191f1cd1083d4, 3ece3d051e5a8f89959efd1434050f833d39b632, dceea5ad668dc5b9177a5af79ea8627ed28ca59a, b0147cf7c9403f8ab080b4cd5719efd6ad7d16a6, 1ff5285405874a6d7e5cb96d3057aa4034a0b38e, 48a17ed676336b8eb21fe4340283970115f37030, 1c506a2c6dc6faaf2decb3e66b1c07a48cad58de, 324bf26ff03987218ca3799ce5b0f959547bdbb4, 8f9e8e5550b67abbf0465312ce2d7d19550a6b22, 38ecb1ab6b78c47964ce26b304b6f1ac2d2049d9, bfccefa238fb9b0f5b3a06ea13365de0a529a739, 6d03b2b99dfab47c124102f4e597bf0e76d773d3, eaf8aaace7daf39ca5c4b7b09607198bf2324e26, 88f95f7ff00b358ba227c8a93031f5887831d973, c8f28e2f4475fa90c2dfd2dd6045dce6667679d3, af26a053b3e6ba0362b40499ac3687cbf207943d, 0a2ca6f87d4c8ffe62947346af91afd8c266281b, 1664dc9c4c3b7d1808e9176fe477203c8db1128b, 8961df0d16c40113d02b8caddb03005643587234, ef52304e64d1389e2b706202eddbbdcc289cafcc, da5ac76dd0b42872d409061184f8b84db7209853, 46d7faaf3b49a5b381ea9a45795a774392ced4ca, 965acf07efd50432b0543ba8ca05c48c89a18300, b89124500a27ab06979357e83125c5c12b6d825a, f830abe2d227dc273900a6ec7ab1a30540d1e8c7, b3c866ed83615d24601c0e0eaf85faf3f79989b2, 6a39f9ae69d10237a3f522cdec7bb0db1aab3e85, 01b2cdbc2717af16c536dfdb6d8fc06e75706967, bf59880cbf5730f1c9e5999b99f31e7056b48a16, 69fbb6856a2c3a7f8bcf4f82bc10f489e90aca48, 42e7d5b36a1b200db04e336f995648df854ed2a4, 8186cd12178fec1cb071096a4c652f6917001be8, bcc97e1bf35ba8143f70eb2e2d9bf329981d6e7a, b53bb659016c0b9ad21efbdba2ba23331c83d7e6, 750204e7085086cfd6ca22182ea6af24aa4c826d, e14238d95807f6dd42e1fb07e81804a3b389cbd9, 3838f6ad7f8316271b1dfbebf65176a6ab25ef61, d08626d3e2c1107d1c64122160562986c0be07be, a388c7626bd96bc61086d84bf2bbcc69cdd1c199, fffcf3acec8f266183e0b0382df32619bc1afae3, c505337fc59c72d68f7e7ccff22e01ee9ddb22af, 86815cc1b64df0db7067e097be2836482fcadb8a, 8e9e56293e65cb7ee4d4590b455d0ade10d1c44c, 06c448e68a73fcccdacf28f97b86910070520750, b0de28af57831d37925164b0f4fc8939c0c22b6a, 1b8f21b8304a46fd8927e263d494dd40e4c87a07, b1d158b6c5fd41f71e26ed97f1e64f920bdf20f1, bcb9456ed7764e8c2cd1ac27294337efb0ae250a, 7c8b01a5b966a408ddac41064dc2dc229df03682, 3ea89e989362b234e9bc0b8f44c51b71199c6a9d, d0a1bef05ba4b68acdb7e3b621979324c6c9fdb7, 4b7fc90d6265074a4d8e950a77f3874da9ad5bed, fe16ecd650c0f0ab789ae71128405bd5ef82bb8a, 3e3ad2b3b1f5c8f4aef3bd3c324a7a3aca5f3c50, ad4873c4e36a16b4995f682edb2a434f72e87634, 08783c981017cc88df87b3f83689f1f6fd715683, 50255d2674168d23940c266b1ca776c638481576, 2e619b40a3a59487e12b2b5e1270a867a41f528d, 77f5cded1074d706dbd4da63522c61945ad71daf, 4da5335c5b08b82462a565768753aa651a8ce72c, a2c93a41b73ae78353a31a88e6228ae96743e903, cf85e342150ec9ad4d805f1f74ee491aeff72670, 36c6484049f7b49159e700aed90d2206d6c358e8, 86767201a32ac4a1e2dda4b1c2905c1ee84b4e21, 22a3ea07d94ddb6073a328186a642d126642f809, 2d9c0ca253f7f36c73a6912af9c1c6968b5f8150, bc031d975f2f856ff5c817eed24a909bacb0ddce, c711560afafe5d8ee87f2485654e5f24a019f2f7, c529d3df76937b1a11b4c730b80d0664c8879844, 19af21496e834cccac5db5a86657555afd2f973e, 7c27ba1479bab77be8a8652f6b3a764dadf968ce, 97e8615bd0aa0608155cc7094d4c52e3070d996b, ffa4bb08b8e8511ac549a56cf6b6109232dd788a, 2eb851653e3505fe6af5332d4e717aaadd811a32, 23d0ace69180e8be6756419e24e8e9fd4d32ab84, d501d57320ec1869269a249674d93fee4b5e9d6c, 6a3011e0f86c29b6fb1123258095cecb0ef65b62, b624844262d62552e3d4ab69c9dc6d7b0fd1d384, 7e3fe1ca3921c8d58bc00ae2c97cb46dd55d07c4, 9fbee794f064e856884fbd6f7b1f911dff0943b3, 915289d6bbcca6b90453912fd31fcce1db8bd45e, bc73b94a077c8ece2da310132711b0d1e4f134e8, cc9f7febd79796b95c727ec05c91eefbc112cfec, 71ad2153ebba8e64a96b57a9db15fc9519f516d6, 26617f4a8cee9e3917a2da3d1c1bfc6490ceca5e, a068896dc80da52774b3f5b04400e16bcaf101e9, 6707dbb564315082c1ee92761821ac6500721b6f, 4c61d80946dc6d1a89340fb0a2292065bf8434e0, 17360e5ad0b58a80014a541edacb27c4d215f8b3, 94db80a1c579238e9edc885454f117122d5b5286, 9e5e426d9f87328ba9de98f9d46d0d920fe00a5e, a4c2057f20b4c251b7dab1cbba8c55eae5e10d36, a0b17f60e5471aca379f9d6d8f677428f3128849, cb6ee1a78cdc6115279b70ed1bf79ddb0fe149d1, 52d4586fda0988221f8e4abd06651aa68b223716, 8c26ebf2c20b35e71002e03729c33ba99287bdbc, b636f225fecef1ab97358dbc4c8735b7f2c1d181, abcc5f12a8d7bac89d328f9d87be6eab444796c2, 55b5cb0c1f460ff499a0c936dc29a8f8474cc657, 5a0684c4a3ffac494b919a936e13372325e72837, a96bf0cd1594fbca9dfcb5f0108cd2385679018c, 4c00f8bb2954790752fa51f0224e2b41f18eb16f, 8a8ba66093b7f3bbc7c0c81ae1c16b4de38141ad, 2efe9f791257b96abfc9f389e20af9af0c7bae50, 768503659de383e7c7c862ddffb40280d9224c51, e4add6b31a59aef1a29b484f62e2408f95283bb2, 1918822b9b1b8e89ac43cc278f9be655031c369d, 4efbd86b88c84b6a007f07fa1871dc1dd6277dcb, e98365ee0e48aec598f99de0247cfb25d6430c42, 9645da6f9af5164085027c1abf41d6bbeb1bdb08, b74f296cc2b2cd697bf2865bf59617bd0d75d227, 9cb9d1f3082a7937bb3854cd600a87896fcfd731, a21e1fce9f0872a6ea8bd37d7ef031f4a6c2ba6c, 6b142e07b2094b5a3e7225d3ea99c63807bee048, 0f6017f4c48384f0ea9370ecbfc2776a07d58d26, 0dfa835a237cabeaa45e0bd76fc1816083e31bc9, d81b85d333290b20456026c696e1445232ffd77f, 6adba68fbad9e947865bed749446aa71efa48227, 96b6f20c13c0f4e534e8eb41a1516cdb6225f110, fafff979048aa5ae9f93422d607122a4a61c220a, f3aa22ad922673683e17b16a6c6f98a10ca94ede, c093ef1dce143cd55db54be490e9fc2bd5b5660e, 69b78b10b7b5c4ba4c03581914b2c153343c6179, 52dd43976cfb28b19ecc2dd9e4ee4b293a06504b, 62668dd61f02e5348e6403dd604bf44e988d2673, 761ab7288e7313ee5e91f884a54fd666f637b531, 226438cf2619437269368db342ef5d9b89b73ea7, b2e571738cc92e4cd757ced2a833fa779d548427, 74863dd77e56d267ff0307fb740466c56b46433b, 06148613ab4c53e4adec5a00166a414c9f5dfd42, a6077667fdd951a66eb2243633de2a78811ae0e5, 7fa0344db9e390e54824e2dc106d5e324a88b1db, 72178ab8dfe9214facac64821598c742bed82f69, 64cb3b78ba30d58eb606145d287b532d944a8c9f, db578862f1fdb5e793ee2b61131084d474b99fa8, b84161a1d3b57b011b0cfab25ed932739d971ee6, c645bf5857578c7cea30a757ee4ddae4589985e0, 8fc484e0899749026557b8a01561fad7df277ae8, 093fcd453697aa9005d4e902be4d614e91afb52b, aa04de272584607dc0cfe4b90739fb391a6b83fe, d294d7585ccfc36629f6fd2d5ac826e64a091148, ec01c026bd5546bec4c2349875d602ca11b02d99, 34718736f96d441f8d15811083e0a5cd533be77f, 4e91bdc74d0a9438aea766879251a6f921294c11]","43","5","9fc095317c3c3f8c7bcb2cc25a107eace92362c1","5a49adc08c9d2235107649ba5541f04001608d16","516bab21ca3b9d0ead52bd73518fe617a75a762e"
"https://github.com/opf/openproject-ce.git","9300","26","[2cd0c45705e1d6ca6742b0d01cf6d4cd64d2085e, bb76b0cce931147610b95a070cee7139152c2fc0, 5dbf2b31d88994a8012b3f65121702388cae3770, 6664ebecc166063d8084068af345e2d8ecb49a38, 98a4f2f9472c43b292edeb9dde2d5c891ddf4487, 3a105ac4044e3c5110f08e1e017bff0fa80b8392, 85c3e764b659cab35ac3e42bb1e3bbe212d83bab, 127632bc2d28d0dfc1437d83955ea30e59198dba, 4c0a63b51cc792dd890d4df91f5d7acbbb204f28, 9e413edb871c4d448965d9cad879a25914593035, 4c98a26a44879e08fb069da1adfa3fd421929830, 7741ce5449b707eea703cd624c5da0461d7eec50, 8f2c46f17e6c08612596b258f34714fa5141733f, 0bd6a616c6a50e09fdbae8043baf7743eb1c2c8b, b54b6906d3da6501b96503ce27fde7f23ac9f03c, 7cc930466c6d9130bb6dd69489f3b2fd8d947383, cd3b09508d6ece590d89c32fb3d0ab93ff030950, 8ed060d85775515b25a3f21d7acb75378958e40f, 33c0c13abc3ddd185feec954bddcea24a49ed60c, d5fcde297c0012112344e00514ea10c8a59f2b4f, b47dde7fb1aa729cfa89736c2433026e27e1266e, 16675993a93a2c558c769bab01b687f2cedd78fb, 1e090b15892419830a38cdba70caccc60787b204, 76d2b35dd4a0285a951dece7eb94e98541b33f62, efe8ad2fa10eab8d02a8765000f3c361f247426c, 1c5dd1b8b9c2726cc2b5e4661ffd697619474c3e]","10","2","2cd0c45705e1d6ca6742b0d01cf6d4cd64d2085e","853e95cc37b0ed15e508b8cb47ed8bee79f45bf9","60b559e0cdac3e84602d41d4de69888d2f9ee5f0"
"https://github.com/opf/openproject-ce.git","9301","32","[7ba581735c38fb65e58eb6995cccfb9ba7eeeeab, bda71df2eaee3acf9bf7233e20d8ba7d949f9215, a5f55ec84dccc0d0f59dbea59e265f8fd3f7fbb0, 680dad4ba9515300476a22362dc99e3eb10a745e, 5276e544c9b27fdf00629e2ba9fc72bba195ac76, f8e38c0cfd18d14c4d2f864de55ce4b0515326c3, b00fcd204be7079f88c2aee349137d57b49d9023, 65d6ed12fa57d3816c47bb97183572474d055f2f, 60f5e4038b48585590b510f65703d3f4d0b9e293, b3f4eb231bad47878f488c3f4c13177b144bc804, c9ecb45b4fc009d4207b3874be06673433fddec8, 37f8d55f74555ac83e67a2e49b01fe5348c79868, c02e74e81af64b1078c3a6160e917b156fc56a89, 5d87fc86c40058e438fee88d2dbb0838136ed806, 3192841485322528acfeb1885d1b3e5a46ed97e0, 21d0db3e4f89065598287098dddf9ae4966877db, 6d7aa9015bc5dc783fa594e74e7ee2d39e5f9c76, 0113d6e3db618b18d628d7e7933a4eae6026bfaa, 9d2f821de454f69c45141e91c6d861de1e6ece74, 38a2fbe4c9626d67b1310cf9e71c2f2a4b410fe7, 1a1fea910bc75f4f745a336f0761a2c027cf5fa1, 5aa1865a30cc41445a1bc6d9c88ea395d76f7a55, b395d040ea56c6877ca485b41cc76b758997bb6a, 0ad646c1be45a7db8a8f827d27567de409b1caa2, f5e81e2c07caf54a30cff32d9656a60c6e147d34, 2d933cbb6118eebb5eafee531f34e865a557ab5e, f9eb383d3b004f5751c2beb3ee83d1ae010bfec1, a20039b5dee24ff928d8690fbab6ee49d8de019e, d423d51c613431b166b048701547873f6cc3df20, 02f3c50a538379ea31c847d9db83018ec4afa79d, 2bf8de9052c065e72964650aba03431c961d0f00, 5fe8faae2f0df9528aeb385ec92bdd9d74cdeecd]","46","2","7ba581735c38fb65e58eb6995cccfb9ba7eeeeab","853e95cc37b0ed15e508b8cb47ed8bee79f45bf9","60b559e0cdac3e84602d41d4de69888d2f9ee5f0"
"https://github.com/opf/openproject-ce.git","9303","33","[58884c4a8beda1bf98322e0225e41dc10e27d87d, 66e6cf0a3c3c6f2d789f6f4151e5451a3ae9e010, f247686e358592755cceb3d9d19e346d1556a556, 9ec1af22438de590d8bacd6fd304b711c47ba2b6, 60179191358353bbf6af2b49a883e7ce6a146dd1, 241655f5ff356c22be34e3ad62d7b23314f0afcb, f8e38c0cfd18d14c4d2f864de55ce4b0515326c3, b00fcd204be7079f88c2aee349137d57b49d9023, 65d6ed12fa57d3816c47bb97183572474d055f2f, 60f5e4038b48585590b510f65703d3f4d0b9e293, b3f4eb231bad47878f488c3f4c13177b144bc804, c9ecb45b4fc009d4207b3874be06673433fddec8, 37f8d55f74555ac83e67a2e49b01fe5348c79868, c02e74e81af64b1078c3a6160e917b156fc56a89, 5d87fc86c40058e438fee88d2dbb0838136ed806, 3192841485322528acfeb1885d1b3e5a46ed97e0, 21d0db3e4f89065598287098dddf9ae4966877db, 6d7aa9015bc5dc783fa594e74e7ee2d39e5f9c76, 0113d6e3db618b18d628d7e7933a4eae6026bfaa, 9d2f821de454f69c45141e91c6d861de1e6ece74, 38a2fbe4c9626d67b1310cf9e71c2f2a4b410fe7, 1a1fea910bc75f4f745a336f0761a2c027cf5fa1, 5aa1865a30cc41445a1bc6d9c88ea395d76f7a55, b395d040ea56c6877ca485b41cc76b758997bb6a, 0ad646c1be45a7db8a8f827d27567de409b1caa2, f5e81e2c07caf54a30cff32d9656a60c6e147d34, 2d933cbb6118eebb5eafee531f34e865a557ab5e, f9eb383d3b004f5751c2beb3ee83d1ae010bfec1, a20039b5dee24ff928d8690fbab6ee49d8de019e, d423d51c613431b166b048701547873f6cc3df20, 02f3c50a538379ea31c847d9db83018ec4afa79d, 2bf8de9052c065e72964650aba03431c961d0f00, 5fe8faae2f0df9528aeb385ec92bdd9d74cdeecd]","46","2","58884c4a8beda1bf98322e0225e41dc10e27d87d","0154e31ac39bb8eb5b152422c63c5ac50a21d2c9","60b559e0cdac3e84602d41d4de69888d2f9ee5f0"
"https://github.com/opf/openproject-ce.git","9311","12","[2a51c840982b4fa8a1d704b06c830532907f8fd4, 2382f3d0fc044fc20a66cd0af29470f28932b8e6, b7ecbde15575ce44d74b2a783ec8de06b106aa2a, adb37cb2f80c58c7c5cb915e8284b0d9da52de4b, 521b4cf5fef71194c3f7212be6de5f9f0b22e891, 9289c5f80340c52ebcee298994c408fdc2f0213b, 7a3515524e311a8d909de769eefb29d0b0da880f, b5cfc0ca991473d8faecfe4054c36141faf22ca2, 95bb4fb809ad42a86bf2385d96740d85fe6e894c, c7c74f61f4301f044ffe95e3c20303e71c4ac116, 6a55a4d639ec4b4798e2faf20e9490e60efaf548, 2fb46e7ee2c8c050e8dfd6832423a68489401d73]","15","1","2a51c840982b4fa8a1d704b06c830532907f8fd4","3fbbe838e7809b8c352efa234c738e3f275b8868","00e3adb0b41c1b554d3fe2c1d2df075d3911ea7b"
"https://github.com/opf/openproject-ce.git","9322","2","[95346025bd540bf34db6fa485ae8c12a76755407, 53402c57dfb0a6e2f919ae83b0537abe18af08eb]","1","1","95346025bd540bf34db6fa485ae8c12a76755407","e3779d489cd3e3d9e3c0d5cb413d973098c80df9","88bf9e3856c7490850660031df70f8c5ca660ad9"
"https://github.com/opf/openproject-ce.git","9326","3","[5e7c0ab32a245775c7ef1ed90cced018a535a885, 39f62ecb716edf525023eaabb354a9194bed3c7a, a5c69e8fb530fe459cd9822132dda3b39099a021]","12","2","5e7c0ab32a245775c7ef1ed90cced018a535a885","015016a32cd79eac59d968e241d2e03c6a3cd2aa","e02b96ffec74a7613ac32af144ce037d9ab51f76"
"https://github.com/opf/openproject-ce.git","9331","8","[5ce59bb2deff2a56ee479982bd8e9c0a3382d52b, 0e33abe1279147ba98104f068c9b644d9e99eaa3, 2c1032eda72d4e79d2287fed1c4a8446501f2360, 64ecf75a2e380996963eb9c78d5a5fd3991f718f, 51e1363f729d6ad336064f24dd9e8650fcee3e78, 5194bdb7c76c05fb341447489b26a2c250b24745, 7ae51b44af569906d24d7daab1d1e3fef2374bf9, 8de09e1091bbd5a6be873aa3779e96f6a08a3869]","1","3","5ce59bb2deff2a56ee479982bd8e9c0a3382d52b","ce3756078fc3e929515abb6c28389bbe948884a8","e1576c5a0ea6117038fc12e4d7e6aa4b125e7007"
"https://github.com/opf/openproject-ce.git","9333","5","[056007c0de7ab8901ccbbcd092d0ded5ce91aadd, eaa9cfbd09e75605c3a62684a7c68d9369de1565, b9a6b7ab1efa5000e39137300270730e8abf0c98, 182fe92b5379798074887161b695f63ac8469af8, 1f4c69dcf0c23322def7cb6b2963bdd80f1ecc9f]","2","2","056007c0de7ab8901ccbbcd092d0ded5ce91aadd","f30ad54b950f1ec934a172701f87c369efba46de","3e799345d39291ce6ffd7296b75e9ecaabe18b18"
"https://github.com/opf/openproject-ce.git","9335","5","[cf3e2cd4eec2a63707faea0b35eeff1d0cf54bca, 21141b499c354b67fc7dd5e16e808357ce150062, 57bb8db115cc4a4a1fea9a7042f1e8407b05e95f, 1fe65be9271004d3b746c3a78283f599834bf750, dc43159680e457ce12427c76a1e5f6dd5e3c8fe3]","2","1","cf3e2cd4eec2a63707faea0b35eeff1d0cf54bca","3e799345d39291ce6ffd7296b75e9ecaabe18b18","f9aade7fc5abe8c5b6cf8ca65705270c7648dac0"
