"REPO_URL","TASK_ID","#HASHES","HASHES","#PROD_FILES","#TEST_FILES","LAST"
"https://github.com/opf/openproject-ce.git","6421","7","[3a7fff67201953d0bea6e87db627fea914a56d0b, 635f538a816156c03bcd99faaaf42e53ffb7d6a8, 15fcabe541e759827496fa8630306279763bd8dc, 6fae20c770717d20cbb726b23c541fe0cd4622ac, 4c2cab44bc0dfe22d80bbbba3a83991f206476b6, 989b64492d71e4cb16e5f7e993c5738c1b97527d, 0b3bc7604ac0b814b0da9fe32eb076ecb5539530]","2","1","3a7fff67201953d0bea6e87db627fea914a56d0b","835ee6696735be7681759cefb6eb9ea0849d88dc","4c00f427005ae894d496f3e4c5775ea50d2098a6"
"https://github.com/opf/openproject-ce.git","6432","3","[6716099fee6c6821fee993241f632914d9ad4cae, 8065b35fe661b73a65591699102f6b3080eb4a6e, 05d541c7f4ab7333cb3fcb5cf68460c24573d2fd]","1","1","6716099fee6c6821fee993241f632914d9ad4cae","3c8e70599a6a06dc61074559942cf6a65d23140e","bd83a73dad5e0d86453eceb624dab4b676f04d1c"
"https://github.com/opf/openproject-ce.git","6454","6","[c3bd3245e9fda8dfbe21cf61315aec24303673b1, 0069b40d218f73afb2f64e453de198da8fbf5823, 282c58aa71f95e00439a44ab92bcfae6cb63bcd6, 0335e0b096c4486d42b6e3c8a5caa71996f237a7, 7fd5df54d28d4966978007bfb266320abe2ac2a7, 7fe447dd2b972048ce471ecea2611f1377ed55a4]","1","1","c3bd3245e9fda8dfbe21cf61315aec24303673b1","debb5cdb333cfc18315fe4631ff28154fbdb351e","16a81a527bd3e7f04435477760854ed692e68238"
"https://github.com/opf/openproject-ce.git","6485","3","[ff046c826de9b8e26af44d1624089694c4f9a5b8, 98c3e37d19b798f6090aa3973db19765704390f9, 8c8d9b7e57ba262f4f54e8670aa6e7977e71134f]","2","1","ff046c826de9b8e26af44d1624089694c4f9a5b8","d19ff14db4ea5d5844d0036bb501c8c3f3316c59","797cbeeeaa952fc5a4f0d85924ea330a1be0134f"
"https://github.com/opf/openproject-ce.git","6490","7","[3355307108ca09d8153fe42cb6f350207458a5e4, 88eb99622b8eb690046d18e442a8860dccd60016, 260ee3a8e13171deac8219068d7089451e26d229, 547897b52cfc6f9af7de19c0f00a44e62684cbb5, e69bc0c3898544116b14a399d1acf7c9ade4ebb4, 59bdfd9b4e88f8eb0b7b063d01bd7438350e3625, 0ad3e6075ca896a07b462c1900a7c06a3821f318]","3","2","3355307108ca09d8153fe42cb6f350207458a5e4","f4aa3567e31e2647a59bc271cb4137d3f7356c1a","f41a338193d54bb33510b2b8245da39cdb2a3d99"
"https://github.com/opf/openproject-ce.git","6491","8","[6aff59b73d049b40a831ebdd3720c90d4f46248b, 898dc807e0851485c228746077574f9493eb4596, ba89511d301a3c1aab2f0bd9336c6f4ff296193b, cbb792e339a9ac99cc3ba09dedc0e60180b90534, 1a72d736e58b30b9291fbf7feeec5e0436f21784, 1db973e19dfd8f90595ff05c6ea9e3412731051a, 303abe9c4bb48d2913856fe0e74cbc9b5082d86b, 043e189c069b779bbee6d33cecf60de7b8344250]","4","1","6aff59b73d049b40a831ebdd3720c90d4f46248b","f4aa3567e31e2647a59bc271cb4137d3f7356c1a","30c2cc833aef37ee0836c51c4b7681aef7e91ca6"
"https://github.com/opf/openproject-ce.git","6496","10","[149f034e679ffcdaa6af3e2552d402d8d7d1051f, 31ae079c69550c528f0322aef2b2a40246f5d6fc, 601dbf61534d0108854a92a3789b1c6631536516, 387cf6da421a1b71a6068ff9407fdeedfadb6d7c, 73f2efc8955f72a9e579ff42f354dbae64783b3f, 411be2b153803936d5bd06bf974b49621c3563f1, dd30f8d7e06917df6c12dc18086d47465ece3bdf, 042fdcf86150dac2c807f9c74a8640ce42753036, 9d76f788f42968afa9c499585e33f7f3afd5bc78, b320d5d5a8bb05f37f63c14abf66801c76e32eda]","72","16","149f034e679ffcdaa6af3e2552d402d8d7d1051f","7e8bf5b9b198d8f5886202c0f1ec3fffbf7aeef9","382783114b12ee86e0657ffa36481ebd124b4c55"
"https://github.com/opf/openproject-ce.git","6501","18","[16eb14514ba496f72dd74b1c2ef12dddb70fa24b, a8c8c184242d2f07ae3465603750c50f4bd8b4c4, cbb288dba4084e69bcf8d36434be904be0629740, d6ad71d0db97988d7527744dbe8aad61c89522aa, e73a68280f9860d92b9e59a0cb6d53df90e82a4a, b9123622d4a10231f7f7a37765ebfe6534114c96, e2f90345556d6097ec34d690768523eb6aee6536, 8c144050e406b726ceec23bc7eed973737a0846c, e43aeb4e7e67927c837a624ed1e74931a61e6ed4, 37b531f76301b3dd97cf06fb815e48eafc22cae2, 8681d466bbf4737f15ac39e069edbd56b996b3e7, ed294f5b971d277b395f50b20bb10350e6ab0170, 336000992a48e3f62ec733d1cfcfa98902b95513, b82d13f4d44142b520f919922a76a4e6f00dfa97, e646747a28e4acd34000c4d2fe4a662be410e2c0, cc36ac012e94a8157813fdc895e535bdbee2615d, 272b9c9bc155e73eb8f042bb22b56034a3cbb96b, 223494f746e1191a96190429314b008907bc62d2]","6","1","16eb14514ba496f72dd74b1c2ef12dddb70fa24b","c28202e1fbf97f1507086176e481c88d84b564fd","002c22a1ee1b6b54e2e47f8d5d6aee55244890fe"
"https://github.com/opf/openproject-ce.git","6502","4","[01d5b20904d17c61a80a756615195d58655ce76f, 403fca331fc6fc220baa5abc68b30ad64a0c937d, 3fed4b404bd3a86b0bdf39950aad937db4d2dd48, 643abe75955448b00b489f80a5af3b8a3de0952c]","2","1","01d5b20904d17c61a80a756615195d58655ce76f","da04f994ac4a20654ea6632db59c0664ff2ba0fa","84a96c47d000b84bd9d6cff58a41f8bcb6884e43"
"https://github.com/opf/openproject-ce.git","6508","4","[dd6e37544d88562e59911957b62c3bdd8d67f0b0, 5f3b3be6a03c000060e4d8b609fc8272a6fc67c3, a125962cdace69f7d3334f77ef2664362e8016f5, 0803c322e94108ed5426b35483a4dca7433dc226]","2","1","dd6e37544d88562e59911957b62c3bdd8d67f0b0","84a96c47d000b84bd9d6cff58a41f8bcb6884e43","73a6059f6309b54f906c35d751dec4da40809dfa"
"https://github.com/opf/openproject-ce.git","6550","2","[5633ce1cb526ae5b58d9af5384ecbec7f80ee0a7, b926259ad6a5dbb41400ed1d7f1de9a51efaa20c]","1","1","5633ce1cb526ae5b58d9af5384ecbec7f80ee0a7","d937b05c85b66748bb083c7bc23384295ffcfec8","28848b06ecfe4235ba1f6f8834abb6cb8a751e01"
"https://github.com/opf/openproject-ce.git","6566","6","[1ae98666add2e9122a50185d702a04dd370d25f4, 47a2cbaf8c525237cc8e82974912f56f2c4a107c, 7bf627857282e3b43e424c486a600a5eff0a6cce, e1d47de89e7eb00bf946e1428c0a7aca33f36725, 47b4d7830654c6b317d503378e60785327c9981e, 2b9f68f65d1feddbc9bc42a0893f9187fed7f38f]","2","1","1ae98666add2e9122a50185d702a04dd370d25f4","0fec303c977243266dd05deccd2ae630244665c3","025e02d14f7433dcb40cbfd2ce0e56dfa86b0d76"
"https://github.com/opf/openproject-ce.git","6603","6","[3f3ab5602bb34c77b594be128b2c382a6cd14961, 0a7105823ede985e223fb1d4579706362a702677, 1edf969ca7726c270e00c08785d54d25e9dd3859, f11be51215e084e6a3daadf276ff0d526b104fe3, 2087f67a19445911d9609f079310619f615ba167, a40a4e10558070d0e155c851ad99b1d8b3d3e7d3]","1","2","3f3ab5602bb34c77b594be128b2c382a6cd14961","fe6c3595340b27cc4bcf5d65648a43eece7569a2","b07ad4b71835785c985c35357597cb799f80e03c"
"https://github.com/opf/openproject-ce.git","6623","4","[ae066ee9ca53f6e2bd2e83001d86184ce2ff2cbc, a2cf6871d0bf38088ae6d29cc267a5cf22ac9463, fd0f497c2858bab634eb1c686a1d92e44cf942c6, 371990e6695c21773238c0cf0ea889abf4037787]","1","2","ae066ee9ca53f6e2bd2e83001d86184ce2ff2cbc","2a793766a3e29724d0f04afdf1cda8c98725886b","e42834654f802866da861b5a669638936bfc5e5d"
"https://github.com/opf/openproject-ce.git","6645","3","[ca2d99f24343e7cc1ea4aa6eed70b8dc28b44424, 600739063a1a2eece2c71d2dc44aec604e5e4c7b, be3890b56622b98ad8d3c01d700ef317f6f89dc1]","27","14","ca2d99f24343e7cc1ea4aa6eed70b8dc28b44424","aad5a9b542a462a4d4a1eca29746eed805b3cb40","81cd8815934da2ec1c3222d49c2eeea17747c80f"
"https://github.com/opf/openproject-ce.git","6653","2","[ee0359ac49e485cf3b5c3f6359e274eb30736ab5, 09740bd4d4a326279f9fc807eef707e2001f05ff]","1","1","ee0359ac49e485cf3b5c3f6359e274eb30736ab5","9750978a46a4173bf77ef1e3566cb13cf0e1cbab","33aabe0d3acd9490f1cb5dbccef799591b02cd9d"
"https://github.com/opf/openproject-ce.git","6665","1","[2fca7220605724e7eb8fa6684500d92e79a6400d]","6","1","2fca7220605724e7eb8fa6684500d92e79a6400d","76b686010554511037f3a2b3185defc51fc38259","8a0270329faf6f2139e38623962d1089f339d57b"
"https://github.com/opf/openproject-ce.git","6682","1","[b9777f0d4fbf5a979bb8961f2b107b1983b20398]","2","1","b9777f0d4fbf5a979bb8961f2b107b1983b20398","939203e2508c2da16801588add3922204abef55f","f97f57e2175330e629dee5899e183eae3554c4dd"
"https://github.com/opf/openproject-ce.git","6718","4","[8197f80d4dde0cf88e7c9cdcb363b3834ed0ca5f, f82281669fa4134b1a6e93b45d5c3ed6a466784e, 626d3e1b318958b6b3f177be51774c43dc40181e, 51d1112f01251d6903bcf7f1d604b97e61f723f4]","1","1","8197f80d4dde0cf88e7c9cdcb363b3834ed0ca5f","62251d295e01eb30d236eaa202e13176bcb05e7d","28e8f0071604bb40b24a8ecdb875987e34eed436"
"https://github.com/opf/openproject-ce.git","6720","3","[96f365d5e3bc2d9bd77346b0d1bf475d86e790f4, 2ca6fc194248aff04c8ef053b881552884b82df9, 28e991c5bd953463bacce8fdd2e5125998222481]","1","1","96f365d5e3bc2d9bd77346b0d1bf475d86e790f4","ada06900052a47b516910515b46180f19b319f98","0c2b3c0123e97646f6fc979bbb88cabf5bec5b1c"
"https://github.com/opf/openproject-ce.git","6740","2","[461ef5220733833aaf760984339cae82f142023e, d76ef43f11a334487b35cad87dfb8ab18c87b9d2]","1","1","461ef5220733833aaf760984339cae82f142023e","8a183ad98ae72274ce688c5f0d609f7779ca1412","f78a2e1e1e798f31b2556d258db15d4a8ef7e9df"
"https://github.com/opf/openproject-ce.git","6750","7","[c253a5b0b89fb7dcff83ffaa4ec8a887f281d881, ed61886fec99487b408fe8d2f304f56b4ca5d0ea, 488689ade40222917b55cf1077f3dfa5cb106b2a, adeb2e4a274b8d2e27d46898bcfeaec5478c8b75, 37a39d712cbf85663cf8a99dc1d3c95a0fa5400b, d67bc8b975dd37e6393a26ae224c755e6ad23e6e, 4092ebcb1c6db3fc821728943f8757640d01124c]","11","2","c253a5b0b89fb7dcff83ffaa4ec8a887f281d881","42456f30425b5c6ae2de96e204c5578ebb801559","2a24e5237b12726f0852df77bf37fd26685afe2b"
"https://github.com/opf/openproject-ce.git","6759","33","[f0768b1dd18ff747a653a9302a7fb7f140ecd338, 70c1e845bf12b4666f53218e0d55d5555f200782, 349e3587819cbcf396895e2f65a0971a1fabd91d, 03817ebbafc0631e8109d1521dc5cc33ee9fab22, 9014b3c2fed94e928ef638b2d59935a9e6e12fc5, c38e8226a470c8ab7d111dc9056eb9d6fbee50b9, a7f5710e7250776d9df374fc13a1f57835de5aaa, 7eac020a3b3b9880682ebb967dfe8634cd531d78, 7e97385f168b7bdaf0e10e374931f428d7615fe4, 198b497cf3eaa4e156cc2db01e46f94d567a877b, 35b584e2078217d34322dfbb03798da4695fd499, 497231d4504a74bfda719e228a0cc98495856878, 7765250258d7a0ad6f16ba68c2cc0ff001cbcbee, 8233dc21bbc490d30d3fabea42c5cd2976baca3a, c67af66d56278cb7b44a2bec906dde42d78d5be7, d8067c108c32f623ba946a48e0e7de524d3ecaa1, 8cca5d54f4a0b72e024d9f3c8df67c2bdd0a8747, 1b18513d899a2bfea14f559dac022e30284ee2bf, 974761061b683a4787b99afc00596609f4619824, 84fbd19ab09d7595e70b6b96f77293ab4d120da8, c22792708b761303f06706c8553da9d988e34011, cab74bab1fc45877d58e43b007185e503c1ed8ec, 64658304998561b011bab517aefd2d0a759fe5fe, 55f294c01b00aa6fd844253a0372291f78155baa, 9651eb944fd39e4e35a361eb68945c725f2ef47a, e542492a666d2dfdaf938de8a0a799d4767bd4ea, af8190fabd38fbfe82427e2cbf186372f66240a7, 9b67c3c306d0511133f9ea49853d1ef8bdf03207, 83037cfba2b5f4a2851cbfade2ed323455f3a902, c7e2cdad4720e0f9f138a7bc2e553cc939d9059e, d089695b65c90799f8df91008f145b9c500d43ca, a25aa540f732df33e019e301cd9e72a6d89f18a4, 5b99660b858476c43da75701131c2fa823e01ac2]","7","2","f0768b1dd18ff747a653a9302a7fb7f140ecd338","d2a9b5ccdd389c2d63871267304a971f0f7cf6f5","e15449c96f4bbf3f568cd39469a0354a16819f6f"
"https://github.com/opf/openproject-ce.git","6810","3","[f254c838e71d223312f442a85f2fde8c60f1353c, 3014d7ab1d4d692bf172ced66615effc7c612bce, 103e1614f53f5c61ebdcbfa0acf7027dddebd404]","1","1","f254c838e71d223312f442a85f2fde8c60f1353c","f850af87c8435b4257c53e3efd2cb5000d4f4c9c","3601cbf9e1dce1a698fe211977134cd23f8e7a5c"
"https://github.com/opf/openproject-ce.git","6816","3","[74b77b9e9112483174848b7e76efbef4cd715f4a, 58a23712383a5c0dd739e017246b15e126149e14, d9e518da62beb3a8c198e80dc868d6bdc3a01481]","2","1","74b77b9e9112483174848b7e76efbef4cd715f4a","b2704e18016e0a2373a27cecf0e1dada5846cc37","4cf237cf2e4d2981b9aa390abc82ff3bf19cb0a2"
"https://github.com/opf/openproject-ce.git","6852","4","[8c5550b31e6569d242e0999d91eee1a4eeeeba06, 64aa80106c33288107191475ce0ccc422c0d092c, 93662667864255a1beb11e38b24ddb1808a59510, c5bd7a776446ce3960faa5c09e9da94dbfbb1dab]","1","1","8c5550b31e6569d242e0999d91eee1a4eeeeba06","17f7c16b307c7b6df8ec977c4e7eec694cf675c9","ae589c4112dc85a82424eb5fcf9ef293b84c51f4"
"https://github.com/opf/openproject-ce.git","6877","10","[db95db1332b39c92b40d798671971bd8a307c1a4, e6209a2b9e0707acdaee203ebca6413413667aae, a7a265f326721e67abcf8aeb4c96ed3582c3eb31, 0ac0fd39d0bfdedff18918eb173ea1836cab720d, d6d7ff2414a4fe9341bd5a2fe56318b1a5ee3f1c, 97a7603063e6c8025c2edf3e01e8b169677db4ba, 56947695e11a9b23d565968191276e9fdc0c1897, 5f796c3568e9000f91118b22136ff9974207600b, 53634004fef632da3227e2048fd1344a5a6fe5bc, 90c906d599a7f4b6c435e8b171b3b9885a5c1a72]","6","8","db95db1332b39c92b40d798671971bd8a307c1a4","1d61e7bf5e808c982424ef5551780377d4d30473","31a6a2597f316106fe1aa477a2dc0a4b705ddda7"
"https://github.com/opf/openproject-ce.git","6888","3","[0df695d8dc602992da5d84df6eee4311186876b2, 11242113006ff2aa9731b1d0490cfb9af647e302, 0ec425a8b9b27acce3ca4e6ba74e75239ed2fa6c]","2","2","0df695d8dc602992da5d84df6eee4311186876b2","6c7df7e4b9fc626d734e6346a8f92a10bb0d53b2","a853f7e84af8fbd72089d72d7e5b8d50f944ad2c"
"https://github.com/opf/openproject-ce.git","6962","1","[0a3b7db0988bab6ffff0d47cf5211a4209acf296]","73","16","0a3b7db0988bab6ffff0d47cf5211a4209acf296","1581215626712099290f3834bb5d109fab0ee9ab","31ae079c69550c528f0322aef2b2a40246f5d6fc"
"https://github.com/opf/openproject-ce.git","6965","1","[a86eea26e69df9c1caed0327bdd45987456e44a5]","34","11","a86eea26e69df9c1caed0327bdd45987456e44a5","947b6f851a6fdb55677b1dc1080eaf36b743496f","a897e9cb046535cc2c9b1ced8d1556d2ab733032"
