"REPO_URL","TASK_ID","#HASHES","HASHES","#PROD_FILES","#TEST_FILES","LAST"
"https://github.com/opf/openproject.git","7729","11","[cf7a540f1782636aa99059e62dd464458a24246a, 542bc34a6c0819156b6a714b839383c0d2d06edb, 051e880e9682c982f1c84b5b7fbf581a84c3bef2, 994fdfe3545884f7df95f73a080b649dae5bbf8f, 90b43ce696dcbe90b65658121a89a5e15c948f17, 049539e0aea39193637a7783f5f623caed7ec16a, 28320a0ca7407f47e6a3ad00e6e0238cba2eb0ec, 5486e6e774204f6dad1ca9db2a7caac4cda52b40, 53d1911072ad5f39cce702aecc7c58f267d6d64e, b9801c46fa4fde12d787ed3ce423a25ccd71951f, 0e69f1e300420e6d1e66e274df76e123a4ee18f5]","7","1","cf7a540f1782636aa99059e62dd464458a24246a","c235612afabad157d7d97f249d159f69ede44dce","ecfd329cda15b179d071e160706951957b3915b2"
"https://github.com/opf/openproject.git","7752","17","[b103a6c2f14bb49e28d1363936a52f89dedcb16e, 89a3f285f5cb81d338a078439d0dd23bb2e1caea, 02741c566a30a3b4ec20c6115beb8ff7c0e79a18, c5841dfbee455f685c4a34807c731a8429f10f7c, 9cd135750737d04a6f7a9b73598ae49e29193918, 5660f814a557ddd027ee66a190b8413b1c89f5c4, f5c956c1131a90bdb83d1d5e88977a0fa71865cd, 668f7a915cf6263760e3825b84b555a3081cb8c7, 10a33c4fe3245fbb57ac6b89bb22196d8f152551, 4af2df5f442f1e50b1171b353c4fedae5db60547, 1414573485ca208c8728391e82df368aca22f74b, 43fea0f5a61d8797a74cf2dc7c23698c5700aa0e, 757067187eb8a132b1868768c66c9b4f295466fd, 877e6f74b1b6407296516d76509df748ab245011, 121c96e7a020bbe620c563295891f5a4ed42f6d7, 9f40a7184b9558814ce7a344a52e020b9345b69c, f968ce4b8425d5d3d4a4c25526e80104b6006511]","3","2","b103a6c2f14bb49e28d1363936a52f89dedcb16e","38edcdfd1d5d7039b2004486b6d59a246d0e118b","a438b47955804c63744f236a89c3692080b2fc14"
"https://github.com/opf/openproject.git","7771","2","[f56156212d49e8c7913afdf605be55b30250c36e, f8426244d74f8437cf84ad568ea9823a57f6c6ce]","3","1","f56156212d49e8c7913afdf605be55b30250c36e","88fa649c62413d0b63f5df1436a46637b085df58","8aaf998621e96ec6074c498be8871b77517007a8"
"https://github.com/opf/openproject.git","7793","5","[66982a520d06982d3864b55275d9ef1fa8ed23f6, c4926e62ed8863b50b7591cfe4f195c4edb202d5, 5d2141e7267f93037177623cb764250e28d22bd3, e6b1df30c88e1f1ae2369c9ec3fffe2b9d5fa4b8, 16a54ea416e7e81f21632225ff227e4cab3d74a2]","3","1","66982a520d06982d3864b55275d9ef1fa8ed23f6","e0db679ed47a277d40acb83d377f387a5a2a8661","ca68089c803a1225278b45d24d3f603c8dea4b0b"
"https://github.com/opf/openproject.git","7803","1","[41559ecb47787bcd0721a52f78e42ca73935b2d1]","1","1","41559ecb47787bcd0721a52f78e42ca73935b2d1","e276750b3f7d9176db95c09840deda7ab53c986b","ca68089c803a1225278b45d24d3f603c8dea4b0b"
"https://github.com/opf/openproject.git","7839","58","[e39187f8442228d5e40ec776e0112910b068181d, fd44220f3ad803c8278c7dd30f39b875f82a4ee6, 0f244ea0d2087cf48946a6fc901b258e147e010c, b09630604dfe7d67b7dd13f0af97d194655571f3, 440f1e9ae7529ef6a035e66611b944007d2c0e66, 2a0720e43d86f749fd38ccd0ff9a1684402a9ef1, 56909ca63c1023d6a324464925bd3e4e125df910, 2c0148087283cd685f9da0e279ceec29f71fc22a, 8086fb4b3c351679ec8875ac485125d1d267dccb, 43069729b895c752ea6d84f20aa8810faa7a2453, 514e73c638fac66dc60041fb601d50af14a81d1e, 1183cb2092595ba3b4f340f27086c73a33cf87be, bfeac00cb3274228d692c4e056b6c57c37bfd3bb, 4268cb86d32b4a793cfde0d393cff23000d3809b, f5d0f255669a9521dfe5be73d06379cc6dc40639, 538cb4720abadc96a5ac339c6a6991d5290f459c, 20039208e54888cc190f771e7713fc45f661dbd9, 43e2d41e1c5d5b9f3ea5794ed89c4e703ae74602, 09aa962907181178dad8602185c0672b9afec9c4, bba6e02031c43005201488074a32768c7415ad12, dc39dcfeca44b08e9f86201342ac085dd89bd1cb, e523975b5d483cc7a8948e9fec75fd2500afceff, f43509d5fad5562b53ea15e041c8407b652584e2, 1861a15fbac2d47199d8f48a1e1724b7c492d3e6, 43aee95699b57fbd965e834924d42d010e90eac8, 2c582cb3d80fde0b1b2c337ef0a68592026ac830, d6f29381164ce096f7a52ff8d22e1d087c527025, f1175829a22263f5c4262f430c87798d2f172836, 2dbf01dd6a52b7188664f1f6747e4f121b5c2869, 5bc3959dad119f0266dc2abc49616397324e6647, cfb5e1a58b613fbf6d29c23997c05f01a98aaea6, 2b8114f7a9e6817b8920b5deb80afb5690bf04f9, 7d1be7d53ca3ae59b55f1f977ba6ed66b46d0f55, 7390c83ddaabb8a96bc43290c63c6e8d59384b0e, ecd501f3fe4568488a081357206ba4d5d897d249, 2bb39250029dc462a24157134ddab3ca9f2586e8, edb0170ee853ce2823266d7fff4c075ed8737601, 5d4a5d3fcd217fd80319f138af5e1efc0db0b445, d6b739276d3cca81dcfaaebfb835694487d22593, 1d09b8db5036e45522fc4f79590cb1381a08e7a7, 4c04a6c8ddaefb272057f8674e51d7f4896ecd20, 4a54369e9d998d77b35a2665a325d244f6142493, d67f1c891b7a14d79bf7417743eef51cd3da02c6, d6faf7f8f36a9a42271728e24deaf315a349dde5, 9ac932bb25755b26926d2b63679895e71e9f86ee, ca36cbb3113a654da6a545c8a046babdf4bf8d26, d9b370800ba5424f990cfe20a5d0b78c507b5a1d, 6d1a1013432db264782946c01e768f77361023cd, 319d2930ff973aabad0b65daa3ee641773a8c75d, ce912105dbf9b083b9864faa98d0ba2c8afcff9d, b40b03ca6dabe96fa0e2d133a0b33fb491ea633f, 0f54b1898547279e3de024013debe814e6ab24c5, 10ec20a8be5b37fbab4e1e974040b0a4ac7a70df, 4ad718f3170f7458c0f935a1ce35349f2c4a56c3, 3106f7f855b2642887bb0bc61beb51287b033ab1, aa3fc453e8a3a8d8db1c174f92e5906936d44e8c, 3af4d79c4364a9b953bb8e8b0a89ee6ebe37d7c0, bd06c9bf3cc55cb3ea4a875ee6b4dc9edc00e509]","28","2","e39187f8442228d5e40ec776e0112910b068181d","02a3c916eb4bcd2e0479545cd658c6d9214b4895","70e30e5e0539d9469fbf2afc19eb461035011aa5"
"https://github.com/opf/openproject.git","7845","5","[83c63c71bb60f4796de00549735bba15a848810b, a3a6645b06565a2de1769e44c5e915d7828a8b3a, 5fec5a97d8d249fa5ce3fe5a7e2438a614c36b38, 5c5eec7b54a3c864827f8c670b93b03c319b8758, 097769f3ff284ee17ffdf77f22c03e1c0105e9c0]","3","1","83c63c71bb60f4796de00549735bba15a848810b","3e4b1c4883abbce54a3ca71358659ef6e2e03bc5","971de34d07f32efec87b80c150e41283177acd5c"
"https://github.com/opf/openproject.git","7848","3","[195c9230f1bbba80d80f49ce632e0653f5a4a022, f958599a613a12ffbb1eef7e54695835bd5e1041, 4893c6208fcbc50ae5c194f5ffb07cea91350b7a]","1","1","195c9230f1bbba80d80f49ce632e0653f5a4a022","4415c5dec4c77c1c6396e109c05958de4e55f137","c82267b41cf66330a5eede60f7eada7c0051e864"
"https://github.com/opf/openproject.git","7853","4","[21b3fa515d7c652d434e52ce181f75f5e927382a, eef8f79c52fca4b51bb542a81a173cd4414d7bcb, 23ccb8d9c7e85ee64f371769359301be39055662, 30e6d871ac7e9c915c1208429a14cce71c930fea]","1","1","21b3fa515d7c652d434e52ce181f75f5e927382a","4a5fa6a5450b416d090af44239cf482f0a819fa0","6c858e383412708230520e74421e9475df57640a"
"https://github.com/opf/openproject.git","7856","10","[31e00786d66aa33295ae499461c7299e913b9691, c2c8e347dd238e2dfe189353039befe9a711c9f7, 06bdee434d5f54dbe712671556647c06b01028fc, 56bb5ea7b88e2aaf47fa833a5ccc6a9b91aca84e, e11b87fb71a8dc37ca796660893d9b16155ad0bb, befcb3825c2f8431af8fb9354c12b92b1b09b47d, 1880616b0050b8a2ea316c58994d498b118cc8f3, 0bcab2069e9605e53dac0b5c2254a796536d0f89, 9773a51ea3cec3c4e0aced1a6e0dff473d99445c, 7e91b86544d4d06e45c194b9b15b70db95762536]","11","1","31e00786d66aa33295ae499461c7299e913b9691","e38d661d047bd58e49df7cf2817629d7f3f84143","2b4528c118a7532fd5891ac4c62684cf14b76880"
"https://github.com/opf/openproject.git","7883","10","[55216e4a984a8d700aa46a146081c5a8c1326f96, defb5fa3da443029add1af9b676cdc6e2c545ccb, a936602fcab28e5f110eacb98994d7ecc539171e, 579a586f30fff907195e04d59cfd655f1e5773b1, 96e6bcf436662fd12fec7c29db036a584e0e5172, 06d29f2e3e801956d4a2c6340986bf0d248e1f64, bc244a8fde895bbf4eb30c5b572200647c9c1818, cbc0f69c07a856f384f7be9e57ca611c0312428d, 7a37a27bbb271cf862e54d6563b4f8fb7c734697, 1bdc7ce9401ad91d5d04634e680824419a30f06b]","1","2","55216e4a984a8d700aa46a146081c5a8c1326f96","60d699c978b0eacc07103fe7a60a49a8f227350d","6d8eecb94e9801ba79ba1a0d59a0ca1dd68cd841"
"https://github.com/opf/openproject.git","7894","1","[9edf1e8696356bc9e3e3d380196eb9d22a177c03]","1","1","9edf1e8696356bc9e3e3d380196eb9d22a177c03","2b722494a7784cb211df7a870896d89db2e952a3","92747e710e31b24897c749c23187419bbf068505"
"https://github.com/opf/openproject.git","7896","4","[14b5e6ff0da4e57d1cd9cd4ca720b4ee619f39e0, d76f5b8fe8f740a81eaa2f425760e167a5fd59ef, 35a7817208ef6c641e3bd848e3a961dcd94ee2c6, 15b2eb7d7a0b2b2caf54a2d221c4297258ec85c4]","1","1","14b5e6ff0da4e57d1cd9cd4ca720b4ee619f39e0","92747e710e31b24897c749c23187419bbf068505","05a74782426dc4b6cdcb0a6fbf902fb9701d1e78"
"https://github.com/opf/openproject.git","7916","49","[e49490607b94e2286e210d2eea89f3f3bfe0e848, 67e539d6c941d446fa13507087052c0dfa0fbfe4, 4d5259e688a8997249e2838609cbdad77d5c2c86, e07a6573280ca58e0b654e78767d200910fc8ba7, c52518ec1214405c7d14d6b801c039302679dd84, 65d2cd7f54d0decdafa4f7089e28b389a97329b1, 8e1c8264ee6a457722eba8c2b49488fa03869de2, 805bd34aad137c4a383495e90b6a57804f672bda, cc2874f70fc5200f4fe632ee1d92b183fb45612f, ae900c40f96e9a6b58306e56d84b30a31393beb8, 609fa4befebbfdd1e1fde829da39542839c43054, aa895306bd23b70b73a3d9b66bd8f1bb944748a2, 7770f03d1a1f504ddb37a5cc49e0fdd6b5c9c416, 92d4c0798fedec7141c373bbc7bb42c0df6683de, 23d6b65d17ef2cfc173393c6a12f8f2d12b7123b, 3639154a982e48346360bac1d4f22ae7de4be603, ceec53287178f934c25a4f25d848ef0c63d88675, 93b78de2e68f907842772b81036cb22f75e4d4de, f47e5cb0ba67c4047f77e45da5dc7fa91b5e5c9a, de3d42b089883e241d589a25550ab35cdbc34598, d4d15fd30c501883bada79247cac9ab54480a964, c5b26e920a192209194b3acd406adf57f6daea35, ba7fdd56d89151a2419e4dd26486a14f52e3d0bf, a70afc542e35a347fe4590ff6a1370a0818f489f, 7a7442549a55369ddf2d3a2d7089d9ad282628b2, f130d8be4c0976bca6d0c8c43dd2cc0a1b878a1e, dd8319e91bae727f95b1855cdad54492bce830bc, 8d80a598760b9cfc368e03ebf6a497f2489bc0d3, bf3923aa048c45e329c8493d812e9f9f9e9cbcc0, 7e8f9e923970a2abd53fa3f4336469abe3e2fff4, f53e1884c0e634fb48e67f3029d2ecd42e3720a8, e73ec9882a19a55b2a10050ebc48aeddd68494c7, 54d88cba4925bf71a22f20304f96b84641f43141, cd684891bef1216d7563418677601143ef86aa2a, c1f175401b16ebb6f1496201b22f417ccd7fa39d, 8a81f72f667aa48097ec59a707c144f7bbc187bd, 892a4592ce5ca65d2d6b23b52c1b4c854b4d2787, 8d5332a2dcf5024c4c1e42380755b6b9921968ca, 9ade8b79f0185c90f56f0b71f265b02b836c08a6, 8f5b59d3c3f29d93da8010ddb2cb180cfe332e5a, b119b3d90ebffd929b27ae306852776983ea0b24, 77f81fe201f9b25f3bd61d75cda9021ed3feeadb, 11246e91d8570a884dbe741fb218e62ac64ca0b2, 185fb74855415d7c609cbbdb1da0dbfab3eb8ed1, 687515df84150fad68b206e024873c460d84ce13, 2a5e9e4cee4e8cbc874791cf61c4e395fc7e397e, db39af88607ce8db8cf3b3dfe53c6ca9ebcf3359, 71f9a56e89c6bc38180bdbec2320694c7b0768f4, 4dcc97d5440604d95397acce970a000c4f72c2dd]","21","3","e49490607b94e2286e210d2eea89f3f3bfe0e848","3ca8d25b007675d0d3d1249783093d4f7a8f0d88","18f36d8bde5c72b884459a9780f6c1d44dd8de6f"
"https://github.com/opf/openproject.git","7922","7","[58aeb0d83ba7c69de4a5c0ba50b0b9772234232f, a5fc1681b51a83b04d2836fa96bdcfa74f4eee16, 643bd70d429dbe3fc690c308c40bdffdb659f465, 7dc315beba5bcaba68f0ca01c5e53b6e6b0a9088, 9b04473f0b25327c0ac02e6a1b1383938909b965, 0f7dcbafe909ff9d869bc94256da0fea51a465c7, 54bbeee41a3bbf51141aa8cb58de9eda86c0b5e6]","2","1","58aeb0d83ba7c69de4a5c0ba50b0b9772234232f","b3405248e035092cbaa13619b3a8119bf79a6ce7","a8b55e98f6912fd9949aaf3150274aa5e694c68a"
"https://github.com/opf/openproject.git","7930","14","[51a4d504c321cf242317d67add35eed88bb50de3, 15982898d9f72eadad8e48e9e300934863fc9d57, 9bf0235d1e4a70f5c8543903e42d96e0b1a2a9d9, 806c7ffcd2e1073736721aca3c5b82b4f20ff66d, 6854a274f7c2791e02b667f8385081bf45511c16, 564f6a0d29b638465a3e6dddfe24776714df3ed4, 0df4823a0a83c9c97b29ff95a327def6184619ea, fef78ca81234c47c8e1a24a771c63ed69ad5fbad, 55b13d4067d23f7639cfe9fc6dbfb40e18a87a84, ed4ccc9637ad1c02d9800329eed225144168b569, a8265cef6c4a9fcdc502c674e16f6bbb6076bcad, bf0c197dc0fc312971039f0b5551f9f7f64cc336, 38ac23fd6f877a1847d466130561c019c9dc74f4, 76140dd785f2041cf83be9f196b5f61642a82c3f]","16","1","51a4d504c321cf242317d67add35eed88bb50de3","df71f8319ec03bdb051ead997ad29580e6c08d8e","cb04b84f5f856aa931e4ba91432df95ebf63bcac"
"https://github.com/opf/openproject.git","7940","119","[f65b83b7f9777d83ffd61585d1639807fd01a78f, e2d863171bdcdeb69b2c3675c8a4a982c2aae34a, 87f7eb50bc10d8d5bd06cc1b788779ba6c639b96, 00767d7b9836bf55143dca54715409ec0111b423, 5930eebdf70d7b98a21cbf5c90353b215939460a, f29ef71702f1661e6e4b50a12dbc2d96d06fb9e2, 33c82556a9692163994a3f56f35fecd3a339ba26, 21c956c6ad3aaace4d16499ae6373b7018517e38, 84c27e82f7e07380915db5782ed268df5d7c58e9, d79575d1b148a391ff2a3230e18ea015427f07d4, 663d9ba6039b2a8e1d1705664a7ed241b44598fd, d261e41a63ab69029a4487dfa0d34841dd291baa, d1a69194ecef15635de78f9a28646f601a1dbb09, 9e07a6aae38e76cf94f4376037a7e7f075b07a43, 588fec028285f71ae04afeb1bf71b713a1754a2d, c6d5bfba7f1c9b583c237a4f236a5a91bf118a8d, 674b6c7928843ba561491bc678189a90761c3626, 1d83bdc4c0bfb2f48a82cff039e29d44f7744a32, e9952eb0a7cfd8a649b2635ae5bc646708cd0588, b329665a73d0e3fb7a78b80f5e44bd432ec2aed2, af2c54193059a697810f030e9fe3275bc3f7b297, b87972a8bb11f586409c4819bcc298d2f2aa3a3c, 78deed7671ec736f7ea1e87826f7f54d352e0c3e, 68ab5e3fc0cde544f47e6eaa971fb66e9b8fcf51, 6c005afa6d3183f551be1ab450fe8675621275c9, 60871b9f22dfb36687f04e92f423ba4e94079562, 5101ac8c5a814c172aae852323b94a6430c445a5, 20f1c24ee68eab2f7620559be934402af7d4ab3d, 73f7faf1f2a00ed1c7f7dc040d7cc4932e77c1e3, 85f63d6f0fa254df3a6276a015c760e3f595fa4a, 92bbd993dce0729099c2cdbf865795d0f2dead50, 985c1d236f5bda746e4781efc47cac1c73e2ab19, 5858fc75f48d9b399667636387587b72b1d18c07, c0e80e861a308a198d003c0ff1cec78093129003, 5fd0fb43505668bf83b939833b206b16b25ed72c, 5d3f39aaa06acb727d8ded3cb2ad00b1df18f9db, 5610e6573b63ae7f9cdbedc3fb77089337ec09f1, a98f36c7ffc3879fd50b19baa2e11b9b52cfdf66, aa39d77afa384c2d565929defe27657b64c38ae5, a0d21b471576c97f2964d535c95ca3652b2d99ad, 38fdc192c31558e11bcc82cb1bf136d297751da8, 5a4ad0bddd77e4d151942ef5dc7fcd2b81653937, 54f7a67b1045aec65cea604a74dde09524ca94eb, 8108752f5a3cdd239cf487ce6b097ac80a4c0c5c, 1b16239efe3115d9ea7399ef0365c8bdd7dc7c1a, b56c68ae5f3b39e87bddcbbc155a58ac8dfba72e, 687b0d99244f36c04697dab74bc2cc503672d612, 1569fea11f3c19e80c625481ead34192437b369c, 8ffa1b9d423d4654d61cb05aa2589a9c85c59f1c, 7556a5576d1be83083e79ec2862dd1c0b6f69d45, 13209f65896a58b19451a7949a21fb3e4ec39bd9, 88c29bc63b4a9625c30db08476b7a679077d54b0, f835d88d2f8b637b2bb66ee2c814a6e0bddaadf6, 406b432e964a64b25dbcb08902c5dad12584911f, d64acacc8be818471482be4b9dab3b502d4060ce, 8c1bf368cddca40b361475d509f011f6bc6f60a6, 1cfaf5aa5567ff04d23e7f122185a7c37cc755b3, 309a5d85c45e08057e2572307ca310dd80266a6e, b8b40bdae143d38a91069aff94ad47d48fe6f305, b71618a830031559a267f92638e824c43d75f8dc, 3d6c8de390f37d0eb3c4d8c8823a6bf5c365c308, e5eb8e6c4218f72c862fab78ba34e12dedffff68, bda66aa5d4aa90837f18b3c55c9926bd2347b683, ae90151c836d8d4906e8249bfa2b8c1c798eabdc, 02021d94d546d95b7ccb8b4c3c094fe904ac3d5c, b6a53d21f7b4e0e91c9a7858bbcebc713c352707, 6850a65f7db5aab7ff2500350a0ded83f6994e15, f0fe140ba86b6227771bd2f01b85a20704af8c0d, 3eabb402845dd7daa5e5611ccdf7a7ddfd0cf785, 0e4315ccc12592d990ae8c30e9751e057f479e34, 1ede71aa4fe90e6e299f57bee692876587ee6990, de3fb37f8f60fa1a8db8415e466394bd5d0f48f3, 381cad13e15063475cd41b9baef4540c2d4ce8e8, 460f1a0b0aa4ddc8386e0c2d15c34e6b207cbc41, 2ee6420b4c9b9c4989a9d1232d4ef0a534297fad, 3a832efdb9b70db565632c3b2837d3aacc1bb29a, a5cd72fdfb2cfd5da28df41030ff79d8b48ba9ad, fc5831d5d1c1a9b5ab1be6f6ac888bc248ccb686, 1af909e8935d89b36c3905b62c7617545afb3328, 0a23e16a8583903a3c21f242e46595f15a3c0dde, d1189d0c807a08a97a6f698eff4cf39b3b741801, 7aa19211ed6e5efa3b84ccca1e3c61debe64e8a3, 44fbb90ad26a6c23dc7a7d47a7110b1deaef982f, 2189735fa3d5054989b5cb5df23ab685005fda9d, 7088ae0fb497f1729f34a1835e451cc94ddd851d, 7fe1c44994f3f80ca8fe4643441d92cf61db6899, f66b93331538ede7829d95b113950f1e4e8f4d2a, 20d05c701de90fb8667c9a0bb6a8aca5704fe87d, 062f87b3f8b999dd34ce740ac567cca3085cb4b8, c90e59c900167650f6eea8976b46a608c87a1372, 547264af1c6400bc7ba742fd7ff0ff7378195ea7, 1ac88ff462f1e048e907a5297278be5bbbbecee5, adb4a11c11d1325151a0698221231e6a7d4a3795, 43ed467f54f06d930e3fa8589dc6b267324aeb27, 97214c8a595080754be92bc8d759e6b23691c0ca, dd2a52011a119c6adbd4cbc4443891c36c05bb66, 3575fea530b577bb55297337a61b08cc1f630e5a, f2e06cf8b5ac7ab20768a9cef29c29eba1cc4aea, a6f73603c06f5c8169dd5b2a6ff6c282bed77840, 7653492994e8ab57b2136fc61027a3c072fb2e20, e2998c4695290c6838b024805247f9346f263f3e, 304dcb530b8068443b33559429d818abe35f8d72, b8e3fca3e33fff888ccc82a2654c69ae3319e53f, f60be583906aa65dfedd2f7c9856db0972f9ad7a, 6fc3db7a73a385fcbda5f46566f1d2fe81007415, 81adf7b9a9ca1ca9d39710a5536794b14b85a557, d584317ccc3ce1a4e4a6673f1e169522770ae4d0, 9a820e67fa0efa3f8f900a4283fe77785b10ddcd, eeb2dd5df0af51a7049eb0f4b77d4b12e59078c4, a895714ea58b2417351fee42ce92f11df17d825a, 8afe6fcd65460cb026cabdc0cda823285202b69b, 32b9bd279b02831edf54dd5e4847bd7439528aa8, 7c2836dd7ebc294859e2059d36edfec505be5f93, b6fec9d487b2cb55d4423c0f93119b566a1dc277, aeedcb929b9dc0c8ee5f7fb63cafd9212b3be8ca, cc5f8f3fb2820f9b742219bc7ec7ea50d34313c0, 72af565342553d004188620472b45ae6e1ac6763, 913536d8efa13f203b14b833e4798bbb681ee9bd, 08017b1e5332425bb1391e25cc792d0e40a1f960]","48","1","f65b83b7f9777d83ffd61585d1639807fd01a78f","a8b113ce39d7da43eba5a83448f5949ff2e05ffb","042b72df6150d005fb1e6b164de99c498b4dc880"
"https://github.com/opf/openproject.git","7941","5","[09fd2115b352a83da92415fe8b02026273c9c615, 73bf0209249a79cfce267c3483b54242a89773f9, b528e63b991fc2297e7d294932e77ac54c5bf3be, 528ac5c3451cedf782d9212656debb529b8d2a6a, e40d3e7e8151620e0cfb88ca3290c249bebb4579]","3","2","09fd2115b352a83da92415fe8b02026273c9c615","dd1c12147f6ceca71d388e4fd122289e9c44411b","6017edb217356ff84093140b2d2f1ef5558b5919"
"https://github.com/opf/openproject.git","7983","2","[74976f2178ec57d111969213ea943aa0cc00721c, edf868a3c91367913389ea771d49e3f81002062d]","1","1","74976f2178ec57d111969213ea943aa0cc00721c","9b0fed19586ba5183069d7de16932d442c262077","0735b53c9da5984a264792938ce9c7d44d5a6aa2"
"https://github.com/opf/openproject.git","7987","14","[d9fac1dc22126e6907f0d859e1e24b4f8879994e, 801cacf08f8b89a4fa69514e1a59d4860b3217d1, 1f07b9c21067cac59c12958a036d7285d36652f8, cb10d35385c096f3fd2290538e9ac3cab4af51a8, e5d739425bef83b3b695464d73d34dd2c1bc4bf0, dafd8be24217308142f013aca3acfa7d213019eb, 352516aee9eece9a6cc6e12a0eb8b9a37f6ef87e, ca3ef3bb8e148038de58b5c25ffddc78dc731256, 72c427dc597047777c4e38107a00b83fdd70f833, d779e8bae802971d28dda2807572cc6f954a82b3, 72693bdcc5f483ac0195b64ea89fd5c7689366fb, 222874af95b9ab5af50b0eb755d2133ecfeedb89, 44d66f4e68b6dec57cdce488b522b8a454e0eeca, f3381c827e51a67db5f1292759c490cfa271e7b8]","8","2","d9fac1dc22126e6907f0d859e1e24b4f8879994e","fa94735246f373d29e7c334287dc92f85ebe347f","19296d1d8ab052f9dd5d29083335fb33ce75eb69"
"https://github.com/opf/openproject.git","8008","10","[7b31799e173e65aefce7e808a9da4e0fc447e651, e78d2b4eefbc1810dbc2e4532fa67326d1bf909a, 96507741676048cebf903e2cb063eeda82af8fd7, f432cbbaf859a265dae26afbe71cf0a1da12af46, d1ee79d75d6bc597d396c1405f215edc47194363, 1a451dd9abcd526fd195721262a3b799da3ab0f3, 13280996b36413aec3bf3dc275beed876a31c44c, 33a6f04af9b151b668516ee63f12c1a8b0291657, 9f21ec8302df3954afc3cc4767d50c984bdee7ad, b346e6a24216d2e87987d53501c49c326acafc40]","16","1","7b31799e173e65aefce7e808a9da4e0fc447e651","67423008c22b0ab555edcf657d6cf4ed87d2640f","13a214a79cc4ed0a059333ad64835a5dadb50e1f"
"https://github.com/opf/openproject.git","8010","9","[35846a1b262328cb43b4b798b22d02e5cf38d472, 7d3d20dc17ab8df86557725639693539b89a2970, 8f80848e91e2781ed142b021f3f93035fc1c92f7, 256883b5a647458ee711bc702a8ec9fc42363284, 8d1dc2113b477c34a1b8ec6bc5c629a21a6fee43, 9a108e8222aa9d5ae9242c18ffcd00ac650f1d3f, 11acc99272a7bac44a165a52bd628b8112c70250, 13a214a79cc4ed0a059333ad64835a5dadb50e1f, 05a0c9b94426a443b14b27a01b42295668463b21]","4","1","35846a1b262328cb43b4b798b22d02e5cf38d472","3f04df08c45043db5d1295ad524668030f652b1f","e38d33573801da5ab081dd88df1a5cbb525b67f8"
"https://github.com/opf/openproject.git","8034","1","[8f20b2262522b29ffaf5fda072b1b76dc81755c2]","2","1","8f20b2262522b29ffaf5fda072b1b76dc81755c2","bbccded020c3d7fe745e942d8583f2f4f36a18b1","0c1490d1e4f4a9e8bc8fbedbffb113e3ce4cbbe2"
"https://github.com/opf/openproject.git","8040","22","[9f6e9c8c3e98136874c9b13298a5661683b4885a, 33dc00cc9861aa719e9ac6d076ff563b04e6a2c1, dbd39850402727c9754e269e7f37aa49d7c130ef, 5478655aca51262a070690d509ed1238ee247793, 71fd7572682069353106dbc7e536e7acf351da1d, b6fa7bfdb4a39e7afd5def26a8663e8694285b22, d1014ff2509ca4a48f5b371ba90625ea7a9c9db8, f22e80479a06058d8baf2f9ddab1542c667205da, a2fd770837eb91186412bc7856a18b5166c53064, 799e3dae880e20a66e60af199a01acd0da6ee3ff, 5e4d55bcb20c9b7abda4ba27ee4640564a58cfb7, 3a35d729933fe5fab72cbbf4a78c7907aba9ccf9, b0b0d5742ef6e15fea70a0ec53f022e48fb1b151, fe7afe9695bd93d4ad429e20f85df0cc09dff548, 163e170e4a7d5cde3b9d9c923d0bc58d87b1f0dc, 9c56717ceec8ff7089cb4a45e1b0d35774d4c096, 6d5554e1005865a36c5d23e392c1115dd037fb79, 7835502676f00fdd9e30f22dec94548ab07151fc, 3187489746436ecb1c9072eb8ace766646908b05, 2d476575a3f4d83715a90987a8d67ec3c0dd8c1c, 30420912b720a320d9800f83ce3aa914ab09d3ef, f488cccf1240f4acbd47a9310cfec3c3bbec9dda]","2","1","9f6e9c8c3e98136874c9b13298a5661683b4885a","887cf9227e0a3c53c0d8380f2a687bb201f9707f","608d1faa508087c7333ff60b33b9ad8fa3e17ebe"
"https://github.com/opf/openproject.git","8052","4","[ad19ce4e1a847550bd0c15aeb0f67ce319141276, 16d9d1bd375c684e258116ae67fa0a68f19a2998, 9d6fad9b24cbd6854614316e96f063c048d1454c, f6a36a52770a2fbb6ee7da10b243fd6456f65101]","11","1","ad19ce4e1a847550bd0c15aeb0f67ce319141276","b059eb9785b9f14e6286912966f66f54aad843aa","43cca933ae39b8256e807a2e20d54f2cd0073398"
"https://github.com/opf/openproject.git","8053","4","[7cf2c9ea796e26064cf4543b5ef85af48e9d72e2, a47143de7f7429c54511994125503e54515ffef4, 26c8c6c06487af4bfeb567f47573f8b19ee67ac3, a84df5c01a75b68b94ee3a90c8b90a5f219bd568]","1","1","7cf2c9ea796e26064cf4543b5ef85af48e9d72e2","43cca933ae39b8256e807a2e20d54f2cd0073398","fb87e32a4350d59d01a52c388b89488ecbdfabe6"
"https://github.com/opf/openproject.git","8057","8","[1458ddf100b066e0bfb0b007fdfedb8bb1624f70, 5bfcc2ba400b3734f5458a592cf70c37642323d9, bb8eb9d2c730105391bfc05c9b548a8e5079f4c9, 84c9d1d28ecc496f0c08e8497118ce606d0b0db0, b3a5e1d0b1a907fe4948ad45b795356616651277, 45fbe5144a9447b2f4a61b1413dc0780ff974ee1, 918ba016648455619d67036860fbc10425d32fa5, 1c5cd9ad0b781d464accea5181d708a0a1421327]","2","1","1458ddf100b066e0bfb0b007fdfedb8bb1624f70","d712d20df94cbcb7079c40c55e7faade2a6e4dcf","735e9f338a52fb183f3957917d0a4d9482a4c3ef"
"https://github.com/opf/openproject.git","8071","15","[904d11eb03f428be7c1ad816cfd5978b855e621d, 442ed6f43388000d7fa779501aa06c0adf7805b3, 2cde500464730d22cf5aa89d19210cf9e9198858, e7b2d75a2dc58fd29f0827c2e307c090db0314e5, 62c353579e34955a239c7d067253be3bfad195f6, 4c94dfea273bf837ec6bea6c01d3806216fcfa29, ea66b5bfc5c23c107f78f58612c81612b0ad77a6, e2c32384ffdf998cc25ef70eae02de0257a3663d, f0ac4f32f43ea1e86662bbf02a4c7a520c3d37d5, 87d9f6134ddc6ed5d3dbf4eeaab7a9b57a493064, 87717b2ba738b731983f5264bb7f9316ebae8b31, 696f88015ab58c531c80f864400d44912dc03802, 1b9d578907c173ee2bf7978fb4d8fae573952b3d, a39da4c148df1b3ec753013ecd78bf77945c9e6b, c2c4bbb18f2a677fc3a88b5425bbe8d1f312c910]","5","1","904d11eb03f428be7c1ad816cfd5978b855e621d","9d4a715c1055f4aec626c82f52ac930dcc817897","25cd72031fe24a1611675243d40203c40c5ad891"
"https://github.com/opf/openproject.git","8098","27","[c4859bd2c97ef1abf07016a3274e2daa06f57974, 514e3d60a84513ea80f36e1c39edfaab264d14cc, 563d489ce1d5b6b7afcf914708136ec9fa08c1e6, fb2d847b1a03d8aed95e76e5c5b072f14614e2e9, 76e5761ee6f1684dfbe30d095e3587fa792d5dba, e4ec72f2c5651da06603b7ad48f407a595616ba0, c5cce2ab099d340ed949c65be7b08bf38d332bef, e76ca54ad54d08528a613673b3ee29e47b3c6cf1, 8842f75b1e86f7a3dc7bb97c8bfc056aa163aa1e, 7248778ee0291fd9e7699538fb1cb9a17358b75f, 1b612fbe938e4a246e92b7d775cab8bfb3f32671, 97f9817b3949d08364d184410e94d29cfbb5f63b, d2de9a4661aaafbcdfbb502b4ea01be6709e6bd0, 1cb831877b133ff4a5941a1399fb61edce3baaf3, 1d4c1b06d82274f4c6b98c461f916f45ea440465, 0fc4eba164fbe122a8923ac85aa06e3554a08c8f, 4b6c2c1add305c206b1d02fe3e036a2a07a42a61, 8946047e998a4a8b2d5825ce9c926ce5ea0d2d4f, a40a2a22e351fb6fd6641c8fdaf3b9d853b21f33, e166e857f514528a2f8bcaf7d22a98fca50956be, d36d89adfc4ef4d52f260523dfed1db2f7dae512, 8b90f94b1178544f6fbc5f6bc8baa2862f399fa6, 85f40173c63b7b39d76b767a6b0017b1e7aff90f, 1ee1ad995f2db5ff7f13bb64a5cc2325a340d34a, 1ea655f2f1b72afdb61bf4f8343f0fb674ca9841, c8fbad860ac4b45ccf2aa608f39ebac466f16f94, 331dc7940822bc99930f07d1e4e4279464410e4b]","44","1","c4859bd2c97ef1abf07016a3274e2daa06f57974","0c5cc181521d8904accc879e9e5401e30c7d8cfd","1fc0c62e5404bd5125a97c87a914cf070afd7317"
"https://github.com/opf/openproject.git","8104","5","[c3bbd64d91f4f4a06833ff00f11b1a33bfdedcc4, 78386ceda356bb9b20c0fc68277ced430e2b1b7e, d04f6323b5de4cba11543daa29dab11307781158, 384c36e8463aad018f02b19c2c463c8f39392494, 825f42c3b984b33b99d6b4bc5ac112bf431fb416]","11","2","c3bbd64d91f4f4a06833ff00f11b1a33bfdedcc4","2597405e38dc62b147c94ae943675b6732832bc9","8d58524bcbdb32aeece5b1cba4bd303014480e4f"
