"REPO_URL","TASK_ID","#HASHES","HASHES","#PROD_FILES","#TEST_FILES","LAST"
"https://github.com/otwcode/otwarchive.git","1140","2","[c33df437c539cbc21229d5b2477c4630bbf93ff3, f01d4d71394a4c932358e049f19bb3912e0a822a]","9","1","c33df437c539cbc21229d5b2477c4630bbf93ff3","c715271476b08500315e7edd77f2c2cceaf246bd","749c5e23f1a8712734369175316d41afb4fff260"
"https://github.com/otwcode/otwarchive.git","1148","3","[ce640c18e3724821ba72480b4d315220a6ddbd55, 947fc583a3f8c44e932dbe5a8705a9c4c2e8064a, 66e573ac4ab1f3401536fe650239680b3dfcda67]","2","1","ce640c18e3724821ba72480b4d315220a6ddbd55","985860b8741cb474782f900d8f4c2b04a85d15b6","ad670d9e346becaa5f91232b7016bf8cb52591df"
"https://github.com/otwcode/otwarchive.git","1149","7","[252cd662602c24ca5f1b954ea14777711356d531, 817220e970594cafff7135de799fa22821a943dd, dc72f0cf573d4f186e920b941f270250c5757df1, fe6b4423c8796cb98f747cd20168c77900fa7f96, f1e83850cac7e83fecbacbf9b8c9d999c3859880, 1770a3e94edcfb717b20ac635a14af163599b4b9, 3338b96c09dcd9a4d5b7d21e02d743d729042e5d]","1","1","252cd662602c24ca5f1b954ea14777711356d531","ad670d9e346becaa5f91232b7016bf8cb52591df","708f17f0e1e730b54b1dde7d14812e89154cafb0"
"https://github.com/otwcode/otwarchive.git","1154","2","[dd392e43d77b699c3abe3b8d7938dfda3fa028ac, 1f7e1c2a9261224a80815d7e2cec81c1b2847e4e]","1","1","dd392e43d77b699c3abe3b8d7938dfda3fa028ac","749c5e23f1a8712734369175316d41afb4fff260","7c293e323b2e52120dd83334dd50588fc5e17b3e"
"https://github.com/otwcode/otwarchive.git","1156","1","[4332ef9a6554103814e64368a74fc44bf620f8c7]","3","1","4332ef9a6554103814e64368a74fc44bf620f8c7","1acc68461eee61a7d369919e0321dbe35b5b332a","e685d9aea258847d64ada72456f90ab8a02b548a"
"https://github.com/otwcode/otwarchive.git","1157","1","[82e3b8d0d9cf5accb8cf047046060bb4b0d5cb7c]","1","1","82e3b8d0d9cf5accb8cf047046060bb4b0d5cb7c","30a5dc21f0efc7da837f1c4ba80e0415938607ee","a563e31d43cac3010a92a73fc8528e74dcecd089"
"https://github.com/otwcode/otwarchive.git","1165","1","[8ba9d6adf6c30cd4992e120026d08abd438b073a]","1","1","8ba9d6adf6c30cd4992e120026d08abd438b073a","7c293e323b2e52120dd83334dd50588fc5e17b3e","97dbd66129457ce2a1288b5d5fb0bd4e5ddf5748"
"https://github.com/otwcode/otwarchive.git","1172","3","[7472476cc9dd10f31fad31d76e693d3ac75078a6, 34d26d64359a424f225e07c9b27461a05f197091, 062bcca72bca9f689455b1ab7f452c644793ad15]","1","1","7472476cc9dd10f31fad31d76e693d3ac75078a6","76de89ed18f2c84c59bee2296bec3f85aebe9c36","c8b6af52f7f09f4b2a99c77bca334a00f4c81abb"
"https://github.com/otwcode/otwarchive.git","1174","3","[d3279619aba95a003a3d6a08b516b60f0468a35f, ae399b338b797e73555dd824165cfa124bfb7135, 8a7109f2cbbe9647fc549b47afce8805ee4184f4]","4","1","d3279619aba95a003a3d6a08b516b60f0468a35f","d0aaf1eae8dbd952f27ea0821b33a247d00770a9","0deb3213cf9f9b3a24bc4cd94a94dec2c66239e6"
"https://github.com/otwcode/otwarchive.git","1176","2","[289b48f579e442c35b9c09afa97150e380792290, f3c51a12bcd07e97b46bebee151ed61f527f535b]","1","1","289b48f579e442c35b9c09afa97150e380792290","b4685946c77c333d378d26bb47f82b0d7f3703d1","1026af3ff7765b70c7f89243cb88be75ff52489e"
"https://github.com/otwcode/otwarchive.git","1177","3","[790c4a71f8bd22dce82c2b11de31147fb7154967, 7c30ebab2b642fb27e8f59dd4290dc967866c7f2, 7d989c6b4a322590a667990c1c8c7f0b7106c0c1]","1","1","790c4a71f8bd22dce82c2b11de31147fb7154967","056e11eab9e8b2fb20ec73f220a201b092022de3","0cdebd514c0fff11bf3dccffefb433d3ae36b62f"
"https://github.com/otwcode/otwarchive.git","1179","1","[2bb50d01333bf4da51af071286680ce1901a5de0]","6","1","2bb50d01333bf4da51af071286680ce1901a5de0","2605480feb7d1682fa7b6c1e486052aba29621a2","e213ba3d192ed61e46bbefac08d7ea4d137047ce"
"https://github.com/otwcode/otwarchive.git","1181","1","[363bfc943625fc35f24a7abf985a2c1616df003d]","2","1","363bfc943625fc35f24a7abf985a2c1616df003d","e213ba3d192ed61e46bbefac08d7ea4d137047ce","329096304ebf9e72e0595741b8d3b2445dbf1a08"
"https://github.com/otwcode/otwarchive.git","1182","5","[99b1bc37e3e60f1ab592ea6ac3bac4a754314663, 11dd5f26f1bf93c7f774e509f8222443e230140b, 9099537b678d0b399821becac6e61e370db6703c, 9096e0f677622a3afaa7ce6f9fee77d40d2f0f2f, 186b5dff866469031fed8c906630737d8b525506]","2","1","99b1bc37e3e60f1ab592ea6ac3bac4a754314663","0cdebd514c0fff11bf3dccffefb433d3ae36b62f","a12c73d9cc7805d4f79c10e5fc4d18247debfac9"
"https://github.com/otwcode/otwarchive.git","1186","3","[2a9c16c1183279685b87f99fcd69db31dfc836cc, 8ee8e3b082f6124575637818c51934f1b5e7959f, 1aae8ba07948f9cfdccf72a45821621494d3a594]","1","1","2a9c16c1183279685b87f99fcd69db31dfc836cc","7b5837d6c238d75a9c4811829f897ea22ad1013d","5b34fe047bc8d5d1c96ba07e5e094a0dd636e14b"
"https://github.com/otwcode/otwarchive.git","1187","2","[1bea1b2c25d2d4b0ac4ba8376028e053a38cc1eb, 760703f5fc11919ba468c8dc0945198f170a5dc5]","1","2","1bea1b2c25d2d4b0ac4ba8376028e053a38cc1eb","654691557b23bd7c04846133c7738db5c0f9022b","1e434a8f890227e4c44d4cd57a4bcba6233913cc"
"https://github.com/otwcode/otwarchive.git","1190","9","[a3d136f5d9d0b765e797d2eea58b716e6e743376, 2d01fa97d6361a60f53d2628c198f1e13bad85ab, 4e6b86a2a47995846f8333fcecdc3c4100636c4b, dc817b700b0fb96255cb2ab2012208320253b768, d9508d4de423385876fc968b4878b4931807d538, cbde088bfabf7883df19463b380a2e805ce3395c, 3038e610da6a5f40714d43ecebfbba0156c2a16c, 4d7d127b4ee12bb484bf01a742e8d1726d5a2103, 2c6d71b90a687c69626dfbdd6771db568144e6e3]","3","4","a3d136f5d9d0b765e797d2eea58b716e6e743376","c61a45b2bd05072bda6ebd8164a2fc1486a50279","ee8992429ca193927cb865c5ecd9afc7559d0d49"
"https://github.com/otwcode/otwarchive.git","1201","5","[d6a77664a377ed47ffcdb7d24204da349c95e648, 03cc68ac07fdf9e6f907dbfa060c1cc265f1ee60, 112cf4dfd0818ff42acdc7762e9e6bdece45459e, f20c26b0832f7d7bf45c4b172d6261209e382858, 1c5717079a252c228b958a0ec2934a66ee1405e2]","2","2","d6a77664a377ed47ffcdb7d24204da349c95e648","5b34fe047bc8d5d1c96ba07e5e094a0dd636e14b","b377124a341debb4662338fc02b326b45d87f214"
"https://github.com/otwcode/otwarchive.git","1202","2","[d60c2e03d37f344f1dd0da854bed9659565f11a6, ec75a03173d0361f915593d07cebc8be7a0e793d]","3","1","d60c2e03d37f344f1dd0da854bed9659565f11a6","6b5887eebc2ac5f9d7a54e4dafbf62d9689f7e37","a3edc49c4efd29bb1d8e442b17e6a2d2effdc0f4"
"https://github.com/otwcode/otwarchive.git","1205","2","[c9cabe4c66a4175e4595820a55a2e158b9219cd9, d1fb7578f44d43243b91068087783b46e67b97ef]","1","1","c9cabe4c66a4175e4595820a55a2e158b9219cd9","b377124a341debb4662338fc02b326b45d87f214","1dd9cf808c6bdf1a57d46cfe54a517401e45e543"
"https://github.com/otwcode/otwarchive.git","1210","7","[8560e929d9711821efbe1083fb5ace6aca10a0be, 5f1d4d1bc4f1f1e9df28f24c9bfb5f3e07927eba, 5472f689d3130bf354e4fe2992294faa1dfe87b2, 0f37bdac3098e4d07c0557eb6151f53552f7a494, 0c2ea615eadf21d58abe7a31f49780833f917668, 56d9c19ec81b0e3f5660901656b9337ff73f406e, f722ba460292a04f66f436fef6c78b4e864d952a]","1","14","8560e929d9711821efbe1083fb5ace6aca10a0be","3a7d7ef21e5f4113227a804da7da3ac5eb2b0ff3","708f17f0e1e730b54b1dde7d14812e89154cafb0"
"https://github.com/otwcode/otwarchive.git","1213","1","[e4293dbff1c89166918694e538c4548a342ad9af]","1","1","e4293dbff1c89166918694e538c4548a342ad9af","3852aab7396040eb5384f4b81ba4e778a6688bf5","c09f7cebb4b7f67dac77cc92857a2a87c0ed7bb0"
"https://github.com/otwcode/otwarchive.git","1219","1","[48232cf1db23d7e175689b840236be2a6a7d6494]","1","1","48232cf1db23d7e175689b840236be2a6a7d6494","c09f7cebb4b7f67dac77cc92857a2a87c0ed7bb0","846486fc230ae5b4b40553330dde183433463fe6"
"https://github.com/otwcode/otwarchive.git","1220","3","[7d76295080c10292adc38231da146e2ce08ac163, c4c4a2f77670742c238c26cfd2a6fbb57a2efa57, c7dbbb969b08cae7249bbcb9600cc0da4d2c8db9]","1","1","7d76295080c10292adc38231da146e2ce08ac163","b8512cb585c502a5f3f9a14743a2cb24525ac3b2","ee8992429ca193927cb865c5ecd9afc7559d0d49"
"https://github.com/otwcode/otwarchive.git","1222","1","[29f9d9e55360e6fad62bc021dd30d673c4f6c647]","1","1","29f9d9e55360e6fad62bc021dd30d673c4f6c647","5b975cd309f163ae5330868bd10e4dd671c0184a","cdcd1ec54c414d079eaa29d7cfb423e388ce2ab3"
"https://github.com/otwcode/otwarchive.git","1227","6","[9d4dae79f4f3d22e2ad53b9b2f96201783d96263, 37bda29fc7bc8c683fdf7750a1c298828ac87a7f, 1292baf88bcd5fcedca6efcb932987ece9b7d1d2, 887a60c67cf0ca86a70e3d141a4f43fa0aebf3c1, 31c26980da5dfd87b54e3a6d329179866b6879e4, 57f558ca507f071b81f3775f4ce8e2059ca2c3dd]","3","2","9d4dae79f4f3d22e2ad53b9b2f96201783d96263","04704eca392eb57d8f909033df0c23676949fed7","708f17f0e1e730b54b1dde7d14812e89154cafb0"
"https://github.com/otwcode/otwarchive.git","1228","3","[b5024dbdfd3cb7e2679ad1c5f5000d464aea7f06, 0b208627a96b20df2cb3dbb5ccb878b9cc0e5896, bf62a11f2b98f94ab3a9b60dcc5c24d151a2bb93]","4","1","b5024dbdfd3cb7e2679ad1c5f5000d464aea7f06","f2c615e59737bd58af24de8961d7960252142a0b","708f17f0e1e730b54b1dde7d14812e89154cafb0"
"https://github.com/otwcode/otwarchive.git","1229","8","[2ca89af259da6123102adc1e1ead24c335b00bab, ef3c973a3d16703596d6cd848ea2ac4e9b975459, 42ddb9df4da2d430dcbc3f61965ee3e45771b953, 948390239483a14fb2bef99a22c6df37a1b2e9e2, 12aad1fc15f2c0e9dc55f990236c106dea2adf91, 05b24226c7b16bb12432d3a122f16af110c72d6a, 5b497a4c713a7fdd93853cae4587273f1ac9b988, cfeb61be2e4bf8663d46370244c099d9c7aa09a4]","4","2","2ca89af259da6123102adc1e1ead24c335b00bab","7118697387e57e007e07c97e2ec64b2c446f7ad9","476e942a38a10d77df29a17323d4ed2a44f6d00a"
"https://github.com/otwcode/otwarchive.git","1230","5","[c879e17be68108024297a84fd6f70ac22aa4025a, 28a9587f1f98b3f5f0e3113c52b17c545f3edd5f, be17581c5bb9688ab884b0c2b190c8fa7dbacb6a, 53176dc31b5056e172e7c7f23b2a2a211b7ba461, 2bc2299667712e6066b839b94213527ced9ab229]","2","1","c879e17be68108024297a84fd6f70ac22aa4025a","ad312c503837290ee629109654a7229c9c564365","708f17f0e1e730b54b1dde7d14812e89154cafb0"
"https://github.com/otwcode/otwarchive.git","1231","2","[7185df2c3b13c64fe643c7e93b576d420daf4919, cdbb2d93353e2977d652622b8a0b4aed0cbf7bc9]","1","3","7185df2c3b13c64fe643c7e93b576d420daf4919","692748cdcf28bd5b4a69a8c11b3e5b82162f432a","48c0868a98666d089c2492aaaf997c5062e280d4"
