"REPO_URL","TASK_ID","#HASHES","HASHES","#PROD_FILES","#TEST_FILES","LAST"
"https://github.com/otwcode/otwarchive.git","2516","2","[70321cc0b7aa7b839bf806d61c4b1441abaef3b2, d4e9d5ad0193e1ee048bb0164b86ccdfc699a93f]","1","1","70321cc0b7aa7b839bf806d61c4b1441abaef3b2","d0b5260f8f78dc5b524c9ddfe27ed82160f7728d","64c6c7b0e4162fce85ebc8bf4a4452d222c791a5"
"https://github.com/otwcode/otwarchive.git","2524","6","[6dae1fe0d7b173afdec2af4d395967420baa6c68, 71be340e728641ee899770801503e1800090f4fa, 7b1d871b091bb0e21f51440178833c152cc9793c, 5a07bec68b4ffd73a48ee6fb0dcc7fc405aefee6, 369e50ed34a8a998af59aa2ea083bd002dc05d49, 30ce56e1bfae28a951e6da08c98c608801f620cb]","6","2","6dae1fe0d7b173afdec2af4d395967420baa6c68","a3c2d0726ab1f23cff9d115f993950a66bafbf7c","9660b58830a182eadfc273ee4bca15646dffd88c"
"https://github.com/otwcode/otwarchive.git","2525","4","[b00766dd5900c91c02ace2e09629f5c14b7661a3, 2c5f0fcc8fc833c543f8e32951ae68922e2db4a1, cd7b27f18934b6721a6a408314e8833fa52f662e, da4f300cd8b11f8fa5263738c6714ce3174c420d]","5","1","b00766dd5900c91c02ace2e09629f5c14b7661a3","2b39930ba6150d416c17f9e5d221cdb60ad9b7fa","ec6888254cd4c0ea67f683195b41c5de3b73547c"
"https://github.com/otwcode/otwarchive.git","2534","7","[01b217610cf6077de6acbcee6690d8f6350ef30d, 66dede684f0599169e49d5a4d581eb14902889b3, 069a9d23493c1ae1ec8f40b6ce4284e746a87c26, 39323cb8bb1b80e6de55285fb8da4e316a54e778, 95a2d8405ed10e6d10b6bf7346c2a01736d81d48, a61c63fd05bfd71eb57cd4ba38128d067697ea6c, 336d78dd545d5fc28b6211054003418b96c3d98b]","5","2","01b217610cf6077de6acbcee6690d8f6350ef30d","09e15d73d5b20e72b85534680d25f51377b2a0c4","fa479889cc45640ddf1782406414d06047a29053"
"https://github.com/otwcode/otwarchive.git","2535","5","[0efefef2807ab1780372a031bd0d1915c2698471, 6e267020018a27a6dfc7d432969cf08054c61408, b39c8e9f4b8ccef6be899c3de6b8902d5a3d2da3, af10c545a18bc15fc14fed4c2392b5e68fa071db, 4d1008e79ffeb9d43e63e9ed40c3299aaeb1c1a3]","4","6","0efefef2807ab1780372a031bd0d1915c2698471","137e280c6a8ae4d2a38ec53ecd005355949a5016","fa479889cc45640ddf1782406414d06047a29053"
"https://github.com/otwcode/otwarchive.git","2536","4","[7fd9c167e54d889da604b3831a2313c98b3ace5f, 0428c8a1aa23cacc79a6edbaaa653e1ae96625f3, c580d02f8a58d18ba46e873f9cebc7680bc39e5f, 733c70f9d751aea93de4e87e8279a5a2272d8e26]","2","1","7fd9c167e54d889da604b3831a2313c98b3ace5f","137e280c6a8ae4d2a38ec53ecd005355949a5016","b39c5c5fb829a5a5827b83e2e2ceb95236aa00f9"
"https://github.com/otwcode/otwarchive.git","2538","2","[6d58f895694b818c271a86a69c10405f58ae7c98, 3c0f980329be0451a29fe0179f0e69d4e328957d]","1","1","6d58f895694b818c271a86a69c10405f58ae7c98","e09977de05e584e9fdebf08821b0ae5cce8c42fd","720e644d12a12ee8833256a69b73a45889232d60"
"https://github.com/otwcode/otwarchive.git","2539","15","[92c04256c77036b39479935e69eae059a00e990e, 5923e5c85a87fdedcc0f3d536dd1199a7c1ae0ab, fcba8141b592c4c8d8014d0b8c7ecf2bb7a42715, d41528619f33616b7fd0120545ae328429027e2a, a4e088228686f733fc8cb034002fb2d6cc6efb00, 69453d880a2e59200a201778ac44a9d14e5504e2, a4f81783da336599f6ce109631addc57ca52b348, deb264e6ab415455b0a191b803ce96e8b62a7728, 37e8b0636e72a4cfe123390b512bc35646c95d27, 70a69b51436a8a26d551b917a3598a9da9941cc5, 0d904752637c1c6c64a394046b39834c7018cf36, ce689e6fcad78cfd3ead3fac0e385a507b2ab1b5, 47334c6ca404f6afdd7f47a65f116bc66fce0639, 44d0a7f02317f3356286824bb6ae825c3397d91a, 9629497895fab33a4b0b7eb2c9d489da92727e0e]","6","6","92c04256c77036b39479935e69eae059a00e990e","e09977de05e584e9fdebf08821b0ae5cce8c42fd","ec0f4646cd65101cee812d4c56edafb6f1fe0acf"
"https://github.com/otwcode/otwarchive.git","2543","3","[18ba5b44b79ecbaf6598cf528b46b0e959763aed, bfdc52af85a5595d50e3be362899269e718005ab, 8f51529707853c586c99526e1e117a2ab4cf4282]","1","1","18ba5b44b79ecbaf6598cf528b46b0e959763aed","7ba49b92c90263b0da63bb8aee1441f666e079ae","a0f5695a7344afe35236ad375154df330245d415"
"https://github.com/otwcode/otwarchive.git","2546","4","[a353bf9a620eb82b9de10d16743f16a5af3f8232, 95121f65ac5382b5a24992a18259b99beb128c4a, eca884d8b8a483b5f834e11a91a75533e9d839fd, 6b711dc7afbe8a62df1bb07a8c46eb56b6057472]","5","2","a353bf9a620eb82b9de10d16743f16a5af3f8232","4eb5849a7c21099bcdc30eb65f0b69bd7b597ef7","20651879a0ef2702795cd60e7f9ac8354de6ab1d"
"https://github.com/otwcode/otwarchive.git","2547","3","[ab5d5f3f4c59d745fd0eec984361386235125d85, 06a9257f336ec04298e6e2fa03dcda284c1bf4fa, 0b2e6ca68f430d090f2e33e8d83b39606759245e]","2","1","ab5d5f3f4c59d745fd0eec984361386235125d85","dd0869751fa861b9b86774c95f7b8bfe41df6d4c","91abc62513ce3d7fb87a55ff9d80f240af659029"
"https://github.com/otwcode/otwarchive.git","2549","1","[4bc088fd34dc5679bd2e195c47f3c7375edf647f]","2","1","4bc088fd34dc5679bd2e195c47f3c7375edf647f","0bed856185a8ed547f6974bdf688d015d5791cb4","229a0251f763f69970ebb7ba64aca1f5dd5f0cd1"
"https://github.com/otwcode/otwarchive.git","2556","3","[c8bf62eb028a738c50f2d6c35778b3846e4468e9, 81b3b22ad2809e401b40bf0e5787b87c80b080ed, 5e879d817243301d86a200ae64aa21846e2cbdac]","2","1","c8bf62eb028a738c50f2d6c35778b3846e4468e9","229a0251f763f69970ebb7ba64aca1f5dd5f0cd1","91abc62513ce3d7fb87a55ff9d80f240af659029"
"https://github.com/otwcode/otwarchive.git","2557","1","[3aae119fc5141b765242b2e398628ca00f202fb5]","2","1","3aae119fc5141b765242b2e398628ca00f202fb5","5ddddf88c584929cfcd18be6f8473b811b6302c5","908ef21c75307b58ed7c33921b77c2273ff73ad4"
"https://github.com/otwcode/otwarchive.git","2560","7","[055d213341f26ada2f1649c0e44234e30774e9ff, 8d1acd5e1eca6882b3b9b54fe566564bc77595ea, 2b941c66d97d572c6f56b22f8ac281dc28f7c4be, c2c6a0e0346495b5071197a62df566e9f2cf5444, be50f29115b768dabf855f8c7fe604629e023dc0, d571705538c7eb679be40d931bcc71c122daeb3f, f7b2916b0f1daf9bdbc21eec1b615c608530d348]","5","2","055d213341f26ada2f1649c0e44234e30774e9ff","92f6c27ef2d0119528cee5fde1297f9c98534eea","534a1541bd29d52cdb1877dad2eeb207b7c59e62"
"https://github.com/otwcode/otwarchive.git","2575","1","[abea2636725351f383b4ba80bf81b361d088f8c0]","1","1","abea2636725351f383b4ba80bf81b361d088f8c0","74c2d9628965288877486729e0df49f06be6aad5","18dab6e4bc01b97029514674222c50df378b3479"
"https://github.com/otwcode/otwarchive.git","2576","5","[18dab6e4bc01b97029514674222c50df378b3479, 922343f73d33b6df4bf4ec73ab4b2e2872aa1bd7, c111fe3e5e792c7c7e8fb50ae4c51c6313357faa, 056836709451ea05bfd4d2dfd1b1eb1fd34117b7, e09678de565a5eb261ef5f940bd5660aa7a1544f]","1","1","18dab6e4bc01b97029514674222c50df378b3479","de7d523b0d61f08baa90264f1726e49362201241","908ef21c75307b58ed7c33921b77c2273ff73ad4"
"https://github.com/otwcode/otwarchive.git","2577","1","[87a2e15248c85f0a62575f02cdcd878858d423d6]","2","1","87a2e15248c85f0a62575f02cdcd878858d423d6","de7d523b0d61f08baa90264f1726e49362201241","908ef21c75307b58ed7c33921b77c2273ff73ad4"
"https://github.com/otwcode/otwarchive.git","2578","1","[2490f030f706b43c6ac2d193b3eeccc6f7e2dfe8]","1","1","2490f030f706b43c6ac2d193b3eeccc6f7e2dfe8","908ef21c75307b58ed7c33921b77c2273ff73ad4","6f737a5efbdf0262b8d63538fbc023556c87f0c3"
"https://github.com/otwcode/otwarchive.git","2579","4","[6451af00962422dd1440ac53a650aea738b02fe6, f108253f062909c09cd5e28da637a3bd781c1521, 648e7c857714c558617bffb75b19404983f0d53d, a35bbb8486068a8041e736540a5c9f9104ea0dd0]","1","2","6451af00962422dd1440ac53a650aea738b02fe6","4783a22913b3e51c329e57a1c346e25f97d0feeb","8a286b32c9c2aa5b8bfad08917dfbd0a0cfb4e3d"
"https://github.com/otwcode/otwarchive.git","2580","4","[29d80033f490531e6df4508c40943039811ec093, fb1927934331eea6c9912e266b62da3198d88397, ceb0915b7e44d8458d1c71653104b89fed6fe6bd, dcc52d12a399cd2622bec018a5dcaa6bb63af831]","2","2","29d80033f490531e6df4508c40943039811ec093","8a3853a21df2e8a2e887ba79d3c8182efc94f831","8a286b32c9c2aa5b8bfad08917dfbd0a0cfb4e3d"
"https://github.com/otwcode/otwarchive.git","2584","3","[bda4637e5552fe19391430eb6744b2bb1587d5b2, e03af84ef8e234a3aa3e75580c48de7def18ee6d, 13d323e4449845100bbe7b41097628fdd74a2d68]","1","2","bda4637e5552fe19391430eb6744b2bb1587d5b2","6f737a5efbdf0262b8d63538fbc023556c87f0c3","3c77395bc55093eeb2efbdc94526fcd135520e48"
"https://github.com/otwcode/otwarchive.git","2587","2","[71d924d4fb09f413da8e432068aa3609e2813f92, 1ea72ee203da94c1bff8513f6ce0ebc04473e84b]","1","1","71d924d4fb09f413da8e432068aa3609e2813f92","1304c61dd0a02cc8eedd1b6585c2dce3813c514c","eda8edb0f7ee5b43852d2b8484323ada54fff32f"
"https://github.com/otwcode/otwarchive.git","2590","2","[cc232c22d8289bbb14dfdb9de2014306799b4f83, c1f882306f9e5047fb886daf7335278f2c3c82aa]","5","2","cc232c22d8289bbb14dfdb9de2014306799b4f83","dd27d36302eb704a851cc0bdcd6b299d20924ba5","eda8edb0f7ee5b43852d2b8484323ada54fff32f"
"https://github.com/otwcode/otwarchive.git","2593","2","[e82b10e3ee5121b849f3a1bbd82d06ae3264938f, 447d97df02b776de339a23ac0dd1efc7b46afb50]","3","1","e82b10e3ee5121b849f3a1bbd82d06ae3264938f","937d277d4d89c9093c298e8e978f55715386433c","c52deed38d080870d27781a50edfdfee3681affe"
"https://github.com/otwcode/otwarchive.git","2594","1","[c472881eaab6876ad3457ebb631b0558c23c8d9c]","2","2","c472881eaab6876ad3457ebb631b0558c23c8d9c","9143d17a70c1a246e4d6e0d77912a0559b96e0fa","dda6d3a0fb139c5a10765ffa304fabf3df1dbf78"
"https://github.com/otwcode/otwarchive.git","2595","1","[f078ac913d07bcf9980dfa88612dc2f81d4b1ff7]","3","1","f078ac913d07bcf9980dfa88612dc2f81d4b1ff7","75bc2a1d7c5155f2f67c7a5d32a12ebced2d43d3","0ace24209a36701e3678f95a5ba68cd5f4fdad1e"
"https://github.com/otwcode/otwarchive.git","2598","34","[0806e723d50150b4fd37ee6a1fda0caa62533b18, 205de2d940a8d586eeef55be7c32ff0278af77ab, a6f6054af36fff222bd84d4070620fc72efcc4c7, d962e5a8f1aa59e193cb51c74afdb782100dc53e, a83c6db8fa229cd0c6420c0d36953afd0a763d37, 6d4331756b6b9bd1b8e089e5fe62baabdbf91bf5, 194172c6bc41db845235e4725d8ea57b7e700851, f0fd2c3aff967f22bb8055ce83537fc54fcc9093, f0af05170fdcfdce18ff01beefe7f96ca79f7de4, 3d4dec83abffcd96f099d1a399fddd46b0db94ce, cc831d322793a4e57388ebd2497b7baae837ca3a, 367433c2779aed1441a222c2a93d0fe736e94512, aa211fe67983e2ab633ace262268d246b4513485, 85790b21529ab9acc4ac1153adf5382d1f13e375, 746ac3a0b664045ee26259fe9496c5aaa06e9613, 2c75f14c85087e46ff24703399e6fba4e822b4c4, e80f52ad3305d2abee3aa787182528722ecdf267, c2771494f033d74a23236ff53345a205c51eca86, 33d265bef87aac8b86fb7e67a9d78c563e44b74e, bb982fec3d45c40012de1ffbe385e73627fd9f06, 8f8e54ff49b6eb568c598767057b24af7c5e8695, 6594be2e81188b9f77d13a8c205f76d8cab08627, c2bdd225e569b470930c7411fed1ed60c6408554, 7dc5993eafd717631e923b9a8d3bb228d1656d36, 51d8c260714c7839475d6a7c37e5aabcc6df9617, 7d02f0925ec6c7390011064086c30110cd160115, 99f478bfd5da68076062719d189fba3bb2c81a63, ed9b2f28136dcffe9eb87525ef68c3aec75a62aa, d71d6b2499ef980c06a2370565e01d6853a2077f, 3ccb07684d67499d0e8d1225900e2ac737f2da4a, 2124210874c7db006134b59d0f0f0a400b95c617, 64699d605b8045fd43a7535c8abaf01be900f741, 4f496b28b47994145105c3013637b73136f24020, 31b2ad7e7233fc01dd194f727bd583a2eedfc996]","39","12","0806e723d50150b4fd37ee6a1fda0caa62533b18","0ace24209a36701e3678f95a5ba68cd5f4fdad1e","c34e00ad6a148291ca6169b38bf6ef8ffa765a98"
"https://github.com/otwcode/otwarchive.git","2602","1","[565a676e3e527b0cdd32b529aa6a32e8e361580a]","1","1","565a676e3e527b0cdd32b529aa6a32e8e361580a","9b1f9194771469fbb36d16893b93d2bbe0883336","dda6d3a0fb139c5a10765ffa304fabf3df1dbf78"
"https://github.com/otwcode/otwarchive.git","2603","1","[ade24036c99ddfce4cfbb22611428827480ab6ca]","1","1","ade24036c99ddfce4cfbb22611428827480ab6ca","dda6d3a0fb139c5a10765ffa304fabf3df1dbf78","2e9794345cc7b213e23fe25cdbe460bc4c99b28d"
