"REPO_URL","TASK_ID","#HASHES","HASHES","#PROD_FILES","#TEST_FILES","LAST"
"https://github.com/otwcode/otwarchive.git","2030","3","[da403f19bbaf68d6514fa2c785cb40ab61859989, 06b2cacf2797f5285eca24f822511e534a3461fa, 916d442065f805a4ae52f339ca7d724488c4716e]","2","1","da403f19bbaf68d6514fa2c785cb40ab61859989","133a2a0b0484a2a3cc7a0d6d5e3629e99f5e8660","5845103d900bf8fa6e516e5fa143a2829ad9bc54"
"https://github.com/otwcode/otwarchive.git","2083","3","[be322c12fb1db9ee6a72608ff0bcb26b3c543c6b, 64024dd39fa1a104efbfc45243816e08622e4ede, 9a4cab9d4e0319374f411c718e7c37cccf4d4530]","4","1","be322c12fb1db9ee6a72608ff0bcb26b3c543c6b","6d10dd4f61e2c81d6c8ba48318602e34c4d58874","743b89cc4aa4e281859687cd929e42fc6c53bdd8"
"https://github.com/otwcode/otwarchive.git","2087","5","[82402e12610199c0e10b15c85db86796da9b8835, dabd1762133a2516de001ce77e42a2265a8d8e7d, 35d63eae3c8362bf9cb16a7ef11a753a3b798a68, 56386801ad93b0cf4548198d61720f2fcf95bfbc, ae91ad88fd10a4f86442ae591444a9d1d4064bb3]","1","1","82402e12610199c0e10b15c85db86796da9b8835","357db1107cdf64e38708a085f1db516d9b6da563","5c9e68a9f29788c1cfe3dd56265b7155e01d7be1"
"https://github.com/otwcode/otwarchive.git","2124","2","[adfec8dd5d4622ff62259a32213e2f187567e0ef, f19c6e15a617ab66b189fc635b28fe94b81a4890]","1","1","adfec8dd5d4622ff62259a32213e2f187567e0ef","606a4972de46162326c11710cd3ce938cfca96c5","911d7d314c5fe73954ba1b0af5e9cc73bff9c610"
"https://github.com/otwcode/otwarchive.git","2152","1","[fd28c61fe4e57b9f531c34a946440190d8cd5ab9]","1","1","fd28c61fe4e57b9f531c34a946440190d8cd5ab9","2d578a0d9ff2fa2d9ab03d9aabf282101500243e","20e1f75bcaa7fbbfb3a4426c2c5583d947b87f46"
"https://github.com/otwcode/otwarchive.git","2176","1","[3cb81bdfb7629b1785a6690fb7a0ae6bb82fcad1]","2","1","3cb81bdfb7629b1785a6690fb7a0ae6bb82fcad1","5b81cb693f56c8b5a842c901035cec03bab2e78a","856468d8d14b0146ccbadf5620a10592b4728e75"
"https://github.com/otwcode/otwarchive.git","2193","3","[bf48565994dcfebf9ea43e4e4eaaa3546c9e0a59, f3d84ef35b3a706f468780b02f4374cf805ed207, 658c35b3bf1aabd788d26a0d331cc10d064c5a2f]","3","1","bf48565994dcfebf9ea43e4e4eaaa3546c9e0a59","33140518fc9b8a273829b72903cdaf1c7417f875","80aedbc77b67ec9d57df71eb2436073fcad55559"
"https://github.com/otwcode/otwarchive.git","2215","1","[b25728363c7778fe37002b50309bbc88bafc949a]","2","1","b25728363c7778fe37002b50309bbc88bafc949a","5872331358e1ee0021babbd5bf46d1c191f5d32d","67f9da5ab8173c3273ee585647a6b5f11f40d981"
"https://github.com/otwcode/otwarchive.git","2234","3","[e537efa913502dcbb42dc56fb77789e4f68aaee7, 33e8136eece85fba1ea88c62a06e28e5f100ace6, 3124e9b7e14e452579e5981f8c2ca505c8fb7015]","4","1","e537efa913502dcbb42dc56fb77789e4f68aaee7","c7af15e02918c9117cb73d6e13bcc184a1c5ffbd","1c3ca888df672d8355057e431a7f5be96128d3d9"
"https://github.com/otwcode/otwarchive.git","2262","2","[99eb33512610e73b11f57cfc8f6bf4f5d7d92208, 0c3ea98972d36c0741d7be7a9e954c6034a8f1eb]","3","1","99eb33512610e73b11f57cfc8f6bf4f5d7d92208","43c69241b784afc8e2483d69f2d43cd84bcbfe10","1c3ca888df672d8355057e431a7f5be96128d3d9"
"https://github.com/otwcode/otwarchive.git","2264","1","[871a6c557627c85d84c2f5bc6dd0eb0702b9aa97]","1","1","871a6c557627c85d84c2f5bc6dd0eb0702b9aa97","9bbef85742a4b9b957a8a97ec2a10421560db6ed","1c3ca888df672d8355057e431a7f5be96128d3d9"
"https://github.com/otwcode/otwarchive.git","2268","6","[de0979d3ad7e6ed20ebe24e9e3e8b3095c38f8c0, ec60c1bebe8b210f574cf2b5c5469235a178a8a3, 5bdbe58fc02fd0e46ebb82dc86bc3bced1aef261, ad8a1831c77706edcbd769c01aa7f7b8ab82f5bd, 364ae06c3f815eb797b2fb02cf1168c1c6b1c344, 768a043c1eb973a2d55d8a306c71be07439fa094]","2","3","de0979d3ad7e6ed20ebe24e9e3e8b3095c38f8c0","4f944f18a058f175cf528912215cd33cd9939b11","856468d8d14b0146ccbadf5620a10592b4728e75"
"https://github.com/otwcode/otwarchive.git","2284","2","[682d210b54d5c02296a8e3758aef5deec5dabf5f, 5760aaa188b355d4efee9fb7b69b2624cdb1b913]","1","5","682d210b54d5c02296a8e3758aef5deec5dabf5f","b956e695a67553ce02db5355c48e8228d0e44cf0","e8266595230bf08cf504d96b96080ca40948e596"
"https://github.com/otwcode/otwarchive.git","2322","1","[994259731106eff82c898fa2bb370f3d2f6cc000]","1","1","994259731106eff82c898fa2bb370f3d2f6cc000","8a5b064131fdad4e5ab101eb2f966015139070fd","28b101d4bdcaa1125d89d9a7ba3a6123be188aaa"
"https://github.com/otwcode/otwarchive.git","2332","2","[5328503ca9bfe65353b0f4a3c3e9f6189925e608, 9fd4e3bd8226ae0467a1d213ba48a110f277b81c]","2","2","5328503ca9bfe65353b0f4a3c3e9f6189925e608","0773e68293ab6a9841e2230444f9272130ce31dc","e2fd4773586e288a6824c466ec48a2f71217fd3b"
"https://github.com/otwcode/otwarchive.git","2336","4","[e195ee3643c917e180f09c619d4ebbe027077402, 3fc571cb6d9bc2c13973d809546fecd91e8a17d1, e42d6eccff5debbfc3ef85cd88f413bb229117eb, cea900e2be83d2a897c8ec1b967cade016c3a4dc]","5","1","e195ee3643c917e180f09c619d4ebbe027077402","c88b5e4bc5938ec7498b6032205e715438438b9e","827e1e4d0e01a9e2ea74e0dd440ce2ec47814bf5"
"https://github.com/otwcode/otwarchive.git","2353","9","[71946a4a46b55b1b0d0c78c8d67da71dfc4c38f0, 5920b0c3beb09ec14239e6ec50845cbb58a35c9f, a60e2ddad58bdec9f9348929b62784d2e923b2cd, ee2123bd86e3d4fececdf8c272b41f0797099a1d, ef7edbd2a173922807004594d5782ec915d74285, 7c6ea86f0d72fa7ce63fbf313c3d5c07427dbacc, 26355e8eb03cf920bc67ff06ed6745ddb302a417, e67047864a05cd507261e2565fc4b76f919fb6c9, 51fe77cd1dedae08d06b817ae2f235e4062e506a]","3","2","71946a4a46b55b1b0d0c78c8d67da71dfc4c38f0","f59edecb36282fbcbb63eca8274630383b8f725c","b6173d885e954b19ed9908c34edc7f545451e711"
"https://github.com/otwcode/otwarchive.git","2359","12","[eaef1bb4519f6803985a6f4def86c603fa618f4d, 7fa8e67ec46293c87458ade43f5a9db06f97baed, 265ca2375c256b1bc8bc1256b06618c3eae037f3, f4a8375bd1623096228f42728c3a7026693814ec, 07bd51c2a2d12144230284b97811d60b01148177, 993c3d2df368d44351e098b8a02a22a941d0f791, 55e1b7a2efef8d06f9c471f334a2248cd3778384, 4367d5c4b7b4d7aaaf4de5a052ffd17347c2f943, fe6cbdd44c38e652051ccf5b79e23ec99b6de42a, 1e271bcf00f8a17861a914b6158d550b02a5233d, f7bdf952df3176b5489c0ebc96783c2fbe76595c, 93ca661b6f0f47531512f08d742a58796fd53743]","13","1","eaef1bb4519f6803985a6f4def86c603fa618f4d","287ccecd9b6de2056e14917e2a3b6207174c0655","441359ff497549b867ad3f20b4bfa4101c3ba25d"
"https://github.com/otwcode/otwarchive.git","2364","9","[54430d44bec24b48dc6667dd72733107d9ad1d92, faf5b7bf5b5458c733fb191b173d460491848b77, dc4fe379bdfebcb65e752fb4b4382f8611ae72ff, cf03fda1db094f1adc2cd6f397d005e905c50bc8, a7f83d57493f602a321e099cfac17e04d2c6abfa, fc779b6a366bf44634f001c618f54956d2ba747a, db4e04114d842107914f0531f5e4a08c82224f0b, bc7f5558401e886fb4bb4a45119d6a153518ea07, 70853403e9c0e1a6f70daa1b4406cff68ef14368]","2","4","54430d44bec24b48dc6667dd72733107d9ad1d92","38ec0903e22ad3fc7022a30bb188790e1f6ec557","70f2e9ab42b7ed999fcaa5f02d42a61c764192d1"
"https://github.com/otwcode/otwarchive.git","2370","7","[7d59d8c5ce5490f8e826f1096a3a40cc61ad9a51, c76340c3f6f2d8d7a6bef3daac69b843ed695071, 386d375d88237f24d0e9e1ac418039935306c3b8, 6288fec2eea66a0e1007f88ed3e033c42d8c8c90, 4b56d6daf5c8a361f0548313eac47b7b473c5144, ff41e80fec9b5980ec39ec46c92fd41888567bf7, 9e05ea707c8a700b709635bfef9b5ae8646511a7]","1","1","7d59d8c5ce5490f8e826f1096a3a40cc61ad9a51","f99bbb3bf7abf4c1d72b44c703c0a08de975b714","63d9bf23a0be635b595f67a3051ca06bc8f7214a"
"https://github.com/otwcode/otwarchive.git","2372","4","[67a618fdca67608085f21c2b39c531d2f62e973e, 3481e92a4fcc1cd7381a9e6bc16ee9a1b2dacfe0, 1c1f34be729782904a238d2124ff6cd62d45dec5, 6b4e2f7775c3cc56341914e58af524909f4b5886]","1","2","67a618fdca67608085f21c2b39c531d2f62e973e","f84685e255b6d9447af649a7d7654c966344ec0f","db364e4e4936b412737d9475d30940ffd90fc05d"
"https://github.com/otwcode/otwarchive.git","2376","2","[78baf99acca53887d8edb03aa9ae202d588502cf, 1820bb32002a336edded7802d3f679985705150b]","3","1","78baf99acca53887d8edb03aa9ae202d588502cf","ffd52421de804d48164bb4c07c69f22161726471","0c1122625f64161ff42fba156cfc5409811d9867"
"https://github.com/otwcode/otwarchive.git","2389","2","[d0dd6b138971a5ab51f56db873a98af54ea7c6d0, 9f0d0fca287e53f3303cf08eddd89dc551a12b9c]","1","1","d0dd6b138971a5ab51f56db873a98af54ea7c6d0","c230b1c3cff5fe46f2d1606c9b47be7f86dd634a","0c1122625f64161ff42fba156cfc5409811d9867"
"https://github.com/otwcode/otwarchive.git","2397","13","[e10f60ed4cd7f66fd74af7f6ba4b323c5e2791a0, 4447855f628668f3e6688f18a8da4bebf6f5f364, 2326ec6252e76564d51bedc96d96fbde92c4f7d0, a89275b77c30be15ec508f30475eb76c743fde42, 8d3086bf6a376f277d3b35e54c11b91831a740a3, 334cca6655f536efb2e57e28c5e823c6c0924219, 1f1607334ab9edb28f915d2fe8ab0f10efd6a3df, efad2c7b9e481e94f69cb313d084371b60b76e92, 310887bb1278c9ca50d86c2834ae60ab5444e1d6, e40e3982cf9fee0a9b11982e274ccab7ba5f1d76, b787f4060a5ac47422b8a562bc550471cdb667e7, bf7ed6e5d97843a4d4faa156dbd7e079a605ae0f, dddafa10e9d950b604ae2c26b5ef51cf19fb231e]","11","5","e10f60ed4cd7f66fd74af7f6ba4b323c5e2791a0","48146872da39384e675a0db022cfa3f16aa5e6eb","2b720740dbec3b6ff9f4a040f961415d69ae9a64"
"https://github.com/otwcode/otwarchive.git","2401","19","[352301e30d58c60e8948dcf907b854a7c2de6589, 7f4746a0a203dbbdc43a5ff79a5383e57765f6e8, 8202acfbb4a41ec6fe7f639d119ad3313db058f3, b588f8f5660a32625b5a066a94d5286d64e83b4f, 52e5d4e3459261a4963041245c6f33d22706da6e, 37dae0607a4bac24a939a4ec3225f4d48560f85c, 9666b6ce8dd0c186cdcd6469a1c2f41c8d2b2f5c, bccc9f94a3a88c84e29a6d5b23f0d773cf3f9cc2, ecc3b877efc61b6fad28fc6d1ea618a7a7109c03, 6ab71901032df06fcb8719be070d1dd28d2b951d, 97da1a4dd16a7c11b497216e47fba47e431a0390, 40ddd825b348233e5e1a728324a2ec2c8426851e, dd915796365f6bab97df96d91e3e50bf74390da4, 42ef5c3f5a9ff0351c60c91d1d88c50cc10b15e4, fb65d2ba7cd10289f368ae327cfb96ed1231de0e, f0b4e1c297aae38b57a2321120018f9a0a11252c, d0fbadd10ea27c363b27fddc224c21e0fb954c06, 38a3773ee56a2fd0077a415525ebddcb4e09295a, 89c3a337ff825db6e84b2a6a9cffeb02236c8ef9]","1","1","352301e30d58c60e8948dcf907b854a7c2de6589","19f4342cee4111a0288a4b1326bc9c1b43be248e","ab87f7b21221ff4c04302d6b44035a9754dd78cf"
"https://github.com/otwcode/otwarchive.git","2409","4","[9701774d84eaec92b6a27b8e6b97dfe063621788, fc0bd58f88ec0f4f1000ce0cb782827d6ed26de2, 38a3659a707fe65ce0b56f767329a5ba390fa023, 8eb8a501bf1a4e4f689b27747f8194be2952aa93]","2","2","9701774d84eaec92b6a27b8e6b97dfe063621788","c1b501123be3f7b13afdc78040099039f6fdb26c","54f0e607c58325be04b3d798b884eca884775522"
"https://github.com/otwcode/otwarchive.git","2413","3","[a918d45322c31ffbbf194fa82083549da5bdfd59, c4a54a4deecb2d68a95a37dce18236b592d5bc8e, 3eed84245b390c577e4ac3efd33e23c659d40bb5]","1","6","a918d45322c31ffbbf194fa82083549da5bdfd59","18c8c65ce8bccb6dff1bb5ef0a552d097bae1dd6","9aa763a2f1814308f6f157fbc27a72d158932041"
"https://github.com/otwcode/otwarchive.git","2418","2","[65274825bf923f9ecee0ab537427a7c1c7c17a3d, 27ded49ccb0fbe85df31156c6be1ba7d9168f164]","130","1","65274825bf923f9ecee0ab537427a7c1c7c17a3d","ff7e8f726f084b525a000c4197b59d5e0daae1a0","151cd790e7508a47b695d70314efce4b454763bb"
"https://github.com/otwcode/otwarchive.git","2420","1","[0c7fde3313ec2b094f28afca5eee3fda14ce9cb0]","47","1","0c7fde3313ec2b094f28afca5eee3fda14ce9cb0","151cd790e7508a47b695d70314efce4b454763bb","2e3e8e5660b56c599ca5a8b0e67f58da644f990c"
"https://github.com/otwcode/otwarchive.git","2421","4","[d61229e30004329b59d7d410dbe79f07bcb9d827, 509931feaefef1ddf5dee7d8fa2e339614f0b79f, 5bde5e6cc02493295477da2a0b32da18c03163c2, efe280543ea106f8c2f0bc7deadf38c542d47e10]","1","1","d61229e30004329b59d7d410dbe79f07bcb9d827","151cd790e7508a47b695d70314efce4b454763bb","e94cf5fa0cb802e0b09e3461cb7e80b65752ebae"
