"REPO_URL","TASK_ID","#HASHES","HASHES","#PROD_FILES","#TEST_FILES","LAST"
"https://github.com/sanger/sequencescape.git","743","24","[55a2fe66e88fb6961bbf241007fd4c775af5a870, 750837af1a9941680f2140372b50ae1116f9b677, 48558f47501c9465d468c0f23b8b56b01640d3d5, 661d1e13b808276a2d9f17f5d160c50d44bef007, 05fbdfe385b0566c285e83374828bc7bf434ad43, 205222bf1092b402303ac69f696a6f28b5400a99, 0df9505151dcbacc8f1cfd2780c30315f71dec13, 90ae38d41229aa32ec2073c14eca00b8ad5dae0e, 39d088ad81234d054ed25d72bbba144b8e63d38d, a65283e7efcad5fc7be47e50eb5ca5eed6a61880, b8dc387ea50c4cb97fe1cb848bb08efb8defdc7c, ee07851fbed653eff77b2956fc1e9b13b48e9a37, 0c90423622b1c2ee7447157b88889c561cc132e3, d843bf2367fd060a20c16acbe3594069448674d9, 4135f56c285a33562ec59189f02017e743ac4fde, 492410b136b544dbb41196c12adf783438a0ad46, 9a55365e9c0f06f1bb7df92ef553f943348c0c2a, 2d1e123a72cecaaecddfb67f0aef453c6205786f, b13cc96e1b8370c3b3845086080d5cef2aa296b7, 90d98b70bd0f56a3577e210a60a2a46265375f3f, 21fce3eccc347f2c5dedffd824fc0ffa43788c98, 4ea1a231a37fbbd6294f8b8e61a88cf730369b6a, ddf251d61677e341c72279c895ebf6e87992bfca, 8011d8f223bd7bdbce29e8031bce3b121373f95d]","168","1","55a2fe66e88fb6961bbf241007fd4c775af5a870","5b14d81aa7e44d2b768abf80e20eeba6418416b0","3ea3664bfae5a646a6be7d53cd2f99673a28b261"
"https://github.com/sanger/sequencescape.git","755","7","[c67748c6da4a01ff98be82457346d20915d20216, 32b3d40de8d55f867d1f6b5f514791442daeff79, 1a4ab85c8677ff44524a9a2e721361b97d2f605b, 695882dcc5d803511a0f17f08e5f695a10a46afb, 95783a88cc6c329db3ecf4042647d897507cd5f8, 372f12fdfdf1fdde7e0d1fbbd7ddf770ba6e17f6, 9e4f5d57662a74fa5972a31dde58c622e6381a7f]","17","1","c67748c6da4a01ff98be82457346d20915d20216","8f5095fff86107950b0a6c8f3219dfdbc987557b","e39d8da60ec3bde5c14ff515ea0d401462d92a63"
"https://github.com/sanger/sequencescape.git","769","1","[4bfb24c6b91ad17eee94cf18d33bf80285382e9e]","87","1","4bfb24c6b91ad17eee94cf18d33bf80285382e9e","252f51b1898d89034380d0594d8a60288d852334","5740be8527dcc4fe6f370b7e9d2d11a79b8339bc"
"https://github.com/sanger/sequencescape.git","772","1","[b7237f00e31b79d6980a221bc8b5f4234b69b8f9]","28","1","b7237f00e31b79d6980a221bc8b5f4234b69b8f9","7dc0901e06847bcadb195f76c7c33796fd581b28","b28c12b76ae6518aeb7115b90862a58f2ac5a02d"
"https://github.com/sanger/sequencescape.git","773","3","[4f704bac94db5aabe6019f58532285a3105e1d64, e26a674763b74b1b4f583f74b932e62f305995e2, 1de936f2853bae28b5221a136c2838f5e36de0c4]","1","1","4f704bac94db5aabe6019f58532285a3105e1d64","7dc0901e06847bcadb195f76c7c33796fd581b28","ab743bb366b94d9bb835ab54ced0bfc730a1a7ac"
"https://github.com/sanger/sequencescape.git","774","1","[5740be8527dcc4fe6f370b7e9d2d11a79b8339bc]","86","1","5740be8527dcc4fe6f370b7e9d2d11a79b8339bc","b28c12b76ae6518aeb7115b90862a58f2ac5a02d","3d1ac8f080facc946a07172efa49195d2ab5f538"
"https://github.com/sanger/sequencescape.git","775","8","[7e2249fc77b572c44c8bf1e59a67db9617f28881, 128df9ca75fb22c17800214317904a9895db88f5, 1cf794e1710e6f3c002fe36e338214257f883035, 18a4731f540c6dff0d6d85f8884de9c0db483508, f88828d8e1005298e942e2d8650cb1b7318cc099, b7f0913f494e428059a3a040bcdb38eb135ff201, 5d8b06cabae04b211d08da36607e27ae1efa9ad8, a4136d1dfc2d7b8272bf9e71075bd03dda07e34f]","47","3","7e2249fc77b572c44c8bf1e59a67db9617f28881","3d1ac8f080facc946a07172efa49195d2ab5f538","b39b4c0973e390c963b8dd501649df67fbc1ebfb"
"https://github.com/sanger/sequencescape.git","776","5","[64d39e5756d378ba003379b17c543bbe466d94c8, af8e622b45938557f83ff265889b8b381dcd3552, 194e3a85cd715dbcede04dedb88171bc02b01b90, 8af0de2dd7b09d43723cb0f845428f268c6a6483, 176d169fc0f20dd63bcc015d73044f8721c12643]","29","1","64d39e5756d378ba003379b17c543bbe466d94c8","18074e41e9ef83a0c03a2b67b9030aafa0a3a0b7","247f907e05872b821df1a1222346c368c3266742"
"https://github.com/sanger/sequencescape.git","788","1","[55628472409e7ba7a573c46243a85c6eae79a1fa]","48","3","55628472409e7ba7a573c46243a85c6eae79a1fa","963b1c23974074f529ef5091d82b2c5363da1570","551369ea9111935d118bead794d424e961664881"
"https://github.com/sanger/sequencescape.git","795","8","[d2d4bda4fd2f98154961d1bcc36925aff92242c5, c067843c359b893a07f69c4a2882f8add41a3d4a, 3d0b5b38c793b678b1954c2e390d31d512ac5a6d, 1a82a81788fa1e0ae0065babba1bc8cbefa32034, 7734dca5647022e19b6f7a9b227563910906ae83, db8f1218c1f81f06b9da8c7e9e2e564967394574, f871c4be7073d9dbb235029ff7494e0e157d438d, dac01cc9e53aa56fb4053398290665415b76e0b0]","9","3","d2d4bda4fd2f98154961d1bcc36925aff92242c5","551369ea9111935d118bead794d424e961664881","70273d72bf181613c9f9d43b6bc204011dc3ac43"
"https://github.com/sanger/sequencescape.git","799","4","[416a8b022cd58d5cdfb3927d78cb589cdcb13895, 2869a04aaf9fb05cd14d9123bc0e74aa7063b60c, 0c8fc7c85bcd6ff03405a4cbd22107601c4fba96, bac0bc0a27e672003a6a64e47cf030fe3d6c038b]","40","3","416a8b022cd58d5cdfb3927d78cb589cdcb13895","653b7a4f9a7ac094ffd35dc1877c96e49a0bf89e","37e6b79ed9af5d40c184e94be53f535732876189"
"https://github.com/sanger/sequencescape.git","802","1","[3da51d0da4b5a50e559c2dd845bdfaf2486cd21d]","10","1","3da51d0da4b5a50e559c2dd845bdfaf2486cd21d","ee03557a16fb0d68e88e82bab0322039649728da","98a425e625a6898b3d896d08d84c52cc92346cce"
"https://github.com/sanger/sequencescape.git","809","3","[f4b3834ee3ab70fca1c036c16b396f7898caa921, 48b4beac97afc441c0d1e2c5fc7a23d8ff18b8b7, 14ea314d0463ee723e62a7f5b8534361617d56c1]","10","1","f4b3834ee3ab70fca1c036c16b396f7898caa921","74789130cdfce179c0f6d9eb527ee9b5df751858","dffefdbc93b1cb198bbfae3d75765d137b2d0820"
"https://github.com/sanger/sequencescape.git","814","1","[c0c43a0cc07aa4fefa882bcf7d05c073eba7502c]","37","4","c0c43a0cc07aa4fefa882bcf7d05c073eba7502c","c7bbb9458abe7adafdea50992574b8f58625e91f","afd796ad668722e97982b051b75e47ec2663d42e"
"https://github.com/sanger/sequencescape.git","826","20","[29ef7e6f9d9592d4356b7b702f52db5d961ebe28, 31932b12f3a23f58c8eb344e2e633dd7d230e5e1, 8e9fd7104d73bb32d7d32263fd14ba3205ba6211, 6f6938cb74f8704833f380db333e34743d9b5d91, e3c6efc5c65d7b91abdf98830668759617a79b4f, 77b594ac961f5c85d267664506d6207f96d91da7, 3a1cad1c8bfaad4b6f8e10b796089f8197aabb3c, d2feba7fdab661b8ecd73be41489ba62c48336b7, 7dd7d9d688066c8af8860503a303810bc6107091, 1e20e93b83b01c93c13b1fe63bf6979f3506df04, 2ccc0937db9d8f90d9f00ed6be8b1679daf839e9, 3e343fa94cfd38f23719df241e18b35b90a04d55, 92513b18c9c368facc9c695ab89dbbcfe76d7ee9, e1871d44eab53248cf317eaaed1986f7105e2604, 52ee088e74d088cf77f1b6cdbd2d68b9a5819687, 0b815cd1f444146f4ecd614b7cbbe07c7560cef4, b09728f066ecf245ff2fa39f66c140115bc2579a, b70589c738f4649673ea1a1706a2dadc46e33d75, 1d7136048b9d94c1227e0f8b5be0594a3b23571a, b4c330a08648007854041f31d9971164a404ff7b]","28","4","29ef7e6f9d9592d4356b7b702f52db5d961ebe28","0894957def5450b207ba60d10b04f7b577851941","a52d65842a2d78a228ffd9784be446eca3601868"
"https://github.com/sanger/sequencescape.git","829","1","[7c8ddf241c8ada3ff0da1c04da90ba6e9da80b84]","1","1","7c8ddf241c8ada3ff0da1c04da90ba6e9da80b84","7720725b8669d39418c61d4cc95b76d5c7ed1f00","9e24be0bf9d354ac1447741d2e6be90061e554f1"
"https://github.com/sanger/sequencescape.git","849","1","[95301358c074c57fee7568a3576be8f9819d8494]","1","1","95301358c074c57fee7568a3576be8f9819d8494","0c70d9339da3ce560096432530dbaffcb810d91f","a52d65842a2d78a228ffd9784be446eca3601868"
"https://github.com/sanger/sequencescape.git","865","6","[4d93ada036a8f6611eebe2f43dd2f9eae4311fe7, 7eeb600bef7e5da3558c638c6f20e7fa64f0a84b, e22ddae3debd7911461ea34686af933ec074de9d, cb94f528a51ec0121a3837b7e6c45dbc0fd9734c, 2859215e0258b355b38253907cdc5cb2ead44d75, 5cf98550529f70eba029719dbdfee3864e2b4701]","11","7","4d93ada036a8f6611eebe2f43dd2f9eae4311fe7","6ca0a3896f322901fecf537510c0ac86ef1eb93e","72097706d71cca26c4943159798e853fa39da51e"
"https://github.com/sanger/sequencescape.git","873","1","[24472ff7519a41f5bb612b4b6e087b286fdd41df]","28","1","24472ff7519a41f5bb612b4b6e087b286fdd41df","467e211b04b8f2915e55bcbe4e577653cefcbc6f","78f738228867c97713691efe5fab65ae34bffd84"
"https://github.com/sanger/sequencescape.git","875","1","[cca9d351272b50e04e2c631c27a23a83da0b6e30]","4","6","cca9d351272b50e04e2c631c27a23a83da0b6e30","dd8e0d5c95c44de55fb8da506e35b21fb35625c4","9ab309df87712f7c4218585e6ec764d8fac9a3dc"
"https://github.com/sanger/sequencescape.git","877","3","[62ec78ac40b69b7fc54ef56b7c5d278e922cb708, b43bef9f46828d2fb7f33d129617671f7249af7e, f0be643aaeb2487553f311e578ed7cc2ec536e12]","3","1","62ec78ac40b69b7fc54ef56b7c5d278e922cb708","6749114a1cfe7635f9baf00fce6f71a899940579","f3f4ec15b876c644fee925beb6b128b2ae86c223"
"https://github.com/sanger/sequencescape.git","879","12","[dfc8d06a659c426c83dc21d0d43dce200991ddb3, 84491318278f60201d0eb79b3280d192445339f6, 453d7735436cdfd4821dffa8dc2c0db2daa95d3e, a701190b0f5b300b6ff7c1c649dad36efc22316e, 1592bac651bd87a189558942e954e3289e267c9c, 85241dc86dfa048c0b6ba7d2e5de8792df39a989, 488691c0f64f61236f89776848ea3dbf3296ce05, 2789e000243ccc9abd6486e687cf0701ccd2d844, 7f25e72a90280eb626e36f0e1fb804c1ad5da306, d2d141578943484056a1954b5d88af9dd2b24c3e, 50592067965f4183043b7b5a91e8947d56a574ef, 76c16d546ad903f067119120b9461a3c4524e7dc]","4","6","dfc8d06a659c426c83dc21d0d43dce200991ddb3","9ab309df87712f7c4218585e6ec764d8fac9a3dc","788c08b5d3cfb8c6ac90d4b8cb283dd9eec46f53"
"https://github.com/sanger/sequencescape.git","883","2","[7dd96450e1c2d55622da2d5a2303dbd9c1826776, 75a253df5ad87129ec62c0e1694ebecc26eb5237]","25","1","7dd96450e1c2d55622da2d5a2303dbd9c1826776","78f738228867c97713691efe5fab65ae34bffd84","2fa2cff2618e594b71ae35f324aa591f9e685aad"
"https://github.com/sanger/sequencescape.git","887","5","[9f6e88d6f3f269d6b4ca3ace9636fd3a990ed565, 8af56fb57064740422646bc6f9b525e16e36ce01, f4c099820a5ec2e8eb32fd9b1cd886875fe091a8, 08d77fa38f03a28ab5227509e630df0959647ef6, e156886d075515f1c3705b2c2044920e16dadcaa]","16","2","9f6e88d6f3f269d6b4ca3ace9636fd3a990ed565","bccfa1a154898d081e78c9ab86c3756ea5ae926d","fb4fc7daca5424618d370ac5986c1248ed3259f9"
"https://github.com/sanger/sequencescape.git","889","2","[415d0d983c5969bd64692534a1fd5d89981a43f3, 771dbc114532dd7133a65250a0293def22c79a22]","3","1","415d0d983c5969bd64692534a1fd5d89981a43f3","5c0c219dbf5a65c168d049c168e6fb7ecb23a720","20853cc99f3eaad827b1620cbd7b241d7c0be593"
"https://github.com/sanger/sequencescape.git","901","1","[889ab018a6df29ace77aac55fe995f118f4816aa]","5","1","889ab018a6df29ace77aac55fe995f118f4816aa","6b7afe866ebcce65dea3ec3a2d321e4f9fee7380","85363e939cebb234ebcef1dd5fc9a268f48e1096"
"https://github.com/sanger/sequencescape.git","902","4","[374a644abb2cdaa0430efd4b30ca1ac18f4a49eb, 6891d2fe4c77bf6d6b4b2792739bbda5a32b3db3, d17ae4a981bbb7c9d972f0fc11ab1294f0c02331, d13a302b8eb89a605a78525a8b30a6cd02e34fe5]","5","1","374a644abb2cdaa0430efd4b30ca1ac18f4a49eb","85363e939cebb234ebcef1dd5fc9a268f48e1096","9271d3c02fddd56e4f7d38f3765190ff3285d240"
"https://github.com/sanger/sequencescape.git","909","3","[fbbea4a543fa9cb92d575f49d316dddb8678b6b7, 6e961607a91025808ab41b7bc3122cdaa84a8eb2, 7db665550e49d1b6c1a30ce2b38e1bfbcf86ed59]","25","1","fbbea4a543fa9cb92d575f49d316dddb8678b6b7","e08477a884bae009c679c644e598f29b4b9cf124","357e963db538c30788f13029c9b4bdfeffcf1238"
"https://github.com/sanger/sequencescape.git","914","1","[b747de665bc8e72b1624c882ea6126641032e456]","86","2","b747de665bc8e72b1624c882ea6126641032e456","a0cb9db92416d71efe38698f300998225cd610d3","6e961607a91025808ab41b7bc3122cdaa84a8eb2"
"https://github.com/sanger/sequencescape.git","923","5","[da4089ba12313e4feb5d68b6b1acb820fe3b444d, 85ab78e5bb78e29a429ccbe362ff2aaa9f466422, 29415f26cd2bd30cd6ba54df8bc15f19d086a8a0, 8ba360341371e017611cf5cef11fc333dcb3996e, e1f2ae95710c2f0a393832df3309d5667fb5ab4f]","13","1","da4089ba12313e4feb5d68b6b1acb820fe3b444d","e3ef17db2031ae68e17fc1b08036cc736e6b7227","e087b28a0acaef924a20a2732ec65a90f8e34f8a"
