"REPO_URL","TASK_ID","#HASHES","HASHES","#PROD_FILES","#TEST_FILES","LAST"
"https://github.com/sharetribe/sharetribe.git","20","18","[969d0136f63a5433ee31ccd7c80b9c6a311bc41c, a061e64dcd2cb4eb69c452e3a2d6d3ba23ce696c, 9c2f9534e51335f464055299522808ed5cca8932, b6e4f63f82b28b25d5ca1e03ddbd05d5724e807e, 903d9aab6c11070371ad8e1405786549db1951be, c4abc917e7dcbf268f5c3291a00e1405b8383dce, 45ff66caca8632729a744ecd4f16521b991a0852, 68b8754487ea29a3e801662b3baf43d207c111e8, 662f6cdcd84fba951b75f5a412a24a0233520774, 11177b849702fb4e38eabd9732922df8c0b1be13, 30672f000c1cb9df5480467d7f701625e77db7f9, f5b60e4d78e0394ccef9ea8f43392d9a23b4448d, 35cba5b26ab40bb572ca5472c898491b4da40821, a5b40f11b4ad440509071d8e13496d60a098b41a, d1f53b048f778e5fdb50fdd14a87d8238b23ace6, 3288c003a3e4aaa42d3eab144765fc1de8c0e345, f7a06acb44475e94d4d2c8cd320e374882f8551e, 0ed8ad04617d488adca261eda917d82e3145cdb8]","13","8","969d0136f63a5433ee31ccd7c80b9c6a311bc41c","4b7fd04bc76664d7179c50be0944f4a51bca2eb2","948224284cc081f921d57556ae47109eb8d36a8e"
"https://github.com/sharetribe/sharetribe.git","98","19","[6d00de8d45712059b096ace14353d7062005b3e2, 9531c5f4dff7d1a8d3e1c584604b7d4e0d88f801, ef8e7902111c92228c8857605d517f0c93719623, 5cb3816d411b3780da0014d1e453faefb65da3e4, 1fdf61b0feff258f7cad2fe99121642ee023981f, 9ee7ff3da28c1ee072861e3b70aa6eb9454ed1de, e8ee1b88537a5d2644f2355090e0aaa0a4400520, bdbfca9975a9881075ff0173118e90a28740ecd4, 74cd274c0b3c8a4c3457a0c7ed56e5f1040d7fa4, c324737425c07624c3259c43cc64006b57228421, 271cbccfeb9228c706a31ea6af145de90615e1f9, 31c0cfb13c3e69722681677eb3d199eaeed1bd7b, a766cd954626c1f9308f6f1c83ee4d04abd947fd, 4aa4539a8b372d7d38ecc9806f7a610c76efcb61, f9a5996d9b128c5977810f9f1f0b9df4605f8a87, 35a916381186ab0231c29c09fc837cb0b666ce83, 66c2e0a73ab949485196dce2f6e464ad05b467b8, 801c581621ff16cca6e5e7bb54b1f4fa69fcfe07, 07d7428f184a4860ee56c37438b99f49a980beec]","29","6","6d00de8d45712059b096ace14353d7062005b3e2","20804e261c683f56d8d799a7806b58220e4c32da","d00c20dcd3da2741081a99610fc8949ab4e097a4"
"https://github.com/sharetribe/sharetribe.git","102","13","[3b2c068ef6a5844c21b9942179ad876631b16e29, 0152f42b278db4da9516eabe5f129832794cd9e6, 599ea408819b37bf87d22bd89c7d0731f60b20b1, 320dff1ff155a31d14f13a96d89e0e4d44d08172, 9964b2a95aedc8934123a7d9d21b2b8d71343c1f, e677eddde967a56b22dd21ef98c4491181fb570a, 2e85cdfa1c8bf6b2336364cd8db75bd019e7757c, 14d9a3607b058fc86ef0b591ffb42155c0f96e3b, aece1154b5aa25c22a66ce3348ceb6cee7839ea7, 030b1fe0284f02c5b22a69f9d3ac75b56d549d4a, cf21e3c58629895e1496b31c1af235cebd5a46bc, 8c64718d9139b57dc52c2e35dd9f6d9b8cf9d9d1, 6f1e37237e949b6c5b3394173e9b0031b164e37a]","21","3","3b2c068ef6a5844c21b9942179ad876631b16e29","87a2246c40dd7505bd94680775d43a48b30e30cd","9ed77eef36586a4be4f7080561fc4cd9ca978776"
"https://github.com/sharetribe/sharetribe.git","110","2","[4cc4b322aa0e165657493a732bb02474682cfb78, 1f98a0e0f8ac118c6a72368d62e85b2635ba561a]","1","1","4cc4b322aa0e165657493a732bb02474682cfb78","dccb1a1a63935a7ffc343c86987576cfc51c19b9","77b17b40bce9aeccfc948e935c1d3674ad1e323f"
"https://github.com/sharetribe/sharetribe.git","138","6","[8a7d553bf19d89d948889127c4c163c626c81aef, 85addf78945995bcbf2c2d5b01926c61bd0d0627, 3b615dfa392e36a6bdbca42a46cadff19c40d817, fe6a80d6b4f01944509f7bafbe5f305ff7e86524, 4d2abce6b59ed8f00279c553a36cff2efa33272c, 19d276363b70038e9324b4989ff4951592928d38]","22","1","8a7d553bf19d89d948889127c4c163c626c81aef","a060d1b08b83d7e8d123d7635885eac7dcd515de","8631b46ab16b163958ddfb824f771bfaf8ff1d73"
"https://github.com/sharetribe/sharetribe.git","155","2","[1fa89e3b149f146e2973ebf06ed22760030765c8, a8d49b21c9d9d550b78e897f3d6f658d3c738067]","10","1","1fa89e3b149f146e2973ebf06ed22760030765c8","d673cddf9d90bc9f4207ed06ab41be8be90518ba","b93a3fc2d8a4dd334ef4cedc565fe9bbb7b95862"
"https://github.com/sharetribe/sharetribe.git","157","2","[45b2581c5d0ac136198860e92a21f3ede6f425a3, 2bfdc4a013610446145fdd72ca0d1abfe130bb8d]","10","1","45b2581c5d0ac136198860e92a21f3ede6f425a3","b93a3fc2d8a4dd334ef4cedc565fe9bbb7b95862","542c82c0c421a4b1505d83a9c4d6c3ba44b9aa30"
"https://github.com/sharetribe/sharetribe.git","158","4","[75fe33c1263b7812bba6e1a9c8199883a8a3ee10, c0710be5e4ef3c570592a5358bf75e80acea7f9b, a4ff3ed2f03dc2796ed0714ce02f8a08d8f4b71f, 79ccda8f54348fa888b28d7be95d4c7efb7f4884]","10","1","75fe33c1263b7812bba6e1a9c8199883a8a3ee10","b93a3fc2d8a4dd334ef4cedc565fe9bbb7b95862","4611772a171676ff0c3cda6aeaea0a13444760af"
"https://github.com/sharetribe/sharetribe.git","159","4","[24a79bd937f1c638e6295c6a7f37766a36fdcf07, cd066c09b75f125bd2801296e829f1dfa6690369, eb0f324ffa01b7adb78a2e3806207c4b1bc289e0, ad1a637e5cde89ba1896688a4773f53d8455d25f]","10","1","24a79bd937f1c638e6295c6a7f37766a36fdcf07","542c82c0c421a4b1505d83a9c4d6c3ba44b9aa30","4611772a171676ff0c3cda6aeaea0a13444760af"
"https://github.com/sharetribe/sharetribe.git","189","8","[8d937bca58915b169691adcae63a3c19949f0a93, bb577397b836c90f05768fcdfcae88214fd2cbdc, 2bf945393f03528abf46228f15df1b04f1310fd1, e527e9bcc464fcebb815427f348338e074a9a73e, 187b5fcc3e90615e75636a8fc3591085791a1d6e, 2ed93574a710ba9ca9282b5cebab3fdf1891bcd0, 7215efe454c2e9372af951731f6707fd22f687e1, 53b82e6960199bf64cecadf1eb72bd7b543fe6e1]","5","1","8d937bca58915b169691adcae63a3c19949f0a93","dda7deddd4474b3f4b4951e2b52aa804d5d11067","c603ff7d1553e57409728fb15dab1bc6c76559a6"
"https://github.com/sharetribe/sharetribe.git","190","1","[e0765878853b204f4bc2c31f823ac46bfbcbb4e8]","6","1","e0765878853b204f4bc2c31f823ac46bfbcbb4e8","dda7deddd4474b3f4b4951e2b52aa804d5d11067","e8a93c49e9f3cf2fee4e13f6db53fc4a2047ed25"
"https://github.com/sharetribe/sharetribe.git","191","1","[4aecd55cd508b565b6e42ccf5c7c24e5c15331cf]","4","1","4aecd55cd508b565b6e42ccf5c7c24e5c15331cf","c603ff7d1553e57409728fb15dab1bc6c76559a6","e7296f575c45b83c043c597086659f28b956e049"
"https://github.com/sharetribe/sharetribe.git","196","1","[688f3f7faed8dfb87bfff586a8e55d19228cb9ff]","3","1","688f3f7faed8dfb87bfff586a8e55d19228cb9ff","2cb4806278f0413180990ddf6fa0fce09cda7276","0748ba96411b9642e296e89adcb89b07e776a15c"
"https://github.com/sharetribe/sharetribe.git","220","1","[9c3f3c99d7dc04175b22280acd2d42f9005c229b]","7","6","9c3f3c99d7dc04175b22280acd2d42f9005c229b","dad7549708fd5679e0c42ce229374e59372d9a60","feb7e27466203f7bbf4acd3d543cfefc00a5b4a2"
"https://github.com/sharetribe/sharetribe.git","227","1","[5794a3c008b939037dc2e53466ee11a2f64eade1]","1","1","5794a3c008b939037dc2e53466ee11a2f64eade1","17b76f5cec1bdeacf0d8c836aea9cfb6bfe98af3","b2b62cd01a5442062e4472769698aa77752c337e"
"https://github.com/sharetribe/sharetribe.git","241","1","[9d96cefd5b5df63c2d9da3bbb6b83a56c4904fb7]","8","1","9d96cefd5b5df63c2d9da3bbb6b83a56c4904fb7","50243779f02b3831b9bbd42f2fbfad00e57bc8ad","e7db0d28b566e974b4bb232bc78393d52c40a3fc"
"https://github.com/sharetribe/sharetribe.git","244","1","[d77913b196fca4ef901b98c9dd8e0b7023991045]","1","1","d77913b196fca4ef901b98c9dd8e0b7023991045","e7db0d28b566e974b4bb232bc78393d52c40a3fc","91b0ba855cfdb1bf797a25aa732bc001be4902ef"
"https://github.com/sharetribe/sharetribe.git","256","1","[d02e683b5b05bb0385860c5ef7882ca43aec8f78]","1","1","d02e683b5b05bb0385860c5ef7882ca43aec8f78","9b279b28a9e2eee0f16c5eccd067ec3b3ad6ca3e","7ccbee316a1cb58feb73e7718f8b0c8f0013a39f"
"https://github.com/sharetribe/sharetribe.git","264","25","[66e5b9ee75e00f8aa68446a2366f3af32577bc2f, b6a79538c561f0ed3a50b05ca7a48412ebc0e2c0, 271445fde8289a89228c33a0cccf4e1ad609645f, 469e26b915b2a7b34f99dbcd0f337248855f08c2, c3bead1d355a76c64f73412a88e43a87fe22a891, 3e9e43c969bf4dd85cfd8d76fa462021b5fa0bb2, 653ce9ddf639ae84856b97c3776eea0bc8ef38f9, d9038c27cdaef598fddfa6910623c91b4d4709a0, f6e04d18733ab895e1fee31d1a166dc3745b9e2e, 9ffe46c0ac619ee1a6a56338ecf9f1249da20235, d3cf733a25d87ccdfc94863a4632af0c92f12b47, 3e618d33b0774f0f6eb5c382f5a6388bd4b8924a, 450b539778cd6a9b90f5d132c333a46e13513082, 5ae73c7a37b835f48ae20a785405ea412980c7bb, c0a954b8af42f7d1436e0d93c5dfbe0bc14a013e, 5f3d9e91787ae68e1a79effe73f3449344972bf8, 70c2bc020980a4ea704138bbd51017b42565a48e, 307077e4b8ea48bfec52405785b0c55a52d44f27, 68c2dda00e2e6140c4b5b2bd2c52b4a273ca614c, 15ffae4e45866e52381fc2ea7273191207a0ba50, ffcc1d5e3f5fd3c86f4415db9efc6acaecd5eb5a, ec7b34d8894d57526c78cacfcae67763c2dad4ef, c21b654adb676ea99d73bbb99dc53a9b06bea4f5, 7fcd77924fd7ef723580017e7eb75852de7c459f, 16c7f76d2b9a9e4fc1cc3168069088221f300399]","56","6","66e5b9ee75e00f8aa68446a2366f3af32577bc2f","2da6b6ff833420f4a75817a7235ea17c3355e236","2016dadcc31d50d6dc3e81b960d7e541ac3e70f0"
"https://github.com/sharetribe/sharetribe.git","269","2","[c3612b916de270aa779b508808450da176beb196, c1e50e956069ef3aeabba740a9ad463829196042]","4","1","c3612b916de270aa779b508808450da176beb196","cdb4d214c29305acdf2563bf8a371f4ba484bf8a","04461c2b3a73d94b7daa78ace3b9781889051052"
"https://github.com/sharetribe/sharetribe.git","274","6","[05579c4fe5052ed6fe3b3bf021bee3a315469055, f4437fd88b61a2a8b434a563038559d9fdcd3354, 2dca5686d99a90c6a4a1d30092b9cbc2f944529d, eceaddd084261727206a6895dce32f4cfd8aeb09, ac353bdb3dfd3d3212e1ca23ec7d28054a090362, 1469d41093de260d858754c85ece1ba478863839]","4","1","05579c4fe5052ed6fe3b3bf021bee3a315469055","8a6d1a9283dde653c9902e94da640a6d724232aa","4a09cc0a37362acb2e36e01ae87965ceda3e91b8"
"https://github.com/sharetribe/sharetribe.git","276","3","[2baafbd352f22d78e5335b1d32b2ea3d43e0723c, 46528a3d5ecbf9f8f8197b1d347d92058b7e700b, e1b104707af78c5a896694545fe94df0c737a82a]","7","1","2baafbd352f22d78e5335b1d32b2ea3d43e0723c","4a09cc0a37362acb2e36e01ae87965ceda3e91b8","6e6f9f4fb22f8139086ff54451d75ba446324811"
"https://github.com/sharetribe/sharetribe.git","278","2","[666a1a278a46343605d1276afe787d30de1737d6, 964a12e9c1eafd678606c1f5f21cc870610d0ec7]","1","1","666a1a278a46343605d1276afe787d30de1737d6","a7d7c1c02af73894a622c0591df16b9c3b378ad5","2156f9eb6db41e3a8c084ddca335345936868404"
"https://github.com/sharetribe/sharetribe.git","284","1","[8be7e4d55b2a7834ed2fe473b6e6456135a35e53]","4","1","8be7e4d55b2a7834ed2fe473b6e6456135a35e53","c1ec8d9a03fe51105a2a6e8f1a0b6c764e0923c3","0febe0d79a77b168535411a6a0e306bd0cba82ae"
"https://github.com/sharetribe/sharetribe.git","296","3","[6ae62aa7affdb5ac66c86b2f16871276d6ca5a53, 974cf2bba9bbc0b91d277d41a8f06cd819d9e276, d9e2032292029a919b5d0202f152e805c971d498]","10","1","6ae62aa7affdb5ac66c86b2f16871276d6ca5a53","b88f0daabdadd6f186c9cb50cb467b0582d3acec","1e4eb59a19922f007bf53e9e6d74f00beab5c0de"
"https://github.com/sharetribe/sharetribe.git","304","10","[15a5eaaa8b3ba694b39309755ddf0b3311be9eab, 33e8d0487da02b2a0411586ab3fc5e5a3c80a47a, 1639a2ad1a24d161107dfd499b0effbb6e26c71d, 47bd85a02bd50117dfcc043db9e576e80f08f5a5, e8b99686e426cc84fe65f88afe2afdaaab4179f9, 26bd123365ab8f9372554875f90e04d91b50a611, 99e9bf10bee4277dd606c4328e3ff7e9657772d2, e4ff60f3b01228bcb676275eb9629fab12b7238c, 1e4eb59a19922f007bf53e9e6d74f00beab5c0de, 1179d26c75145f7d30faf5c0cb5788cc14d37d12]","11","1","15a5eaaa8b3ba694b39309755ddf0b3311be9eab","39ac59e2d67038e55e4d2c71138f87baeee19f78","33ec0e9015c5b91f921ef6103fe92b0dedfc6bc2"
"https://github.com/sharetribe/sharetribe.git","327","1","[6e883348a577381d4ea699219bf1dff9fb00516c]","9","2","6e883348a577381d4ea699219bf1dff9fb00516c","0a9f12fec70008074c13db20e190e6d999c079fd","0cf6518cc091a8c5af0da8c901cf1dad8700bc2a"
"https://github.com/sharetribe/sharetribe.git","334","1","[f4a5850e8062227b2e039544e78bde92f66ac50f]","2","1","f4a5850e8062227b2e039544e78bde92f66ac50f","9bb2956faace17f44d2c3d175b7010dd56b9caec","0756618bdb18d9b92bad53dabac4062c8d07f054"
"https://github.com/sharetribe/sharetribe.git","336","1","[69139c94b0c9d0f2f380e9d90d4da72e8e43975e]","1","1","69139c94b0c9d0f2f380e9d90d4da72e8e43975e","bee12f8b9080f81978681740752a1927f6b23b64","0756618bdb18d9b92bad53dabac4062c8d07f054"
"https://github.com/sharetribe/sharetribe.git","351","1","[ac0ec09864ec34f27ba75ffe1f89b372bde7b708]","2","1","ac0ec09864ec34f27ba75ffe1f89b372bde7b708","93e7e2ed9543147ba0acc74bbf8b378fe97d05e1","7e4f003df6252a375e21abae48131624ce3b2b5b"
