"Repository","https://github.com/BTHUNTERCN/bsmi.git"
"TASK","HASH","RUBY","RAILS","COVERAGE","TESTS"
"2","c5e7dd3c586e49eee99f262f4e8ed1f162d0bcf4","","3.2.11","simplecov","features/adv_registration_invitation.feature(10);features/adv_registration_invitation.feature(16)"
"3","a02948bbf21d72cb9cb0b825b71bf2e4aa70f470","","3.2.11","simplecov","features/adv_registration_invitation.feature(10);features/adv_registration_invitation.feature(16)"
"15","4b747125eeb883c3bfe9123b28cf5574a5b72efc","","3.2.7","simplecov","features/one_click_matching.feature(14);features/one_click_matching.feature(19)"
"22","0e863118df3b5cd2ba369a3ff6e78e9d0852fae9","","3.2.7","simplecov","features/adv_registration_invitation.feature(10);features/adv_registration_invitation.feature(16)"
"31","d8437823ff9e718c172088a9bbc508d4ec58d34c","","3.2.7","simplecov","features/mentor_teacher_schedule.feature(10);features/mentor_teacher_schedule.feature(31)"
"47","f66ee8024f4048674f0892d31b5cd3efb3b777bd","","3.2.7","simplecov","features/one_click_matching.feature(14);features/one_click_matching.feature(21)"
"73","b4856cc7aec4b4b8997e85ba2f1f4acf55373f07","","3.2.7","simplecov","features/student_advisors_can_review_schedule.feature(11);features/student_advisors_can_review_schedule.feature(23)"
