"REPO_URL","TASK_ID","#HASHES","HASHES","#PROD_FILES","#TEST_FILES","LAST"
"https://github.com/AgileVentures/MetPlus_PETS.git","2","7","[34f901e059f4569210f5692b6504176e452ce01a, f8095f85785faead3073f8492e49d72f82f97ae2, f63381bbbe9d6b6b1adc7b580210ee38e900e43a, b088c427a87585664629d0e63b35baeddde24f10, 702c556a0e75cc8f96e36889068a43242fc3502b, 6b5c7caf324d3761ccbf1b5e9e779e5193cc74cf, 7422a04a477aada573d00bfd321767daa36512f2]","13","3","34f901e059f4569210f5692b6504176e452ce01a","9bafb6ff7bd3969a0c342e7332ff1afcf9448d37","73060f3a8853cef01faf7075aab0e3c433a9fdab"
"https://github.com/AgileVentures/MetPlus_PETS.git","3","2","[3a1ee8697239fcbf41c75b5626347ed0d5b39d12, 89d22bb4a1e0f124737d8b3e137a63a9f61b02d7]","9","3","3a1ee8697239fcbf41c75b5626347ed0d5b39d12","da59254fde90f094e30e7100b0c05ab5c9a10167","4b48729c2812ae144fa2a7d434355a45fac6cbaf"
"https://github.com/AgileVentures/MetPlus_PETS.git","5","9","[803c2f013359db23020373fcb5be3a41219b62bc, 3ccc204832345feeacf5b7601ac4c3fdb07601a7, c1aa0df111ba61392660f3aff0f84e2465389ba9, 76ddadf3546046e6b3cdff02e65d740f418d8159, 9389365697cd751c2d4f3859827110538ae9432e, 3d14040870bdce93e1effc9d6c45ce48d5119e2a, 8314efe4a634c911e4ec7ca5aad876beda5d127f, f31dd29a3d56fa144bcf411741487b65eed905c4, 20af6e4c35cafdcbeeb4d71fb7d590bbc4f89531]","21","15","803c2f013359db23020373fcb5be3a41219b62bc","73060f3a8853cef01faf7075aab0e3c433a9fdab","0fe5ddbb7f564bad937bb5ec730609229b7479ef"
"https://github.com/AgileVentures/MetPlus_PETS.git","7","11","[0fe5ddbb7f564bad937bb5ec730609229b7479ef, a5740204a4b9e0a81c84577aec4fda943cc7c881, fa4f689d1a0b52036b2c3dd47d4a5baf73f1cbef, 8f6bb087abeafc4962c5034257f7c699a87548e8, b5d5631fd45b54c4d21af2497309fd9a8d79d0b7, bd7f8213c87def650e190ca7014580e59d6a99e3, 6546c2bfcb4ecf15ab548675576b9104decf84af, 418e632ee04bf8ab8510c80a4673de4cc49c4060, 0b50b42cdd7ff17874926acb4caaa51d17f1e507, 6083ba316327400c82bf56ab1f2385df7cabf9cb, e4afef18f9ac2be99f0d245c79e26fc67212087f]","27","5","0fe5ddbb7f564bad937bb5ec730609229b7479ef","7a23512dc7e9b3fd61019c8594a62c74fbd96343","b1e1c1ce80c2e377280cf73c470b06985d2bff17"
"https://github.com/AgileVentures/MetPlus_PETS.git","9","5","[3c38d9198fed93d34a7fb39169a2581a162c9fed, 3796bdda5be07a2c9bdd7f53191345558c1eef16, 8b9f7da490dd9146d609851aaa999087e6a00efa, 2d1fd1d2cc366cf7be5e740d8c6d923d5d2fd26a, 3863e828b8a136a36343f12f6144a23e2f39217b]","22","18","3c38d9198fed93d34a7fb39169a2581a162c9fed","b1e1c1ce80c2e377280cf73c470b06985d2bff17","16c166b276ccf97186b99861fd628a90bf1c8e5b"
"https://github.com/AgileVentures/MetPlus_PETS.git","10","4","[7e7b6226ad8e5c92bf3ca64addbc46bb9d82047c, ce18827dc2f77ed75e7e8bb80a24b1689c3f3e87, 7f466465b61e9f5ae50d92dfea380b9dae0edfe7, cf972e13d996b88a37ef93b99137c8533def7be4]","11","18","7e7b6226ad8e5c92bf3ca64addbc46bb9d82047c","84d6b08796b155161005e0ae473ebdd1de1a08ed","16c166b276ccf97186b99861fd628a90bf1c8e5b"
"https://github.com/AgileVentures/MetPlus_PETS.git","12","2","[8e6ee3c6789178ff4a6653ab6656b85b559230d4, 56c0687408ca4245239ab0b5a9dcda7dbe5d9e73]","17","3","8e6ee3c6789178ff4a6653ab6656b85b559230d4","16c166b276ccf97186b99861fd628a90bf1c8e5b","8569878f5986ca413a535a03354c4e00b3a54f83"
"https://github.com/AgileVentures/MetPlus_PETS.git","13","13","[cc44169d79385df7e44f17d94628821d8ec66387, a95a0f5d4237103850c1ffd2ef0f34667bad15ae, 6800fa611005dfbe7ca4d0942004890eb6bcbc11, fb5c12e8035216cbad472ed04889d6209eef8949, d6b49ddba6eb591f1e79beb9829e592711eb427b, 76b4c376b86df8a4969c873723875a45e6d7b053, dc5e459e19e146e0baec5ed279bb2a85a6a6a2ab, f6f279e5fc400c265b9255349aa5160ecc8d040b, 992541551a878c620b3328bf1bc693a600afab14, 138ee09e38bbb463a57056a2b3d6197bd5bafc7e, a3ab13ab9480ef8c0dcfda0b44ead8e0c86ea840, 34976ffbfebf5188a6397a99a8b0026ae979eb9d, 965c87cad3185b36e43245ea4e789f37d40a8ed1]","20","3","cc44169d79385df7e44f17d94628821d8ec66387","16c166b276ccf97186b99861fd628a90bf1c8e5b","757a4824e8481be20bd719b9fcf881b524419d98"
"https://github.com/AgileVentures/MetPlus_PETS.git","14","22","[9d4b40cc4dc70b77504907674f3c17e085a67046, b0c0918894e77181a1518555fcc18db245e2833b, 883cdfccd55f97e1a918e876f17bbc8ced4ea86a, 565998d87941eacde7c00982ed69d7308c715e26, c4b700821020844d75e63212d8ec8a378b9fd10a, a200b998b9e595b20d95e24cc7201d42990cb04d, b1471ddd3856c11fa380e7da39dc910da97b3e1c, d367d3d0380848c5ab78b6c218720cc224cfa78c, c1644e29c0799b612267ff190a05ee60cf8cac51, 95bcf557d6211e36605bedce4860bd440b2758cf, ba6541a28f2821a615bf52127835c217f6fcbad7, ed89b47f29628c72ff3bd0ecd5cc7fbca4e40fe8, 151605d7553f4d2f24708b46381d7d4676d71738, c297c755f0dd8ca6da532bdf335ef55363aedc90, 3ba24765dc3ab38820061c967b3313d09caedea9, 5368658a8b9e7879717623235a2938fdb1ca9738, 93ecc6258fb74efaa7b2a2d8c68d80e8f894d1f8, fa885e36aa2969e9f2c52eb2fd49a6496dd53248, 3bdb09f3b0bd4bd3805c6a2a829a0e277dbff017, 606ef7a9924b01f34c99601e00b3081b03456e20, 2887b06743f9e5b6ce65abc03de8f089e24bd31a, e59598ba89fb49b2bab31a4dad5e13adcd626106]","34","10","9d4b40cc4dc70b77504907674f3c17e085a67046","8569878f5986ca413a535a03354c4e00b3a54f83","0ab2367706742c2ce1a57f32923f5d40ab448196"
"https://github.com/AgileVentures/MetPlus_PETS.git","15","11","[757a4824e8481be20bd719b9fcf881b524419d98, 8a5a06393cd39c76758a501bfb0318ee66e904a7, b443820f2fad822de10720f3933a2999ea4e7397, 5414a0fc134b30fdca728cd0f99a41c9b19c128d, f3f1767d8977e4035eb459ff0899b193664ff8de, 68fa9d002e83c340edd315ef7203e3c51c94d315, 542d9e740fcc7ef38df6d1501eab59bb3bf59f65, cc61fc6499b2836cbd9d36f73f1ab72efacef907, 55a4f87496d8c760b2116d0547c8e55b7d7a7765, 22f4e231ffc521218b36d06ab2cde5fd2460c955, 538959d2f5954df56f15881d5c7cb7a8f4536369]","27","10","757a4824e8481be20bd719b9fcf881b524419d98","8569878f5986ca413a535a03354c4e00b3a54f83","fb7c54bdac8764acda98a442e2822508c60ac00c"
"https://github.com/AgileVentures/MetPlus_PETS.git","16","3","[0b478349303eaca40bbecb4679212f0c9f3f5db3, c433a8ea0b8a6406de1520987a758ea3ffbed5d3, f1e67138a8cb6f3e5429d6b4e8f350deae57d809]","12","1","0b478349303eaca40bbecb4679212f0c9f3f5db3","0ab2367706742c2ce1a57f32923f5d40ab448196","50b9bd41693c8be0b3565f30c4a32edfa5876755"
"https://github.com/AgileVentures/MetPlus_PETS.git","18","4","[c433a8ea0b8a6406de1520987a758ea3ffbed5d3, f1e67138a8cb6f3e5429d6b4e8f350deae57d809, 50b9bd41693c8be0b3565f30c4a32edfa5876755, 09358de842c3752a4d8a53c9c7a54299bda41d41]","3","1","c433a8ea0b8a6406de1520987a758ea3ffbed5d3","fb7c54bdac8764acda98a442e2822508c60ac00c","cb50a69743224ce4c1304905fdcf3cdc4c7649f5"
"https://github.com/AgileVentures/MetPlus_PETS.git","19","12","[cb50a69743224ce4c1304905fdcf3cdc4c7649f5, ad2e6e5d578d04747d1c15e30a581174f299a3f7, d126b918ba8eaece1e8808b19a6ff866bd409bb1, 4e7573b429f11c1718f3279ec78d51122568fe0a, afc4290590ae915a7896da20a015c0a0c0de1966, c17e45800d1646fb7c7877c42117a9f60c922e3a, 6a1c72117e4f12975ace91080407063db1fc9e3c, 11ff9a1140244bb9fcae267f690f6252d637191f, 693766b4d34e5cedcc22e02dcac2b87c1e351dd7, ef1ee0d3207b08e5a9b78ceffe68c1eb875f28ec, 54655af37628e0b05da8919e0252b068ed82cbb1, eabcf65a377178b88e54cf4bbf3f7631c8383b71]","7","5","cb50a69743224ce4c1304905fdcf3cdc4c7649f5","47f3ff368928926808962ae297b4c76f668f2c0e","f6ccdd1aa68b82158691fae6689cfc7a0cdb4910"
"https://github.com/AgileVentures/MetPlus_PETS.git","20","2","[f6ccdd1aa68b82158691fae6689cfc7a0cdb4910, 6675cf4e8f01da599c88e9d3bafdbd1561727fa1]","8","1","f6ccdd1aa68b82158691fae6689cfc7a0cdb4910","7b868b7684edcc7e99ad7077ef6a18adc6dfa4ef","ed3ba66eaccd6139cd8ddba71169e6f7a8b7f832"
"https://github.com/AgileVentures/MetPlus_PETS.git","21","1","[483e89feb4700dfe262f264370febb6ef8e2083d]","15","12","483e89feb4700dfe262f264370febb6ef8e2083d","e06bb64023071c8c0818ef52444de2895ea2b1dd","508813e90c6bb09e3c02e50e8a9644e9a9cac960"
"https://github.com/AgileVentures/MetPlus_PETS.git","22","20","[ed3ba66eaccd6139cd8ddba71169e6f7a8b7f832, da6c26d49258008835f58a10f995f6ed6efa8e8a, 3d2e3429a063e0153f26a62f07d110ffdcec5713, b37b576b279737bd0d461b6019895f6589eecdae, 0c9f07b72d7a7687c948050edb8cb10b929f7bb4, 7ecb4369357ddd56e3170243cdaf45b935173872, fe8417cc9d5b876829c417d7a2d3463cd5ccbd0d, e8c63ca198cc6d426e8f2b2b182a8ece7a2fcc18, 243d77208f08a0b14d4ae9a86e2629023289aa44, c981ca58675ef34335b9bc5b9387d429a1f028ca, f5eb79b4dfe1e6763fd960e9346abd2723d47fc2, 45fa5725ad7e834bdff3f0a34ba284d87339f7e3, 7b17a6e8a7e27e804e346c660cb631c8549edda2, 6d79e5bf2b39f668a3c108059a92abe19caf9df5, 76906f87446e44e9d6824525cf8cd03ddccb29c5, 3f6af3d229dbae7380434ec91f5656e3ae791ae1, 1c4c9562510f593f275edd5a22013d00b63be527, 9594f2a441fa5ed41a525f5e764c0df6981cd0e0, a6e7c904ba385e300639e767c03acb69baab0ff5, de49db97ef31453da43bb15844e519684283fd0b]","18","12","ed3ba66eaccd6139cd8ddba71169e6f7a8b7f832","e06bb64023071c8c0818ef52444de2895ea2b1dd","508813e90c6bb09e3c02e50e8a9644e9a9cac960"
"https://github.com/AgileVentures/MetPlus_PETS.git","25","1","[3bf759a41183aca80aba013f667641bbecdc215c]","37","21","3bf759a41183aca80aba013f667641bbecdc215c","87b71fa0fb467097016aee3d5c1e8873babd8abd","2ea827837a757c9215ab34c2b6eb978d689848f3"
"https://github.com/AgileVentures/MetPlus_PETS.git","26","23","[0e9877ee51baf194506213d5f1a148a7672bb37d, f111afbf2c4ed5b5278588b5116d4cdf74468870, 735e080bf73c8b01a30d8aee32ae2881b8b65929, ec4edb1259b16c8bfe60af91e7d1cd868cbfa8d5, ed7ab294e9423b33c0a682460630380e38675424, 93e9eaea7eae6e1417cf320ce28f298948f8d816, d9857a1441a4057c48c6560d794628839588f364, 5d11ef2ba00fe0d515c1c5c88cb78046b197fa7d, 8bda08d25afec40c9c7ea6251ec1cd2f7dbd15e1, 939659afe798a2176cd7cca09297f89e00a64074, 9339d1053d60865e6231400478e4383fa1727971, 60cfa7eca6a2d2d855c4940ded5b1f4e59637fb7, 81c9e662c306f3f24623fb9ee713cf444db6a14e, 5511760e8ced9678eae58788d9952da4a9a33694, 6647f5f5eaacf86cc897456ffaf4c04941fbb6e9, 4c7629cf8104237f40aba2d667df79551581c928, 66974fc1e9fcbaed2c8e5753177f16840d87605d, 07f16fc1db22b37d974c6aed192a78a0c37a4b65, 5424e91e1015d2d3a64ae0eb0158f61d6c7550c3, d280fa9e32d730503ef61cf7ab4f0726eee01f91, d818faf929c816e959a1808fabc2bb699e05c833, 7464e665b29ce8a831dd1aa08f9351a420e0a8bb, e2f5e478e7ece7c1b4cb7b22271a0e1cab415258]","37","14","0e9877ee51baf194506213d5f1a148a7672bb37d","87b71fa0fb467097016aee3d5c1e8873babd8abd","f76b3714669fe91601741724d4bad40370cc6191"
"https://github.com/AgileVentures/MetPlus_PETS.git","27","1","[8fd4110991155328e41964ec807423777f197d1c]","2","1","8fd4110991155328e41964ec807423777f197d1c","f76b3714669fe91601741724d4bad40370cc6191","82e5a1c415a5f2fd018946a6cc2e109d40d80cbf"
"https://github.com/AgileVentures/MetPlus_PETS.git","28","6","[17b8e45ee03b887d4a1533324718555205b1afef, ddeaf874864d48337c066b334b8a093270fba41e, 0a0a0815afff742db8a2aea563bb5b18feb24733, b939e204bed64f8c919d05c6b0cd9528768a2566, 1c5bd4bde3ac5f79c05fb026966b6492ff596895, 3015e56c9ec95cc7a48f7b16010f84d230d74ecd]","7","18","17b8e45ee03b887d4a1533324718555205b1afef","65f0a1066ae3f8c2913ea9f24fa3260db97fad63","3c7b1c40cd48e67c8b3ab3eff4547952fc91f47e"
"https://github.com/AgileVentures/MetPlus_PETS.git","35","4","[8eef4e19cf5ed334af427a355d768e5d0912a4ba, 0a54d2a716e2442c0784c657d53b5114402b41ca, 4a9e63541636a73f6c4bdfd573fe71c5d1c72837, 8fc1a51ecafa672887d6e0f182bf5681208c591b]","16","3","8eef4e19cf5ed334af427a355d768e5d0912a4ba","096bc8591bc7414fff0d27d9f6f8a15ca12cc7db","0d53a61339b74f8695cc4235b2a5cb1c7fb5b097"
"https://github.com/AgileVentures/MetPlus_PETS.git","36","2","[0d53a61339b74f8695cc4235b2a5cb1c7fb5b097, 09639451f6adc1c6a008859e2b4d3d8e06d462b0]","8","1","0d53a61339b74f8695cc4235b2a5cb1c7fb5b097","3bfe50ea8c169a79787dfc76394f64cddce5c29f","49eadf44dda6c2a8d3353cf855a990246cdd5b81"
"https://github.com/AgileVentures/MetPlus_PETS.git","37","2","[140ea8241aaf4fe30c2e5d1be0ed7349fa02ddda, 8240916a20ade0c0a7f419454a8f10f09265448e]","6","1","140ea8241aaf4fe30c2e5d1be0ed7349fa02ddda","49eadf44dda6c2a8d3353cf855a990246cdd5b81","c6866983d29c976c26718eabe184623a37ef11b4"
"https://github.com/AgileVentures/MetPlus_PETS.git","38","12","[1530754c868b4b7a6991a106b26634e90b7dd1b7, 3048d0b1843fe2d671a45443cdd853c587601a9e, 1b677c6b2c99113eaa090a65addff4456bb93186, 5d0f6d6cda1679fc48aab3441de5fd923c5776d9, 49a80838bf6811c7548301600a347fb90b2c2875, 7b1a5eb07ee8aca0c5fa88ef84d23b9c9147c80f, 4457cc93743e4f3faef87501494a82bd2c3bc520, 61e3065a0ef128785e91b60fba5563bb91f40f84, da05fe950279c24b079974b16b2d2f5d17001883, e634f37391ca994d4147407750b864cd2f03341f, 4a2c47ed0a2081183ed2630cf9374bc36cf1bb3c, 451b04aa0abfa2ef56a0d961ce12b33f2d54b250]","1","13","1530754c868b4b7a6991a106b26634e90b7dd1b7","49eadf44dda6c2a8d3353cf855a990246cdd5b81","c6866983d29c976c26718eabe184623a37ef11b4"
"https://github.com/AgileVentures/MetPlus_PETS.git","39","1","[e894fe1fde020ead2e2a84bb429dd8647f99b0c3]","31","4","e894fe1fde020ead2e2a84bb429dd8647f99b0c3","2ea827837a757c9215ab34c2b6eb978d689848f3","d9cdb17767ab8e4b0ef2b96f6aa49e3a2d66dbcd"
"https://github.com/AgileVentures/MetPlus_PETS.git","42","2","[f9ce236c6f9d9c2ac040d50aef6c8158300bf477, 17e1610cd99dd7890c04b042610ff2a138136397]","8","1","f9ce236c6f9d9c2ac040d50aef6c8158300bf477","639f91d4e05af301395785be133b7415fd011b02","cc0a8096268217e5b226b6a362f175e1ceb57873"
"https://github.com/AgileVentures/MetPlus_PETS.git","48","2","[3cf146d0356f9b194b985389c9d6d4fe735c800a, dec2f03e396230e7fa5fcdb1572598dfac635802]","7","1","3cf146d0356f9b194b985389c9d6d4fe735c800a","946cc0a5b8f73d8a5a46cdeafff5815d21cf3f46","bcec59871fc9100266e2366ade08d9d9f4fe03b7"
"https://github.com/AgileVentures/MetPlus_PETS.git","51","2","[88a49b6a4a40cfa0b07d5c4093ba2b7fd0a6f0a3, 6aa466eaa6c941d94e7f60c9004b6571163ccd12]","14","1","88a49b6a4a40cfa0b07d5c4093ba2b7fd0a6f0a3","4211934697e96565a3bfd141ec9aa5bea3a0d830","5a8fe3030967be22de9c5806b12e26623f7640cc"
"https://github.com/AgileVentures/MetPlus_PETS.git","56","4","[957493f2d447c54607dbbbe9f5833b8d7bbefd87, ed58a4350323ca4fd5a76350854926cd61eb96fa, a2ecb26480cb9b197a5fc17dbf63f974334057cf, 30ef3b4976fa31e4500935871e255a2ad3ea664e]","1","1","957493f2d447c54607dbbbe9f5833b8d7bbefd87","266fe51d742b4e5457ede1e83f39eba0221bf10a","45b6487fe5bcecaf95f8a96088cd330677c9167d"
"https://github.com/AgileVentures/MetPlus_PETS.git","57","7","[45b6487fe5bcecaf95f8a96088cd330677c9167d, 50c36812642403f7dc3d99920d8a1a024fc4f570, 1b60bb859f497a5deda64b96841da8cd10ee8ae3, dbec0a54cc7f7086122cb60611862a56fc37acc5, de1963d7d8b55a4267fdcc52c6a8dc204973cefa, 664c0688cce028b78f1884aaa11d00228b8f0e8e, 5e17acce2901f81585f3893d164743cc1ccaa622]","19","6","45b6487fe5bcecaf95f8a96088cd330677c9167d","2a8c7db2efc160466d7539d02048ea3d85cea2c0","02dd3d08b5de4423f546fc7c0fa056515c575367"
"https://github.com/AgileVentures/MetPlus_PETS.git","58","16","[51cb038f091a205850577709a0b12772b8f4fc44, 8707dcf5844b34a0f53dec282702b39dc90642db, a6a4c9f974b98443b40f82da942088cba8a11df1, d543029294e402283df860b09bae00d9f019a5d5, 676062f971820e47f0ba0ad635c0e688547df85d, 4245d739c6a78efe19635dca8c0d24e7af8d0d4e, 8be059d2154762b3239590ac702ceecb11cdd387, 55002d41314032dcb2ff0e0c768bf210485478a5, dd304d5d6a79968662c343f7bb5728b0d8162a1f, 24f1891668d55522e90b31d07493a1a66571056a, eb24755875e5ccaec9041883c4b0c8915ff4e4fc, a449c2e9c99db95f2166cdef66e9c51fd250f797, f094bdec412fe86fcfc61243bf4cbf7f8a9d5f7b, 2d572544318e8604c38bb3755d23b43576a0d28e, de961298915951eff084ef94ebe4206a88c4d3d9, a56c631983d923ae495a283d57a66dce1ddf4154]","47","17","51cb038f091a205850577709a0b12772b8f4fc44","dafa2ad773e3531d419a19aa81adf76b711e60ca","3fb834693a5b677b9ab87acb20e8ff80bd666324"
"https://github.com/AgileVentures/MetPlus_PETS.git","60","2","[02dd3d08b5de4423f546fc7c0fa056515c575367, e59bf46b6f3181d51a384ccabbf22ee826cbe470]","3","10","02dd3d08b5de4423f546fc7c0fa056515c575367","ec5a1f4b64b413a761a543eb2a04e0612b0d2f37","1696cf747e3608a39b08ddb05517ae78362acb7c"
"https://github.com/AgileVentures/MetPlus_PETS.git","64","12","[e867907e230d65ced1bddd78055e7e0c44caea83, 67508f0c258c78040f3e1ee7b03eab557391592e, c5a3d315a16c4f407960cdc01d6ad03267549b10, f15d4f4e3b2d4556a40de9a270ab31ea2f9b4e2d, 2e1a2eeb4c4e5053061d122d2fdd88bf9787177f, 5d7f0cf8721894b93016c6fd53240412b1b24b26, e8aceb3fbe258654ead25c8c2219d55e12bf4236, 05ea3e1b46dd5a3ba5ab575d404420033489acf5, 5e73ec8fbf82d50736eaf13eff2b11d66fb21830, cd799e59d1c7ac9fe0ea85e912e5b5453c38c855, 7296ed0d91fcca2c3be22858a3d78a84e4bb36ba, 3ff57e6b2094270116d51a4516d3dadd901f879c]","30","5","e867907e230d65ced1bddd78055e7e0c44caea83","3fb834693a5b677b9ab87acb20e8ff80bd666324","2dfd83714832e0e5ed8c8c3955ec6d44877464ad"
"https://github.com/AgileVentures/MetPlus_PETS.git","65","4","[2dfd83714832e0e5ed8c8c3955ec6d44877464ad, 400dc2686abbd98bd1652a54949700c3d17a2461, a91a0f1c0fb7d2885f949fa14aae828923e6c267, 7bd9dcb070c1be29e84f8c8dd9056312c9e36b6b]","20","2","2dfd83714832e0e5ed8c8c3955ec6d44877464ad","efb6b2c7031c8ae2c8698658e5e0de213232c39b","2eca1b5aba7752a9a5a53ab5a3e4b696c4bf59f0"
"https://github.com/AgileVentures/MetPlus_PETS.git","66","6","[2eca1b5aba7752a9a5a53ab5a3e4b696c4bf59f0, 1382aa0ecc801f956f076b40004b908664561e6c, c7823c8c36b7e3e23c8a621ae9f54cc426807ca9, 412aa5ef1520c2a8fc223436a0f192d923f1d770, 644d41eee26c5f627f2127371e361ad4e0b87d4e, feb5f3e617ce369c05433533283535f4662e0ca6]","13","2","2eca1b5aba7752a9a5a53ab5a3e4b696c4bf59f0","e684e2f68da28051a6951a2d174bce6603d0373a","e0c564b5f29fe70c855e1ffc58393fd074ab19b2"
"https://github.com/AgileVentures/MetPlus_PETS.git","67","20","[e0c564b5f29fe70c855e1ffc58393fd074ab19b2, 7fd87795fcd23672c415c9e3b9f271f383f00bfe, abdd765be15e614c13536ee1c91d530be8d02364, 173d306752c5abb43e99856bd02e2f10eb1989cd, 1f824f8fb1b899dc38d3108ce366f4e03cd955a3, f37068120a4724176491dd160980a0fd8dee9a1c, 3fe11d1c0149eaef5c72e5cfb9f5658923f1a87d, 162db5ec32448d771ddc9c4a5df79654bcb4b095, 7a476d2f152fb3df5477f7e157888db453a6895c, 2dc98ddbe80b189e7e22b018715203b6d5096353, 3b81ae676be942c6ebb13ada0f0149eb2a03d280, 649e58472ff99e73bf9d40ea01166628dc83bda0, dbb99f30ef5565d8624eb2d957a9e5a9f0bb3c11, e208b4206fe79d44f7ed64837d34d240c774caf2, 1a1f3d1702e575e1fa226ae13c9fd378f5d97db8, 282aede73132790a290ef5946def55a019d97fe5, 5073b3b935bba47cb410743c21872b5d2194f2ba, 9dbfe1dfadf346a24d88da201b6008f52a201856, 5c7c5961398a5aa0ea400e1cfc4ceb0d9d435ad8, 6df349489a1979739829d493f9b5545cf5fd5d00]","53","15","e0c564b5f29fe70c855e1ffc58393fd074ab19b2","209ac9cadd67b645c702a274e86d5c0f3d195520","e5363bb216d0d5e6464b84bb04aa110a341fb620"
"https://github.com/AgileVentures/MetPlus_PETS.git","68","17","[e5363bb216d0d5e6464b84bb04aa110a341fb620, 2ab7bc8d1c09f5bb390bb21ae605494c1c148f55, 3a75d001e33aa627801ee24e59ba52fd8d2cffdf, ded4823e3c08f99886e35530a5bf414c867dccb2, 989912a5cb98ba9db94f021383c692eb2f44f6b0, 6ca9b19a3b4c097deb7501e0050e1f476b714282, e9182eebb174b8ead07ad8b84d11b536d5cda490, 8a56f7a9a3128d1299136396164bdac627c9d35c, 58d8fb416c5422472a9c753b90db76417efdf2c0, 6378913ce2379ea03cff3019bff4d6688e8bff22, 36103c7e0d5a953e136fcb323f981847e838bf0a, 8a6e078e79eaa4fdba9dcffb7d43fe6a41ea23a9, 87e6ab48b2b2bd54773a0572d59d153c0b1495ea, 448ca437328e450a7b3e6fb55d4c1358c575e0f4, c8d0fff8c4972ff46da27f285626c71e4d0cd915, ebc2130fc472888b805c8592fdc1d839c1218a63, 16b01e9cb5c55e4fcf09a081d964073577259664]","25","2","e5363bb216d0d5e6464b84bb04aa110a341fb620","d801b1974b74d45d9fe08da679fb936e022648eb","a2a10133fe0a395f21d34d5af22f4d2fbbd64286"
"https://github.com/AgileVentures/MetPlus_PETS.git","69","8","[a2a10133fe0a395f21d34d5af22f4d2fbbd64286, 0ff41bb68e66706dff11809d1e5dd080f5f3e65b, 1cc4d5a50e3c6e86b937079ae82931de5420aee6, 8fe23d61962d97f0a2ddac37134adc48eb22b43b, bf1d6d633e31457c85797888a2799ea197796e4e, 372d4b8623081bb1b048e7e759ffa3fde4baeb64, fefbef01a697e10e76b8f1f53688e02e013a68a7, 33370962a191e0421ab2d9fc74d3b1b701dddbda]","44","5","a2a10133fe0a395f21d34d5af22f4d2fbbd64286","2bbcc8ca267b46c53f4ef36aa5165b15785e9930","569b49541e62e4decce729d372d9ec73cb479d47"
"https://github.com/AgileVentures/MetPlus_PETS.git","70","5","[569b49541e62e4decce729d372d9ec73cb479d47, eac3f21430991b09f5584e0d492ccd3940673861, 77096da6a8f2acd657bd2c3fcb4651e8585056c9, 57ee74d6a21bac96b337ec64ec003a7dac7f8613, 870bfe5ddc2ea033752b9fca451024c11b377cf3]","18","8","569b49541e62e4decce729d372d9ec73cb479d47","696009c59af711cdad7891fbb2a4746104b4ec2d","f1884f0cb36d92ea46efd7a395a7a5103e02f185"
"https://github.com/AgileVentures/MetPlus_PETS.git","71","8","[f1884f0cb36d92ea46efd7a395a7a5103e02f185, a2049b1b648f2fcd8ad32e3c426f70d5340c2ce4, ba36004c8e3cb49721f67bc1782bb9d13a3fac67, 2ca0f8c62a783e2de468f944f4dbcf77cef56f2f, 0f30a84bef3dde5dab136f60314e4c3de7551b93, e0ba11e7e513f4a697cf0e7c170eb422d8fd9bbd, cbe99fdfd57fd464b85272b9b71cca756a4aadad, bfa3055c06d222af13bff00c6f537d96f96b3fdb]","26","5","f1884f0cb36d92ea46efd7a395a7a5103e02f185","220ebcc3517ae4f82b7b8625f9d2c6565c8ccae5","c50522aa6d510f57054754a8e0468501836845c1"
"https://github.com/AgileVentures/MetPlus_PETS.git","72","9","[c50522aa6d510f57054754a8e0468501836845c1, e8c93112ae7d6e861cabe13e7979f99d3589d07e, ea195c9c58224579f9b312f05d3355d22ba90032, 0bfe8738d7cde0508edb49a7b5ff2e3c69aff63d, 59492e894b0048896973113b8e216aab98e81e97, 77ae20e0e1541556f3f827fe4fd9c84bcb800b1a, b7cf685c61a1e60ed35275c601005204c0ea367b, 78bd5d1a23667422c2e9aba39b8038f53d80e963, 80b6c3af3432bb7a3bb1d6b9c39ca6c2cfb7ea50]","43","8","c50522aa6d510f57054754a8e0468501836845c1","20f0339ef307b6dbcbf8523d9e4e3f66aeec2ab0","bbaff43ad064ed1c1be3a94cae4327dbce92bee9"
"https://github.com/AgileVentures/MetPlus_PETS.git","73","1","[c5a579bfa032f7e4fe14d902b5caf109fa7a3e9d]","58","7","c5a579bfa032f7e4fe14d902b5caf109fa7a3e9d","12ba88510b8efa00d3542c1a7975a53760b5d187","8c04a9a805baebd9c8d45d384ca88fbac45d5d01"
"https://github.com/AgileVentures/MetPlus_PETS.git","74","10","[bbaff43ad064ed1c1be3a94cae4327dbce92bee9, 891b20c93d4ff5da9f99f79714a7c5f83aac52c7, 4a8a08ef1f631ac263e9ba7e7fd5a112c7b45a46, bc27c624938462bbee3cc98e34d9411603d992da, 7b0ed81a48fedca9b406a11e83d9a00689ee8def, 8514a347fcdd885f385f0a226297c91abc75ce6c, 7841e176cb0ab5eb293ab0c44976b22512511e31, 8b0b3095de2a45a37cc8fecef327fc9c480eb466, 0f9566de5de0ffebc6bf9932400bfba140e57da2, be14175755d9e71d95dd1b2bb8194a3a2f944577]","32","10","bbaff43ad064ed1c1be3a94cae4327dbce92bee9","12ba88510b8efa00d3542c1a7975a53760b5d187","bc9c92b53bb1e1de6ed23e649e9f2539630f36d0"
"https://github.com/AgileVentures/MetPlus_PETS.git","75","23","[8c04a9a805baebd9c8d45d384ca88fbac45d5d01, 89f4634106f059221b61915ac68751f167f6008e, c5a964d889aaa2df9a5ddc23fceb9b820752e2f9, 72a38e82296ccea151a4f135fc369ce355f6f5e5, 11285ac5097c0d5b798c6a27d01705db6221562e, 8bdeebb8efb0cb0903da1515bafdff7783cc51c4, 1b91c193cd4af4daf9441a087411a7ca92aa3a82, c114a2859d7fe0b43967edc69f4b10cfdaa9f1fa, e780e5ef5a2a9b3dea34e4139cf8368d34c7612e, ae57979c98ae07bdd3c6f769f39f54ed6f4a5a3c, 54338c50b84fcaccdc3dd92276df5e94e0e6098c, 7121940403994b72f2206e231d2d3053c958ad5d, adf124b381332bfecdcbfeaf79ae34babc5428e0, 2d17a3a12ede6f40913ae8553150f30bcb2bd9df, 57be3015ca7abf4fb87149e250e141145a13b00f, af22681fbf6583880f7466a8546870163682935d, a08e24c8570f178345b109d0a50bb907067ac6ed, 4869e76e8e4ecf72fef7e03652fd583f63a8994c, ae30eeeb89288ded2c531bae650ff56f256d2c09, b18e90edc3e4c1bc2896699120c972f7e1a1556e, 751a9242ec95e78349027eab1eb40e4e5994e448, a1322be433e1d53ad1cc484bb0471f749a7bd33a, e933993832defe32fe0491a837dfd7d3a950dfe1]","8","1","8c04a9a805baebd9c8d45d384ca88fbac45d5d01","bc9c92b53bb1e1de6ed23e649e9f2539630f36d0","1e715b800b2274aae1600e96f80f0ee710b215b0"
"https://github.com/AgileVentures/MetPlus_PETS.git","77","3","[71c29c90e5313b4964e887e75036942b9005d569, 56f88783463e2cc3fea18c278c9c9bd35dc4ef42, 296e0493b56f92542f9f4911cad800e09b1f8e77]","7","1","71c29c90e5313b4964e887e75036942b9005d569","1e715b800b2274aae1600e96f80f0ee710b215b0","291ea6e2d6660cd234b48783b2cb4f24f05a42ff"
"https://github.com/AgileVentures/MetPlus_PETS.git","78","19","[b513ab9e8cd447e04a9211b226f36799d00080f5, 5a408f2b506bd1b14f447f009637a603ced8a09b, 0c04d30bfb80944aca186c110b8af86decbb5889, 73911520e07fca15b719bffa96f13365b3d0ac2f, 31c59c53c9d55e8acf7ac64f032882ca6ef17b4d, 01cf81b9cc590e7c35c10d32522f463c882a86f4, ee1a6530e5dc37fb883076af3cb6040aaa178419, bdd24264dfb4d2a47d5bd31fa57bf48d4e36000a, 4c25ee74fbf709f7a04dbb0ff31e2e41e1523537, d9e8ec6b41b33049dbf76210761db9ee42c5e166, 286a663ba574f6c457da1ee183b9315498e34be0, bad938bc5347b2908b953bd6dbf402121bbd8de7, b725fb24d56b8dfd5c09b351b894b475abbeb93a, c6d26fda8a7077eb43a796cb78de45a12eb4592d, 7bd7b8049a54c472eb0e8dd622e2983401cd646e, 48886c373cf84833c6ef2c9721f504219cfadd2e, aa3d7521a3c1661b7a500cfdc72fd50d893f2f7e, 206c17b9fb8da3bccb4377daec1d7ff8ed6bf12d, daf60915a31bc91928aabcd760336065ac3fb9d6]","5","1","b513ab9e8cd447e04a9211b226f36799d00080f5","1e715b800b2274aae1600e96f80f0ee710b215b0","ef5d35d14a88931f2589b6c386ca4dd0f0603f9c"
"https://github.com/AgileVentures/MetPlus_PETS.git","81","18","[6dc5d06d4d7f1c0a28a669baef4ca4480bdcf8d8, cfa11deaf726158ebb3c01a188d3202a46f2edbf, f15e0bd271dc0b1a6702ecc880347634ce0a8ff2, d6effbe8f9d34e91af30720d04b85d94f4caa812, be19e8dfd04db8b13276ebe4f983a32de37ec5b9, 7ca532ad0c8b22c7c6a9090846b752550ccdb7d2, 355f6f8244398362fae8a5a6d13fd6100592196b, d62dcb042e682a13b4864f702e7d3736137dbef6, 23952fb651312286a9120a12bb353a25e97ea121, 3e1e3e5dba6ebdd031b0f68efc54a1a73b9d3e28, 9041c6ace573e297be359d638065e298a3d7f02d, 416e2c3e03df5592a5b39b62a3c947785ebca906, cabb0f3e02339085b1406a5fc93f0c719696926a, b60b705537a86d01791ccfda172679f21cf3d2aa, f6b74c98a40d1822a40b0f7013b3897c98174d95, 0b216a0c00b51bdbdab2f55dda94a84da2f51a7d, 07e1f21869f616e699411d193c4de8e02807a5cc, 5f3c9f07d46d1d437eff66b86981aa564cee7d98]","7","1","6dc5d06d4d7f1c0a28a669baef4ca4480bdcf8d8","291ea6e2d6660cd234b48783b2cb4f24f05a42ff","42ca2731a6edfa5d28995960e527f60b37e96207"
"https://github.com/AgileVentures/MetPlus_PETS.git","82","1","[a1017a9f5cd50e09f37ba92bce49cdbd59f405be]","3","1","a1017a9f5cd50e09f37ba92bce49cdbd59f405be","291ea6e2d6660cd234b48783b2cb4f24f05a42ff","314d995ad937d9b3b00006208b7e2a67a3f22173"
"https://github.com/AgileVentures/MetPlus_PETS.git","83","6","[a0cb7833dd515494f73130ce9b90e126f80e13b2, 3a6a484d90973474eea49b24811aecc989e80a36, fa44a396a4d461a5e1561ae5d5f22fbec3bb4f02, 87ec551a2e6cb4b7aaddd3802cb616051df0bd01, d92e3168ccbfd98f7656eca6e6777f21fd1c28f7, 79789a639e40f82246be753ea6dd3f323492a80d]","3","2","a0cb7833dd515494f73130ce9b90e126f80e13b2","314d995ad937d9b3b00006208b7e2a67a3f22173","14d2b6ed24ebf960a07448f1b54a67b8e52a1f85"
"https://github.com/AgileVentures/MetPlus_PETS.git","85","3","[7bd5dd0a1b96a2b6142c607786193e6ad8727745, b0010ea76cbb9b72629b4059b2d44e0f6d4e0e72, d7af6ca3cb22d55e92705a017d2322403283a123]","7","3","7bd5dd0a1b96a2b6142c607786193e6ad8727745","f48f774a210fe3212d0da250e58f971978d25431","42ca2731a6edfa5d28995960e527f60b37e96207"
"https://github.com/AgileVentures/MetPlus_PETS.git","88","6","[f05664cc3961d4e4fe2186b7ab6b5e6bfe494e3a, 343eb5a5dd704643945ef03357bdce4f5ed20ffa, 97fca9aa27a371f53afcefe7724522f0a035510d, f809d4a1d815b08219584bf2f5ceea022ae53ad9, 935ee2aed58b3dd7e200a96236a3c61da209335c, 1551a13453e37781832c4975317cd3773459a209]","8","1","f05664cc3961d4e4fe2186b7ab6b5e6bfe494e3a","ef5d35d14a88931f2589b6c386ca4dd0f0603f9c","07ef20523d37db9b776214bff88bf723e363a607"
"https://github.com/AgileVentures/MetPlus_PETS.git","94","2","[150f78cb1bbe4fd7fb37a7f4152bd87319e62f2c, 74b4130435942660f4e10fce0049dee13b6ec6d2]","5","1","150f78cb1bbe4fd7fb37a7f4152bd87319e62f2c","6f06731eb44f1a3de33ab2b8674583c16f9bd76d","23124b0ce74163eaf54e2834ddf958a77889fa58"
"https://github.com/AgileVentures/MetPlus_PETS.git","102","3","[91fc7c0ffc2fa0e6774990784f94ec9f9bd71dc2, cc5d9843bfd94dfdb99bbef8012f6e08a6452683, eaab65cbe0178691e305ba7dc6775a175fc6cbcf]","4","1","91fc7c0ffc2fa0e6774990784f94ec9f9bd71dc2","62c6d0eab7b21c6455014fa5ef3ddcede172e82a","4382fe79814aa29cb4e1f3d9628802965f3b2d5b"
"https://github.com/AgileVentures/MetPlus_PETS.git","113","2","[a55a8384e0b61970f78bd3f46aeff69f782e2ce3, 44d0f7f8f070ed4f3a3bbbbf09085223f35256b8]","2","2","a55a8384e0b61970f78bd3f46aeff69f782e2ce3","6704ca600b2b67e410e78c9c52fd85dbce8945bb","98af6378db8ef8b5a88b27c377c74116d72a8ea6"
"https://github.com/AgileVentures/MetPlus_PETS.git","114","7","[775ccbbae8c55c09e6595770a5c16431c839a0aa, fc2647e425f9d58df866e9b1228aa1d057fb6fec, 6fd2ec5feccffc656343b9598909e73aaf68c1df, 07674191f19e0bebd0084b9bc37af951822ee3c3, d603a7dde653ea5f339396ffd16eda2120b5c78b, 244df8c52556390f66de537158c0e4c54abf12f7, 890454536081da1dd8c7db19170edcd028e9421a]","11","1","775ccbbae8c55c09e6595770a5c16431c839a0aa","374d0113c74993df12862150573b82e6c1936a52","6cf278cb648b0b074eccfd7fc8982010b62e8c32"
"https://github.com/AgileVentures/MetPlus_PETS.git","117","29","[610ef33aab0b4f43e5d0acb2fc1f1e6853ca1248, fea48ec36853fe7029f36e0938fff7fb920feabf, aa1c81885cde473d3dd17f6c1e4f4b81631bfee7, 7d8c87ed2a395c8e983d1d7d8e591311978a7b8b, a432513b8e6832c1f7532ee9d15e1e1a9fad502a, 0a8bcad8f7f5ae8009a3e2279a5ff6275103856d, b61c8193ecdcc9c596954673213afe6432e749ab, 9f1e059fc133484c87de6d4ef6f272162a30f8f3, 9ffd2734a04bff20d194d432458603182d5db451, 96cb4926ac93dd9e2989ba89e3c8be10b2136db6, 3502b223379a57ea1c0770fb71f3842d37bebdf5, 57df2ab894a99b9c1eb288daf74016a67b36af77, 009b057585165097d3961856d72cee648678c790, 2c98820553888b366b007bb7ac8b177c356a234e, cd0b84c0739edda9f85162a9e72ffff0b7f4a488, 5ae99e6e7a144861e7c7fa554a832b561f9a93cc, bc71b56b61d17b0090fae7d126f653eb444e8597, 00bd4282d17caa1379ff71a7acd9a658aef6fc97, b7b751641755da10d46e2dada6bdca88fa45f527, 72562e29309c98ff703d40205abd3f5c3bc149ac, 3b2393312a12576d8101e78d0951f0323b95a18c, 805fd4733bfe19789ecd1639482c9bd751489021, dd26a6a92070e0b83d7300c878a60a553a6ec198, 4cac7d7da85188e56e4bc99e07368a1300446277, 6e25a63643f404e34777e44f879c1b359bededc1, 8228614d09662985ae85366caa853414d79b5acf, 14d49b88a8aec1b7c27fd89c202a44a1b362063d, b7752e9f0b1bfd255b1e5c17fb09a089de66d37c, ae1677b3a1113d3ff691fdd7326deb160b8ce3f2]","10","3","610ef33aab0b4f43e5d0acb2fc1f1e6853ca1248","66c88631b75dcd60c7d5f8c9a84186435548e8b4","5d78e74ac58fee428f2ab58d9eaddbec26b5478c"
"https://github.com/AgileVentures/MetPlus_PETS.git","127","6","[d56f310497fb6d6bad2f00a10f3909e9f089eb84, 8b10661acd340bb476fc2c60588c98029022f181, bf80745267d04142fd9ead2550de93f334700e29, c1c9c21fdd478843c560ffbcf7566df0f37cbe85, 18723fedc0e9ad7d9b10f25431f71c913dc0759e, 31ecb42ad5cbc45f49a98674b1cbc34f1c87fc35]","5","2","d56f310497fb6d6bad2f00a10f3909e9f089eb84","d09256cfa02b58b5d204138a575d303dbe594d40","b8452d05df51fa9887296aaa343573acce5134de"
"https://github.com/AgileVentures/MetPlus_PETS.git","130","34","[fb90399934b4e7507258a034e433f812f97df36b, deb95ea3334872e2677b4018a9f1ae0fe557dd56, 3fd989cf6d61ab151746d6f620795e7393dec4a6, f79c7e9413ddd21b55bea5d0ac0823c198ad54f2, 776b7abe771d993068f958b613be236ebeb5b5f5, b4804774164561a7cdbd857adfc8afb4ef721392, 167976f9de8fb84ef69325c806677caa8d371683, 357768fcc097bc6c9ef2746ad91e4cdee2a6d8c0, 49967e68d40fcca16ad19ad58be2ef6a7fb2c864, 429ba576164b203e5ee77e3a5300e58b24376b57, a8bc0f3f150b56235ba311069dbe929199502368, 81a6c2e0fe64f43a8cd9fa2561ce4995695ae4ac, 031c3a8d5f07a1077a25a89e5e9c32ce63a50a64, a197c7ebccece20fed3c057feb5143b65da132b7, d1f51ddc07956abca51e0ba61ec446e94862616b, aeb883a9e52e11d2c3b59eaf4c37182e82e34d3b, dadaf49d653dc47a407bce2bc7071614dcce0994, 82e8ba2009ce0c7687e4da9684c734c51ba71676, 500cd89494acd28703a9aaaa912c130ba76cdada, b763575396d2cf12f72baa0631ed568deb549e86, 2679b653542efffbb481586e1d92effdbda62516, 0d7edb15b823ba1fd4dcac13bb3831f371f6b040, bcb89a7ec1300756010cf0391df8503772cbda75, 761b254cab2a750cf9f7083c12a1bfe1b80a6048, a50fa75672b8f0ff298db44eedb19033e2d6df11, b9100d3567645b20618611422596e685a78e6af7, e97fa8a0d20077b98ccf91c2130802760d45bbfe, adc85a4210059d600ece8f1472e56e1809418d3d, b02ed2437c0fbe6b53f06f3811211adbd53ba9f0, 5fc7853b533e0790a1844818210262d3537cdf9a, e495694455dae74dfd331e19cfe89aea571a62ce, 89ef9bedd72711f301e1628573788223c47fe21b, b7f6a9462fcddc3a1ca44f5be20f6a21251d5cc9, d80d3f2e92793663dbcbd05481bcb354c8b08019]","10","2","fb90399934b4e7507258a034e433f812f97df36b","b8452d05df51fa9887296aaa343573acce5134de","8a6c6a4e4c75efd43f20c5f3fb604376cc58429b"
"https://github.com/AgileVentures/MetPlus_PETS.git","140","1","[3d80698a853b2078f5c887be2c0045e0bbe67e3c]","2","1","3d80698a853b2078f5c887be2c0045e0bbe67e3c","41cc49ddb1424c418498482b567e695917ba9b50","69aece4ede9db1e7c090200c6669070a76dcb18c"
"https://github.com/AgileVentures/MetPlus_PETS.git","141","5","[69aece4ede9db1e7c090200c6669070a76dcb18c, 0114f5f3a815ad1243768b6c78938b30a9675b18, a9b693361a226fb49f1af6dd9e0253ca6ca21b49, d48662c94e39ddc2d472d3cfb2d1a97f022e5a56, d880560bf7b6c7e5e26d414c3c4b2b614c4d28ec]","5","1","69aece4ede9db1e7c090200c6669070a76dcb18c","b4b49666377d5766bd9d2f3172b27c8c19760284","9b843f19f4df98cd50d5d8975f4a7ad9629de91d"
"https://github.com/AgileVentures/MetPlus_PETS.git","144","11","[5ed4a6bb004957cd548b834aabec750585068341, 38bce7c72b86b2c6be567a6f13bc8bc1daa04dd3, e4df7590f22b6fbc92668e8f145ff141377774d3, 0bb8c83f63d9b7e9f2e094d54615fbf12f5922bf, 4125719eb35052ab7fc377ee66017cbe4eb0d616, a4555eb422f50c476c871dfd9d7ec979c9716925, 56c836127268fd1df5b5a31422ea8ea63f44299e, 23065e642bfcfb9473f4d777ee6c31aa000aea5f, a0f393a947339dc59bc0eb6631b9196af71e2986, 23ce71d402535e2d370d039521128436d7a0fef5, a59a0751c7c4670c2bfc6d8b2a50dd1b3bcf6ffa]","11","4","5ed4a6bb004957cd548b834aabec750585068341","96316e7eefb81c53bc7406d4fc6e97b832358abf","3ff99f20d55c7a2e226025803a02db4d060ff064"
"https://github.com/AgileVentures/MetPlus_PETS.git","147","9","[103965fe288e0f426db3fa99f1604c23eb6df26b, a3f05880b9a02cb7f9f124e130a12cd0573ef98a, c90a663af08f0126ef3821091071893eeb8f73c6, 20d050384918dc781d2536bebfb2233e29704140, c5d4134b4974ca6b54534d4ed90922a673df8219, 83fbd61f6defdd10371702f0ebd3c3d9366b1db9, 668bf168c5e71ac410b17916948df60008c518bb, adff80df0cfcfad53eacc4f591b6e19de2e09ee7, 6c9888d05adf438111f56fcbc6023fc742f0c3b5]","6","1","103965fe288e0f426db3fa99f1604c23eb6df26b","4bf79e52bd5ed7a05d0efac9f93c759e60ebc1a8","c712b7ae0f6896ceae8be6ae1047fa3e3184c9a9"
"https://github.com/AgileVentures/MetPlus_PETS.git","148","24","[93afdb37e6a5d8e48304d1e5afa6420747f7eb4b, 41cf61713c50fb5c9be6244fa22ba873f5794315, 221a158ec71d0df300050061dc43d5a7e1070d30, 109f280155b8e283ed7f3e1c3527e55e89f4b962, 083debd4b4d381a0ce61829d6564e469dd616507, 88c61e8ba732825502820874b6bdf40855a804d7, 664a5647138e6dce82b89dded1e3f6353906818c, 163bd94ce15e34161dba0a091d2c3bae67c85ffd, 102e6a1197e727aaaf68a84f2c2ee6bcfd532127, 77e3d743c6171feac3500e3c29d31980f3519870, be050ef3eeff8b46388322f10491df38013c3750, 69958e52488acd3ae603acf802edad2414de57a8, cb93b8778c62cdd9c318c89ad79ce10e429468f7, f3078c2fb16aa2310a2e00f7b9dff25f334edb6e, 81250384cdb07a15d52c79d39daf229e79844a08, a0b7b6cc02d619263d614c3bbf4c92e9383496c2, fe57ddb8fc09fa2c13b14f2763047a277ce47f9b, d5b9ee177aec08aa00c0c6a70531a897c0ff436f, 4e9d7f1e004dd2c348961129ca877fa75fae3798, 7f128dfd680162f116d23f38dec012a45e349430, 8ffce775cdfb4f074085ae168dc27389182568cd, 888a173c3bd9823ebf31beea65ffaac0ef27b832, 63545f381848ab71bdf7c32543f0515891a15a56, 626b7da8af2c2fd3d3211226b84f17ee0a252bc8]","8","2","93afdb37e6a5d8e48304d1e5afa6420747f7eb4b","c712b7ae0f6896ceae8be6ae1047fa3e3184c9a9","e9a42bd7c3dba794ea5dbc46308e0e5b905374f0"
"https://github.com/AgileVentures/MetPlus_PETS.git","152","1","[5ddbaeb2df13e01ee3cd0fa293e9407294e9e663]","1","1","5ddbaeb2df13e01ee3cd0fa293e9407294e9e663","b8a8d509b16b7a36a2ab984dc91dd3762c8c1978","a72eb5b8d43cc7fc7011fd61d28efba733c88036"
"https://github.com/AgileVentures/MetPlus_PETS.git","153","6","[4b45a80c0b83dcb758ddf43c77870c41b4adac93, 07afe789b1ee6eeb134a0f1ae6420584bc089ada, 65f43a067d23bc13e47e99e443392afbcc4f730e, 07bf7bb74bf2eaeb3e2d4b639b15a10a77dc8623, a7a8089e3393483fbe802dd1566a775cad6c38f9, 63f25fffb0f831326531dcef0915029936448e8c]","1","1","4b45a80c0b83dcb758ddf43c77870c41b4adac93","b8a8d509b16b7a36a2ab984dc91dd3762c8c1978","27e6c543193ecb02503f5a6599e345792a507dd9"
"https://github.com/AgileVentures/MetPlus_PETS.git","154","1","[05781ad2faafb3713ad4bc6f47852fd72e19cba6]","1","1","05781ad2faafb3713ad4bc6f47852fd72e19cba6","a72eb5b8d43cc7fc7011fd61d28efba733c88036","2cd8b743d10fdccc1d0f30fec19e8e2635c60843"
"https://github.com/AgileVentures/MetPlus_PETS.git","155","1","[ae6eb8334fa7095c53f18560d2d2d33fd3a55649]","1","2","ae6eb8334fa7095c53f18560d2d2d33fd3a55649","a72eb5b8d43cc7fc7011fd61d28efba733c88036","2cd8b743d10fdccc1d0f30fec19e8e2635c60843"
"https://github.com/AgileVentures/MetPlus_PETS.git","157","13","[725ef8aaf442a472bc24f3c99901f8af58403699, f6cc8ffe671ede0a5361e2dbf96f5e623b84dbd5, 5dc88c7478b0843e4ac1375592408b4851b0290e, 5e61823c3de741de4595db319e775e05f9a1350a, 338105db2b0604307d9920b50e05af8d6a23054b, 81e4fd29ab9f811714aa1809835d0caea86620e6, f2516f7f236844c1b44082da15dc5e29900de26f, bd6d40e92e9289e2b861950008f4e12bf2575ddb, 0cc25799143df96b1283810ab462097d8d9db0a9, 563cf47bc3cddfa8b18395d91fa4a748cdea3acf, 563c8b29b9440bb8b04228f69cee67561b298712, 2b625adce8119091be400d60f5d0a58d95c31a29, b3c5065a4d978f9d55f39843a3343402f06816db]","2","1","725ef8aaf442a472bc24f3c99901f8af58403699","27e6c543193ecb02503f5a6599e345792a507dd9","2352af47ecfdfd984b4fa5fb52017b18dda18b36"
"https://github.com/AgileVentures/MetPlus_PETS.git","158","4","[96211392d2a7d3246abc3684a61893ec53e36869, 2205bdbefc02c565ca0c3628ef66250b76aad010, 9442b81bfd21a36ee280b02fc0b13fe45e4c233d, 802cc0d33d134152b34fe4f0aa3eecc000c2298e]","1","2","96211392d2a7d3246abc3684a61893ec53e36869","27e6c543193ecb02503f5a6599e345792a507dd9","fa6a7b155cc3a17ad3f3a97a4adc484e8308f292"
"https://github.com/AgileVentures/MetPlus_PETS.git","159","11","[3c7784e727dcc69a21dd6b0bc4e2d8505be26b69, ba7c4e9bf2876d3ae27095b3c967347ad934d2ea, 81401d6f6992b401b19adf49e68010ff2e59a82f, 7244b4b3f5674b43bf5306f3d846269f429f90fa, b3221fcc54606d6897fe8130a35bedb31b9fd35c, ebb8c3d466c0693c5a7b9f71300e5f06849b0bed, 588204ac9340299ac14104e331197de0e904234a, 49e56b29377cc4b9a20761004834f86d118c7725, 3908c8ed2fead7c4fc229cf9f0a2c37a0b9e14a2, d5951f47146546667c004a4da1fd89e9444f81ec, 896cda90c91934a75e15433d65b2f473b60c75d9]","3","1","3c7784e727dcc69a21dd6b0bc4e2d8505be26b69","2352af47ecfdfd984b4fa5fb52017b18dda18b36","71b75dafbdc21da5d06b5ec889dfb93edb7b692a"
"https://github.com/AgileVentures/MetPlus_PETS.git","160","27","[1c923a2c471ae120b71ca4e94543f9c7e68c6a61, bbce5c483092b7b23861d36a92d562f4aea3db93, 642614affa180d9cd9f957205a76a16faeb74404, 808134fc1bd4eb86ab99a28dcc7c2b9c41e09766, 89ffde728e307b82aac7bffe209699b2bbca6c1e, 7ad7d40a4764d163183ee04cdb75b8bb28a65533, 089b81c82b4af26dee5392f4f6d4d53e6adbe56c, 5ece2ffa1d3138ff09427802ba6e67cb29bdb68a, 0f3f685e8541091abe8af5b3c35ea945e53ef2bf, 1636070b68fdb233fff0e551440c6f1d2d123556, 445be9c1e10c074f00f3143f0a248c34e499694d, 6c38e77e011047e862803c45c257fa7cede47741, 31b403a15961c3d16d5926e76100b600a878bf95, ab0b5d693fd9fdb0ca03abfedcc47a3e22564433, 260f2a539e4bc4f057eb63f49e368ebd5bae107b, 1bcc7e0152469bc7fa258a7303548f4773f391c4, 9b3094bcb28a537fdb16f12ca34a7896e07bda33, d080fb797676ebd6695ac3e0a68a1eccc80d415d, 6c727c0560524561a88322371c092b247a1ca4f2, 518ad9d4dbe947949aa6b7b39b58cbd1b1c5f715, e744d1e9cf69d1f8c86fab4083f9bb6473e3ee9e, 9e1f4a83ed2cab6504ce92932d489751c6ab4a5a, 1f133b391aa61b9ce72bb05d0c3300147917ffdd, 93af3730b289092e0a48f5987a0e155ab472ab38, 6e9c606fcbf5b29df1b0a4751c73d221ff2f6f22, 6c466fc25e58338563924dc59e8f57c50d9e1f31, a6eb9fa9280b5af73a8aa501bf647a535838bb46]","17","3","1c923a2c471ae120b71ca4e94543f9c7e68c6a61","e9a42bd7c3dba794ea5dbc46308e0e5b905374f0","fc3459d3849163eabbb7b50ad99a353af3ebfb54"
"https://github.com/AgileVentures/MetPlus_PETS.git","164","16","[5c9bee2d1690c6db9eb42a14f28efbd4a7dec857, b10a95f4eeb1c9d1688615c11cb39e4472733cb6, 16bf89776fbbd6764a6b2e89cf42121fb075cc60, d71ea467b1beae2b36d6080a3f4543957f4d4f50, f23e35555cc455ec9765a0d8e5989eeaf53f0347, 4fa66e8ccc005d5a3a212eadde1941ebc42aa138, f1a428d13764c3f5c268e0e71ddd9e568c819800, a83071f37f7262ebbde5152c984df06f6aa69058, e4d46f7c34bcda961ffdc4ea654fb94c574c9ca3, 5e7f985b0acc95f3e2299fcb2ea0e4e14ddb4f38, fc23c265b80071398282248793e271fb051eba42, dbb4ba9d297b5d66f55445b6ce3bd56beddf7c18, ba2b7777295c78fa026fd2aa3d9dfb4e9dfb095b, 63f4822a4d420abd133dbb314cb06fff4a31e883, 397092099898e251eb08436ae99c6343ff4ed2f4, 1f991c471c92ab7729538957687c75509f7757c8]","2","1","5c9bee2d1690c6db9eb42a14f28efbd4a7dec857","6ea02c3c2477b846cf3f3dbabb58119b6c4b4ecb","fc3459d3849163eabbb7b50ad99a353af3ebfb54"
"https://github.com/AgileVentures/MetPlus_PETS.git","165","1","[02a33cda9a87d3e1672a7ac953b39058eb6d7a67]","4","1","02a33cda9a87d3e1672a7ac953b39058eb6d7a67","6ea02c3c2477b846cf3f3dbabb58119b6c4b4ecb","fc3459d3849163eabbb7b50ad99a353af3ebfb54"
"https://github.com/AgileVentures/MetPlus_PETS.git","167","4","[fc3459d3849163eabbb7b50ad99a353af3ebfb54, 9f20bd70816b039f31f4593fdb156244dc8acf3c, eea4d17978b4b8d021642cfb7a91a03c2fd72dfd, 247e0e1826713f8766f56c60879597efe28f8e2f]","3","1","fc3459d3849163eabbb7b50ad99a353af3ebfb54","402d733c317db0da4a9d5098f564b84a7fb0468b","a208429a7c21b7c65d8141f3b88c706edabceb6b"
"https://github.com/AgileVentures/MetPlus_PETS.git","168","1","[822045ce70e4ca7ebb7d81bffc8adf20aeab2523]","1","1","822045ce70e4ca7ebb7d81bffc8adf20aeab2523","a208429a7c21b7c65d8141f3b88c706edabceb6b","5d4c3ed0c1a2ff3677c0bf0eb4d55c27d6457410"
"https://github.com/AgileVentures/MetPlus_PETS.git","172","11","[97592826c1c335cd3cd99f116a4fc7d253105f2a, f95385dd7cf425dd66f99b1e5a604c54674b217c, 160f5b1ff390741049c3bfd332fecb199ff14a44, f2fc55e9f990cd0fa42f1104f9e9d604bfee23d6, b5707bfde51119f9df5b810cc195143bdc9732d9, 7b07c8753065ac24b8706faa13bc9de2ecfe9630, 6d7e9bb6f278e2ff99b8b3ecbccba7cbb2047d15, ce5c7579dfa7432fa3aa9fa3293920adbaf8c83d, 049b8f0f5a8236d9236997458442fd1109ec25e1, dfa3f2e2dbcfb33cfbf5cd74222a3f7c981869b9, 8cdc0ad98893026af842a931255792052d79556b]","10","2","97592826c1c335cd3cd99f116a4fc7d253105f2a","d60a3cca8bd8a2176da9cfdb9c9af02dfa51d590","783b25b30545a9586b730ac8b6464ce23ddc0831"
"https://github.com/AgileVentures/MetPlus_PETS.git","174","18","[2c7ea3374af112ce00a405b6421a4341fccf2495, 5759f9790d0d3702fd1d806bb76c43cdf66f6f4e, 101fffc9d975a4bb502fc5d777bd9a63e355a2ea, 0ca3924965d68eed60f1134643c98ea49df87b52, 562f62fcb4f2b80be2a767545a97331b9d7cd5bd, c42a66de69b6e48f2e3c0c82ebd27e0ecead513f, 02897729bdd0eb23097873597ba9e277c811bf5e, 32b5dc12949836f2ed345bad8a0dfaf06cd0a520, 952686cf7399a5bf4c7663ee03f2d25d5d1f50a9, 4f8ccf4f9132cdcd46e36003fd1f20ce2e4e9b38, 795b5a9d75600f950d6aa020273b9a6441bb55f0, 38dc79f6d6f6c1a5a2f5dfa875c01e8bdd08a69f, 58de46884b5b5f2eb3849be5b5a6e8b5e7e273f4, fac7a136aeb346a912b9a60dc005fb5950664d77, f0fecc4bdec078cc37c76c1dc326a83497e9fd0e, 43c81114e5a9ca3249acf25e888295d0f799a99d, e2909a4bea94d95deba08f254142312538511bf0, d16b8adefc9c7826ab1fb7a5d6db9504dff0b651]","31","3","2c7ea3374af112ce00a405b6421a4341fccf2495","ce7fcdde867794bc3e11efe666d6a98eb67ec2e9","3e38bcb62fb3d62cd638d36042f338e047564068"
"https://github.com/AgileVentures/MetPlus_PETS.git","177","17","[71b75dafbdc21da5d06b5ec889dfb93edb7b692a, e9757935167fe5cd3ec78f954bee858cbde5fcb1, e03c30ab500ddc643c414d924b34ef974ba4e6df, fc503c919ad2faa5ab93cc8da083feda2fb380e6, e305f77d63197b0948bb5c8132f924099060bdf4, 9e21a912068653a3bf8724b103f97c478c3ff792, 224fcae4b501143d89d51e52ddfa03a8792ee3bb, ac6c34a6c8639db094947ec0d88c16ebaf6112bf, 7ee930c88eed9f2e91ddfa31e3722be2e84a2a07, 889cb4f43deeb0d0295447d2583126c2e0213b34, 6806bf28a95ae8a0fcd8c48f2a803b312b29104e, 64335058eadc607bbc1dc3daa695f5c11f1f31e1, b41652850b3f4e04158f7246e4c16641e9ca1b25, 747fcbecfb26dade6c1fce659fc51cbcc624f840, 1aa11310386e0fdf2eb4bf74967eb7a0df6ff47a, 8be99018dbb1bb6f126332565bd78e4333720a69, 28811a3626fa5556ed92ce9c216828b1a917096d]","3","1","71b75dafbdc21da5d06b5ec889dfb93edb7b692a","3e38bcb62fb3d62cd638d36042f338e047564068","dcb9505c0cf8f9964bb64cfe7108f9af355792e8"
"https://github.com/AgileVentures/MetPlus_PETS.git","179","4","[dcb9505c0cf8f9964bb64cfe7108f9af355792e8, 0c40276545eb8b7405b997e043594864147f2dbb, 5364c7c11168b07fbbbd0559729e89f56d19c833, 508f87f14740748ce59e94f51e00692ac98f63f8]","2","1","dcb9505c0cf8f9964bb64cfe7108f9af355792e8","455d29b04aaa854bda0d01be03b356dcee643e0e","783b25b30545a9586b730ac8b6464ce23ddc0831"
"https://github.com/AgileVentures/MetPlus_PETS.git","180","43","[b7a7fb34ec3d71cb715aae8be9c7c02576e064ad, f2bb308c84d834abd816aa2b6e16e626d5ee7453, 148d9d8ccda363767feb687b08cf9a181e60a23f, 2d376ccaf9620a34de7007340ff54804c7d0507c, 3c7b938c08c466981f4f2d10f45244e1b4db5f99, feb1a93fababc9fb9be1daf627e03927e26b60e8, e64c0d18c4e64e0825ac439f34543240ed34a4c6, 9a51c3c388eaf659dad90f90b753b59f2cec961d, 7bd5fdda506a8d89410be73335b7ae083934d3c4, b92a1ab26bfa90702eef9ece8062785b6cb6fe0c, d143eabca90c81132f61b001c3e58e114b11f964, 4c783990b3c7864862a6d12edde8fbc8bb3af30d, 6c5ebaca19f1fb88e05ec1916a8472fd23226e18, 0619558a90301089d3bf4e5ce01247989872f8ff, 761a9d188f72aa1c064aab606eb100b40cbbab6f, 72364a2b1236c2a58937a98d84476180f8389cf0, 6c64a2357abfb385ef45287b015b7aebaca2e485, e5226e806f89e1fb3c7b6ed2045b816260fcdaca, 8346e99d269a0f3013995d81f8a284e55d3fe3e9, 0c431ee3bfe716d150c99f5d2685df1e719a3d5e, 55ec0217db392bf6c93f35ac9c63fd9d1a9bae71, b16496ee5af1ce36356ee5d06e59aa372ed1fd7c, 6b8e2b78d7b0ddff7aec1ae09b550646958d08dd, ca56c3b2c58ce1c4df95e4fb60b4130879ecb934, 7bbc94b3357d5ed12ca36a184c750976c33086ef, 7bbaf3385dbef6f098333cd38b588830dae4b859, 5f7ca5f7da94d4a5efecd39a0b7b92a71228561f, fa58777782d807707607187b2969bc0c92b5bd88, 901380fc2ac9e873058669f83904468c47229921, ee7a7c1cecf341082aeaf35ab2f9ced24dd38a8c, 7a72c8e43d1e10c4c0ef0035421343fb23993168, 42a6c025ca75fdc56775c7f0ebc149fa32d409ae, 36def05374606e71e417ae142a964ab0529b6443, 121da22c366fd97610c8223f6097d45f61ed18c3, 59d094ae630a51f20a4f8c78ae8cd26e21a18fb6, 4e5f876ca511dd932e2795f6c075c7cc614e6240, 87bff921d25fb9d3da1dae74bf5effd7f0ca130e, 40cee618f5e7877ed39b08194b50704bc69c45be, 32a70c6279ca9489a8d86dd926cf7fbc44ceb6d6, 3f4a6860f20a5cff36ce02b83698798ee64746ce, d7ab2343dccfd9fd0e0a65b92b8ced5c50ea2d31, a8ffb1d140f4ff834d581b51ae55d7a011af5032, 968d9e03c67ccfd80aabfb4eabb8a65697d57f18]","15","1","b7a7fb34ec3d71cb715aae8be9c7c02576e064ad","70edd3a2eb32521d5f0f2efc7de77a5a2f59fdc8","298d03167ea526f54551d2794d4081aad0075d2c"
"https://github.com/AgileVentures/MetPlus_PETS.git","182","19","[fabb120dea1e7df864112f3c26e695681536e35d, d0335f8f239fbbf39dfa188f947ed13caab61ce2, 92082c640d5f2b9ee4804b9505ffc9e149f15b86, c8af168dfb3351cd326296907bc634dd75d3406b, 758d9704d9b89fd7d13dfc0692816f35a3942fec, 4ace8396ba17c82a754e7f6654a3a119d50fb64b, faa8583b7d344f1e1e496b9954ea347af7f42ef2, e10fe8e322195913650bd939c20d2c5af59a387a, e57c24fc6bf5e1b3e1c668233ef775f22eeebe95, c0cc9fd6cd961a4950146fc11aa6475d4967f6a2, 2f21c934b46b73e486a40b628a22f4fd17936355, a1f4e0f9a01a2f54fc9b2a579ae14bcb70cc9770, c78b66a1cbebcc0e1c38d5d1bd664010cc2ba016, 97a88f8808ee60f4d727f094b87fea0012dc0727, 53ae60ae74c4591aefe12916944dc7dff0c2b6b1, 938bd1d14160c59c93082609027af8e0f1fcef96, 184b5931b96f067b107b1b4f69e3f6cdeb2535d8, 15160bd6c5a0813321222e70dbaa67c6a309bc03, f29261698327e7952c787b7a755a053c2916a306]","28","1","fabb120dea1e7df864112f3c26e695681536e35d","d55d63b851baed5d9a184255ee388b9faa4214b7","82189d40cdd6b8a7cc2ac34024191e7503c58d55"
"https://github.com/AgileVentures/MetPlus_PETS.git","183","2","[cd04e230495b2697a87767ebc8c644a60bed5f80, 0af81d385f0a3e0a29b05f8bac71417a450eb044]","4","1","cd04e230495b2697a87767ebc8c644a60bed5f80","d55d63b851baed5d9a184255ee388b9faa4214b7","fbd855f617faf26e054dbc8521763b801ea36cfa"
"https://github.com/AgileVentures/MetPlus_PETS.git","185","1","[13f376d050dadca8a99818532f67b373d01901b9]","2","1","13f376d050dadca8a99818532f67b373d01901b9","fbd855f617faf26e054dbc8521763b801ea36cfa","e02e0dfe210e0b39cbce4d550fa27b0d1f39703e"
"https://github.com/AgileVentures/MetPlus_PETS.git","197","1","[2b84ce5c65f5d3ba2781e67511281f2447de5076]","23","1","2b84ce5c65f5d3ba2781e67511281f2447de5076","af944e1008c7e943d35f6daaccfbab7e44025ca4","5cef0183efd67b2fe5f62d67d8499bb3e8f97c83"
"https://github.com/AgileVentures/MetPlus_PETS.git","199","1","[8e14312c8e1115dc4d2008cd404169693a6aa25c]","33","2","8e14312c8e1115dc4d2008cd404169693a6aa25c","0386979e5d210cc1aa9739e444ca844db33ed40f","da5ad16e9323fd656feb889e71eb32549f2854d2"
"https://github.com/AgileVentures/MetPlus_PETS.git","200","6","[a13b8324d2c6ede7634f6a00c5d2c5170a1cc43b, 53fd90e3939d297f99b53422d58222fa94ca7300, 66ae8642cef1cd3d55739f02f10ed8c09445c200, 05e2033b17d9c6728a029c810e3122de8d441cca, 351629f7aa453616a674e20ad50f2a8b779ae172, 017471e251ce52fa1b8c31f4216e20ff6395ddea]","24","1","a13b8324d2c6ede7634f6a00c5d2c5170a1cc43b","0386979e5d210cc1aa9739e444ca844db33ed40f","da5ad16e9323fd656feb889e71eb32549f2854d2"
"https://github.com/AgileVentures/MetPlus_PETS.git","204","12","[3203abc1ee9127abae72cb1d867bd4db12431514, ee7411d0520ce5eb5826ad7bbcecd83cc2d15687, 37e256c894ab0f915e5631ac3fbd10856da34b3a, 14a80396234b3fda07820a14ba3301700e29a8e1, d08ad2f70099de1edb8fe91040d7629041f9b0e3, 92b0aaab3a30d7524bd0cff3b3995a15b95930e3, d53caf228062a3f48fcc4b50d7fd56070f915484, 0c193cd07f8de0014f97002cfb6c7eeff414ccc8, 4f80eb25f145f655834afd54a9f23b5b0c59b99f, 9042b0b9e9fe4fc175c008bdd3851023bcc0788e, b4cf5ae4315feec798aacfc22477e97a600695a4, a13b8324d2c6ede7634f6a00c5d2c5170a1cc43b]","36","1","3203abc1ee9127abae72cb1d867bd4db12431514","083d1ebb3b85ea0de972b6e82a1c7adfeb0430de","53fd90e3939d297f99b53422d58222fa94ca7300"
"https://github.com/AgileVentures/MetPlus_PETS.git","205","10","[907095031ceecd61c1b9588d9b935791f5e1d2a1, 49badca409912680887544b03dd4c095b96efaf1, 70f290289071ebd2be4555be27543be9fa6e4c58, ff55a108a8b5873fe77bc486a7c21e70760be9ee, afead8a363b1848ac69aae6b14b3a195251c0a37, 634e092fee0bb53f3125a5ff1425f16103178390, c5e9af5383cfe50e409bf4854e52fc027bde024a, 3971d08507726e6c3d12cc7d6d1a241bf64d5042, 1fc46982db3a6c68b3fe9bf0c7744d8aa7fb040c, 98ac3b0fb1fdf69edf3755f6b96e5ba2ffbbd6cf]","24","1","907095031ceecd61c1b9588d9b935791f5e1d2a1","083d1ebb3b85ea0de972b6e82a1c7adfeb0430de","53fd90e3939d297f99b53422d58222fa94ca7300"
"https://github.com/AgileVentures/MetPlus_PETS.git","208","4","[612ea9c040a3cc5813b809acd2b1c66e5c02586b, bf42b31d14da706afbb1bf5f78baaef295553389, a3e83d0508a2a25454484a0f16532a0afe59f92d, dd6fc71fb8dce16a46ea2a8bf77e65f758e098ab]","12","1","612ea9c040a3cc5813b809acd2b1c66e5c02586b","8749f52467bbaf6e92e6e858d5941cfaedb0aa26","6bb1cd89aef18e0b1fef8ff677626d7fb6e42f3a"
"https://github.com/AgileVentures/MetPlus_PETS.git","210","3","[2fd0cac5d89dc1c5da75a8bcf2db09766594cddc, 8bfe416cf06c2dc2c41ea085468228ab990b715d, c4bec552037d8ec57860f3c21b24d45f9fbbc130]","14","1","2fd0cac5d89dc1c5da75a8bcf2db09766594cddc","6bb1cd89aef18e0b1fef8ff677626d7fb6e42f3a","f1919732d265c3b602efcf73cdcc83731c0b4cbf"
"https://github.com/AgileVentures/MetPlus_PETS.git","211","3","[d949dcb7395c08965f6f36d4e3198649c3890cf1, 42a544abb643face120e01b5e74bf29ba998badc, 5b45782bb4c4facb00360dade88e8111fecb3fc4]","12","1","d949dcb7395c08965f6f36d4e3198649c3890cf1","6bb1cd89aef18e0b1fef8ff677626d7fb6e42f3a","ded9e46a9a2af607b44928935aa2f35eba7ea050"
"https://github.com/AgileVentures/MetPlus_PETS.git","216","8","[54c5b5387fcc04ddfa486c80a61a75a841fd248d, 909a3561d942d9dbd9ea81729753df64dfae480a, 429c011f16e9a4a2cc97286a52acb9394f46713d, 9e1cbe89441ddc992fc89e6808783363ec79dcae, 46b1ad6f4cf6423368ade7f8e49e635c36de750e, 192762a2d530c86024af1b1151e204e67d75fedf, fba4b989d4b960b9daaee51573262eac91dbea9d, fffa60011aae812987fd3ebdf986b8e7453b2c07]","12","1","54c5b5387fcc04ddfa486c80a61a75a841fd248d","eac5a27a0a7e5b087422eedb213ba8ccbf2d0457","51ea5075ac5284795925c2ebafc8538d827c75dc"
"https://github.com/AgileVentures/MetPlus_PETS.git","220","2","[4deb9b3d8e0e6c076bb2c8638f31591e032c7a35, dc7ea7c71aed4c84cc7a4bb367f20c1c25156a60]","8","1","4deb9b3d8e0e6c076bb2c8638f31591e032c7a35","362fa1c31e5a27b422062b2df79494a37821f300","05e8d98b68f03f4780fa6afe3c9de11f84dd49c2"
"https://github.com/AgileVentures/MetPlus_PETS.git","223","6","[d08d6a32c699ebf29587dcb9b74e05aa4e3dee5a, bc613d6cb2c51ab28da07ff9041a2a414ac2fa4a, bf3dbc594bee795fc9e26844e75455e8db27c99b, d2c8400856f3a291148e62e3385fdc0e429d23a5, 9d39068b07731a95ba0262ee784b5303b97accb6, 5778f3f719cfe893d41884811659f1ddd66babca]","8","1","d08d6a32c699ebf29587dcb9b74e05aa4e3dee5a","05e8d98b68f03f4780fa6afe3c9de11f84dd49c2","1c8ca3f61cae0dd7c0ea07e32031a7a1959a5e31"
"https://github.com/AgileVentures/MetPlus_PETS.git","297","20","[bceb72450dff0cb6d13bbe81cc954621a8861155, e73afc5f06add6a0171075b09b02dc88457c3b3c, 49409cc6bd32eb4dd410ce510297269fa8aa413d, befbcdbd6c66481ce4a4ee2b2e2baef47d1e0403, a320a49961360719330028e266742eae24bd02b1, b0af7e0a9abd8ec1eb74a67c7b8ffec3369bf920, 6a08aaf6bc06c6f707e823144b931a3b9fcd9214, 3823aa4264bd6065b1b386fc9758a5503d0f1ccd, e8b50647c245345d6a41d4eb860ad6ec701f617c, 3f9f6b249b3f712e2a8280c8a969beeec871f46e, 974f426196d0c6df6854570178f8c99e50783e23, 0ac7e89803ff2514273bcc08d7cde996f1db661b, c916d5cf192b1b6961c99d110306d8e090421797, 56f9cc3089a5b29a95a0b7169aadbf1a7339891a, c1842114dbf5e158517a7a453da82fbd31d58bea, fe3aff48b8a128d3c71ba504a058d0c4a9f7c883, 66aee8e72625e7c52897a5f348c8fadb6d70181e, b2fe51e933cd1294c821670f54ce28ede8c3cc1c, 34de0cdc98c6a0ced950700c6faae69983d9dab9, 77e63a9ae7dc2ffa4fb0b582e3df1c0f693d8766]","14","5","bceb72450dff0cb6d13bbe81cc954621a8861155","cef5641126e1ae5ce06f838183732da841989f8f","ffcf67f311e0d09b8b58dde00d534456ec70a253"
