"REPO_URL","TASK_ID","#HASHES","HASHES","#PROD_FILES","#TEST_FILES","LAST"
"https://github.com/AgileVentures/MetPlus_PETS.git","57","7","[45b6487fe5bcecaf95f8a96088cd330677c9167d, 50c36812642403f7dc3d99920d8a1a024fc4f570, 1b60bb859f497a5deda64b96841da8cd10ee8ae3, dbec0a54cc7f7086122cb60611862a56fc37acc5, de1963d7d8b55a4267fdcc52c6a8dc204973cefa, 664c0688cce028b78f1884aaa11d00228b8f0e8e, 5e17acce2901f81585f3893d164743cc1ccaa622]","19","6","45b6487fe5bcecaf95f8a96088cd330677c9167d","2a8c7db2efc160466d7539d02048ea3d85cea2c0","02dd3d08b5de4423f546fc7c0fa056515c575367"
"https://github.com/AgileVentures/MetPlus_PETS.git","58","16","[51cb038f091a205850577709a0b12772b8f4fc44, 8707dcf5844b34a0f53dec282702b39dc90642db, a6a4c9f974b98443b40f82da942088cba8a11df1, d543029294e402283df860b09bae00d9f019a5d5, 676062f971820e47f0ba0ad635c0e688547df85d, 4245d739c6a78efe19635dca8c0d24e7af8d0d4e, 8be059d2154762b3239590ac702ceecb11cdd387, 55002d41314032dcb2ff0e0c768bf210485478a5, dd304d5d6a79968662c343f7bb5728b0d8162a1f, 24f1891668d55522e90b31d07493a1a66571056a, eb24755875e5ccaec9041883c4b0c8915ff4e4fc, a449c2e9c99db95f2166cdef66e9c51fd250f797, f094bdec412fe86fcfc61243bf4cbf7f8a9d5f7b, 2d572544318e8604c38bb3755d23b43576a0d28e, de961298915951eff084ef94ebe4206a88c4d3d9, a56c631983d923ae495a283d57a66dce1ddf4154]","47","17","51cb038f091a205850577709a0b12772b8f4fc44","dafa2ad773e3531d419a19aa81adf76b711e60ca","3fb834693a5b677b9ab87acb20e8ff80bd666324"
"https://github.com/AgileVentures/MetPlus_PETS.git","60","2","[02dd3d08b5de4423f546fc7c0fa056515c575367, e59bf46b6f3181d51a384ccabbf22ee826cbe470]","3","10","02dd3d08b5de4423f546fc7c0fa056515c575367","ec5a1f4b64b413a761a543eb2a04e0612b0d2f37","1696cf747e3608a39b08ddb05517ae78362acb7c"
"https://github.com/AgileVentures/MetPlus_PETS.git","64","12","[e867907e230d65ced1bddd78055e7e0c44caea83, 67508f0c258c78040f3e1ee7b03eab557391592e, c5a3d315a16c4f407960cdc01d6ad03267549b10, f15d4f4e3b2d4556a40de9a270ab31ea2f9b4e2d, 2e1a2eeb4c4e5053061d122d2fdd88bf9787177f, 5d7f0cf8721894b93016c6fd53240412b1b24b26, e8aceb3fbe258654ead25c8c2219d55e12bf4236, 05ea3e1b46dd5a3ba5ab575d404420033489acf5, 5e73ec8fbf82d50736eaf13eff2b11d66fb21830, cd799e59d1c7ac9fe0ea85e912e5b5453c38c855, 7296ed0d91fcca2c3be22858a3d78a84e4bb36ba, 3ff57e6b2094270116d51a4516d3dadd901f879c]","30","5","e867907e230d65ced1bddd78055e7e0c44caea83","3fb834693a5b677b9ab87acb20e8ff80bd666324","2dfd83714832e0e5ed8c8c3955ec6d44877464ad"
"https://github.com/AgileVentures/MetPlus_PETS.git","65","4","[2dfd83714832e0e5ed8c8c3955ec6d44877464ad, 400dc2686abbd98bd1652a54949700c3d17a2461, a91a0f1c0fb7d2885f949fa14aae828923e6c267, 7bd9dcb070c1be29e84f8c8dd9056312c9e36b6b]","20","2","2dfd83714832e0e5ed8c8c3955ec6d44877464ad","efb6b2c7031c8ae2c8698658e5e0de213232c39b","2eca1b5aba7752a9a5a53ab5a3e4b696c4bf59f0"
"https://github.com/AgileVentures/MetPlus_PETS.git","66","6","[2eca1b5aba7752a9a5a53ab5a3e4b696c4bf59f0, 1382aa0ecc801f956f076b40004b908664561e6c, c7823c8c36b7e3e23c8a621ae9f54cc426807ca9, 412aa5ef1520c2a8fc223436a0f192d923f1d770, 644d41eee26c5f627f2127371e361ad4e0b87d4e, feb5f3e617ce369c05433533283535f4662e0ca6]","13","2","2eca1b5aba7752a9a5a53ab5a3e4b696c4bf59f0","e684e2f68da28051a6951a2d174bce6603d0373a","e0c564b5f29fe70c855e1ffc58393fd074ab19b2"
"https://github.com/AgileVentures/MetPlus_PETS.git","67","20","[e0c564b5f29fe70c855e1ffc58393fd074ab19b2, 7fd87795fcd23672c415c9e3b9f271f383f00bfe, abdd765be15e614c13536ee1c91d530be8d02364, 173d306752c5abb43e99856bd02e2f10eb1989cd, 1f824f8fb1b899dc38d3108ce366f4e03cd955a3, f37068120a4724176491dd160980a0fd8dee9a1c, 3fe11d1c0149eaef5c72e5cfb9f5658923f1a87d, 162db5ec32448d771ddc9c4a5df79654bcb4b095, 7a476d2f152fb3df5477f7e157888db453a6895c, 2dc98ddbe80b189e7e22b018715203b6d5096353, 3b81ae676be942c6ebb13ada0f0149eb2a03d280, 649e58472ff99e73bf9d40ea01166628dc83bda0, dbb99f30ef5565d8624eb2d957a9e5a9f0bb3c11, e208b4206fe79d44f7ed64837d34d240c774caf2, 1a1f3d1702e575e1fa226ae13c9fd378f5d97db8, 282aede73132790a290ef5946def55a019d97fe5, 5073b3b935bba47cb410743c21872b5d2194f2ba, 9dbfe1dfadf346a24d88da201b6008f52a201856, 5c7c5961398a5aa0ea400e1cfc4ceb0d9d435ad8, 6df349489a1979739829d493f9b5545cf5fd5d00]","53","15","e0c564b5f29fe70c855e1ffc58393fd074ab19b2","209ac9cadd67b645c702a274e86d5c0f3d195520","e5363bb216d0d5e6464b84bb04aa110a341fb620"
"https://github.com/AgileVentures/MetPlus_PETS.git","68","17","[e5363bb216d0d5e6464b84bb04aa110a341fb620, 2ab7bc8d1c09f5bb390bb21ae605494c1c148f55, 3a75d001e33aa627801ee24e59ba52fd8d2cffdf, ded4823e3c08f99886e35530a5bf414c867dccb2, 989912a5cb98ba9db94f021383c692eb2f44f6b0, 6ca9b19a3b4c097deb7501e0050e1f476b714282, e9182eebb174b8ead07ad8b84d11b536d5cda490, 8a56f7a9a3128d1299136396164bdac627c9d35c, 58d8fb416c5422472a9c753b90db76417efdf2c0, 6378913ce2379ea03cff3019bff4d6688e8bff22, 36103c7e0d5a953e136fcb323f981847e838bf0a, 8a6e078e79eaa4fdba9dcffb7d43fe6a41ea23a9, 87e6ab48b2b2bd54773a0572d59d153c0b1495ea, 448ca437328e450a7b3e6fb55d4c1358c575e0f4, c8d0fff8c4972ff46da27f285626c71e4d0cd915, ebc2130fc472888b805c8592fdc1d839c1218a63, 16b01e9cb5c55e4fcf09a081d964073577259664]","25","2","e5363bb216d0d5e6464b84bb04aa110a341fb620","d801b1974b74d45d9fe08da679fb936e022648eb","a2a10133fe0a395f21d34d5af22f4d2fbbd64286"
"https://github.com/AgileVentures/MetPlus_PETS.git","69","8","[a2a10133fe0a395f21d34d5af22f4d2fbbd64286, 0ff41bb68e66706dff11809d1e5dd080f5f3e65b, 1cc4d5a50e3c6e86b937079ae82931de5420aee6, 8fe23d61962d97f0a2ddac37134adc48eb22b43b, bf1d6d633e31457c85797888a2799ea197796e4e, 372d4b8623081bb1b048e7e759ffa3fde4baeb64, fefbef01a697e10e76b8f1f53688e02e013a68a7, 33370962a191e0421ab2d9fc74d3b1b701dddbda]","44","5","a2a10133fe0a395f21d34d5af22f4d2fbbd64286","2bbcc8ca267b46c53f4ef36aa5165b15785e9930","569b49541e62e4decce729d372d9ec73cb479d47"
"https://github.com/AgileVentures/MetPlus_PETS.git","70","5","[569b49541e62e4decce729d372d9ec73cb479d47, eac3f21430991b09f5584e0d492ccd3940673861, 77096da6a8f2acd657bd2c3fcb4651e8585056c9, 57ee74d6a21bac96b337ec64ec003a7dac7f8613, 870bfe5ddc2ea033752b9fca451024c11b377cf3]","18","8","569b49541e62e4decce729d372d9ec73cb479d47","696009c59af711cdad7891fbb2a4746104b4ec2d","f1884f0cb36d92ea46efd7a395a7a5103e02f185"
"https://github.com/AgileVentures/MetPlus_PETS.git","71","8","[f1884f0cb36d92ea46efd7a395a7a5103e02f185, a2049b1b648f2fcd8ad32e3c426f70d5340c2ce4, ba36004c8e3cb49721f67bc1782bb9d13a3fac67, 2ca0f8c62a783e2de468f944f4dbcf77cef56f2f, 0f30a84bef3dde5dab136f60314e4c3de7551b93, e0ba11e7e513f4a697cf0e7c170eb422d8fd9bbd, cbe99fdfd57fd464b85272b9b71cca756a4aadad, bfa3055c06d222af13bff00c6f537d96f96b3fdb]","26","5","f1884f0cb36d92ea46efd7a395a7a5103e02f185","220ebcc3517ae4f82b7b8625f9d2c6565c8ccae5","c50522aa6d510f57054754a8e0468501836845c1"
"https://github.com/AgileVentures/MetPlus_PETS.git","72","9","[c50522aa6d510f57054754a8e0468501836845c1, e8c93112ae7d6e861cabe13e7979f99d3589d07e, ea195c9c58224579f9b312f05d3355d22ba90032, 0bfe8738d7cde0508edb49a7b5ff2e3c69aff63d, 59492e894b0048896973113b8e216aab98e81e97, 77ae20e0e1541556f3f827fe4fd9c84bcb800b1a, b7cf685c61a1e60ed35275c601005204c0ea367b, 78bd5d1a23667422c2e9aba39b8038f53d80e963, 80b6c3af3432bb7a3bb1d6b9c39ca6c2cfb7ea50]","43","8","c50522aa6d510f57054754a8e0468501836845c1","20f0339ef307b6dbcbf8523d9e4e3f66aeec2ab0","bbaff43ad064ed1c1be3a94cae4327dbce92bee9"
"https://github.com/AgileVentures/MetPlus_PETS.git","73","1","[c5a579bfa032f7e4fe14d902b5caf109fa7a3e9d]","58","7","c5a579bfa032f7e4fe14d902b5caf109fa7a3e9d","12ba88510b8efa00d3542c1a7975a53760b5d187","8c04a9a805baebd9c8d45d384ca88fbac45d5d01"
"https://github.com/AgileVentures/MetPlus_PETS.git","74","10","[bbaff43ad064ed1c1be3a94cae4327dbce92bee9, 891b20c93d4ff5da9f99f79714a7c5f83aac52c7, 4a8a08ef1f631ac263e9ba7e7fd5a112c7b45a46, bc27c624938462bbee3cc98e34d9411603d992da, 7b0ed81a48fedca9b406a11e83d9a00689ee8def, 8514a347fcdd885f385f0a226297c91abc75ce6c, 7841e176cb0ab5eb293ab0c44976b22512511e31, 8b0b3095de2a45a37cc8fecef327fc9c480eb466, 0f9566de5de0ffebc6bf9932400bfba140e57da2, be14175755d9e71d95dd1b2bb8194a3a2f944577]","32","10","bbaff43ad064ed1c1be3a94cae4327dbce92bee9","12ba88510b8efa00d3542c1a7975a53760b5d187","bc9c92b53bb1e1de6ed23e649e9f2539630f36d0"
"https://github.com/AgileVentures/MetPlus_PETS.git","75","23","[8c04a9a805baebd9c8d45d384ca88fbac45d5d01, 89f4634106f059221b61915ac68751f167f6008e, c5a964d889aaa2df9a5ddc23fceb9b820752e2f9, 72a38e82296ccea151a4f135fc369ce355f6f5e5, 11285ac5097c0d5b798c6a27d01705db6221562e, 8bdeebb8efb0cb0903da1515bafdff7783cc51c4, 1b91c193cd4af4daf9441a087411a7ca92aa3a82, c114a2859d7fe0b43967edc69f4b10cfdaa9f1fa, e780e5ef5a2a9b3dea34e4139cf8368d34c7612e, ae57979c98ae07bdd3c6f769f39f54ed6f4a5a3c, 54338c50b84fcaccdc3dd92276df5e94e0e6098c, 7121940403994b72f2206e231d2d3053c958ad5d, adf124b381332bfecdcbfeaf79ae34babc5428e0, 2d17a3a12ede6f40913ae8553150f30bcb2bd9df, 57be3015ca7abf4fb87149e250e141145a13b00f, af22681fbf6583880f7466a8546870163682935d, a08e24c8570f178345b109d0a50bb907067ac6ed, 4869e76e8e4ecf72fef7e03652fd583f63a8994c, ae30eeeb89288ded2c531bae650ff56f256d2c09, b18e90edc3e4c1bc2896699120c972f7e1a1556e, 751a9242ec95e78349027eab1eb40e4e5994e448, a1322be433e1d53ad1cc484bb0471f749a7bd33a, e933993832defe32fe0491a837dfd7d3a950dfe1]","8","1","8c04a9a805baebd9c8d45d384ca88fbac45d5d01","bc9c92b53bb1e1de6ed23e649e9f2539630f36d0","1e715b800b2274aae1600e96f80f0ee710b215b0"
"https://github.com/AgileVentures/MetPlus_PETS.git","77","3","[71c29c90e5313b4964e887e75036942b9005d569, 56f88783463e2cc3fea18c278c9c9bd35dc4ef42, 296e0493b56f92542f9f4911cad800e09b1f8e77]","7","1","71c29c90e5313b4964e887e75036942b9005d569","1e715b800b2274aae1600e96f80f0ee710b215b0","291ea6e2d6660cd234b48783b2cb4f24f05a42ff"
"https://github.com/AgileVentures/MetPlus_PETS.git","78","19","[b513ab9e8cd447e04a9211b226f36799d00080f5, 5a408f2b506bd1b14f447f009637a603ced8a09b, 0c04d30bfb80944aca186c110b8af86decbb5889, 73911520e07fca15b719bffa96f13365b3d0ac2f, 31c59c53c9d55e8acf7ac64f032882ca6ef17b4d, 01cf81b9cc590e7c35c10d32522f463c882a86f4, ee1a6530e5dc37fb883076af3cb6040aaa178419, bdd24264dfb4d2a47d5bd31fa57bf48d4e36000a, 4c25ee74fbf709f7a04dbb0ff31e2e41e1523537, d9e8ec6b41b33049dbf76210761db9ee42c5e166, 286a663ba574f6c457da1ee183b9315498e34be0, bad938bc5347b2908b953bd6dbf402121bbd8de7, b725fb24d56b8dfd5c09b351b894b475abbeb93a, c6d26fda8a7077eb43a796cb78de45a12eb4592d, 7bd7b8049a54c472eb0e8dd622e2983401cd646e, 48886c373cf84833c6ef2c9721f504219cfadd2e, aa3d7521a3c1661b7a500cfdc72fd50d893f2f7e, 206c17b9fb8da3bccb4377daec1d7ff8ed6bf12d, daf60915a31bc91928aabcd760336065ac3fb9d6]","5","1","b513ab9e8cd447e04a9211b226f36799d00080f5","1e715b800b2274aae1600e96f80f0ee710b215b0","ef5d35d14a88931f2589b6c386ca4dd0f0603f9c"
"https://github.com/AgileVentures/MetPlus_PETS.git","81","18","[6dc5d06d4d7f1c0a28a669baef4ca4480bdcf8d8, cfa11deaf726158ebb3c01a188d3202a46f2edbf, f15e0bd271dc0b1a6702ecc880347634ce0a8ff2, d6effbe8f9d34e91af30720d04b85d94f4caa812, be19e8dfd04db8b13276ebe4f983a32de37ec5b9, 7ca532ad0c8b22c7c6a9090846b752550ccdb7d2, 355f6f8244398362fae8a5a6d13fd6100592196b, d62dcb042e682a13b4864f702e7d3736137dbef6, 23952fb651312286a9120a12bb353a25e97ea121, 3e1e3e5dba6ebdd031b0f68efc54a1a73b9d3e28, 9041c6ace573e297be359d638065e298a3d7f02d, 416e2c3e03df5592a5b39b62a3c947785ebca906, cabb0f3e02339085b1406a5fc93f0c719696926a, b60b705537a86d01791ccfda172679f21cf3d2aa, f6b74c98a40d1822a40b0f7013b3897c98174d95, 0b216a0c00b51bdbdab2f55dda94a84da2f51a7d, 07e1f21869f616e699411d193c4de8e02807a5cc, 5f3c9f07d46d1d437eff66b86981aa564cee7d98]","7","1","6dc5d06d4d7f1c0a28a669baef4ca4480bdcf8d8","291ea6e2d6660cd234b48783b2cb4f24f05a42ff","42ca2731a6edfa5d28995960e527f60b37e96207"
"https://github.com/AgileVentures/MetPlus_PETS.git","82","1","[a1017a9f5cd50e09f37ba92bce49cdbd59f405be]","3","1","a1017a9f5cd50e09f37ba92bce49cdbd59f405be","291ea6e2d6660cd234b48783b2cb4f24f05a42ff","314d995ad937d9b3b00006208b7e2a67a3f22173"
"https://github.com/AgileVentures/MetPlus_PETS.git","83","6","[a0cb7833dd515494f73130ce9b90e126f80e13b2, 3a6a484d90973474eea49b24811aecc989e80a36, fa44a396a4d461a5e1561ae5d5f22fbec3bb4f02, 87ec551a2e6cb4b7aaddd3802cb616051df0bd01, d92e3168ccbfd98f7656eca6e6777f21fd1c28f7, 79789a639e40f82246be753ea6dd3f323492a80d]","3","2","a0cb7833dd515494f73130ce9b90e126f80e13b2","314d995ad937d9b3b00006208b7e2a67a3f22173","14d2b6ed24ebf960a07448f1b54a67b8e52a1f85"
"https://github.com/AgileVentures/MetPlus_PETS.git","85","3","[7bd5dd0a1b96a2b6142c607786193e6ad8727745, b0010ea76cbb9b72629b4059b2d44e0f6d4e0e72, d7af6ca3cb22d55e92705a017d2322403283a123]","7","3","7bd5dd0a1b96a2b6142c607786193e6ad8727745","f48f774a210fe3212d0da250e58f971978d25431","42ca2731a6edfa5d28995960e527f60b37e96207"
"https://github.com/AgileVentures/MetPlus_PETS.git","88","6","[f05664cc3961d4e4fe2186b7ab6b5e6bfe494e3a, 343eb5a5dd704643945ef03357bdce4f5ed20ffa, 97fca9aa27a371f53afcefe7724522f0a035510d, f809d4a1d815b08219584bf2f5ceea022ae53ad9, 935ee2aed58b3dd7e200a96236a3c61da209335c, 1551a13453e37781832c4975317cd3773459a209]","8","1","f05664cc3961d4e4fe2186b7ab6b5e6bfe494e3a","ef5d35d14a88931f2589b6c386ca4dd0f0603f9c","07ef20523d37db9b776214bff88bf723e363a607"
"https://github.com/AgileVentures/MetPlus_PETS.git","94","2","[150f78cb1bbe4fd7fb37a7f4152bd87319e62f2c, 74b4130435942660f4e10fce0049dee13b6ec6d2]","5","1","150f78cb1bbe4fd7fb37a7f4152bd87319e62f2c","6f06731eb44f1a3de33ab2b8674583c16f9bd76d","23124b0ce74163eaf54e2834ddf958a77889fa58"
"https://github.com/AgileVentures/MetPlus_PETS.git","102","3","[91fc7c0ffc2fa0e6774990784f94ec9f9bd71dc2, cc5d9843bfd94dfdb99bbef8012f6e08a6452683, eaab65cbe0178691e305ba7dc6775a175fc6cbcf]","4","1","91fc7c0ffc2fa0e6774990784f94ec9f9bd71dc2","62c6d0eab7b21c6455014fa5ef3ddcede172e82a","4382fe79814aa29cb4e1f3d9628802965f3b2d5b"
"https://github.com/AgileVentures/MetPlus_PETS.git","113","2","[a55a8384e0b61970f78bd3f46aeff69f782e2ce3, 44d0f7f8f070ed4f3a3bbbbf09085223f35256b8]","2","2","a55a8384e0b61970f78bd3f46aeff69f782e2ce3","6704ca600b2b67e410e78c9c52fd85dbce8945bb","98af6378db8ef8b5a88b27c377c74116d72a8ea6"
"https://github.com/AgileVentures/MetPlus_PETS.git","114","7","[775ccbbae8c55c09e6595770a5c16431c839a0aa, fc2647e425f9d58df866e9b1228aa1d057fb6fec, 6fd2ec5feccffc656343b9598909e73aaf68c1df, 07674191f19e0bebd0084b9bc37af951822ee3c3, d603a7dde653ea5f339396ffd16eda2120b5c78b, 244df8c52556390f66de537158c0e4c54abf12f7, 890454536081da1dd8c7db19170edcd028e9421a]","11","1","775ccbbae8c55c09e6595770a5c16431c839a0aa","374d0113c74993df12862150573b82e6c1936a52","6cf278cb648b0b074eccfd7fc8982010b62e8c32"
"https://github.com/AgileVentures/MetPlus_PETS.git","117","29","[610ef33aab0b4f43e5d0acb2fc1f1e6853ca1248, fea48ec36853fe7029f36e0938fff7fb920feabf, aa1c81885cde473d3dd17f6c1e4f4b81631bfee7, 7d8c87ed2a395c8e983d1d7d8e591311978a7b8b, a432513b8e6832c1f7532ee9d15e1e1a9fad502a, 0a8bcad8f7f5ae8009a3e2279a5ff6275103856d, b61c8193ecdcc9c596954673213afe6432e749ab, 9f1e059fc133484c87de6d4ef6f272162a30f8f3, 9ffd2734a04bff20d194d432458603182d5db451, 96cb4926ac93dd9e2989ba89e3c8be10b2136db6, 3502b223379a57ea1c0770fb71f3842d37bebdf5, 57df2ab894a99b9c1eb288daf74016a67b36af77, 009b057585165097d3961856d72cee648678c790, 2c98820553888b366b007bb7ac8b177c356a234e, cd0b84c0739edda9f85162a9e72ffff0b7f4a488, 5ae99e6e7a144861e7c7fa554a832b561f9a93cc, bc71b56b61d17b0090fae7d126f653eb444e8597, 00bd4282d17caa1379ff71a7acd9a658aef6fc97, b7b751641755da10d46e2dada6bdca88fa45f527, 72562e29309c98ff703d40205abd3f5c3bc149ac, 3b2393312a12576d8101e78d0951f0323b95a18c, 805fd4733bfe19789ecd1639482c9bd751489021, dd26a6a92070e0b83d7300c878a60a553a6ec198, 4cac7d7da85188e56e4bc99e07368a1300446277, 6e25a63643f404e34777e44f879c1b359bededc1, 8228614d09662985ae85366caa853414d79b5acf, 14d49b88a8aec1b7c27fd89c202a44a1b362063d, b7752e9f0b1bfd255b1e5c17fb09a089de66d37c, ae1677b3a1113d3ff691fdd7326deb160b8ce3f2]","10","3","610ef33aab0b4f43e5d0acb2fc1f1e6853ca1248","66c88631b75dcd60c7d5f8c9a84186435548e8b4","5d78e74ac58fee428f2ab58d9eaddbec26b5478c"
