"Repository","https://github.com/sharetribe/sharetribe.git"
"Tasks with empty IReal","0"
"Tasks with no-empty IReal","23"
"Tasks with relevant AST error","0"
"Tasks with AST error of Gherkin files","0"
"Tasks with AST error of StepDef files","0"
"Tasks with AST error of production files","0"
"Tasks with AST error of unit test files","0"
"Tasks with step match error","0"
"Tasks without required gems","0"
"Tasks with changed stepdef","15"
"Tasks with changed Gherkin","23"
"Tasks with implemented Gherkin scenarios","23"
"All invalid tasks","0"
"All valid tasks (Gherkin scenario, no empty IReal, no error)","23"
"Valid tasks, but empty ITest","0"
"Valid tasks, no empty ITest, but zero precision-recall","16"
"Valid tasks, no empty ITest, no zero precision-recall","7"
"Project","Task","Date","#Days","#Commits","Commit_Message","#Devs","#Gherkin_Tests","#Impl_Gherkin_Tests","#StepDef","#Impl_StepDef","Methods_Unknown_Type","#Step_Call","Step_Match_Errors","#Step_Match_Error","AST_Errors","#AST_Errors","Gherkin_AST_Errors","#Gherkin_AST_Errors","Steps_AST_Errors","#Steps_AST_Errors","Renamed_Files","Deleted_Files","NotFound_Views","#Views","#TestI","#TaskI","TestI","TaskI","Precision","Recall","Hashes","Timestamp","Rails","Gems","#Visit_Call","Lost_visit_call","#Views_ITest","#Code_View_Analysis","Code_View_Analysis","Has_Merge","F2","#Multiple_Step_Matches","Multiple_Step_Matches","#Generic_Step_Keyword","Generic_Step_Keyword"
"sharetribe","357","[02-01-2018]","1","1","[Fixed: Per hour tests with time travel ]","1","3","3","0","0","[username, hashes, id, save!, update_attributes, update_attribute, set_default_preferences, save, each, where, update_all, name, find, click_button, click_link, page, execute_script, select, page, have_content, have_css, within, find, click, provision, enable, activate, merge, api_verified, create_listing_shape, find_shape, create_listing, to_i, nil?, community_id, inject]","0","","0","","0","","0","","0","","[]","[homepage_with_locale]","1","42","1","[app/controllers/landing_page_controller.rb, app/models/category.rb, app/models/community.rb, app/models/community_membership.rb, app/models/email.rb, app/models/listing.rb, app/models/person.rb, app/services/analytic_service/api/api.rb, app/services/email_service/api/api.rb, app/services/feature_flag_service/api/api.rb, app/services/listing_index_service/api/api.rb, app/services/marketplace_service/api/api.rb, app/services/marketplace_service/community.rb, app/services/marketplace_service/listing.rb, app/services/marketplace_service/person.rb, app/services/marketplace_service/store/marketplace_configurations.rb, app/services/paypal_service/api/api.rb, app/services/paypal_service/store/paypal_payment.rb, app/services/plan_service/api/api.rb, app/services/stripe_service/api/api.rb, app/services/stripe_service/store/stripe_payment.rb, app/services/transaction_service/api/api.rb, app/services/transaction_service/api/settings.rb, app/services/transaction_service/store/payment_settings.rb, app/services/translation_service/api/api.rb, app/utils/form_utils.rb, app/views/analytics/_customer_analytics.haml, app/views/analytics/_google_analytics_script.haml, app/views/analytics/_google_tag_manager.haml, app/views/analytics/_legacy_google_analytics.haml, app/views/landing_page/_categories.erb, app/views/landing_page/_footer.erb, app/views/landing_page/_hero.erb, app/views/landing_page/_icon.erb, app/views/landing_page/_info.erb, app/views/landing_page/_listings.erb, app/views/landing_page/_meta.erb, app/views/landing_page/_prevent_widows.erb, app/views/landing_page/_topbar.erb, app/views/landing_page/_video.erb, app/views/landing_page/landing_page.erb, app/views/layouts/_fonts.erb]","[app/models/listing.rb]","0.0238095238","1.0","[b771b9999659134bc187001d248bdaae596fc969]","3 minutes, 28.427 seconds","5.1.1","[cucumber-rails, rspec-rails, factory_girl]","2","[]","16","17","[app/controllers/landing_page_controller.rb, app/views/analytics/_customer_analytics.haml, app/views/analytics/_google_analytics_script.haml, app/views/analytics/_google_tag_manager.haml, app/views/analytics/_legacy_google_analytics.haml, app/views/landing_page/_categories.erb, app/views/landing_page/_footer.erb, app/views/landing_page/_hero.erb, app/views/landing_page/_icon.erb, app/views/landing_page/_info.erb, app/views/landing_page/_listings.erb, app/views/landing_page/_meta.erb, app/views/landing_page/_prevent_widows.erb, app/views/landing_page/_topbar.erb, app/views/landing_page/_video.erb, app/views/landing_page/landing_page.erb, app/views/layouts/_fonts.erb]","false","0.10869565213421549","0","","0",""
"sharetribe","381","[15-11-2017]","1","1","[Merge pull request #3148 from sharetribe/bug-default-pricing-units-not-shown-on-listing  Bug default pricing units not shown on listing]","1","1","1","4","4","[create_listing_shape, id, provision, enable, activate, merge, api_verified, username, click_button, click_link, fill_in, select, page, have_content, have_select, page, have_css, within, click]","0","","0","","0","","0","","0","","[]","[homepage_with_locale]","1","36","3","[app/controllers/landing_page_controller.rb, app/models/community.rb, app/models/person.rb, app/services/analytic_service/api/api.rb, app/services/email_service/api/api.rb, app/services/feature_flag_service/api/api.rb, app/services/listing_index_service/api/api.rb, app/services/marketplace_service/api/api.rb, app/services/marketplace_service/community.rb, app/services/marketplace_service/person.rb, app/services/marketplace_service/store/marketplace_configurations.rb, app/services/paypal_service/api/api.rb, app/services/paypal_service/store/paypal_payment.rb, app/services/plan_service/api/api.rb, app/services/stripe_service/api/api.rb, app/services/stripe_service/store/stripe_payment.rb, app/services/transaction_service/api/api.rb, app/services/transaction_service/api/settings.rb, app/services/transaction_service/store/payment_settings.rb, app/services/translation_service/api/api.rb, app/views/analytics/_customer_analytics.haml, app/views/analytics/_google_analytics_script.haml, app/views/analytics/_google_tag_manager.haml, app/views/analytics/_legacy_google_analytics.haml, app/views/landing_page/_categories.erb, app/views/landing_page/_footer.erb, app/views/landing_page/_hero.erb, app/views/landing_page/_icon.erb, app/views/landing_page/_info.erb, app/views/landing_page/_listings.erb, app/views/landing_page/_meta.erb, app/views/landing_page/_prevent_widows.erb, app/views/landing_page/_topbar.erb, app/views/landing_page/_video.erb, app/views/landing_page/landing_page.erb, app/views/layouts/_fonts.erb]","[app/controllers/listings_controller.rb, app/view_utils/listing_form_view_utils.rb, app/views/listings/_listing_actions.haml]","0.0","0.0","[800391ad5eae54b34a927c5da447ee1fc99b659a]","2.976 seconds","5.1.1","[cucumber-rails, rspec-rails, factory_girl]","2","[]","16","17","[app/controllers/landing_page_controller.rb, app/views/analytics/_customer_analytics.haml, app/views/analytics/_google_analytics_script.haml, app/views/analytics/_google_tag_manager.haml, app/views/analytics/_legacy_google_analytics.haml, app/views/landing_page/_categories.erb, app/views/landing_page/_footer.erb, app/views/landing_page/_hero.erb, app/views/landing_page/_icon.erb, app/views/landing_page/_info.erb, app/views/landing_page/_listings.erb, app/views/landing_page/_meta.erb, app/views/landing_page/_prevent_widows.erb, app/views/landing_page/_topbar.erb, app/views/landing_page/_video.erb, app/views/landing_page/landing_page.erb, app/views/layouts/_fonts.erb]","true","0.0","0","","0",""
"sharetribe","383","[10-11-2017, 13-11-2017]","4","3","[Disable harmony under tests , Fixed: Save listing unit type + tests , Fixed: Save listing unit type ]","1","1","1","4","4","[create_listing_shape, id, provision, enable, activate, merge, api_verified, username, click_button, click_link, fill_in, select, page, have_content, have_select, page, have_css, within, click]","0","","0","","0","","0","","0","","[]","[homepage_with_locale]","1","36","3","[app/controllers/landing_page_controller.rb, app/models/community.rb, app/models/person.rb, app/services/analytic_service/api/api.rb, app/services/email_service/api/api.rb, app/services/feature_flag_service/api/api.rb, app/services/listing_index_service/api/api.rb, app/services/marketplace_service/api/api.rb, app/services/marketplace_service/community.rb, app/services/marketplace_service/person.rb, app/services/marketplace_service/store/marketplace_configurations.rb, app/services/paypal_service/api/api.rb, app/services/paypal_service/store/paypal_payment.rb, app/services/plan_service/api/api.rb, app/services/stripe_service/api/api.rb, app/services/stripe_service/store/stripe_payment.rb, app/services/transaction_service/api/api.rb, app/services/transaction_service/api/settings.rb, app/services/transaction_service/store/payment_settings.rb, app/services/translation_service/api/api.rb, app/views/analytics/_customer_analytics.haml, app/views/analytics/_google_analytics_script.haml, app/views/analytics/_google_tag_manager.haml, app/views/analytics/_legacy_google_analytics.haml, app/views/landing_page/_categories.erb, app/views/landing_page/_footer.erb, app/views/landing_page/_hero.erb, app/views/landing_page/_icon.erb, app/views/landing_page/_info.erb, app/views/landing_page/_listings.erb, app/views/landing_page/_meta.erb, app/views/landing_page/_prevent_widows.erb, app/views/landing_page/_topbar.erb, app/views/landing_page/_video.erb, app/views/landing_page/landing_page.erb, app/views/layouts/_fonts.erb]","[app/controllers/listings_controller.rb, app/view_utils/listing_form_view_utils.rb, app/views/listings/_listing_actions.haml]","0.0","0.0","[6f4fa18c07f0ccca0d1659fb0519fe42639507be, db8806d8db2b0a89d64ae2478444afdb64d3f5fa, cf6c73692972db18da986948b98c11117eba7ca4]","2.026 seconds","5.1.1","[cucumber-rails, rspec-rails, factory_girl]","2","[]","16","17","[app/controllers/landing_page_controller.rb, app/views/analytics/_customer_analytics.haml, app/views/analytics/_google_analytics_script.haml, app/views/analytics/_google_tag_manager.haml, app/views/analytics/_legacy_google_analytics.haml, app/views/landing_page/_categories.erb, app/views/landing_page/_footer.erb, app/views/landing_page/_hero.erb, app/views/landing_page/_icon.erb, app/views/landing_page/_info.erb, app/views/landing_page/_listings.erb, app/views/landing_page/_meta.erb, app/views/landing_page/_prevent_widows.erb, app/views/landing_page/_topbar.erb, app/views/landing_page/_video.erb, app/views/landing_page/landing_page.erb, app/views/layouts/_fonts.erb]","false","0.0","0","","0",""
"sharetribe","386","[07-11-2017, 09-11-2017]","3","2","[updated translation for unsubscribe from emails , Add an unsubscribe link to invitation emails ]","2","1","1","1","1","[page, have_content, have_css, within]","0","","0","","0","","0","","0","","[]","[unsubscribe_invitations]","1","2","4","[app/models/community.rb, app/services/marketplace_service/community.rb]","[app/controllers/invitations_controller.rb, app/mailers/person_mailer.rb, app/models/invitation/unsubscribe.rb, app/views/layouts/email.html.haml]","0.0","0.0","[4cca7cefc21bff46c1938237af187b48efdd3391, 156328523bf17dc61a0ffdedd0319fc8e8687e9d]","0.713 seconds","5.1.1","[cucumber-rails, rspec-rails, factory_girl]","1","[]","0","0","[]","false","0.0","0","","0",""
"sharetribe","387","[09-11-2017]","1","1","[Merge pull request #3141 from sharetribe/data-too-long-transaction-agreement-label  Fixed: Data too long transaction agreement label]","1","1","1","1","1","[save!, click, fill_in, find_field, eq, to_i, to_i, page, have_css, within, username, id, update_attribute]","0","","0","","0","","0","","0","","[]","[admin_details_edit, homepage_with_locale]","2","6","3","[app/models/community.rb, app/models/community_membership.rb, app/models/person.rb, app/services/marketplace_service/community.rb, app/services/marketplace_service/person.rb, app/services/marketplace_service/store/marketplace_configurations.rb]","[app/helpers/communities_helper.rb, app/models/community_customization.rb, app/views/admin/community_customizations/_locale_input_fields.haml]","0.0","0.0","[aa099c6e821f0f28f0fe62b6bf8f54b8b754f516]","0.741 seconds","5.1.1","[cucumber-rails, rspec-rails, factory_girl]","2","[]","0","0","[]","true","0.0","0","","0",""
"sharetribe","389","[08-11-2017]","1","1","[Fixed: Data too long transaction agreement label ]","1","1","1","3","3","[save!, click, fill_in, find_field, eq, to_i, to_i, page, have_css, within, username, id, update_attribute]","0","","0","","0","","0","","0","","[]","[admin_details_edit, homepage_with_locale]","2","6","3","[app/models/community.rb, app/models/community_membership.rb, app/models/person.rb, app/services/marketplace_service/community.rb, app/services/marketplace_service/person.rb, app/services/marketplace_service/store/marketplace_configurations.rb]","[app/helpers/communities_helper.rb, app/models/community_customization.rb, app/views/admin/community_customizations/_locale_input_fields.haml]","0.0","0.0","[f350057c53e0ec32ce9dfa75c4b2eb4a48a18de3]","0.739 seconds","5.1.1","[cucumber-rails, rspec-rails, factory_girl]","2","[]","0","0","[]","false","0.0","0","","0",""
"sharetribe","390","[08-11-2017]","1","1","[Fixed: Data too long url menu_link_translations ]","1","1","1","4","4","[menu_links, id, menu_links, id, click, to_i, fill_in, find_field, to_i, eq, page, have_css, within, username, id, update_attribute, menu_links]","6","","0","","0","","0","","0","","[]","[admin_topbar_edit, homepage_with_locale]","2","7","2","[app/models/community.rb, app/models/community_membership.rb, app/models/menu_link.rb, app/models/person.rb, app/services/marketplace_service/community.rb, app/services/marketplace_service/person.rb, app/services/marketplace_service/store/marketplace_configurations.rb]","[app/models/menu_link_translation.rb, app/views/admin/communities/_new_menu_link.haml]","0.0","0.0","[7a9f24ff43413213345919db1bcbeac41c9e8af0]","0.923 seconds","5.1.1","[cucumber-rails, rspec-rails, factory_girl]","2","[]","0","0","[]","false","0.0","0","","0",""
"sharetribe","395","[07-11-2017, 08-11-2017]","2","2","[Improved community user list summary text , allow admins to unban users ]","2","2","2","3","3","[username, hashes, id, save!, update_attributes, update_attribute, set_default_preferences, save, each, to_i, where, update_all, name, find, page, have_content, have_no_content, page, execute_script, have_css, within, checked?, eq, click, id, eq, have_css, find, page, find_shape, create_listing, community_id, inject, driver, browser, switch_to, alert, until]","5","","0","","0","","0","","0","","[]","[admin_community_community_memberships, homepage_with_locale]","2","30","3","[app/controllers/accept_preauthorized_conversations_controller.rb, app/controllers/landing_page_controller.rb, app/controllers/terms_controller.rb, app/models/category.rb, app/models/community.rb, app/models/community_membership.rb, app/models/email.rb, app/models/paypal_ipn_message.rb, app/models/person.rb, app/models/transaction.rb, app/services/marketplace_service/community.rb, app/services/marketplace_service/person.rb, app/utils/form_utils.rb, app/view_utils/listing_shape_templates.rb, app/views/analytics/_customer_analytics.haml, app/views/analytics/_google_analytics_script.haml, app/views/analytics/_google_tag_manager.haml, app/views/analytics/_legacy_google_analytics.haml, app/views/landing_page/_categories.erb, app/views/landing_page/_footer.erb, app/views/landing_page/_hero.erb, app/views/landing_page/_icon.erb, app/views/landing_page/_info.erb, app/views/landing_page/_listings.erb, app/views/landing_page/_meta.erb, app/views/landing_page/_prevent_widows.erb, app/views/landing_page/_topbar.erb, app/views/landing_page/_video.erb, app/views/landing_page/landing_page.erb, app/views/layouts/_fonts.erb]","[app/controllers/admin/community_memberships_controller.rb, app/view_utils/admin_community_memberships_view_utils.rb, app/views/admin/community_memberships/index.haml]","0.0","0.0","[5d92458869e45122e77217fa1a1d9886f2d78438, 659133cdd85576f0f354f998c3c867cfade05c44]","2.070 seconds","5.1.1","[cucumber-rails, rspec-rails, factory_girl]","4","[]","16","17","[app/controllers/landing_page_controller.rb, app/views/analytics/_customer_analytics.haml, app/views/analytics/_google_analytics_script.haml, app/views/analytics/_google_tag_manager.haml, app/views/analytics/_legacy_google_analytics.haml, app/views/landing_page/_categories.erb, app/views/landing_page/_footer.erb, app/views/landing_page/_hero.erb, app/views/landing_page/_icon.erb, app/views/landing_page/_info.erb, app/views/landing_page/_listings.erb, app/views/landing_page/_meta.erb, app/views/landing_page/_prevent_widows.erb, app/views/landing_page/_topbar.erb, app/views/landing_page/_video.erb, app/views/landing_page/landing_page.erb, app/views/layouts/_fonts.erb]","false","0.0","0","","0",""
"sharetribe","396","[30-10-2017]","1","1","[User deselect notifications ]","1","1","1","0","0","[username, hashes, id, save!, update_attributes, update_attribute, set_default_preferences, save, each, where, update_all, name, find, click_button, uncheck, page, have_content, find_field, be_falsey, page, have_css, within]","0","","0","","0","","0","","0","","[]","[homepage_with_locale, notifications_person_settings]","2","7","2","[app/models/community.rb, app/models/community_membership.rb, app/models/email.rb, app/models/person.rb, app/services/marketplace_service/community.rb, app/services/marketplace_service/person.rb, app/utils/form_utils.rb]","[app/controllers/people_controller.rb, app/views/settings/notifications.haml]","0.0","0.0","[b30173936a465d298cfa3b3b01425a332225160e]","1.197 seconds","5.1.1","[cucumber-rails, rspec-rails, factory_girl]","2","[]","0","0","[]","false","0.0","0","","0",""
"sharetribe","401","[19-10-2017]","1","1","[allow admins to change their outgoing sender name & email ]","1","1","1","1","1","[username, click_button, click_link, click, fill_in, page, have_content, page, have_css, within, save_and_open_screenshot, save_and_open_page]","0","","0","","0","","0","","0","","[]","[admin_details_edit, homepage_with_locale]","2","2","4","[app/models/person.rb, app/services/marketplace_service/person.rb]","[app/controllers/admin/communities_controller.rb, app/services/email_service/api/addresses.rb, app/services/email_service/store/address.rb, app/views/admin/communities/edit_welcome_email.haml]","0.0","0.0","[47d02b96735bbe22704463dec5bb8ec068651fd8]","0.668 seconds","5.1.1","[cucumber-rails, rspec-rails, factory_girl]","2","[]","0","0","[]","false","0.0","0","","0",""
"sharetribe","402","[31-10-2017]","1","1","[Fixed: can reopen listings with deleted order types ]","1","1","1","0","0","[username, hashes, id, save!, update_attributes, update_attribute, set_default_preferences, save, each, where, update_all, name, find, find_shape, create_listing, page, have_css, click, have_content, community_id, inject, click_button, click_link, click_link, page, have_content, have_no_content, execute_script, driver, browser, switch_to, alert, until, within]","0","","0","","0","","0","","0","","[]","[edit_admin_listing_shape, homepage_with_locale, person]","3","10","2","[app/controllers/accept_preauthorized_conversations_controller.rb, app/controllers/terms_controller.rb, app/models/category.rb, app/models/community.rb, app/models/community_membership.rb, app/models/email.rb, app/models/person.rb, app/services/marketplace_service/community.rb, app/services/marketplace_service/person.rb, app/utils/form_utils.rb]","[app/controllers/listings_controller.rb, app/presenters/listing_presenter.rb]","0.0","0.0","[8c1e351a83947f1215aa44a8c55bb7da1985de6a]","1.521 seconds","5.1.1","[cucumber-rails, rspec-rails, factory_girl]","3","[]","0","0","[]","false","0.0","0","","0",""
"sharetribe","405","[24-10-2017, 25-10-2017, 26-10-2017]","3","6","[Merge pull request #3122 from sharetribe/bugfix-reorder-listing-images  Fixed: error logging for image reordering, Fix: error logging for image reordering , Merge pull request #3120 from sharetribe/bugfix-new-listing-shape-offering-services  Bugfix new listing shape offering services, Fixed: New Order type ""Offering services"" tests , Fixed: New Order type ""Offering services"" , Add icon cursor-tap (#3118)  Add icon cursor-tap]","4","9","9","1","1","[click_button, click_link, fill_in, select, page, have_content, page, execute_script, page, driver, browser, switch_to, alert, until, have_css, within, username, id, update_attribute]","0","","0","","0","","0","","0","","[]","[edit_admin_listing_shape, homepage_with_locale]","2","7","7","[app/controllers/accept_preauthorized_conversations_controller.rb, app/controllers/terms_controller.rb, app/models/community.rb, app/models/community_membership.rb, app/models/person.rb, app/services/marketplace_service/community.rb, app/services/marketplace_service/person.rb]","[app/models/community.rb, app/models/listing.rb, app/models/listing_shape.rb, app/models/person.rb, app/presenters/listing_presenter.rb, app/view_utils/listing_shape_templates.rb, app/views/landing_page/_icon.erb]","0.2857142857","0.2857142857","[57fba6f7c97197b183e4ede2021e58b6d3c97335, ac9f10f390a9b94e55246f25f93ac199c1fb3578, 472199da588449a49dfaa8a37303ee0fde16f2ec, 2d5e2bf232b38cfccdf01b9e658687f0c5888395, d32af25db04c6991e3974f5e5c3e995b88d6ab57, e67be24df14b1704a74dd913215f0417d67bca24]","1.211 seconds","5.1.1","[cucumber-rails, rspec-rails, factory_girl]","3","[]","0","0","[]","true","0.2857142857","0","","0",""
"sharetribe","407","[20-10-2017]","1","1","[Ability to disable Stripe and PayPal ]","1","1","1","3","3","[click_link, page, have_content, page, execute_script, page, driver, browser, switch_to, alert, until, have_css, within, username, id, update_attribute, save, provision, enable, activate, merge, api_verified]","0","","0","","0","","0","","0","","[]","[admin_payment_preferences, homepage_with_locale]","2","22","5","[app/controllers/accept_preauthorized_conversations_controller.rb, app/controllers/terms_controller.rb, app/models/community.rb, app/models/community_membership.rb, app/models/person.rb, app/services/analytic_service/api/api.rb, app/services/email_service/api/api.rb, app/services/feature_flag_service/api/api.rb, app/services/listing_index_service/api/api.rb, app/services/marketplace_service/api/api.rb, app/services/marketplace_service/community.rb, app/services/marketplace_service/person.rb, app/services/marketplace_service/store/marketplace_configurations.rb, app/services/paypal_service/api/api.rb, app/services/paypal_service/store/paypal_payment.rb, app/services/plan_service/api/api.rb, app/services/stripe_service/api/api.rb, app/services/stripe_service/store/stripe_payment.rb, app/services/transaction_service/api/api.rb, app/services/transaction_service/api/settings.rb, app/services/transaction_service/store/payment_settings.rb, app/services/translation_service/api/api.rb]","[app/controllers/admin/payment_preferences_controller.rb, app/views/admin/payment_preferences/_general_prefs_form.haml, app/views/admin/payment_preferences/_payment_settings.haml, app/views/admin/payment_preferences/_prefs_form.haml, app/views/admin/payment_preferences/_stripe_form.haml]","0.0","0.0","[99b0cf2d708fa832e77f8f62eab8c6fd38d6047a]","1.081 seconds","5.1.1","[cucumber-rails, rspec-rails, factory_girl]","2","[]","0","0","[]","false","0.0","0","","0",""
"sharetribe","445","[06-09-2017, 13-09-2017, 14-09-2017, 18-09-2017]","13","14","[Merge pull request #3069 from sharetribe/stripe-integration-feature-flags-ui-fixes  Stripe integration feature flags ui fixes, Merge pull request #3070 from sharetribe/stripe-admin-ui-fixes-3  Stripe admin ui fixes 3, stripe integration: disable datepicker after stripe_max_booking_date , mocking google geocoder in feature tests to avoid random failures , stripe integration: fix padding, remove extra paypal logo on checkout , stripe integration: reset min transaction size only if it is less than minimal commission , stripe integration: removed extra padding in payment settings , stripe integration: remove trailing spaces to avoid npm lint error , stripe integration: update paypal feature test when stripe disabled , stripe integration: keep old ui when stripe feature flag disabled , stripe integration: target=_blank for help article , stripe integration: fix missing article in text , stripe integration: additional test regexps , stripe integration: support for additional countries ]","2","1","1","1","1","[click_button, fill_in, page, have_content, find_field, tag_name, text, page, execute_script, have_css, within, join_with_invite_only, private, require_verification_to_post_listings, show_category_in_listing_list, show_listing_publishing_date, listing_comments_in_use, automatic_newsletters, email_admins_about_new_members, target_user, username, hashes, id, save!, update_attributes, update_attribute, set_default_preferences, save, each, username, have_no_content, where, update_all, name, find]","0","","0","","0","","0","","0","","[]","[homepage_with_locale, notifications_person_settings, send_confirmation_person_email]","3","21","19","[app/controllers/invitations_controller.rb, app/helpers/application_helper.rb, app/models/community.rb, app/models/community_membership.rb, app/models/email.rb, app/models/person.rb, app/services/listing_service/api/listings.rb, app/services/listing_service/store/listing.rb, app/services/marketplace_service/community.rb, app/services/marketplace_service/person.rb, app/utils/form_utils.rb, app/view_utils/path_helpers.rb, app/views/admin/_left_hand_navigation.haml, app/views/admin/communities/settings.haml, app/views/layouts/_left_hand_navigation.haml, app/views/settings/_community_updates_radiobutton.haml, app/views/settings/_notification_checkbox.haml, app/views/settings/account.haml, app/views/settings/notifications.haml, app/views/settings/show.haml, app/views/settings/unsubscribe.haml]","[app/controllers/admin/getting_started_guide_controller.rb, app/controllers/admin/payment_preferences_controller.rb, app/controllers/listings_controller.rb, app/controllers/payment_settings_controller.rb, app/services/marketplace_service/available_currencies.rb, app/services/stripe_service/api/stripe_api_wrapper.rb, app/services/stripe_service/store/stripe_account.rb, app/views/accept_preauthorized_conversations/accept.haml, app/views/admin/payment_preferences/_general_prefs_form.haml, app/views/admin/payment_preferences/_old_paypal_index.haml, app/views/admin/payment_preferences/_stripe_available.haml, app/views/admin/payment_preferences/index.haml, app/views/listing_conversations/initiate.haml, app/views/listings/_listing_actions.haml, app/views/listings/form/_price.haml, app/views/payment_settings/_bank_fields_form.haml, app/views/payment_settings/_paypal_wizard.haml, app/views/payment_settings/_stripe_wizard.haml, app/views/payment_settings/index.haml]","0.0","0.0","[b381becf99468a8081fe6569f12188cbc8141726, 6af0a0be3ce229189f3b8cc6659275f232e786ad, c3c67dd2431a7dd012ee263293bf5bea062bc3d4, 933f1c1a6620b4bd2b26149a99e11a45e7aefa2c, d4b416d962600fca41726ccb02020283321774ce, 7521605e07f581275ee53de75f8e86e4ebdb964d, 0250fa37aeff8efae3f5e1de85e936963b11064a, a82d84779013895b195ea2f42a0c9c6d379fdbda, 5dcdd1d2119834c12bd8d5eb4d6d3aa58b553c38, c4e1499fd983025c4839fa452d9266c531771e74, 2d616aceb02a3692a7133aaff67bbd1b087f7cb7, e563729ee0e353d33d316f9e409ba1d338bf21e6, 17bf0cd477915bd95b6f0051c3f4a90bac6e2003, 0282327d3f1ee427a684349dc51c6f823dba4d5e]","6.072 seconds","5.1.1","[cucumber-rails, rspec-rails, factory_girl]","2","[]","9","11","[app/helpers/application_helper.rb, app/view_utils/path_helpers.rb, app/views/admin/_left_hand_navigation.haml, app/views/admin/communities/settings.haml, app/views/layouts/_left_hand_navigation.haml, app/views/settings/_community_updates_radiobutton.haml, app/views/settings/_notification_checkbox.haml, app/views/settings/account.haml, app/views/settings/notifications.haml, app/views/settings/show.haml, app/views/settings/unsubscribe.haml]","true","0.0","0","","0",""
"sharetribe","471","[08-08-2017, 10-08-2017, 14-08-2017]","7","3","[chore: reduce random test failures , fix: update profile test , fix issue with TranslationCache: touch custom field option when updating titles ]","2","1","1","1","1","[click_button, fill_in, Integer, sleep, page, have_content, find_field, tag_name, text, page, have_css, within, join_with_invite_only, private, require_verification_to_post_listings, show_category_in_listing_list, show_listing_publishing_date, listing_comments_in_use, automatic_newsletters, email_admins_about_new_members, target_user, username, hashes, id, save!, update_attributes, update_attribute, set_default_preferences, save, each, username, have_no_content, where, update_all, name, find, have_selector, wait_until, have_css, within]","0","","0","","0","","0","","0","","[]","[homepage_with_locale, notifications_person_settings, send_confirmation_person_email]","3","21","1","[app/controllers/invitations_controller.rb, app/helpers/application_helper.rb, app/models/community.rb, app/models/community_membership.rb, app/models/email.rb, app/models/person.rb, app/services/listing_service/api/listings.rb, app/services/listing_service/store/listing.rb, app/services/marketplace_service/community.rb, app/services/marketplace_service/person.rb, app/utils/form_utils.rb, app/view_utils/path_helpers.rb, app/views/admin/_left_hand_navigation.haml, app/views/admin/communities/settings.haml, app/views/layouts/_left_hand_navigation.haml, app/views/settings/_community_updates_radiobutton.haml, app/views/settings/_notification_checkbox.haml, app/views/settings/account.haml, app/views/settings/notifications.haml, app/views/settings/show.haml, app/views/settings/unsubscribe.haml]","[app/models/custom_field_option.rb]","0.0","0.0","[ac991c75b2fee08ac4a6679dea1e425f01cdb16b, 8f411d70a02ad5b3be5ff7ceda2b9292a5d39c3b, 21f004181037fa04a5df04a07c7fc0d7febd7e69]","1.998 seconds","5.1.1","[cucumber-rails, rspec-rails, factory_girl]","2","[]","9","11","[app/helpers/application_helper.rb, app/view_utils/path_helpers.rb, app/views/admin/_left_hand_navigation.haml, app/views/admin/communities/settings.haml, app/views/layouts/_left_hand_navigation.haml, app/views/settings/_community_updates_radiobutton.haml, app/views/settings/_notification_checkbox.haml, app/views/settings/account.haml, app/views/settings/notifications.haml, app/views/settings/show.haml, app/views/settings/unsubscribe.haml]","false","0.0","0","","0",""
"sharetribe","778","[23-08-2016]","1","1","[Remove Braintree (#2424)  * Remove Braintree Cucumber tests  * wip: remove part of braintree accounts  * Remove post pay Braintree Cucumber tests  * wip: remove more braintree accounts code  * wip: remove rest of braintree accounts  * Remove Braintree routes  * Remove Braintree form rendering  * Remove more Braintree Cucumber tests  * Remove Braintree translations  * Remove braintree payments edit view  * Remove couple Braintree views  * Remove Braintree related controllers  * Remove Braintree script  * Remove two more Braintree views  * Remove Braintree payments helper  * Remove Braintree api  * Remove Braintree sale service  * Remove Braintree tests  * Remove the last Braintree Cucumber tests  * Remove Braintree payments service  * Fix two tests to work without Braintree  * Remove Braintree helper  * Remove Braintree adapters  * Remove Braintree specs  * Remove unused test steps  * Remove Braintree adapter from service  * Remove unused steps  * Remove Braintree escrow support check [TOO_LONG]","1","3","3","0","0","[hashes, save!, each, page, all, length, to_i, eq, gsub, eval, id, build, to_i, create_listing, merge, username, username, update_attributes, update_attribute, set_default_preferences, save, login_as, where, update_all, name, find, click_link, have_content, page, have_css, within, find_shape, to_i, nil?, community_id, inject]","0","","0","","0","","0","","0","","[app/controllers/accept_conversations_controller.rb, app/controllers/braintree_accounts_controller.rb, app/controllers/braintree_payments_controller.rb, app/controllers/braintree_webhooks_controller.rb, app/controllers/payments_controller.rb, app/controllers/post_pay_transactions_controller.rb, app/helpers/braintree_payments_helper.rb, app/jobs/accept_reminder_job.rb, app/jobs/escrow_canceled_job.rb, app/jobs/payment_reminder_job.rb, app/jobs/transaction_created_job.rb, app/models/braintree_account.rb, app/models/braintree_payment.rb, app/models/payment.rb, app/models/payment_gateway.rb, app/models/payment_gateways/braintree_payment_gateway.rb, app/services/braintree_api.rb, app/services/braintree_sale_service.rb, app/services/braintree_service/escrow_release_helper.rb, app/services/braintree_service/payments.rb, app/services/bt_log.rb, app/services/payment_registration_guard.rb, app/services/transaction_service/gateway/braintree_adapter.rb, app/services/transaction_service/gateway/braintree_settings_adapter.rb, app/services/transaction_service/process/postpay.rb, app/views/accept_conversations/accept.haml, app/views/admin/communities/braintree_payment_gateway.haml, app/views/braintree_accounts/new.haml, app/views/braintree_accounts/show.haml, app/views/braintree_payments/edit.haml, app/views/conversations/_details.haml, app/views/listing_conversations/new_with_payment.haml, app/views/listing_conversations/preauthorize.haml, app/views/payments/_gateway_additional_terms.haml, app/views/payments/_terms_lightbox.haml, app/views/payments/braintree/_credit_card_info.haml, app/views/payments/braintree/_terms.haml, app/views/payments/simple_form/_form.haml, app/views/person_mailer/accept_reminder.html.haml, app/views/person_mailer/braintree_account_approved.haml, app/views/person_mailer/confirm_reminder_escrow.html.haml, app/views/person_mailer/escrow_canceled.html.haml, app/views/person_mailer/payment_reminder.html.haml, app/views/transaction_mailer/braintree_payment_receipt_to_seller.html.haml, lib/console scripts/braintree_refund.rb]","[admin_community_transactions, homepage_with_locale]","2","53","44","[app/controllers/admin/listing_shapes_controller.rb, app/controllers/landing_page_controller.rb, app/helpers/rest_helper.rb, app/models/category.rb, app/models/community.rb, app/models/community_membership.rb, app/models/conversation.rb, app/models/email.rb, app/models/listing.rb, app/models/message.rb, app/models/person.rb, app/models/transaction.rb, app/services/email_service/api/api.rb, app/services/feature_flag_service/api/api.rb, app/services/listing_index_service/api/api.rb, app/services/listing_service/api/api.rb, app/services/listing_service/api/listings.rb, app/services/listing_service/store/category.rb, app/services/listing_service/store/listing.rb, app/services/listing_service/store/shape.rb, app/services/marketplace_service/api/api.rb, app/services/marketplace_service/community.rb, app/services/marketplace_service/conversation.rb, app/services/marketplace_service/listing.rb, app/services/marketplace_service/person.rb, app/services/marketplace_service/transaction.rb, app/services/paypal_service/api/api.rb, app/services/paypal_service/api/minimum_commissions.rb, app/services/plan_service/api/api.rb, app/services/transaction_service/api/api.rb, app/services/transaction_service/data_types/transaction.rb, app/services/transaction_service/store/transaction.rb, app/services/transaction_service/transaction.rb, app/services/translation_service/api/api.rb, app/services/translation_service/api/translations.rb, app/utils/entity_utils.rb, app/utils/form_utils.rb, app/views/analytics/_customer_analytics.haml, app/views/analytics/_google_tag_manager.haml, app/views/analytics/_legacy_google_analytics.haml, app/views/landing_page/_categories.erb, app/views/landing_page/_footer.erb, app/views/landing_page/_hero.erb, app/views/landing_page/_icon.erb, app/views/landing_page/_info.erb, app/views/landing_page/_listings.erb, app/views/landing_page/_meta.erb, app/views/landing_page/_prevent_widows.erb, app/views/landing_page/_topbar.erb, app/views/landing_page/_video.erb, app/views/landing_page/landing_page.erb, app/views/layouts/_fonts.erb, app/views/layouts/_google_analytics_script.haml]","[app/controllers/accept_preauthorized_conversations_controller.rb, app/controllers/admin/communities_controller.rb, app/controllers/admin/listing_shapes_controller.rb, app/controllers/application_controller.rb, app/controllers/homepage_controller.rb, app/controllers/listings_controller.rb, app/controllers/people_controller.rb, app/controllers/preauthorize_transactions_controller.rb, app/controllers/transactions_controller.rb, app/forms/form.rb, app/helpers/application_helper.rb, app/helpers/listings_helper.rb, app/helpers/transaction_helper.rb, app/jobs/confirm_reminder_job.rb, app/jobs/send_payment_receipts.rb, app/mailers/mail_preview.rb, app/mailers/mail_view_test_data.rb, app/mailers/person_mailer.rb, app/mailers/transaction_mailer.rb, app/models/community.rb, app/models/listing.rb, app/models/person.rb, app/models/transaction.rb, app/services/confirm_conversation.rb, app/services/marketplace_service/community.rb, app/services/marketplace_service/inbox.rb, app/services/marketplace_service/listing.rb, app/services/marketplace_service/transaction.rb, app/services/transaction_service/transaction.rb, app/services/user_service/api/users.rb, app/state_machines/transaction_process_state_machine.rb, app/view_utils/transaction_view_utils.rb, app/views/admin/communities/settings.haml, app/views/confirm_conversations/confirm.haml, app/views/homepage/_list_item.haml, app/views/homepage/_list_item_with_distance.haml, app/views/homepage/index.haml, app/views/infos/_terms_content.haml, app/views/listings/_listing_actions.haml, app/views/listings/form/_price.haml, app/views/listings/show.haml, app/views/people/show.haml, app/views/person_mailer/conversation_status_changed.html.haml, app/views/transactions/_details.haml]","0.1698113208","0.2045454545","[0576ef49dcc407bafb7bdc74b79caa61111d4a07]","2.179 seconds","4.2.7.1","[cucumber-rails, rspec-rails, factory_girl]","3","[]","16","17","[app/controllers/landing_page_controller.rb, app/views/analytics/_customer_analytics.haml, app/views/analytics/_google_tag_manager.haml, app/views/analytics/_legacy_google_analytics.haml, app/views/landing_page/_categories.erb, app/views/landing_page/_footer.erb, app/views/landing_page/_hero.erb, app/views/landing_page/_icon.erb, app/views/landing_page/_info.erb, app/views/landing_page/_listings.erb, app/views/landing_page/_meta.erb, app/views/landing_page/_prevent_widows.erb, app/views/landing_page/_topbar.erb, app/views/landing_page/_video.erb, app/views/landing_page/landing_page.erb, app/views/layouts/_fonts.erb, app/views/layouts/_google_analytics_script.haml]","false","0.196506550196907","0","","0",""
"sharetribe","808","[12-08-2016, 14-08-2016, 15-08-2016]","4","6","[Update tests  Updated test according to recommendations  Update test after dumb previous removal  More test updates  And more test updates  More test updates , Changed feedback to message for consistency , Passed  has_admin_rights info as locals Removed trailing whitespace (new.haml) , Updated some texts and added infotext , Added info text and updated some texts , Remove help text ]","2","4","4","1","1","[click_button, fill_in, page, have_content, have_no_content, page, have_css, within, click, username, login_as, click_link, fill_in]","2","","0","","0","","0","","0","","[]","[homepage_with_locale]","1","20","2","[app/controllers/landing_page_controller.rb, app/models/person.rb, app/services/marketplace_service/person.rb, app/services/marketplace_service/store/marketplace_configurations.rb, app/views/analytics/_customer_analytics.haml, app/views/analytics/_google_tag_manager.haml, app/views/analytics/_legacy_google_analytics.haml, app/views/landing_page/_categories.erb, app/views/landing_page/_fonts.erb, app/views/landing_page/_footer.erb, app/views/landing_page/_hero.erb, app/views/landing_page/_icon.erb, app/views/landing_page/_info.erb, app/views/landing_page/_listings.erb, app/views/landing_page/_meta.erb, app/views/landing_page/_prevent_widows.erb, app/views/landing_page/_topbar.erb, app/views/landing_page/_video.erb, app/views/landing_page/landing_page.erb, app/views/layouts/_google_analytics_script.haml]","[app/controllers/feedbacks_controller.rb, app/views/feedbacks/new.haml]","0.0","0.0","[e3298ea7eb087462e8e0af82ff806435cd4ee20f, eb4a8329842a87b4ecc91127e5083ba0e2052354, b3ae8866581257870b2b0b38278eddfab07e14d7, 2419061c71e40e9554194a96d72eee95b87c8d07, 2ac6285d12953e303f1b33febf292b841e7f0523, 10ccb00be5f0ae26be86301c7c3347fdf03ef48d]","2.231 seconds","4.2.7.1","[cucumber-rails, rspec-rails, factory_girl]","2","[]","16","17","[app/controllers/landing_page_controller.rb, app/views/analytics/_customer_analytics.haml, app/views/analytics/_google_tag_manager.haml, app/views/analytics/_legacy_google_analytics.haml, app/views/landing_page/_categories.erb, app/views/landing_page/_fonts.erb, app/views/landing_page/_footer.erb, app/views/landing_page/_hero.erb, app/views/landing_page/_icon.erb, app/views/landing_page/_info.erb, app/views/landing_page/_listings.erb, app/views/landing_page/_meta.erb, app/views/landing_page/_prevent_widows.erb, app/views/landing_page/_topbar.erb, app/views/landing_page/_video.erb, app/views/landing_page/landing_page.erb, app/views/layouts/_google_analytics_script.haml]","false","0.0","0","","0",""
"sharetribe","833","[03-08-2016]","1","3","[Fix tests , Update CHANGELOG , Change default colors  Also fixes color1 being used as fallback for color2 inconsistently. ]","1","1","1","1","1","[scan, to_i, click, page, have_css, within, username, hashes, id, save!, update_attributes, update_attribute, set_default_preferences, save, each, login_as, where, update_all, name, find, fill_in, evaluate_script, be_eql]","4","","0","","0","","0","","0","","[]","[admin_look_and_feel_edit, homepage_with_locale]","2","10","3","[app/models/community.rb, app/models/community_membership.rb, app/models/email.rb, app/models/person.rb, app/services/listing_service/api/listings.rb, app/services/listing_service/store/listing.rb, app/services/marketplace_service/community.rb, app/services/marketplace_service/person.rb, app/services/marketplace_service/store/marketplace_configurations.rb, app/utils/form_utils.rb]","[app/services/custom_landing_page/marketplace_data_store.rb, app/view_utils/common_styles_helper.rb, app/view_utils/marketplace_helper.rb]","0.0","0.0","[e737999fa5d53d4c0c25dfbb87f4092ef09d0b21, ce55d6cec95658b480344e738de5e9840d502243, 440f14cfeecc7b3078257fa7be85c5402a8cb780]","1.080 seconds","4.2.5.2","[cucumber-rails, rspec-rails, factory_girl]","2","[]","0","0","[]","false","0.0","0","","0",""
"sharetribe","851","[29-07-2016]","1","8","[Add workaround for loosing link to old image  We cache the old image name and return URL for the old name while new image is being processed. , Fix default_urls in Rails production environment  In production environment, asset_path seems to be called too early during initialization and does not properly find the specified asset, returning incorrect path (without /assets prefix).  Paperclip supports Proc as default_url, so we use that to call asset_path during runtime. , Harmonize similar notification about image processing , Update CHANGELOG and UPGRADE notes , Cleanup CSS compilation code and update look and feel editing , Fix tests , Render marketplace style overrides , Add rake task for computing CSS for marketplace customization overrides ]","1","1","1","0","0","[scan, to_i, click, within, username, hashes, id, save!, update_attributes, update_attribute, set_default_preferences, save, each, login_as, where, update_all, name, find, fill_in, page, evaluate_script, be_eql]","3","","0","","0","","0","","0","","[app/jobs/compile_custom_stylesheet_job.rb, app/services/community_stylesheet_compiler.rb]","[admin_look_and_feel_edit, homepage_with_locale]","2","10","9","[app/models/community.rb, app/models/community_membership.rb, app/models/email.rb, app/models/person.rb, app/services/listing_service/api/listings.rb, app/services/listing_service/store/listing.rb, app/services/marketplace_service/community.rb, app/services/marketplace_service/person.rb, app/services/marketplace_service/store/marketplace_configurations.rb, app/utils/form_utils.rb]","[app/controllers/admin/communities_controller.rb, app/controllers/landing_page_controller.rb, app/helpers/application_helper.rb, app/models/community.rb, app/utils/color_utils.rb, app/view_utils/marketplace_helper.rb, app/view_utils/topbar_helper.rb, app/views/layouts/_marketplace_head.haml, app/views/layouts/_style_overrides.haml]","0.1","0.1111111111","[5f93cd2ffd01e072d9ac749765bccff8f413a780, 499e93d0fd587da0b004fbcce3962f21defda944, 02bfc72b661f43a2eaf6300a8b5845f8fa8030f3, 7969dfb6582dbe3aa39a35cc40e2e406a1b2c374, 923abe5610860b1be2df1e5ac78fd63e627a71be, 1303358d9382a2ee5bb67f3f9c2452061a8914fb, 76f8e4375cee607ecf3eb5c897d30dd59f58692c, 7115937b5fb78b52d5bf98a023c835b4749f7a5e]","1.060 seconds","4.2.5.2","[cucumber-rails, rspec-rails, factory_girl]","2","[]","0","0","[]","false","0.10869565216540643","0","","0",""
"sharetribe","909","[07-07-2016]","1","3","[Merge pull request #2252 from sharetribe/onboarding-cleanup  Onboarding cleanup, Set active left navigation link for Getting started guide , Remove old getting started page, update routes ]","1","1","1","0","0","[username, id, update_attribute, login_as, page, have_content, within]","0","","0","","0","","0","","0","","[app/views/admin/communities/getting_started.haml]","[admin_getting_started_guide, homepage_with_locale]","2","5","3","[app/models/community.rb, app/models/community_membership.rb, app/models/person.rb, app/services/marketplace_service/community.rb, app/services/marketplace_service/person.rb]","[app/controllers/admin/communities_controller.rb, app/controllers/admin/getting_started_guide_controller.rb, app/helpers/application_helper.rb]","0.0","0.0","[3d944345fb071423fa5d381db0fdbc365de289df, 0ff80a8cf248fd58b2abfedca8c7ca42a4cfb1f7, 22d4c415cd1772af6043fdfcdccc5ea660246568]","0.674 seconds","4.2.5.2","[cucumber-rails, rspec-rails, factory_girl]","2","[]","0","0","[]","true","0.0","0","","0",""
"sharetribe","1003","[10-06-2016, 13-06-2016]","4","27","[Spanish onboarding translation  Spanish on boarding translation. , Merge pull request #2109 from sharetribe/landing-page-sass  Hero element, Fix location search selectors , Don't expose the testing routes , Location search without possibly clashing IDs , Location search working , Location search layout , Media query cleanup , Get rid of paths and enviroment hashes. Bake this data inside the sections hash , Pass styles in locals , Split SCSS , Proper font path , Inline SCSS styles , Fix paddings that were 1px off , Content max-width , Adjust the title and subtitle paddings , Homepage private marketplace variation , Responsive hero , Use normalize instead of reset , Add search path , Add search icon , Black layer on top of the hero bg , Hero sizing and content positioning , WTI pull [skip ci] , Merge pull request #2111 from sharetribe/optimize-image-status  Skip unnecessary heavy filter for ListingImagesController actions, Skip unnecessary heavy filter for ListingImagesController actio [TOO_LONG]","3","1","1","0","0","[username, hashes, id, save!, update_attributes, update_attribute, set_default_preferences, save, each, login_as, where, update_all, name, find, click, click_button, click_link, uncheck, choose, page, have_content, find_field, be_truthy, find_field, be_truthy, be_falsey, within]","0","","0","","0","","0","","0","","[]","","0","22","4","[app/controllers/homepage_controller.rb, app/models/community.rb, app/models/community_membership.rb, app/models/email.rb, app/models/person.rb, app/services/listing_service/api/listings.rb, app/services/listing_service/store/listing.rb, app/services/marketplace_service/community.rb, app/services/marketplace_service/person.rb, app/services/marketplace_service/store/marketplace_configurations.rb, app/utils/form_utils.rb, app/views/homepage/_custom_filters.haml, app/views/homepage/_filters.haml, app/views/homepage/_grid_item.haml, app/views/homepage/_list_item.haml, app/views/homepage/_list_item_with_distance.haml, app/views/homepage/_location_bar.haml, app/views/homepage/_map.haml, app/views/homepage/_price_filter.haml, app/views/homepage/_search_bar.haml, app/views/homepage/index.haml, app/views/layouts/_grid_item_listing_image.haml]","[app/controllers/landing_page_controller.rb, app/controllers/listing_images_controller.rb, app/views/homepage/_location_bar.haml, app/views/landing_page/landing_page.erb]","0.0454545455","0.25","[5242226e175785cf15a3b2aa2498c3e67cdb4864, 091ed08984796bc87b9fbf1da27be80b8fccdc1a, 3d6550446f9dac868b45e0b73459dde0d1057b68, ba7cac32400aad4dc346d5ba2adc22ffd2a9610a, 4b1dd0c2600c872b757b96e230b9b63c423c11d1, ac814bd8b2cb2948ae61898461883ec2cafbb80a, d44e074011a8ccac4c56b70c6d8bf6e31fca2929, a68b33dc45f91ae9729300a7a8532638e80ce3b4, bf00a7fbf32b30b84151c1491019ff3b8defe7bc, a057a29af9ed921440e4d41422182c99c9a585b5, 133d7b6b2ed7541c1d6f0d08f84c51a2da046b2f, 34bc1dc099bcafba076b33222d29a2181ed6b983, 67d9e144f901c068d46e03504280579274f61d90, 920ff12b57b014d05359d934a880478e7cfde8e3, 44b4d5b891ee373d1ec15cfba423b54ef45f0d81, dfa121bdfe6980b9c352fe20d3b0daf3286b446e, 6f5275e1821fd855406ea27caf39c7afeac267a8, b7c385d03c020c80ab5dee748b48b4890b795c04, d8477ae032746e694261b38397375cff8a4133fe, d8848f2cde1494e05370c20e0c94d3df49a24b06, de76bad06f4a38ec83ef509629925568d2c353dd, 8af2e67ca4d75c75100252608a91634f2f06ded7, 89693de52c4e698c8c4cc801cdffe5eb215b5c32, b55c216bfda2870a30980bb6cf39322ecdacd7ea, b29979fe50106b285bd892b1b577808cb87852d9, 1618b3ffca608f70b5df055e2a5940e8f79dd4b5, cfeed0702526cba1c03f012bd6c0f034624e7168]","3.050 seconds","4.2.5.2","[cucumber-rails, rspec-rails, factory_girl]","1","[]","11","12","[app/controllers/homepage_controller.rb, app/views/homepage/_custom_filters.haml, app/views/homepage/_filters.haml, app/views/homepage/_grid_item.haml, app/views/homepage/_list_item.haml, app/views/homepage/_list_item_with_distance.haml, app/views/homepage/_location_bar.haml, app/views/homepage/_map.haml, app/views/homepage/_price_filter.haml, app/views/homepage/_search_bar.haml, app/views/homepage/index.haml, app/views/layouts/_grid_item_listing_image.haml]","true","0.13157894744459833","0","","0",""
"sharetribe","1106","[25-04-2016, 26-04-2016]","2","3","[Fix Cucumber , Fix RSpec , Unique community_memberships.person_id  Person and CommunityMemberhips have 1-to-1 relationship. Thus, the `person_id`in `community_memberships` should be unique globally, not only per community. Also, we want to be as little dependant on `community_id` in the `community_memberships` table, because in the end that's duplicated information which can be found in `people` table and we want to get rid of that duplication. ]","1","1","1","2","2","[page, execute_script, click, id, be_nil, have_no_selector, hashes, update_attributes, each, username, id, save!, consent, update_attribute, set_default_preferences, save, login_as, where, update_all, name, find, emails, page, have_no_content, page, driver, browser, switch_to, alert, within]","2","","0","","0","","0","","0","","[]","[send_confirmation_person_email]","1","37","1","[app/controllers/accept_conversations_controller.rb, app/controllers/accept_preauthorized_conversations_controller.rb, app/controllers/admin/categories_controller.rb, app/controllers/admin/custom_fields_controller.rb, app/controllers/admin/listing_shapes_controller.rb, app/controllers/comments_controller.rb, app/controllers/emails_controller.rb, app/controllers/followers_controller.rb, app/controllers/homepage_controller.rb, app/controllers/listing_images_controller.rb, app/controllers/people_controller.rb, app/controllers/sessions_controller.rb, app/controllers/terms_controller.rb, app/models/community.rb, app/models/community_membership.rb, app/models/email.rb, app/models/person.rb, app/services/listing_service/api/listings.rb, app/services/listing_service/store/listing.rb, app/services/marketplace_service/community.rb, app/services/marketplace_service/person.rb, app/services/marketplace_service/store/marketplace_configurations.rb, app/utils/form_utils.rb, app/view_utils/listing_shape_templates.rb, app/views/homepage/_custom_filters.haml, app/views/homepage/_filters.haml, app/views/homepage/_grid_item.haml, app/views/homepage/_list_item.haml, app/views/homepage/_list_item_with_distance.haml, app/views/homepage/_location_bar.haml, app/views/homepage/_map.haml, app/views/homepage/_price_filter.haml, app/views/homepage/_search_bar.haml, app/views/homepage/index.haml, app/views/layouts/_grid_item_listing_image.haml, app/views/layouts/_left_hand_navigation.haml, app/views/settings/account.haml]","[app/models/community_membership.rb]","0.027027027","1.0","[d31eff4b24dc03827c568bd4cf35b3e18b784afd, 28b8df6847d7a4ef1630fac8fa901d5445fbce1b, 7292a3be3ff3e81724bc201cd1f644fc0c90d00c]","2.938 seconds","4.2.5.2","[cucumber-rails, rspec-rails, factory_girl]","2","[]","13","14","[app/controllers/homepage_controller.rb, app/views/homepage/_custom_filters.haml, app/views/homepage/_filters.haml, app/views/homepage/_grid_item.haml, app/views/homepage/_list_item.haml, app/views/homepage/_list_item_with_distance.haml, app/views/homepage/_location_bar.haml, app/views/homepage/_map.haml, app/views/homepage/_price_filter.haml, app/views/homepage/_search_bar.haml, app/views/homepage/index.haml, app/views/layouts/_grid_item_listing_image.haml, app/views/layouts/_left_hand_navigation.haml, app/views/settings/account.haml]","false","0.12195121940214158","0","","0",""
"sharetribe","1261","[29-01-2016]","1","3","[Change formulation of the text when no search results found , fix test (which were broken because of the changed empty search result text) , add link to new listing page to empty search results text ]","1","3","3","0","0","[click_button, fill_in, page, have_content, has_content?, have_no_content, has_no_content?, within, id, community_id, inject, find_shape, create_listing, nil?, find_numeric_custom_field_type_by_name, find_numeric_custom_field_type_by_name, id, hashes, each, custom_field, custom_field_option, custom_field_option_selections, save!, wait_until_index_finished, page, to_f, execute_script]","6","","0","","0","","0","","0","","[]","","0","39","1","[app/controllers/admin/listing_shapes_controller.rb, app/controllers/homepage_controller.rb, app/helpers/rest_helper.rb, app/models/category.rb, app/models/community.rb, app/models/custom_field.rb, app/models/custom_field_name.rb, app/models/custom_field_option_selection.rb, app/models/custom_field_option_title.rb, app/models/listing.rb, app/models/person.rb, app/services/email_service/api/api.rb, app/services/feature_flag_service/api/api.rb, app/services/feature_flag_service/store.rb, app/services/listing_index_service/api/api.rb, app/services/listing_service/api/api.rb, app/services/listing_service/store/category.rb, app/services/listing_service/store/listing.rb, app/services/marketplace_service/community.rb, app/services/marketplace_service/listing.rb, app/services/marketplace_service/person.rb, app/services/paypal_service/api/api.rb, app/services/paypal_service/api/minimum_commissions.rb, app/services/plan_service/api/api.rb, app/services/transaction_service/api/api.rb, app/services/transaction_service/store/transaction.rb, app/services/translation_service/api/api.rb, app/services/translation_service/api/translations.rb, app/views/homepage/_custom_filters.haml, app/views/homepage/_filters.haml, app/views/homepage/_grid_item.haml, app/views/homepage/_list_item.haml, app/views/homepage/_location_bar.haml, app/views/homepage/_map.haml, app/views/homepage/_price_filter.haml, app/views/homepage/_search_bar.haml, app/views/homepage/index.haml, app/views/layouts/_grid_item_listing_image.haml, lib/np_guid/uuidtools.rb]","[app/views/homepage/index.haml]","0.0256410256","1.0","[978360326c3ca0e0d0be086d99d342b06f501275, ddccce600f9ebca42f82b84b7aabb3638e5fd41f, 5adb5f83b279d47d4e623dbf9c54649161ce9381]","2.434 seconds","4.0.13","[cucumber-rails, rspec-rails, factory_girl]","1","[]","10","11","[app/controllers/homepage_controller.rb, app/views/homepage/_custom_filters.haml, app/views/homepage/_filters.haml, app/views/homepage/_grid_item.haml, app/views/homepage/_list_item.haml, app/views/homepage/_location_bar.haml, app/views/homepage/_map.haml, app/views/homepage/_price_filter.haml, app/views/homepage/_search_bar.haml, app/views/homepage/index.haml, app/views/layouts/_grid_item_listing_image.haml]","false","0.11627906959870202","0","","0",""
