"REPO_URL","TASK_ID","#HASHES","HASHES","#PROD_FILES","#TEST_FILES","LAST"
"https://github.com/jekyll/jekyll.git","1307","6","[98ed3b1c8f5a6cbf701db7df5597e216bdabc9b4, d84b801feca8b4255112efe7d65b85eb557effa0, 1238ccefcc3f79a339c2880f08ddb05c41ddc3d8, 55de1354677a9c39bbeac7811d352cfc4f18fc63, 79992fc3c86fefe1ca08b01152ac52c9c7915882, 71b10e2d4a8184ba48c69f1ed46fbbc1e4891855]","1","1","98ed3b1c8f5a6cbf701db7df5597e216bdabc9b4","190ab7f6b8c7dc45df324f175000ecc8e56a90be","568464bc0eae3224a43a4e756af1376af13477be"
"https://github.com/jekyll/jekyll.git","1311","4","[cccfda7de877a899ffb0ffdffa2fc5e4c2fae593, 866935dadf75ca6d04fd3486381b2ddd7e96f79e, 3a8992314245a79a546a7ee0a7c6b0fd50845f46, 687176e22c49484b502bb341fabf139ee6ecb25e]","1","1","cccfda7de877a899ffb0ffdffa2fc5e4c2fae593","c4a2ac2c4bfc4952ac73f4f69722718c2ec0c744","59b6cafef7ecf0dcb46747264ef9511c6f4b6ad6"
"https://github.com/jekyll/jekyll.git","1353","2","[0594adb8fd7ab574a261870a7f3e2f827e19ab33, 83f726f503c292a266c590b883aee2c6b84b508d]","1","1","0594adb8fd7ab574a261870a7f3e2f827e19ab33","21b6a01980eb2ed7f55964ec4706d700fcb8bafd","36006fa68abe7f750b66539e045796b4afce9aba"
"https://github.com/jekyll/jekyll.git","1395","2","[a66d96ce0a5dc8dad65ff5ca5cd9675e03f38a59, 05f1fac2a7e1c1aacb7638948fe59f557f6aa67e]","2","1","a66d96ce0a5dc8dad65ff5ca5cd9675e03f38a59","f385fd9efd37e8911a6fedfba14eda225ecfc27b","0e68d34e1bc971d8e25715d97c3c83e0de460ba2"
"https://github.com/jekyll/jekyll.git","1403","3","[880a503094da94d63f872e9fb5e2758bdfbf45aa, edbc273829e73f369913b7f2c6e8c4049285772b, 5f807e74212af2f7c8dd87fec3743e3616066627]","1","1","880a503094da94d63f872e9fb5e2758bdfbf45aa","20180923cf9a3b4521bf266910548b2a2ee8f4ae","579d9fc813477b9962df61fe4334f8afaee6885f"
"https://github.com/jekyll/jekyll.git","1415","2","[35ed101651ca984df373e439aa389444b66ae275, 99cc12cc0a9d46147dd9f1322d4059be82986ef4]","1","1","35ed101651ca984df373e439aa389444b66ae275","e58c1ee30611bb11feff9a6d5352ac7045bd0351","21c7f2298a52780c88927f688804f909a71e5b27"
"https://github.com/jekyll/jekyll.git","1419","6","[467945bedbe5928f75742b933012db2e4e5d2cc2, 460d9c1c443c81ffac95c7d5a496506feded33fe, ae679405441cf2bf6426486c97f8dc67006a3070, 497c10897f9a767b66aeeab42b2a849034fb594e, e868a8437f9e0f6b28f6cfa897c524454c3df3ef, c8786b7b281281bd127309b2a8fafea38c5d2cac]","1","1","467945bedbe5928f75742b933012db2e4e5d2cc2","d59b2c3ef6a22b70f5705a2a60967bf2395fa22a","7a9bc641ee30b5e926f22e39ddd35f94a96562dc"
"https://github.com/jekyll/jekyll.git","1439","3","[c76e41d157cf239e14384351b61472e50073c1fc, 0371b6995202fd8fc19055301b218d407be56aa9, 6c22ae37597480bd0489eb3fe2efa0ae539430e1]","23","2","c76e41d157cf239e14384351b61472e50073c1fc","b9c3d8ba0393f8d50c1c12dcc76c793b156ce41d","4f20d7ab2489bf92b1388178f23ac17b7d826875"
"https://github.com/jekyll/jekyll.git","1443","3","[12a8be0b982936c7e3ccd346b58b453ee4d12197, 418c978b9140868d8bd681627abd2cdee67298a0, 604fb3286c9e9625912e45d31b07e18fc79f56aa]","1","1","12a8be0b982936c7e3ccd346b58b453ee4d12197","3c6377d66576d5aac0e3ce63c89b86506d9b3305","8f90ba82a4d1a3fb025152ec66db3705612d8490"
"https://github.com/jekyll/jekyll.git","1445","2","[e37b3ca8e17e574e7e47fa75df78540b082ff8c9, cbe7e3e80e33ab1b67b24877bac929774101372b]","3","1","e37b3ca8e17e574e7e47fa75df78540b082ff8c9","65275e5841dbac22c8e79649188a29e9d0d2a37b","beeca433aeb23b1160b32ec8e36f809b599655c8"
"https://github.com/jekyll/jekyll.git","1447","1","[921dbe0547deb096a0a748faf86781fec64bda7c]","2","1","921dbe0547deb096a0a748faf86781fec64bda7c","5aefaa1c48b055061877fec1162aea144fdf8927","ab679cbe26aa56c32a59c26c348e88e5b72cc820"
"https://github.com/jekyll/jekyll.git","1473","9","[53b2e1372c78806681a8c3918c59e818f5e8e660, aee7d7327f6cce5b128e93581062aee4287da209, 03291eb5f4f3e9933b7f98d4c3569fd00728026f, 56b64d688d0e59f24d0c94ce9aef66b01f2a766e, 50065a27813c5519aa296458b41cd81e6a8bdec0, 1315112ab51f292cdf95fc2b857de32f01c20eba, d3f9da7645397d63aecade6c1a64d204ffa1350a, 5129a3ccc3bca2d47e76402be207f5caf438463d, bf3a20b2d71342540ccd3e31c487178502ce1305]","1","1","53b2e1372c78806681a8c3918c59e818f5e8e660","01c09fd7fa551c6bee0d78eb086ff64bc0aaad62","4f20d7ab2489bf92b1388178f23ac17b7d826875"
"https://github.com/jekyll/jekyll.git","1474","12","[fb523722b572c4aa7aaf9df4e6d1692479d6d980, ab3aaebe6d877185a01d9287faf2fe8d7063f00a, 5dcd84b71bd4a89805ec9a2063bb25ca2c89c53e, 6c48e9bbdf0e4ae9fa774814050c9ab17c589dc9, 7f1b916f32f0f5a09ef4d1d8b327ca5431674c98, df3c163eebbb23a10c32266da9ae653b4d5a604d, d96f39360b80d3f59425fd011c25b97bb499ccfc, fd1778203dace01c549c8726fb21b326d24cce17, 9ba89b9ab1568b095ee0474dfeef00f79e891e38, d8e68bc0e12773d5a21409082517cbeec4099721, 9f6965c1b5706834ca35bd49e52affc1515409a3, ae7e4854748ea7e892e44c122a457080ff055ff0]","1","1","fb523722b572c4aa7aaf9df4e6d1692479d6d980","01c09fd7fa551c6bee0d78eb086ff64bc0aaad62","4f20d7ab2489bf92b1388178f23ac17b7d826875"
"https://github.com/jekyll/jekyll.git","1478","2","[f68098c7fc29385a6053dc69f4e35716856148b3, a5c1a01965e781445f38cac0666d14c17489099b]","1","1","f68098c7fc29385a6053dc69f4e35716856148b3","e278997750298fc23198df0dc45024b70dd21107","edfa1c8ecde81fc9146a22eb8669340bc5f726a6"
"https://github.com/jekyll/jekyll.git","1488","14","[1e0d9f899b5f81da7e2dbe7c324e34352dba4fd9, 19b0fe97812b2b31ce26b47fd73a07cc1f3264d4, 3a1c18ede202385ce74cff7d8b2d6139fe81cd6a, 2ee7e735318db0448ab45a7f1f69f8487363785f, dc0e577b44193a8761c44c14812a65da96011152, 7c1709fab4b0ef1ce9957cbcc6635f538850ae3c, 14e0abc4e2c4a2931199a39c88699a123d40e349, 558d0e8ac9ae48719a71eac48ffc5cb06fbd33c4, 9c9e96cfa7bfe73f41e2d35a71f822907000c554, cc80aab1919ece7872af24f1ca735dea1e500464, 12d9f8b02bffb0cc779d78216d302758c7a4eb09, 367a818c267408f364427e0e7eba1d2a4ea9ea14, 3517b9f4e2d2f7d38d448d49b9bb59f2419f875e, 19e704f408268f037e9d612ae85adbf253583254]","1","1","1e0d9f899b5f81da7e2dbe7c324e34352dba4fd9","5c109ee8dc885fb39b6af22b99a0472a0533dcc9","cb22320ae618db375f372d1b1243fcd1b46e586b"
"https://github.com/jekyll/jekyll.git","1490","4","[ea054ef1491843ad78846b85b115fb3eba7e5f88, fa2713202558acd0b20f2093107f27540193fd4f, 00f21ee93ca28913ef027caef893488d2f93ff75, 2468b9f45c379ab5a0750b3e5731f5ad2c9b4f4b]","1","1","ea054ef1491843ad78846b85b115fb3eba7e5f88","b6cfb8aa4f3daeeeddca10af37230cd214ee5764","1f94ca786df4f77b32c6a7f8515f3bfe6aa8443f"
"https://github.com/jekyll/jekyll.git","1504","4","[3755437d089674102289edea4dab5c0c99c96ea5, fc98f06ed718d0c077de888e4417c5a0e6b0a674, 54b74fafba7d42d54a22abf4cb41033900a9aa0e, a2169bf0c4170e9dfae53e51ce07d508a745c3a5]","2","1","3755437d089674102289edea4dab5c0c99c96ea5","c8a715d09b1795693cd504be4021a122e517bf06","693d1b84a8389bd181e88792f2df35cf61cd1136"
"https://github.com/jekyll/jekyll.git","1519","15","[622507309513f5a4102ef96c0959416eba888596, 2ccf7f1cfbce397fcfdd7841257a8cb8bf692224, d2b1d538bf402809753c981548a9ec8f6c7b7b44, c906dfdf713fa07f3a45b2026111233c362b5e1c, dd4fe87f69e04025517ee7f403754d87a07ff0fe, fb39b41ffb4c596e31cdc6f11d6e58bda250403d, 764dc8883288173f2339c5159c632ab127b81a22, b74c90dc20ee0604f54198235122606afc2d3090, 0dc680df0b0ec57a16d8dfd024254b37a3ad2f8f, 3a6ad0737cededaa6f2cfd0866d06d75f3249261, 7be78de93a272db1e01b40691edb5f7a18f75d43, f1a422dfffb98e12349dbf0e2cc2ca47f0afaaa5, a27e5825b9868c909a0fde040d0d64bbab306e9b, fd98d5b1e694dfbbf2e8524ee3067ece8257a1ee, 330005d932c203e3465703c6aabb2993dbed7aec]","3","1","622507309513f5a4102ef96c0959416eba888596","1d8fff706bfe1d4ca814987a229d66a9e3e85a93","d379e3c012ad1785c0e45291cc82816941790362"
"https://github.com/jekyll/jekyll.git","1523","3","[22f7380abe5f474271de43e70eb5285442c8fa5d, 955dc38400485f7275612ac070f4168e9cf27cc8, 09c6ff4f9c9568c103788e2d7f0c9804c7706492]","2","1","22f7380abe5f474271de43e70eb5285442c8fa5d","9db5a1a6cef453ff86a837707b814984126277e2","6bd07501e8ec7862fcdb09324c07a38a12f456af"
"https://github.com/jekyll/jekyll.git","1529","7","[2804e08908628755b53febe007356e283952c00e, 199728144942c7fe599ce74a9e3c3d84f7422711, 46a5ab99f9710539c05131ce1526cbd834180fe9, 3a330dc7fcbbd0b4e4fe50a904f1b6b9df6fdb42, 26663a6cf91ed6fd9293a91a3ec80d4cda58be43, 91e9ecfa63b68ead5595ecfd67fea3e5ad33aef4, eded314bb134a169c940fc3d1771b2cba9bb2af9]","5","1","2804e08908628755b53febe007356e283952c00e","6be33cf6ef11a8ea281d78d1a8d6bfbb6e36d517","75854b5d0b0cd244a37d9b190d2fa12cf8489497"
"https://github.com/jekyll/jekyll.git","1609","1","[18279558da9bc7f80b0a431b1305ff0a6103e895]","1","1","18279558da9bc7f80b0a431b1305ff0a6103e895","fb8e56212322cbf404f2489f309e8e305c004d8a","56a633ae95f4c914caa5c8059c3d4d3a7a3c0d45"
"https://github.com/jekyll/jekyll.git","1620","1","[22f2001ff531e23f69c9e5f60f7eb92b6ee59219]","1","1","22f2001ff531e23f69c9e5f60f7eb92b6ee59219","dd3018ce026d345acc5029548d91a611b2982fec","ea397d09460137762e79e45c287933cc11c7836d"
"https://github.com/jekyll/jekyll.git","1675","9","[036cbda2f620942a84b475a858d5f3a88b71a322, 5647a902de7d58e98e3be6b1417fcda1b5ec46ca, 3ca2cb0119608a2f31c5561917c9de4c4ab4d663, cab9047de10dbfec0dd322acfb191cf0dfdf38e3, bd442680ea6809a9ed9811fd0a51577c5865c852, 4bf716c2ad36d955a27250e12509ae9e4eb8b940, 0831d2b0f839f8dfc2dcd39387597b4f89a5ac0a, 92064134d67eb17392a45e4fc82d83423a4b8ff4, 903cce27451db147ba04377f25d0fb11865c75f8]","9","1","036cbda2f620942a84b475a858d5f3a88b71a322","012387396a9f196a746327767bc3c2b998e26bec","354b4b9c545d05e52cb2180411ed0240b72a6832"
"https://github.com/jekyll/jekyll.git","1681","2","[d362faea3b89f5ff9f8a3f375578e0e6d29e29b9, 1ebce2688157c42921f478fba02af6d4c07c35bd]","1","1","d362faea3b89f5ff9f8a3f375578e0e6d29e29b9","1a3a607fcf164e2dc3778223b999bdc75c19a8bb","b7bdcb19ca558df274c9ae515e0bd67454f5dfdb"
"https://github.com/jekyll/jekyll.git","1682","4","[412fe8b8deee006114fa81308717b028beacc789, 10ee83d680c9ab049f306df8ff5c29f8223f939e, f9ffbe0d6ad66919a9a85f422183382fafe7ded1, 43ef9a2e4ffa09560e0cce232ae26bc25da0f3ac]","1","1","412fe8b8deee006114fa81308717b028beacc789","6e8f31f4060b8564a52256139a53a7f3ae7a016e","12a55b86ac273f79daf225d60289e3540ad928f0"
"https://github.com/jekyll/jekyll.git","1693","6","[2bfafb3b33b801212f390d8fec1c386106e78b5b, c2b750448e4389d5e766b77ce43f7e89ad0a9bee, 8c1706b66e2c147d8ada59188f2315d74a97f486, 35712dcadc781770c0fc2e5176d79e3aed9ecd6f, 396aa16f9900b10daead6c36281b8824df8dde2c, 5b2480c8ba093f550f46dd3aa3eecbb624f4e5c3]","3","1","2bfafb3b33b801212f390d8fec1c386106e78b5b","fa8618879d469b39fa1a0ce48de3e4b2e2694086","12a55b86ac273f79daf225d60289e3540ad928f0"
"https://github.com/jekyll/jekyll.git","1721","12","[e91db82d2620e2981691ec49d9a0add20d8d557b, 5591ff2a6bcd4895e334d9f35e344463473b832d, bce2c2efb41fd128195256455dd9714183abb124, f0fbc8f356086f5dd53fb03a274cfdc25ebb76b3, 249b13a98a58b48752e1ce8314ac6aab8a21401c, 5c9f9a4de8ac23d10c498f2fead7720f2df141bc, 8d898dafde3d4624fb5ad9552571c21b3e1ca7cb, be5966a2ec63a3bc7ae1bd4f4dba3cc8120be4b1, 6187861e911eb624434e1fd77a9a8696264d1fe8, 615d49ed664fb117540fac6ca8aafbf3cb7647e8, a4b9bab1dce7ea58eea878b1bc38b7ddcdbefdb0, 480e35037bfc058819709209d528b602c838c6ea]","1","1","e91db82d2620e2981691ec49d9a0add20d8d557b","b58cd5c13265b972c9ecac6f1250b05807225972","a26663fb3618df8b2a028f00434938ce75aa3dc2"
"https://github.com/jekyll/jekyll.git","1724","3","[fb9de8cbf609e929ec263c4f2e9293c8b00d7b36, 5ed9d21ec7954c66ba1fad4f840c80754addefa3, 0bdfed4b255d3a0297917fd5eae5458172b46214]","1","2","fb9de8cbf609e929ec263c4f2e9293c8b00d7b36","9f1593299a1aba4f43ba689430962c09aac201be","7af757a3fc1ca2d82657136ee6109c6972c4a844"
"https://github.com/jekyll/jekyll.git","1725","5","[960e01cba815b92918c602775202715c1c525b21, 2b275ef192214be0c6c00e7cc614c2e749ba9014, 96a37ac1abacf9bd84b526595ee47878609e97db, dd851943c08a4a3eb2687138a7c7985839d5d60f, 32b4de3ea6eb82eedc2177d1ac083e23fa1a2586]","5","1","960e01cba815b92918c602775202715c1c525b21","f1869cda988d4ed4da0609ccfb9534138f01910f","20ea0c8d56572c1e34f09f8558428679ea5f618a"
