"Repository","https://github.com/gitlabhq/gitlabhq.git"
"Tasks with empty IReal","0"
"Tasks with no-empty IReal","19"
"Tasks with relevant AST error","0"
"Tasks with AST error of Gherkin files","0"
"Tasks with AST error of StepDef files","0"
"Tasks with AST error of production files","0"
"Tasks with AST error of unit test files","0"
"Tasks with step match error","19"
"Tasks without required gems","0"
"Tasks with changed stepdef","0"
"Tasks with changed Gherkin","19"
"Tasks with implemented Gherkin scenarios","0"
"All invalid tasks","19"
"All valid tasks (Gherkin scenario, no empty IReal, no error)","0"
"Valid tasks, but empty ITest","0"
"Valid tasks, no empty ITest, but zero precision-recall","0"
"Valid tasks, no empty ITest, no zero precision-recall","0"
"Project","Task","Date","#Days","#Commits","Commit_Message","#Devs","#Gherkin_Tests","#Impl_Gherkin_Tests","#StepDef","#Impl_StepDef","Methods_Unknown_Type","#Step_Call","Step_Match_Errors","#Step_Match_Error","AST_Errors","#AST_Errors","Gherkin_AST_Errors","#Gherkin_AST_Errors","Steps_AST_Errors","#Steps_AST_Errors","Renamed_Files","Deleted_Files","NotFound_Views","#Views","#TestI","#TaskI","TestI","TaskI","Precision","Recall","Hashes","Timestamp","Rails","Gems","#Visit_Call","Lost_visit_call","#Views_ITest","#Code_View_Analysis","Code_View_Analysis","Has_Merge","F2","#Multiple_Step_Matches","Multiple_Step_Matches","#Generic_Step_Keyword","Generic_Step_Keyword"
"gitlabhq","17296","[16-12-2016, 18-12-2016, 19-12-2016]","4","18","[Fix specs , Improve after feedback , Fix previously reverted spec failures , Improve code design , Fix failures , Fix spec failures , Remove not related spec changes , Fix Rubocop , Added slack slash commands frontend help well  Added tests , Use Slack::Notifier::LinkFormatter to convert markdown links to slack compat , Fix SlackSlashCommands tests , Fix specs , Render format dependent links , Use Slack compatible syntax , Use single presenter for everything , Rename Mattermost::Presenter to Presenter , Rename ChatService into ChatSlashCommandsService , Create Slack Slash command service ]","3","1","0","0","0","[]","0","[path:features/project/service.feature, size:2]","2","","0","","0","","0","","[app/models/project_services/chat_service.rb, lib/gitlab/chat_commands/help.rb, lib/gitlab/chat_commands/presenters/mattermost.rb, lib/mattermost/presenter.rb]","","0","0","12","[]","[app/models/project.rb, app/models/project_services/chat_slash_commands_service.rb, app/models/project_services/mattermost_slash_commands_service.rb, app/models/project_services/slack_slash_commands_service.rb, app/models/service.rb, app/views/projects/services/mattermost_slash_commands/_help.html.haml, app/views/projects/services/slack_slash_commands/_help.html.haml, lib/api/services.rb, lib/gitlab/chat_commands/base_command.rb, lib/gitlab/chat_commands/command.rb, lib/gitlab/chat_commands/deploy.rb, lib/gitlab/chat_commands/presenter.rb]","0.0","0.0","[e06f88effa842c73d3827593f8d28846207bfca0, 298d05a5c3cc3c2f1daa4d77c45f9c90b53248df, b1ccf99e87605216f7d5733d6a4ffb4530d4cfc9, e6842ff5643c7fc88a65af24b56682f47f4be2de, f5ff372140d066d7bcedc0ad0799c723a9012bb0, f9023adbad4939ba597d509e319105659e61734b, 9e3153dbf556b9b9397806bedcf0a195e8ee3fa4, 676b79b94d33e007b34d70c00900a52983ce1106, 3f60a276fc36fc7d1c5323c38b33fdbc774cfbbf, 0f2776287a7d9b0fde9ff54ef8d9f74e2f844a09, f9f1a508c6a4bdb2fcee98d18394e28e1cc663c3, ebc3f62be52e386b4550e01ce589744e880ad443, cc83aded33471a3e2f943bd9a760f689d30f901e, dc995daf90e67b5531dd7fbb8a958507f46e4eb6, 8ca5fef9d472e11b4a9ff5d5ab47bbba3e7e670d, 37057870a6b4bf4bf42cc7210a6ae17d68ae5448, ed880e4954803f9753cfafe0dd8106852245d10d, 0d3e24358b88ce41848c97f3ac37bc813074f260]","1.862 seconds","4.2.7.1","[rspec-rails, simplecov, factory_girl]","0","[]","0","0","[]","false","0.0","0","","0",""
"gitlabhq","17550","[22-11-2016]","1","1","[Allow admin to set keys with write access, and  show write access information when showing the key.  TODO: It's ugly right now, need help! ]","1","2","0","0","0","[]","0","[path:features/admin/deploy_keys.feature, size:2]","2","","0","","0","","0","","[]","","0","0","4","[]","[app/controllers/admin/deploy_keys_controller.rb, app/views/admin/deploy_keys/index.html.haml, app/views/admin/deploy_keys/new.html.haml, app/views/projects/deploy_keys/_deploy_key.html.haml]","0.0","0.0","[28102ec28e1ef3d3203db3d05aa89ab3da234e70]","1.619 seconds","4.2.7.1","[rspec-rails, simplecov, factory_girl]","0","[]","0","0","[]","false","0.0","0","","0",""
"gitlabhq","17608","[30-11-2016]","1","15","[rename event variable to just e , fix media query off-by-1 pixel error , add special class in cases where sidebar toggle should exist in the margin , prevent nav control buttons from wrapping awkwardly when they overflow , echo changes in 6683fdcf for wiki pages path , add CHANGELOG entry for !7429 , use wiki pages index for sidebar overflow and limit sidebar list to 15 pages , prevent sidebar toggle from overlapping git access header on mobile , fix tests broken by new wiki page design , update wiki pages with new design , add wiki page list to sidebar , allow wiki sidebar to scroll on overflow , update design of wiki git access page , add active states to sidebar nav , move wiki navbar content to right sidebar ]","1","5","0","0","0","[]","0","[path:features/project/wiki.feature, size:3]","3","","0","","0","","0","","[app/views/projects/wikis/_nav.html.haml]","","0","0","9","[]","[app/controllers/projects/wikis_controller.rb, app/helpers/nav_helper.rb, app/views/projects/wikis/_form.html.haml, app/views/projects/wikis/_sidebar.html.haml, app/views/projects/wikis/edit.html.haml, app/views/projects/wikis/git_access.html.haml, app/views/projects/wikis/history.html.haml, app/views/projects/wikis/pages.html.haml, app/views/projects/wikis/show.html.haml]","0.0","0.0","[3833a28c3aa7a7ae8c1a353e2c6d4338f50b5fb1, d42e7f23b2cde8991ab8f617335abc19eec4e906, bf587cb5c0bbc8d99809d7195a17f96d6c3a1a80, 9918be8fc885600d21ae6a5020e6288e8e341f21, d5b4b026339fcc3f0deecb4d713b3066c8c69c71, 5499f1e66b5c5fa5645856ff9415158a0a3ab781, f0d20b09dc6604d4ea11a39a7d7492ad10574094, b2137632203cda91b79763c33ac80c51e88ed010, e069875e80117020eea5bfe1b06f1a5bf868ffc9, 952bdfae52b5843e3265ad672750765a57c5bc9b, a1518055723459cf042327e1f9a4cf5004a0d301, 8e23d7ad84db730413b1df66117775b241dfe38c, 9fa6512501f03f844cb0a9393de78555e963afb4, 48f4f76c16352278600174c13744b3ce8c026f1a, a167897bed66ed2b9aafad7020d75334e2badf32]","1.583 seconds","4.2.7.1","[rspec-rails, simplecov, factory_girl]","0","[]","0","0","[]","false","0.0","0","","0",""
"gitlabhq","18088","[06-11-2016, 07-11-2016]","2","8","[Refactor method name , Fix bug of json request url , Remove 'extended_sha1' option from ExtractsPath module , Update changelog , Fix spinach test , Add a CHANGELOG entry , Separete a very long line , Network page appear with an error message when entering nonexistent git revision ]","1","1","0","0","0","[]","0","[path:features/project/network_graph.feature, size:2]","2","","0","","0","","0","","[]","","0","0","3","[]","[app/controllers/projects/network_controller.rb, app/views/projects/network/show.html.haml, lib/extracts_path.rb]","0.0","0.0","[5569573a24efca76abede20370988a81d623e6a5, 95a78fb53bbddfa10db7da3b12406332a7fafacc, d8cc8d7adc4c50843ecacc77a30b2e6db4e3fd84, d02f7d29c07632f219e103ba256636f49329067c, 8d0e84bcf49ccb136557302313bac0833b7d91e5, b5bb98100a58a39a4982c28d868c195ead19a69e, ee7374a9fb16ca65603ef095de2856694612d68f, 56264f35d40e3ebcebf2b88b9ff6f3a8f4f545e9]","1.342 seconds","4.2.7.1","[rspec-rails, simplecov, factory_girl]","0","[]","0","0","[]","false","0.0","0","","0",""
"gitlabhq","18192","[01-11-2016]","1","3","[Update changelog , Fix spinach tests , Update links in side nav and header ]","1","2","0","0","0","[]","0","[path:features/dashboard/active_tab.feature, size:2], [path:features/dashboard/dashboard.feature, size:2]","4","","0","","0","","0","","[]","","0","0","2","[]","[app/views/layouts/header/_default.html.haml, app/views/layouts/nav/_dashboard.html.haml]","0.0","0.0","[e4084fa0b0cc96b42d3a5eb8795d60c957598e14, 441948f4382601f63326982c44919d1572390693, 4281daf30a0319103e46b98cc2d0f64228415443]","1.343 seconds","4.2.7.1","[rspec-rails, simplecov, factory_girl]","0","[]","0","0","[]","false","0.0","0","","0",""
"gitlabhq","18658","[06-10-2016]","1","2","[Merge branch 'akramfares/gitlab-ce-master'  See !6543. , Add tag shortcut from the Commit page  Signed-off-by: Rémy Coutable <remy@rymai.me> ]","2","1","0","0","0","[]","0","[path:features/project/commits/commits.feature, size:2]","2","","0","","0","","0","","[]","","0","0","1","[]","[app/views/projects/commit/_commit_box.html.haml]","0.0","0.0","[7c8c80880995e0bce822a6809fe514ce0f3fda36, 5c7904d786c5f176d94753b2db5c9efaa23a80fe]","1.336 seconds","4.2.7.1","[rspec-rails, simplecov, factory_girl]","0","[]","0","0","[]","true","0.0","0","","0",""
"gitlabhq","18665","[06-10-2016]","1","1","[MergeRequest new form load diff asynchronously]","1","5","0","0","0","[]","0","[path:features/project/source/browse_files.feature, size:4]","4","","0","","0","","0","","[]","","0","0","5","[]","[app/controllers/projects/merge_requests_controller.rb, app/models/merge_request.rb, app/views/projects/diffs/_diffs.html.haml, app/views/projects/merge_requests/_new_diffs.html.haml, app/views/projects/merge_requests/_new_submit.html.haml]","0.0","0.0","[ca3c0c6cd915d44ec2d409b04ab05d964bd5a403]","1.347 seconds","4.2.7.1","[rspec-rails, simplecov, factory_girl]","0","[]","0","0","[]","false","0.0","0","","0",""
"gitlabhq","18850","[18-09-2016]","1","1","[Added full-width new snippet button on mobile and corrected capitalization  Altered specs that click capitalised New Snippet button  Applied review feedback missed in  Changes `.no-comment` `opactiy: 0.5` to `opacity: .5`  Added `.btn-wide-on-xs` and applied to snippet buttons ]","1","1","0","0","0","[]","0","[path:features/project/snippets.feature, size:2]","2","","0","","0","","0","","[]","","0","0","5","[]","[app/views/dashboard/snippets/index.html.haml, app/views/explore/snippets/index.html.haml, app/views/projects/snippets/_actions.html.haml, app/views/projects/snippets/index.html.haml, app/views/snippets/_actions.html.haml]","0.0","0.0","[9abd871a03ead34945f7dff050f92d7ab9225472]","1.194 seconds","4.2.7.1","[rspec-rails, simplecov, factory_girl]","0","[]","0","0","[]","false","0.0","0","","0",""
"gitlabhq","19324","[22-08-2016]","1","1","[Revert the revert of Optimistic Locking ]","1","1","0","0","0","[]","0","[path:features/project/merge_requests.feature, size:2]","2","","0","","0","","0","","[]","","0","0","4","[]","[app/controllers/projects/issues_controller.rb, app/controllers/projects/merge_requests_controller.rb, app/models/concerns/issuable.rb, app/views/shared/issuable/_form.html.haml]","0.0","0.0","[8f9a7ca854ffda26c5ce9aed2aec10bf155d0463]","1.377 seconds","4.2.7.1","[rspec-rails, simplecov, factory_girl]","0","[]","0","0","[]","false","0.0","0","","0",""
"gitlabhq","19468","[11-08-2016]","1","1","[Fix permissions check in controller, added relevant spec and updated docs ]","1","1","0","0","0","[]","0","[path:features/dashboard/new_project.feature, size:2]","2","","0","","0","","0","","[]","","0","0","2","[]","[app/controllers/import/gitlab_projects_controller.rb, app/views/projects/new.html.haml]","0.0","0.0","[30f9596c612abc19dd060fa3a8e8ae3d92001d45]","0.964 seconds","4.2.7","[rspec-rails, simplecov, factory_girl]","0","[]","0","0","[]","false","0.0","0","","0",""
"gitlabhq","19475","[02-08-2016, 03-08-2016, 08-08-2016, 09-08-2016, 12-08-2016, 15-08-2016]","14","31","[Fix merge request diff create and head_commit_sha compatibility  Signed-off-by: Dmitriy Zaporozhets <dmitriy.zaporozhets@gmail.com> , Change the way old merge request diff handled  Signed-off-by: Dmitriy Zaporozhets <dmitriy.zaporozhets@gmail.com> , Add documentation for merge request versions  Signed-off-by: Dmitriy Zaporozhets <dmitriy.zaporozhets@gmail.com> , Add single merge request diff API endpoint  Signed-off-by: Dmitriy Zaporozhets <dmitriy.zaporozhets@gmail.com> , Remove unnecessary &nbsp; in merge request versions dropdown  Signed-off-by: Dmitriy Zaporozhets <dmitriy.zaporozhets@gmail.com> , Load merge request versions without loading whole diff from database  Signed-off-by: Dmitriy Zaporozhets <dmitriy.zaporozhets@gmail.com> , Add MergeRequest#branch_merge_base_commit method  Signed-off-by: Dmitriy Zaporozhets <dmitriy.zaporozhets@gmail.com> , Fix project id param for merge request version API  Signed-off-by: Dmitriy Zaporozhets <dmitriy.zaporozhets@gmail.com> , Update mer [TOO_LONG]","1","1","0","0","0","[]","0","[path:features/project/merge_requests.feature, size:2]","2","","0","","0","","0","","[]","","0","0","9","[]","[app/controllers/projects/merge_requests_controller.rb, app/models/merge_request.rb, app/models/merge_request_diff.rb, app/services/merge_requests/create_service.rb, app/views/projects/merge_requests/show/_diffs.html.haml, app/views/projects/merge_requests/show/_versions.html.haml, lib/api/api.rb, lib/api/entities.rb, lib/api/merge_request_diffs.rb]","0.0","0.0","[94a7198ade54595d72797cab09db2c2a89172535, 29ac60d7fbb8208880408dbf98a94acd0ae73730, a8fe213ebbb4a1aa48a20c908ba989190d20f2a1, ac072132b8f0e36badf297208a5964109dbed126, 445edcfacc583ba613a4b865b104d7d7e1f7ec0f, 28e33df46bdffac3dc9388b56035db38dcdab5e3, d99d5198c2df6f931664b8096bcbfc28e8221145, 08f5f897889dc7e7f00a65f56e988449350e60f2, 69096ad9da77ce51d544a8f23f4e8873df273f4e, 9a5f40878c6d71e7fd4858f7fa1d948af6c371ae, 159998a460be6ca1ea5efd135a5c3aefeab2d9b6, fc8d2fbc946d144d2a9d075d67a9f1fe1035da0e, 7cb8ceb5b9b7da6f9bd5f80a50eeca6727ac5902, 6515ec09bbfa25027d1b8a1240e09bc1c6edbcfb, f8aeb8cdac98108bca5d1be2a382c32df6a500e5, 3c1dca0301366c63d1800aa11e73a82e68e120d0, 0e974b52d8f5806c24fdc80ef5b62b261f5be2ba, b0a023842d4e9fc29db7fa6c7168528d9e4ac09d, 8e031ce3b29b186858ddda2a28a6ea8f98b2f749, 5cad2d290219d29aa2be6e991b42b73ac9d87754, 964742f600f5fc5e07272982c4d3847ccc76ce00, 988836bc807a6e7ba5362fd8bddd330d1f3bf19b, 5d5f2cf3ef7bc238f75d9a73ce94efceec6f690e, 09fa0139281d7a76d6b40991f7672187fea40e67, 6190216541adb04fd0ce4b21862e6b253b868671, dbd58dc4bb638be33f98336410ae6f4ede15f737, b8fef7eb5948344f4d442a52637cad168f4c5bf1, 94ca25c9b8c62f9995fbd571c33954754950e1da, ceff8106433187613eb97d13952fc96c4806b847, 2afcc9e910bde32507e14be452c9f7681f5497e4, 2acb8a3085ad64ce56625a9d63f01f9398e757a3]","1.072 seconds","4.2.7","[rspec-rails, simplecov, factory_girl]","0","[]","0","0","[]","false","0.0","0","","0",""
"gitlabhq","19598","[04-08-2016]","1","1","[Add unfold links for Side-by-Side view ]","1","1","0","0","0","[]","0","[path:features/project/merge_requests.feature, size:2]","2","","0","","0","","0","","[app/views/projects/diffs/_match_line.html.haml]","","0","0","9","[]","[app/controllers/projects/blob_controller.rb, app/helpers/diff_helper.rb, app/views/projects/blob/diff.html.haml, app/views/projects/diffs/_content.html.haml, app/views/projects/diffs/_diffs.html.haml, app/views/projects/diffs/_line.html.haml, app/views/projects/diffs/_parallel_view.html.haml, app/views/projects/diffs/_text_file.html.haml, app/views/projects/merge_requests/_show.html.haml]","0.0","0.0","[b6d545df51d7c3b4e572b40cdafb7efeb78edaf4]","1.158 seconds","4.2.7","[rspec-rails, simplecov, factory_girl]","0","[]","0","0","[]","false","0.0","0","","0",""
"gitlabhq","19927","[13-07-2016]","1","1","[Revert ""Optimistic locking for Issue and Merge Requests""  This reverts commit c39356998b1850f3dc26fe0b987cb419c1d1afb4. ]","1","1","0","0","0","[]","0","[path:features/project/merge_requests.feature, size:2]","2","","0","","0","","0","","[]","","0","0","4","[]","[app/controllers/projects/issues_controller.rb, app/controllers/projects/merge_requests_controller.rb, app/models/concerns/issuable.rb, app/views/shared/issuable/_form.html.haml]","0.0","0.0","[d7c591915893c8c572e9135db4ec27dc174823fd]","0.925 seconds","4.2.7","[rspec-rails, simplecov, factory_girl]","0","[]","0","0","[]","false","0.0","0","","0",""
"gitlabhq","19981","[12-07-2016]","1","1","[Optimistic locking for Issue and Merge Requests ]","1","1","0","0","0","[]","0","[path:features/project/merge_requests.feature, size:2]","2","","0","","0","","0","","[]","","0","0","4","[]","[app/controllers/projects/issues_controller.rb, app/controllers/projects/merge_requests_controller.rb, app/models/concerns/issuable.rb, app/views/shared/issuable/_form.html.haml]","0.0","0.0","[c39356998b1850f3dc26fe0b987cb419c1d1afb4]","0.914 seconds","4.2.6","[rspec-rails, simplecov, factory_girl]","0","[]","0","0","[]","false","0.0","0","","0",""
"gitlabhq","20061","[08-07-2016]","1","1","[Revert ""Revert ""Merge branch 'issue_3946' into 'master'""""  This reverts commit bf2a86b73cce332ff8f4392ffc8df501193f32ec. ]","1","1","0","0","0","[]","0","[path:features/admin/projects.feature, size:2]","2","","0","","0","","0","","[]","","0","0","9","[]","[app/controllers/admin/projects_controller.rb, app/helpers/dropdowns_helper.rb, app/views/admin/groups/_group.html.haml, app/views/admin/groups/index.html.haml, app/views/admin/projects/index.html.haml, app/views/admin/projects/show.html.haml, app/views/admin/users/_user.html.haml, app/views/admin/users/index.html.haml, app/views/shared/projects/_dropdown.html.haml]","0.0","0.0","[0de617772dfeb9bdcf3770e9acf7421db5023058]","0.985 seconds","4.2.6","[rspec-rails, simplecov, factory_girl]","0","[]","0","0","[]","false","0.0","0","","0",""
"gitlabhq","20066","[07-07-2016]","1","1","[Revert ""Merge branch 'issue_3946' into 'master'""  This reverts commit 68155ee73b549a4f79744bb325542c29d45c71ea, reversing changes made to 7ebd011ed1de7aee706f07a53c63c90f1c8aa5d4. ]","1","1","0","0","0","[]","0","[path:features/admin/projects.feature, size:2]","2","","0","","0","","0","","[app/views/admin/users/_user.html.haml]","","0","0","8","[]","[app/controllers/admin/projects_controller.rb, app/helpers/dropdowns_helper.rb, app/views/admin/groups/_group.html.haml, app/views/admin/groups/index.html.haml, app/views/admin/projects/index.html.haml, app/views/admin/projects/show.html.haml, app/views/admin/users/index.html.haml, app/views/shared/projects/_dropdown.html.haml]","0.0","0.0","[bf2a86b73cce332ff8f4392ffc8df501193f32ec]","1.260 seconds","4.2.6","[rspec-rails, simplecov, factory_girl]","0","[]","0","0","[]","false","0.0","0","","0",""
"gitlabhq","20073","[07-07-2016]","1","4","[Namespaces should filter remotely , Rephrase deletion alert message , Do not show Any Namespace option when needed , Layout for Users Groups and Projects on admin area ]","1","1","0","0","0","[]","0","[path:features/admin/projects.feature, size:2]","2","","0","","0","","0","","[]","","0","0","9","[]","[app/controllers/admin/projects_controller.rb, app/helpers/dropdowns_helper.rb, app/views/admin/groups/_group.html.haml, app/views/admin/groups/index.html.haml, app/views/admin/projects/index.html.haml, app/views/admin/projects/show.html.haml, app/views/admin/users/_user.html.haml, app/views/admin/users/index.html.haml, app/views/shared/projects/_dropdown.html.haml]","0.0","0.0","[140b0952a8b0ba1f9620a54f4ae2ea21abe02c18, 22191fcdd188b31bb1d3c2326d862019bd5b2457, 35224dbf5e88936b138af7e6215a2e4e0503ae97, 338072cc4ba66cd7eb6fbd9541862946e4ae4b75]","0.925 seconds","4.2.6","[rspec-rails, simplecov, factory_girl]","0","[]","0","0","[]","false","0.0","0","","0",""
"gitlabhq","20123","[27-06-2016, 28-06-2016, 29-06-2016]","3","3","[Updating padding in dropdown menu , Fixed logout tests , Added user avatar to header  Closes #18543 ]","1","4","0","0","0","[]","0","[path:features/project/issues/issues.feature, size:2], [path:features/search.feature, size:2]","4","","0","","0","","0","","[]","","0","0","1","[]","[app/views/layouts/header/_default.html.haml]","0.0","0.0","[e65a703122fa4fa6c2cce2aeb76904d630e1c389, a44988ae4abb494b1194bb575b2415ef0de68878, e7aa8315af71339ecb6b01ae7da83f3c9b1e1957]","1.819 seconds","4.2.6","[rspec-rails, simplecov, coveralls, factory_girl]","0","[]","0","0","[]","false","0.0","0","","0",""
"gitlabhq","20168","[30-06-2016]","1","2","[Make GH one-off auth the default again for importing GH projects  Advertise the PAT as an alternative unless GH import is not configured.  Signed-off-by: Rémy Coutable <remy@rymai.me> , Import from Github using Personal Access Tokens.  This stands as an alternative to using OAuth to access a user's Github repositories.  This is setup in such a way that it can be used without OAuth configuration.  From a UI perspective, the how to import modal has been replaced by a full page, which includes a form for posting a personal access token back to the Import::GithubController.  If the user has logged in via GitHub, skip the Personal Access Token and go directly to Github for an access token via OAuth. ]","2","1","0","0","0","[]","0","[path:features/dashboard/new_project.feature, size:2]","2","","0","","0","","0","","[app/views/projects/_github_import_modal.html.haml]","","0","0","4","[]","[app/controllers/import/github_controller.rb, app/views/import/github/new.html.haml, app/views/projects/new.html.haml, lib/gitlab/github_import/client.rb]","0.0","0.0","[ce6635406c8e2e4d336d6d7738a1e4916036871c, 12aa1f898dbfea3aaeb2de351ac1cccef304717f]","1.011 seconds","4.2.6","[rspec-rails, simplecov, factory_girl]","0","[]","0","0","[]","false","0.0","0","","0",""
