"Repository","https://github.com/sharetribe/sharetribe.git"
"Precision mean (RT)","0.19607843137058825"
"Precision median (RT)","0.0"
"Precision standard deviation (RT)","0.2281058334222476"
"Recall mean (RT)","0.2196078431352941"
"Recall median (RT)","0.0"
"Recall standard deviation (RT)","0.2927500886056418"
"F2 mean (RT)","0.20193531957984845"
"F2 median (RT)","0.0"
"F2 standard deviation (RT)","0.25444930688876066"
"Correlation #Test-Precision","-0.02"
"Correlation #Test-Recall","0.08"
"Task","Dates","#Devs","#Commits","Hashes","#Gherkin_Tests","#Sted_defs","#TestI","#TaskI","TestI","TaskI","Precision","Recall","Rails","#visit_call","Lost_visit_call","#Views_TestI","#Code_View_Analysis","Code_View_Analysis","Methods_Unknown_Type","Renamed_Files","Deleted_Files","NotFound_Views","#NotFound_Views","Timestamp","Has_Merge","#FP","#FN","FP","FN","#Hits","Hits","f2"
"2723","[08-01-2013]","1","1","[9642dc645e7d081dd56f348fe514036f0a33dc28]","10","0","4","1","[app/controllers/application_controller.rb, app/controllers/dashboard_controller.rb, app/controllers/homepage_controller.rb, app/controllers/sessions_controller.rb]","[app/controllers/testimonials_controller.rb]","0.0","0.0","3.2.10","4","[]","0","16","[app/controllers/application_controller.rb, app/controllers/dashboard_controller.rb, app/controllers/homepage_controller.rb, app/controllers/sessions_controller.rb, app/views/dashboard/_footer.haml, app/views/dashboard/_header.haml, app/views/dashboard/_lower_middle.haml, app/views/dashboard/api.haml, app/views/dashboard/faq.haml, app/views/dashboard/index.haml, app/views/homepage/_filter_categories.haml, app/views/homepage/_filter_share_types.haml, app/views/homepage/_map.haml, app/views/homepage/_recent_listing.haml, app/views/homepage/index.haml, app/views/sessions/new.haml]","[login_as, hashes, get_test_person_and_session, update_attributes, id, consent, save, each, generate_random_username, fill_in, page, have_content, has_content?, username, have_no_content, has_no_content?, within, click_button, click_link, Integer, sleep, homepage, listing, find, click, have_xpath, attach_file, capture_email, body, id, find_by_person_id, find_by_person_id]","","[]","[new_tribe, person_testimonials, tribes]","3","2.536 seconds","false","4","1","[app/controllers/application_controller.rb, app/controllers/dashboard_controller.rb, app/controllers/homepage_controller.rb, app/controllers/sessions_controller.rb]","[app/controllers/testimonials_controller.rb]","0","[]","0"
"2766","[04-12-2012, 05-12-2012, 07-12-2012]","2","14","[6ff902a2fdc014c2e3c095969de048099ab628f0, b7f149d56d2d7cc4f0b1477330f2e346a0c0f16a, e591365265746ac89b70c3829fbd1ce9f515c75a, da5f94a4869adf2e67313d8e61954befb464b61c, 306ecd8694fefdd596e4ef1235923a9d2bcae6d7, 4d6c826bfd84ef97658b7167bf12f15881013a2f, 4e2c74715210ef53089698a66846f5b00cab7d84, f33a235c864fa6582900d4f1a0734a969af3b8e1, a2b9d9f395d2efaf733359e88f11de372f2ecd20, aef8af80d7459ddc44b0d4602ae18f4ce91bab3f, 6f52741274fdf96313d0c4fa6d435d76e67db052, fca041be05671d5dad5d8a55d0a59c274e3af020, bb68baf81dcfb128f33719a37fbf35862c17109c, d22432f563befd4e0c947b6e88d21b0e16cc5671]","8","0","2","1","[app/controllers/application_controller.rb, app/controllers/dashboard_controller.rb]","[app/controllers/dashboard_controller.rb]","0.5","1.0","3.2.9","3","[]","0","10","[app/controllers/application_controller.rb, app/controllers/dashboard_controller.rb, app/views/communities/_select_pricing_plan.haml, app/views/dashboard/_footer.haml, app/views/dashboard/_header.haml, app/views/dashboard/_lower_middle.haml, app/views/dashboard/api.haml, app/views/dashboard/faq.haml, app/views/dashboard/index.haml, app/views/dashboard/pricing.haml]","[click_button, click_link, fill_in, Integer, sleep, check, page, have_content, has_content?, have_no_content, has_no_content?, within, login_as, generate_random_username, join_with_invite_only, be_true]","","[]","[new_tribe, tribes]","2","1.000 seconds","true","1","0","[app/controllers/application_controller.rb]","[]","1","[app/controllers/dashboard_controller.rb]","0.8333333333333333"
"2811","[08-09-2012, 10-09-2012]","2","9","[00ffd281b56b8c0d59f0475d4050b46c4077c5e0, 996ea7cca479da50bef9f9e9c78d329ff111d73e, 39356a916a20798f13b3ebbcff37153a026fa5e0, 746086d482180b9d9ecf00b684f7073658e9fa0a, 4ebf1acd7aa1af2ad07eaf3de4b4df95aa98423a, 307ceed2ac8f877c9dda2ec6ee2e61b5e4653a6f, f94fbadeec4de1ce6ce290d89406b126f16c135c, 317038cb3de9e479df996ceea00d10b795296b22, a9ead555c10207caf49163cd4ccefbd58a6bc035]","8","2","3","1","[app/controllers/application_controller.rb, app/controllers/dashboard_controller.rb, app/controllers/sessions_controller.rb]","[app/controllers/communities_controller.rb]","0.0","0.0","3.0.0","4","[]","0","13","[app/controllers/application_controller.rb, app/controllers/dashboard_controller.rb, app/controllers/sessions_controller.rb, app/views/communities/_select_pricing_plan.haml, app/views/dashboard/_footer.haml, app/views/dashboard/_header.haml, app/views/dashboard/_lower_middle.haml, app/views/dashboard/api.haml, app/views/dashboard/faq.haml, app/views/dashboard/index.haml, app/views/dashboard/pricing.haml, app/views/sessions/_new.haml, app/views/sessions/new.haml]","[click_button, click_link, fill_in, Integer, sleep, check, page, have_content, has_content?, have_no_content, has_no_content?, within, fill_in, click_button, Factory, login_as, generate_random_username, allowed_emails]","","[app/views/communities/_tribe_exists.haml]","[new_tribe, tribes]","2","1.061 seconds","true","3","1","[app/controllers/application_controller.rb, app/controllers/dashboard_controller.rb, app/controllers/sessions_controller.rb]","[app/controllers/communities_controller.rb]","0","[]","0"
"2725","[08-01-2013]","1","1","[c00314f004568896f43ae6eed540b742d77daf20]","6","0","2","2","[app/controllers/homepage_controller.rb, app/controllers/sessions_controller.rb]","[app/controllers/people_controller.rb, app/controllers/sessions_controller.rb]","0.5","0.5","3.2.10","1","[]","0","8","[app/controllers/homepage_controller.rb, app/controllers/sessions_controller.rb, app/views/homepage/_filter_categories.haml, app/views/homepage/_filter_share_types.haml, app/views/homepage/_map.haml, app/views/homepage/_recent_listing.haml, app/views/homepage/index.haml, app/views/sessions/new.haml]","[mock_auth, hashes, get_test_person_and_session, update_attributes, id, consent, save, each, capture_email, capture_fields, email, be_nil, click_button, click_link, fill_in, check, page, have_content, has_content?, have_no_content, has_no_content?, within, homepage, listing, find, click, capture_model, capture_predicate, model!, gsub, send]","","[]","","0","0.558 seconds","false","1","1","[app/controllers/homepage_controller.rb]","[app/controllers/people_controller.rb]","1","[app/controllers/sessions_controller.rb]","0.5"
"2808","[11-09-2012, 12-09-2012, 13-09-2012]","1","5","[b01110be32f7e22025e442f02345e38b6b7acb4d, 9fc6353e8f03099253cd5fa3a9787bc7022506e7, 307e04dfc1da58f84f5a319dbac9fb8dfb8c4452, 3833bc1db33ef9f5d423a2ca543df8914f2b28cf, e89c0f580376e08b89ee749e144dcc233d4942ba]","5","0","5","2","[app/controllers/api/people_controller.rb, app/controllers/application_controller.rb, app/controllers/dashboard_controller.rb, app/controllers/people_controller.rb, app/controllers/sessions_controller.rb]","[app/controllers/admin/feedbacks_controller.rb, app/controllers/communities_controller.rb]","0.0","0.0","3.0.17","6","[]","0","18","[app/controllers/api/people_controller.rb, app/controllers/application_controller.rb, app/controllers/dashboard_controller.rb, app/controllers/people_controller.rb, app/controllers/sessions_controller.rb, app/helpers/application_helper.rb, app/views/communities/_select_pricing_plan.haml, app/views/dashboard/_footer.haml, app/views/dashboard/_header.haml, app/views/dashboard/_lower_middle.haml, app/views/dashboard/api.haml, app/views/dashboard/faq.haml, app/views/dashboard/index.haml, app/views/dashboard/pricing.haml, app/views/people/_help_texts.haml, app/views/people/new.haml, app/views/sessions/_new.haml, app/views/sessions/new.haml]","[community, consent, present?, invitation, code, Factory, click_button, click_link, fill_in, Integer, sleep, check, page, have_content, has_content?, have_no_content, has_no_content?, within, fill_in, click_button, login_as, generate_random_username, capture_email, capture_fields, email, be_nil, capture_model, capture_predicate, model!, gsub, send]","","[]","[new_tribe, new_tribe_membership, tribes]","3","1.309 seconds","false","5","2","[app/controllers/api/people_controller.rb, app/controllers/application_controller.rb, app/controllers/dashboard_controller.rb, app/controllers/people_controller.rb, app/controllers/sessions_controller.rb]","[app/controllers/admin/feedbacks_controller.rb, app/controllers/communities_controller.rb]","0","[]","0"
"2797","[20-09-2012, 21-09-2012, 23-09-2012, 24-09-2012, 25-09-2012, 26-09-2012, 29-09-2012, 30-09-2012, 01-10-2012, 02-10-2012, 04-10-2012]","1","28","[1a285c992c9720a2ef7feec3bf6e00180990724c, eb4532c0b892e327272fcbf83d5df94fffcbf7f5, 4b44d128802ce7ce73cff1b8c5e1c4a46becbb67, 129d0c621c78ce492658e56c39ff7beba1a3e432, 2c96cc20969bf5104ae290b1d2f70ede7b1dee70, 3e78e18a10420cd26725a439ea62f4ce12bd7d7f, 141643a75c849a4ccd9ed6cd1d1c05597e049ba0, 4ade1067c7bc74abafcd9c1630dc1b5d27bd8a36, 3a73f4e40cc9a749233e964dd565dfc7aeab26b1, 70879f95675b6e5e59533afb1f9befb8e0e0cdaf, 50b5f70edf9efcdf2392139d60dadd1000cfe38b, 52dce21825d13e7272cf128b2dcae1fd57af25ab, a20e20eb50dd280e6e60011e0178051923db6a8f, 8113e7aaf40b41fae476c1c704840d403cd29c92, 17d646e3727550f7f001bb494174a08a041914db, 8beab11eff81f6a78bfc9c51c2dba9e0383d0831, 8451101f2a8d35eb989f0a88f2a34ec4f1f9631f, 239e4a67f8dc0ea8f31499168fd8a2cc6133e5d6, e6d5feb3e1c66f4b8efcbc51ec24e0fdcff69056, aebcefa22eeb8ca299376c3bb181e81534fc3a58, 348ef6ecf6d1184f3cdb46357c0a6074da882a48, d9deb35b72c60d873c3302b9a1d304e9cd5a91c4, 327b57b8ec98770270a7822b4b4e8de6ba94122f, 0dea476f06021729c0a9d9d218f2c0579da2dbce, 487684e4be7679dced9b1f36e79ba672be73f28e, 441a6b467d892268515345f7a0dfe57d06b0e2f8, 6741eb5b9c5453c3433b25326032af250469583c, a98e850b7939adad251f8f5345d03ca233064568]","4","3","2","5","[app/controllers/application_controller.rb, app/controllers/dashboard_controller.rb]","[app/controllers/application_controller.rb, app/controllers/people_controller.rb, app/controllers/sessions_controller.rb, app/controllers/sms_controller.rb, app/controllers/terms_controller.rb]","0.5","0.2","3.0.17","2","[]","0","10","[app/controllers/application_controller.rb, app/controllers/dashboard_controller.rb, app/views/communities/_select_pricing_plan.haml, app/views/dashboard/_footer.haml, app/views/dashboard/_header.haml, app/views/dashboard/_lower_middle.haml, app/views/dashboard/api.haml, app/views/dashboard/faq.haml, app/views/dashboard/index.haml, app/views/dashboard/pricing.haml]","[click_link, select, select, page, have_content, has_content?, within, Factory, login_as, set_given_name, hashes, get_test_person_and_session, update_attributes, id, consent, save, each]","","[app/models/asi_person.rb, app/models/person_connection.rb]","[new_tribe, tribes]","2","0.730 seconds","false","1","4","[app/controllers/dashboard_controller.rb]","[app/controllers/people_controller.rb, app/controllers/sessions_controller.rb, app/controllers/sms_controller.rb, app/controllers/terms_controller.rb]","1","[app/controllers/application_controller.rb]","0.2272727272727273"
"2686","[05-02-2013]","1","3","[b459e599265a0d1bb6c04451a96c15d3d196c87e, 9ced0889e3e3e134beea123a878332c79a23026d, 392694887259706cd83a5e531dfb46ef398bb4aa]","3","35","4","2","[app/controllers/application_controller.rb, app/controllers/dashboard_controller.rb, app/controllers/homepage_controller.rb, app/controllers/sessions_controller.rb]","[app/controllers/homepage_controller.rb, app/controllers/people_controller.rb]","0.25","0.5","3.2.11","3","[]","0","16","[app/controllers/application_controller.rb, app/controllers/dashboard_controller.rb, app/controllers/homepage_controller.rb, app/controllers/sessions_controller.rb, app/views/dashboard/_footer.haml, app/views/dashboard/_header.haml, app/views/dashboard/_lower_middle.haml, app/views/dashboard/api.haml, app/views/dashboard/faq.haml, app/views/dashboard/index.haml, app/views/homepage/_filter_categories.haml, app/views/homepage/_filter_share_types.haml, app/views/homepage/_map.haml, app/views/homepage/_recent_listing.haml, app/views/homepage/index.haml, app/views/sessions/new.haml]","[login_as, generate_random_username, fill_in, within, click_button, click_button, click_link, fill_in, Integer, sleep, Integer, sleep, check, page, have_content, has_content?, have_no_content, has_no_content?, homepage, listing, reset_mailer, unread_emails_for, parse_email_count, mailbox_for, subject, select, open_email, open_email, current_email, have_subject, default_part_body, include, be_delivered_from, have_header, be_multipart, html_part, body, text_part, current_email_attachments, content_type, each, visit_in_email, click_first_link_in_email, join_with_invite_only, be_true]","","[]","[new_tribe, tribes]","2","1.260 seconds","false","3","1","[app/controllers/application_controller.rb, app/controllers/dashboard_controller.rb, app/controllers/sessions_controller.rb]","[app/controllers/people_controller.rb]","1","[app/controllers/homepage_controller.rb]","0.41666666666666663"
"2695","[23-01-2013]","1","3","[018f3613e3a80cbfab5b0b4634cc30fa61ca686e, 0f66d17221bac43fa597c46f8aa6e15d3a0d9c0d, 9cf7361baf04ecabd86666b63ff157980077d885]","3","1","4","2","[app/controllers/api/people_controller.rb, app/controllers/homepage_controller.rb, app/controllers/people_controller.rb, app/controllers/sessions_controller.rb]","[app/controllers/community_memberships_controller.rb, app/controllers/people_controller.rb]","0.25","0.5","3.2.11","3","[]","0","15","[app/controllers/api/people_controller.rb, app/controllers/homepage_controller.rb, app/controllers/people_controller.rb, app/controllers/sessions_controller.rb, app/helpers/application_helper.rb, app/views/homepage/_filter_categories.haml, app/views/homepage/_filter_share_types.haml, app/views/homepage/_map.haml, app/views/homepage/_recent_listing.haml, app/views/homepage/index.haml, app/views/layouts/_facebook_connect_button.haml, app/views/layouts/_permanent_notification.haml, app/views/people/_help_texts.haml, app/views/people/new.haml, app/views/sessions/new.haml]","[hashes, get_test_person_and_session, update_attributes, id, consent, save, each, capture_email, capture_fields, email, be_nil, click_button, click_link, check, page, have_content, has_content?, within, homepage, listing, find, click, capture_model, capture_predicate, model!, gsub, send, update_attribute, present?]","","[]","[new_tribe_membership]","1","2.128 seconds","false","3","1","[app/controllers/api/people_controller.rb, app/controllers/homepage_controller.rb, app/controllers/sessions_controller.rb]","[app/controllers/community_memberships_controller.rb]","1","[app/controllers/people_controller.rb]","0.41666666666666663"
"2781","[28-10-2012, 02-11-2012, 04-11-2012]","1","5","[9ea6b355851f7f3edc48898dceb8b2597fcbe795, 219f6e3ed4a0e7cc30200774a2d37334786a421a, fb26f9f2c6ebd5c76faa88145766299f9efe95a0, 18729a981f6b272fd12cd4a480de0ba2d5739482, 7beeacfa6ab83ec217392b8d1def4d223d17faa2]","3","2","2","1","[app/controllers/application_controller.rb, app/controllers/dashboard_controller.rb]","[app/controllers/communities_controller.rb]","0.0","0.0","3.0.17","3","[]","0","10","[app/controllers/application_controller.rb, app/controllers/dashboard_controller.rb, app/views/communities/_select_pricing_plan.haml, app/views/dashboard/_footer.haml, app/views/dashboard/_header.haml, app/views/dashboard/_lower_middle.haml, app/views/dashboard/api.haml, app/views/dashboard/faq.haml, app/views/dashboard/index.haml, app/views/dashboard/pricing.haml]","[Factory, login_as, click_button, click_link, fill_in, Integer, sleep, check, page, have_content, has_content?, within, join_with_invite_only, be_true]","","[]","[new_tribe, tribes]","2","0.886 seconds","true","2","1","[app/controllers/application_controller.rb, app/controllers/dashboard_controller.rb]","[app/controllers/communities_controller.rb]","0","[]","0"
"2691","[25-01-2013]","1","2","[9fb0fb25a7a618515d86c2be1df4d074215552b8, 76fc42332530872ad984c604725639c43b4c0d8f]","2","0","4","1","[app/controllers/application_controller.rb, app/controllers/dashboard_controller.rb, app/controllers/homepage_controller.rb, app/controllers/sessions_controller.rb]","[app/controllers/invitations_controller.rb]","0.0","0.0","3.2.11","4","[]","0","16","[app/controllers/application_controller.rb, app/controllers/dashboard_controller.rb, app/controllers/homepage_controller.rb, app/controllers/sessions_controller.rb, app/views/dashboard/_footer.haml, app/views/dashboard/_header.haml, app/views/dashboard/_lower_middle.haml, app/views/dashboard/api.haml, app/views/dashboard/faq.haml, app/views/dashboard/index.haml, app/views/homepage/_filter_categories.haml, app/views/homepage/_filter_share_types.haml, app/views/homepage/_map.haml, app/views/homepage/_recent_listing.haml, app/views/homepage/index.haml, app/views/sessions/new.haml]","[login_as, fill_in, click_button, hashes, get_test_person_and_session, update_attributes, id, consent, save, each, click_button, fill_in, page, have_content, has_content?, page, have_no_content, has_no_content?, have_no_content, has_no_content?, within, homepage, listing, update_attribute]","","[]","[new_invitation, new_tribe, tribes]","3","1.102 seconds","false","4","1","[app/controllers/application_controller.rb, app/controllers/dashboard_controller.rb, app/controllers/homepage_controller.rb, app/controllers/sessions_controller.rb]","[app/controllers/invitations_controller.rb]","0","[]","0"
"2727","[07-01-2013, 08-01-2013]","1","11","[75b1038af830763eb2cbc01c6b8b4338549ac2d4, f8e0f26397cfe8ff7086626cfd55eb9db72a5902, 933bc36dd6c9134f8ca814234f59146866411f15, 6af459a7a897073a15eefed0c39620074df829a7, 0252b22da3c33a6312bf8d1363f5b78bb0f01402, a735a0af2b440d17e6b4d994e483a95d2d8b3f53, 873a92100b37a0462e03bc403e6a79d8955104f0, 0662b1debf4ba735bb74c561fde0dab5b0672067, ffeae121f9e3f9319714bef9dd7c843289c44a27, 5e90661e332f133e5e6cf7a00101d39897b92eb5, d2e7409864de99ede695ec1b17b967a538146a2d]","2","0","4","2","[app/controllers/application_controller.rb, app/controllers/dashboard_controller.rb, app/controllers/homepage_controller.rb, app/controllers/sessions_controller.rb]","[app/controllers/confirmations_controller.rb, app/controllers/invitations_controller.rb]","0.0","0.0","3.2.10","5","[]","0","16","[app/controllers/application_controller.rb, app/controllers/dashboard_controller.rb, app/controllers/homepage_controller.rb, app/controllers/sessions_controller.rb, app/views/dashboard/_footer.haml, app/views/dashboard/_header.haml, app/views/dashboard/_lower_middle.haml, app/views/dashboard/api.haml, app/views/dashboard/faq.haml, app/views/dashboard/index.haml, app/views/homepage/_filter_categories.haml, app/views/homepage/_filter_share_types.haml, app/views/homepage/_map.haml, app/views/homepage/_recent_listing.haml, app/views/homepage/index.haml, app/views/sessions/new.haml]","[login_as, fill_in, click_button, hashes, get_test_person_and_session, update_attributes, id, consent, save, each, click_button, fill_in, page, have_content, has_content?, page, have_no_content, has_no_content?, have_no_content, has_no_content?, within, homepage, listing, update_attribute]","","[]","[new_person_invitation, new_tribe, tribes]","3","1.269 seconds","false","4","2","[app/controllers/application_controller.rb, app/controllers/dashboard_controller.rb, app/controllers/homepage_controller.rb, app/controllers/sessions_controller.rb]","[app/controllers/confirmations_controller.rb, app/controllers/invitations_controller.rb]","0","[]","0"
"2829","[05-07-2012]","1","2","[aa37af7d9e46b9fec72ab45a0d4c01041dab185b, 420a818a96f65cf40f34f3c87f9655eb4b59dad6]","2","1","3","1","[app/controllers/application_controller.rb, app/controllers/dashboard_controller.rb, app/controllers/sessions_controller.rb]","[app/controllers/listings_controller.rb]","0.0","0.0","3.0.0","4","[]","0","13","[app/controllers/application_controller.rb, app/controllers/dashboard_controller.rb, app/controllers/sessions_controller.rb, app/views/communities/_select_pricing_plan.haml, app/views/dashboard/_footer.haml, app/views/dashboard/_header.haml, app/views/dashboard/_lower_middle.haml, app/views/dashboard/api.haml, app/views/dashboard/faq.haml, app/views/dashboard/index.haml, app/views/dashboard/pricing.haml, app/views/sessions/_new.haml, app/views/sessions/new.haml]","[fill_in, click_button, Factory, login_as, hashes, get_test_person_and_session, cookie, update_attributes, id, consent, save, each, page, have_content, has_content?, have_no_content, has_no_content?, within, Factory, Factory, id, id, find_by_person_id, find_by_person_id, find_by_person_id, have_css]","","[]","[new_tribe, person, person_testimonials, tribes]","4","1.244 seconds","false","3","1","[app/controllers/application_controller.rb, app/controllers/dashboard_controller.rb, app/controllers/sessions_controller.rb]","[app/controllers/listings_controller.rb]","0","[]","0"
"2680","[07-02-2013]","1","2","[2fbae683081cc44acc52be3b01bfef405c9471be, 602b7afb913d1d1bda9269cc4338e21522488e5e]","1","0","4","0","[app/controllers/application_controller.rb, app/controllers/dashboard_controller.rb, app/controllers/homepage_controller.rb, app/controllers/sessions_controller.rb]","[]","0.0","0.0","3.2.11","2","[]","0","16","[app/controllers/application_controller.rb, app/controllers/dashboard_controller.rb, app/controllers/homepage_controller.rb, app/controllers/sessions_controller.rb, app/views/dashboard/_footer.haml, app/views/dashboard/_header.haml, app/views/dashboard/_lower_middle.haml, app/views/dashboard/api.haml, app/views/dashboard/faq.haml, app/views/dashboard/index.haml, app/views/homepage/_filter_categories.haml, app/views/homepage/_filter_share_types.haml, app/views/homepage/_map.haml, app/views/homepage/_recent_listing.haml, app/views/homepage/index.haml, app/views/sessions/new.haml]","[login_as, click_link, page, have_content, has_content?, have_no_content, has_no_content?, within, homepage, listing]","","[]","[new_tribe, tribes]","2","1.013 seconds","false","4","0","[app/controllers/application_controller.rb, app/controllers/dashboard_controller.rb, app/controllers/homepage_controller.rb, app/controllers/sessions_controller.rb]","[]","0","[]","0"
"2700","[22-01-2013]","1","1","[21975322ee1b389b8755e56cdfe9c71c2e1e0c86]","1","0","2","1","[app/controllers/application_controller.rb, app/controllers/dashboard_controller.rb]","[app/controllers/communities_controller.rb]","0.0","0.0","3.2.11","1","[]","0","8","[app/controllers/application_controller.rb, app/controllers/dashboard_controller.rb, app/views/dashboard/_footer.haml, app/views/dashboard/_header.haml, app/views/dashboard/_lower_middle.haml, app/views/dashboard/api.haml, app/views/dashboard/faq.haml, app/views/dashboard/index.haml]","[login_as, hashes, get_test_person_and_session, update_attributes, id, consent, save, each, click_button, click_link, page, have_content, has_content?, within]","","[]","[new_tribe, tribes]","2","0.715 seconds","false","2","1","[app/controllers/application_controller.rb, app/controllers/dashboard_controller.rb]","[app/controllers/communities_controller.rb]","0","[]","0"
"2704","[20-01-2013, 21-01-2013, 22-01-2013]","1","9","[02fc5a5dd038be3914c4001ca5307ff330d0da68, d0ae00eb67546d6a6cba67685f8e235e6b71734a, 39441e5e4331dd5278c5196645cbc9d6af5cea2a, 810c3581ef5d500ced2f0bcaed2c8518d2c3a494, 760b46de2338f3219765d6412fcd7c9fd894a493, 086395db8432ede54304b4c7372f48eda5a469c1, 6820b3d23766bbed2244735f3d2e2cfd54189cc0, 09968942bd037692c67c59a3bee6c7b1d67fbc71, 628cb532f1a30bfbefe94bf9aa6afde404db3eda]","1","0","2","5","[app/controllers/homepage_controller.rb, app/controllers/sessions_controller.rb]","[app/controllers/api/api_controller.rb, app/controllers/application_controller.rb, app/controllers/community_memberships_controller.rb, app/controllers/people_controller.rb, app/controllers/sessions_controller.rb]","0.5","0.2","3.2.11","3","[]","0","8","[app/controllers/homepage_controller.rb, app/controllers/sessions_controller.rb, app/views/homepage/_filter_categories.haml, app/views/homepage/_filter_share_types.haml, app/views/homepage/_map.haml, app/views/homepage/_recent_listing.haml, app/views/homepage/index.haml, app/views/sessions/new.haml]","[fill_in, click_button, hashes, get_test_person_and_session, update_attributes, id, consent, save, each, click_button, fill_in, page, have_content, has_content?, page, have_no_content, has_no_content?, have_no_content, has_no_content?, within, homepage, listing, update_attribute]","","[]","[new_person_invitation]","1","1.175 seconds","false","1","4","[app/controllers/homepage_controller.rb]","[app/controllers/api/api_controller.rb, app/controllers/application_controller.rb, app/controllers/community_memberships_controller.rb, app/controllers/people_controller.rb]","1","[app/controllers/sessions_controller.rb]","0.2272727272727273"
"2756","[17-12-2012, 18-12-2012, 19-12-2012]","1","16","[b5feeb8d93cf88997b29200e3e26aee3d44a45a2, cc155e7c987de2d4506e8bfe6d8eefd596cd5645, 3508318fc8f777bc4466451e9116fe2c2689fefa, 9ae43964ae3665e290f502ba4102a0ce48efa74d, fe8ed54bf14c57e664a03e5f4492d135e41f1caa, 98c528d7e711c97f85f92219ab07ccfa4eeeacb1, 82b8f2e880011513de191f1f02fca21c3d5b38e4, d9e4304225988df92d89e7c828b32f168a687a70, ce32cbfcc8793e89855ff4d122a049a381f96c8f, 9d53179472ba40bd83bb1900ed86c87d5405fcd9, 82ece2f4619be4d91367df4c89e9431635c56dac, 608403e7f9f394462c30f818e658f3b9e16a0523, 74253e909403ecc8ebc4e4e5c2927c0c8c52f03b, cf87898c02364727ef1d0e246c27192171b704a4, f4fdc73f05c8744e505f9ad078066936cecd279e, c2503e27fa41db654d4c8038cf6f17aaf24a3109]","1","0","2","3","[app/controllers/application_controller.rb, app/controllers/dashboard_controller.rb]","[app/controllers/application_controller.rb, app/controllers/homepage_controller.rb, app/controllers/settings_controller.rb]","0.5","0.3333333333","3.2.9","1","[]","0","8","[app/controllers/application_controller.rb, app/controllers/dashboard_controller.rb, app/views/dashboard/_footer.haml, app/views/dashboard/_header.haml, app/views/dashboard/_lower_middle.haml, app/views/dashboard/api.haml, app/views/dashboard/faq.haml, app/views/dashboard/index.haml]","[login_as, hashes, get_test_person_and_session, update_attributes, id, consent, save, each, click_button, click_link, uncheck, choose, page, have_content, has_content?, within, capture_model, model!, capture_model, capture_predicate, model!, gsub, send]","","[]","[new_tribe, tribes]","2","0.942 seconds","true","1","2","[app/controllers/dashboard_controller.rb]","[app/controllers/homepage_controller.rb, app/controllers/settings_controller.rb]","1","[app/controllers/application_controller.rb]","0.35714285711224486"
"2789","[06-10-2012, 07-10-2012, 08-10-2012]","1","12","[c457495c047388e5eaea0dc0686e4f9ff769cfe7, 1b20149113d41cac4f2c63802ca9b8ce85813ad1, 0b98e87a27e93f4df9db13b26101291644c2b0b6, 337e3c995f63153147caa81b2ecaf845ee4ade46, 04dd907c2d0156dde449335f2b4fcb2113ebcc86, 72f152942047c577a236d47c423dc35542c4cc0e, 4c17a1f1346a5628a153c44ba9ef39e3a8892e04, 38978900884f8883a8f618a11b597cc149ec3ad3, 1ef9cf0bc6ca096119b999123ac5146f47a97533, d2a4fbb2e72d4f65bafee1cf7d1ec945a8bf02e5, c391ab05b18b2495898db5421a9f78967ef26e38, 0f2f31c813667a3e7d9f1b8a11f4dc7d3ea7d1ae]","1","2","3","2","[app/controllers/application_controller.rb, app/controllers/dashboard_controller.rb, app/controllers/sessions_controller.rb]","[app/controllers/api/tokens_controller.rb, app/controllers/sessions_controller.rb]","0.3333333333","0.5","3.0.17","3","[]","0","11","[app/controllers/application_controller.rb, app/controllers/dashboard_controller.rb, app/controllers/sessions_controller.rb, app/views/communities/_select_pricing_plan.haml, app/views/dashboard/_footer.haml, app/views/dashboard/_header.haml, app/views/dashboard/api.haml, app/views/dashboard/faq.haml, app/views/dashboard/pricing.haml, app/views/sessions/_new.haml, app/views/sessions/new.haml]","[fill_in, click_button, hashes, get_test_person_and_session, update_attributes, id, consent, save, each, capture_email, capture_fields, email, be_nil, click_button, click_link, fill_in, page, have_content, has_content?, within, capture_model, capture_predicate, model!, gsub, send]","","[]","[new_tribe]","1","0.781 seconds","true","2","1","[app/controllers/application_controller.rb, app/controllers/dashboard_controller.rb]","[app/controllers/api/tokens_controller.rb]","1","[app/controllers/sessions_controller.rb]","0.4545454545330579"
