"Repository","https://github.com/ministryofjustice/Claim-for-Crown-Court-Defence.git"
"Tasks with empty IReal","0"
"Tasks with no-empty IReal","7"
"Tasks with relevant AST error","4"
"Tasks with AST error of Gherkin files","0"
"Tasks with AST error of StepDef files","0"
"Tasks with AST error of production files","4"
"Tasks with AST error of unit test files","0"
"Tasks with step match error","4"
"Tasks without required gems","0"
"Tasks with changed stepdef","7"
"Tasks with changed Gherkin","7"
"Tasks with implemented Gherkin scenarios","6"
"All invalid tasks","7"
"All valid tasks (Gherkin scenario, no empty IReal, no error)","0"
"Valid tasks, but empty ITest","0"
"Valid tasks, no empty ITest, but zero precision-recall","0"
"Valid tasks, no empty ITest, no zero precision-recall","0"
"Project","Task","Date","#Days","#Commits","Commit_Message","#Devs","#Gherkin_Tests","#Impl_Gherkin_Tests","#StepDef","#Impl_StepDef","Methods_Unknown_Type","#Step_Call","Step_Match_Errors","#Step_Match_Error","AST_Errors","#AST_Errors","Gherkin_AST_Errors","#Gherkin_AST_Errors","Steps_AST_Errors","#Steps_AST_Errors","Renamed_Files","Deleted_Files","NotFound_Views","#Views","#TestI","#TaskI","TestI","TaskI","Precision","Recall","Hashes","Timestamp","Rails","Gems","#Visit_Call","Lost_visit_call","#Views_ITest","#Code_View_Analysis","Code_View_Analysis","Has_Merge","F2","#Multiple_Step_Matches","Multiple_Step_Matches","#Generic_Step_Keyword","Generic_Step_Keyword"
"claim-for-crown-court-defence","362","[05-10-2016, 07-10-2016]","3","4","[Setting up VCR for use in cukes and rspec. Adapt tests. , Do not cache this endpoint. , Improve codeclimate. , API endpoint and remote services to retrieve allocated/archived case worker claims. ]","1","6","5","6","6","[gsub, instance_variable_set, user, click_link, create_list, create, fill_in, click_on, page, have_content, where, persona, match_array, eq, each, click, fill_in, click_on, wait_until_allocate_visible, check, each, each, delete, allocations, text, find, set, page, path, execute_script, not_to, have_link, click_link, first_reason, your_claims, allow, receive, and_return, have_selector, be_displayed]","0","[path:features/messaging.feature, size:1]","1","","0","","0","","0","","[]","[grape_swagger_rails, new_confirmation, new_password, new_registration, new_session, new_unlock, omniauth_authorize]","7","22","35","[app/controllers/geckoboard_api/widgets_controller.rb, app/controllers/pages_controller.rb, app/interfaces/api/entities/claim.rb, app/interfaces/api/entities/user.rb, app/interfaces/api/v1/external_users/claim.rb, app/interfaces/api/v2/case_workers/claim.rb, app/models/allocation.rb, app/models/case_worker.rb, app/models/json_document_importer.rb, app/models/super_admin.rb, app/models/user.rb, app/presenters/claim/base_claim_presenter.rb, app/services/claims/case_worker_claims.rb, app/services/remote/claim.rb, app/services/remote/user.rb, app/views/devise/sessions/new.html.haml, app/views/devise/shared/_links.html.haml, app/views/layouts/_header.html.haml, app/views/pages/api_landing.html.haml, app/views/pages/api_release_notes.html.haml, app/views/pages/tandcs.haml, lib/demo_data/demo_seeds/case_workers.rb]","[app/controllers/application_controller.rb, app/controllers/case_workers/application_controller.rb, app/controllers/case_workers/claims_controller.rb, app/helpers/application_helper.rb, app/interfaces/api/entities/claim.rb, app/interfaces/api/entities/defendant.rb, app/interfaces/api/entities/external_user.rb, app/interfaces/api/entities/paginated_collection.rb, app/interfaces/api/entities/user.rb, app/interfaces/api/helpers/authorisation.rb, app/interfaces/api/helpers/formatters.rb, app/interfaces/api/helpers/grape_api_helper.rb, app/interfaces/api/helpers/resource_helper.rb, app/interfaces/api/root.rb, app/interfaces/api/v1/dropdown_data.rb, app/interfaces/api/v1/external_users/date_attended.rb, app/interfaces/api/v1/external_users/representation_order.rb, app/interfaces/api/v1/root.rb, app/interfaces/api/v2/case_workers/claim.rb, app/interfaces/api/v2/criteria_helper.rb, app/interfaces/api/v2/root.rb, app/models/external_user.rb, app/presenters/claim/base_claim_presenter.rb, app/services/claims/case_worker_claims.rb, app/services/remote/base.rb, app/services/remote/claim.rb, app/services/remote/collections/paginated_collection.rb, app/services/remote/defendant.rb, app/services/remote/external_user.rb, app/services/remote/http_client.rb, app/services/remote/user.rb, app/views/case_workers/claims/_claims_list.html.haml, lib/caching/api_request.rb, lib/extensions/remote_extension.rb, lib/extensions/string_extension.rb]","0.3181818182","0.2","[671a9334b3bb128eed1f646de4861570991d1a11, bebb2cdde3a79b51f7feddb241222e947b88168d, d22dbd1005c0fb32f9077cba21cae55ad623dafa, 4e064399c511df851fef02dac651e27b5eb98ae4]","3.147 seconds","4.2.7.1","[cucumber-rails, rspec-rails, simplecov, factory_girl]","4","[]","6","7","[app/controllers/pages_controller.rb, app/views/devise/sessions/new.html.haml, app/views/devise/shared/_links.html.haml, app/views/layouts/_header.html.haml, app/views/pages/api_landing.html.haml, app/views/pages/api_release_notes.html.haml, app/views/pages/tandcs.haml]","false","0.21604938271772597","0","","0",""
"claim-for-crown-court-defence","387","[08-09-2016]","1","1","[Timed retention banner with explanation page.  Hidden for now behind a feature flag. Will only show to external users in the claims list page and the archive page.  *Dates need to be confirmed*  Works identical to the API promo banner and allows the user to hide the banner and do not show it again. ]","1","1","1","3","3","[user, fill_in, click_on, allow, receive, and_return, page, have_selector, page, have_link, click_link, evaluate_script, page, have_selector]","0","","0","[[path:app/models/claims/state_machine.rb, msgs:[unexpected tLBRACK]]]","1","","0","","0","","[]","[grape_swagger_rails, new_confirmation, new_password, new_registration, new_session, new_unlock, omniauth_authorize]","7","9","8","[app/controllers/pages_controller.rb, app/models/json_document_importer.rb, app/models/user.rb, app/views/devise/sessions/new.html.haml, app/views/devise/shared/_links.html.haml, app/views/layouts/_header.html.haml, app/views/pages/api_landing.html.haml, app/views/pages/api_release_notes.html.haml, app/views/pages/tandcs.haml]","[app/controllers/pages_controller.rb, app/controllers/users_controller.rb, app/helpers/external_users/claims_helper.rb, app/views/external_users/claims/_api_promo_banner.html.haml, app/views/external_users/claims/archived.html.haml, app/views/external_users/claims/index.html.haml, app/views/external_users/shared/_timed_retention_banner.html.haml, app/views/pages/timed_retention.html.haml]","0.1111111111","0.125","[49e9245fa30e1c9c59ddd8b39240caa9a5e38c8b]","1.278 seconds","4.2.7.1","[cucumber-rails, rspec-rails, simplecov, factory_girl]","2","[]","6","7","[app/controllers/pages_controller.rb, app/views/devise/sessions/new.html.haml, app/views/devise/shared/_links.html.haml, app/views/layouts/_header.html.haml, app/views/pages/api_landing.html.haml, app/views/pages/api_release_notes.html.haml, app/views/pages/tandcs.haml]","false","0.12195121950951815","0","","0",""
"claim-for-crown-court-defence","417","[18-08-2016, 19-08-2016]","2","3","[Merge pull request #1718 from ministryofjustice/hearing-option  Add fee subtype to summary and claim detail pages., Add fee subtype to summary and claim detail pages. , Soft deletable concern for CaseWorker and User (#1716)  * Implement Soft Deletions for caseworkers  Caseworkers are no longer deleted from the database because of claims and messages that may reference the deleted caseworker.  Now a new 'deleted_at' field on CaseWorker and User is given a timestamp, and any record where that field is not null is considered to be deleted.  A new scope active on CaseWorker and User will only return records where deleted_at is nil, and Caseworker queries have been updated to use that scope where approperiate.  This is implemented as a concern as it will be used in External Users and Claims as well.  * Soft deletable concern for CaseWorker and User  Caseworkers are no longer deleted from the database because of claims and messages that may reference the deleted caseworker. Now a new 'dele [TOO_LONG]","2","1","0","7","7","[count, to_i, eq, be_allocated, each, match_array, page, have_selector, to_not, to_f, sleep, have_content, have_content, fill_in, click_on]","0","[path:features/authentication.feature, size:1]","1","[[path:app/models/claims/state_machine.rb, msgs:[unexpected tLBRACK]]]","1","","0","","0","","[]","[grape_swagger_rails, new_confirmation, new_password, new_registration, new_session, new_unlock, omniauth_authorize]","7","12","16","[app/controllers/geckoboard_api/widgets_controller.rb, app/controllers/pages_controller.rb, app/interfaces/api/entities/simple_key_value_list.rb, app/models/case_worker.rb, app/models/doc_type.rb, app/models/user.rb, app/views/devise/sessions/new.html.haml, app/views/devise/shared/_links.html.haml, app/views/layouts/_header.html.haml, app/views/pages/api_landing.html.haml, app/views/pages/api_release_notes.html.haml, app/views/pages/tandcs.haml]","[app/controllers/case_workers/admin/allocations_controller.rb, app/controllers/case_workers/admin/case_workers_controller.rb, app/controllers/feedback_controller.rb, app/interfaces/api/v1/resource_helper.rb, app/models/ability.rb, app/models/allocation.rb, app/models/case_worker.rb, app/models/concerns/softly_deletable.rb, app/models/location.rb, app/models/user.rb, app/rake_helpers/document_recloner.rb, app/views/case_workers/admin/allocations/_allocation.html.haml, app/views/case_workers/admin/allocations/_re_allocation.html.haml, app/views/case_workers/admin/case_workers/index.html.haml, app/views/external_users/claims/_summary_fees.html.haml, app/views/shared/_summary.html.haml]","0.1666666667","0.125","[58105b1f0fc4f103f7e7b58411ef49fd85c6ad26, 51208e483abaf76ef07e28ff18cc7b4144e2d1c2, 84c06ec0f2ad128fe5671bc1a63c6cdcd0659a09]","1.656 seconds","4.2.7","[cucumber-rails, rspec-rails, simplecov, factory_girl]","1","[]","6","7","[app/controllers/pages_controller.rb, app/views/devise/sessions/new.html.haml, app/views/devise/shared/_links.html.haml, app/views/layouts/_header.html.haml, app/views/pages/api_landing.html.haml, app/views/pages/api_release_notes.html.haml, app/views/pages/tandcs.haml]","true","0.13157894737257617","0","","0",""
"claim-for-crown-court-defence","421","[16-08-2016, 17-08-2016]","2","4","[Fix Error links and fields on certification page (#1709)  * Fix Error links and fields on certification page  * Styling amends , Fix defendant dob error message bug when not required (#1710)  , Offence seletion for Litigiators to mimic that for advocates (#1705)  * Offence seletion for Litigiators to mimic that for advocates  Previsouly, litigators just selected the offence class, and an offence category of miscellaneous/other relating to that class was automatically selected.  Now, the process has been changed to be exactly the same as for advocates: i.e. the category is selected and then the class, (or auto selected if there is only one class for the selected category).  The valiation for misc/other category for LGFS claims has been removed.  * Update API documentation and release notes , Copy change in grape documentation. ]","2","4","4","1","1","[user, fill_in, click_on, provider, supplier_numbers, be_displayed, set, set, expense_type_dropdown, select, destination, reason_for_travel_dropdown, expense_date, send, disbursements, add_another_disbursement, trigger, day, month, year, day, select_container, allocations, text, gsub, send, click, continue, page, have_content, not_to, to_i, sleep, click, be_nil, eq, claimed, within, first_name, last_name, dob, representation_orders, maat_reference, trigger, add_another_representation_order, nil?, using_wait_time, to_i, click, each, evidence_checklist, check, execute_script, attach_file, page, evaluate_script, ppe_total, month, year, transfer_fee_total, litigator_type_original, litigator_type_new, elected_case_yes, elected_case_no]","1","","0","[[path:app/models/claims/state_machine.rb, msgs:[unexpected tLBRACK]]]","1","","0","","0","","[app/views/external_users/claims/case_details/_offence_id_select.html.haml]","[grape_swagger_rails, new_confirmation, new_password, new_registration, new_session, new_unlock, omniauth_authorize]","7","35","8","[app/controllers/geckoboard_api/widgets_controller.rb, app/controllers/pages_controller.rb, app/controllers/vat_rates_controller.rb, app/models/date_attended.rb, app/models/determination.rb, app/models/doc_type.rb, app/models/fee/base_fee.rb, app/models/google_analytics/data_layer.rb, app/models/json_document_importer.rb, app/models/location.rb, app/models/offence_class.rb, app/models/supplier_number.rb, app/models/user.rb, app/presenters/assessment_presenter.rb, app/presenters/claim/base_claim_presenter.rb, app/presenters/claim/transfer_claim_presenter.rb, app/presenters/disbursement_presenter.rb, app/presenters/error_detail_collection.rb, app/presenters/error_presenter.rb, app/presenters/expense_presenter.rb, app/presenters/fee/base_fee_presenter.rb, app/presenters/fee/fixed_fee_presenter.rb, app/presenters/fee/graduated_fee_presenter.rb, app/presenters/fee/interim_fee_presenter.rb, app/presenters/fee/misc_fee_presenter.rb, app/presenters/fee/transfer_fee_presenter.rb, app/presenters/redetermination_presenter.rb, app/views/devise/sessions/new.html.haml, app/views/devise/shared/_links.html.haml, app/views/layouts/_header.html.haml, app/views/pages/api_landing.html.haml, app/views/pages/api_release_notes.html.haml, app/views/pages/tandcs.haml, lib/extensions/parameters_extension.rb, lib/extensions/string_extension.rb]","[app/form_builders/adp_text_field.rb, app/interfaces/api/v1/claim_params_helper.rb, app/models/defendant.rb, app/models/offence.rb, app/validators/claim/litigator_common_validations.rb, app/views/external_users/certifications/new.html.haml, app/views/external_users/claims/case_details/_fields.html.haml, app/views/pages/api_release_notes.html.haml]","0.0285714286","0.125","[2c5b8b4b0cae756f5f09d7bb01d0646772a19680, 962ecf92fb5e6b0097458810d69443c813e922ea, 3029167fc1036f23fba8535ece1618f6f099a765, 482879ea6fa2cc2d1eef9f77086e284df7e64009]","2.634 seconds","4.2.7","[cucumber-rails, rspec-rails, simplecov, factory_girl]","2","[]","6","7","[app/controllers/pages_controller.rb, app/views/devise/sessions/new.html.haml, app/views/devise/shared/_links.html.haml, app/views/layouts/_header.html.haml, app/views/pages/api_landing.html.haml, app/views/pages/api_release_notes.html.haml, app/views/pages/tandcs.haml]","false","0.07462686571062598","0","","0",""
"claim-for-crown-court-defence","440","[28-07-2016]","1","1","[API promotion message in claim creation page. Feature flag (disabled). ]","1","1","1","5","5","[user, fill_in, click_on, allow, receive, and_return, page, have_selector, click, have_content, not_to, page, have_link, click_link, evaluate_script, be_displayed]","0","","0","[[path:app/models/claims/state_machine.rb, msgs:[unexpected tLBRACK]]]","1","","0","","0","","[]","[grape_swagger_rails, new_confirmation, new_password, new_registration, new_session, new_unlock, omniauth_authorize]","7","9","9","[app/controllers/pages_controller.rb, app/models/json_document_importer.rb, app/models/user.rb, app/views/devise/sessions/new.html.haml, app/views/devise/shared/_links.html.haml, app/views/layouts/_header.html.haml, app/views/pages/api_landing.html.haml, app/views/pages/api_release_notes.html.haml, app/views/pages/tandcs.haml]","[app/controllers/users_controller.rb, app/helpers/claims_helper.rb, app/models/ability.rb, app/models/user.rb, app/views/external_users/advocates/claims/_form.html.haml, app/views/external_users/claims/_api_promo_banner.html.haml, app/views/external_users/litigators/claims/_form.html.haml, app/views/external_users/litigators/interim_claims/_form.html.haml, app/views/external_users/litigators/transfer_claims/_form.html.haml]","0.1111111111","0.1111111111","[b26f19548141bf6505432fa3e49b888c99e7ed83]","0.739 seconds","4.2.6","[cucumber-rails, rspec-rails, simplecov, factory_girl]","2","[]","6","7","[app/controllers/pages_controller.rb, app/views/devise/sessions/new.html.haml, app/views/devise/shared/_links.html.haml, app/views/layouts/_header.html.haml, app/views/pages/api_landing.html.haml, app/views/pages/api_release_notes.html.haml, app/views/pages/tandcs.haml]","false","0.1111111111","0","","0",""
"claim-for-crown-court-defence","760","[11-04-2016]","1","1","[Merge pull request #1229 from ministryofjustice/simplified-journeys  Simplified journeys]","1","6","5","86","86","[gsub, eval, user, create, user, click_link, click_link, have_content, click_link, create_list, fill_in, click_on, nil?, update, click, be_displayed, click, set, first_day_of_trial, ago, trial_concluded_on, actual_trial_length, first_name, last_name, dob, representation_orders, maat_reference, trigger, case_number, add_another_representation_order, basic_fee, quantity, add_dates, basic_fee_dates, daily_attendance_fee_3_to_40, daily_attendance_fee_3_to_40_dates, dates, destination, to_i, be_nil, not_to, text, eq, provider, select2_container, miscellaneous_fees, add_another_miscellaneous_fee, each, evidence_checklist, check, day, month, year, sleep, page, all, text, raise, execute_script, attach_file, page, persona, match_array, each, each, allocations, case_number, fees, expenses, your_claims, enter_your_message, send, view_messages]","0","[path:features/messaging.feature, size:1]","1","","0","","0","","0","","[]","[grape_swagger_rails, new_confirmation, new_password, new_registration, new_session, new_unlock, omniauth_authorize]","7","34","8","[app/controllers/case_workers/admin/case_workers_controller.rb, app/controllers/case_workers/claims_controller.rb, app/controllers/external_users/admin/external_users_controller.rb, app/controllers/external_users/admin/providers_controller.rb, app/controllers/external_users/certifications_controller.rb, app/controllers/external_users/claims_controller.rb, app/controllers/external_users/financial_summary_controller.rb, app/controllers/geckoboard_api/widgets_controller.rb, app/controllers/pages_controller.rb, app/controllers/super_admins/admin/super_admins_controller.rb, app/controllers/super_admins/external_users_controller.rb, app/controllers/super_admins/providers_controller.rb, app/controllers/user_message_statuses_controller.rb, app/controllers/vat_rates_controller.rb, app/interfaces/api/v1/external_users/claim.rb, app/models/case_worker.rb, app/models/date_attended.rb, app/models/doc_type.rb, app/models/json_document_importer.rb, app/models/location.rb, app/models/message.rb, app/models/offence_class.rb, app/models/super_admin.rb, app/models/user.rb, app/presenters/error_detail_collection.rb, app/presenters/error_presenter.rb, app/presenters/fee/base_fee_presenter.rb, app/views/devise/sessions/new.html.haml, app/views/devise/shared/_links.html.haml, app/views/layouts/_header.html.haml, app/views/pages/api_landing.html.haml, app/views/pages/api_release_notes.html.haml, app/views/pages/tandcs.haml, lib/demo_data/demo_seeds/case_workers.rb]","[app/helpers/claims_helper.rb, app/views/case_workers/claims/_claims.html.haml, app/views/external_users/certifications/new.html.haml, app/views/external_users/claims/_claims.html.haml, app/views/external_users/claims/_date_attended_fields.html.haml, app/views/external_users/claims/basic_fees/_basic_fee_fields.html.haml, app/views/external_users/claims/defendants/_defendant_fields.html.haml, app/views/external_users/claims/defendants/_representation_order_fields.html.haml]","0.0","0.0","[10c2244121559c8dde2d5c30b9ef9b4e4bb87801]","2.448 seconds","4.2.6","[cucumber-rails, rspec-rails, simplecov, factory_girl]","10","[]","6","7","[app/controllers/pages_controller.rb, app/views/devise/sessions/new.html.haml, app/views/devise/shared/_links.html.haml, app/views/layouts/_header.html.haml, app/views/pages/api_landing.html.haml, app/views/pages/api_release_notes.html.haml, app/views/pages/tandcs.haml]","true","0.0","0","","0",""
"claim-for-crown-court-defence","766","[06-04-2016, 07-04-2016]","2","4","[Fix failing spec , Put examples back to fix breaking specs , Fixed wrong unread message count , 6 new journeys - 5 pass ]","1","6","5","86","86","[gsub, eval, user, create, user, click_link, click_link, have_content, click_link, create_list, fill_in, click_on, nil?, update, click, be_displayed, click, set, first_day_of_trial, ago, trial_concluded_on, actual_trial_length, first_name, last_name, dob, representation_orders, maat_reference, trigger, case_number, add_another_representation_order, basic_fee, quantity, add_dates, basic_fee_dates, daily_attendance_fee_3_to_40, daily_attendance_fee_3_to_40_dates, dates, destination, to_i, be_nil, not_to, text, eq, provider, select2_container, miscellaneous_fees, add_another_miscellaneous_fee, each, evidence_checklist, check, day, month, year, sleep, page, all, text, raise, execute_script, attach_file, page, persona, match_array, each, each, allocations, case_number, fees, expenses, your_claims, enter_your_message, send, view_messages]","0","[path:features/messaging.feature, size:1]","1","","0","","0","","0","","[]","[grape_swagger_rails, new_confirmation, new_password, new_registration, new_session, new_unlock, omniauth_authorize]","7","35","7","[app/controllers/case_workers/admin/case_workers_controller.rb, app/controllers/case_workers/claims_controller.rb, app/controllers/external_users/admin/external_users_controller.rb, app/controllers/external_users/admin/providers_controller.rb, app/controllers/external_users/certifications_controller.rb, app/controllers/external_users/claims_controller.rb, app/controllers/external_users/financial_summary_controller.rb, app/controllers/geckoboard_api/widgets_controller.rb, app/controllers/pages_controller.rb, app/controllers/super_admins/admin/super_admins_controller.rb, app/controllers/super_admins/external_users_controller.rb, app/controllers/super_admins/providers_controller.rb, app/controllers/user_message_statuses_controller.rb, app/controllers/vat_rates_controller.rb, app/interfaces/api/v1/external_users/claim.rb, app/models/allocation.rb, app/models/case_worker.rb, app/models/date_attended.rb, app/models/doc_type.rb, app/models/json_document_importer.rb, app/models/location.rb, app/models/message.rb, app/models/offence_class.rb, app/models/super_admin.rb, app/models/user.rb, app/presenters/error_detail_collection.rb, app/presenters/error_presenter.rb, app/presenters/fee/base_fee_presenter.rb, app/views/devise/sessions/new.html.haml, app/views/devise/shared/_links.html.haml, app/views/layouts/_header.html.haml, app/views/pages/api_landing.html.haml, app/views/pages/api_release_notes.html.haml, app/views/pages/tandcs.haml, lib/demo_data/demo_seeds/case_workers.rb]","[app/helpers/claims_helper.rb, app/views/case_workers/claims/_claims.html.haml, app/views/external_users/claims/_claims.html.haml, app/views/external_users/claims/_date_attended_fields.html.haml, app/views/external_users/claims/basic_fees/_basic_fee_fields.html.haml, app/views/external_users/claims/defendants/_defendant_fields.html.haml, app/views/external_users/claims/defendants/_representation_order_fields.html.haml]","0.0","0.0","[5cc5af63c9c9d7aeff60c5db4d0c81f67f804fd1, d84254ca517783bee8d22e12127bd5fbf6f58157, ae9bb038336676fca4f4edee918ebaf6c25317d8, 67b032a11aa85a08074c974eb8294ea3a776cbec]","2.820 seconds","4.2.6","[cucumber-rails, rspec-rails, simplecov, factory_girl]","10","[]","6","7","[app/controllers/pages_controller.rb, app/views/devise/sessions/new.html.haml, app/views/devise/shared/_links.html.haml, app/views/layouts/_header.html.haml, app/views/pages/api_landing.html.haml, app/views/pages/api_release_notes.html.haml, app/views/pages/tandcs.haml]","false","0.0","0","","0",""
