"REPO_URL","TASK_ID","#HASHES","HASHES","#PROD_FILES","#TEST_FILES","LAST","MERGE","BASE"
"https://github.com/jasonroelofs/raidit.git","1","15","[c9e50ce633fc73224b4343d463d94ebbaea85c7d, 34d2c2690fff84c89f8b31bdf76fd02f3cc8d4e9, 0f34b79d89151b41558fb2223bb98f5d321f10d6, 32c3eb515b18f5dfebf4ecc8de973e51703f1694, bd5586c05a6bfde08941f68da223aff26481a6b6, 60c3ee57d7979147580bf687cfd61a6e8c0d42ae, f6dc464b2ced680fc40e9de1e9153d4c0cafa9ea, b23e641ff84c25c6b67d9edbec4b05b0520b5f0a, 95a6c9a6df31fb2cf28fc36adfeab36919a5c474, 4e950576ff71e2b5a7309ad8836a83de69802112, ab16459f080135013b96411b42acf47f45dd5da8, a680a7e662b8a4289a3cd03aa5d42d857757341f, 34a15b4a6f547ebee87ab8ab49a1984f7d02fc52, 59cc67169bf955bf477496aa786af79a52087fec, 346c78858233b41d6a3119a0e82237ba71a7b2de]","13","2","c9e50ce633fc73224b4343d463d94ebbaea85c7d","6cfb8f4c6a786acc61c73226179f33d47f1a6e77","050fbe186a6080a9bc7c553b7f1b791a100a9987"
"https://github.com/jasonroelofs/raidit.git","2","6","[ca940bc70116e7d08385c5f266a66b871cc01d80, 1648c8861b7d55220056d47d00ac11c7755a6a79, 30594f47b72a54f25e0b20c9854833a0ec8d318c, 30d805d855a62fb61eacd8f621f81879b492637f, 11dee9170aba7ed5a57531af7c81510f841e9b15, b4240bfc269e22dcb57ee1826bd4748727e67987]","8","1","ca940bc70116e7d08385c5f266a66b871cc01d80","6cfb8f4c6a786acc61c73226179f33d47f1a6e77","050fbe186a6080a9bc7c553b7f1b791a100a9987"
