"Repository","https://github.com/8bitpal/hackful.git"
"Tasks with empty IReal","0"
"Tasks with no-empty IReal","1"
"Tasks with relevant AST error","0"
"Tasks with AST error of Gherkin files","0"
"Tasks with AST error of StepDef files","0"
"Tasks with AST error of production files","0"
"Tasks with AST error of unit test files","0"
"Tasks with step match error","0"
"Tasks without required gems","0"
"Tasks with changed stepdef","1"
"Tasks with changed Gherkin","1"
"Tasks with implemented Gherkin scenarios","1"
"All invalid tasks","0"
"All valid tasks (Gherkin scenario, no empty IReal, no error)","1"
"Valid tasks, but empty ITest","0"
"Valid tasks, no empty ITest, but zero precision-recall","0"
"Valid tasks, no empty ITest, no zero precision-recall","1"
"Project","Task","Date","#Days","#Commits","Commit_Message","#Devs","#Gherkin_Tests","#Impl_Gherkin_Tests","#StepDef","#Impl_StepDef","Methods_Unknown_Type","#Step_Call","Step_Match_Errors","#Step_Match_Error","AST_Errors","#AST_Errors","Gherkin_AST_Errors","#Gherkin_AST_Errors","Steps_AST_Errors","#Steps_AST_Errors","Renamed_Files","Deleted_Files","NotFound_Views","#Views","#TestI","#TaskI","TestI","TaskI","Precision","Recall","Hashes","Timestamp","Rails","Gems","#Visit_Call","Lost_visit_call","#Views_ITest","#Code_View_Analysis","Code_View_Analysis","Has_Merge","F2","#Multiple_Step_Matches","Multiple_Step_Matches","#Generic_Step_Keyword","Generic_Step_Keyword"
"hackful","7","[07-03-2012, 09-03-2012, 12-03-2012, 13-03-2012, 15-03-2012, 29-03-2012]","23","15","[Merge pull request #41 from pbjorklund/rspec  Testing boilerplate, cucumber tests for users and posts, rspec for post controller, Helper methods for testing devise , specs for postscontroller , Pry in gemfile is good , Posts feature, factory, shared_steps created  Feature for submitting, editing. Scenario for status change when user deletes account.  Move steps out into shared_steps that overlapp several features , Load rspec in spork , User factory , Added features and steps for user signup/signout , Added faker gem , Config for rspec, cucumber , Rspec, cucumber, capybara-webkit, factory-girl, guard, spork added to gemfile , Update newsletter view , Fix seeding , Seed data set table , Added email support / Newsletters - using delayed_job ]","2","6","6","11","11","[fill_in, click_button, attributes, create, id, click_link, click_button, page, have_content, sign in, post, fill_in, within]","0","","0","","0","","0","","0","","[]","[app/views/devise/sessions/_links.html.erb]","1","16","13","[app/controllers/comments_controller.rb, app/controllers/content_controller.rb, app/controllers/posts_controller.rb, app/controllers/users_controller.rb, app/models/user.rb, app/views/comments/_form.html.erb, app/views/comments/_print.html.erb, app/views/comments/_show.html.erb, app/views/comments/edit.html.erb, app/views/content/frontpage.html.erb, app/views/devise/sessions/new.html.erb, app/views/posts/_preview.html.erb, app/views/posts/_print.html.erb, app/views/posts/edit.html.erb, app/views/posts/show.html.erb, app/views/users/show.html.erb]","[app/controllers/admin_controller.rb, app/helpers/admin_helper.rb, app/mailers/user_mailer.rb, app/models/ability.rb, app/models/admin_auth.rb, app/models/comment.rb, app/models/data_set.rb, app/models/user.rb, app/views/admin/mail.html.erb, app/views/content/stats.html.erb, app/views/devise/registrations/edit.html.erb, app/views/layouts/application.html.erb, app/views/user_mailer/newsletter.html.erb]","0.0625","0.0769230769","[6c3b770b61efa5609f091ea0179005cdd59898cd, b788d856fb35476f9d58ce21e17111061382ca97, 29ca8ad1d03211edba68d4b6a746ee0c34746362, 23ae182a8100ecf50815653c23327d7412953c14, 853add9a5a96535b610cd8b328d355f3e0404883, f1940053e2e6e435977beb65700070d848afa00f, 855eaf15a3d3a5b35ea3dac59ed68dda61952a27, 7e31bd09e98ff841b77afe8710e1872d3248e395, 641a42037445575322d5c38de28de5da8bbe4ef6, 814b316f56d10ee9c98ef3877f2a047a7551b990, 782e938f161f9a6d753e8083b5984fa7c51ee95d, 169d34754e22b98a58aabda7e493663e78a806d0, 92accfd02694eb201454dc08cfe6d2d10dda320a, 3ebced39cf740c7a70778788b2ff53a388adeb71, 83909d0a367cd11dd86d441d27264c8f51ab6996]","2.408 seconds","3.1.3","[cucumber-rails, rspec-rails, factory_girl]","4","[]","11","15","[app/controllers/comments_controller.rb, app/controllers/content_controller.rb, app/controllers/posts_controller.rb, app/controllers/users_controller.rb, app/views/comments/_form.html.erb, app/views/comments/_print.html.erb, app/views/comments/_show.html.erb, app/views/comments/edit.html.erb, app/views/content/frontpage.html.erb, app/views/devise/sessions/new.html.erb, app/views/posts/_preview.html.erb, app/views/posts/_print.html.erb, app/views/posts/edit.html.erb, app/views/posts/show.html.erb, app/views/users/show.html.erb]","true","0.07352941174783736","0","","0",""
