"Repository","https://github.com/8bitpal/hackful.git"
"TASK","HASH","RUBY","RAILS","COVERAGE","TESTS"
"7","6c3b770b61efa5609f091ea0179005cdd59898cd","","3.1.3","","features/devise.feature(7);features/devise.feature(16);features/devise.feature(26);features/posts.feature(7);features/posts.feature(16);features/posts.feature(26)"
