"Repository","https://github.com/alphagov/whitehall.git"
"TASK","HASH","RUBY","RAILS","COVERAGE","TESTS"
"3700","4f96f0c4e0a46844f51c7fd45c5dbfa259aba8e2","","3.1.11","simplecov","features/viewing-published-international-priorities.feature(9);features/publishing-international-priorities.feature(3)"
"3724","749f259374534cc3f2d69c7b41eba25587cbce75","","3.1.11","simplecov","features/administering-worldwide-offices.feature(18);features/administering-worldwide-offices.feature(29);features/administering-worldwide-offices.feature(35);features/administering-worldwide-offices.feature(40);features/administering-worldwide-offices.feature(45);features/administering-worldwide-offices.feature(52);features/administering-worldwide-offices.feature(59);features/administering-roles.feature(21);features/administering-roles.feature(29)"
"3738","85b9d1cca7daedadc891901be1a3a7a2c4f7a7e1","","3.1.10","simplecov","features/worldwide-offices.feature(52)"
"3744","61d00222ea6c933f780d39b3e9e69a9d6aa4b7d8","","3.1.10","simplecov","features/worldwide-offices.feature(18);features/worldwide-offices.feature(40);features/worldwide-offices.feature(45)"
"3748","be33ad2a4c98392188dac9056e336cf56edc3d24","","3.1.10","simplecov","features/importing-new-editions.feature(110);features/importing-new-editions.feature(132);features/importing-new-editions.feature(158);features/importing-new-editions.feature(173)"
"3757","27b500875a1efe4a2e21e6a86fbabca6dfe33753","","3.1.10","simplecov","features/administering-organisations.feature(3);features/worldwide-offices.feature(18);features/worldwide-offices.feature(27);features/worldwide-offices.feature(33)"
"3764","6112d4a04594a0762f03f624411201198699a297","","3.1.10","simplecov","features/administering-world-locations.feature(12);features/administering-world-locations.feature(19)"
"3766","d9acf1455d1c8edeee708763e85c25ea7984d0f6","","3.1.10","simplecov","features/bulk-upload-of-attachments.feature(12);features/bulk-upload-of-attachments.feature(26)"
"3769","a49e8be2c43d143e6d1381f27c4deca45edb1676","","3.1.10","simplecov","features/force-publishing-an-import.feature(17);features/force-publishing-an-import.feature(21);features/force-publishing-an-import.feature(27)"
"3774","3e6dd771f604df56baaf7a1f683796d9076988fe","","3.1.10","simplecov","features/most-recent-editions.feature(6);features/most-recent-editions.feature(12)"
"3792","cd155e55a527d28c2495bd16066a8f9cf008edf7","","3.1.10","simplecov","features/bulk-upload-of-attachments.feature(12);features/editing-attachments.feature(48)"
"3793","9ecb9277cd9bae53ba82952dbc24e5034e36c225","","3.1.10","simplecov","features/importing-new-editions.feature(112)"
"3811","01b4aca0e2bcb9789be93b52cbf69135304b6201","","3.1.10","simplecov","features/publishing-detailed-guides.feature(18);features/publishing-policies.feature(45);features/publishing-policies.feature(53)"
"3815","abe22d9efcd01b7778940680bf39e139dccdd0a2","","3.1.10","simplecov","features/editing-attachments.feature(48)"
"3825","6c97c7b08299b4cf829aaf80d27903d341a09d75","","3.1.10","simplecov","features/handling-fatalities.feature(52)"
"3834","0f3a9357c31c1ce2dcc26cc6e2cfe910b2610daa","","3.1.9","simplecov","features/speed-tagging-editions.feature(13);features/speed-tagging-editions.feature(17);features/speed-tagging-editions.feature(24);features/speed-tagging-editions.feature(31);features/speed-tagging-editions.feature(36);features/speed-tagging-editions.feature(41)"
"3842","35f63664ba7bc90ff7ca5afa3f6569a57ab85049","","3.1.7","simplecov","features/importing-new-editions.feature(72);features/importing-new-editions.feature(78);features/importing-new-editions.feature(85);features/importing-new-editions.feature(94);features/importing-new-editions.feature(107)"
"3853","e940f8a37b5cfffe964c6e67f07b3fdf803471b2","","3.1.7","simplecov","features/topical_events.feature(8);features/topical_events.feature(13);features/topical_events.feature(19);features/topical_events.feature(25)"
"3865","58a99c0f5be89d152fd34e0a8f1c5397fdb6f9b9","","3.1.7","simplecov","features/document-sources.feature(8);features/document-sources.feature(15);features/document-sources.feature(22);features/document-sources.feature(29)"
"3870","833aebe7cc6190ba45794e0ce727d0c773a9e62d","","3.1.7","simplecov","features/administering-roles.feature(7);features/administering-roles.feature(14);features/viewing-organisations.feature(25)"
"3877","d62a50ed89fa86f9d1542144377737352653f74f","","3.1.7","simplecov","features/handling-fatalities.feature(36);features/handling-fatalities.feature(40);features/handling-fatalities.feature(46);features/handling-fatalities.feature(51);features/handling-fatalities.feature(56);features/handling-fatalities.feature(61);features/handling-fatalities.feature(66)"
"3929","0158ea2f2c49ef09ff49f19810f929014ab7326e","","3.1.7","simplecov","features/editing-draft-news-articles.feature(24);features/editing-draft-news-articles.feature(30);features/publishing-policies.feature(35)"
"3940","adbf23cc49ea7a266eb1072b25cbb5e894e6f139","","3.1.7","simplecov","features/administering-roles.feature(7);features/viewing-organisations.feature(14);features/viewing-organisations.feature(20);features/viewing-organisations.feature(25)"
"3957","62e16bcca59edb6e6684fff4892f516fa35af973","","3.1.7","simplecov","features/administering-organisations.feature(3)"
"3972","f5ad67982c4d63a985e315e05ef7cacba94d91f2","","3.1.7","simplecov","features/publishing-consultations.feature(10);features/publishing-consultations.feature(17)"
"3977","a1a4d168f713b60db337d85223b32b634288f71a","","3.1.7","simplecov","features/viewing-published-policies.feature(30)"
