"Repository","https://github.com/BTHUNTERCN/bsmi.git"
"Precision mean (RT)",""
"Precision median (RT)",""
"Precision standard deviation (RT)",""
"Recall mean (RT)",""
"Recall median (RT)",""
"Recall standard deviation (RT)",""
"F2 mean (RT)",""
"F2 median (RT)",""
"F2 standard deviation (RT)",""
"Correlation #Test-Precision",""
"Correlation #Test-Recall",""
"Task","Dates","#Devs","#Commits","Hashes","#Gherkin_Tests","#Sted_defs","#TestI","#TaskI","TestI","TaskI","Precision","Recall","Rails","#visit_call","Lost_visit_call","#Views_TestI","#Code_View_Analysis","Code_View_Analysis","Methods_Unknown_Type","Renamed_Files","Deleted_Files","NotFound_Views","#NotFound_Views","Timestamp","Has_Merge","#FP","#FN","FP","FN","#Hits","Hits","f2"
"2","[24-01-2013]","1","1","[c5e7dd3c586e49eee99f262f4e8ed1f162d0bcf4]","2","0","3","1","[app/controllers/invites_controller.rb, app/controllers/user_sessions_controller.rb, app/controllers/users_controller.rb]","[app/controllers/application_controller.rb]","0.0","0.0","3.2.11","3","[]","0","12","[app/controllers/invites_controller.rb, app/controllers/user_sessions_controller.rb, app/controllers/users_controller.rb, app/views/invites/_form.html.haml, app/views/invites/edit.html.haml, app/views/invites/index.html.haml, app/views/invites/new.html.haml, app/views/user_sessions/new.html.haml, app/views/user_sessions/shared/_error_messages.html.erb, app/views/users/_form.html.erb, app/views/users/adv_new.html.erb, app/views/users/shared/_error_messages.html.erb]","[email, current_url, path, assert_not_equal, assert_equal, fill_in, click_button, page, have_content, page, have_content, has_content?]","","[]","","0","0.667 seconds","false","3","1","[app/controllers/invites_controller.rb, app/controllers/user_sessions_controller.rb, app/controllers/users_controller.rb]","[app/controllers/application_controller.rb]","0","[]","0"
"3","[23-01-2013]","1","4","[a02948bbf21d72cb9cb0b825b71bf2e4aa70f470, 1d043d8c9959c212a1e08fb15147ceb3a542b1e0, 3709fe05573b3b68f548a79aa2ea53fed7586227, 8ba5e384e341a688657b607e6ea493a1bb3c1198]","2","1","3","2","[app/controllers/invites_controller.rb, app/controllers/user_sessions_controller.rb, app/controllers/users_controller.rb]","[app/controllers/application_controller.rb, app/controllers/pages_controller.rb]","0.0","0.0","3.2.11","3","[]","0","12","[app/controllers/invites_controller.rb, app/controllers/user_sessions_controller.rb, app/controllers/users_controller.rb, app/views/invites/_form.html.haml, app/views/invites/edit.html.haml, app/views/invites/index.html.haml, app/views/invites/new.html.haml, app/views/user_sessions/new.html.haml, app/views/user_sessions/shared/_error_messages.html.erb, app/views/users/_form.html.erb, app/views/users/adv_new.html.erb, app/views/users/shared/_error_messages.html.erb]","[email, current_url, path, assert_not_equal, assert_equal, fill_in, click_button, page, have_content, page, have_content, has_content?]","","[]","","0","0.833 seconds","false","3","2","[app/controllers/invites_controller.rb, app/controllers/user_sessions_controller.rb, app/controllers/users_controller.rb]","[app/controllers/application_controller.rb, app/controllers/pages_controller.rb]","0","[]","0"
"15","[05-12-2012]","1","2","[4b747125eeb883c3bfe9123b28cf5574a5b72efc, 80f8f6dbcdcc648fff63b1fbb803c026e91785bd]","2","1","1","2","[app/controllers/user_sessions_controller.rb]","[app/controllers/mentor_teacher/schedules_controller.rb, app/controllers/select_timeslots_controller.rb]","0.0","0.0","3.2.7","3","[]","0","3","[app/controllers/user_sessions_controller.rb, app/views/user_sessions/new.html.haml, app/views/user_sessions/shared/_error_messages.html.erb]","[click_button, page, have_content, has_content?, current_url, path, assert_equal, send, raise, hashes, id, each, save!, update_attribute, timeslot, fill_in, click_button, page, have_content]","","[]","","0","3.972 seconds","false","1","2","[app/controllers/user_sessions_controller.rb]","[app/controllers/mentor_teacher/schedules_controller.rb, app/controllers/select_timeslots_controller.rb]","0","[]","0"
"22","[05-12-2012]","1","2","[0e863118df3b5cd2ba369a3ff6e78e9d0852fae9, 8442f64d14a7f01507983cfdeb814545c99ceb6f]","2","0","2","2","[app/controllers/invites_controller.rb, app/controllers/users_controller.rb]","[app/controllers/mentor_teacher/schedules_controller.rb, app/controllers/students_controller.rb]","0.0","0.0","3.2.7","2","[]","0","9","[app/controllers/invites_controller.rb, app/controllers/users_controller.rb, app/views/invites/_form.html.haml, app/views/invites/edit.html.haml, app/views/invites/index.html.haml, app/views/invites/new.html.haml, app/views/users/_form.html.erb, app/views/users/adv_new.html.erb, app/views/users/shared/_error_messages.html.erb]","[save!, current_url, path, assert_equal, page, have_content, has_content?]","","[]","","0","0.634 seconds","false","2","2","[app/controllers/invites_controller.rb, app/controllers/users_controller.rb]","[app/controllers/mentor_teacher/schedules_controller.rb, app/controllers/students_controller.rb]","0","[]","0"
"31","[04-12-2012, 05-12-2012]","2","12","[d8437823ff9e718c172088a9bbc508d4ec58d34c, 3a32a9950979a23e6fc8dd53cb35b57a85bba2bb, f59c38e0a1049b65b6c43c3735429517dca1106f, 358bde399bf7c90bcc6b5a1ed0d7e414d275f825, 791bf614695427a874b62a00c37b933f7209c395, 1d7a7f0abf643d6a3185ccd935600317a12caa9a, 299b007f551c502d2a182ce9cb8b8450d8e5d4be, a6c2e8c0506e4e26b0a06b398960db9a90962173, e6907b56d531fd6594da3a9e183733842ed6adde, 26830533be000078f96dc349898a8fd6f2a52cb9, 0297c63f32cabe31452c22a96bc4786bc0832bb8, d37e0b0303a8eac32c8ce1e77716a595e8ad554d]","2","4","2","2","[app/controllers/mentor_teacher/schedules_controller.rb, app/controllers/user_sessions_controller.rb]","[app/controllers/cal_courses_controller.rb, app/controllers/mentor_teacher/schedules_controller.rb]","0.5","0.5","3.2.7","2","[]","0","6","[app/controllers/mentor_teacher/schedules_controller.rb, app/controllers/user_sessions_controller.rb, app/views/mentor_teacher/schedules/_form.html.haml, app/views/mentor_teacher/schedules/new.html.haml, app/views/user_sessions/new.html.haml, app/views/user_sessions/shared/_error_messages.html.erb]","[click_button, rows_hash, each, select, page, have_content, has_content?, find_field, tag_name, text, assert_match, current_url, path, assert_equal, within, raise, hashes, email, each_pair, page, execute_script, fill_in, click_button, page, have_content]","","[]","","0","0.385 seconds","false","1","1","[app/controllers/user_sessions_controller.rb]","[app/controllers/cal_courses_controller.rb]","1","[app/controllers/mentor_teacher/schedules_controller.rb]","0.5"
"47","[04-12-2012]","1","7","[f66ee8024f4048674f0892d31b5cd3efb3b777bd, bbfc33285664a6501a577663ccddd595cc7f9a91, 4934519a50ee74fb9362aeab9876a6bc395ab6d6, 25ced4f4e0eeac40828f9119d5c4fa95ffa0d401, e4a4a3056db3853d110acc1e39ba12cf006df7e2, 511aff6db81028803c8679ab997744cd2ff59b5f, 60e5c2f92d0b3f00f522f9def5d72b182aaea64b]","2","1","2","1","[app/controllers/pages_controller.rb, app/controllers/user_sessions_controller.rb]","[app/controllers/matchings_controller.rb]","0.0","0.0","3.2.7","2","[]","0","5","[app/controllers/pages_controller.rb, app/controllers/user_sessions_controller.rb, app/views/pages/home.html.haml, app/views/user_sessions/new.html.haml, app/views/user_sessions/shared/_error_messages.html.erb]","[click_button, click_link, current_url, path, assert_equal, send, raise, hashes, id, each, save!, update_attribute, fill_in, click_button, page, have_content]","","[app/controllers/matching_controller.rb]","","0","0.617 seconds","false","2","1","[app/controllers/pages_controller.rb, app/controllers/user_sessions_controller.rb]","[app/controllers/matchings_controller.rb]","0","[]","0"
"73","[30-11-2012]","1","3","[b4856cc7aec4b4b8997e85ba2f1f4acf55373f07, 9ff0f5d5c9509d7b01ab2235ab3a81281ef06651, 53ed44a631c99ca90cf1b4c1a089d6cb4847bfd5]","2","2","2","1","[app/controllers/user_sessions_controller.rb, app/controllers/users_controller.rb]","[app/controllers/students_controller.rb]","0.0","0.0","3.2.7","2","[]","0","13","[app/controllers/user_sessions_controller.rb, app/controllers/users_controller.rb, app/views/user_sessions/new.html.erb, app/views/user_sessions/shared/_error_messages.html.erb, app/views/users/_form.html.erb, app/views/users/adv_edit.html.erb, app/views/users/adv_new.html.erb, app/views/users/adv_show.html.haml, app/views/users/cf_show.haml, app/views/users/edit.html.erb, app/views/users/new.html.erb, app/views/users/shared/_error_messages.html.erb, app/views/users/show.html.erb]","[click_link, page, have_content, has_content?, save!, current_url, path, assert_equal, fill_in, click_button, page, have_content]","","[app/views/application/_student_advisor_view.html.haml]","","0","0.719 seconds","false","2","1","[app/controllers/user_sessions_controller.rb, app/controllers/users_controller.rb]","[app/controllers/students_controller.rb]","0","[]","0"
"157","[05-11-2012]","1","5","[25624ef39dc416d77ad237ec38d4ed1553a25c4f, 5be80bcf6a5103792f176a63b4e22606863c8246, ad2ae6100639b6c844d9c3b6e060aa4c7a3b09c9, 908e78f091396d8e67c8fb18a004e68fa0dee7a2, 650ca0250b4ec763eed52333d251fa039591adc1]","1","2","2","0","[app/controllers/mentor_teacher/schedules_controller.rb, app/controllers/user_sessions_controller.rb]","[]","0.0","0.0","3.2.7","2","[]","0","6","[app/controllers/mentor_teacher/schedules_controller.rb, app/controllers/user_sessions_controller.rb, app/views/mentor_teacher/schedules/_form.html.haml, app/views/mentor_teacher/schedules/new.html.haml, app/views/user_sessions/new.html.erb, app/views/user_sessions/shared/_error_messages.html.erb]","[click_button, current_url, path, assert_equal, send, raise, email, hashes, each_pair, page, execute_script, each, fill_in, click_button, page, have_content]","","[app/views/mentor_teacher/schedules/_day_schedule.html.haml, app/views/mentor_teacher/schedules/_timeslot_form.html.haml]","","0","0.407 seconds","false","2","0","[app/controllers/mentor_teacher/schedules_controller.rb, app/controllers/user_sessions_controller.rb]","[]","0","[]","0"
"232","[20-10-2012, 21-10-2012]","1","2","[8f1199d112275a768bf703f37b46d81359b1bec5, 5c775406571008e219a851afbe1e09e008c2ed97]","5","30","0","0","[]","[]","0.0","0.0","3.2.7","5","[]","0","0","[]","[update_attributes!, save!, fill_in, click_button, page, have_content, has_content?, click_button, click_button, click_link, click_link, fill_in, fill_in, fill_in, rows_hash, each, select, check, uncheck, choose, attach_file, page, have_content, has_content?, have_xpath, has_xpath?, have_no_content, has_no_content?, have_no_xpath, has_no_xpath?, find_field, tag_name, text, assert_match, assert_no_match, find, include, titlecase, be_true, be_false, current_url, path, assert_equal, query, rows_hash, each_pair, save_and_open_page, within, send, raise, raise, hashes, each]","","[]","[/accounts/login, expand, movie, similar]","4","0.256 seconds","false","0","0","[]","[]","0","[]","0"
