"Repository","https://github.com/RailsApps/rails3-devise-rspec-cucumber.git"
"Precision mean (RT)","0.5"
"Precision median (RT)","0.5"
"Precision standard deviation (RT)","0.0"
"Recall mean (RT)","1.0"
"Recall median (RT)","1.0"
"Recall standard deviation (RT)","0.0"
"F2 mean (RT)","0.8333333333333333"
"F2 median (RT)","0.8333333333333333"
"F2 standard deviation (RT)","0.0"
"Correlation #Test-Precision","null"
"Correlation #Test-Recall","null"
"Task","Dates","#Devs","#Commits","Hashes","#Gherkin_Tests","#Sted_defs","#TestI","#TaskI","TestI","TaskI","Precision","Recall","Rails","#visit_call","Lost_visit_call","#Views_TestI","#Code_View_Analysis","Code_View_Analysis","Methods_Unknown_Type","Renamed_Files","Deleted_Files","NotFound_Views","#NotFound_Views","Timestamp","Has_Merge","#FP","#FN","FP","FN","#Hits","Hits","f2"
"5","[29-01-2012]","1","1","[52fb0f694c4c098f71d196740e215e87af11d7b8]","11","27","2","1","[app/controllers/home_controller.rb, app/controllers/users_controller.rb]","[app/controllers/users_controller.rb]","0.5","1.0","3.2.0","8","[]","0","5","[app/controllers/home_controller.rb, app/controllers/users_controller.rb, app/views/devise/sessions/new.html.erb, app/views/home/index.html.erb, app/views/users/show.html.erb]","[be_nil, merge, click_link, fill_in, click_button, page, have_content, fill_in, click_button, sign in]","","[app/views/devise/shared/_links.erb]","[app/views/devise/sessions/_links.html.erb]","1","5.984 seconds","false","1","0","[app/controllers/home_controller.rb]","[]","1","[app/controllers/users_controller.rb]","0.8333333333333333"
