"Repository","https://github.com/TheOdinProject/theodinproject.git"
"Precision mean (RT)","0.0"
"Precision median (RT)","0.0"
"Precision standard deviation (RT)","0.0"
"Recall mean (RT)","0.0"
"Recall median (RT)","0.0"
"Recall standard deviation (RT)","0.0"
"F2 mean (RT)","0.0"
"F2 median (RT)","0.0"
"F2 standard deviation (RT)","0.0"
"Correlation #Test-Precision","null"
"Correlation #Test-Recall","null"
"Task","Dates","#Devs","#Commits","Hashes","#Gherkin_Tests","#Sted_defs","#TestI","#TaskI","TestI","TaskI","Precision","Recall","Rails","#visit_call","Lost_visit_call","#Views_TestI","#Code_View_Analysis","Code_View_Analysis","Methods_Unknown_Type","Renamed_Files","Deleted_Files","NotFound_Views","#NotFound_Views","Timestamp","Has_Merge","#FP","#FN","FP","FN","#Hits","Hits","f2"
"288","[30-10-2016, 31-10-2016]","3","5","[f1a46a07e518b40d6cfd5050a844e732a70b89f8, 293511dc1b83ff51145fc0cf4666bfba4815f42b, c428cdca4abfb40cd66835c7636a7ea45dc3339b, 05850db395fb6f26699ea380ae372ad5a00f68c4, bfcb46d13bd71febeb05ba0bc989f7c0d906edb2]","2","6","2","1","[app/controllers/courses_controller.rb, app/controllers/static_pages_controller.rb]","[app/controllers/application_controller.rb]","0.0","0.0","4.2.5.2","5","[]","0","13","[app/controllers/courses_controller.rb, app/controllers/static_pages_controller.rb, app/views/courses/index.html.erb, app/views/courses/show.html.erb, app/views/devise/sessions/new.html.erb, app/views/devise/shared/_links.erb, app/views/shared/_completion_percent.html.erb, app/views/shared/_github_login_button.html.erb, app/views/shared/_lc_index.html.erb, app/views/shared/_logo_text.html.erb, app/views/shared/_social.html.erb, app/views/static_pages/contributing.html.erb, app/views/static_pages/home.html.erb]","[click_link, page, body, include, ago, have_content, id, fill_in, click_button, page, have_content]","","[]","[, new_confirmation, new_password, new_registration, new_session, new_unlock, omniauth_authorize]","7","1.614 seconds","true","2","1","[app/controllers/courses_controller.rb, app/controllers/static_pages_controller.rb]","[app/controllers/application_controller.rb]","0","[]","0"
"250","[17-04-2017]","1","1","[c36355831c330be7f0bb751a385d438bd7c245f1]","1","0","2","1","[app/controllers/courses_controller.rb, app/controllers/static_pages_controller.rb]","[app/controllers/application_controller.rb]","0.0","0.0","5.0.0","3","[]","0","13","[app/controllers/courses_controller.rb, app/controllers/static_pages_controller.rb, app/views/courses/index.html.erb, app/views/courses/show.html.erb, app/views/devise/sessions/new.html.erb, app/views/devise/shared/_links.erb, app/views/shared/_completion_percent.html.erb, app/views/shared/_github_login_button.html.erb, app/views/shared/_lc_index.html.erb, app/views/shared/_logo_text.html.erb, app/views/shared/_social.html.erb, app/views/static_pages/contributing.html.erb, app/views/static_pages/home.html.erb]","[page, have_content, click_link, fill_in, click_button, page, have_content, to_not, trigger, click_link, find_button, click_button, have_selector, fill_in, hashes, merge, each]","","[]","[new_confirmation, new_password, new_registration, new_session, new_unlock, omniauth_authorize]","6","3.017 seconds","false","2","1","[app/controllers/courses_controller.rb, app/controllers/static_pages_controller.rb]","[app/controllers/application_controller.rb]","0","[]","0"
"285","[04-11-2016]","1","1","[6c114edb7ef805e53a4eb4fadab0310186b79c7c]","1","2","2","1","[app/controllers/courses_controller.rb, app/controllers/static_pages_controller.rb]","[app/controllers/application_controller.rb]","0.0","0.0","4.2.5.2","2","[]","0","13","[app/controllers/courses_controller.rb, app/controllers/static_pages_controller.rb, app/views/courses/index.html.erb, app/views/courses/show.html.erb, app/views/devise/sessions/new.html.erb, app/views/devise/shared/_links.erb, app/views/shared/_completion_percent.html.erb, app/views/shared/_github_login_button.html.erb, app/views/shared/_lc_index.html.erb, app/views/shared/_logo_text.html.erb, app/views/shared/_social.html.erb, app/views/static_pages/contributing.html.erb, app/views/static_pages/home.html.erb]","[fill_in, click_button, page, have_content, click_link, page, have_link]","","[]","[have_current, new_confirmation, new_password, new_registration, new_session, new_unlock, omniauth_authorize]","7","3.139 seconds","false","2","1","[app/controllers/courses_controller.rb, app/controllers/static_pages_controller.rb]","[app/controllers/application_controller.rb]","0","[]","0"
