Given /^(?:|I )am on (.+)$/ do |page_name|
  visit path_to(page_name)
end
When /^(?:|I )go to (.+)$/ do |page_name|
  visit path_to(page_name)
end
When /^(?:|I )press "([^"]*)"(?: within "([^"]*)")?$/ do |button, selector|
  with_scope(selector) do
    silence_warnings { 
      sleep 1 if button == "Share"
      click_button(button) } # ruby 1.9 produces a warning about UTF8 from rack-util
  end
end
Then /^(?:|I )should see "([^"]*)"(?: within "([^"]*)")?$/ do |text, selector|
  with_scope(selector) do
    if page.respond_to? :should
      page.should have_content(text)
    else
      assert page.has_content?(text)
    end
  end
end
  def with_scope(locator)
    locator ? within(locator) { yield } : yield
  end
  def path_to(page_name)
    case page_name
      when /^the home(?: )?page$/
        root_path
      when /^step (\d)$/
        if $1.to_i == 1
          getting_started_path
        else
          getting_started_path(:step => $1)
        end
      when /^the tag page for "([^\"]*)"$/
        tag_path($1)
      when /^its ([\w ]+) page$/
        send("#{$1.gsub(/\W+/, '_')}_path", @it)
      when /^the ([\w ]+) page$/
        send("#{$1.gsub(/\W+/, '_')}_path")
      when /^my edit profile page$/
        edit_profile_path
      when /^my profile page$/
        person_path(@me.person)
      when /^my acceptance form page$/
        accept_user_invitation_path(:invitation_token => @me.invitation_token)
      when /^the requestors profile$/
        person_path(Request.where(:recipient_id => @me.person.id).first.sender)
      when /^"([^\"]*)"'s page$/
        person_path(User.find_by_email($1).person)
      when /^my account settings page$/
        edit_user_path
      when /^the photo page for "([^\"]*)"'s latest post$/
        photo_path(User.find_by_email($1).posts.where(:type => "Photo").last)
      when /^the photo page for "([^\"]*)"'s post "([^\"]*)"$/
        photo_path(User.find_by_email($1).posts.find_by_text($2))
      when /^"(\/.*)"/
        $1
      else
        raise "Can't find mapping from \"#{page_name}\" to a path."
    end
  end
Given /^a user with username "([^\"]*)"$/ do |username|
  user = Factory(:user, :email => username + "@" + username + '.' + username, :username => username,
                 :password => 'password', :password_confirmation => 'password', :getting_started => false)
  user.aspects.create(:name => "Besties")
  user.aspects.create(:name => "Unicorns")
end
When /^I post a status with the text "([^\"]*)"$/ do |text|
  @me.post(:status_message, :text => text, :public => true, :to => 'all')
end
When /^I wait for the ajax to finish$/ do
  wait_until(30) { evaluate_script("$.active") == 0 }
end
When /^I search for "([^\"]*)"$/ do |search_term|
  When "I fill in \"q\" with \"#{search_term}\""
  page.execute_script <<-JS
    var e = jQuery.Event("keypress");
    e.keyCode = 13;
    $("#q").trigger(e);
  JS
end
When /^I sign in as "([^"]*)"$/ do |email|
  @me = User.find_by_email(email)
  @me.password ||= 'password'
  Given 'I am signed in'
end
