"Repository","https://github.com/alphagov/whitehall.git"
"Tasks with empty IReal","0"
"Tasks with no-empty IReal","9"
"Tasks with relevant AST error","0"
"Tasks with AST error of Gherkin files","0"
"Tasks with AST error of StepDef files","0"
"Tasks with AST error of production files","0"
"Tasks with AST error of unit test files","0"
"Tasks with step match error","0"
"Tasks without required gems","0"
"Tasks with changed stepdef","8"
"Tasks with changed Gherkin","9"
"Tasks with implemented Gherkin scenarios","9"
"All invalid tasks","0"
"All valid tasks (Gherkin scenario, no empty IReal, no error)","9"
"Valid tasks, but empty ITest","0"
"Valid tasks, no empty ITest, but zero precision-recall","3"
"Valid tasks, no empty ITest, no zero precision-recall","6"
"Project","Task","Date","#Days","#Commits","Commit_Message","#Devs","#Gherkin_Tests","#Impl_Gherkin_Tests","#StepDef","#Impl_StepDef","Methods_Unknown_Type","#Step_Call","Step_Match_Errors","#Step_Match_Error","AST_Errors","#AST_Errors","Gherkin_AST_Errors","#Gherkin_AST_Errors","Steps_AST_Errors","#Steps_AST_Errors","Renamed_Files","Deleted_Files","NotFound_Views","#Views","#TestI","#TaskI","TestI","TaskI","Precision","Recall","Hashes","Timestamp","Rails","Gems","#Visit_Call","Lost_visit_call","#Views_ITest","#Code_View_Analysis","Code_View_Analysis","Has_Merge","F2","#Multiple_Step_Matches","Multiple_Step_Matches","#Generic_Step_Keyword","Generic_Step_Keyword"
"whitehall","771","[18-12-2017]","1","1","[Add ability to filter editions by broken links  This commit adds the ability to filter editions by broken links on the index page so users are able to quickly see editions with broken links. This expands on the work done on https://github.com/alphagov/whitehall/pull/3582 along with the other LinkCheckerAPI integration work. ]","1","1","1","4","4","[create, id, click_on, check, has_content?, has_no_content?]","0","","0","","0","","0","","0","","[]","","0","8","4","[app/controllers/admin/editions_controller.rb, app/helpers/admin/edition_routes_helper.rb, app/models/frontend/statistics_announcements_filter.rb, app/models/topic.rb, app/presenters/api/paginator.rb, app/views/admin/editions/_filter_options.html.erb, app/views/admin/editions/_search_results.html.erb, app/views/admin/editions/index.html.erb]","[app/controllers/admin/editions_controller.rb, app/models/admin/edition_filter.rb, app/models/edition.rb, app/views/admin/editions/_filter_options.html.erb]","0.25","0.5","[5bbb698f075594ca08092f9d94352970b98eac29]","3.527 seconds","5.0.4","[cucumber-rails, simplecov]","1","[]","3","5","[app/controllers/admin/editions_controller.rb, app/helpers/admin/edition_routes_helper.rb, app/views/admin/editions/_filter_options.html.erb, app/views/admin/editions/_search_results.html.erb, app/views/admin/editions/index.html.erb]","false","0.41666666666666663","0","","0",""
"whitehall","808","[20-11-2017]","1","2","[Merge pull request #3544 from alphagov/return-404-for-country-pages  Only serve world locations that are delegations, Only serve world locations that are delegations  This commit returns a not found error for any frontend requests for world locations unless they are international delegations, that are still served by `whitehall`. All other world location pages are served by `collections`. This stops serving pages for world locations that not enabled (such as the UK) and also requests for world locations with mixed-case base paths, which essentially bypasses `collections`. ]","1","10","10","11","11","[stubs, returns, gsub, create, code, save!, click_link, record_css_selector, within, attach_file, fill_in, click_button, rows_hash, click_on, has_link?, featured_documents_selector, all, raw, assert_equal, within, stringify_keys, find_by, select, find, visible?, select_option, raw, each_with_index, find_field, evaluate_script, execute_script, to_json, see_all_link, worldwide_organisation, tap, lambda, website_uri, create, begin_drafting_news_article, record_css_selector, has_content?, has_no_css?, to_i, days, ago, has_css?, has_css?, has_no_css?, see_all_link, worldwide_organisation]","0","","0","","0","","0","","0","","[]","[atom, features_admin_world_location]","2","81","1","[app/controllers/admin/edition_workflow_controller.rb, app/controllers/admin/offsite_links_controller.rb, app/controllers/admin/world_locations_controller.rb, app/controllers/admin/worldwide_organisations_controller.rb, app/controllers/api/world_locations_controller.rb, app/controllers/world_location_news_controller.rb, app/controllers/world_locations_controller.rb, app/helpers/email_signup_helper.rb, app/helpers/filter_routes_helper.rb, app/helpers/public_document_routes_helper.rb, app/models/admin/edition_filter.rb, app/models/admin/statistics_announcement_filter.rb, app/models/attachment_visibility.rb, app/models/classification_featuring.rb, app/models/corporate_information_page.rb, app/models/corporate_information_page_type.rb, app/models/document.rb, app/models/document_collection_group.rb, app/models/edition.rb, app/models/email_signup.rb, app/models/email_signup_pages_finder.rb, app/models/feature_list.rb, app/models/featured_policy.rb, app/models/frontend/statistics_announcements_filter.rb, app/models/news_article.rb, app/models/news_article_type.rb, app/models/offsite_link.rb, app/models/organisation_brand_colour.rb, app/models/organisation_logo_type.rb, app/models/person.rb, app/models/policy.rb, app/models/publication_type.rb, app/models/sitewide_setting.rb, app/models/speech_type.rb, app/models/user.rb, app/models/world_location.rb, app/models/world_location_news_article.rb, app/models/world_location_type.rb, app/models/worldwide_office_type.rb, app/models/worldwide_service_type.rb, app/presenters/api/paginator.rb, app/presenters/email_signup_information_presenter.rb, app/presenters/feature_presenter.rb, app/presenters/promotional_feature_item_presenter.rb, app/presenters/publication_filter_json_presenter.rb, app/presenters/publishing_api/world_location_news_page_presenter.rb, app/presenters/role_presenter.rb, app/services/service_listeners/author_notifier.rb, app/views/admin/offsite_links/_form.html.erb, app/views/admin/offsite_links/edit.html.erb, app/views/admin/shared/_default_news_image_fields.html.erb, app/views/admin/world_locations/show.html.erb, app/views/admin/worldwide_organisations/_form.html.erb, app/views/admin/worldwide_organisations/_sidebar.html.erb, app/views/admin/worldwide_organisations/new.html.erb, app/views/contacts/_contact.html.erb, app/views/shared/_available_languages.html.erb, app/views/shared/_featured.html.erb, app/views/shared/_featured_links.html.erb, app/views/shared/_feeds.html.erb, app/views/shared/_heading.html.erb, app/views/shared/_list_description.html.erb, app/views/shared/_recently_updated.html.erb, app/views/shared/_recently_updated_documents.html.erb, app/views/world_location_news/index.html.erb, app/views/world_locations/_world_location.html.erb, app/views/world_locations/index.html.erb, app/views/world_locations/show.html.erb, app/views/worldwide_organisations/_worldwide_organisation.html.erb, app/workers/publishing_api_corporate_information_pages_worker.rb, app/workers/publishing_api_html_attachments_worker.rb, app/workers/publishing_api_publications_worker.rb, app/workers/world_location_news_page_worker.rb, lib/locale.rb, lib/localised_model.rb, lib/publish_static_pages.rb, lib/url_to_subscriber_list_criteria.rb, lib/whitehall/data_migration.rb, lib/whitehall/document_filter/options.rb, lib/whitehall/filter_option.rb, lib/whitehall/whip_organisation.rb]","[app/controllers/world_locations_controller.rb]","0.012345679","1.0","[3a62c4ab4549cb13f13691ce3d3194ff66fcd437, 4b825f4b2fb7ff4f82c6c3bfff76cb869d755904]","12.399 seconds","5.0.4","[cucumber-rails, simplecov, factory_girl]","20","[]","21","32","[app/controllers/admin/offsite_links_controller.rb, app/controllers/admin/world_locations_controller.rb, app/controllers/admin/worldwide_organisations_controller.rb, app/controllers/api/world_locations_controller.rb, app/controllers/world_location_news_controller.rb, app/controllers/world_locations_controller.rb, app/helpers/email_signup_helper.rb, app/helpers/filter_routes_helper.rb, app/helpers/public_document_routes_helper.rb, app/presenters/publication_filter_json_presenter.rb, app/services/service_listeners/author_notifier.rb, app/views/admin/offsite_links/_form.html.erb, app/views/admin/offsite_links/edit.html.erb, app/views/admin/shared/_default_news_image_fields.html.erb, app/views/admin/world_locations/show.html.erb, app/views/admin/worldwide_organisations/_form.html.erb, app/views/admin/worldwide_organisations/_sidebar.html.erb, app/views/admin/worldwide_organisations/new.html.erb, app/views/contacts/_contact.html.erb, app/views/shared/_available_languages.html.erb, app/views/shared/_featured.html.erb, app/views/shared/_featured_links.html.erb, app/views/shared/_feeds.html.erb, app/views/shared/_heading.html.erb, app/views/shared/_list_description.html.erb, app/views/shared/_recently_updated.html.erb, app/views/shared/_recently_updated_documents.html.erb, app/views/world_location_news/index.html.erb, app/views/world_locations/_world_location.html.erb, app/views/world_locations/index.html.erb, app/views/world_locations/show.html.erb, app/views/worldwide_organisations/_worldwide_organisation.html.erb]","true","0.05882352935570934","8","[path:features/news-article.feature, text:I should see the news article listed in admin with an indication that it is in French], [path:features/news-article.feature, text:I publish the French-only news article], [path:features/world-locations.feature, text:I should see the featured items of the international delegation ""Jamestopia"" are:], [path:features/world-locations.feature, text:I should see the edit offsite link ""Offsite Thing"" on the ""Jamestopia"" international delegation page], [path:features/world-locations.feature, text:I should see the following world locations grouped under ""E"" in order:], [path:features/world-locations.feature, text:I should see the following world locations grouped under ""S"" in order:], [path:features/world-locations.feature, text:I should see the following international delegations in order:], [path:features/worldwide-organisations.feature, text:I should see the worldwide location name ""France"" on the worldwide organisation page]","0",""
"whitehall","855","[17-08-2017]","1","1","[Remove legacy Speech type ‘ImportedAwaitingType’  This SpeechType was added in 2012 (https://github.com/alphagov/whitehall/commit/bdbc7ac299cc5b73924c235b8f13bcb814b61345) for the purpose of importing Speeches from an outside source and is fine to remove now. We do not ‘import’ Speeches anymore and there are no Speeches left in the prod db with this SpeechType, so all of this is redundant code.  Checked the db with:  ``` Speech.all.map { |s| s.speech_type.singular_name }.uniq.sort => [""Authored article"", ""Draft text"", ""Oral statement to Parliament"", ""Speaking notes"", ""Transcript"", ""Written statement to Parliament""] ``` ]","1","2","2","0","0","[stubs, returns, gsub, create, gsub, create, has_css?, find, visible?, select_option, find_field, evaluate_script, execute_script, to_json]","0","","0","","0","","0","","0","","[]","","0","8","4","[app/models/edition.rb, app/models/frontend/statistics_announcements_filter.rb, app/models/organisation.rb, app/models/speech_type.rb, app/models/user.rb, app/presenters/api/paginator.rb, app/workers/world_location_news_page_worker.rb, lib/whitehall/document_filter/options.rb]","[app/helpers/admin/editions_helper.rb, app/models/speech.rb, app/models/speech_type.rb, app/views/admin/speeches/_form.html.erb]","0.125","0.25","[a7ea0d92536e7a5727732570e1a2d0b787a231c2]","2.940 seconds","4.2.8","[cucumber-rails, simplecov, factory_girl]","2","[]","0","0","[]","false","0.20833333333333331","0","","0",""
"whitehall","862","[18-09-2017]","1","4","[Merge pull request #3446 from alphagov/email-alert-api-signup-journey  Use email-alert-api instead of govuk-delivery for email subscriptions, Remove references to govuk_delivery , Don’t explicitly trigger email alerts on publish  email-alert-api is now sending Whitehall emails on publish, so we don’t need to explicitly trigger these from Whitehall anymore. , Use email-alert-api to find/create subscriber lists  We’re retiring govuk-delivery so are switching to email-alert-api to handle subscriptions. ]","1","10","10","1","1","[click_link, send, click_on, content_store_has_item, content_store_has_item, find, visible?, select_option, find_field, evaluate_script, execute_script, to_json, within, tap, assert_equal, lambda, stubs, website_uri, create, captures, raise, create_org_and_stub_content_store, ago, is_a?, values, merge, see_all_link, returns, gsub, see_all_link, worldwide_organisation]","0","","0","","0","","0","","0","","[app/workers/email_alert_api_signup_worker.rb, lib/email_topic_checker.rb, lib/whitehall/gov_uk_delivery.rb, lib/whitehall/gov_uk_delivery/email_formatter.rb, lib/whitehall/gov_uk_delivery/feed_url_validator.rb, lib/whitehall/gov_uk_delivery/notifier.rb, lib/whitehall/gov_uk_delivery/subscription_url_generator.rb, lib/whitehall/gov_uk_delivery/worker.rb]","[app/views/govuk_component/_beta_label.html.erb, app/views/topical_events/_document_list.html.erb, app/views/topics/_document_list.html.erb, atom, content_item_for_base, polymorphic]","6","78","3","[app/controllers/admin/about_pages_controller.rb, app/controllers/admin/organisations_controller.rb, app/controllers/admin/publications_controller.rb, app/controllers/admin/topical_events_controller.rb, app/controllers/admin/topics_controller.rb, app/controllers/admin/world_locations_controller.rb, app/controllers/announcements_controller.rb, app/controllers/api/organisations_controller.rb, app/controllers/api/world_locations_controller.rb, app/controllers/organisations_controller.rb, app/controllers/publications_controller.rb, app/controllers/topical_events_controller.rb, app/controllers/topics_controller.rb, app/controllers/world_locations_controller.rb, app/helpers/email_signup_helper.rb, app/helpers/filter_routes_helper.rb, app/helpers/public_document_routes_helper.rb, app/models/classification.rb, app/models/detailed_guide.rb, app/models/document_collection_group.rb, app/models/edition.rb, app/models/email_signup.rb, app/models/feature.rb, app/models/feature_list.rb, app/models/frontend/statistics_announcements_filter.rb, app/models/ministerial_role.rb, app/models/news_article_type.rb, app/models/offsite_link.rb, app/models/organisation.rb, app/models/person.rb, app/models/policy.rb, app/models/publication_type.rb, app/models/role.rb, app/models/speech_type.rb, app/models/topic.rb, app/models/topical_event.rb, app/models/user.rb, app/models/world_location.rb, app/models/world_location_type.rb, app/models/worldwide_office_type.rb, app/models/worldwide_service_type.rb, app/presenters/api/paginator.rb, app/presenters/edition_collection_presenter.rb, app/presenters/feature_presenter.rb, app/presenters/person_presenter.rb, app/services/service_listeners/author_notifier.rb, app/views/announcements/index.html.erb, app/views/classifications/_classification_featuring.html.erb, app/views/contacts/_contact.html.erb, app/views/documents/_filter_form.html.erb, app/views/documents/_filter_results.html.erb, app/views/organisations/_index_section.html.erb, app/views/organisations/_organisations_name_list.html.erb, app/views/organisations/index.html.erb, app/views/publications/index.html.erb, app/views/shared/_available_languages.html.erb, app/views/shared/_featured.html.erb, app/views/shared/_featured_links.html.erb, app/views/shared/_feeds.html.erb, app/views/shared/_heading.html.erb, app/views/shared/_list_description.html.erb, app/views/shared/_recently_updated.html.erb, app/views/shared/_recently_updated_documents.html.erb, app/views/shared/_social_media_accounts.html.erb, app/views/topical_events/show.html.erb, app/views/topics/show.html.erb, app/views/world_locations/show.html.erb, app/views/worldwide_organisations/_worldwide_organisation.html.erb, app/workers/world_location_news_page_worker.rb, lib/data_hygiene/policy_tagger.rb, lib/data_hygiene/publishing_api_sync_check.rb, lib/sync_checker/failure.rb, lib/sync_checker/formats/html_attachment_check.rb, lib/url_to_subscriber_list_criteria.rb, lib/whitehall/decorators/collection_decorator.rb, lib/whitehall/document_filter/options.rb, lib/whitehall/filter_option.rb, lib/whitehall/whip_organisation.rb]","[app/models/email_signup.rb, app/models/email_signup/feed_url_validator.rb, lib/whitehall.rb]","0.0128205128","0.3333333333","[a53f622a3e8fb5aa296bc532ae0d48a29e614a38, 085965a53c1d5367ff1ed6ee95de0857ff9bc86b, 8e7164daac3be49572f19b6f5ffbf7abff824297, 8c935a96b8e6737af44fee994af0b8196bc2064f]","10.738 seconds","5.0.4","[cucumber-rails, simplecov, factory_girl]","10","[{path=alphagov_whitehall/features/step_definitions/person_steps.rb, line=-1}]","22","40","[app/controllers/admin/about_pages_controller.rb, app/controllers/admin/organisations_controller.rb, app/controllers/admin/publications_controller.rb, app/controllers/admin/topical_events_controller.rb, app/controllers/admin/topics_controller.rb, app/controllers/admin/world_locations_controller.rb, app/controllers/announcements_controller.rb, app/controllers/api/organisations_controller.rb, app/controllers/api/world_locations_controller.rb, app/controllers/organisations_controller.rb, app/controllers/publications_controller.rb, app/controllers/topical_events_controller.rb, app/controllers/topics_controller.rb, app/controllers/world_locations_controller.rb, app/helpers/email_signup_helper.rb, app/helpers/filter_routes_helper.rb, app/helpers/public_document_routes_helper.rb, app/services/service_listeners/author_notifier.rb, app/views/announcements/index.html.erb, app/views/classifications/_classification_featuring.html.erb, app/views/contacts/_contact.html.erb, app/views/documents/_filter_form.html.erb, app/views/documents/_filter_results.html.erb, app/views/organisations/_index_section.html.erb, app/views/organisations/_organisations_name_list.html.erb, app/views/organisations/index.html.erb, app/views/publications/index.html.erb, app/views/shared/_available_languages.html.erb, app/views/shared/_featured.html.erb, app/views/shared/_featured_links.html.erb, app/views/shared/_feeds.html.erb, app/views/shared/_heading.html.erb, app/views/shared/_list_description.html.erb, app/views/shared/_recently_updated.html.erb, app/views/shared/_recently_updated_documents.html.erb, app/views/shared/_social_media_accounts.html.erb, app/views/topical_events/show.html.erb, app/views/topics/show.html.erb, app/views/world_locations/show.html.erb, app/views/worldwide_organisations/_worldwide_organisation.html.erb]","true","0.05555555547777778","0","","0",""
"whitehall","884","[11-08-2017, 15-08-2017]","5","19","[Moves needs assignment to the document level  Following the switch to getting needs from the Publishing API instead of the Needs API, we are now deprecating the use of the needs_id column in the Editions table. We're also associating needs with the content_id of the document, so it makes sense to move that functionality at the document level wherever possible to keep things cleanly separated. Previously this was being done at the Edition level.  There is no show/edit page for documents in Whitehall, so the ""Edit needs"" form can be reached by clicking the ""Add/remove needs"" button on the Edition show page. This form had previously been on the Edition edit page, but has now been moved in order to avoid having to create a new draft every time you want to add/remove needs.  This was decided because we want to bypass the whole edition workflow of creating a draft, publishing etc. The Edition show page was the only viable page to place the form for this purpose. , Use `Services` module for [TOO_LONG]","2","1","1","3","3","[create, attachments, click_link, record_css_selector, has_css?, click_on, click_button, assert_equal, find, visible?, select_option, find_field, evaluate_script, execute_script, to_json]","0","","0","","0","","0","","0","","[]","","0","15","28","[app/controllers/admin/editions_controller.rb, app/helpers/admin/edition_routes_helper.rb, app/models/attachment.rb, app/models/corporate_information_page_type.rb, app/models/email_signup_pages_finder.rb, app/models/frontend/statistics_announcements_filter.rb, app/models/organisation_brand_colour.rb, app/models/organisation_logo_type.rb, app/models/policy.rb, app/presenters/api/paginator.rb, app/presenters/embassy_presenter.rb, app/views/admin/editions/_filter_options.html.erb, app/views/admin/editions/_search_results.html.erb, app/views/admin/editions/index.html.erb, lib/whitehall/document_filter/options.rb]","[app/controllers/admin/editions_controller.rb, app/controllers/admin/needs_controller.rb, app/helpers/admin/taggable_content_helper.rb, app/models/detailed_guide.rb, app/models/document.rb, app/models/document/needs.rb, app/models/edition.rb, app/presenters/publishing_api/base_item_presenter.rb, app/presenters/publishing_api/coming_soon_presenter.rb, app/presenters/publishing_api/html_attachment_presenter.rb, app/presenters/publishing_api/ministerial_role_presenter.rb, app/presenters/publishing_api/organisation_presenter.rb, app/presenters/publishing_api/person_presenter.rb, app/presenters/publishing_api/policy_area_placeholder_presenter.rb, app/presenters/publishing_api/services_and_information_presenter.rb, app/presenters/publishing_api/statistics_announcement_presenter.rb, app/presenters/publishing_api/take_part_presenter.rb, app/presenters/publishing_api/topical_event_about_page_presenter.rb, app/presenters/publishing_api/topical_event_presenter.rb, app/presenters/publishing_api/working_group_presenter.rb, app/presenters/publishing_api/world_location_news_page_presenter.rb, app/presenters/publishing_api/world_location_presenter.rb, app/presenters/publishing_api/worldwide_organisation_presenter.rb, app/views/admin/detailed_guides/_form.html.erb, app/views/admin/editions/_need.html.erb, app/views/admin/editions/_show_metadata.html.erb, app/views/admin/needs/edit.html.erb, lib/services.rb]","0.0666666667","0.0357142857","[bf0d1be9f3f72d512963eb3753c027134012b033, a24867515d1b2d39d9dd71dfa0c8e801f5d73fef, f8be1c236d6cabaaf53dd563d1c0eb9d290ff636, 664a4e5cc15abec31fc7075b89f1a2bf06674e2d, ebd1f01b5cf972c1f1ec8f4171eda355c7de8928, debd61f7f98f7c535424a87e30d51c4f584d8aaa, b7c56e63f433f20e21d2b8ba1120fe1efbe122b7, 396fd23b2794b84a813466bbe3bca0daedc10273, 230902ddcf7df480e74a7e596c117af3f05ab12e, bb1fc4c861a2b67309afe379d229e2550d001e6b, 9f557118db78a4c7586ca145988b5cc5c8b236d5, 7435c6a14fd9fc844828d424d6878194bafc8f07, 111e5cc634c5ea9acdb10789e3b52aec86140e3b, 438cd6c8b7e904183ecc46e0546d525dd2640851, 305f4faf488b97ddd7f4d234a82576fd070346fb, ab4fe9978e2895256a2de13eff48233e042554ec, d51829740c8196d5b5e3225fc7dd00076fefd25a, 0aedd243b395cc49820e0372f7e220eba8f9ab2a, 2514feb85c4a070cffbf3fe8a6eb570393fe4bfc]","3.552 seconds","4.2.8","[cucumber-rails, simplecov, factory_girl]","1","[]","3","5","[app/controllers/admin/editions_controller.rb, app/helpers/admin/edition_routes_helper.rb, app/views/admin/editions/_filter_options.html.erb, app/views/admin/editions/_search_results.html.erb, app/views/admin/editions/index.html.erb]","false","0.03937007872859445","1","[path:features/edition-needs.feature, text:I should see the first need in the list of associated needs]","0",""
"whitehall","905","[04-08-2017, 07-08-2017]","4","2","[Merge pull request #3376 from alphagov/link-draft-attachments-to-draft-stack  Link admin attachments partial to full url, Link admin attachments partial to full url  This will link the document either to the draft stack or the live site. Without it, it would link to whitehall-frontend. Add a feature test for this and remove unused step definitions. ]","2","1","1","2","2","[create, click_button, begin_drafting_document, fill_in_publication_fields, click, click_on, fill_in, check, has_css?, has_link?]","0","","0","","0","","0","","0","","[]","","0","6","1","[app/models/edition.rb, app/models/frontend/statistics_announcements_filter.rb, app/models/speech_type.rb, app/models/user.rb, app/presenters/api/paginator.rb, lib/whitehall/document_filter/options.rb]","[app/views/admin/attachments/_attachments.html.erb]","0.0","0.0","[dcda55d77fd39ceb6d784aa7726c54d4dea47960, b7df381cb253e87cf6cc70c956074f8100d92cf0]","1.663 seconds","4.2.8","[cucumber-rails, simplecov, factory_girl]","0","[]","0","0","[]","true","0.0","0","","0",""
"whitehall","913","[03-08-2017]","1","14","[Remove remaining features that are view tests for #show  These features don’t interact with Whitehall admin, they directly set up data then visit the publications#show page to assert things.  This page is now being served by government frontend so these feature can be removed. , Remove a PDF attachment test that’s covered elsewhere  Attachments are far more thoroughly tested in features/edition-attachments.feature. The feature we removed relied on publications#show which no longer exists. , Re-work ‘world locations’ feature after removing publications#show  We converted this to an admin feature that checks the data has been updated correctly in the database. , Re-work ‘stat. data sets’ feature after removing publications#show  We converted this to an admin feature that checks the data has been updated correctly in the database. , Re-work ‘excluded nations’ feature after removing publications#show  We converted this to an admin feature that checks the data has been updated correctly i [TOO_LONG]","1","14","14","18","18","[create, click_button, content_store_has_item, begin_drafting_document, fill_in_publication_fields, find, visible?, select_option, current_url, click_link, find_field, evaluate_script, execute_script, to_json, click_on, fill_in, see_all_link, nil?, record_css_selector, has_css?, gsub, find_by, has_css?, within, has_no_css?, create_org_and_stub_content_store, logout, stubs, returns, world_locations, assert_equal, attachments, click_button, attachments, becomes, record_css_selector, attach_file, attachments, reload, assert_not_equal, reload, begin_drafting_document, fill_in_publication_fields, statistical_data_sets, raw, flatten, check, raw, flatten, nation_inapplicabilities, choose, document, publication_url, current_state, assert_equal, unpublishing, document, alternative_url, end_with?, editorial_remarks, explanation, redirect, block_given?, published_edition, create, attachments, fill_in, click_button, update!, print_meta_data_contact_address, isbn, web_isbn]","0","","0","","0","","0","","0","","[app/views/documents/_attachment_full_width.html.erb, app/views/publications/show.html.erb, app/views/statistics/show.html.erb]","[app/views/admin/publications/_appointment_fields.html.erb, app/views/admin/publications/_first_published_at.html.erb, app/views/admin/publications/_html_version_fields.html.erb, app/views/admin/publications/_inline_attachments_info.html.erb, app/views/admin/publications/_nation_fields.html.erb, app/views/admin/publications/_organisation_fields.html.erb, app/views/admin/publications/_publication_type_fields.html.erb, app/views/admin/publications/_specialist_sector_fields.html.erb, app/views/admin/publications/_statistical_data_set_fields.html.erb, app/views/admin/publications/_topic_fields.html.erb, app/views/admin/publications/_topical_event_fields.html.erb, app/views/admin/publications/_world_location_fields.html.erb, app/views/attachments/_url.html.erb, app/views/govuk_component/_beta_label.html.erb, app/views/topical_events/_document_list.html.erb, app/views/topics/_document_list.html.erb, atom]","17","101","2","[app/controllers/admin/about_pages_controller.rb, app/controllers/admin/attachments_controller.rb, app/controllers/admin/organisations_controller.rb, app/controllers/admin/preview_controller.rb, app/controllers/admin/publications_controller.rb, app/controllers/admin/topical_events_controller.rb, app/controllers/admin/topics_controller.rb, app/controllers/attachments_controller.rb, app/controllers/topical_events_controller.rb, app/controllers/topics_controller.rb, app/helpers/admin/edition_routes_helper.rb, app/helpers/email_signup_helper.rb, app/helpers/govspeak_helper.rb, app/helpers/public_document_routes_helper.rb, app/models/admin/edition_filter.rb, app/models/admin/statistics_announcement_filter.rb, app/models/attachment.rb, app/models/attachment_data.rb, app/models/attachment_visibility.rb, app/models/classification.rb, app/models/classification_featuring.rb, app/models/corporate_information_page.rb, app/models/detailed_guide.rb, app/models/document.rb, app/models/document_history.rb, app/models/edition.rb, app/models/edition/alternative_format_provider.rb, app/models/edition/related_policies.rb, app/models/external_attachment.rb, app/models/featured_policy.rb, app/models/frontend/statistics_announcements_filter.rb, app/models/government.rb, app/models/has_corporate_information_pages.rb, app/models/html_attachment.rb, app/models/image.rb, app/models/nation.rb, app/models/organisation.rb, app/models/person.rb, app/models/publication.rb, app/models/response.rb, app/models/sitewide_setting.rb, app/models/speech_type.rb, app/models/topical_event.rb, app/models/unpublishing.rb, app/models/user.rb, app/presenters/api/paginator.rb, app/presenters/document_list_export_presenter.rb, app/presenters/edition_collection_presenter.rb, app/presenters/edition_presenter_helper.rb, app/presenters/email_signup_information_presenter.rb, app/presenters/feature_presenter.rb, app/presenters/featured_policies_presenter.rb, app/presenters/promotional_feature_item_presenter.rb, app/presenters/publishing_api/case_study_presenter.rb, app/presenters/publishing_api/consultation_presenter.rb, app/presenters/publishing_api/corporate_information_page_presenter.rb, app/presenters/publishing_api/detailed_guide_presenter.rb, app/presenters/publishing_api/html_attachment_presenter.rb, app/presenters/publishing_api/news_article_presenter.rb, app/presenters/publishing_api/payload_builder/tag_details.rb, app/presenters/publishing_api/publication_presenter.rb, app/presenters/publishing_api/speech_presenter.rb, app/presenters/publishing_api/take_part_presenter.rb, app/presenters/publishing_api/topical_event_about_page_presenter.rb, app/presenters/publishing_api/working_group_presenter.rb, app/presenters/publishing_api/world_location_news_page_presenter.rb, app/presenters/role_presenter.rb, app/services/service_listeners/author_notifier.rb, app/views/admin/organisations/_form.html.erb, app/views/admin/organisations/_sidebar.html.erb, app/views/admin/organisations/edit.html.erb, app/views/admin/publications/_form.html.erb, app/views/admin/publications/_required_fields_for_imported_editions.html.erb, app/views/admin/publications/_subtype_fields.html.erb, app/views/admin/shared/_default_news_image_fields.html.erb, app/views/admin/shared/_featured_link_fields.html.erb, app/views/admin/shared/_policy_fields.html.erb, app/views/attachments/_truncated_message.html.erb, app/views/attachments/preview.html.erb, app/views/classifications/_classification_featuring.html.erb, app/views/organisations/_organisations_name_list.html.erb, app/views/shared/_featured_links.html.erb, app/views/shared/_feeds.html.erb, app/views/shared/_heading.html.erb, app/views/shared/_recently_updated.html.erb, app/views/shared/_recently_updated_documents.html.erb, app/views/shared/_social_media_accounts.html.erb, app/views/topical_events/show.html.erb, app/views/topics/show.html.erb, app/workers/world_location_news_page_worker.rb, lib/data_hygiene/policy_tagger.rb, lib/sync_checker/checks/html_attachment_unpublished_check.rb, lib/sync_checker/formats/html_attachment_check.rb, lib/taxonomy/taxon.rb, lib/whitehall.rb, lib/whitehall/carrier_wave/sanitized_file.rb, lib/whitehall/data_migration.rb, lib/whitehall/document_filter/options.rb, lib/whitehall/document_filter/rummager.rb, lib/whitehall/feed_url_builder.rb, lib/whitehall/gov_uk_delivery/email_formatter.rb]","[app/controllers/publications_controller.rb, app/controllers/statistics_controller.rb]","0.0","0.0","[69ebea7e11dbf0654b6fd7cbc26936afce411e7b, 40a72a8a4ba95d762dcd05b0046d73d1ec44982a, ecae233a733dd03f12e40d1d689314a81b04effd, 112aae9e059e0aa7531a91cc09384ad71c8cd8bd, 7e94ac88290b0a387d8e835a17431e218d28437e, ed038457ef6d0c7a9b40c89f56a6c026dc6bc450, 956db0fe67a209cc1a3f9f09f4a76184d286a5ed, a9eabf2f5eed92f72b042a0d5525ff8d3ac3aa9e, 4951deb1862febd19439eaa5ba4b0cb39d43f7c2, ed84b3c43d8786295aab373b99ba377cc0036fdb, ffdee4860a5ca7e6bf9edaf5a195904b2de2f098, abee1a7c61e17059457e8b253f521771b47378e3, 6064b71e517bbc26f941ac29a4498aadb1be7a01, b222692e9eca6ee82fe0013cc549f8cc8c86bde3]","10.433 seconds","4.2.8","[cucumber-rails, simplecov, factory_girl]","16","[{path=alphagov_whitehall/features/support/attachment_helper.rb, line=38}]","21","34","[app/controllers/admin/about_pages_controller.rb, app/controllers/admin/attachments_controller.rb, app/controllers/admin/organisations_controller.rb, app/controllers/admin/publications_controller.rb, app/controllers/admin/topical_events_controller.rb, app/controllers/admin/topics_controller.rb, app/controllers/attachments_controller.rb, app/controllers/topical_events_controller.rb, app/controllers/topics_controller.rb, app/helpers/admin/edition_routes_helper.rb, app/helpers/email_signup_helper.rb, app/helpers/public_document_routes_helper.rb, app/services/service_listeners/author_notifier.rb, app/views/admin/organisations/_form.html.erb, app/views/admin/organisations/_sidebar.html.erb, app/views/admin/organisations/edit.html.erb, app/views/admin/publications/_form.html.erb, app/views/admin/publications/_required_fields_for_imported_editions.html.erb, app/views/admin/publications/_subtype_fields.html.erb, app/views/admin/shared/_default_news_image_fields.html.erb, app/views/admin/shared/_featured_link_fields.html.erb, app/views/admin/shared/_policy_fields.html.erb, app/views/attachments/_truncated_message.html.erb, app/views/attachments/preview.html.erb, app/views/classifications/_classification_featuring.html.erb, app/views/organisations/_organisations_name_list.html.erb, app/views/shared/_featured_links.html.erb, app/views/shared/_feeds.html.erb, app/views/shared/_heading.html.erb, app/views/shared/_recently_updated.html.erb, app/views/shared/_recently_updated_documents.html.erb, app/views/shared/_social_media_accounts.html.erb, app/views/topical_events/show.html.erb, app/views/topics/show.html.erb]","false","0.0","2","[path:features/topical_events.feature, text:I should see the publication ""A speech"" in the publications section of the topical event ""An Event""], [path:features/edition-attachments.feature, text:I publish the draft edition for publication ""Standard Beard Lengths""]","0",""
"whitehall","941","[30-06-2017, 03-07-2017, 05-07-2017, 07-07-2017, 10-07-2017]","11","15","[Merge pull request #3334 from alphagov/remove-consultation-templates-redux  Remove consultation templates redux, Switch Consultation rendering app to government-frontend , Revert ""Revert ""Remove Consultation presentation""""  This reverts commit ab68597dbe013962c46a4209d43f9e67eb3f0a1f. , Merge pull request #3332 from alphagov/delete-migrated-formats-frontend  Delete frontend parts of case studies, Remove case study from canonicalisation test  * This logic doesn’t need to be handled by Whitehall * Note: government-frontend doesn’t do this redirect: https://www.gov.uk/government/case-studies/bis-criminal-prosecutions?loc ale=en , Delete frontend parts of case studies  * Case studies are rendered by government-frontend * The template and controller aren’t used * The route is still used to generate the case study base_path , Merge pull request #3330 from alphagov/correctly-redirect-world-atom-feeds  Correctly redirect world atom feeds, Correctly redirect world atom feeds  This commit adds [TOO_LONG]","6","4","4","1","1","[create, click_link, click_button, record_css_selector, has_css?, gsub, find_by, has_css?, fill_in, within, has_no_css?, attach_file, content_store_has_item, from_now, select_date, find, visible?, select_option, click, choose, find_field, evaluate_script, execute_script, to_json, see_all_link]","0","","0","","0","","0","","0","","[app/controllers/case_studies_controller.rb, app/helpers/consultations_helper.rb, app/views/case_studies/_document_sidebar.html.erb, app/views/case_studies/show.html.erb, app/views/consultations/_document_summary.html.erb, app/views/consultations/show.html.erb]","[app/views/admin/consultations/_appointment_fields.html.erb, app/views/admin/consultations/_html_version_fields.html.erb, app/views/admin/consultations/_inline_attachments_info.html.erb, app/views/admin/consultations/_nation_fields.html.erb, app/views/admin/consultations/_organisation_fields.html.erb, app/views/admin/consultations/_specialist_sector_fields.html.erb, app/views/admin/consultations/_topic_fields.html.erb, app/views/admin/consultations/_topical_event_fields.html.erb, app/views/govuk_component/_beta_label.html.erb, app/views/topical_events/_document_list.html.erb, app/views/topics/_document_list.html.erb, atom]","12","78","8","[app/controllers/admin/about_pages_controller.rb, app/controllers/admin/consultations_controller.rb, app/controllers/admin/dashboard_controller.rb, app/controllers/admin/edition_workflow_controller.rb, app/controllers/admin/editions_controller.rb, app/controllers/admin/find_in_admin_bookmarklet_controller.rb, app/controllers/admin/topical_events_controller.rb, app/controllers/admin/topics_controller.rb, app/controllers/topical_events_controller.rb, app/controllers/topics_controller.rb, app/helpers/admin/edition_routes_helper.rb, app/helpers/email_signup_helper.rb, app/helpers/public_document_routes_helper.rb, app/models/admin/edition_filter.rb, app/models/admin/statistics_announcement_filter.rb, app/models/attachment.rb, app/models/classification.rb, app/models/classification_featuring.rb, app/models/consultation.rb, app/models/corporate_information_page.rb, app/models/detailed_guide.rb, app/models/document.rb, app/models/edition.rb, app/models/feature.rb, app/models/feature_list.rb, app/models/featured_policy.rb, app/models/frontend/statistics_announcements_filter.rb, app/models/offsite_link.rb, app/models/organisation.rb, app/models/person.rb, app/models/role.rb, app/models/sitewide_setting.rb, app/models/speech_type.rb, app/models/topic.rb, app/models/topical_event.rb, app/models/user.rb, app/models/world_location.rb, app/presenters/api/paginator.rb, app/presenters/email_signup_information_presenter.rb, app/presenters/feature_presenter.rb, app/presenters/promotional_feature_item_presenter.rb, app/presenters/publishing_api/world_location_news_page_presenter.rb, app/presenters/role_presenter.rb, app/services/service_listeners/author_notifier.rb, app/views/admin/consultations/_additional_significant_fields.html.erb, app/views/admin/consultations/_date_fields.html.erb, app/views/admin/consultations/_first_published_at.html.erb, app/views/admin/consultations/_form.html.erb, app/views/admin/consultations/_required_fields_for_imported_editions.html.erb, app/views/admin/dashboard/_document_table.html.erb, app/views/admin/dashboard/index.html.erb, app/views/admin/editions/_filter_options.html.erb, app/views/admin/editions/_search_results.html.erb, app/views/admin/editions/index.html.erb, app/views/admin/find_in_admin_bookmarklet/_bookmarklet.erb, app/views/admin/find_in_admin_bookmarklet/ie.html.erb, app/views/admin/find_in_admin_bookmarklet/index.html.erb, app/views/admin/find_in_admin_bookmarklet/other.html.erb, app/views/admin/shared/_policy_fields.html.erb, app/views/classifications/_classification_featuring.html.erb, app/views/organisations/_organisations_name_list.html.erb, app/views/shared/_featured_links.html.erb, app/views/shared/_feeds.html.erb, app/views/shared/_heading.html.erb, app/views/shared/_recently_updated.html.erb, app/views/shared/_recently_updated_documents.html.erb, app/views/shared/_social_media_accounts.html.erb, app/views/topical_events/show.html.erb, app/views/topics/show.html.erb, app/workers/publishing_api_corporate_information_pages_worker.rb, app/workers/publishing_api_html_attachments_worker.rb, app/workers/publishing_api_publications_worker.rb, lib/data_hygiene/publishing_api_sync_check.rb, lib/publish_static_pages.rb, lib/sync_checker/failure.rb, lib/whitehall/data_migration.rb, lib/whitehall/decorators/collection_decorator.rb, lib/whitehall/document_filter/options.rb]","[app/controllers/consultations_controller.rb, app/controllers/world_location_news_controller.rb, app/controllers/world_locations_controller.rb, app/helpers/cache_control_helper.rb, app/models/consultation.rb, app/models/world_location_news_translation.rb, app/views/world_location_news/index.html.erb, app/views/world_locations/index.html.erb]","0.0128205128","0.125","[e998dc6b9a17f14861427f5f3bdace2672d5cd68, 4f9d5d130c426b87894d681176af1510e8d56aeb, e546a3114397d0317cbbe59cf1c80dac618419d4, a3feb7d3a89f1bb9c87ed6f859c67d76b5739f94, d3ee9a35ebff9db8e4baf7c030428326f1d0ab23, 3160bb7e3c596bf78143923f5c654d1982ec4a99, e44eda767b7336121caa779aa4c700b576796ac9, 0d7f3167e8614390c17509db9145be2722a458e5, f1df1b17543e71c9d4b2aac150018fb650041ad3, 8f5bcd6b93eeecde3a69e993bb4198a497b2c067, 3b7e1790a5f5a23845c7f61ab52c35a99fc83cbc, a110e90e9d95202384d92046b6932a3cbea0da2c, 175e4245ea67b336dec1e8a21bb58d628bfe3af0, 4a7af4e0b054e3c76a5ee255af28e7c046281c0d, ef12560cfe90258b7a1a0993762c8f13d197c037]","6.242 seconds","4.2.8","[cucumber-rails, simplecov, factory_girl]","4","[]","25","38","[app/controllers/admin/about_pages_controller.rb, app/controllers/admin/consultations_controller.rb, app/controllers/admin/dashboard_controller.rb, app/controllers/admin/editions_controller.rb, app/controllers/admin/find_in_admin_bookmarklet_controller.rb, app/controllers/admin/topical_events_controller.rb, app/controllers/admin/topics_controller.rb, app/controllers/topical_events_controller.rb, app/controllers/topics_controller.rb, app/helpers/admin/edition_routes_helper.rb, app/helpers/email_signup_helper.rb, app/helpers/public_document_routes_helper.rb, app/services/service_listeners/author_notifier.rb, app/views/admin/consultations/_additional_significant_fields.html.erb, app/views/admin/consultations/_date_fields.html.erb, app/views/admin/consultations/_first_published_at.html.erb, app/views/admin/consultations/_form.html.erb, app/views/admin/consultations/_required_fields_for_imported_editions.html.erb, app/views/admin/dashboard/_document_table.html.erb, app/views/admin/dashboard/index.html.erb, app/views/admin/editions/_filter_options.html.erb, app/views/admin/editions/_search_results.html.erb, app/views/admin/editions/index.html.erb, app/views/admin/find_in_admin_bookmarklet/_bookmarklet.erb, app/views/admin/find_in_admin_bookmarklet/ie.html.erb, app/views/admin/find_in_admin_bookmarklet/index.html.erb, app/views/admin/find_in_admin_bookmarklet/other.html.erb, app/views/admin/shared/_policy_fields.html.erb, app/views/classifications/_classification_featuring.html.erb, app/views/organisations/_organisations_name_list.html.erb, app/views/shared/_featured_links.html.erb, app/views/shared/_feeds.html.erb, app/views/shared/_heading.html.erb, app/views/shared/_recently_updated.html.erb, app/views/shared/_recently_updated_documents.html.erb, app/views/shared/_social_media_accounts.html.erb, app/views/topical_events/show.html.erb, app/views/topics/show.html.erb]","true","0.0454545454029752","2","[path:features/consultations.feature, text:I should see the consultation ""Beard Length Review"" in the list of published documents], [path:features/topical_events.feature, text:I should see the consultation ""A Consultation"" in the consultations section of the topical event ""An Event""]","0",""
"whitehall","964","[01-06-2017, 02-06-2017]","2","3","[Add test for email signup for News articles  News articles can be associated to WorldLocations and emails do already get sent when a user is signed up to a WorldLocation and a NewsArticle (for any subtype, including 'World news story') for that location is published. This commit adds a feature test for that. Note that the first_published date needs to be set for the test to pass, otherwise the `published_today?` method in the `GovUkDelivery::Notifier` class would fail. , Remove new and create routes for WorldLocationNewsArticles  Having removed the link from the drop down menu in the previous commit, we also remove the :new and :create routes, as a user could still have visited the URLs. We remove the relevant tests from the controller tests. , Remove option to create WorldLocationNewsArticle  Remove feature tests relevant to creating World Location News Articles. Remove the file 'non-english-world-location-news' and port over the remaining feature into the WorldLocationNewsArticle f [TOO_LONG]","1","1","1","1","1","[gsub, create, see_all_link, worldwide_organisation, click_on, within, mock, tap, stubs, any?, raise, is_a?, calls, website_uri, find_by, click_link, has_css?, fill_in, click_button, has_no_css?, today, begin_drafting_news_article, find, visible?, select_option, find_field, evaluate_script, execute_script, to_json]","0","","0","","0","","0","","0","","[]","[atom]","1","70","1","[app/controllers/admin/edition_workflow_controller.rb, app/controllers/admin/world_locations_controller.rb, app/controllers/api/world_locations_controller.rb, app/controllers/world_locations_controller.rb, app/helpers/email_signup_helper.rb, app/helpers/filter_routes_helper.rb, app/helpers/public_document_routes_helper.rb, app/models/admin/edition_filter.rb, app/models/admin/statistics_announcement_filter.rb, app/models/classification.rb, app/models/classification_featuring.rb, app/models/corporate_information_page.rb, app/models/document.rb, app/models/document_collection_group.rb, app/models/edition.rb, app/models/feature.rb, app/models/feature_list.rb, app/models/featured_policy.rb, app/models/frontend/statistics_announcements_filter.rb, app/models/news_article_type.rb, app/models/offsite_link.rb, app/models/organisation.rb, app/models/policy.rb, app/models/publication_type.rb, app/models/role.rb, app/models/speech_type.rb, app/models/user.rb, app/models/world_location.rb, app/models/world_location_type.rb, app/models/worldwide_office_type.rb, app/models/worldwide_service_type.rb, app/presenters/api/paginator.rb, app/presenters/email_signup_information_presenter.rb, app/presenters/feature_presenter.rb, app/presenters/promotional_feature_item_presenter.rb, app/presenters/role_presenter.rb, app/services/publish_finder.rb, app/services/service_listeners/author_notifier.rb, app/views/contacts/_contact.html.erb, app/views/shared/_available_languages.html.erb, app/views/shared/_featured.html.erb, app/views/shared/_featured_links.html.erb, app/views/shared/_feeds.html.erb, app/views/shared/_heading.html.erb, app/views/shared/_list_description.html.erb, app/views/shared/_recently_updated.html.erb, app/views/shared/_recently_updated_documents.html.erb, app/views/world_locations/show.html.erb, app/views/worldwide_organisations/_worldwide_organisation.html.erb, app/workers/email_alert_api_signup_worker.rb, app/workers/publishing_api_corporate_information_pages_worker.rb, app/workers/publishing_api_html_attachments_worker.rb, app/workers/publishing_api_publications_worker.rb, lib/data_hygiene/publishing_api_sync_check.rb, lib/long_life_redirect.rb, lib/publish_static_pages.rb, lib/sync_checker/checks/details_check.rb, lib/sync_checker/checks/html_attachment_unpublished_check.rb, lib/sync_checker/checks/links_check.rb, lib/sync_checker/checks/top_level_check.rb, lib/sync_checker/checks/topics_check.rb, lib/sync_checker/checks/translations_check.rb, lib/sync_checker/checks/unpublished_check.rb, lib/sync_checker/failure.rb, lib/whitehall.rb, lib/whitehall/decorators/collection_decorator.rb, lib/whitehall/document_filter/options.rb, lib/whitehall/filter_option.rb, lib/whitehall/new_relic_developer_mode.rb, lib/whitehall/whip_organisation.rb]","[app/helpers/admin/edition_actions_helper.rb]","0.0","0.0","[f1b211a0a3b8e1054ab8ff8b6fb76fd14399ef64, 3a295eb2f47ee997556d9375b58469f7e9b331f5, 144aab85a0b278ac60a725338c0edb32f9c93e67]","4.550 seconds","4.2.8","[cucumber-rails, simplecov, factory_girl]","2","[]","11","18","[app/controllers/admin/world_locations_controller.rb, app/controllers/api/world_locations_controller.rb, app/controllers/world_locations_controller.rb, app/helpers/email_signup_helper.rb, app/helpers/filter_routes_helper.rb, app/helpers/public_document_routes_helper.rb, app/services/service_listeners/author_notifier.rb, app/views/contacts/_contact.html.erb, app/views/shared/_available_languages.html.erb, app/views/shared/_featured.html.erb, app/views/shared/_featured_links.html.erb, app/views/shared/_feeds.html.erb, app/views/shared/_heading.html.erb, app/views/shared/_list_description.html.erb, app/views/shared/_recently_updated.html.erb, app/views/shared/_recently_updated_documents.html.erb, app/views/world_locations/show.html.erb, app/views/worldwide_organisations/_worldwide_organisation.html.erb]","false","0.0","1","[path:features/email-signup-for-world-locations.feature, text:I publish a news article ""More news"" for ""Best City""]","0",""
