"Repository","https://github.com/concord-consortium/rigse.git"
"TASK","HASH","RUBY","RAILS","COVERAGE","TESTS"
"59","a81e827724ca6a7dad1aa1faa1193063d910d1b3","","3.2.22","simplecov","features/teacher_manages_class.feature(50)"
"98","ec4667c5d2a25a7e5f9dee40e36ca11a222b09d0","","3.2.22","simplecov","features/admin_works_with_materials_collections.feature(59);features/teacher_manages_class.feature(74)"
"104","deb0a760bf1bdefbcc43a524ee1e5785aac93842","","3.2.22","","features/admin_switches.feature(12);features/admin_switches.feature(19);features/teacher_manages_class.feature(15);features/teacher_navigates_classes_using_left_pane.feature(15);features/teacher_navigates_classes_using_left_pane.feature(19);features/teacher_sees_project_specific_links.feature(20)"
"109","a5e3d4f584a477d1e1b447c070694d0421684327","","3.2.22","simplecov","features/admin_work_with_interactives.feature(37)"
"129","9409c646302362c7c963add563d271fbfdc8b8ae","","3.2.22","","features/activity_runtime_api/publish.feature(318)"
"133","f4df52e1d7bc4878839c4d8a387e4ad19f3c8af2","","3.2.22","","features/authors_can_filter_their_own_material.feature(11);features/authors_can_filter_their_own_material.feature(16);features/activity_runtime_api/publish.feature(318)"
"141","40e4be3416a9d08bb34b215ba8ee51bd5d02db4e","","3.2.22","","features/admin_accesses_special_pages.feature(12);features/admin_accesses_special_pages.feature(19)"
"155","9108a789fd01a4e048427ed0b5d8818e8de79be3","","3.2.22","","features/teacher_filters_instructional_materials.feature(71)"
"178","da57dc34f53b91d38ca98f39be0f99a32c709526","","3.2.22","","features/student_runs_jnlp.feature(11);features/teacher_runs_student_jnlp.feature(14)"
