"Repository","https://github.com/sharetribe/sharetribe.git"
"Tasks with empty IReal","0"
"Tasks with no-empty IReal","12"
"Tasks with relevant AST error","0"
"Tasks with AST error of Gherkin files","0"
"Tasks with AST error of StepDef files","0"
"Tasks with AST error of production files","0"
"Tasks with AST error of unit test files","0"
"Tasks with step match error","12"
"Tasks without required gems","0"
"Tasks with changed stepdef","8"
"Tasks with changed Gherkin","12"
"Tasks with implemented Gherkin scenarios","10"
"All invalid tasks","12"
"All valid tasks (Gherkin scenario, no empty IReal, no error)","0"
"Valid tasks, but empty ITest","0"
"Valid tasks, no empty ITest, but zero precision-recall","0"
"Valid tasks, no empty ITest, no zero precision-recall","0"
"Project","Task","Date","#Days","#Commits","Commit_Message","#Devs","#Gherkin_Tests","#Impl_Gherkin_Tests","#StepDef","#Impl_StepDef","Methods_Unknown_Type","#Step_Call","Step_Match_Errors","#Step_Match_Error","AST_Errors","#AST_Errors","Gherkin_AST_Errors","#Gherkin_AST_Errors","Steps_AST_Errors","#Steps_AST_Errors","Renamed_Files","Deleted_Files","NotFound_Views","#Views","#TestI","#TaskI","TestI","TaskI","Precision","Recall","Hashes","Timestamp","Rails","Gems","#Visit_Call","Lost_visit_call","#Views_ITest","#Code_View_Analysis","Code_View_Analysis","Has_Merge","F2","#Multiple_Step_Matches","Multiple_Step_Matches","#Generic_Step_Keyword","Generic_Step_Keyword"
"sharetribe","2676","[08-02-2013, 11-02-2013, 12-02-2013]","5","10","[Fixeds lots of translations related to custom categories. , Fixed a bug in new listing form , Listing categories come now from the database. seeds.rb can be used to create defaults. , Started to put categories in DB and some small fixes , Removed an unnecessary printiline. , Listing form works with custom categories & share types. , Started making listing form work with custom categories and share types. , fix es-ES.json , Fix bug with mailing listing followers and enable airbrake error notifications in delayed jobs , Welcome emails are sent in correct place ]","2","7","6","0","0","[login_as, hashes, get_test_person_and_session, update_attributes, id, consent, save, each, generate_random_username, fill_in, update_attribute, username, page, have_content, has_content?, have_no_content, has_no_content?, within, click_button, click_link, Integer, sleep, check, uncheck, page, have_content, has_content?, have_no_content, has_no_content?, homepage, listing, community, consent, present?, invitation, code, update_attribute, present?, usages_left, unread_emails_for, parse_email_count, mailbox_for, open_email, visit_in_email, click_first_link_in_email, find, click]","0","[path:features/listings/user_comments_a_listing.feature, size:1]","1","","0","","0","","0","","[]","[/en/signup?code=, new_tribe, new_tribe_membership, tribes]","4","29","36","[app/controllers/api/people_controller.rb, app/controllers/application_controller.rb, app/controllers/dashboard_controller.rb, app/controllers/homepage_controller.rb, app/controllers/people_controller.rb, app/controllers/sessions_controller.rb, app/helpers/application_helper.rb, app/models/community.rb, app/models/community_membership.rb, app/models/invitation.rb, app/models/person.rb, app/views/dashboard/_footer.haml, app/views/dashboard/_header.haml, app/views/dashboard/_lower_middle.haml, app/views/dashboard/api.haml, app/views/dashboard/faq.haml, app/views/dashboard/index.haml, app/views/homepage/_filter_categories.haml, app/views/homepage/_filter_share_types.haml, app/views/homepage/_map.haml, app/views/homepage/_recent_listing.haml, app/views/homepage/index.haml, app/views/layouts/_facebook_connect_button.haml, app/views/layouts/_permanent_notification.haml, app/views/listings/_share_type_link.haml, app/views/people/_help_texts.haml, app/views/people/new.haml, app/views/sessions/new.haml, lib/np_guid/uuidtools.rb]","[app/controllers/api/listings_controller.rb, app/controllers/confirmations_controller.rb, app/controllers/listings_controller.rb, app/helpers/conversations_helper.rb, app/helpers/listings_helper.rb, app/jobs/accept_reminder_job.rb, app/jobs/account_created_job.rb, app/jobs/badges_migrated_job.rb, app/jobs/comment_created_job.rb, app/jobs/community_joined_job.rb, app/jobs/community_members_email_sent_job.rb, app/jobs/conversation_accepted_job.rb, app/jobs/delayed_airbrake_notification.rb, app/jobs/invitation_created_job.rb, app/jobs/listing_created_job.rb, app/jobs/listing_updated_job.rb, app/jobs/message_sent_job.rb, app/jobs/page_loaded_job.rb, app/jobs/testimonial_given_job.rb, app/jobs/testimonial_reminder_job.rb, app/mailers/person_mailer.rb, app/models/category.rb, app/models/community.rb, app/models/community_category.rb, app/models/listing.rb, app/models/share_type.rb, app/views/conversations/new.haml, app/views/homepage/_listing_bubble.haml, app/views/homepage/_recent_listing.haml, app/views/infos/about.haml, app/views/listings/_message_links.haml, app/views/listings/_profile_listing.haml, app/views/listings/_share_type_link.haml, app/views/listings/form/_title.haml, app/views/listings/new.haml, app/views/listings/show.haml]","0.1034482759","0.0833333333","[6ec999db43eddbbfe38e370747a7ab0a364e6e01, 4cfc5e3ed3fb9cb98289d5427478ae34b8f0df52, 28c18c7bb6da0096256ab4e2d9ab42e496b6fb91, 0ab53197ef2681071882c32dc596397e72e0f20a, 1c00419fd25aa5b6df91ffbdcb399c8afa908e9b, f20082eeacf35b9117f103d0bb2253b9e281f251, ebc2a6c5aee53f98df9ea4e51a8f97602fa27acc, 297dc4c36baa642fd4b8b02638db3cb19d9318ff, 06131206bdcce1f16dc86e70082873c9181304d3, f53304ba50a7f7c4e87fcdc9693763cc4cf56034]","1.419 seconds","3.2.11","[cucumber-rails, rspec-rails, factory_girl]","4","[]","17","24","[app/controllers/api/people_controller.rb, app/controllers/application_controller.rb, app/controllers/dashboard_controller.rb, app/controllers/homepage_controller.rb, app/controllers/people_controller.rb, app/controllers/sessions_controller.rb, app/helpers/application_helper.rb, app/views/dashboard/_footer.haml, app/views/dashboard/_header.haml, app/views/dashboard/_lower_middle.haml, app/views/dashboard/api.haml, app/views/dashboard/faq.haml, app/views/dashboard/index.haml, app/views/homepage/_filter_categories.haml, app/views/homepage/_filter_share_types.haml, app/views/homepage/_map.haml, app/views/homepage/_recent_listing.haml, app/views/homepage/index.haml, app/views/layouts/_facebook_connect_button.haml, app/views/layouts/_permanent_notification.haml, app/views/listings/_share_type_link.haml, app/views/people/_help_texts.haml, app/views/people/new.haml, app/views/sessions/new.haml]","false","0.08670520228859968","5","[path:features/invitations/user_joins_invite_only_community.feature, text:I should have 2 emails], [path:features/invitations/user_joins_invite_only_community.feature, text:Most recently created user should be member of ""test"" community with its latest consent accepted with invitation code ""GH1JX8""], [path:features/invitations/user_joins_invite_only_community.feature, text:Invitation with code ""GH1JX8"" should have 0 usages_left], [path:features/people/user_creates_a_new_account.feature, text:I should have 2 emails], [path:features/people/user_creates_a_new_account.feature, text:Most recently created user should be member of ""test"" community with its latest consent accepted]","0",""
"sharetribe","2679","[07-02-2013, 08-02-2013]","2","10","[Minor bug fixes , add profile temp for cucumber to run only the tests that should pass now. , remove javascript tests from travis as they didn't work , try to include tests with javascript to travis profile , Make travis profile for cucumber tests , add cucumber again to travis config , Fixing rest of the tests that were supposed to be green , Lot of fixes to tests, especially confirmation emails and some speed up with spork , Add italian as language option , language updates ]","1","29","27","4","4","[login_as, login_as, fill_in, click_button, hashes, get_test_person_and_session, update_attributes, id, consent, save, each, generate_random_username, update_attribute, username, page, have_content, has_content?, have_no_content, has_no_content?, id, confirmed_at, be_nil, within, community, consent, present?, invitation, code, update_attribute, present?, usages_left, join_with_invite_only, be_true, click_button, click_link, fill_in, Integer, sleep, select, select, select, check, check, uncheck, choose, page, have_content, has_content?, page, have_no_content, has_no_content?, homepage, listing, unread_emails_for, parse_email_count, mailbox_for, open_email, visit_in_email, click_first_link_in_email, find, click, have_xpath, attach_file, chop, create_listing, participants, id, times]","0","[path:features/listings/user_edits_his_own_listing.feature, size:1], [path:features/listings/user_browses_listings.feature, size:1]","2","","0","","0","","0","","[]","[/en/signup?code=, new_tribe, new_tribe_membership, tribes]","4","32","9","[app/controllers/api/people_controller.rb, app/controllers/application_controller.rb, app/controllers/dashboard_controller.rb, app/controllers/homepage_controller.rb, app/controllers/people_controller.rb, app/controllers/sessions_controller.rb, app/helpers/application_helper.rb, app/models/community.rb, app/models/community_membership.rb, app/models/email.rb, app/models/invitation.rb, app/models/listing.rb, app/models/participation.rb, app/models/person.rb, app/models/testimonial.rb, app/views/dashboard/_footer.haml, app/views/dashboard/_header.haml, app/views/dashboard/_lower_middle.haml, app/views/dashboard/api.haml, app/views/dashboard/faq.haml, app/views/dashboard/index.haml, app/views/homepage/_filter_categories.haml, app/views/homepage/_filter_share_types.haml, app/views/homepage/_map.haml, app/views/homepage/_recent_listing.haml, app/views/homepage/index.haml, app/views/layouts/_facebook_connect_button.haml, app/views/layouts/_permanent_notification.haml, app/views/people/_help_texts.haml, app/views/people/new.haml, app/views/sessions/new.haml, lib/np_guid/uuidtools.rb]","[app/controllers/application_controller.rb, app/controllers/communities_controller.rb, app/controllers/community_memberships_controller.rb, app/controllers/confirmations_controller.rb, app/controllers/people_controller.rb, app/mailers/person_mailer.rb, app/models/person.rb, app/views/devise/mailer/confirmation_instructions.haml, app/views/sessions/_confirmation_form.haml]","0.09375","0.3333333333","[de67c8f876a24d4b98caed3096ab76af22b7f54b, 7c0d051e5ea8cf31e7731d7c29a36f199423394d, 70e8365d3193b893fcaaaffb4707906167b494f8, 0149e5d6f287cc4f2528c0d886be9c381f8df1c2, 1dacb27196cf8d035f88879f649e3a3b7b74ab54, c4ff0e3271bd61747e36e4a7c43e5dc03caffaff, 7c86e9a8a0dde85652b2677776394f69202ae344, 79c04033fc23199e27be3855eb803cbef89a473f, c92aa678b0128df3aeaef7e60c12190a7c2910a5, b1917e8d99749af941afef42ae465ffa29349870]","2.501 seconds","3.2.11","[cucumber-rails, rspec-rails, factory_girl]","11","[]","16","23","[app/controllers/api/people_controller.rb, app/controllers/application_controller.rb, app/controllers/dashboard_controller.rb, app/controllers/homepage_controller.rb, app/controllers/people_controller.rb, app/controllers/sessions_controller.rb, app/helpers/application_helper.rb, app/views/dashboard/_footer.haml, app/views/dashboard/_header.haml, app/views/dashboard/_lower_middle.haml, app/views/dashboard/api.haml, app/views/dashboard/faq.haml, app/views/dashboard/index.haml, app/views/homepage/_filter_categories.haml, app/views/homepage/_filter_share_types.haml, app/views/homepage/_map.haml, app/views/homepage/_recent_listing.haml, app/views/homepage/index.haml, app/views/layouts/_facebook_connect_button.haml, app/views/layouts/_permanent_notification.haml, app/views/people/_help_texts.haml, app/views/people/new.haml, app/views/sessions/new.haml]","false","0.22058823528243948","3","[path:features/communities/user_creates_a_new_community.feature, text:""test@mycompany.com"" should have 2 emails], [path:features/communities/user_creates_a_new_community.feature, text:""test@example.com"" should have 2 emails], [path:features/people/user_creates_a_new_account.feature, text:Most recently created user should be member of ""test"" community with its latest consent accepted]","0",""
"sharetribe","2716","[11-01-2013]","1","2","[Language updates , hide join date on peopleand fix few tests ]","1","6","5","0","0","[login_as, hashes, get_test_person_and_session, update_attributes, id, consent, save, each, click_button, click_button, click_link, fill_in, Integer, sleep, page, have_content, has_content?, page, have_content, has_content?, have_no_content, has_no_content?, within, homepage, listing]","0","[path:features/people/user_views_profile_badges.feature, size:1]","1","","0","","0","","0","","[]","[new_tribe, tribes]","2","20","1","[app/controllers/application_controller.rb, app/controllers/dashboard_controller.rb, app/controllers/homepage_controller.rb, app/controllers/sessions_controller.rb, app/models/community.rb, app/models/community_membership.rb, app/models/listing.rb, app/models/person.rb, app/views/dashboard/_footer.haml, app/views/dashboard/_header.haml, app/views/dashboard/_lower_middle.haml, app/views/dashboard/api.haml, app/views/dashboard/faq.haml, app/views/dashboard/index.haml, app/views/homepage/_filter_categories.haml, app/views/homepage/_filter_share_types.haml, app/views/homepage/_map.haml, app/views/homepage/_recent_listing.haml, app/views/homepage/index.haml, app/views/sessions/new.haml]","[app/views/people/_person.haml]","0.0","0.0","[992d569e74c13223a572890a968fc6a836e95aeb, 71ca19702cdb4fcb8cce08be6d2340d5620859ac]","0.952 seconds","3.2.10","[cucumber-rails, rspec-rails, factory_girl]","3","[]","12","16","[app/controllers/application_controller.rb, app/controllers/dashboard_controller.rb, app/controllers/homepage_controller.rb, app/controllers/sessions_controller.rb, app/views/dashboard/_footer.haml, app/views/dashboard/_header.haml, app/views/dashboard/_lower_middle.haml, app/views/dashboard/api.haml, app/views/dashboard/faq.haml, app/views/dashboard/index.haml, app/views/homepage/_filter_categories.haml, app/views/homepage/_filter_share_types.haml, app/views/homepage/_map.haml, app/views/homepage/_recent_listing.haml, app/views/homepage/index.haml, app/views/sessions/new.haml]","false","0.0","0","","0",""
"sharetribe","2719","[10-01-2013]","1","3","[More changes to make cucumber greener , Lot of changes to make tests work + leave error page generation out from production build (as it's mainly a reminder now anyway) , Add error page generation to deploy_script ]","1","36","35","0","0","[login_as, fill_in, click_button, mock_auth, hashes, get_test_person_and_session, update_attributes, id, consent, save, each, click_link, click_link, Integer, sleep, select, check, choose, page, have_content, has_content?, page, have_content, has_content?, page, have_content, has_content?, have_no_content, has_no_content?, have_no_content, has_no_content?, have_no_content, has_no_content?, within, homepage, listing, find, click, id, id, find_by_person_id, find_by_person_id, capture_email, capture_fields, email, be_nil, capture_model, capture_predicate, model!, gsub, send, join_with_invite_only, be_true]","0","[path:features/conversations/user_gives_feedback_from_transaction.feature, size:1]","1","","0","","0","","0","","[]","[new_tribe, person, tribes]","3","23","3","[app/controllers/application_controller.rb, app/controllers/dashboard_controller.rb, app/controllers/homepage_controller.rb, app/controllers/sessions_controller.rb, app/models/community.rb, app/models/community_membership.rb, app/models/conversation.rb, app/models/listing.rb, app/models/message.rb, app/models/person.rb, app/models/testimonial.rb, app/views/dashboard/_footer.haml, app/views/dashboard/_header.haml, app/views/dashboard/_lower_middle.haml, app/views/dashboard/api.haml, app/views/dashboard/faq.haml, app/views/dashboard/index.haml, app/views/homepage/_filter_categories.haml, app/views/homepage/_filter_share_types.haml, app/views/homepage/_map.haml, app/views/homepage/_recent_listing.haml, app/views/homepage/index.haml, app/views/sessions/new.haml]","[app/views/conversations/_conversation.haml, app/views/layouts/_global-header.haml, app/views/testimonials/new.haml]","0.0","0.0","[9fbcc0421e9201b3bdde3636276e334b17c74d8f, 563439f96a41c7dad7a7a82f6e0f120f7a588d28, 65bcd3129d6a21232556bbda6c6d2615e367dcc6]","2.431 seconds","3.2.10","[cucumber-rails, rspec-rails, factory_girl]","11","[]","12","16","[app/controllers/application_controller.rb, app/controllers/dashboard_controller.rb, app/controllers/homepage_controller.rb, app/controllers/sessions_controller.rb, app/views/dashboard/_footer.haml, app/views/dashboard/_header.haml, app/views/dashboard/_lower_middle.haml, app/views/dashboard/api.haml, app/views/dashboard/faq.haml, app/views/dashboard/index.haml, app/views/homepage/_filter_categories.haml, app/views/homepage/_filter_share_types.haml, app/views/homepage/_map.haml, app/views/homepage/_recent_listing.haml, app/views/homepage/index.haml, app/views/sessions/new.haml]","false","0.0","8","[path:features/sessions/facebook_connect.feature, text:user ""facebooker"" should have ""image_file_size"" with value ""nil""], [path:features/sessions/facebook_connect.feature, text:user ""facebooker"" should not have ""image_file_size"" with value ""nil""], [path:features/sessions/facebook_connect.feature, text:user ""facebooker"" should have ""facebook_id"" with value ""597013691""], [path:features/sessions/facebook_connect.feature, text:user ""markus_sharer_123"" should have ""given_name"" with value ""Markus""], [path:features/sessions/facebook_connect.feature, text:user ""markus_sharer_123"" should have ""family_name"" with value ""Sugarberg""], [path:features/sessions/facebook_connect.feature, text:user ""markus_sharer_123"" should have ""email"" with value ""markus@example.com""], [path:features/sessions/facebook_connect.feature, text:user ""markus_sharer_123"" should have ""facebook_id"" with value ""597013691""], [path:features/sessions/facebook_connect.feature, text:user ""markus_sharer_123"" should not have ""image_file_size"" with value ""nil""]","0",""
"sharetribe","2733","[05-01-2013]","1","1","[Lot of changes again to make more tests pass ]","1","54","49","1","1","[click_button, click_link, click_link, fill_in, fill_in, Integer, sleep, check, uncheck, uncheck, choose, page, have_content, has_content?, page, have_content, has_content?, have_no_content, has_no_content?, have_no_content, has_no_content?, within, homepage, listing, find, click, have_xpath, attach_file, login_as, hashes, get_test_person_and_session, update_attributes, id, consent, save, each, generate_random_username, update_attribute, username, community, consent, present?, invitation, code, update_attribute, present?, usages_left, chop, create_listing, participants, id, times, capture_model, model!, capture_model, capture_predicate, model!, gsub, send, capture_email, body]","5","[path:features/communities/user_joins_another_community.feature, size:1], [path:features/conversations/user_gives_feedback_from_transaction.feature, size:1], [path:features/homepage/user_views_homepage.feature, size:1], [path:features/invitations/user_joins_invite_only_community.feature, size:1], [path:features/people/user_views_profile_badges.feature, size:1], [path:features/step_definitions/badge_steps.rb, size:2]","7","","0","","0","","0","","[]","[/en/signup?code=, new_tribe, new_tribe_membership, person, person_badges, tribes]","6","31","6","[app/controllers/api/people_controller.rb, app/controllers/application_controller.rb, app/controllers/dashboard_controller.rb, app/controllers/homepage_controller.rb, app/controllers/people_controller.rb, app/controllers/sessions_controller.rb, app/helpers/application_helper.rb, app/models/community.rb, app/models/community_membership.rb, app/models/conversation.rb, app/models/invitation.rb, app/models/listing.rb, app/models/message.rb, app/models/participation.rb, app/models/person.rb, app/models/testimonial.rb, app/views/dashboard/_footer.haml, app/views/dashboard/_header.haml, app/views/dashboard/_lower_middle.haml, app/views/dashboard/api.haml, app/views/dashboard/faq.haml, app/views/dashboard/index.haml, app/views/homepage/_filter_categories.haml, app/views/homepage/_filter_share_types.haml, app/views/homepage/_map.haml, app/views/homepage/_recent_listing.haml, app/views/homepage/index.haml, app/views/people/_help_texts.haml, app/views/people/new.haml, app/views/sessions/new.haml, lib/np_guid/uuidtools.rb]","[app/controllers/conversations_controller.rb, app/controllers/feedbacks_controller.rb, app/models/person.rb, app/views/feedbacks/new.haml, app/views/layouts/_global-header.haml, app/views/layouts/_left_hand_navigation.haml]","0.0322580645","0.1666666667","[4b46015af455b230fe372a4267a7b1a4e0f239c2]","2.462 seconds","3.2.10","[cucumber-rails, rspec-rails, factory_girl]","12","[]","14","21","[app/controllers/api/people_controller.rb, app/controllers/application_controller.rb, app/controllers/dashboard_controller.rb, app/controllers/homepage_controller.rb, app/controllers/people_controller.rb, app/controllers/sessions_controller.rb, app/helpers/application_helper.rb, app/views/dashboard/_footer.haml, app/views/dashboard/_header.haml, app/views/dashboard/_lower_middle.haml, app/views/dashboard/api.haml, app/views/dashboard/faq.haml, app/views/dashboard/index.haml, app/views/homepage/_filter_categories.haml, app/views/homepage/_filter_share_types.haml, app/views/homepage/_map.haml, app/views/homepage/_recent_listing.haml, app/views/homepage/index.haml, app/views/people/_help_texts.haml, app/views/people/new.haml, app/views/sessions/new.haml]","false","0.09090909089140495","12","[path:features/invitations/user_joins_invite_only_community.feature, text:Most recently created user should be member of ""test"" community with its latest consent accepted with invitation code ""GH1JX8""], [path:features/invitations/user_joins_invite_only_community.feature, text:Invitation with code ""GH1JX8"" should have 0 usages_left], [path:features/people/user_creates_a_new_account.feature, text:Most recently created user should be member of ""test"" community with its latest consent accepted], [path:features/settings/user_changes_notification_settings.feature, text:the ""...somebody comments my offer or request"" checkbox should be checked], [path:features/settings/user_changes_notification_settings.feature, text:the ""...somebody sends me a message"" checkbox should be checked], [path:features/settings/user_changes_notification_settings.feature, text:the ""Send me an update email daily if there are new listings"" checkbox should be checked], [path:features/settings/user_changes_notification_settings.feature, text:the ""...somebody comments my offer or request"" checkbox should not be checked], [path:features/settings/user_changes_notification_settings.feature, text:the ""Send me an update email daily if there are new listings"" checkbox should not be checked], [path:features/settings/user_changes_notification_settings.feature, text:the ""Don't send me update emails"" checkbox should be checked], [path:features/settings/user_updates_profile_information.feature, text:the ""Given name:"" field should contain ""Test""], [path:features/settings/user_updates_profile_information.feature, text:the ""Family name:"" field should contain ""Dude""], [path:features/settings/user_updates_profile_information.feature, text:the ""Location:"" field should contain ""Broadway""]","0",""
"sharetribe","2735","[05-01-2013]","1","1","[Lots of changes to make tests pass. Still 99 scenarios failing. :) ]","1","62","52","2","2","[login_as, fill_in, click_button, hashes, get_test_person_and_session, update_attributes, id, consent, save, each, generate_random_username, page, have_content, has_content?, update_attribute, username, have_no_content, has_no_content?, within, id, click_button, click_link, click_link, Integer, sleep, select, select, select, check, choose, page, have_content, has_content?, page, have_no_content, has_no_content?, homepage, listing, find, click, have_xpath, attach_file, update_attribute, community, consent, present?, invitation, code, capture_email, body, times, fill_in]","15","[path:features/admin/admin_deactivates_user.feature, size:1], [path:features/conversations/user_gives_feedback_from_transaction.feature, size:1], [path:features/homepage/user_views_homepage.feature, size:1], [path:features/invitations/user_joins_invite_only_community.feature, size:1], [path:features/listings/user_browses_listings.feature, size:1], [path:features/listings/user_comments_a_listing.feature, size:1], [path:features/listings/user_creates_a_new_listing.feature, size:1], [path:features/listings/user_edits_his_own_listing.feature, size:1], [path:features/people/user_views_profile_badges.feature, size:1], [path:features/step_definitions/badge_steps.rb, size:2]","11","","0","","0","","0","","[]","[edit_listing, new_person_message_feedback, new_tribe, new_tribe_membership, person, person_badges, person_message, received_person_messages, tribes]","9","28","2","[app/controllers/api/people_controller.rb, app/controllers/application_controller.rb, app/controllers/dashboard_controller.rb, app/controllers/homepage_controller.rb, app/controllers/people_controller.rb, app/controllers/sessions_controller.rb, app/helpers/application_helper.rb, app/models/community.rb, app/models/community_membership.rb, app/models/conversation.rb, app/models/listing.rb, app/models/news_item.rb, app/models/person.rb, app/views/dashboard/_footer.haml, app/views/dashboard/_header.haml, app/views/dashboard/_lower_middle.haml, app/views/dashboard/api.haml, app/views/dashboard/faq.haml, app/views/dashboard/index.haml, app/views/homepage/_filter_categories.haml, app/views/homepage/_filter_share_types.haml, app/views/homepage/_map.haml, app/views/homepage/_recent_listing.haml, app/views/homepage/index.haml, app/views/people/_help_texts.haml, app/views/people/new.haml, app/views/sessions/new.haml, lib/np_guid/uuidtools.rb]","[app/models/community.rb, app/views/listings/_message_links.haml]","0.0357142857","0.5","[a2d951be6969feef4234efb69bf64afe6be6d0da]","3.026 seconds","3.2.10","[cucumber-rails, rspec-rails, factory_girl]","17","[]","14","21","[app/controllers/api/people_controller.rb, app/controllers/application_controller.rb, app/controllers/dashboard_controller.rb, app/controllers/homepage_controller.rb, app/controllers/people_controller.rb, app/controllers/sessions_controller.rb, app/helpers/application_helper.rb, app/views/dashboard/_footer.haml, app/views/dashboard/_header.haml, app/views/dashboard/_lower_middle.haml, app/views/dashboard/api.haml, app/views/dashboard/faq.haml, app/views/dashboard/index.haml, app/views/homepage/_filter_categories.haml, app/views/homepage/_filter_share_types.haml, app/views/homepage/_map.haml, app/views/homepage/_recent_listing.haml, app/views/homepage/index.haml, app/views/people/_help_texts.haml, app/views/people/new.haml, app/views/sessions/new.haml]","false","0.13888888884567901","6","[path:features/listings/user_edits_his_own_listing.feature, text:the ""listing_title"" field should contain ""Hammer""], [path:features/listings/user_edits_his_own_listing.feature, text:the ""description"" field should contain ""test""], [path:features/people/user_creates_a_new_account.feature, text:Most recently created user should be member of ""test"" community with its latest consent accepted], [path:features/settings/user_updates_profile_information.feature, text:the ""Given name:"" field should contain ""Test""], [path:features/settings/user_updates_profile_information.feature, text:the ""Family name:"" field should contain ""Dude""], [path:features/settings/user_updates_profile_information.feature, text:the ""Location:"" field should contain ""Broadway""]","0",""
"sharetribe","2737","[05-01-2013]","1","4","[Massive amount of small fixes aiming to make tests work with new design.  Still ~100 fail. , Update capybara and fix spec tests , Update rails to 3.2.10 , Gem updates ]","1","35","30","6","6","[login_as, login_as, fill_in, click_button, fill_in, click_button, hashes, get_test_person_and_session, update_attributes, id, consent, save, each, generate_random_username, update_attribute, within, click_button, click_link, click_link, Integer, sleep, select, select, select, check, page, have_content, has_content?, page, have_content, has_content?, page, have_content, has_content?, have_no_content, has_no_content?, have_no_content, has_no_content?, have_no_content, has_no_content?, homepage, listing, find, click, lambda, raise_error, have_xpath, attach_file, update_attribute, present?, usages_left, fill_in, within, homepage, listing]","10","[path:features/admin/admin_deactivates_user.feature, size:1], [path:features/communities/user_joins_another_community.feature, size:2], [path:features/homepage/user_views_homepage.feature, size:1], [path:features/step_definitions/badge_steps.rb, size:1]","5","","0","","0","","0","","[]","[app/views/listings/_author.html.haml, app/views/listings/_listed_listing.html.haml, avatar_person_settings, close_person_listing, edit_listing, follow_listing, listing, listing_image, new_tribe, new_tribe_membership, person_badges, person_settings, target_person, tribes, unfollow_listing]","15","73","9","[app/controllers/api/conversations_controller.rb, app/controllers/api/listings_controller.rb, app/controllers/api/people_controller.rb, app/controllers/application_controller.rb, app/controllers/conversations_controller.rb, app/controllers/dashboard_controller.rb, app/controllers/homepage_controller.rb, app/controllers/listings_controller.rb, app/controllers/people_controller.rb, app/controllers/sessions_controller.rb, app/helpers/application_helper.rb, app/models/community.rb, app/models/community_membership.rb, app/models/conversation.rb, app/models/invitation.rb, app/models/listing.rb, app/models/person.rb, app/views/conversations/new.haml, app/views/dashboard/_footer.haml, app/views/dashboard/_header.haml, app/views/dashboard/_lower_middle.haml, app/views/dashboard/api.haml, app/views/dashboard/faq.haml, app/views/dashboard/index.haml, app/views/homepage/_filter_categories.haml, app/views/homepage/_filter_share_types.haml, app/views/homepage/_map.haml, app/views/homepage/_recent_listing.haml, app/views/homepage/index.haml, app/views/listings/_additional_listings.haml, app/views/listings/_bubble_listing_not_visible.haml, app/views/listings/_comment.haml, app/views/listings/_comment_form.haml, app/views/listings/_destination.haml, app/views/listings/_edit_links.haml, app/views/listings/_follow_links.haml, app/views/listings/_googlemap.haml, app/views/listings/_help_texts.haml, app/views/listings/_left_panel_link.haml, app/views/listings/_listed_listing_closed_status.haml, app/views/listings/_listed_listing_edit_links.haml, app/views/listings/_listed_listings.haml, app/views/listings/_listing_spacer.haml, app/views/listings/_listings_on_map.haml, app/views/listings/_message_links.haml, app/views/listings/_must_log_in_to_create_new.haml, app/views/listings/_origin.haml, app/views/listings/_profile_listing.haml, app/views/listings/_reply_link.haml, app/views/listings/edit.haml, app/views/listings/form/_departure_time.haml, app/views/listings/form/_departure_time_radio_buttons.haml, app/views/listings/form/_description.haml, app/views/listings/form/_destination.haml, app/views/listings/form/_form_content.haml, app/views/listings/form/_googlemap.haml, app/views/listings/form/_images.haml, app/views/listings/form/_javascripts.haml, app/views/listings/form/_location.haml, app/views/listings/form/_origin.haml, app/views/listings/form/_privacy.haml, app/views/listings/form/_send_button.haml, app/views/listings/form/_title.haml, app/views/listings/form/_valid_until.haml, app/views/listings/form/_valid_until_radio_buttons.haml, app/views/listings/form/_visibility.haml, app/views/listings/index.haml, app/views/listings/new.haml, app/views/listings/show.haml, app/views/people/_help_texts.haml, app/views/people/new.haml, app/views/sessions/new.haml, lib/np_guid/uuidtools.rb]","[app/controllers/sessions_controller.rb, app/helpers/application_helper.rb, app/mailers/person_mailer.rb, app/views/dashboard/_header.haml, app/views/homepage/_filter_categories.haml, app/views/homepage/_filter_share_types.haml, app/views/homepage/index.haml, app/views/layouts/_global-header.haml, app/views/sessions/new.haml]","0.095890411","0.7777777778","[fbfacbc993a8a0bf6ea5a19c7cf8e5e88e7480a7, 5442ef78de0198d22b6d949891bd81fea05cf000, f7699ddd5f065365819c8aae5b33abe18ecb676f, dcc167aec3fb7544547978af797e2ac59338aacc]","3.971 seconds","3.2.10","[cucumber-rails, rspec-rails, factory_girl]","15","[]","55","66","[app/controllers/api/conversations_controller.rb, app/controllers/api/listings_controller.rb, app/controllers/api/people_controller.rb, app/controllers/application_controller.rb, app/controllers/conversations_controller.rb, app/controllers/dashboard_controller.rb, app/controllers/homepage_controller.rb, app/controllers/listings_controller.rb, app/controllers/people_controller.rb, app/controllers/sessions_controller.rb, app/helpers/application_helper.rb, app/views/conversations/new.haml, app/views/dashboard/_footer.haml, app/views/dashboard/_header.haml, app/views/dashboard/_lower_middle.haml, app/views/dashboard/api.haml, app/views/dashboard/faq.haml, app/views/dashboard/index.haml, app/views/homepage/_filter_categories.haml, app/views/homepage/_filter_share_types.haml, app/views/homepage/_map.haml, app/views/homepage/_recent_listing.haml, app/views/homepage/index.haml, app/views/listings/_additional_listings.haml, app/views/listings/_bubble_listing_not_visible.haml, app/views/listings/_comment.haml, app/views/listings/_comment_form.haml, app/views/listings/_destination.haml, app/views/listings/_edit_links.haml, app/views/listings/_follow_links.haml, app/views/listings/_googlemap.haml, app/views/listings/_help_texts.haml, app/views/listings/_left_panel_link.haml, app/views/listings/_listed_listing_closed_status.haml, app/views/listings/_listed_listing_edit_links.haml, app/views/listings/_listed_listings.haml, app/views/listings/_listing_spacer.haml, app/views/listings/_listings_on_map.haml, app/views/listings/_message_links.haml, app/views/listings/_must_log_in_to_create_new.haml, app/views/listings/_origin.haml, app/views/listings/_profile_listing.haml, app/views/listings/_reply_link.haml, app/views/listings/edit.haml, app/views/listings/form/_departure_time.haml, app/views/listings/form/_departure_time_radio_buttons.haml, app/views/listings/form/_description.haml, app/views/listings/form/_destination.haml, app/views/listings/form/_form_content.haml, app/views/listings/form/_googlemap.haml, app/views/listings/form/_images.haml, app/views/listings/form/_javascripts.haml, app/views/listings/form/_location.haml, app/views/listings/form/_origin.haml, app/views/listings/form/_privacy.haml, app/views/listings/form/_send_button.haml, app/views/listings/form/_title.haml, app/views/listings/form/_valid_until.haml, app/views/listings/form/_valid_until_radio_buttons.haml, app/views/listings/form/_visibility.haml, app/views/listings/index.haml, app/views/listings/new.haml, app/views/listings/show.haml, app/views/people/_help_texts.haml, app/views/people/new.haml, app/views/sessions/new.haml]","false","0.3211009175263867","2","[path:features/communities/user_joins_another_community.feature, text:Invitation with code ""GH1JX8"" should have 1 usages_left], [path:features/communities/user_joins_another_community.feature, text:Invitation with code ""GH1JX8"" should have 0 usages_left]","0",""
"sharetribe","2777","[24-10-2012, 25-10-2012, 08-11-2012, 14-11-2012, 19-11-2012, 24-11-2012, 26-11-2012, 27-11-2012, 28-11-2012, 29-11-2012]","37","15","[minor fix to make event feed more error proof with deleted accounts , Fix devise problem and few more deprecations , More deprecation fixes and test stability , Fix deprecation warnings. All tests pass.  Move plugins from vendor as gems or to lib. Fix community file rendering , Downgraded Capybara as updating to 2 would have required too many changes.  Now all tests pass, although some cucumber tests occasionally fail with selenium cache errors. , add xpath to gemfile , Updated to Rails 3.2. not fully tested yet , Asset Pipeline almost works now, few bugs known:  - feedback tab is broken in private community - 2 cucumber tests still not passing , Asset pipeline in use in theory, but pretty chaotic and many things still broken  Broken e.g.: - image urls - private community login page , Modifying the image paths to work with Asset Pipeline, and small other attempts to make it work , Asset pipeline general changes done, but nothing working yet. , Facebook connect tests pass now too, gen [TOO_LONG]","1","7","4","11","11","[login_as, fill_in, click_button, hashes, get_test_person_and_session, update_attributes, id, consent, save, each, click_button, click_link, fill_in, page, have_content, has_content?, page, have_no_content, has_no_content?, page, have_no_content, has_no_content?, within, update_attribute, has_xpath?, has_no_xpath?, chop, create_listing, participants, times, times]","0","[path:features/homepage/user_views_homepage.feature, size:1], [path:features/listings/user_comments_a_listing.feature, size:1], [path:features/conversations/user_gives_feedback_from_transaction.feature, size:1]","3","","0","","0","","0","","[]","[new_tribe, tribes]","2","23","45","[app/controllers/application_controller.rb, app/controllers/dashboard_controller.rb, app/controllers/sessions_controller.rb, app/models/comment.rb, app/models/community.rb, app/models/community_membership.rb, app/models/conversation.rb, app/models/listing.rb, app/models/news_item.rb, app/models/participation.rb, app/models/person.rb, app/models/testimonial.rb, app/views/communities/_select_pricing_plan.haml, app/views/dashboard/_footer.haml, app/views/dashboard/_header.haml, app/views/dashboard/_lower_middle.haml, app/views/dashboard/api.haml, app/views/dashboard/faq.haml, app/views/dashboard/index.haml, app/views/dashboard/pricing.haml, app/views/sessions/_new.haml, app/views/sessions/new.haml, lib/np_guid/uuidtools.rb]","[app/controllers/api/listings_controller.rb, app/controllers/confirmations_controller.rb, app/controllers/conversations_controller.rb, app/controllers/dashboard_controller.rb, app/controllers/homepage_controller.rb, app/controllers/infos_controller.rb, app/controllers/listings_controller.rb, app/controllers/people_controller.rb, app/controllers/settings_controller.rb, app/helpers/application_helper.rb, app/jobs/listing_created_job.rb, app/mailers/person_mailer.rb, app/models/community.rb, app/models/email.rb, app/models/listing.rb, app/models/notification.rb, app/models/participation.rb, app/models/person.rb, app/views/badges/_badge.haml, app/views/communities/_new_tribe_form.haml, app/views/conversations/_status_link.haml, app/views/dashboard/_header.haml, app/views/dashboard/index.haml, app/views/dashboard/okl.haml, app/views/errors/_error_layout.haml, app/views/homepage/_event_feed_event.haml, app/views/homepage/index.haml, app/views/layouts/_logged_in.haml, app/views/layouts/_no_javascript.haml, app/views/layouts/_no_javascript_private.haml, app/views/layouts/application.haml, app/views/layouts/dashboard.haml, app/views/layouts/private.haml, app/views/listings/show.haml, app/views/people/_badge_description.haml, app/views/people/_profile_badge.haml, app/views/people/_profile_listings.haml, app/views/people/help_texts/_terms.haml, app/views/people/not_member.haml, app/views/sessions/_new.haml, lib/devise/encryptors/asi.rb, lib/i18n_action_mailer/i18n_action_mailer.rb, lib/np_guid/usesnpguid.rb, lib/np_guid/uuid22.rb, lib/np_guid/uuidtools.rb]","0.3913043478","0.2","[f3a34f8807211a51c39e334730c6886739d94719, 8895e7578747fd3de651054069cf26eb6b2d00ff, 3c19d1960c39689c16d3c9ea5c5b8702778e4580, 5941e9e3ee052931819f3c6aed9ac8ec20b8c85e, 12bd86610769a4db33b734c9aeb2a698e279110a, c6d8f08032271166f0158cd8596f29ac24231fa5, 8f3767c8b8ed1ef58d1e2019fc5676abc8496766, 1267840c3747c9f8d2262f591fdaf3d8901b9060, 982ae80e40e0f42f928549a63903ede4ca8bba23, c4e70ce70834230866e19f62b0f52065ce87b0ea, b4295076f3cb473496fe5f733fd7a2b19768b461, 1616d763762a0964eebf2fa6b55c81d0896ad13a, dd6e8990eb7740a9740ede30f258c74e2c9329cc, 46a3c3ffab30634bab9aacc87eac33135ddc5567, 4a26eb4c853394fb358f5e63974f86ded2434d78]","1.374 seconds","3.2.9","[cucumber-rails, rspec-rails, factory_girl]","4","[]","10","13","[app/controllers/application_controller.rb, app/controllers/dashboard_controller.rb, app/controllers/sessions_controller.rb, app/views/communities/_select_pricing_plan.haml, app/views/dashboard/_footer.haml, app/views/dashboard/_header.haml, app/views/dashboard/_lower_middle.haml, app/views/dashboard/api.haml, app/views/dashboard/faq.haml, app/views/dashboard/index.haml, app/views/dashboard/pricing.haml, app/views/sessions/_new.haml, app/views/sessions/new.haml]","false","0.22167487684561626","0","","0",""
"sharetribe","2793","[26-09-2012, 27-09-2012, 05-10-2012]","10","5","[Change visibility settings , Create script for the tribe admin email, minor language fix , minor changes to cucumber tests to make them pass (one word missing) , Minor fix to make spec tests pass , Merge branch 'hotfix/logo_and_link' into develop ]","2","3","0","1","1","[]","0","[path:features/communities/user_joins_another_community.feature, size:1], [path:features/homepage/user_views_homepage.feature, size:1], [path:features/listings/user_comments_a_listing.feature, size:1]","3","","0","","0","","0","","[]","","0","1","12","[app/models/listing.rb]","[app/controllers/api/api_controller.rb, app/controllers/listings_controller.rb, app/helpers/listings_helper.rb, app/jobs/comment_created_job.rb, app/jobs/community_joined_job.rb, app/models/community.rb, app/models/listing.rb, app/views/listings/edit.haml, app/views/listings/form/_form_content.haml, app/views/listings/form/_privacy.haml, app/views/listings/form/_visibility.haml, lib/console scripts/tribe_starters_email.rb]","1.0","0.0833333333","[dcd44f134e368ecb77680c3b67dec6ff9baafc59, 6b94941b41bfa4bed8e406591d8ac0a78f8d5142, 67d49f67f7cb1642b62ad7f13020facd9f76ac05, ebcbe5cc61362ad0c9315ab1045bae97b2dd62e2, db2b044af6ababae990ad8186f2d711bc804d8c4]","0.164 seconds","3.0.17","[cucumber-rails, rspec-rails, factory_girl]","0","[]","0","0","[]","true","0.10204081628654729","0","","0",""
"sharetribe","2798","[26-09-2012]","1","5","[minor changes to cucumber tests to make them pass (one word missing) , Minor fix to make spec tests pass , Merge branch 'hotfix/logo_and_link' into develop , Add tribe starter message , Add custom tribe logo, fix some English translations. ]","2","2","0","0","0","[]","0","[path:features/homepage/user_views_homepage.feature, size:1], [path:features/listings/user_comments_a_listing.feature, size:1]","2","","0","","0","","0","","[]","","0","0","1","[]","[lib/console scripts/tribe_starters_email.rb]","0.0","0.0","[67d49f67f7cb1642b62ad7f13020facd9f76ac05, ebcbe5cc61362ad0c9315ab1045bae97b2dd62e2, db2b044af6ababae990ad8186f2d711bc804d8c4, fe1f8567a7008f9f58810acfeecd742f0082f541, 587b2320ddb49e6b4818c93b21230e7625967a1d]","0.148 seconds","3.0.17","[cucumber-rails, rspec-rails, factory_girl]","0","[]","0","0","[]","true","0.0","0","","0",""
"sharetribe","2810","[08-09-2012, 09-09-2012, 10-09-2012]","3","11","[Update config and dabase example yml to state of current installation instructions. , Merge branch 'feature/update_gems' into develop , Updating more gems. Now most are on the level that current Rails & Ruby version allows. , Add html_safe to keep text_with_line_breaks working with new Rails , Update lot of gems, and modify tests to pass. , small additional fix to make the spec pass more often , Update to Rails 3.0.17 and modify files accordingly  Had to add many html_safe calls and remove one_line helper from search_field. Hopefully that wasn't needed for browser compatibility or anything.. , Update test related gems (Cucumber & Capybara etc) and modify tests  Lot of gems updated and lot of changes needed to tests to pass. Some of them seem to pass annoyingly randomly. Anyway that's ok for now, and we can improve the stability of the results later. , update JSON gem version 1.2.2 -> 1.7.5 , Removed some rake deprecations , Cleanup unused tables from the database ]","1","35","33","3","3","[fill_in, click_button, Factory, login_as, hashes, get_test_person_and_session, cookie, update_attributes, id, consent, save, each, generate_random_username, fill_in, within, Factory, count, to_i, id, find_by_person_id, find_by_person_id, click_button, click_button, click_link, click_link, Integer, sleep, select, choose, page, have_content, has_content?, page, have_content, has_content?, have_no_content, has_no_content?, have_no_content, has_no_content?, update_attribute, attach_file, have_css, has_xpath?, has_no_xpath?]","0","[path:features/homepage/user_views_homepage.feature, size:1], [path:features/listings/user_comments_a_listing.feature, size:1]","2","","0","","0","","0","","[]","[new_tribe, new_tribe_membership, person_testimonials, tribes]","4","26","4","[app/controllers/api/people_controller.rb, app/controllers/application_controller.rb, app/controllers/dashboard_controller.rb, app/controllers/people_controller.rb, app/controllers/sessions_controller.rb, app/helpers/application_helper.rb, app/models/comment.rb, app/models/community.rb, app/models/community_membership.rb, app/models/conversation.rb, app/models/listing.rb, app/models/message.rb, app/models/person.rb, app/models/testimonial.rb, app/views/communities/_select_pricing_plan.haml, app/views/dashboard/_footer.haml, app/views/dashboard/_header.haml, app/views/dashboard/_lower_middle.haml, app/views/dashboard/api.haml, app/views/dashboard/faq.haml, app/views/dashboard/index.haml, app/views/dashboard/pricing.haml, app/views/people/_help_texts.haml, app/views/people/new.haml, app/views/sessions/_new.haml, app/views/sessions/new.haml]","[app/helpers/application_helper.rb, app/helpers/listings_helper.rb, app/views/layouts/application.haml, app/views/listings/form/_departure_time_radio_buttons.haml]","0.0384615385","0.25","[3072d6c7a0732842ce9857bcd3247cfed9596af8, ebfe1a05922535ec37fc08e4fe060e83d936ca93, 4c3a54d61dcf61b95f9a28db10de31638530ff77, d32786f1f753071496da6bb026f8efe1d6ffdab5, ab54e24a52a31f778881301a77ab3f6de5d64adc, 3e76fc1f381021b0fe052b4894ab837492f3e4ba, 92bab7cc776679ede76e7b284d239790985cb7da, ae93c0c9109126946320e8cedc7a9b26ea28dead, f37cd7591e2c3879ae6720d17e5e89d11f121f5f, 99ea8be451cc97dfad950a93a2de53f613b65300, 85c6524f766c5c790f55a403a29bfae92fb68e31]","2.633 seconds","3.0.17","[cucumber-rails, rspec-rails, factory_girl]","10","[]","12","18","[app/controllers/api/people_controller.rb, app/controllers/application_controller.rb, app/controllers/dashboard_controller.rb, app/controllers/people_controller.rb, app/controllers/sessions_controller.rb, app/helpers/application_helper.rb, app/views/communities/_select_pricing_plan.haml, app/views/dashboard/_footer.haml, app/views/dashboard/_header.haml, app/views/dashboard/_lower_middle.haml, app/views/dashboard/api.haml, app/views/dashboard/faq.haml, app/views/dashboard/index.haml, app/views/dashboard/pricing.haml, app/views/people/_help_texts.haml, app/views/people/new.haml, app/views/sessions/_new.haml, app/views/sessions/new.haml]","true","0.1190476191213152","0","","0",""
"sharetribe","2825","[24-07-2012, 25-07-2012, 26-07-2012, 27-07-2012]","4","11","[Facebook login fixes and like + send buttons should work now , Make facebook login text visible only if it's enabled , Fix for UC logo , Language updates , Edited fb connect button layout. , A quick fix for a bug in checking exisiting communities. , One more fix to tests. , Fixed some tests , Removed an unnecessary community file. , If a user is trying to create a new company/university tribe with an email that is already in use in some email-restricted tribe, he is now directed to that tribe. , Merged conflicts. ]","2","5","3","1","1","[fill_in, click_button, Factory, login_as, fill_in, click_button, hashes, get_test_person_and_session, cookie, update_attributes, id, consent, save, each, click_button, click_link, fill_in, page, have_content, has_content?, page, have_no_content, has_no_content?, within, update_attribute, to_i, times, Factory, id, within]","5","[path:features/conversations/user_gives_feedback_from_transaction.feature, size:1], [path:features/people/user_views_profile_badges.feature, size:1], [path:features/step_definitions/badge_steps.rb, size:2]","4","","0","","0","","0","","[]","[new_tribe, person_badges, tribes]","3","19","24","[app/controllers/application_controller.rb, app/controllers/dashboard_controller.rb, app/controllers/sessions_controller.rb, app/helpers/application_helper.rb, app/models/community.rb, app/models/community_membership.rb, app/models/conversation.rb, app/models/listing.rb, app/models/person.rb, app/views/communities/_select_pricing_plan.haml, app/views/dashboard/_footer.haml, app/views/dashboard/_header.haml, app/views/dashboard/_lower_middle.haml, app/views/dashboard/api.haml, app/views/dashboard/faq.haml, app/views/dashboard/index.haml, app/views/dashboard/pricing.haml, app/views/sessions/_new.haml, app/views/sessions/new.haml]","[app/controllers/communities_controller.rb, app/controllers/community_memberships_controller.rb, app/controllers/people_controller.rb, app/helpers/application_helper.rb, app/helpers/communities_helper.rb, app/helpers/dashboard_helper.rb, app/helpers/people_helper.rb, app/models/community.rb, app/views/admin/news_items/_new.haml, app/views/communities/_enter_organization_email.haml, app/views/communities/_new_tribe_form.haml, app/views/communities/_signup_form.haml, app/views/conversations/show.haml, app/views/homepage/_invitation_form.haml, app/views/layouts/_facebook_sdk.haml, app/views/layouts/_logged_in.haml, app/views/layouts/application.haml, app/views/layouts/dashboard.haml, app/views/layouts/private.haml, app/views/listings/_comment_form.haml, app/views/listings/form/_description.haml, app/views/sessions/_new.haml, app/views/settings/profile.haml, app/views/testimonials/new.haml]","0.1578947368","0.125","[840250a2cf56ab42a5fa02b459708a466ed088b9, bc0e3947dc2096611cafe015bf52a14b235b9958, 9b221d48b14696d95cba89d01113c12b459f0db8, adf11dc320cc44fd96335163e574ef91e2f18fc2, e905f339bec7f54b4507ed5aa1cafb6d901a5ebe, a3b21997e9599ea350eaabf6d326b6f913a3a830, 3b925cf20ad54a2f680ad95f251c091f9b01db62, 4264be1815b43da0d2a2c7560d281ed42571fbe4, 83aab5fd35f3e6375af6f8382675d5826b6f88ba, 94872603be67eaaa594a98981a298b3e725712be, 58ded4349ab007e1c4fa2cc3953ec190e18c5133]","1.451 seconds","3.0.0","[cucumber-rails, rspec-rails, factory_girl]","6","[]","10","13","[app/controllers/application_controller.rb, app/controllers/dashboard_controller.rb, app/controllers/sessions_controller.rb, app/views/communities/_select_pricing_plan.haml, app/views/dashboard/_footer.haml, app/views/dashboard/_header.haml, app/views/dashboard/_lower_middle.haml, app/views/dashboard/api.haml, app/views/dashboard/faq.haml, app/views/dashboard/index.haml, app/views/dashboard/pricing.haml, app/views/sessions/_new.haml, app/views/sessions/new.haml]","false","0.13043478260294897","0","","0",""
