"Repository","https://github.com/sharetribe/sharetribe.git"
"Tasks with empty IReal","0"
"Tasks with no-empty IReal","4"
"Tasks with relevant AST error","0"
"Tasks with AST error of Gherkin files","0"
"Tasks with AST error of StepDef files","0"
"Tasks with AST error of production files","0"
"Tasks with AST error of unit test files","0"
"Tasks with step match error","4"
"Tasks without required gems","0"
"Tasks with changed stepdef","4"
"Tasks with changed Gherkin","4"
"Tasks with implemented Gherkin scenarios","4"
"All invalid tasks","4"
"All valid tasks (Gherkin scenario, no empty IReal, no error)","0"
"Valid tasks, but empty ITest","0"
"Valid tasks, no empty ITest, but zero precision-recall","0"
"Valid tasks, no empty ITest, no zero precision-recall","0"
"Project","Task","Date","#Days","#Commits","Commit_Message","#Devs","#Gherkin_Tests","#Impl_Gherkin_Tests","#StepDef","#Impl_StepDef","Methods_Unknown_Type","#Step_Call","Step_Match_Errors","#Step_Match_Error","AST_Errors","#AST_Errors","Gherkin_AST_Errors","#Gherkin_AST_Errors","Steps_AST_Errors","#Steps_AST_Errors","Renamed_Files","Deleted_Files","NotFound_Views","#Views","#TestI","#TaskI","TestI","TaskI","Precision","Recall","Hashes","Timestamp","Rails","Gems","#Visit_Call","Lost_visit_call","#Views_ITest","#Code_View_Analysis","Code_View_Analysis","Has_Merge","F2","#Multiple_Step_Matches","Multiple_Step_Matches","#Generic_Step_Keyword","Generic_Step_Keyword"
"sharetribe","2244","[13-02-2014]","1","3","[Merge pull request #262 from sharetribe/load-test-seed-data  Load test seed data only when needed, Enable broken ""Building"" test , Don't load seed data per each test  - Only when necessery ]","1","16","9","2","2","[tr, login_as, fill_in, click_button, hashes, save!, update_attributes, id, consent, set_default_preferences, save, each, find, click, click_link, update_all, name, find, click_link, page, have_content, has_content?, page, have_content, has_content?, within, present?, update_attribute, find, be_visible, mailbox_for, parse_email_count, unread_emails_for, subject, select, open_email, visit_in_email, capture_model, model!, id, select]","15","[path:features/conversations/user_rejects_a_transaction.feature, size:1], [path:features/conversations/user_requests_an_item_in_item_offer.feature, size:1], [path:features/payments/checkout_payment.feature, size:1], [path:features/payments/mangopay_payment.feature, size:1], [path:features/payments/person_checkout_payment.feature, size:1], [path:features/step_definitions/listing_steps.rb, size:1], [path:features/step_definitions/email_steps.rb, size:1]","7","","0","","0","","0","","[]","[admin_categories]","1","14","1","[app/controllers/dashboard_controller.rb, app/controllers/sessions_controller.rb, app/models/community.rb, app/models/community_membership.rb, app/models/contact_request.rb, app/models/conversation.rb, app/models/custom_field.rb, app/models/email.rb, app/models/listing.rb, app/models/person.rb, app/views/dashboard/_contact_request_form.haml, app/views/dashboard/index.haml, app/views/sessions/new.haml, lib/np_guid/uuidtools.rb]","[app/models/braintree_account.rb]","0.0","0.0","[be6accf777dff23a487d838bd04d4aae667b15e9, 0ae9e571b4ef421bdc4e84b0e9637610afc32d55, 57f96190763bd109790116c2f6ff658b6bac20c3]","1.519 seconds","3.2.13","[cucumber-rails, rspec-rails, factory_girl]","4","[]","3","5","[app/controllers/dashboard_controller.rb, app/controllers/sessions_controller.rb, app/views/dashboard/_contact_request_form.haml, app/views/dashboard/index.haml, app/views/sessions/new.haml]","true","0.0","1","[path:features/payments/person_checkout_payment.feature, text:I should be on the payment settings page]","0",""
"sharetribe","2263","[31-01-2014, 03-02-2014, 04-02-2014, 05-02-2014]","6","14","[More changes to listing form , Started modifying the listing form to work with new category structure , Can not delete the last top level category , Remove child category if parent is removed  - Tests are probably failing , Add zeus to Gemfile  - Guard needs this , Features: Admin removes category , Fixes to tests , Remove category , Cateogyr.has_listings? , Remove category, without any validations , Add remove icon , Db is seeded properly without fixtures , Fixed a bug in selecting parent category , Categories cannot be their own parents, only show parent selection if there are applicable parent categories ]","2","5","1","7","7","[tr, find, click, hashes, update_attributes, each, categories, destroy_all, create!, transaction_types, id, update_attribute, create, login_as, get_test_person_and_session, save!, consent, set_default_preferences, save, update_all, name, find, click_link, fill_in, select, page, have_content, has_content?, within]","9","[path:features/admin/categories/admin_removes_category.feature, size:4]","4","","0","","0","","0","","[]","[admin_categories]","1","18","15","[app/controllers/admin/categories_controller.rb, app/controllers/admin/custom_fields_controller.rb, app/controllers/admin/news_items_controller.rb, app/controllers/admin/polls_controller.rb, app/controllers/dashboard_controller.rb, app/controllers/emails_controller.rb, app/controllers/listing_images_controller.rb, app/controllers/mercury/images_controller.rb, app/controllers/news_items_controller.rb, app/controllers/people_controller.rb, app/controllers/sessions_controller.rb, app/models/community.rb, app/models/community_membership.rb, app/models/contact_request.rb, app/models/email.rb, app/models/person.rb, app/views/dashboard/_contact_request_form.haml, app/views/dashboard/index.haml]","[app/controllers/admin/categories_controller.rb, app/controllers/listings_controller.rb, app/helpers/categories_helper.rb, app/models/category.rb, app/models/community.rb, app/models/listing.rb, app/models/transaction_type.rb, app/views/admin/categories/_listed_subcategory.haml, app/views/admin/categories/_listed_top_level_category.haml, app/views/admin/categories/form/_category_parent.haml, app/views/admin/categories/form/_category_transaction_types.haml, app/views/admin/categories/remove.haml, app/views/listings/form/_form_content.haml, app/views/listings/form/_send_button.haml, app/views/listings/new.haml]","0.1111111111","0.1333333333","[23091e2f0b8f4ec9e5e24eb4199d6ddb668e3d3b, bd00789f6c3f44c05e61128743e4f6596c8f5788, 38fee58451f3b2f8bc0870a60cfdb2b1d43e6961, bbf0bde80ab9c1dc0c7389244a9b0cfec1556cb8, dbf975c16c42a4d38da3aa48b39e6af53489713b, 355e051071d70861f24ac2b827e8d730c0a08096, 3599c053d2b3ae80b7a555c7d6eb98b8f380f1e5, 4e571893fd4546ad814528c7f33fc1f21e401c68, 53565ab2bb1a4ae42bd89e92b72a151d38cba07a, a2f93f2e1ea01b171666f6bb3ad9074f7ff64547, ce61f9c027fd1a04b107e01b2193edf779f47b83, 505ed054b542a6d4fb79fca51b722a48dc8d596e, f8646f2c7b17f27af7d089f78dbf18612d734c90, 7b29a808a071e775722acfb4a09f31ee293e15cb]","0.865 seconds","3.2.13","[cucumber-rails, rspec-rails, factory_girl]","2","[]","2","3","[app/controllers/dashboard_controller.rb, app/views/dashboard/_contact_request_form.haml, app/views/dashboard/index.haml]","false","0.12820512817751478","0","","0",""
"sharetribe","2270","[28-01-2014, 31-01-2014]","4","3","[Editing categories , Categories can be assigned a parent category when creating them , Some translations ]","1","20","14","5","5","[tr, find, click, login_as, id, update_attribute, page, have_content, has_content?, all, eql, be_visible, each, current_path, within, categories, hashes, category, transaction_types, types, build, categories, categories, id, body, names, category_custom_fields, options, save!, hashes, each_cons, times, each, click_link, fill_in, select, page, have_content, has_content?, execute_script, driver, browser, switch_to, alert, within, evaluate_script]","40","[path:features/admin/categories/admin_edits_category.feature, size:4]","4","","0","","0","","0","","[app/models/transaction_types/free_service.rb, app/models/transaction_types/loan.rb, app/models/transaction_types/sell_products.rb]","[admin_categories, admin_custom_fields]","2","16","21","[app/controllers/conversations_controller.rb, app/controllers/dashboard_controller.rb, app/controllers/terms_controller.rb, app/models/category.rb, app/models/classification.rb, app/models/community.rb, app/models/community_membership.rb, app/models/contact_request.rb, app/models/custom_field.rb, app/models/custom_field_name.rb, app/models/custom_field_option.rb, app/models/custom_field_option_title.rb, app/models/person.rb, app/views/dashboard/_contact_request_form.haml, app/views/dashboard/index.haml, lib/np_guid/uuidtools.rb]","[app/controllers/admin/categories_controller.rb, app/helpers/categories_helper.rb, app/models/category.rb, app/models/category_translation.rb, app/models/transaction_type.rb, app/models/transaction_types/give.rb, app/models/transaction_types/lend.rb, app/models/transaction_types/rent.rb, app/models/transaction_types/request.rb, app/models/transaction_types/sell.rb, app/models/transaction_types/service.rb, app/models/transaction_types/swap.rb, app/views/admin/categories/_listed_subcategory.haml, app/views/admin/categories/_listed_top_level_category.haml, app/views/admin/categories/edit.haml, app/views/admin/categories/form/_buttons.haml, app/views/admin/categories/form/_category_name.haml, app/views/admin/categories/form/_category_parent.haml, app/views/admin/categories/form/_category_transaction_types.haml, app/views/admin/categories/new.haml, app/views/admin/categories/remove.haml]","0.0625","0.0476190476","[cf1320ea2dee93faa7b0ae76e2bf30f4cafd4ba7, 33586103c66dd7d3138b43fb969109d9f391900f, d9e7ad95ac4b2b6afdf73320a6d24209b88193e0]","1.634 seconds","3.2.13","[cucumber-rails, rspec-rails, factory_girl]","5","[{path=sharetribe_sharetribe/features/step_definitions/web_steps.rb, line=-1}]","2","3","[app/controllers/dashboard_controller.rb, app/views/dashboard/_contact_request_form.haml, app/views/dashboard/index.haml]","false","0.0499999999832","3","[path:features/admin/custom_fields/admin_edits_custom_field.feature, text:the option order for ""Balcony type"" should be following:], [path:features/admin/custom_fields/admin_edits_custom_field.feature, text:correct categories should be stored], [path:features/admin/custom_fields/admin_edits_custom_field.feature, text:options should be stored correctly]","0",""
"sharetribe","2279","[24-01-2014]","1","2","[Removed a printline , Comments can now be turned on in listings ]","1","4","2","2","2","[login_as, hashes, get_test_person_and_session, save!, update_attributes, id, consent, set_default_preferences, save, each, update_all, name, find, find_or_create_category, find_or_create_share_type, update_attribute, click_button, click_link, page, have_content, has_content?, have_no_content, has_no_content?, within, homepage]","0","[path:features/listings/user_comments_a_listing.feature, size:1]","1","","0","","0","","0","","[]","[new_listing]","1","17","4","[app/controllers/dashboard_controller.rb, app/controllers/homepage_controller.rb, app/models/community.rb, app/models/community_membership.rb, app/models/contact_request.rb, app/models/email.rb, app/models/listing.rb, app/models/person.rb, app/views/dashboard/_contact_request_form.haml, app/views/dashboard/index.haml, app/views/homepage/_custom_filters.haml, app/views/homepage/_grid_item.haml, app/views/homepage/_list_item.haml, app/views/homepage/_map.haml, app/views/homepage/_search_bar.haml, app/views/homepage/index.haml, app/views/layouts/_grid_item_listing_image.haml]","[app/mailers/person_mailer.rb, app/models/person.rb, app/views/listings/_comment.haml, app/views/listings/show.haml]","0.0588235294","0.25","[13e9f35115cbcc4ab9bf0bf10fc4241e8e175a1c, b4ce768d73198e648c53c7bcbcc21129dbfd5b73]","1.702 seconds","3.2.13","[cucumber-rails, rspec-rails, factory_girl]","2","[]","9","11","[app/controllers/dashboard_controller.rb, app/controllers/homepage_controller.rb, app/views/dashboard/_contact_request_form.haml, app/views/dashboard/index.haml, app/views/homepage/_custom_filters.haml, app/views/homepage/_grid_item.haml, app/views/homepage/_list_item.haml, app/views/homepage/_map.haml, app/views/homepage/_search_bar.haml, app/views/homepage/index.haml, app/views/layouts/_grid_item_listing_image.haml]","false","0.15151515149954087","0","","0",""
