"Repository","https://github.com/sharetribe/sharetribe.git"
"Tasks with empty IReal","0"
"Tasks with no-empty IReal","3"
"Tasks with relevant AST error","0"
"Tasks with AST error of Gherkin files","0"
"Tasks with AST error of StepDef files","0"
"Tasks with AST error of production files","0"
"Tasks with AST error of unit test files","0"
"Tasks with step match error","3"
"Tasks without required gems","0"
"Tasks with changed stepdef","3"
"Tasks with changed Gherkin","3"
"Tasks with implemented Gherkin scenarios","2"
"All invalid tasks","3"
"All valid tasks (Gherkin scenario, no empty IReal, no error)","0"
"Valid tasks, but empty ITest","0"
"Valid tasks, no empty ITest, but zero precision-recall","0"
"Valid tasks, no empty ITest, no zero precision-recall","0"
"Project","Task","Date","#Days","#Commits","Commit_Message","#Devs","#Gherkin_Tests","#Impl_Gherkin_Tests","#StepDef","#Impl_StepDef","Methods_Unknown_Type","#Step_Call","Step_Match_Errors","#Step_Match_Error","AST_Errors","#AST_Errors","Gherkin_AST_Errors","#Gherkin_AST_Errors","Steps_AST_Errors","#Steps_AST_Errors","Renamed_Files","Deleted_Files","NotFound_Views","#Views","#TestI","#TaskI","TestI","TaskI","Precision","Recall","Hashes","Timestamp","Rails","Gems","#Visit_Call","Lost_visit_call","#Views_ITest","#Code_View_Analysis","Code_View_Analysis","Has_Merge","F2","#Multiple_Step_Matches","Multiple_Step_Matches","#Generic_Step_Keyword","Generic_Step_Keyword"
"sharetribe","364","[15-12-2017, 18-12-2017, 19-12-2017]","5","27","[fixed: db/structure.sql , Availability per hour - settings , Availability per hour - resolve merge , Availability per hour - css fixes , Availability per hour - test booking edge cases , Availability per hour - listing booking edge cases , Availability per hour - automatic confirmation , Availability per hour - buyer fixes , Availability per hour - fixed blocked dates   - added timecop.js for front-end , Availability per hour - adjust start and end time , Availability per hour - emails , Availability per hour - test1 , Availability per hour - preauthorize , Availability per hour - no day's boundaries at calc , Availability per hour. Listing's booking form , Availability per hour - fixes , Availability per hour - dont fallback to en locale , Availability per hour - day enabled , Availability per hour - fix react lib , Availability per hour - no validate on add , Availability per hour - reset till time , Availability per hour - provider fixed , Availability per hour - correct amdin , A [TOO_LONG]","2","4","3","13","13","[username, hashes, id, save!, update_attributes, update_attribute, set_default_preferences, save, each, where, update_all, name, find, click_button, click_link, page, execute_script, select, page, have_content, have_css, within, find, click, provision, enable, activate, merge, api_verified, create_listing_shape, find_shape, create_listing, to_i, nil?, have_css, community_id, inject, skip_this_scenario]","0","[path:features/listings/user_manage_per_hour_availability.feature, size:1]","1","","0","","0","","0","","[]","[homepage_with_locale]","1","42","38","[app/controllers/landing_page_controller.rb, app/models/category.rb, app/models/community.rb, app/models/community_membership.rb, app/models/email.rb, app/models/listing.rb, app/models/person.rb, app/services/analytic_service/api/api.rb, app/services/email_service/api/api.rb, app/services/feature_flag_service/api/api.rb, app/services/listing_index_service/api/api.rb, app/services/marketplace_service/api/api.rb, app/services/marketplace_service/community.rb, app/services/marketplace_service/listing.rb, app/services/marketplace_service/person.rb, app/services/marketplace_service/store/marketplace_configurations.rb, app/services/paypal_service/api/api.rb, app/services/paypal_service/store/paypal_payment.rb, app/services/plan_service/api/api.rb, app/services/stripe_service/api/api.rb, app/services/stripe_service/store/stripe_payment.rb, app/services/transaction_service/api/api.rb, app/services/transaction_service/api/settings.rb, app/services/transaction_service/store/payment_settings.rb, app/services/translation_service/api/api.rb, app/utils/form_utils.rb, app/views/analytics/_customer_analytics.haml, app/views/analytics/_google_analytics_script.haml, app/views/analytics/_google_tag_manager.haml, app/views/analytics/_legacy_google_analytics.haml, app/views/landing_page/_categories.erb, app/views/landing_page/_footer.erb, app/views/landing_page/_hero.erb, app/views/landing_page/_icon.erb, app/views/landing_page/_info.erb, app/views/landing_page/_listings.erb, app/views/landing_page/_meta.erb, app/views/landing_page/_prevent_widows.erb, app/views/landing_page/_topbar.erb, app/views/landing_page/_video.erb, app/views/landing_page/landing_page.erb, app/views/layouts/_fonts.erb]","[app/controllers/admin/communities_controller.rb, app/controllers/admin/listing_shapes_controller.rb, app/controllers/int_api/listings_controller.rb, app/controllers/listings_controller.rb, app/controllers/preauthorize_transactions_controller.rb, app/controllers/transactions_controller.rb, app/mailers/transaction_mailer.rb, app/models/booking.rb, app/models/community.rb, app/models/listing.rb, app/models/listing/concerns/manage_availability_per_hour.rb, app/models/listing/working_time_slot.rb, app/models/listing_shape.rb, app/models/listing_unit.rb, app/models/payment_settings.rb, app/models/transaction.rb, app/presenters/concerns/listing_availability_manage.rb, app/presenters/listing_presenter.rb, app/services/feature_flag_service/store.rb, app/services/transaction_service/gateway/paypal_settings_adapter.rb, app/services/transaction_service/gateway/stripe_settings_adapter.rb, app/services/transaction_service/process/preauthorize.rb, app/services/transaction_service/store/payment_settings.rb, app/services/transaction_service/store/transaction.rb, app/state_machines/transaction_process_state_machine.rb, app/utils/date_utils.rb, app/view_utils/listing_shape_templates.rb, app/view_utils/shape_service.rb, app/view_utils/transaction_view_utils.rb, app/views/accept_preauthorized_conversations/accept.haml, app/views/admin/communities/settings.haml, app/views/admin/listing_shapes/_shape_form_content.haml, app/views/admin/listing_shapes/edit.haml, app/views/admin/listing_shapes/new.haml, app/views/layouts/_head.haml, app/views/listing_conversations/initiate.haml, app/views/listings/_listing_actions.haml, app/views/transactions/_price_break_down.haml]","0.0714285714","0.0789473684","[a9a445adb888883754277ea58c87ec06302b6752, c33cdcb147783ee661b899c98eadde82285f9041, fafab32832d0f0801b1ccd56598bc18d078129f4, 804aab822bd45e89a4caeaeec407c26b5257acbe, d71fd18c0f721fa2d03152c6e9db3c6dc1c5117f, 86211546fe2c5a6d5a94dc35c72a857cefb39920, 05c8f0ff8e517dd812ebfd79c4d2c0399da23311, 5552ee68de38d426c5e2fedf4d4f0bba1c5f4060, 3d9f596d6c63bf0ac29352229eca122589f92aa5, d73c1e165bf2c13b2b7ca58d339ade6908cb976d, 55696c51bed251291f3adff6081ec690f5c22c5c, 8b8916a46f4590419de27643b76e8f1678a6cb06, b5bfd0ec4b7e198df3a1ecc5a4e3de9eb04d365f, 08550ecb2b74c504c283915e5ce9bb0c39587631, 32b0715afe14f846214c60098d00849bc3c64910, dba5d8c06fca11b776ca522cbb674482f99b8a3d, d2d926e802105db1742f20936cfdb8edc458bbaf, d12fdc3b0722f4f9cb41b8f6ad154d115747c31f, 77db9ba0b4746638ba12e9ccc69da64a2d162c9c, 441c45265468f686a5654b0b3894afbc4841c154, 6cf018378c2671b11fbc533110915534b2782226, bf2cc99428acd6b69ba0eaf29a0d3fbaf994422d, aac8a7906422a4cdd13a614eaa8c8bde23dc9a6d, f8be3a83ec8449c78b12d92f9c1bb4b5000b2e74, 697d64f502d239ca8846256a15d80d9bab7f546e, 1cfecb4257f08531e0686b3e5e39cc6bc19815f2, 202c52bc15c433aa38a2db2aabd456111c529a05]","3.562 seconds","5.1.1","[cucumber-rails, rspec-rails, factory_girl]","2","[]","16","17","[app/controllers/landing_page_controller.rb, app/views/analytics/_customer_analytics.haml, app/views/analytics/_google_analytics_script.haml, app/views/analytics/_google_tag_manager.haml, app/views/analytics/_legacy_google_analytics.haml, app/views/landing_page/_categories.erb, app/views/landing_page/_footer.erb, app/views/landing_page/_hero.erb, app/views/landing_page/_icon.erb, app/views/landing_page/_info.erb, app/views/landing_page/_listings.erb, app/views/landing_page/_meta.erb, app/views/landing_page/_prevent_widows.erb, app/views/landing_page/_topbar.erb, app/views/landing_page/_video.erb, app/views/landing_page/landing_page.erb, app/views/layouts/_fonts.erb]","false","0.07731958760601552","0","","0",""
"sharetribe","1131","[20-04-2016]","1","37","[WTI pull , Merge pull request #1928 from sharetribe/fix-superadmin-login  Allow superadmins to login regardless of community, Allow superadmins to login regardless of community , Merge pull request #1753 from sharetribe/community-specific-signup  Community specific signup, Fix tests , Set community membership consent on create  Set consent to the one of current community on community membership create. Also person id and community id read from session variables. , Add community_id to Email.create , Add community id to person and email on create , Fix facebook login logic  Correctly fetch users based on FB id, email and community id. Enable feature flags in user creation when using FB login. , Ensure consent given on account create through FB , Skip ensure_user_belongs_to_community filter where it shouldn't be run , Add new filter cannot_access_without_confirmation (#1911) , Fix a bug in automatic logout mechanism , Don't use person.community_id because it doesn't exist yet , Log befo [TOO_LONG]","4","3","3","1","1","[id, each, click, within, click_button, fill_in, Integer, sleep, check, page, have_content, current_path, unread_emails_for, parse_email_count, eq, mailbox_for, open_email, click_first_link_in_email, hashes, save!, update_attributes, consent, update_attribute, set_default_preferences, save, where, update_all, name, find, present?, have_css, has_css?]","2","[path:features/step_definitions/email_steps.rb, size:1]","1","","0","","0","","0","","[lib/strategies/community_authenticatable.rb]","[/en/signup, login]","2","21","16","[app/models/community.rb, app/models/community_membership.rb, app/models/email.rb, app/models/invitation.rb, app/models/person.rb, app/services/email_service/api/api.rb, app/services/feature_flag_service/api/api.rb, app/services/feature_flag_service/store.rb, app/services/listing_index_service/api/api.rb, app/services/listing_service/api/api.rb, app/services/listing_service/api/listings.rb, app/services/listing_service/store/listing.rb, app/services/marketplace_service/api/api.rb, app/services/marketplace_service/community.rb, app/services/marketplace_service/person.rb, app/services/marketplace_service/store/marketplace_configurations.rb, app/services/paypal_service/api/api.rb, app/services/plan_service/api/api.rb, app/services/transaction_service/api/api.rb, app/services/translation_service/api/api.rb, app/utils/form_utils.rb]","[app/controllers/application_controller.rb, app/controllers/communities_controller.rb, app/controllers/community_memberships_controller.rb, app/controllers/confirmations_controller.rb, app/controllers/feedbacks_controller.rb, app/controllers/int_api/marketplaces_controller.rb, app/controllers/people_controller.rb, app/controllers/sessions_controller.rb, app/forms/form.rb, app/models/community_membership.rb, app/models/email.rb, app/models/person.rb, app/services/feature_flag_service/api/features.rb, app/services/feature_flag_service/store.rb, app/services/user_service/api/users.rb, app/views/community_memberships/new.haml]","0.1904761905","0.25","[d7e025c803b6afce92ba85c83ed3ff3c1a305c18, 82f7cad16977b0ce2fd69e0762a3fecc37b49187, 04e31ff8893712c8fbf786a3a81df37061e4292f, 0ac81b3aefa896bc509ee1046011aed34382d271, a12692e2208f8fcc015dd6c7a8d9281a5c0344aa, 17d302c52542abdd3e3773dc0b07037ccc30c753, b05311937834fcac2c8b982d5907fb5fea31d813, 2ac67e4fae86f215ff15212a5f1e175d3b7c5cff, 1d220473786131f9f4821f01616d08bc936c300f, 12ef8eafa3ffe7d5dc903c4844b79d958005296f, 32c45b15aece0a450e37f3fecacc3f6658c50dcc, 56205d511e21b486334faacba7db24dcc5484636, ef1ad336e51223f19c78038591ac95db8cca4afb, e0b95bbc210423646b6f538699d0a8ad9ae841b1, 0dd52bb128edc17a8aa208d6e48b2e4b3dbdeb19, 8a5a96b6264f1bb1435f7760e472bb54612dc91b, 5ea8568818119481dccdc22c17f97b9456e1fb63, 4e1db74e52e5f09b1cdb62b57052d5c1b5433c14, 10852832caf0876b5c99da13aef572e7e116b1ba, e58421a067f8377393d02b431e5bbea7c3ca0e74, d651d09530ee9b786efcc73d565d6e0de858e59b, bbc62784e18d4e370cff37c7280d06d0e2eab083, ecf37d3cbea104597cb316ac035b936696aac98f, cc616f35c242cc27541ab5076eea8b192b3ace41, 716ca90f2f51fcec22b9199ce7cea3471f850ee3, 5c75de1cc711de7287fd04b88f2c42e521d14c05, d232347f80232ca5305ceb5d4d8be8d7949672fd, 1d18521ca1c8059b95323a35e01a46a91d2fc516, e049a40dda2901fb1925865d71339a74b1426fbc, 29cd56df5289b73faf068319a16e7b9b5d944da7, 76f55f2cc6955595fba4f86ac9940e02648baf0d, 1aa806e914904e60476a76d1d012c66e59dda574, 741b21b2fa073c80ab707df1eff5a3cc5fe54495, ed080e460e7c405ed63d68b3f8bc6df90873a576, 2520c98a1663e47e49ba196f452f752b620a4f1e, 9ced7b19f2a8624ce1e60a143b580f83eda764ad, b67182f9b870a379889b3ffadf836998aeae94d6]","1.068 seconds","4.2.5.2","[cucumber-rails, rspec-rails, factory_girl]","3","[{path=sharetribe_sharetribe/features/step_definitions/web_steps.rb, line=-1}]","0","0","[]","true","0.23529411765432529","0","","0",""
"sharetribe","1300","[16-12-2015, 17-12-2015, 18-12-2015, 21-12-2015]","6","30","[Merge pull request #1612 from sharetribe/prepare-rails-4-cont-3  Prepare rails 4 cont 3, Fix cucumber test  Wait until the previous operation is done , Strong parameters: Comments , Strong parameters: Messages and Conversations , Add person_id to the route  Seems that Rails4/Rspec needs the person_id for the route to work. , Strong parameters: BraintreeAccount , Be explicit about the URLs in controller tests  In Rails 4, we get error saying that the URL is not found, if the community_id, which is part of the URL, is not specified. , Rename partial name. Change dashes to underscores. , Hotfix: Image uploader is broken , WTI pull , Merge pull request #1611 from sharetribe/prepare-rails-4-cont-2  Prepare rails 4 cont. v2, Fix menulink removal , Strong params: Listing images , Strong parameters: Admin communities controller , Remove action_mailer_cache_delivery gem  It doesn't have Rails 4 support, and we haven't been actually using it.  In addition to that:  - Fix a bug: Email was opene [TOO_LONG]","1","1","0","2","2","[page, have_content]","0","[path:features/conversations/person_transaction_process.feature, size:1]","1","","0","","0","","0","","[app/views/layouts/_ajax-update-notification.haml, app/views/layouts/_global-header.haml]","","0","4","38","[app/models/listing.rb, app/models/person.rb, app/services/listing_service/store/listing.rb, app/services/marketplace_service/listing.rb]","[app/controllers/accept_conversations_controller.rb, app/controllers/admin/communities_controller.rb, app/controllers/admin/custom_fields_controller.rb, app/controllers/braintree_accounts_controller.rb, app/controllers/checkout_accounts_controller.rb, app/controllers/comments_controller.rb, app/controllers/confirm_conversations_controller.rb, app/controllers/listing_images_controller.rb, app/controllers/listings_controller.rb, app/controllers/messages_controller.rb, app/controllers/person_messages_controller.rb, app/forms/form.rb, app/models/braintree_account.rb, app/models/comment.rb, app/models/community.rb, app/models/conversation.rb, app/models/custom_field_value.rb, app/models/listing.rb, app/models/listing_image.rb, app/models/message.rb, app/models/testimonial.rb, app/services/paypal_service/api/payments.rb, app/utils/marketplace_router.rb, app/views/admin/categories/_category_action_buttons.haml, app/views/admin/community_memberships/index.haml, app/views/admin/custom_fields/_listed_custom_field.haml, app/views/admin/listing_shapes/_shape_form_content.haml, app/views/admin/listing_shapes/edit.haml, app/views/conversations/_messages_and_form.haml, app/views/devise/registrations/edit.html.erb, app/views/layouts/_ajax_update_notification.haml, app/views/layouts/_global_header.haml, app/views/layouts/application.haml, app/views/layouts/feedback.haml, app/views/listing_conversations/new_with_payment.haml, app/views/listings/_comment.haml, app/views/listings/_comment_form.haml, app/views/person_messages/new.haml]","0.25","0.0263157895","[47e2ea46c5105bd4f5c6654690a183e8ee180ea6, d096d37d7f5ebfbd3661f6ac6a8c6873c12ff2cb, bdd4592fb0912e6f99eb5cbbd8d0ee7008142320, 2817afa0c3b424c68d44ae4f2dc3f52a632af1b9, f60cca92bf5b2384ec4f5909060fb68d8748cf15, 9fb599d839f87356d209156c63f0ddd6041dc5e9, a81ff2723c9446b86b4f0abb807a29f62ca6f701, 55b9949345b597dbd09e1d24fa7ae24370885673, 116e0309c6ebfcd790eef3aeb9dcea746504f3a3, 3e01a18303d8c0ecde85134422eeee40cbdcc088, a0698a2d8ee4d8f3fd9405bcb22600cd15a134dc, db8f8915e7e6f02883046a6282d848b3922f07f1, 76bbb272bb000718a18318f6f743c8d71ab8061d, f31cb151db25a99eda7df26c1c9caad7adf067c7, 643fb199c1bf151f04df382ffa227aefbf2b8efd, 9634b41d475e376a33f100547edcf7398c4ba510, ef2f5054be4919b665dc15d4f545d6145057a9e0, 44e520dd2f1ca4bde9626904c37a13244527a2f1, 34e6db6469c504152290f7fd1801d46f4f61563d, 8d8d49b7eb4d11ed071bd6c7523569cce25154aa, 5982dcb4baedb72d44004093701f914d10470a3d, f213e4604bc046ab1cb21535b05901005600afab, 19dfe290df325620bbc4f3becce9a632b9b3db6f, caf3b758b46aa189cdaa167b49f17bf075273db2, 7fd0655e63ac82dc5cf3f21e5ed22145670baa1a, ef157d99ee6a84f3772c20df6e1d60dc952b2fc8, 185c897e49a108373786f441a5f1eb70f2ecda49, a1e63770e4cec9b2bf81acf7cf800a3224ae2e8c, 1b0ee57784bf371b9d1f64306c85f21b4fca7016, 566f3ec82e65ad96087f5584f7df0ea2e438ad3e]","0.374 seconds","3.2.21","[cucumber-rails, rspec-rails, coveralls, factory_girl]","0","[]","0","0","[]","true","0.032051282082511505","0","","0",""
