"Repository","https://github.com/EFForg/action-center-platform.git"
"Precision mean (RT)","0.33333333335"
"Precision median (RT)","0.33333333335000004"
"Precision standard deviation (RT)","0.2357022603719456"
"Recall mean (RT)","0.5"
"Recall median (RT)","0.5"
"Recall standard deviation (RT)","0.0"
"F2 mean (RT)","0.4285714285867347"
"F2 median (RT)","0.4285714285867347"
"F2 standard deviation (RT)","0.10101525443357491"
"Correlation #Test-Precision","-1.0"
"Correlation #Test-Recall","null"
"Task","Dates","#Devs","#Commits","Hashes","#Gherkin_Tests","#Sted_defs","#TestI","#TaskI","TestI","TaskI","Precision","Recall","Rails","#visit_call","Lost_visit_call","#Views_TestI","#Code_View_Analysis","Code_View_Analysis","Methods_Unknown_Type","Renamed_Files","Deleted_Files","NotFound_Views","#NotFound_Views","Timestamp","Has_Merge","#FP","#FN","FP","FN","#Hits","Hits","f2"
"225","[10-12-2015]","1","2","[c72d06d7bbf75b3f6082a0849b830a669b1be39c, a7f0d5036e476c1c1594b96ef3bb1e9f74b88248]","3","18","6","2","[app/controllers/admin/action_pages_controller.rb, app/controllers/admin/topic_categories_controller.rb, app/controllers/admin/topic_sets_controller.rb, app/controllers/partners_controller.rb, app/controllers/users_controller.rb, app/controllers/welcome_controller.rb]","[app/controllers/application_controller.rb, app/controllers/users_controller.rb]","0.1666666667","0.5","4.1.10","6","[]","0","18","[app/controllers/admin/action_pages_controller.rb, app/controllers/admin/topic_categories_controller.rb, app/controllers/admin/topic_sets_controller.rb, app/controllers/partners_controller.rb, app/controllers/users_controller.rb, app/controllers/welcome_controller.rb, app/views/admin/_header.html.erb, app/views/admin/_nav_tabs.html.erb, app/views/admin/action_pages/_date_range_form.html.erb, app/views/admin/action_pages/_date_vars.html.erb, app/views/admin/action_pages/index.html.erb, app/views/devise/registrations/edit.html.erb, app/views/subscriptions/_form.html.erb, app/views/tools/_loading.html.erb, app/views/users/edit.html.erb, app/views/users/show.html.erb, app/views/welcome/_meta_tags.html.erb, app/views/welcome/index.html.erb]","[page, html, include, have_content, not_to, click, find, set, page, evaluate_script, fill_in, click_button, change, get email alerts]","","[]","[/login, /logout]","2","2.895 seconds","false","5","1","[app/controllers/admin/action_pages_controller.rb, app/controllers/admin/topic_categories_controller.rb, app/controllers/admin/topic_sets_controller.rb, app/controllers/partners_controller.rb, app/controllers/welcome_controller.rb]","[app/controllers/application_controller.rb]","1","[app/controllers/users_controller.rb]","0.35714285717346944"
"226","[03-12-2015]","1","1","[7050403a9e41024f25dc693cf034c0a455e45180]","2","12","2","2","[app/controllers/admin/action_pages_controller.rb, app/controllers/welcome_controller.rb]","[app/controllers/admin/action_pages_controller.rb, app/controllers/tools_controller.rb]","0.5","0.5","4.1.10","4","[]","0","11","[app/controllers/admin/action_pages_controller.rb, app/controllers/welcome_controller.rb, app/views/admin/_header.html.erb, app/views/admin/_nav_tabs.html.erb, app/views/admin/action_pages/_date_range_form.html.erb, app/views/admin/action_pages/_date_vars.html.erb, app/views/admin/action_pages/index.html.erb, app/views/subscriptions/_form.html.erb, app/views/tools/_loading.html.erb, app/views/welcome/_meta_tags.html.erb, app/views/welcome/index.html.erb]","[page, html, include, have_content, not_to, click, find, set, fill_in, click_button, get email alerts]","","[]","[/login, /logout]","2","2.642 seconds","false","1","1","[app/controllers/welcome_controller.rb]","[app/controllers/tools_controller.rb]","1","[app/controllers/admin/action_pages_controller.rb]","0.5"
