When /^(?:|I )go to (.+)$/ do |page_name|
  visit path_to(page_name)
end
When /^(?:|I )press "([^"]*)"(?: within "([^"]*)")?$/ do |button, selector|
  with_scope(selector) do
    click_button(button)
  end
end
When /^(?:|I )follow "([^"]*)"(?: within "([^"]*)")?$/ do |link, selector|
  with_scope(selector) do
    click_link(link)
  end
end
When /^(?:|I )fill in "([^"]*)" with "([^"]*)"(?: within "([^"]*)")?$/ do |field, value, selector|
  with_scope(selector) do
    fill_in(field, :with => value)
  end
end
Then /^(?:|I )should see "([^"]*)"(?: within "([^"]*)")?$/ do |text, selector|
  with_scope(selector) do
    if page.respond_to? :should
      page.should have_content(text)
    else
      assert page.has_content?(text)
    end
  end
end
Then /^(?:|I )should not see "([^"]*)"(?: within "([^"]*)")?$/ do |text, selector|
  with_scope(selector) do
    if page.respond_to? :should
      page.should have_no_content(text)
    else
      assert page.has_no_content?(text)
    end
  end
end
Then /^(?:|I )should be on (.+)$/ do |page_name|
  current_path = URI.parse(current_url).path
  if current_path.respond_to? :should
    current_path.should == path_to(page_name)
  else
    assert_equal path_to(page_name), current_path
  end
end
  def with_scope(locator)
    locator ? within(locator) { yield } : yield
  end
  def path_to(page_name)
    case page_name
    when /^the home page$/
      root_path
    when /^its ([\w ]+) page$/
      send("#{$1.gsub(/\W+/, '_')}_path", @it)
    when /^the ([\w ]+) page$/
      send("#{$1.gsub(/\W+/, '_')}_path")
    when /^my edit profile page$/
      edit_person_path(@me.person)
    when /^"(\/.*)"/
      $1
    else
      raise "Can't find mapping from \"#{page_name}\" to a path."
    end
  end
