"Repository","https://github.com/otwcode/otwarchive.git"
"Tasks with empty IReal","0"
"Tasks with no-empty IReal","1"
"Tasks with relevant AST error","0"
"Tasks with AST error of Gherkin files","0"
"Tasks with AST error of StepDef files","0"
"Tasks with AST error of production files","0"
"Tasks with AST error of unit test files","0"
"Tasks with step match error","1"
"Tasks without required gems","0"
"Tasks with changed stepdef","1"
"Tasks with changed Gherkin","1"
"Tasks with implemented Gherkin scenarios","1"
"All invalid tasks","1"
"All valid tasks (Gherkin scenario, no empty IReal, no error)","0"
"Valid tasks, but empty ITest","0"
"Valid tasks, no empty ITest, but zero precision-recall","0"
"Valid tasks, no empty ITest, no zero precision-recall","0"
"Project","Task","Date","#Days","#Commits","Commit_Message","#Devs","#Gherkin_Tests","#Impl_Gherkin_Tests","#StepDef","#Impl_StepDef","Methods_Unknown_Type","#Step_Call","Step_Match_Errors","#Step_Match_Error","AST_Errors","#AST_Errors","Gherkin_AST_Errors","#Gherkin_AST_Errors","Steps_AST_Errors","#Steps_AST_Errors","Renamed_Files","Deleted_Files","NotFound_Views","#Views","#TestI","#TaskI","TestI","TaskI","Precision","Recall","Hashes","Timestamp","Rails","Gems","#Visit_Call","Lost_visit_call","#Views_ITest","#Code_View_Analysis","Code_View_Analysis","Has_Merge","F2","#Multiple_Step_Matches","Multiple_Step_Matches","#Generic_Step_Keyword","Generic_Step_Keyword"
"otwarchive","2623","[20-05-2011]","1","4","[Further test improvements for prompt memes , Challenge cucumber tests expanded , Gift exchange cucumber test refactoring , Issue 2329 claiming the same prompt twice ]","1","23","20","11","11","[click_button, check, select, fill_in, .participant_confirm_delete, url_for, are you sure?, are you sure you want to delete this claim?, subscribe, translated_post, single_comment, series, comment, click_button, click_link, check, uncheck, page, have_content, has_content?, have_no_content, has_no_content?, within, .participant_confirm_delete, url_for, subscribe, series, are you sure?, translated_post, are you sure you want to delete this claim?, single_comment, comment, capture_model, model!, capture_predicate, gsub, send, emails, to_i, wait_until, within, new_collection_url]","0","[path:features/challenge_yuletide.feature, size:1], [path:features/challenge_giftexchange.feature, size:1]","2","","0","","0","","0","","[]","[app/views/challenge_claims/_creation.html.erb, app/views/chapters/_work.html.erb, app/views/pseuds/_pseud.html.erb, bookmarkable, post_draft_work, user_subscription]","6","200","2","[app/controllers/abuse_reports_controller.rb, app/controllers/admin/skins_controller.rb, app/controllers/admin_posts_controller.rb, app/controllers/admin_sessions_controller.rb, app/controllers/admins_controller.rb, app/controllers/archive_faqs_controller.rb, app/controllers/bookmarks_controller.rb, app/controllers/challenge/gift_exchange_controller.rb, app/controllers/challenge_claims_controller.rb, app/controllers/chapters_controller.rb, app/controllers/collection_items_controller.rb, app/controllers/collection_participants_controller.rb, app/controllers/collections_controller.rb, app/controllers/external_works_controller.rb, app/controllers/fandoms_controller.rb, app/controllers/feedbacks_controller.rb, app/controllers/home_controller.rb, app/controllers/invitations_controller.rb, app/controllers/invite_requests_controller.rb, app/controllers/known_issues_controller.rb, app/controllers/media_controller.rb, app/controllers/orphans_controller.rb, app/controllers/passwords_controller.rb, app/controllers/people_controller.rb, app/controllers/pseuds_controller.rb, app/controllers/readings_controller.rb, app/controllers/related_works_controller.rb, app/controllers/serial_works_controller.rb, app/controllers/series_controller.rb, app/controllers/skins_controller.rb, app/controllers/static/collections_controller.rb, app/controllers/static/fandoms_controller.rb, app/controllers/static/media_controller.rb, app/controllers/static/works_controller.rb, app/controllers/user_invite_requests_controller.rb, app/controllers/user_sessions_controller.rb, app/controllers/users_controller.rb, app/controllers/works_controller.rb, app/controllers/yuletide2010_controller.rb, app/helpers/bookmarks_helper.rb, app/helpers/works_helper.rb, app/models/abuse_report.rb, app/models/admin_post.rb, app/models/admin_session.rb, app/models/archive_faq.rb, app/models/collection.rb, app/models/feedback.rb, app/models/invite_request.rb, app/models/known_issue.rb, app/models/people.rb, app/models/prompt.rb, app/models/series.rb, app/models/user.rb, app/models/user_invite_request.rb, app/models/user_session.rb, app/models/work.rb, app/views/abuse_reports/new.html.erb, app/views/admin/_admin_nav.html.erb, app/views/admin/_admin_options.html.erb, app/views/admin_posts/_admin_index.html.erb, app/views/admin_posts/_admin_post_form.html.erb, app/views/admin_posts/edit.html.erb, app/views/admin_posts/index.html.erb, app/views/admin_posts/new.html.erb, app/views/admin_posts/show.html.erb, app/views/admin_sessions/new.html.erb, app/views/admins/show.html.erb, app/views/archive_faqs/_admin_index.html.erb, app/views/archive_faqs/_archive_faq_form.html.erb, app/views/archive_faqs/_archive_faq_order.html.erb, app/views/archive_faqs/edit.html.erb, app/views/archive_faqs/index.html.erb, app/views/archive_faqs/manage.html.erb, app/views/archive_faqs/new.html.erb, app/views/archive_faqs/show.html.erb, app/views/bookmarks/_bookmark.html.erb, app/views/bookmarks/_bookmark_form.html.erb, app/views/bookmarks/_bookmark_full_info.html.erb, app/views/bookmarks/_bookmark_owner_navi.html.erb, app/views/bookmarks/_bookmark_user_info.html.erb, app/views/bookmarks/_bookmarks.html.erb, app/views/bookmarks/edit.html.erb, app/views/bookmarks/index.html.erb, app/views/bookmarks/show.html.erb, app/views/challenge/gift_exchange/edit.html.erb, app/views/challenge_claims/show.html.erb, app/views/challenge_signups/_show_prompt.html.erb, app/views/chapters/_chapter.html.erb, app/views/chapters/_chapter_form.html.erb, app/views/chapters/_chapter_management.html.erb, app/views/chapters/manage.html.erb, app/views/chapters/new.html.erb, app/views/collection_items/_item_form.html.erb, app/views/collection_items/index.html.erb, app/views/collection_participants/_add_participants_form.html.erb, app/views/collection_participants/_participant_form.html.erb, app/views/collection_participants/index.html.erb, app/views/collections/_bookmarks_module.html.erb, app/views/collections/_collection_blurb.html.erb, app/views/collections/_filters.html.erb, app/views/collections/_form.html.erb, app/views/collections/_header.html.erb, app/views/collections/_works_module.html.erb, app/views/collections/edit.html.erb, app/views/collections/index.html.erb, app/views/collections/list_challenges.html.erb, app/views/collections/new.html.erb, app/views/collections/show.html.erb, app/views/comments/_comment_form.html.erb, app/views/comments/_comment_thread.html.erb, app/views/comments/_commentable.html.erb, app/views/comments/_confirm_delete.html.erb, app/views/comments/_single_comment.html.erb, app/views/external_works/_external_work_blurb.html.erb, app/views/external_works/new.html.erb, app/views/fandoms/index.html.erb, app/views/feedbacks/new.html.erb, app/views/gifts/_gift_search.html.erb, app/views/home/_tos.html.erb, app/views/home/index.html.erb, app/views/home/tos.html.erb, app/views/home/tos_faq.html.erb, app/views/invitations/index.html.erb, app/views/invite_requests/index.html.erb, app/views/known_issues/_admin_index.html.erb, app/views/known_issues/_known_issues_form.html.erb, app/views/known_issues/edit.html.erb, app/views/known_issues/index.html.erb, app/views/known_issues/new.html.erb, app/views/kudos/_kudos.html.erb, app/views/media/index.html.erb, app/views/orphans/about.html.erb, app/views/passwords/new.html.erb, app/views/people/_author_blurb.html.erb, app/views/people/_search_form.html.erb, app/views/people/index.html.erb, app/views/people/search.html.erb, app/views/pseuds/_byline.html.erb, app/views/pseuds/_pseud_blurb.html.erb, app/views/pseuds/_pseuds_form.html.erb, app/views/pseuds/index.html.erb, app/views/pseuds/new.html.erb, app/views/pseuds/show.html.erb, app/views/series/_series_blurb.html.erb, app/views/series/_series_order.html.erb, app/views/series/edit.html.erb, app/views/series/index.html.erb, app/views/series/manage.html.erb, app/views/skins/_form.html.erb, app/views/skins/_skin_navigation.html.erb, app/views/skins/_skin_style_block.html.erb, app/views/skins/_skin_top_navigation.html.erb, app/views/skins/_wizard_form.html.erb, app/views/skins/edit.html.erb, app/views/skins/index.html.erb, app/views/skins/new.html.erb, app/views/skins/new_wizard.html.erb, app/views/user_invite_requests/new.html.erb, app/views/user_sessions/_greeting.html.erb, app/views/user_sessions/_login.html.erb, app/views/user_sessions/_openid.html.erb, app/views/user_sessions/_openid_small.html.erb, app/views/user_sessions/_passwd.html.erb, app/views/user_sessions/_passwd_small.html.erb, app/views/user_sessions/new.html.erb, app/views/users/_contents.html.erb, app/views/users/_header.html.erb, app/views/users/_legal.html.erb, app/views/users/_openid.html.erb, app/views/users/_passwd.html.erb, app/views/users/_sidebar.html.erb, app/views/users/browse.html.erb, app/views/users/change_openid.html.erb, app/views/users/change_password.html.erb, app/views/users/change_username.html.erb, app/views/users/confirmation.html.erb, app/views/users/delete_confirmation.html.erb, app/views/users/delete_preview.html.erb, app/views/users/edit.html.erb, app/views/users/new.html.erb, app/views/users/show.html.erb, app/views/works/_edit_multiple_controls.html.erb, app/views/works/_filters.html.erb, app/views/works/_meta.html.erb, app/views/works/_search_box.html.erb, app/views/works/_series_links.html.erb, app/views/works/_standard_form.html.erb, app/views/works/_work_blurb.html.erb, app/views/works/_work_footer.html.erb, app/views/works/_work_header.html.erb, app/views/works/_work_tags_form.html.erb, app/views/works/edit.html.erb, app/views/works/edit_multiple.html.erb, app/views/works/edit_tags.html.erb, app/views/works/index.html.erb, app/views/works/navigate.html.erb, app/views/works/new.html.erb, app/views/works/new_import.html.erb, app/views/works/show.html.erb, app/views/works/show_multiple.html.erb]","[app/views/challenge_signups/_signup_controls.html.erb, app/views/challenge_signups/show.html.erb]","0.0","0.0","[b881b27b2ed2c5d912387ae9715895fc2c906905, 3353293f9c80d0a682fe8b59796a8dca913cb161, f71e122ded3fbf2a9bad6314917b30c3ca3c355f, d8eaeeab553fea0e592afd97e8f4675ee674e744]","51.067 seconds","3.0.4","[cucumber-rails, rspec-rails, factory_girl]","17","[{path=otwcode_otwarchive/features/step_definitions/work_steps.rb, line=-1}, {path=otwcode_otwarchive/features/step_definitions/collection_steps.rb, line=-1}]","144","183","[app/controllers/abuse_reports_controller.rb, app/controllers/admin/skins_controller.rb, app/controllers/admin_posts_controller.rb, app/controllers/admin_sessions_controller.rb, app/controllers/admins_controller.rb, app/controllers/archive_faqs_controller.rb, app/controllers/bookmarks_controller.rb, app/controllers/challenge/gift_exchange_controller.rb, app/controllers/challenge_claims_controller.rb, app/controllers/chapters_controller.rb, app/controllers/collection_items_controller.rb, app/controllers/collection_participants_controller.rb, app/controllers/collections_controller.rb, app/controllers/external_works_controller.rb, app/controllers/fandoms_controller.rb, app/controllers/feedbacks_controller.rb, app/controllers/home_controller.rb, app/controllers/invitations_controller.rb, app/controllers/invite_requests_controller.rb, app/controllers/known_issues_controller.rb, app/controllers/media_controller.rb, app/controllers/orphans_controller.rb, app/controllers/passwords_controller.rb, app/controllers/people_controller.rb, app/controllers/pseuds_controller.rb, app/controllers/serial_works_controller.rb, app/controllers/series_controller.rb, app/controllers/skins_controller.rb, app/controllers/static/collections_controller.rb, app/controllers/static/fandoms_controller.rb, app/controllers/static/media_controller.rb, app/controllers/static/works_controller.rb, app/controllers/user_invite_requests_controller.rb, app/controllers/user_sessions_controller.rb, app/controllers/users_controller.rb, app/controllers/works_controller.rb, app/controllers/yuletide2010_controller.rb, app/helpers/bookmarks_helper.rb, app/helpers/works_helper.rb, app/views/abuse_reports/new.html.erb, app/views/admin/_admin_nav.html.erb, app/views/admin/_admin_options.html.erb, app/views/admin_posts/_admin_index.html.erb, app/views/admin_posts/_admin_post_form.html.erb, app/views/admin_posts/edit.html.erb, app/views/admin_posts/index.html.erb, app/views/admin_posts/new.html.erb, app/views/admin_posts/show.html.erb, app/views/admin_sessions/new.html.erb, app/views/admins/show.html.erb, app/views/archive_faqs/_admin_index.html.erb, app/views/archive_faqs/_archive_faq_form.html.erb, app/views/archive_faqs/_archive_faq_order.html.erb, app/views/archive_faqs/edit.html.erb, app/views/archive_faqs/index.html.erb, app/views/archive_faqs/manage.html.erb, app/views/archive_faqs/new.html.erb, app/views/archive_faqs/show.html.erb, app/views/bookmarks/_bookmark.html.erb, app/views/bookmarks/_bookmark_form.html.erb, app/views/bookmarks/_bookmark_full_info.html.erb, app/views/bookmarks/_bookmark_owner_navi.html.erb, app/views/bookmarks/_bookmark_user_info.html.erb, app/views/bookmarks/_bookmarks.html.erb, app/views/bookmarks/edit.html.erb, app/views/bookmarks/index.html.erb, app/views/bookmarks/show.html.erb, app/views/challenge/gift_exchange/edit.html.erb, app/views/challenge_claims/show.html.erb, app/views/challenge_signups/_show_prompt.html.erb, app/views/chapters/_chapter.html.erb, app/views/chapters/_chapter_form.html.erb, app/views/chapters/_chapter_management.html.erb, app/views/chapters/manage.html.erb, app/views/chapters/new.html.erb, app/views/collection_items/_item_form.html.erb, app/views/collection_items/index.html.erb, app/views/collection_participants/_add_participants_form.html.erb, app/views/collection_participants/_participant_form.html.erb, app/views/collection_participants/index.html.erb, app/views/collections/_bookmarks_module.html.erb, app/views/collections/_collection_blurb.html.erb, app/views/collections/_filters.html.erb, app/views/collections/_form.html.erb, app/views/collections/_header.html.erb, app/views/collections/_works_module.html.erb, app/views/collections/edit.html.erb, app/views/collections/index.html.erb, app/views/collections/list_challenges.html.erb, app/views/collections/new.html.erb, app/views/collections/show.html.erb, app/views/comments/_comment_form.html.erb, app/views/comments/_comment_thread.html.erb, app/views/comments/_commentable.html.erb, app/views/comments/_confirm_delete.html.erb, app/views/comments/_single_comment.html.erb, app/views/external_works/_external_work_blurb.html.erb, app/views/external_works/new.html.erb, app/views/fandoms/index.html.erb, app/views/feedbacks/new.html.erb, app/views/gifts/_gift_search.html.erb, app/views/home/_tos.html.erb, app/views/home/index.html.erb, app/views/home/tos.html.erb, app/views/home/tos_faq.html.erb, app/views/invitations/index.html.erb, app/views/invite_requests/index.html.erb, app/views/known_issues/_admin_index.html.erb, app/views/known_issues/_known_issues_form.html.erb, app/views/known_issues/edit.html.erb, app/views/known_issues/index.html.erb, app/views/known_issues/new.html.erb, app/views/kudos/_kudos.html.erb, app/views/media/index.html.erb, app/views/orphans/about.html.erb, app/views/passwords/new.html.erb, app/views/people/_author_blurb.html.erb, app/views/people/_search_form.html.erb, app/views/people/index.html.erb, app/views/people/search.html.erb, app/views/pseuds/_byline.html.erb, app/views/pseuds/_pseud_blurb.html.erb, app/views/pseuds/_pseuds_form.html.erb, app/views/pseuds/index.html.erb, app/views/pseuds/new.html.erb, app/views/pseuds/show.html.erb, app/views/series/_series_blurb.html.erb, app/views/series/_series_order.html.erb, app/views/series/edit.html.erb, app/views/series/index.html.erb, app/views/series/manage.html.erb, app/views/skins/_form.html.erb, app/views/skins/_skin_navigation.html.erb, app/views/skins/_skin_style_block.html.erb, app/views/skins/_skin_top_navigation.html.erb, app/views/skins/_wizard_form.html.erb, app/views/skins/edit.html.erb, app/views/skins/index.html.erb, app/views/skins/new.html.erb, app/views/skins/new_wizard.html.erb, app/views/user_invite_requests/new.html.erb, app/views/user_sessions/_greeting.html.erb, app/views/user_sessions/_login.html.erb, app/views/user_sessions/_openid.html.erb, app/views/user_sessions/_openid_small.html.erb, app/views/user_sessions/_passwd.html.erb, app/views/user_sessions/_passwd_small.html.erb, app/views/user_sessions/new.html.erb, app/views/users/_contents.html.erb, app/views/users/_header.html.erb, app/views/users/_legal.html.erb, app/views/users/_openid.html.erb, app/views/users/_passwd.html.erb, app/views/users/_sidebar.html.erb, app/views/users/browse.html.erb, app/views/users/change_openid.html.erb, app/views/users/change_password.html.erb, app/views/users/change_username.html.erb, app/views/users/confirmation.html.erb, app/views/users/delete_confirmation.html.erb, app/views/users/delete_preview.html.erb, app/views/users/edit.html.erb, app/views/users/new.html.erb, app/views/users/show.html.erb, app/views/works/_edit_multiple_controls.html.erb, app/views/works/_filters.html.erb, app/views/works/_meta.html.erb, app/views/works/_search_box.html.erb, app/views/works/_series_links.html.erb, app/views/works/_standard_form.html.erb, app/views/works/_work_blurb.html.erb, app/views/works/_work_footer.html.erb, app/views/works/_work_header.html.erb, app/views/works/_work_tags_form.html.erb, app/views/works/edit.html.erb, app/views/works/edit_multiple.html.erb, app/views/works/edit_tags.html.erb, app/views/works/index.html.erb, app/views/works/navigate.html.erb, app/views/works/new.html.erb, app/views/works/new_import.html.erb, app/views/works/show.html.erb, app/views/works/show_multiple.html.erb]","false","0.0","3","[path:features/challenge_promptmeme.feature, text:2 emails should be delivered], [path:features/challenge_promptmeme.feature, text:1 email should be delivered], [path:features/challenge_yuletide.feature, text:the following activated users exist]","0",""
