"Repository","https://github.com/cul-it/blacklight-cornell.git"
"Precision mean (RT)","0.07037037036666667"
"Precision median (RT)","0.0"
"Precision standard deviation (RT)","0.14916975797620508"
"Recall mean (RT)","0.20111111111333332"
"Recall median (RT)","0.0"
"Recall standard deviation (RT)","0.37099537212557326"
"F2 mean (RT)","0.11450044208393102"
"F2 median (RT)","0.0"
"F2 standard deviation (RT)","0.19866196871091216"
"Correlation #Test-Precision","0.41"
"Correlation #Test-Recall","0.28"
"Task","Dates","#Devs","#Commits","Hashes","#Gherkin_Tests","#Sted_defs","#TestI","#TaskI","TestI","TaskI","Precision","Recall","Rails","#visit_call","Lost_visit_call","#Views_TestI","#Code_View_Analysis","Code_View_Analysis","Methods_Unknown_Type","Renamed_Files","Deleted_Files","NotFound_Views","#NotFound_Views","Timestamp","Has_Merge","#FP","#FN","FP","FN","#Hits","Hits","f2"
"12","[01-06-2019, 11-06-2019]","2","2","[4b54fe985d41c6d4afd6b6f049f9d0340c1fbaf9, 10b7208140506f3676499e65a9c5737ee8ae3afb]","41","0","10","12","[app/controllers/catalog_controller.rb, app/views/catalog/_call_number_browse_links.html.erb, app/views/catalog/_constraints.html.erb, app/views/catalog/_holdings_group.html.erb, app/views/catalog/_previous_next_doc.html.erb, app/views/catalog/_request_buttons.html.erb, app/views/catalog/_show_metadata.html.erb, app/views/catalog/_solr_status.html.erb, app/views/catalog/show.html.erb, lib/maybe.rb]","[app/controllers/catalog_controller.rb, app/models/concerns/blacklight/solr/document/marc_export.rb, app/views/advanced_search/_advanced_search_edit_search_form.html.erb, app/views/advanced_search/_advanced_search_tips.html.erb, app/views/advanced_search/_edit_advanced_search_form.html.erb, app/views/catalog/_call_number_browse_links.html.erb, app/views/catalog/_holdings_group.html.erb, app/views/catalog/_show_metadata.html.erb, app/views/catalog/_solr_status.html.erb, app/views/shared/_header_navbar.html.erb, app/views/shared/_search_form.html.erb, app/views/single_search/index.html.erb]","0.5","0.4166666667","4.2.11","21","[]","8","9","[app/controllers/catalog_controller.rb, app/views/catalog/_call_number_browse_links.html.erb, app/views/catalog/_constraints.html.erb, app/views/catalog/_holdings_group.html.erb, app/views/catalog/_previous_next_doc.html.erb, app/views/catalog/_request_buttons.html.erb, app/views/catalog/_show_metadata.html.erb, app/views/catalog/_solr_status.html.erb, app/views/catalog/show.html.erb]","[fill_in, fill_in, page, find, click, click_button, page, find, click, click_button, sleep, gsub!, fill_in, click_link, within, select_option, find, select_option, select_option, have_selector, click_link, click_link, have_link, have_content, each, __method__, url_for, page, have_selector, body, xpath, text, nil?, all]","","[]","[advanced, browse, librarian_view_solr_document]","3","2.569 seconds","true","5","7","[app/views/catalog/_constraints.html.erb, app/views/catalog/_previous_next_doc.html.erb, app/views/catalog/_request_buttons.html.erb, app/views/catalog/show.html.erb, lib/maybe.rb]","[app/models/concerns/blacklight/solr/document/marc_export.rb, app/views/advanced_search/_advanced_search_edit_search_form.html.erb, app/views/advanced_search/_advanced_search_tips.html.erb, app/views/advanced_search/_edit_advanced_search_form.html.erb, app/views/shared/_header_navbar.html.erb, app/views/shared/_search_form.html.erb, app/views/single_search/index.html.erb]","5","[app/controllers/catalog_controller.rb, app/views/catalog/_call_number_browse_links.html.erb, app/views/catalog/_holdings_group.html.erb, app/views/catalog/_show_metadata.html.erb, app/views/catalog/_solr_status.html.erb]","0.43103448278715817"
"75","[26-09-2018, 27-09-2018, 28-09-2018, 30-09-2018]","2","7","[17faa2cc1c5721194a6f1a802725878312e309f3, 410a4f49c902feee593d699f59b6ca1b633b5d55, 19c4dff607cde8d29a2d302d0b4a0aafdb00794c, 37c065c65ab00f12737419edc2ddefa70fd0b097, 9a0d5e6f8907549a69991e4b25bddfd4531fb9e6, ee9af073859b2ab9825e2cd162a2a758a5682319, bf227fe77b044b31253b69e6ec894a34899431bc]","34","0","9","2","[app/controllers/catalog_controller.rb, app/views/catalog/_constraints.html.erb, app/views/catalog/_holdings_group.html.erb, app/views/catalog/_previous_next_doc.html.erb, app/views/catalog/_request_buttons.html.erb, app/views/catalog/_show_metadata.html.erb, app/views/catalog/_solr_status.html.erb, app/views/catalog/show.html.erb, lib/maybe.rb]","[app/controllers/search_controller.rb, app/helpers/display_helper.rb]","0.0","0.0","4.2.7.1","31","[]","7","8","[app/controllers/catalog_controller.rb, app/views/catalog/_constraints.html.erb, app/views/catalog/_holdings_group.html.erb, app/views/catalog/_previous_next_doc.html.erb, app/views/catalog/_request_buttons.html.erb, app/views/catalog/_show_metadata.html.erb, app/views/catalog/_solr_status.html.erb, app/views/catalog/show.html.erb]","[fill_in, page, find, click, click_button, page, find, click, click_button, gsub!, fill_in, select_option, page, have_selector, click_link, click_link, click, have_link, have_content, each, __method__, url_for, body, xpath, text, nil?, all, find, css, be_nil, sleep, gsub!, have_content, click_link]","","[]","[browse, librarian_view_solr_document, page_entries, search]","4","1.965 seconds","true","9","2","[app/controllers/catalog_controller.rb, app/views/catalog/_constraints.html.erb, app/views/catalog/_holdings_group.html.erb, app/views/catalog/_previous_next_doc.html.erb, app/views/catalog/_request_buttons.html.erb, app/views/catalog/_show_metadata.html.erb, app/views/catalog/_solr_status.html.erb, app/views/catalog/show.html.erb, lib/maybe.rb]","[app/controllers/search_controller.rb, app/helpers/display_helper.rb]","0","[]","0.0"
"72","[29-10-2018]","2","5","[952b5723a9601872b281b2df45b699333b587841, 966858b43efd422495076d275ea310801bce6757, b6a56fde79d1676ba5373edd2233f873f21fd112, 69c13ece4343265f239b8ea1a2f46deb26610954, 8b17e36604a8eb46a6dc01b3cf5109bbcbb9e63e]","27","0","1","1","[lib/maybe.rb]","[app/views/browse/_heading_callnumber.html.erb]","0.0","0.0","4.2.7.1","12","[]","0","0","[]","[fill_in, fill_in, page, find, click, click_button, page, find, click, click_button, sleep, have_selector, all, select_option, select_option, have_selector, click_link, have_link, have_content, have_content, text, css, be_nil, click_link, gsub!]","","[]","[advanced, page_entries, search]","3","0.569 seconds","true","1","1","[lib/maybe.rb]","[app/views/browse/_heading_callnumber.html.erb]","0","[]","0.0"
"55","[11-01-2019]","2","7","[48da036fceedc03e24caddc648c0eea84a0e14c4, 17e9eb730946cb0260f821b8301716bd48105d23, cc282f118b0fc2e52339c3ca4a41d16c1ddfdd25, 7d5b3f4fd1482b93fcf1ebb6e8155c0045803c1d, 3f90ec36cc78b5c44613b4e271066990291c3bf9, c74865e1e9f44c9541e981dbb7a4e92f6d91000f, 07a47e5b67077d85819466f0b9c577bdf066ba6c]","21","0","9","5","[app/controllers/catalog_controller.rb, app/views/catalog/_call_number_browse_links.html.erb, app/views/catalog/_constraints.html.erb, app/views/catalog/_holdings_group.html.erb, app/views/catalog/_previous_next_doc.html.erb, app/views/catalog/_request_buttons.html.erb, app/views/catalog/_show_metadata.html.erb, app/views/catalog/_solr_status.html.erb, app/views/catalog/show.html.erb]","[app/controllers/browse_controller.rb, app/helpers/browse_helper.rb, app/views/catalog/_call_number_browse_links.html.erb, app/views/catalog/_holdings_group.html.erb, app/views/catalog/_show_metadata.html.erb]","0.3333333333","0.6","4.2.11","17","[]","8","9","[app/controllers/catalog_controller.rb, app/views/catalog/_call_number_browse_links.html.erb, app/views/catalog/_constraints.html.erb, app/views/catalog/_holdings_group.html.erb, app/views/catalog/_previous_next_doc.html.erb, app/views/catalog/_request_buttons.html.erb, app/views/catalog/_show_metadata.html.erb, app/views/catalog/_solr_status.html.erb, app/views/catalog/show.html.erb]","[page, find, click, click_button, gsub!, fill_in, click_link, within, select_option, page, have_selector, click_link, click, have_link, have_content, each, __method__, url_for]","","[]","[browse, librarian_view_solr_document]","2","2.112 seconds","true","6","2","[app/controllers/catalog_controller.rb, app/views/catalog/_constraints.html.erb, app/views/catalog/_previous_next_doc.html.erb, app/views/catalog/_request_buttons.html.erb, app/views/catalog/_solr_status.html.erb, app/views/catalog/show.html.erb]","[app/controllers/browse_controller.rb, app/helpers/browse_helper.rb]","3","[app/views/catalog/_call_number_browse_links.html.erb, app/views/catalog/_holdings_group.html.erb, app/views/catalog/_show_metadata.html.erb]","0.5172413792942925"
"144","[14-05-2018, 15-05-2018, 16-05-2018, 17-05-2018]","1","10","[2ec3b9e594f06ff1ca7039d8965949a6dc67149d, c5a948e92bbbe1a85806918d5a315e93576c3eb2, ea6e1bd5a2dd74714f0de2b3455c42356798fec7, fc5f011da22673feaa2120f34f36701e1e17bd8c, a1c78248bba72c7ec432d56f2303b605796ebf61, 0e85f434ae194ceb36c2bb550e9bb4d38d77de7e, c8e1cbc0321c3a30067006bd10b0a7023b33416b, 5f901b7f9c101959e9056850eb5ab2e9c58a809d, deb91865d9d3f3a3d02b2b9bd7440d92ec91660f, de6293f6ebef815946c8f42447abeb199f1db94d]","18","1","8","4","[app/controllers/catalog_controller.rb, app/views/catalog/_constraints.html.erb, app/views/catalog/_holdings_group.html.erb, app/views/catalog/_previous_next_doc.html.erb, app/views/catalog/_request_buttons.html.erb, app/views/catalog/_show_metadata.html.erb, app/views/catalog/_solr_status.html.erb, app/views/catalog/show.html.erb]","[app/controllers/search_history_controller.rb, app/controllers/users/omniauth_callbacks_controller.rb, app/models/user.rb, app/views/catalog/logins.html.erb]","0.0","0.0","4.2.7.1","19","[]","7","8","[app/controllers/catalog_controller.rb, app/views/catalog/_constraints.html.erb, app/views/catalog/_holdings_group.html.erb, app/views/catalog/_previous_next_doc.html.erb, app/views/catalog/_request_buttons.html.erb, app/views/catalog/_show_metadata.html.erb, app/views/catalog/_solr_status.html.erb, app/views/catalog/show.html.erb]","[click_link, page, have_link, have_selector, have_content, each, __method__, url_for, body, xpath, text, nil?, response_headers]","","[]","[librarian_view_solr_document]","1","1.222 seconds","false","8","4","[app/controllers/catalog_controller.rb, app/views/catalog/_constraints.html.erb, app/views/catalog/_holdings_group.html.erb, app/views/catalog/_previous_next_doc.html.erb, app/views/catalog/_request_buttons.html.erb, app/views/catalog/_show_metadata.html.erb, app/views/catalog/_solr_status.html.erb, app/views/catalog/show.html.erb]","[app/controllers/search_history_controller.rb, app/controllers/users/omniauth_callbacks_controller.rb, app/models/user.rb, app/views/catalog/logins.html.erb]","0","[]","0.0"
"71","[29-10-2018]","1","3","[e72521160f1d673c6d95a26e593beb7d88de5a7c, 15aa3ed6d013011db5f24cc53a093acdc950826e, 22842aabaf60ddd3bca71df3902dc9f60af5633f]","16","0","1","2","[lib/maybe.rb]","[app/controllers/catalog_controller.rb, app/views/layouts/blacklight.html.erb]","0.0","0.0","4.2.7.1","1","[]","0","0","[]","[fill_in, fill_in, page, find, click, click_button, sleep, page, have_selector, all, find, select_option, select_option, have_selector, click_link, have_link, have_content]","","[]","[advanced]","1","0.493 seconds","false","1","2","[lib/maybe.rb]","[app/controllers/catalog_controller.rb, app/views/layouts/blacklight.html.erb]","0","[]","0.0"
"134","[31-05-2018, 01-06-2018, 04-06-2018, 07-06-2018]","3","12","[2d32b8d2e5785bf7982cbd878aec586f21e6138c, b2aa8e680acbcc25d84c37f2c4697ccdba7afbcd, 961ba5a0a9de78ffe8ffc0722d1aaba4fe9a0709, 2577e825810c08343c7f71df996b1d94556d30b8, c2eaa198715ff44e17fb7a1756bebbaa4d33fe93, f05bce07a56d7605de785a25b3d422b2292dfe4c, 4677fa06f847ef3a016ef14ed868de55ebce6459, e095d50f526e123391f2bb60f76ebc9c98d1e05e, d91ee320872eb5122d9d877666e7cd70d7345704, fed7d7b8edbfda7e6b11222cecb095fd85e4f08c, 35835a84ce478b93d6ea77287e9e4a8b18600d62, 556b796341171eead74a73d1fe3f06ad447408cf]","16","0","1","2","[lib/maybe.rb]","[app/controllers/users/omniauth_callbacks_controller.rb, app/helpers/cornell_params_helper.rb]","0.0","0.0","4.2.7.1","1","[]","0","0","[]","[fill_in, fill_in, page, find, click, click_button, sleep, page, have_selector, all, find, select_option, select_option, have_selector, click_link, have_link, have_content]","","[]","[advanced]","1","0.483 seconds","true","1","2","[lib/maybe.rb]","[app/controllers/users/omniauth_callbacks_controller.rb, app/helpers/cornell_params_helper.rb]","0","[]","0.0"
"16","[22-05-2019]","1","3","[b3aae5ed11f7a0a18b908279b83ef8388ee419c2, 4450daae4f12539cb3a7d50ee6995153053a2033, 383c5e3e04352d24352aa2f103edd210ac169d51]","15","0","9","1","[app/controllers/catalog_controller.rb, app/views/catalog/_call_number_browse_links.html.erb, app/views/catalog/_constraints.html.erb, app/views/catalog/_holdings_group.html.erb, app/views/catalog/_previous_next_doc.html.erb, app/views/catalog/_request_buttons.html.erb, app/views/catalog/_show_metadata.html.erb, app/views/catalog/_solr_status.html.erb, app/views/catalog/show.html.erb]","[app/views/catalog/_show_metadata.html.erb]","0.1111111111","1.0","4.2.11","14","[]","8","9","[app/controllers/catalog_controller.rb, app/views/catalog/_call_number_browse_links.html.erb, app/views/catalog/_constraints.html.erb, app/views/catalog/_holdings_group.html.erb, app/views/catalog/_previous_next_doc.html.erb, app/views/catalog/_request_buttons.html.erb, app/views/catalog/_show_metadata.html.erb, app/views/catalog/_solr_status.html.erb, app/views/catalog/show.html.erb]","[click_link, page, have_link, have_selector, have_content, each, __method__, url_for]","","[]","[librarian_view_solr_document]","1","1.930 seconds","false","8","0","[app/controllers/catalog_controller.rb, app/views/catalog/_call_number_browse_links.html.erb, app/views/catalog/_constraints.html.erb, app/views/catalog/_holdings_group.html.erb, app/views/catalog/_previous_next_doc.html.erb, app/views/catalog/_request_buttons.html.erb, app/views/catalog/_solr_status.html.erb, app/views/catalog/show.html.erb]","[]","1","[app/views/catalog/_show_metadata.html.erb]","0.3846153845887574"
"52","[15-01-2019, 16-01-2019]","3","6","[c7c9b844ed21621a1a3b503744959c42ed71c0fa, 78cb0f12bbc2f491cc7091d1b4b205784f9f1707, fb35a78eec0159b67032962720f837455d36921b, b80f3f914a42f1a214de2df18663ccc8df285a69, 43b28808fdd25900c8d3c6e41868ef57ee332932, b55a7b748d4a0d137f402940ef44c0ec2a589980]","14","0","9","1","[app/controllers/catalog_controller.rb, app/views/catalog/_call_number_browse_links.html.erb, app/views/catalog/_constraints.html.erb, app/views/catalog/_holdings_group.html.erb, app/views/catalog/_previous_next_doc.html.erb, app/views/catalog/_request_buttons.html.erb, app/views/catalog/_show_metadata.html.erb, app/views/catalog/_solr_status.html.erb, app/views/catalog/show.html.erb]","[app/controllers/catalog_controller.rb]","0.1111111111","1.0","4.2.11","13","[]","8","9","[app/controllers/catalog_controller.rb, app/views/catalog/_call_number_browse_links.html.erb, app/views/catalog/_constraints.html.erb, app/views/catalog/_holdings_group.html.erb, app/views/catalog/_previous_next_doc.html.erb, app/views/catalog/_request_buttons.html.erb, app/views/catalog/_show_metadata.html.erb, app/views/catalog/_solr_status.html.erb, app/views/catalog/show.html.erb]","[click_link, page, have_link, have_selector, have_content, each, __method__, url_for]","","[]","[librarian_view_solr_document]","1","1.892 seconds","true","8","0","[app/views/catalog/_call_number_browse_links.html.erb, app/views/catalog/_constraints.html.erb, app/views/catalog/_holdings_group.html.erb, app/views/catalog/_previous_next_doc.html.erb, app/views/catalog/_request_buttons.html.erb, app/views/catalog/_show_metadata.html.erb, app/views/catalog/_solr_status.html.erb, app/views/catalog/show.html.erb]","[]","1","[app/controllers/catalog_controller.rb]","0.3846153845887574"
"82","[20-09-2018]","2","3","[2ec99aeb107f96898ebcbd550685697fbf5fc495, 803e7789453698b25596648141bb5711a61f38a3, e1ed344261550aad79cd2e644305e8ccfd5e1158]","11","0","1","1","[lib/maybe.rb]","[app/controllers/browse_controller.rb]","0.0","0.0","4.2.7.1","11","[]","0","0","[]","[fill_in, page, find, click, click_button, have_content, page, have_content, click_link, have_selector, all, text, find, css, be_nil, click_link, sleep, gsub!]","","[]","[page_entries, search]","2","0.538 seconds","true","1","1","[lib/maybe.rb]","[app/controllers/browse_controller.rb]","0","[]","0.0"
"46","[30-01-2019]","1","1","[f213de1b3002b4b1cb09e68f7ebef0a8f1cf9b7a]","9","0","14","1","[app/controllers/catalog_controller.rb, app/views/catalog/_call_number_browse_links.html.erb, app/views/catalog/_constraints.html.erb, app/views/catalog/_holdings_group.html.erb, app/views/catalog/_previous_next_doc.html.erb, app/views/catalog/_request_buttons.html.erb, app/views/catalog/_results_pagination.html.erb, app/views/catalog/_select_all.html.erb, app/views/catalog/_show_metadata.html.erb, app/views/catalog/_solr_status.html.erb, app/views/catalog/_sort_and_per_page.html.erb, app/views/catalog/index.html.erb, app/views/catalog/show.html.erb, lib/maybe.rb]","[lib/blacklight_cornell/cornell_catalog.rb]","0.0","0.0","4.2.11","6","[]","12","13","[app/controllers/catalog_controller.rb, app/views/catalog/_call_number_browse_links.html.erb, app/views/catalog/_constraints.html.erb, app/views/catalog/_holdings_group.html.erb, app/views/catalog/_previous_next_doc.html.erb, app/views/catalog/_request_buttons.html.erb, app/views/catalog/_results_pagination.html.erb, app/views/catalog/_select_all.html.erb, app/views/catalog/_show_metadata.html.erb, app/views/catalog/_solr_status.html.erb, app/views/catalog/_sort_and_per_page.html.erb, app/views/catalog/index.html.erb, app/views/catalog/show.html.erb]","[fill_in, page, find, click, click_button, sleep, sleep, select_option, page, have_selector, gsub!, have_content, url_for, body, xpath, text, nil?, open_email, current_email, include]","","[]","[app/views/catalog/_did_you_mean.html.erb, app/views/catalog/_home.html.erb, app/views/catalog/_paginate_compact.html.erb, app/views/catalog/_search_sidebar.html.erb, librarian_view_solr_document]","5","2.143 seconds","true","14","1","[app/controllers/catalog_controller.rb, app/views/catalog/_call_number_browse_links.html.erb, app/views/catalog/_constraints.html.erb, app/views/catalog/_holdings_group.html.erb, app/views/catalog/_previous_next_doc.html.erb, app/views/catalog/_request_buttons.html.erb, app/views/catalog/_results_pagination.html.erb, app/views/catalog/_select_all.html.erb, app/views/catalog/_show_metadata.html.erb, app/views/catalog/_solr_status.html.erb, app/views/catalog/_sort_and_per_page.html.erb, app/views/catalog/index.html.erb, app/views/catalog/show.html.erb, lib/maybe.rb]","[lib/blacklight_cornell/cornell_catalog.rb]","0","[]","0.0"
"60","[09-01-2019, 10-01-2019]","1","32","[b57ccf67eddf89208f76a8bdf978c78ab334140c, 37edd784dfff2656d24a1513a85b54935370bbb9, 58d6afe39a68802ce1830f5aa32e5862e40b2bf0, 512a73551e2b22813762160d1a0d1c006cecc376, 79371e346a7a10c27ea012b00c0ed3797eb2fbd9, 50040e2d152e0294366e5ea7dd132ca58b7d77cd, 06e227aae4d5133c796aeeec32cac7efec5710c5, a1fa7a5cc9c9cb29b9cd27dc75ff5109c601c515, 9ac6eaad8c338c99edd1601aaabbeb2622f504f7, f3276e4eecf9ddba4fd1f5f71644b054c1a1b032, 3d8317d98086ba5251639c6dc2f60eb184bc218a, 8a44ec59ee85a19b66b0461cdbcab73e03ed9123, c68edbff0200bc8e71beb345df74a7b78586d9d0, 0a017c3071c0a518a9d59e1a65d29a301b7e8a0a, c300f90ad7f73c997167069fd9432cae8f5898e0, 683f6d0bd0b740c359c812c8ef1a7c53398d0a97, fd7e30bd19cb2fb6bc3778abaf0984b42eef421f, e37223f8a195d8717c8dc8cb8d693f023d2d2d68, e2482b1bed8c5727e34f8956dd0f9b491d70e312, df1905fe47416b72712abc3a804aa1a640c5d4be, 986b54493df5e6cc197694c2d8de40693b9ab9b7, bcec9b80e5cd5077e86e1d50e59856e8dddcaf21, ebe0189a029b58a220bd93f204c97690fa47f496, c1412218405caa6dda58d30236e50125264e8817, 48717f47d35721cb0d3dd96a7e8b80252613fe4e, a3c33560986629e455b7519db888016d4f44f44a, b29e9d46cc785d57cfdfbb81c8d095583b0e02e4, 59b515c0316e8a5acf9a928987c9a7a0944f1ecd, 140492f6093625bb22edc55b039633c5e30d63b4, 8ae5aff1b6f31ceedc601227ddc9739f48aa92b7, 6df923aba3050134311d4b3389d6a87e771fbf09, d76044d13a6ec2ab9004079a9e85a0b0dc3c59ca]","6","7","2","2","[app/controllers/browse_controller.rb, app/views/browse/info.html.erb]","[app/views/browse/_availability_location_filter.html.erb, app/views/browse/_pagination.html.erb]","0.0","0.0","4.2.11","4","[]","1","2","[app/controllers/browse_controller.rb, app/views/browse/info.html.erb]","[page, find, click, click_button, gsub!, fill_in, click_link, within, select_option, page, have_selector, click, have_content]","","[]","[browse]","1","1.102 seconds","false","2","2","[app/controllers/browse_controller.rb, app/views/browse/info.html.erb]","[app/views/browse/_availability_location_filter.html.erb, app/views/browse/_pagination.html.erb]","0","[]","0.0"
"160","[14-05-2018]","1","1","[53eeae9da2affa845f1c920be330ea32356c6df3]","3","0","8","1","[app/controllers/catalog_controller.rb, app/views/catalog/_constraints.html.erb, app/views/catalog/_holdings_group.html.erb, app/views/catalog/_previous_next_doc.html.erb, app/views/catalog/_request_buttons.html.erb, app/views/catalog/_show_metadata.html.erb, app/views/catalog/_solr_status.html.erb, app/views/catalog/show.html.erb]","[app/models/solr_document.rb]","0.0","0.0","4.2.7.1","6","[]","7","8","[app/controllers/catalog_controller.rb, app/views/catalog/_constraints.html.erb, app/views/catalog/_holdings_group.html.erb, app/views/catalog/_previous_next_doc.html.erb, app/views/catalog/_request_buttons.html.erb, app/views/catalog/_show_metadata.html.erb, app/views/catalog/_solr_status.html.erb, app/views/catalog/show.html.erb]","[url_for, page, body, xpath, text, nil?, have_content]","","[]","[librarian_view_solr_document]","1","1.558 seconds","true","8","1","[app/controllers/catalog_controller.rb, app/views/catalog/_constraints.html.erb, app/views/catalog/_holdings_group.html.erb, app/views/catalog/_previous_next_doc.html.erb, app/views/catalog/_request_buttons.html.erb, app/views/catalog/_show_metadata.html.erb, app/views/catalog/_solr_status.html.erb, app/views/catalog/show.html.erb]","[app/models/solr_document.rb]","0","[]","0.0"
"106","[11-09-2018]","1","1","[1c6f74aba02be9daff407880ff929dd7994a6f3c]","2","0","9","4","[app/controllers/catalog_controller.rb, app/views/catalog/_constraints.html.erb, app/views/catalog/_holdings_group.html.erb, app/views/catalog/_previous_next_doc.html.erb, app/views/catalog/_request_buttons.html.erb, app/views/catalog/_show_metadata.html.erb, app/views/catalog/_solr_status.html.erb, app/views/catalog/show.html.erb, lib/maybe.rb]","[app/controllers/book_bags_controller.rb, app/views/book_bags/clear_selected.html.erb, app/views/book_bags/index.html.erb, app/views/bookmarks/index.html.erb]","0.0","0.0","4.2.7.1","1","[]","7","8","[app/controllers/catalog_controller.rb, app/views/catalog/_constraints.html.erb, app/views/catalog/_holdings_group.html.erb, app/views/catalog/_previous_next_doc.html.erb, app/views/catalog/_request_buttons.html.erb, app/views/catalog/_show_metadata.html.erb, app/views/catalog/_solr_status.html.erb, app/views/catalog/show.html.erb]","[click_link, page, have_content, url_for, sleep, click_link, dismiss_confirm, accept_confirm, find, set]","","[]","[librarian_view_solr_document]","1","1.539 seconds","true","9","4","[app/controllers/catalog_controller.rb, app/views/catalog/_constraints.html.erb, app/views/catalog/_holdings_group.html.erb, app/views/catalog/_previous_next_doc.html.erb, app/views/catalog/_request_buttons.html.erb, app/views/catalog/_show_metadata.html.erb, app/views/catalog/_solr_status.html.erb, app/views/catalog/show.html.erb, lib/maybe.rb]","[app/controllers/book_bags_controller.rb, app/views/book_bags/clear_selected.html.erb, app/views/book_bags/index.html.erb, app/views/bookmarks/index.html.erb]","0","[]","0.0"
"107","[11-09-2018]","1","2","[77f61bdf8e03e584638f7cbcfa22dd27514f3318, 53533526310d135295fac5088263b0ac913edcab]","2","0","9","2","[app/controllers/catalog_controller.rb, app/views/catalog/_constraints.html.erb, app/views/catalog/_holdings_group.html.erb, app/views/catalog/_previous_next_doc.html.erb, app/views/catalog/_request_buttons.html.erb, app/views/catalog/_show_metadata.html.erb, app/views/catalog/_solr_status.html.erb, app/views/catalog/show.html.erb, lib/maybe.rb]","[app/views/book_bags/index.html.erb, app/views/bookmarks/index.html.erb]","0.0","0.0","4.2.7.1","1","[]","7","8","[app/controllers/catalog_controller.rb, app/views/catalog/_constraints.html.erb, app/views/catalog/_holdings_group.html.erb, app/views/catalog/_previous_next_doc.html.erb, app/views/catalog/_request_buttons.html.erb, app/views/catalog/_show_metadata.html.erb, app/views/catalog/_solr_status.html.erb, app/views/catalog/show.html.erb]","[click_link, page, have_content, url_for, sleep, click_link, dismiss_confirm, accept_confirm, find, set]","","[]","[librarian_view_solr_document]","1","1.611 seconds","false","9","2","[app/controllers/catalog_controller.rb, app/views/catalog/_constraints.html.erb, app/views/catalog/_holdings_group.html.erb, app/views/catalog/_previous_next_doc.html.erb, app/views/catalog/_request_buttons.html.erb, app/views/catalog/_show_metadata.html.erb, app/views/catalog/_solr_status.html.erb, app/views/catalog/show.html.erb, lib/maybe.rb]","[app/views/book_bags/index.html.erb, app/views/bookmarks/index.html.erb]","0","[]","0.0"
