"Repository","https://github.com/dchbx/enroll.git"
"Tasks with empty IReal","0"
"Tasks with no-empty IReal","1"
"Tasks with relevant AST error","0"
"Tasks with AST error of Gherkin files","0"
"Tasks with AST error of StepDef files","0"
"Tasks with AST error of production files","0"
"Tasks with AST error of unit test files","0"
"Tasks with step match error","1"
"Tasks without required gems","0"
"Tasks with changed stepdef","0"
"Tasks with changed Gherkin","1"
"Tasks with implemented Gherkin scenarios","0"
"All invalid tasks","1"
"All valid tasks (Gherkin scenario, no empty IReal, no error)","0"
"Valid tasks, but empty ITest","0"
"Valid tasks, no empty ITest, but zero precision-recall","0"
"Valid tasks, no empty ITest, no zero precision-recall","0"
"Project","Task","Date","#Days","#Commits","Commit_Message","#Devs","#Gherkin_Tests","#Impl_Gherkin_Tests","#StepDef","#Impl_StepDef","Methods_Unknown_Type","#Step_Call","Step_Match_Errors","#Step_Match_Error","AST_Errors","#AST_Errors","Gherkin_AST_Errors","#Gherkin_AST_Errors","Steps_AST_Errors","#Steps_AST_Errors","Renamed_Files","Deleted_Files","NotFound_Views","#Views","#TestI","#TaskI","TestI","TaskI","Precision","Recall","Hashes","Timestamp","Rails","Gems","#Visit_Call","Lost_visit_call","#Views_ITest","#Code_View_Analysis","Code_View_Analysis","Has_Merge","F2","#Multiple_Step_Matches","Multiple_Step_Matches","#Generic_Step_Keyword","Generic_Step_Keyword"
"enroll","6551","[08-02-2015]","1","5","[Updates to follow UI person pattern , initial commit , Extensive additions to models and specs , Add version to factory_girl_rails gem , Rename models ]","1","1","0","0","0","[]","0","[path:features/employers/anonymous_shop.feature, size:1]","1","","0","","0","","0","","[app/models/employer_census/family.rb]","","0","0","19","[]","[app/models/address.rb, app/models/benefit_group.rb, app/models/benefit_group_congress.rb, app/models/broker.rb, app/models/broker_agency.rb, app/models/consumer.rb, app/models/employee.rb, app/models/employer.rb, app/models/employer_census/dependent.rb, app/models/employer_census/employee.rb, app/models/employer_census/employee_family.rb, app/models/person.rb, app/models/plan_year.rb, app/views/employers/employer/_form.html.erb, app/views/employers/employer/_sidebar.html.erb, app/views/employers/employer/edit.html.erb, app/views/employers/employer/new.html.erb, app/views/layouts/form.html.erb, app/views/people/new.html.erb]","0.0","0.0","[ad9f6e9277be2c89cad72dee08e3e3c2a78f5122, 266b5c740ea21b9c21442f1e8912f389432bc3fc, 5387feca90f6d14b7dd59a5cabe19d7dde9ddd8e, d46837954712d0f05f0a204acb16d428e55a3e75, a748c95e3bfd2cc2cace25af7fc51bd4ed6ea4a9]","0.036 seconds","4.2.0","[cucumber-rails, rspec-rails, factory_girl]","0","[]","0","0","[]","false","0.0","0","","0",""
