"Repository","https://github.com/cul-it/blacklight-cornell.git"
"Tasks with empty IReal","0"
"Tasks with no-empty IReal","11"
"Tasks with relevant AST error","0"
"Tasks with AST error of Gherkin files","0"
"Tasks with AST error of StepDef files","0"
"Tasks with AST error of production files","0"
"Tasks with AST error of unit test files","0"
"Tasks with step match error","11"
"Tasks without required gems","0"
"Tasks with changed stepdef","4"
"Tasks with changed Gherkin","11"
"Tasks with implemented Gherkin scenarios","7"
"All invalid tasks","11"
"All valid tasks (Gherkin scenario, no empty IReal, no error)","0"
"Valid tasks, but empty ITest","0"
"Valid tasks, no empty ITest, but zero precision-recall","0"
"Valid tasks, no empty ITest, no zero precision-recall","0"
"Project","Task","Date","#Days","#Commits","Commit_Message","#Devs","#Gherkin_Tests","#Impl_Gherkin_Tests","#StepDef","#Impl_StepDef","Methods_Unknown_Type","#Step_Call","Step_Match_Errors","#Step_Match_Error","AST_Errors","#AST_Errors","Gherkin_AST_Errors","#Gherkin_AST_Errors","Steps_AST_Errors","#Steps_AST_Errors","Renamed_Files","Deleted_Files","NotFound_Views","#Views","#TestI","#TaskI","TestI","TaskI","Precision","Recall","Hashes","Timestamp","Rails","Gems","#Visit_Call","Lost_visit_call","#Views_ITest","#Code_View_Analysis","Code_View_Analysis","Has_Merge","F2","#Multiple_Step_Matches","Multiple_Step_Matches","#Generic_Step_Keyword","Generic_Step_Keyword"
"blacklight-cornell","32","[25-03-2019]","1","3","[Merge pull request #739 from cul-it/DISCOVERYACCESS-4680b  pull request auto request., use disabled checkbox class to surround link to the limit message , remove calculation of can_add_books without current_per_page ]","2","4","0","1","1","[]","0","[path:features/catalog_search/bookmarks.feature, size:3]","3","","0","","0","","0","","[]","","0","0","5","[]","[app/controllers/book_bags_controller.rb, app/controllers/bookmarks_controller.rb, app/controllers/concerns/blacklight/bookmarks.rb, app/views/catalog/_bookmark_control.html.erb, app/views/catalog/_select_all.html.erb]","0.0","0.0","[247d1c264ea6dbe931240181e02a9205cd09d6f7, 0a50707351cebe2919b1fa0043f278aa2b3f45ff, 409a9e680b616e77ad771a2fac3ddaa0b4f28b44]","0.339 seconds","4.2.11","[cucumber-rails, rspec-rails]","1","[]","0","0","[]","true","0.0","0","","0",""
"blacklight-cornell","34","[21-03-2019, 22-03-2019]","2","17","[Merge pull request #738 from cul-it/DISCOVERYACCESS-4700  pull request auto request., Use the original 'select list should default to' step , say 'click on' instead of 'select' to make the test read truer , cassette changes for new searches , use full set of session search parameters except the same excluded by the original code , remove debugging code , test stickyness of sort preference while searching from item view , test stickyness of per page setting when searching from item view , step to click on the first search result item , whitespace , whitespace , cassette changes for new searches , remove debugging code , fix a typo - DISCOVERYACCESS-4898 , debugging code to find session variables for hidden fields :per_page and :sort , declare the helper display_helper for cornell_catalog  /blacklight-cornell/app/views/catalog/show.html.erb call to link_back_to_catalog was returning a link html string not an array , debugging code to find out why link_back_to_catalog was returning the  [TOO_LONG]","2","10","8","2","2","[page, find, click, click_button, sleep, sleep, gsub!, fill_in, page, all, have_css, within, have_selector, select_option, click, have_content]","0","[path:features/catalog_search/results_list.feature, size:2]","2","","0","","0","","0","","[]","[app/views/catalog/_did_you_mean.html.erb, app/views/catalog/_home.html.erb, app/views/catalog/_paginate_compact.html.erb, app/views/catalog/_search_sidebar.html.erb]","4","6","4","[app/controllers/catalog_controller.rb, app/views/catalog/_results_pagination.html.erb, app/views/catalog/_select_all.html.erb, app/views/catalog/_sort_and_per_page.html.erb, app/views/catalog/index.html.erb, lib/maybe.rb]","[app/controllers/book_bags_controller.rb, app/views/catalog/show.html.erb, app/views/shared/_search_form.html.erb, lib/blacklight_cornell/cornell_catalog.rb]","0.0","0.0","[699f5a8cd9e3d3346ac0c4f3540c49f18beca18c, 218cb5146f1f5eeb0c09f3690ec35a3d340191e6, 15ac613fd7fbc2f7dcc906ec39ef82ec6755dffc, b6db1e965fcf572a66428e5923540cd380d97d99, 79cfc783298871fe713548983aa7c9cde8f37d7a, e1d86b9b0d84d12955d0ff75c2a0f860f9c71229, 0520580d218fa76c8b57dec52ed145c966419aae, b232470b59454315bb57b6faa8ccc443d5125c30, f2e23f0facbdd761466861b0f9865cc9753aa260, f14315fb02b63b1fd6395566df887f6c6dff3dac, 5a883d04ee4c23660700aeb53921b5aecfef6611, 5b4987f4c09f44ca55c4a76cfa49047033616578, 1825cf755ed1a233fc6e9aabefa0c294f919763c, 325e940a29b56f21f4edfb56d50dfb861dd2c4af, 92f34916035243785c15b93fffbffe228743d297, 593b1d40541b2c45d75c7f7cd773dcef1249ac9e, 9b2b46cfd74710684a2ba1992e1ac072ff34a6b3]","0.573 seconds","4.2.11","[cucumber-rails, rspec-rails]","1","[]","4","5","[app/controllers/catalog_controller.rb, app/views/catalog/_results_pagination.html.erb, app/views/catalog/_select_all.html.erb, app/views/catalog/_sort_and_per_page.html.erb, app/views/catalog/index.html.erb]","true","0.0","0","","0",""
"blacklight-cornell","39","[18-03-2019, 19-03-2019, 20-03-2019]","3","23","[new version of bundler < 2.0 , spreewald , route sends user to home page , change timing of tests and set to PENDING , whitespace , addd spreewald and use it for tests , remove debugging code , cassette changes , add tag for @reading_room_delivery test , go up to 500 bookmarks , eliminate duplicate ids , ignore ./idea/* from RubyMine , protect against /users/sign_in calls , remove debugging , debugging code for User , way back to original , back to original , set sign in pathname  https://www.rubydoc.info/github/plataformatec/devise/ActionDispatch%2FRouting%2FMapper:devise_for , route users , remoce sessions: 'users/sessions' , send users/sign_in to sessions controller , use authenticate_cuwebauth_devise , add path for devise.rb users/sign_in  https://www.rubydoc.info/github/plataformatec/devise/ActionDispatch%2FRouting%2FMapper:devise_for ]","1","18","15","0","0","[click_link, page, have_link, have_selector, have_content, each, __method__, url_for]","0","[path:features/catalog_search/bookmarks.feature, size:2]","2","","0","","0","","0","","[]","[librarian_view_solr_document]","1","9","3","[app/controllers/catalog_controller.rb, app/views/catalog/_call_number_browse_links.html.erb, app/views/catalog/_constraints.html.erb, app/views/catalog/_holdings_group.html.erb, app/views/catalog/_previous_next_doc.html.erb, app/views/catalog/_request_buttons.html.erb, app/views/catalog/_show_metadata.html.erb, app/views/catalog/_solr_status.html.erb, app/views/catalog/show.html.erb]","[app/controllers/users/omniauth_callbacks_controller.rb, app/views/catalog/_request_buttons.html.erb, app/views/shared/_header_navbar.html.erb]","0.1111111111","0.3333333333","[d1a8763fbf7bcd5e96c952b260425d3d91770c79, cfa98651b5bededf130b8acd499cfff479b716c4, b00138500a5d62828e79bff883b874f24f3ca3ad, 7ffa28bb98014c99a5c09c3e1b0dccf7dbef034d, 627922292cc399b986f2192bb26b3905829a8ae0, 791b2332853367a6e584cd1497675fc274e4bc5c, b5b7eb2e100d068e66eb8172c365b30cb62748d1, 13e23e007e3be70814d74bc3aa50882e981a4c2d, 34b8540666c51cf9136daa7d44acbb0c2d80b4ed, eaf7b25656a0125871ba506bf34682c097af6af2, f4a5282a79c23e558fa71de1f3cfe30f4c5e24bf, 178543d94854061b263fe370a088aec78fea3296, 0ef4bd0a1a4ac8dc662cc17453dc27a4294e685c, ae65d9b0c83a2a5f0ae79cf879806aca3dbfb019, 6444067ef237d028a28fd1c83ea3d343ea57ddc0, 2ee5fb65f57202860b00c0a8ebc758e4b5029adc, c7a49525c6f6d6b06a587f695df924d44385e8c5, aa8ed5f909919f7065c239b33daa24be3790f57f, b5a22771260217156030d82e92dfc5619bb8963b, 4713987008edb9d85761e87b677b355e4f21bb36, 030aada502ccdc02863f15bc836f16bd8f01f4de, f0deadb64608b5f609927b70973852ad0acb7d84, 1f9de5ab36816b5e83a8e8ac908bf00a836ceaf0]","1.870 seconds","4.2.11","[cucumber-rails, rspec-rails]","14","[]","8","9","[app/controllers/catalog_controller.rb, app/views/catalog/_call_number_browse_links.html.erb, app/views/catalog/_constraints.html.erb, app/views/catalog/_holdings_group.html.erb, app/views/catalog/_previous_next_doc.html.erb, app/views/catalog/_request_buttons.html.erb, app/views/catalog/_show_metadata.html.erb, app/views/catalog/_solr_status.html.erb, app/views/catalog/show.html.erb]","false","0.23809523807142854","0","","0",""
"blacklight-cornell","42","[18-03-2019]","1","10","[too many bookmarks message , show selected limit , conditional bookmark adding , conditionally display add bookmark form based on MAX , logging for bookmark params , too many bookmarks error , check bookmark count agains max , check bookmark count against max , jQuery checkbox submit function , test to create 500 + 1 bookmarks ]","1","3","0","0","0","[]","0","[path:features/catalog_search/bookmarks.feature, size:2]","2","","0","","0","","0","","[]","","0","0","5","[]","[app/controllers/book_bags_controller.rb, app/controllers/bookmarks_controller.rb, app/controllers/concerns/blacklight/bookmarks.rb, app/views/catalog/_bookmark_control.html.erb, app/views/catalog/_select_all.html.erb]","0.0","0.0","[dfebafe69b6f7d4162f9fbc0951d577aa191e6d7, b22862f45f75ea3e8f6effa38fa5943ab14f0fd5, 4979cc19bdce7e31e2d9500a93076d1497f5cd4f, 1ce615ac9a6eeb4ef83b56932efd2ae694ce6c7c, 09dd16cdc50003b277b47e2b408e3491bcae114b, a51d627ff1c724081ed14409eb781dd82e7ec8e4, b9567f0e4b12c0286b88be23129163f0f8367080, fd4b33d78a3cebad178188c10922ac0de614a34a, 04c953af75976104b7300acf2f537174f40d5e78, a6da88eb600229d90bc737d1ee6761e42220f8ba]","0.140 seconds","4.2.11","[cucumber-rails, rspec-rails]","0","[]","0","0","[]","false","0.0","0","","0",""
"blacklight-cornell","50","[11-01-2019, 15-01-2019, 16-01-2019]","6","29","[Mark  @bookmarks_select_limit PENDING , add to cassette , start adding bookmarks , Test for a bug that crashed site in call number browse - switch locations on next/previous page , add test for corrected Bailey Hortorium , add the :order parameter to links from location selector , remove debugging and shorten sleep to 5 sec , check for item count in 'Selected Items header , fix for selecting more than 9 items , steps for select 500 bookmarks , test for selecting 500 bookmarks - wip , cassettes , partial to add id to per page selector , Correct spelling of location for call number browse , partial , use CONST for max bookbag count , partial for modal dialog warning of too many bookmarks , remove ineffective model bookmark count detection , raise an exception when there are too many bookmarks , remove unused blacklight.yml , anuy kind ofe error , switch logic , exception when bookbag is full , limit bookbag count in model , prevent more than MAX_BOOKBAGS_COUNT from being added to bookb [TOO_LONG]","1","9","6","1","1","[page, find, click, click_button, page, find, text, gsub!, fill_in, click_link, within, select_option, have_selector, click, have_content]","0","[path:features/catalog_search/bookmarks.feature, size:2]","2","","0","","0","","0","","[]","[browse]","1","0","7","[]","[app/controllers/book_bags_controller.rb, app/controllers/concerns/blacklight/bookmarks.rb, app/models/bookbag.rb, app/views/bookmarks/_selected_item_limit.html.erb, app/views/browse/_availability_location_filter.html.erb, app/views/catalog/_per_page_widget.html.erb, lib/blacklight_cornell/cornell_catalog.rb]","0.0","0.0","[79781c891b1c86e4384fc93f87c575e2f59ce375, c5289d59edb33f86123c51b80f907b1e86963e3b, 7e2ef9ad6a62421bec5c8048bb01476378159e10, 82f28ec58fdf21d06e348d98ad98e2b723df8b79, 9d2ac1cd553479d31fe2c946c051b9256fc2f97d, e978cb729717683dadb94df75afdeb52c3f9e3b8, 5b3efd4696d71bf50b23c1b8b3cd7a8a5eaed59a, 62e4c3fafa82acfe039508a087f6f7873de2e5a6, 94ca699b0059e715642b2b4ddab35e579368ff5b, 4804747c57d84202d7bb928b0e91eef8cb808dc5, 75de87668dcf7eed132e91358c4e82a58d689733, 79f4cfb6e37376b023f91d749305a0f3084ff96a, c58912ae510406f75134447e0419bbb7f80957a7, ca997864a72f9ffc43f49b049c8699993d67e163, 3281547c8e7500d382fd25640ba6e9977a42d529, 29f3e811edbac844a5605c2e35760deadf86a416, bb40844836a2b6abbb9a7c446ebed7a9ae871513, 82f8940f64ab10d6e5ce7528cf96c900ef8fc361, 94743513a4de866ce72f8f5d3f54d28fcca3b2d8, a3d011879d4107fa10d22d02ecfcadf0ab3eaac9, d11a974a0233e5ce8e77b34c1a9dae2e7eb4b8f9, d79f702fbde49bf4006e1c739ac896e1d3454c45, 3273801ee680b3d8bfc2263d96ba2fef20c92f5f, e9ea1f5f4e974444cbced4c33b0acc266755bf5a, 3e150604570402715d65d841225efbc535690c42, caa0e7fa84a4122579be9ebb4b640cfa3a362087, 28442a1ae88c63fe61f3b92988707924df75a9d8, 323b1b5d6d28edc292e48901ce32bdc1ad898064, 9f26dcbd592beab1b0f852cc9b812f5d7f0f06d8]","0.815 seconds","4.2.11","[cucumber-rails, rspec-rails]","1","[]","0","0","[]","false","0.0","0","","0",""
"blacklight-cornell","73","[05-10-2018]","1","3","[Merge pull request #679 from cul-it/fixityFix  pull request auto request., fix error , fix small glitches ]","2","2","0","0","0","[]","0","[path:features/catalog_search/bookmarks.feature, size:1]","1","","0","","0","","0","","[]","","0","0","2","[]","[app/models/search_builder.rb, app/views/catalog/_solr_status.html.erb]","0.0","0.0","[ff1f590a871f76606d6acc07e8250d96353df284, d99c07a187c7001759cf6abd4e1e37c4577721e3, 179daa5178256b6ab917176d01eeeee68803991e]","0.337 seconds","4.2.7.1","[cucumber-rails, rspec-rails]","0","[]","0","0","[]","true","0.0","0","","0",""
"blacklight-cornell","119","[16-07-2018, 17-07-2018]","2","4","[Merge pull request #624 from cul-it/DISCOVERYACCESS-4193  pull request auto request., fix availability statuses , adjust test for new availability statuses , remove Unavailable in availability display ]","2","19","17","0","0","[click_link, page, have_link, have_selector, have_content, each, __method__, url_for]","0","[path:features/catalog_search/bookmarks.feature, size:1]","1","","0","","0","","0","","[]","[librarian_view_solr_document]","1","8","1","[app/controllers/catalog_controller.rb, app/views/catalog/_constraints.html.erb, app/views/catalog/_holdings_group.html.erb, app/views/catalog/_previous_next_doc.html.erb, app/views/catalog/_request_buttons.html.erb, app/views/catalog/_show_metadata.html.erb, app/views/catalog/_solr_status.html.erb, app/views/catalog/show.html.erb]","[app/views/catalog/_solr_status.html.erb]","0.125","1.0","[ed813a37a2f7928d5f3d21188afbe6bd522444c9, 781112f43d96ec92709ee2a6520b8394ebf70bdc, 05f809b127aa78b9b84a6077d3a28d3a6f9e9484, 99ec81a20d28a5fea92ecf1ceeded8ad003903a4]","1.766 seconds","4.2.7.1","[cucumber-rails, rspec-rails]","16","[]","7","8","[app/controllers/catalog_controller.rb, app/views/catalog/_constraints.html.erb, app/views/catalog/_holdings_group.html.erb, app/views/catalog/_previous_next_doc.html.erb, app/views/catalog/_request_buttons.html.erb, app/views/catalog/_show_metadata.html.erb, app/views/catalog/_solr_status.html.erb, app/views/catalog/show.html.erb]","true","0.41666666666666663","0","","0",""
"blacklight-cornell","129","[22-06-2018, 25-06-2018]","4","12","[Merge pull request #612 from cul-it/update_tou  Update tou, more stupid PR testing. , stupid stupid merge pr job. , stupid stupid merge pr job. , stupid stupid merge pr job. , stupid tests are still stupid , stupid colon tests are worthless , why not committed? , passed all tests again after changing to solr7 , why dididnt this push? , why dididnt this push? , passed all tests ]","2","36","33","0","0","[fill_in, fill_in, page, find, click, click_button, page, find, click, click_button, page, find, click, click_button, sleep, sleep, pending, have_selector, all, select_option, select_option, select_option, have_selector, click_link, have_link, have_content, gsub!, fill_in, have_content, text, css, be_nil, click_link, gsub!]","0","[path:features/catalog_search/bookmarks.feature, size:1]","1","","0","","0","","0","","[]","[advanced, app/views/catalog/_did_you_mean.html.erb, app/views/catalog/_home.html.erb, app/views/catalog/_paginate_compact.html.erb, app/views/catalog/_search_sidebar.html.erb, page_entries, search]","7","6","1","[app/controllers/catalog_controller.rb, app/views/catalog/_results_pagination.html.erb, app/views/catalog/_select_all.html.erb, app/views/catalog/_sort_and_per_page.html.erb, app/views/catalog/index.html.erb, lib/maybe.rb]","[app/models/databases.rb]","0.0","0.0","[3563ae33e8be2d865252726b8b4999e22355bb4d, 4060b1f802fef0f601b0d2c555d618df56946b5f, 9234bb7925cb7a6adfdcec1424670521a9f8d9c0, 440db6522d6fcc434364b927ece070e1be949544, d4f40d872271efc070a387c74852fbca8a299801, b96254a9099d454cbe3517d7116b3fe4fc658bbd, 1ef6e24e768980705ead079ece559447c1473c15, 3d13c0903ab4d2be8331ba18bab5621ef3004e14, 15333d17fbdce611cb4d84cb779b877e03f7b72a, b60e8e53186102b92aed05891755e10e79a1529a, 24604265fdaeafbaaef2d45541621a1801fb6616, 371e740866ea6cefcb20def0f8baeb570e982e0a]","1.072 seconds","4.2.7.1","[cucumber-rails, rspec-rails]","15","[]","4","5","[app/controllers/catalog_controller.rb, app/views/catalog/_results_pagination.html.erb, app/views/catalog/_select_all.html.erb, app/views/catalog/_sort_and_per_page.html.erb, app/views/catalog/index.html.erb]","true","0.0","0","","0",""
"blacklight-cornell","140","[17-05-2018, 18-05-2018]","2","5","[Merge pull request #574 from cul-it/newcassettes  pull request auto request., no reason for failure in jenkins, but add timer , update jenkins script , newly created cassettes , Merge pull request #572 from cul-it/DISCOVERYACCESS-4129  pull request auto request.]","2","20","17","0","0","[fill_in, fill_in, page, find, click, click_button, sleep, page, have_selector, all, find, select_option, select_option, have_selector, click_link, have_link, have_content]","0","[path:features/catalog_search/bookmarks.feature, size:2]","2","","0","","0","","0","","[]","[advanced]","1","1","1","[lib/maybe.rb]","[app/controllers/concerns/blacklight/bookmarks.rb]","0.0","0.0","[0a19252c562345dfd8c043a42850ccf2c0bb689b, 9513938b4e1cb216c6c7b1d1752db90fe1694c31, 34c4bc7733fe865847c11436ea6e88c7fd22733d, f9feb491f8da14bc519dc9a4f4bb36230973f14c, fbd677dd5279f066654d96ac63938777c27afedc]","0.513 seconds","4.2.7.1","[cucumber-rails, rspec-rails]","1","[]","0","0","[]","true","0.0","0","","0",""
"blacklight-cornell","141","[17-05-2018]","1","2","[Merge pull request #572 from cul-it/DISCOVERYACCESS-4129  pull request auto request., show me the page /bookmarks ]","2","3","0","0","0","[]","0","[path:features/catalog_search/bookmarks.feature, size:2]","2","","0","","0","","0","","[]","","0","0","1","[]","[app/controllers/concerns/blacklight/bookmarks.rb]","0.0","0.0","[fbd677dd5279f066654d96ac63938777c27afedc, b930fb39c12ec823087de0e8f451cc636cf1c9c6]","0.261 seconds","4.2.7.1","[cucumber-rails, rspec-rails]","0","[]","0","0","[]","true","0.0","0","","0",""
"blacklight-cornell","143","[17-05-2018]","1","3","[Merge pull request #573 from cul-it/DISCOVERYACCESS-4194-merge  pull request auto request., some failures related to cassettes plague rspec , remove failing test that is an artifact of cassettes (?). ]","2","6","4","1","1","[url_for, page, body, xpath, text, nil?, have_content, response_headers]","0","[path:features/catalog_search/bookmarks.feature, size:1]","1","","0","","0","","0","","[]","[librarian_view_solr_document]","1","8","4","[app/controllers/catalog_controller.rb, app/views/catalog/_constraints.html.erb, app/views/catalog/_holdings_group.html.erb, app/views/catalog/_previous_next_doc.html.erb, app/views/catalog/_request_buttons.html.erb, app/views/catalog/_show_metadata.html.erb, app/views/catalog/_solr_status.html.erb, app/views/catalog/show.html.erb]","[app/controllers/search_history_controller.rb, app/controllers/users/omniauth_callbacks_controller.rb, app/models/user.rb, app/views/catalog/logins.html.erb]","0.0","0.0","[05e094ce08257969e38abfa4b17922d2d44a7131, 237a3914822cc5e497a289df45227dc19699222d, dc67d742aa3f278b54e7307a4c7eb2cadf553319]","1.419 seconds","4.2.7.1","[cucumber-rails, rspec-rails]","6","[]","7","8","[app/controllers/catalog_controller.rb, app/views/catalog/_constraints.html.erb, app/views/catalog/_holdings_group.html.erb, app/views/catalog/_previous_next_doc.html.erb, app/views/catalog/_request_buttons.html.erb, app/views/catalog/_show_metadata.html.erb, app/views/catalog/_solr_status.html.erb, app/views/catalog/show.html.erb]","true","0.0","0","","0",""
