"REPO_URL","TASK_ID","#HASHES","HASHES","#PROD_FILES","#TEST_FILES","LAST"
"https://github.com/opf/openproject-ce.git","8086","3","[85eeaa0a3ba5e02320e37ffec5473a09da58823d, c75820a3e123b60f757574aa8a00618f11acae50, 7ba90102a7e751fdc370378498693a9f6f74104e]","5","1","85eeaa0a3ba5e02320e37ffec5473a09da58823d","fba68125f3371f962a419d499a015455c5f50506","e4b7af3161364c842e5fd19c5f94309afc7416d7"
"https://github.com/opf/openproject-ce.git","8096","2","[8c04c76c86704bcbabcf4f76c2e27b9de8f02f75, 2041c965881a5451c24c164b2495e6803454173d]","2","1","8c04c76c86704bcbabcf4f76c2e27b9de8f02f75","564ef0ded9c274ef0cc88dab061223a16e9dd725","4f09c1d7ce9224ffb8689a9543406214e0e58294"
"https://github.com/opf/openproject-ce.git","8097","15","[623bce3ed394c1189510eb73d57ef447afc65667, 3452745b8a54f69aa7da930776ee2902471491c9, a6f83f1d3c00a0d92773d22a8f959ed9bdc6efd0, a9faa617c7c6eefeb979c11d2d7687c6e9bc3d6e, 94472f5d6018c44850a051d7df30158eb10487f8, 8c99954f7e597f58a9ac6e0f5038c149710da522, 426cbf0cab6ca1712e0cc6652a77e38787773ff8, e1421f3c1162118416c0fc1f63b3f8211f62a018, 872eb35ef15f23fcbb6fb850a94ff823f065df4e, ead8955b76ab589ad24d01971e146b5380568149, 05f2f300fce89671a60219c8d87353d16c91acfc, 54edd87dd6bce7a9f443c0cd21454f999fc196fc, 2c2c1f8a3eb6236115a2bb54f4ffb2746a169e95, 8baacde4279c40c29d55f511d66a82a09833711e, 82d2400cf0be4a03d08c706fda2cc5d88417d880]","70","17","623bce3ed394c1189510eb73d57ef447afc65667","b4ebb6b189b9c26813163345360f4ad01c2c5133","3be28209f5e2d3d534a0563d9ba610c3c4db0d5c"
"https://github.com/opf/openproject-ce.git","8109","3","[9ede533f443e37772e645b15691bbc88d5070e36, b26ed7847eecbf2d4997f479a8094bb9b3047994, 5fe422216523fc334fe904cd6350f45a108a473a]","2","1","9ede533f443e37772e645b15691bbc88d5070e36","0ad9fbe772a050604c6be4d30405719f05cb7dd4","dc9c85a26079df035a72d21b30ce9e973adf6afd"
"https://github.com/opf/openproject-ce.git","8113","50","[e0fb8460f40172d6f50e4e15f848e520e9f9d9ff, 39598a1b82b3198cd80f453eb807b91579e017c9, 58be913471f98485bc2df453b4dcf4a47c00c37f, cbe7065785a7c196c8795084b37fd54fd932c7e4, 8ed947e2e83edb1a18b4988c98f51d116eb9bca9, ab78885d30d85a99c001efb27eb32af228ff0b29, 11516673fa16a2fa0fce08addb0f161fdfa68aaa, 754178ffd813f6348949a5ee773b11a1b36189ee, 0de9151b7777622542431d5b070d9b3d989683d4, 04c1d5e2308826c6f364ef6aaac8b65b6616620a, 554ee6d635d1b8b7ee303b9e6985271ad00c0632, 416f1431eca3fcf0e2199423fd02c92aca862746, 116af911be06865cfe0eb24e32582a45ed7c173d, 432b0b5f05848b9dd376d93912a9b9d29304eea8, fadb005dd53bb4a15e3eaaa9de9a82d5089d0f04, e4fdf0675c1ee8c4b05839614f7bbc95abbf48cd, 8464894b1874b25a7e448bf275aa93b04974a78e, 1ca95f8af32c7ea3a1dfef8a1de6fe6db53318cd, 259a08b5a96f906ecdbfd791e951a991690e1486, c616e7e0dae810ed48074593d62fda7e0bbd7883, 720a510f0e21f075c2552a1c9f44ef970270fd67, c93870930e2a91b62458cd33736816847623118b, 89f5db6c1a398fb6b64e8fc69a52cc6235801f4d, 665ec97e2bfa764ad76a7a291ff71a64b2b86c5a, d5eb7d992c0bae23850b1caea3da50ae3c3eff38, 8232373bb82a387ea2c197a0c8e0fbc3895d9779, 896ab615a3c1d9817f16c157e5fb2ccff5d6c40e, 6c720a8d5d99de05c5b1d340abe6761e9e036ede, 8a463ae5cb49780ae4c963b0e7fa6133e48db64f, b1a1923ade4b2dbed475107032a0225c9a0647f5, 6c620f8f7c033f52183c914e47defcf0ecb48d0b, 3bcd34a412b429fc15e171573b6c9e30ed352cf9, d17cbbbb4a4c8f67197799cbc3944990c6e23dd3, 4955d890f65c249e3b7a87761899823cf58f3776, 912273b35f0e3d38b62dc8b4546f4b234accacea, 88233c7e27747fb4a21107a03512a17d913a1fbf, e91fd0c5626cf41e7001cdfce62ce9df81da3bb5, 54b604b494cc2ddc05847d2e99996720b576f0da, d53c9834967612e751b57737368bb31a152fc0ff, 09b1c00e69473cd3493cdc9d1661eeb05e4b3e42, aabab3e33eb5a95449d2c7016da3b950e352cead, 84cdbf0afbfa5ae72d6136f8e8545080e790fc48, 76c949005b96c714c5f7e484afe010ef04d63b15, 0b8c0e5305461cf8808a61811280fc1880029f1a, 451feb02961128733f75a2d7b8f9711bd6b91aad, 51827b7771e3f0682868d388c703b14d46ea3173, 8565aa0cd10a7fd5c8db60886ff9227903664a80, ab40042ccbadd80027fcc9751abc389415894a4b, 22a8cadeb7822f19e3fc75031ea3ee723dd9b659, 9b96b67f10253632c1d40d3c7ed5fa430026e761]","72","12","e0fb8460f40172d6f50e4e15f848e520e9f9d9ff","35fa5bd4d365617a50ec1efdca180df749ed90d8","a3a96dd5ca7184d16831a4b0c33bf2a0d223ca1e"
"https://github.com/opf/openproject-ce.git","8121","5","[303ec4a69543af254afa9035b193da2e13e334c3, a1799290f652224fbd0ddfb83354177d18d2f106, acc2911ddcb569796a96c36e975e65115555c846, ec5f0dd51c3c51e547e80bb887e9ecf4a376ba69, f1d48700330fdd76e742d3aa0b8716dd2c3cc057]","4","2","303ec4a69543af254afa9035b193da2e13e334c3","e52f416f8efc6958f21d10121e8f53ff8a8daac3","3be28209f5e2d3d534a0563d9ba610c3c4db0d5c"
"https://github.com/opf/openproject-ce.git","8147","3","[ad517b073998a5f39b55d84ad1b7ba0684bc8b09, ab6ab750df99064de7402b06b678f856c6512d7f, 089db9854188d011128346ed6f7f331029c456d5]","6","1","ad517b073998a5f39b55d84ad1b7ba0684bc8b09","17e23f443df1ea32307f7dd45cb3b89d020a2a4b","1a92851c06c4053e157590851000fbf02bef2a56"
"https://github.com/opf/openproject-ce.git","8163","2","[dc9c85a26079df035a72d21b30ce9e973adf6afd, 7963fe3521eb11fafb42e2958a40e6cab94918ef]","124","16","dc9c85a26079df035a72d21b30ce9e973adf6afd","1fb38126a0604c0453929631363e66cea6ec0e7e","0fcbb60a7caa98bf13a1e09d25b686bc44d56041"
"https://github.com/opf/openproject-ce.git","8183","3","[f1c7d15190d84535426d0e510a3c02e8dbf556e4, 3e6f3b11aea829c48d0813ef2fa05328a56a6cf4, f4706212f1162bf792dab7662f536f19e335b451]","1","1","f1c7d15190d84535426d0e510a3c02e8dbf556e4","90663f6ed1548b708b7f8e58d788f71629de1b4f","21ec8c8cee79d2dfd1da52545f203ca72d45b1c2"
"https://github.com/opf/openproject-ce.git","8190","3","[c9fdd135d5d9887fa135c363504201847686f9b1, 62df73d082ccb4c9e5f2a38b88793d2db1edabfc, bf1f1ae5152a4d5c01393febd101a767fce7594c]","1","1","c9fdd135d5d9887fa135c363504201847686f9b1","e3ef6dd8177e4fb90ea080b48b02563ccf0554f4","2f15f6f363a34dae3dac9c364fd317b17d624d2b"
"https://github.com/opf/openproject-ce.git","8194","2","[257f6e440052a4b539388c67ef8a32e0b640dbf7, 6f31bebc6d47b7788a818a6f2c48eef3c747e45f]","1","1","257f6e440052a4b539388c67ef8a32e0b640dbf7","524c9e05fdd55a2cb42f1c8701ddecd8d3c0cb54","3d13d9b86c3cdac4e51c40f0a7a5a5d97c343fb1"
"https://github.com/opf/openproject-ce.git","8211","3","[d5c58b456f8a70c533953db236d72217710f5019, beaf39d45fae7cab7b937d57cae1f5cba9c97fa5, 59c6766cc92ae9bfcbc460efc84cae72a7e12f6e]","1","1","d5c58b456f8a70c533953db236d72217710f5019","4af2471654714bf23b200bb0d600fd10720c8734","28cec1087c2e7af91f00b6cb203052ae6bf26b93"
"https://github.com/opf/openproject-ce.git","8224","3","[c9187823ca4e40eb9ded5376b606335f03d9c6e0, b23e0b7cfb1b39b13edb29903cf163c3982d9d5c, 3bbdf019382486d30d55d7ec0b0c3e9059558cac]","1","1","c9187823ca4e40eb9ded5376b606335f03d9c6e0","78c7dfba2e6af797689707f31b184b703875283d","8b8fe39c20b7be402e80d87b18f235aea9755cd2"
"https://github.com/opf/openproject-ce.git","8234","3","[fc2fd6ffd0c2ba06d895642840f484b62175fd45, c84e722c79785d3bf869756b59f68aaa1ad3a3d0, a1d4fc3e87857cc837bc6ef589330d8966782608]","1","2","fc2fd6ffd0c2ba06d895642840f484b62175fd45","b724606eec567f2ff3034dd2bca979cde58f4d1f","615d0193b2be0a0e896c69c418a25f9e882fa971"
"https://github.com/opf/openproject-ce.git","8243","1","[3dd62027108130fefe291dff5cde2674891181ce]","4","1","3dd62027108130fefe291dff5cde2674891181ce","80cec805aa37bc0dc7fef2f38cab6bd6d244594b","615d0193b2be0a0e896c69c418a25f9e882fa971"
"https://github.com/opf/openproject-ce.git","8260","10","[1b9a38b2033ed80ad9a6ee4d7d7cd5e140087753, c30b2649a383cdd65fee950166432daecbbe100d, e0f2b3e818ae7eace5ae2cbea7f49e0e765fe609, 770c10aaa4d976d2aecb5aaf4236af11dcbb5a12, 756b367c807a3a70cbee38ad496eb4c688f410e6, bdac58897037be343072f4597bdd6d57b33f7d12, e00fbe66e5468ca1a4f46f4777ef307d486541d2, 43ae7c4011bee2f5c6cb86d992bc544b7a72b9c3, f329b4e92c425ca3eeac0abebdb73d393f984ca1, 7e7679b0dff091f3a4162ae0e5ab2bce5d2b1941]","11","3","1b9a38b2033ed80ad9a6ee4d7d7cd5e140087753","e519b043a5beb78e803193d8034d36f2a6efd197","678eaac21e0e7112a8761786fdb8751eb8255eb4"
"https://github.com/opf/openproject-ce.git","8288","2","[f07d5bd6cf46f1a14db926dc1a5753c952894674, adcec308f6b1e2d58769f5f8fae6dc140087ba1a]","1","1","f07d5bd6cf46f1a14db926dc1a5753c952894674","8105af43133cd685e59a63858ab64a7d7ebce83f","571ce0f59244098a46212f536e5f7ca63e909765"
"https://github.com/opf/openproject-ce.git","8307","3","[76e74e0e5754cf82024e89fac843e5da5bc5b840, 241b2760ed01364f58239628a0e668da2d9bcbb3, ba9d25931ed38c2f66b7ff52b859f41e97049949]","3","1","76e74e0e5754cf82024e89fac843e5da5bc5b840","91bfd46867707ec281bb0c471ed91b58fb7cc64b","fd866b3d5fe0d732079c6e5e9a7cd96a3055b1fc"
"https://github.com/opf/openproject-ce.git","8336","3","[7e5cc3816fc1ff0bfaee1f6209d3fe994fedcc28, ad809aa55f706cece904542a186f7d78cd7e9680, 13fe91c345c71c5c7ab496421c507696bfae7b74]","3","1","7e5cc3816fc1ff0bfaee1f6209d3fe994fedcc28","d450819347dc7b6c5b54a5e8ce1eeedbf45acd83","b6d34c7b1db8e691828295c4acfa8082d5681b57"
"https://github.com/opf/openproject-ce.git","8350","24","[9bf57ac5108aa0a7f532edfdfc60d5e3665da42b, 0d6c785e5ebeea3addbdb327209f8289d2fd52f9, 30c3d6496bc19d542ae152738f1150abe38b6b57, 82c3fc0d13ee651d9fa4e23d98413cddc8af3509, 5869d685ae31e4ccb0621d628fae8b90d57efe17, 3e31f3e3a43c2ab21b38762eae52f31f7be335ff, e7d331c90e2755b39e8c931533f081ce1547ccb9, 208a4503cacb4a177cf57f87246da5155f1bfe29, c0b5d08d8a7a71c7ea85a7addffbcf093d3a0fb6, a48d34b0f6e01b1e14a95514611e217fe8dd0e13, 9b6a21a1b609c8536ecbcafc4aca3b70d998851f, a66caa3da7c48e3f65357b6b755acbb05f8dc784, b1617279e518c9386385cc448296768b12d93cbc, bce2e13265176935db29c13d3aa8c87e523eeb70, bac7ea7079be84c06f1b37f07643670b641d006f, b6f43950f44d13b7484ae60ca2752f0ff520bea1, 8ecea3ab951eb9d7c97c6952b43762a87b82ddd9, de027a7c5891fa752869e2a51da8f59c17eec09f, d8bc21a033a6f82ed606ffc63be78fdcc7855bd4, 09b0e5b271d8bf9851946deb26395e9fc293f426, c28cd3ba440b047ae5a4f973dc08b8a060a69338, 39d75a59bbc26bb3f212383fb36c63714d339b9f, 980229858764cfa072651a5d71f7a20a240f7a56, db613964f980edc723d546156ddf0649953daa61]","3","12","9bf57ac5108aa0a7f532edfdfc60d5e3665da42b","1f5af420316a2fc16819e0696f91eb8f767912de","9539ac7ca897cc9329b01bb65e4b7e24d8a4daf0"
"https://github.com/opf/openproject-ce.git","8397","3","[ba333528444ba107aa0fd373a2a43dded2cc050c, 4851830a9680259aa91cdea69857843808572534, 5c4e34cbc833e15c7ef47cbe8ec5b9bbbfb253bd]","3","1","ba333528444ba107aa0fd373a2a43dded2cc050c","c4ba803a18d2d738de63fb698974676cee91eb6d","1dcb77488a773774bbbde23f01f620efbd3687cc"
"https://github.com/opf/openproject-ce.git","8398","4","[943c43e430a369b1e7b58f55bcdcdaaa31673b38, 93f5cfd74a6e37e64f8aa987111efcad0f429581, ac23d1a67cc75d6be348e902f116f7ed5162145e, 34ce71d21fd41aa4653cae1ea4288eae47acce9a]","1","1","943c43e430a369b1e7b58f55bcdcdaaa31673b38","c4ba803a18d2d738de63fb698974676cee91eb6d","1dcb77488a773774bbbde23f01f620efbd3687cc"
"https://github.com/opf/openproject-ce.git","8402","12","[c442ecb7d9a7809d4564785fef57e42ab8f495e6, 4cde04b94271cd4b8fa43918e58cc537a7fce510, 48e965a1fbcd62e3f1507e1b8656bb932d689838, fa9b64e26dd4e12562a2a0016c854dd8096dbe30, 35072bd4cf8324d1fc7e4e7a7110222400992e3e, eb506a546a6cefaf3cdde6a23c961008d532344c, d2644b23f59e52598f6815a0288d3f3020bf24bb, 8b4677a2b7eb3b711af47ba487209f47d4b8e69a, 87ec6d19eb0aa9fd56cbfca6d8650bc9486c85e9, b165ff2487c9c79c23d1b9d85fb8f898902b0063, 0bf1785c838ecac07581a47f22f09a5ee1f6fc1e, d63bc7402adb687a06fa52a4d14f76dd41d09952]","12","3","c442ecb7d9a7809d4564785fef57e42ab8f495e6","9d701d8e1c793e7d0889275973cb02fbc0b301f7","2fa6538ed001936301c92bf9525692cd56632bdb"
"https://github.com/opf/openproject-ce.git","8419","11","[b4cc8591390a3ca2f0f6e3de8a7e7b1040f335c7, d2c281cb4a5547c062ee8fc5ed2a5d23a6892c1c, d7f76473ce26e6e24cc6702768aad7a1314fd4cc, 84e89f0b90df9963bb4855ade96ec2eb20dd4dfd, 6c3150e110f74a7aa2a135f43ca9e3dfde39d62a, a9718fd122a64c727448c5fc6a0708ebcc48dda3, 03fed796f6de556e86eebc3763aecab9cfd31c3e, 750a32188934d6096476aae1cd14ec557463277a, 45c801fb519ff88dc3612810aca75cdda5820e8a, bb1af7e1930a2beec99c2970afcda4f09235d6c9, 3d3131e5155def37429ed35e1376157202443f37]","18","3","b4cc8591390a3ca2f0f6e3de8a7e7b1040f335c7","43c07789a4f3076f1e92bf7415985b9a2604f3f9","a755ea738972cbbf690da7cca2bb05815a999515"
"https://github.com/opf/openproject-ce.git","8508","19","[784f9246cf4c545d90bb5d3a013d740c11a6bb2b, 82cf022528c0267d2bda48b74106adc723fbf25a, 3244800882e6820157ff4166e0bf1f90329af06c, 8ed05d4f782236bcfa95782e5d3e4527be3b536d, 02e58ee814ce216eb8a3a3b0776605e38bbdaceb, 106ed83b1cfa25a2047f172769908556462c9ee3, 52837e9a46d25aa26b879be8e6721a253d523dd5, af5109372c655167257af4a0ebc93ec67ccbc400, 12e5e31c34f00a59752485313c6127d80dccd728, 12017dc2d20243a24e0930a84ce471268e10274e, 9c5ff0810a82e819f039b84376ed4057061cd4d0, 8bcd0cc619abccb63c24faf1474d4bb05b7a67ed, 74adf8c32f18c610ebab0899f7c535418cfa4c38, c6b12f3b12ce2decdaaa519cd3f86e60dd8053e2, 572fd3c3d833dc1e4b4b6e583a13a082cde00193, 2cd9c25a44b9a467bed2546afbad68a1cb78b30e, 30ac4b8e2879a9f05eadd3f49d235b4b01c76e85, b63bbe8309b5140cb4e635d0ebc9ff9c23fb949b, 154c8ab04c0445b86e43fb9524f7c58408c5c1bc]","7","22","784f9246cf4c545d90bb5d3a013d740c11a6bb2b","7cc4a46bafa333af4185b1bb47b5f9882435b509","867c4d232c5c3646c11db06759228a02a4888f30"
"https://github.com/opf/openproject-ce.git","8577","3","[39207530d92c787cd8118b3294081dc9d4a64f56, eb084c4934a676610e0a2cf8965ef4e27bedc3fa, 115b5286c188e4d70d169d9d0e07acb508abb139]","1","1","39207530d92c787cd8118b3294081dc9d4a64f56","db7d506f44aeac2352579712fae7a636bb3cb4a6","ba1e0134a9bb3aa3422994a8fad99712cac277f7"
