"REPO_URL","TASK_ID","#HASHES","HASHES","#PROD_FILES","#TEST_FILES","LAST"
"https://github.com/opf/openproject-ce.git","3795","3","[1a58b28e6722bf13976d9f7508d4591e7094b9ff, 8e9de427475ef088f2c5fc5c27d586b7f34f10cc, 8752baac1646fe651ab4d42b2fa8feee3cb19aff]","17","2","1a58b28e6722bf13976d9f7508d4591e7094b9ff","19b115c4e4159f01832b2c05128274eb804a2ef6","680818a7024a238a18e163e1c157843ad0f6a1ce"
"https://github.com/opf/openproject-ce.git","3864","4","[61dc1fa3bc75e64e027b25412ae83e3378bf901d, 6a4f53d526e9dba158e98356409b28a76cf28087, dba38f2425594496ded77ce4795b46084f5b1052, 8a5a73e49a6943100db8925a741d86f444b41403]","1","1","61dc1fa3bc75e64e027b25412ae83e3378bf901d","a475a0ad40b35fe2ef947c3bc35ccd7090b3762f","d0331c513d5f292dbc5c7147548ef39f0a4fa60f"
"https://github.com/opf/openproject-ce.git","3867","3","[a3ae6a802cd5f52eab0e674d345899d5d5af5de1, 7fa9d3c61ac50b5f32c80e487393e85717551350, e2d0172353b6e7dcc3f781441c7f195d94060897]","3","1","a3ae6a802cd5f52eab0e674d345899d5d5af5de1","2512976fea5372982867d0b92fcd0ef2c77201c8","e46de9c5a4ba9de066be6325227ed91780fda279"
"https://github.com/opf/openproject-ce.git","3870","5","[482a62b76798af5d48ffdfccdce9edb2b69b2cf7, bbdd133eef6d4f5029328fb401d916c7384c89cf, 7a6f605bbe0739986c9b417f9cb5c38abfc5d8f5, dc1a3fe765ff28931bc6ae54434cd05c83e31b45, 531d3dbba65e7f100b069d7d66c18dbf30754167]","2","1","482a62b76798af5d48ffdfccdce9edb2b69b2cf7","51240564721fb3496747f2ae1282763e5bcfafe3","7be1212494fc51cf9a5e791771732efb85c8f264"
"https://github.com/opf/openproject-ce.git","3886","7","[9cdd65fad6d3ce2b91a646c73c1cf83be0532ae9, 17b8a5f431f1b72f16eaf087f77d96d1a8c4abce, bb4c6095240a277fe029db7d49ea8278f1b41081, 463a115d6ccd79ae4bf92da3424b3c2f9ec6ea2d, 8ae9783d50b87e0e8a632fb0439635088661a0ea, 06dffd7ee1a120200940c3031650655232767f06, a6422e1e736aa771fade2b5f14ff6cfd6c44a64f]","12","1","9cdd65fad6d3ce2b91a646c73c1cf83be0532ae9","0a08433f08b90c107f7335cf1f9ffbb89d2d56fe","7ad5e8d50b2cc51a9ebbfe2be3727b9886988094"
"https://github.com/opf/openproject-ce.git","3887","2","[2fb479d83a4f5652cd31d9ea11ca11f55cbf8af9, 2f10c30828ab75e69cb5fa15e6c8b29531165b2a]","2","1","2fb479d83a4f5652cd31d9ea11ca11f55cbf8af9","0a08433f08b90c107f7335cf1f9ffbb89d2d56fe","7ad5e8d50b2cc51a9ebbfe2be3727b9886988094"
"https://github.com/opf/openproject-ce.git","3899","7","[64b476d9897c3430f79677a63bf6e3521cc87360, c3e5f5bf6b1a6af70ab241bbaf668205c88afead, efcdfdc816db31699375988eb97b033a057e1346, 6cf9b638eab3285bdc5ccb7fb59e420793e061a6, 710824fb7a05ecdcf574b1fd29ca08bdea8633b6, 84ea93f859eae1bb2571d7b0bbe1a5315c01097a, 286646c5dcb4e6db6773f602cb247680c8e5c3f9]","2","1","64b476d9897c3430f79677a63bf6e3521cc87360","6fddf2e1817ebf479cc2d724543190fb908a3da3","070b387c06d42ac04c9472f73b8d031988425a0b"
"https://github.com/opf/openproject-ce.git","3908","11","[3573d534f2614f458c5b6e4d185fcddda7c589bf, 52854e49958f57643f90332248640e0d5e21de15, e1ee56b085bca4881259ce49ca8f9f5edc82a53c, f7bde5cf80b0a8f2f2d63c56604d997bcb9fae66, 0a2911e9be959ddf863e146be3f3d03ba66e032b, 8004ef173e1269a2a13bd19b491c4cba8624c869, 500eb675b88297a100721e867f84f70591355144, 42ef7877c1a5363087c3178999b0dae839bd0c29, b2d17467fa50c0b494537dcaec7e13671ccc3a29, cec13296315eaaa6059af38d0ff6f697b1b2ff66, 8501b9eb74fca4c29ba637d014eb30e693ba4571]","4","1","3573d534f2614f458c5b6e4d185fcddda7c589bf","b10361755639f635b5c60edc9516b1d5dba98271","1bde09bbacb4a89a5a3bb72e2e0266cc3a41c2d2"
"https://github.com/opf/openproject-ce.git","3948","12","[9d5d3cf3f2e19c8c698ddbab50fa2e996109fd29, 16a4ad49e3e8f3edfdf623461c9590f979419a00, 29a59031c535b7ab2e5713feed4b543cc87b6564, 7cd1487b0aa0097e2a8b24ff454a9f5ff9cbdbb8, 3b646aa6050a4cad2d3ccc59f20c4bf0785d45d1, 3fd8d298304a8868af5a39f0aed9156953da09f8, eb56a2695db639c1ff5cd036a3dd06c287ebba7b, 57df2372840197ec6d2f7df41a45c668268f93f9, 5c316baf2929dd8bd7ce5a0a652b28fad2afe88e, 36010c2f6754132f4e0e2aedef690f992f8f60a7, a7789652e68e5073d5b2819cb985dae95dfa8e3e, 671d7e677d61cfb6a149660442ce8dcafb78cf06]","46","7","9d5d3cf3f2e19c8c698ddbab50fa2e996109fd29","dfa3974ed4401df224263150b842c5c8716ba54c","2a490cab6cb0b67e327eda13d6115ab1d9efc154"
"https://github.com/opf/openproject-ce.git","3992","6","[0afe5e043a8a444f3a73bad78c1df108f4a2def8, ef33540b7cb9181843d1e470255c991b1581a84f, 76665ce140463a71a21a6dfc57c546835098d519, 29ed6d4ae4a97df711958de3e5c83877d6c54677, 950cd2434c16dbd059a1e928039558905ae5fe72, 7a85769f8d244a03ff7c1f1260f5d198db0f5058]","5","1","0afe5e043a8a444f3a73bad78c1df108f4a2def8","4f58a5beac7911bb59a60873b2b605bd68c22b8e","3bfac1f14974a49c74ebbc6fc58a27a74a083370"
"https://github.com/opf/openproject-ce.git","4012","1","[acb4431d8acd91a416c733195aa6f2e0cf2f88fb]","9","2","acb4431d8acd91a416c733195aa6f2e0cf2f88fb","19c317e86689bf276adf95e003a84939571b887d","3f8d17fbf66d887269e96de876ebcfa193dbbf7b"
"https://github.com/opf/openproject-ce.git","4013","6","[f486ff54e017e923ea280565ce95980984bdf869, defa35f6efcc46a9c04ebbff4e83a86cb8962969, 9cffb2a932f2a3e91df0190ee004221d85532678, f0c911a0ac12daeaab737c6206de8a5f72e8c957, c57b90adc4555f4fd6f8dccad0929b045c9d4a8b, b4ded6e03e48691ef9928d7a7305e04e0a7155c3]","5","3","f486ff54e017e923ea280565ce95980984bdf869","d82584ee597c1038b8f3cffa244802965f78c9aa","5fde63dfff437be797b99f8f1e21f340c8cdf2ef"
"https://github.com/opf/openproject-ce.git","4037","2","[b2500a0b051fbc4be15030fec01fbe734dc9a4a4, ab7ee018fcb96fe111380d05b5ffa5679ed47112]","3","1","b2500a0b051fbc4be15030fec01fbe734dc9a4a4","014e49b5e9a43f8bf8135ce7c4db4941e7f9bb23","322b900124efd85cc95082b4d06f1dcceda06203"
"https://github.com/opf/openproject-ce.git","4039","5","[c53d19030e2165e58c74fc4142542f607f4fbc6a, 577042d4b9a562d25d38806db2f88ecc1f725f15, 9c7bb6e85534c340655a9db6b1ff0c44f8a318a1, 66e330c94bd962617703da0615184ba78e281f7f, 4871df3a1ff97456fc37bd94ed25c73ce4d6f9cc]","3","2","c53d19030e2165e58c74fc4142542f607f4fbc6a","bdb8325c7c3c514dd5165e14b1a02916b2d40aea","fdbeba8a7180ae67f26bf8d16c55d24ebbbb1b3c"
"https://github.com/opf/openproject-ce.git","4040","77","[0c7aac1584af52c98dbc64ed1489226282f2d226, 1479031f0e9d5bce94f8468fb0bbcd6a1aca4ee6, 85d2023d4026abcdd8ecacfc7bae93ce3fe76d04, cb9f904cfe875f167f5f010caa3be2b107929573, 8870e7cbe4068479531f17fd8e62f32ef7e38d42, 6dc1140505f2d1c078ba88731cf85e45807d5249, 0196431d6a0d60ff6464ed523e88910252df7479, 6d7b559f6348cda03504f33ec3337ee2478c77bf, 02d74ec23a6471dfa5d161576a9e5bfa4f9ea206, b2aa1dd0763157054e5b1db5b9d1fede362ffef3, 50ea8ea785c34ba60498f28090ecf60a4ad2ebc5, 25eea7460e2a200cc0e0a4f10a1ac9632797b8c6, 96102617781340c1d74e0e6a0de29b50672a3ddc, 22368e40b16d8b463d832cf7d6d59c375ad0afbb, fd13f1d69710dec097991b5eb27af322a5a061d5, e3adae4b14b52d4ddd0a2dc74d9d4a87d9f3dfb3, f5933acffc04c940cc177e3984b498aa596d6c4b, 0d95ce85dd664dcc8c6eb023c2cbce70d9edc1f5, 66020c41c2c39c89e4718105a0fcd868162de2ff, 80d05ff11294e857085f431f7f19700819615a87, 5452fb27bec11721752f68fd10add57f16f72ae6, 2ea881d53c1e3b3c05590b9b6a958c495db20722, 7fb2ab289a1a110c9da588e1f25fb5258e027f19, 902d343e77ee91b15d47682ed6c0887ea0ebacb8, 5c57121fd0c5bd259baff4c7f6b52e414848d3b5, fe6eacfb34660371e8e221d97fcee7942c225fb6, 1e5877b38595d942246ac5cbff60fdbb3402aad4, 23b72e9e0c7369327b1dd934c8844c971b1d93fe, 80f1c2c7391e4f575c359e32a6f24fececc2e988, c784f4c203d65a585352d4fa3317ce551e510e9b, bcc1067bde8b92a3e2cfc3ea3929b72f2913c619, 603dd7fee61d86fb1c773752e0ddcf8166b620a8, 94b2117d071f98426e76bc6ab600604cd24725b9, ce47d06f49d6ff306af23a8f7e60bd17610f1b47, 0b8021bedff076f0b67de28fb93739b613e81ccd, ef1ffee9e196bf24496d105ce31fd0452ba99d50, 2f846435ce2c4056b9d17ebceba0624787da68d3, 114c85fa65b62648c7cf4425c6da346a89a323b1, 3f89d3fee9bfefd14dd61a696f769c6f2998e567, 46ad7f79e771934ef0bba2c06e05774b3343247c, b8c4f2ddc9aafaf8df311966fa092603d434151d, 2cff5e98649e32a197a62659a23dd4b864b7855b, 7a5190c4fa97a2a0d05e4297766d4a04467349a7, 52779411d466aedc0336da87571350f658aa4428, 0a44f54a122bb80f4b908b4214bb73ebc0d3704f, 4c8c95fa3b9dda7dd55ea934c4a742a5619d6df5, c5318308cac7e707f628d479258861a968a61c41, 8575d649e9b90afd2f774068a995f2b011b89b90, 04b6445eaa778fd94d0ee432c43c71e34c8fea85, 947f9d8fda34fb579af7910ce73f3b51616c8498, 9771528616eca3eb91ac6d39e2e1dd88d0b1d230, 0161694c3b83332a08c16f662445b227455c70e5, f6d52288f4a7a41a684f56f6714d8ad92682eddf, b3ee21ad294fa0439bbb8fbccb4dc467c2fc1cd0, 29d52b8ca3e7981642f3ae4263097bae2c216475, 6610cd297f379ec1bb5911db68e2b443ac404bba, 1122825acb5e77101d576f9238faa2508aab1fdb, 10673779a368740a305c142dbdf33ed3761471b1, 885ccc9a50ab05e29f02bc2519443f7564b3f520, 5a528683722a90c886f148dd01904c07856d61df, a5a47a8e5ef77994a0710aa071756fe5c9f36b19, db2bc111649c298d3194b3bfa34b4f65750f1c35, faaf5245a928650163ab550946b6e13f4420a4ae, c989c6517f377201c9fa64632e974d944c1e6d89, f351dfbd729840937073c20d23c7b014661b102e, 9848f5baf29ad243a025208f53ce23629681117e, 4b6558ba2b17b463b37135d4d257564138397922, d3428ad180f6408501c3444f4228c0c0e68f625c, b0fd7af830c178399efc82497e437c536f77247d, 62480de5126635e862ea509ed6ba9fec3a315ac2, cb890e60acbb7ea46313488cdbd19f46706df533, 47bc71b3422d9c29c26c3a92c7ab6e7b41fe758e, c85391bf855821a5f023ab766a6c3f5d60bab583, b656e52448fe5511905eeee056d25d60d6eeee5e, 74111e524a82d63f08c43f8660e2a9f2d83b4577, 9ab4eb3a29e90a7e7c3f425eb0976bda448683cc, 6ee23fee42d824a5b80cff9f8020ca4e88f34c80]","15","2","0c7aac1584af52c98dbc64ed1489226282f2d226","c80904ec5fd6c6f6a7cd86c85a0feabed4777c08","322b900124efd85cc95082b4d06f1dcceda06203"
"https://github.com/opf/openproject-ce.git","4058","3","[50960e78cb56046f0773dcf3175289fea232224e, 30ea542a0012b34e4a4916099c8550d7aac27011, 3d4f0b60974318eddff98ba0951f9cafd63de478]","2","1","50960e78cb56046f0773dcf3175289fea232224e","1e1134a3eb4dd939abc5f0df483e3d27a8c3d95a","44fb57431041979f7cea544e3eaadc9b51c03ecd"
"https://github.com/opf/openproject-ce.git","4098","117","[760edcd4143ff1f9a2565ff741385d301ed9121d, 233ce258f95d434bedbc90d63acc90b09e7bf2e8, 729b449074ef700447147951af5b970fc78fb74a, 628d95ae8a9fd427f387b9c853bfc409488a51e8, 024754830fc365022f9acfe65ae564b127fc82d9, 63dc08f0fcc6ecaa52dacbd94f052965f473c614, 593d363108ab89a5c3e66239c3a2e1f480f62523, 8a0a1dca11adb20e3804f7b199d2e08f7c07fccf, cf6553150080c04e86555c7bbe3e9de27f5d8f7c, 3d52056b1f18d26fd94b3374205815f2c08fcd84, 5f2c6d58fd07056b0737b7a82cac5061de066215, 21ba7ccb89414d571f109f31610fa60d9d34216c, b3dc6c491483c8fb1a9b66a5427aae835d61aa85, 58ec88fb34216a3865e3d8c2cba9dbe5a71e2853, 34a4f74d16f72915634bca8dc65958c6670d7210, ae6698ca2c77ff5e607a6b945df3d438ed84918d, 7c49e699039681536fc9d594ac416637c13239d6, c8d7501af782176c8aebcfd494140e7aa4589e77, 9c0df089d2d682c378365d6477699b0cd411229d, 8a1431d704371adad49f14da76bda058306c1bcb, 0b7f369fbe6a9529e5ae389f06463262f71e3e04, 47f35d53099b66791456d6d0b8ee0c7d4fe64015, b6890070643b85d68b087a7cf6ca45c8add054ba, 6aa957755c894e9d9a56c34b260437f21172a491, 659fc54cb474a2e81e6b44da4f64f6d4d284b932, 74ad16f9b416a842b0418a03618bcc049ac6e2e0, 805880247d0b1fc6dc2073ce8210014982784508, 691c57a9a454562bbffe8ea9a4e3bf5be466771d, 84e66ca050478d16297a64db8c211868a369796a, c01d0db034cd7c411422228146811ed32641308a, 90cd8b2f2494d4e8bf2f575db23acbad1ebdde72, e49d522139d82dc0e2910700d1315cb9aa247644, 60bdaae50700fe210e4080d18825eaf5011d521a, 0da52777bad4ee7ec5fb206db6505c1b56369416, b624f4d7008b687f67e0c597dc278ad958e48744, 26129eb3bb4aaf982ff7c4585840ccc7c7871616, 03a959a7529ee8879f74771edd9a38babb9a3848, dd7741ef76e9ed8746fbcb0e0a7a29587db51b21, d4402c51ba8040ec0281df330e3ffe967942399a, 9531b2391dd4b2bf0cdca1e55807c55fc8ff5114, 183ef30e95e31a13aeb97c7acbce3c92203847e6, 3fd5e143913c3eb4c086b1150563ad9b082771e3, 53cebc586bb8683c9407a5412a6211161ec1a24c, 928d679cd10224a50166c5211ec29fd5ee92d264, 218761bc1945db40e5211da45df7237a9d616fb5, dae0f923b32f7b4d9127c1b50f2268f16ac85df4, 1e5ad33f0498962040b4bed2ca4b720fa650f3af, 4e3a0050ecbd95abd8908da28242f7827a2fb6ae, b8a9e10c359c33a17d0b4fd7f8d9f625daefb5ed, 99b7a31413a3ca5684de784778395b6da4fe8a78, c422abf42a438c557ff32135ff5a5610ae6b58b1, 4cde4396941bae203eee1c5c5245413424365ff9, 0be7cc7d24df358922a05e3b01b235424d7d72c2, 3951bcb7cd3157e4f7a26719bb77e9c9d954ca29, 2d8b40f3a134a61008e09cb436938386e270b50c, 8554125f6333e972e64259da705143b8b0f08e0e, d115c38dc12d903e4bc1aae06a3ca249c10459ca, 5abee795731dcec84f61371d698857cc65975ed8, 13714e181cba0001055beb063f5884c03332ce44, 196e4510d0f5060ebffbf77d42ab53c8e233b19d, 7059dcc1a69ae397697b603ee25f014e502e89f6, af73d607733c56d1369a9d914b9ce6dd5b352f43, a1d3028b6b7d12a223c15891b5b4f823b48b3304, b326ff605d0ecacbebe568d1095146b1d9be873a, 3f87721167b2fb73cdf8f70b193d52fa34b810a6, 2e428477ec10fbf57c5185a4c3be3ffe6428e57b, 873e0ca152d4c97de29fba600430e1ccd0aa9c45, 68bceb2d2631ee9ea9be2111774f1d8486d24c2a, ef0221839d06b2222e865427a77cf8bbfb88de10, 59672ded98e1b70e9a045c556ef5e4e020295699, f6ffa46576b94f2e3803bfb0f30169047b4ef663, 341c65dfde29e55591ea85d395033b6d1ba5dffa, afb92d874eadbf06a3a97a5e53465a173074eda8, 181a5a1c037e8a4cd3a79e5ce4a79544041870a3, a44588c9bca57a05045db9378a2e2727bb123169, 59388918998c327739341a17a163b694062feece, c0d41acd1db31088a090bca079a217005b63b48b, fa9b7249369ea23147894f64d2781a6ece8cc961, a7c3b30fbaa89aae9ea86589743d6a7e350ee0b3, 6eb541813aff02b9d26d8d3c216e6aca47111551, 8b1c42cbdd3374e20a5c1b6ee3ccae53c19d4ef7, 7c62374ffa0e6a8c2f9cc42743d2e61aa30f400d, d094bf828ab2b590ed51b997ce57dd433aa35ec4, bcd4195ca37a7dda93723e15c1febabd66c7cc1f, ed23d6eb7f09647b65e9d4a3765e0e0d9af3e5f1, cdcc630d1e8dc43523eaa1a22bbcb7006e641878, d8fd523ec69aca6bea194a69ed4e2eba277d917a, e06c4736edb5af893fe14def0c75136f8b1123c1, cfcb7cbd9de450f2fc9a71260c0b0c19c22ea1c0, 88f8bf7f70b519df36a4cfbe4e6ec59e7d31bda8, cafccc7761000e5a5459843d822ea770c8104dd1, 2c59f1073548c1b948ec9dd38bbbe87f321ab54d, 755b214a494847fa5e4c66107b208e4a2cb60d8f, a742b1d29886013b46e86aea7acc79c5f0276790, b7da9444467997d0817c3f0c8601e9526b2c7173, 390de18d1ab80fe859216e8b23cc116c1e4518b4, d6b4d1618ac2bfeaf288e2fe31f427ee76f8c9ec, fb66c6c807dc3457e753b23d9a016f0b477d5557, 728d410ff7ed77a46cf3410f3338cb4eccc4f5e1, 056ce056ddd216c2b5f1468f100d294d1eba330e, 93141e40510261e05e6a23b369188c497bf760ac, b1c754b1e69de8c93230238cdc20cd02016ae026, 4b810e40e740ab5e70208f2e76f119ab703bc31c, f89bd4509534f9614dc8a92f590803534971ba98, 0e3bf336034d5590657f09cd2cf5982e9b4f3be7, 92c7968ff3df52a47fdc3ac99f046e044007a8c8, 98a9633b76c0329ff6a279258e18778d79141fea, de1a5b0263f53f7911b81d460fa6e251910f9b51, 19155c8ed8135c0f7a9120dbc4125a05b5330171, 2ca60d7aab51502e3bee4f62174d7b4412611b20, 44624eb3cd43004305ce217eaae690a279a507d5, 93475fba1b5151d3b9b4321b1f0b0e9dc88cc999, e5fceb38be98b42b1500b9d9b75b690c7d102818, b3e431ce85b4fe39132523e6fd90b70829eb71a4, 4d19852d1ceff6b6ba0d145e7a5f198b5e4f74a6, bc5df6e05134dab66461c656f6f5d0672e10e41b, 3d9b7266b382fd1c783266c262883591c3f8ac0f]","3","20","760edcd4143ff1f9a2565ff741385d301ed9121d","541cb0b2e7d10cb236716b7b694ead3363a6fc93","c2439d20ce722b5904124952d074c47233f1a07a"
"https://github.com/opf/openproject-ce.git","4123","8","[45ca65e3be1662c83292518ff053c9514186a82f, f81dc806c8f2c67f881c3b58c4b59fa6dbd80bf5, 4142fe1052f4001074a3da2e72c9a496ea0be72e, bce314a970d6ee853cb38c6bd06690ccb5420f78, 8896b466a105b59f061c0284daa3d2c586b5ceef, 691813c9621cbb428fcffe611bab267dac8d43d8, 05a037e9442a328fb5e2a2e339fea6b48a278d36, dc90d71942eab6662809e14ddb7d57d9ace02f0f]","6","1","45ca65e3be1662c83292518ff053c9514186a82f","30554d7cb92efaa0933fc8d35aa3db427804a2e1","5a7acefaa36df3a7b425b8313edb6d75450fdeff"
"https://github.com/opf/openproject-ce.git","4134","2","[ce896dbecdbe62d14ed322c4922192d4ef159a43, e449a7e56a8d9c50307992f4bd8b2bc81075931a]","1","1","ce896dbecdbe62d14ed322c4922192d4ef159a43","b915e5e8f294361f71b6183e521ba917e9d2d01c","275a231cd12aaa01ce2b899d0388aadafd9a3692"
"https://github.com/opf/openproject-ce.git","4178","4","[d0fb0fbe7ae3e438a1d25b6640af9fb883eb6c30, f7664541234e621e8241a737d6eb1eafb28eed16, 8a16f67d92effadb0e6064cbf32b4fb471c74a2d, 7febf703df2a2ce92856a5115900a50cc91d2a61]","1","1","d0fb0fbe7ae3e438a1d25b6640af9fb883eb6c30","603c5754f0d260b0fcc6754ab80c68c5ab6ff0f7","e3a8ed3dbca684e83e9f150d5da05dc7cb7f17bf"
"https://github.com/opf/openproject-ce.git","4188","4","[33a3dbda60c5e7b9a2f83ee15f6c42ae91ccff39, 3fb6616b813d9ce1f1952a10f2b84c47a3222434, 2b14e453a78f7934418ab1cc98902c30eb1c5431, c1e0ea5af98dfe301e3774379c1636ddbac0b5c2]","1","2","33a3dbda60c5e7b9a2f83ee15f6c42ae91ccff39","824971b8961572608884c8116c820f5e575d3d86","4b55230a66cb0038dbd57d848b4b51b5deb2b196"
"https://github.com/opf/openproject-ce.git","4194","58","[d7b5284c6639fa18b17b2b0c533d7fdab40edb4d, 8d2d8e3c5f6c8077a2d602a5bc0b41244115a95f, 92a3b899974818a62ff7704c13a3bd0cafbe9d98, a0be1030b75f6bbcaabb0e1cced05f2eaae20c42, 6dbb8825ad68d093b8b4080fe69fe16622984268, 6cc132eb4a7e7264272f9880e7f3b9bb55ce0126, 481b95df77a4a7173da29858be7d98dd1787d2aa, da58898c2902b466c55f0153c5e76acf687ca10c, 42506dacf64746aed91f5eef134e1a349cea6e97, 86248f400ebeb92087c4848d377d2837672eba9d, 0102f299e0e0cad8c1a713325752b9db04fcc1a5, 505a83d52cb17b7b8bab142ed89d15ec8b13e778, 08273436e9e1d8f2bb0dd1ce42a5122498863f59, 37383290782fcd35cf8e8c157d49cfacba2e78fd, 34281818940b69ea59bcc64fa8689523055819c7, c0a13174709c78c6cafc23354624f229d3b73f76, 871375bbc072d10dd2c7ce16c4a5e2861580f709, 5b4143140092b22a74383e07b1e0823a07872e2d, 47479ba28bd02ec7673669ee274ef7fe10398aa5, 129dcc04e01e08b0f187514591373eb0b77a20f8, 24941f3b74b71bd29c52a818c36fe9f19d6adcf7, ac8a0964882c6ff4bbfc312ce80555beb9bcf7fc, 06f20c94b2667c55acd8781c930f35a4bf1e5b5c, 00e28415ccfbfe11c3d85499ef474d097e186b1e, 1319e1fe34e529d5dcd16e0e854e7351fe0c4020, 1883f8a60c5b380568658dfad875c4ccc376e5ef, 56e94fb01f34e3b01a78d00fb1c5f88bfbbe5d73, 5c3241ee500875a502b845efb364502f691abef4, 717f1125fb116e7925d5ffe94d454c2476880a75, 6d14f46b6d3667485ecf8183cbabda9b1bbbee6a, 6fa0b07e1e9c3d367a6805c0f2ded0d47f1f5355, 80a17229aaee22e9531694ef0041b53b33f0c38c, 867a511e70303d9adcf17c75ee2e3eef093f533e, 08eee25bea80785f15825875154a8525f3e6dd99, 8bbf5da2e45b9bfa687c63a7c981c3937f41fd73, 4590784a4d9ed0a5d77f436a05ca17aa5bbc3582, 8882a0a2cc8ef2b3c6ab90ec687eced0ff545ec4, 3a3ff0b10215db429967c40335555c94f40741f4, f37520ad19214457dffbb2354b3f8221a91a9765, 45153a5d1b66a9077e088e000d146f59ca9a1453, b7b613f86f7929af7c2919ee549460e248a8bc39, b3176866f2201a57caf11ea15a0226df75e6a7b8, dbc343555bae12f9e680d9dcb8ea41e91cd8c0ba, 23ba7981bf079096b4be8e587fbcd320332c3565, df36876d21746f869092b46253fa3fac7ecb306c, f7d28dab9598bbb0b1562367fa83fa2fa63aa56b, 23b3275c7fdced407155bead95182fdb72f62f00, bc563ea9776c8a4390e812db462689e87e6d8dfa, 426dd34311d7b2c960fd52af4599b0d36a79f1ca, 0f3a34f703506ffae055af7bf2420d377b7cc893, fecb1b91b76e2a32afbc6eb7a1580f15486fb74f, a88adcfb7a6d55f9cc6145a74dd781e2a8f54893, 35dae3d88b66bc159b5614eb5f52657f9a0430d2, 738f385cb12c1943e23e07a5d7b1e3935e7e321a, 2ce62e39998d799b71b26c2f5ff6f9fa0263a928, 43e18dd00c35da2940cbcde238b7e6b08c08ae99, 2f5018c1d0808eabf4f555108c0391f3a14da222, 98ba7ce33353478760c30ea1057fb497485f8dc6]","28","8","d7b5284c6639fa18b17b2b0c533d7fdab40edb4d","a1e8c1e8bf92a9ad01c1851682d95fc4a6aa6868","06be79d52af64d7377fdcaf0b38eb7eec6fb05b7"
"https://github.com/opf/openproject-ce.git","4196","6","[e49310714092ebfc7c292195eeece5d52cdf5fa0, d12dfaff7bfa890e0a537cd3d22c981d10bd6a37, 29f6e9810a4ca0812cd0da9a347214813f4fe65e, 95aee32a41a600c02a719ba89a483efffd914da4, 294b0ded6d214d2876b3ad109ab17ef7e9735eb4, 7d010a2649f9ef8894fe98c0ee13899d23980be4]","2","1","e49310714092ebfc7c292195eeece5d52cdf5fa0","8f0b398a422e5560565e33c25bd7192e1d48ed5e","73b5c3e9d7e96c5ed3f8bbcd29dffc6d3f123389"
"https://github.com/opf/openproject-ce.git","4231","5","[93a831195018470f292ee226db358d6adc513c7e, 7f078624da03cfd72dbcb1862ce916b698f8fc73, 85cda7b63cf8c83090d2ca5b1c18d128f4d52bc8, d3d27ea2075e106c65c193ebb6dbc6ae1b2bafd2, e9d343b9718aaccd0e19e3194fd0376cc49c6051]","5","1","93a831195018470f292ee226db358d6adc513c7e","46f88c0dc95bea0a903d61fe91ff7d79e108e534","a5f35c3f90dba0770fa660312eae6098594bde23"
"https://github.com/opf/openproject-ce.git","4247","7","[08db1844b4b08cfb453616b229a9486d84e0704e, 076f289a68cd05bef154e710ceb358eeee9cc9b4, 71985a94c2a5c9e446f4a9b9050eaadaa7144d22, 4dc68606ca763aa20814ed05a28866e966e031eb, d81b20fee459c3a6d74404bcb1c352469bd36c5c, 14e74596a3bb0bdc62e0eda76ad03c5c20fbcf0f, 5d978e0d6083b1eaf0ebc0370f8c685f78febceb]","12","2","08db1844b4b08cfb453616b229a9486d84e0704e","f8795b24df69e2e0b287db659f684cbb5480e541","22c3b0adb5e4d4150f058238ad1f346721405688"
"https://github.com/opf/openproject-ce.git","4276","23","[5dfa7802b7cad6b5e6068eea917ea3724f70b16c, 1612c5f40ab6a74c40bd7d6678938e69bb020504, 4666d72e8b27f4b38d97f944e66f9e04995cb214, 7e74650e02c8b41bd57577d250bc4f7dd82c05b6, 911301eba7b91389347c8f2921a7d3327a5a617f, 984e06ea6b66cf5dfe1ac13d0e11475d44fc743f, 406d365546c85293136f0ad770057cae8523ca69, fbf5ead35174f965ff19dea50e6bdd3e9aeeb34f, 521545c309b592cfb5f02751a7e7141d4aebb691, ad350744e471a65035d508a08da28bba5e4100db, c715295dd47836696b5926d2655f786e730a1f8a, 394c0d08a35d44c53797dc336bfb1b3fd8aaf33d, b3d15949de9ad517cbb010cf5ebfb00f4a42ff78, 7b90b0fd705dfe530ce549f3abe773856e1ee102, 878a4558accc21d5004b7866d7ff9c3c9e4ccf06, ff37e615a37cc570bf8d7699be8cafa411239210, fd029efd060df7c04846674754ca2729f4f4584b, b63816f2b3e26543c0736496d39820717a2bcf0b, b4b37e840c463d9851c5979140206fd3c293bfd0, 8f1fed83fb95651181e74dec0cf6b8ab2fed6dbd, e6a0e696c6c1823f621a3e8ad4d5e0959a03fc06, e95fd2221887fbc8dd16e51b150a45fd33c7184a, 45e10276737129439416960b06c0c1e341e60c50]","15","6","5dfa7802b7cad6b5e6068eea917ea3724f70b16c","65d9d7814d2f8c4d99ff920b9381c547e9d3467d","4ba2bcb408daacd5cad8da4dff1175e612abcf8d"
"https://github.com/opf/openproject-ce.git","4299","2","[173c5e28955667e6c2daf9761bb9c3875d946415, 15428ea8279faa5fd1dd3b8f230bfc9dab6f5324]","1","2","173c5e28955667e6c2daf9761bb9c3875d946415","0a75cb8cf91b3200842ab5e54f9a7ce9954cdccc","ea1687f46f52d85fb5c56bb4da3775246ceafbd5"
"https://github.com/opf/openproject-ce.git","4357","3","[8e63b6f599b80f6400d0b2023fe514c1dcda9a4c, d8c322a61c6c94a546c786dd42c0f542b03dccf5, ca5cf383d423df3e1c0059c3043f3693011cd4cc]","316","4","8e63b6f599b80f6400d0b2023fe514c1dcda9a4c","3d3b4a18f76011d58fa6d6620d88a4c63a134cc1","5d0511647d63e8d1017f8b67d7e6bbefb7fe5d01"
"https://github.com/opf/openproject-ce.git","4373","7","[7a844aa9d5c2e18e3c737e83a3e85b348c87266b, 8e949cb4b049376fb095369eaeae05d76bd46d30, 71f4e56be55c0e94b19f623ebcc976721a087b38, 4a75c9ac47ca6497d4a3cbd4e5d0b3740aaf2403, 12993e484c8b77f0c78b1765c211ffd23d5bc5b6, 8d57e828a9db410691e2940b42c52c0ccf77371d, 38252505625aee37136e92e888684d5188ae2d7b]","29","1","7a844aa9d5c2e18e3c737e83a3e85b348c87266b","5d0511647d63e8d1017f8b67d7e6bbefb7fe5d01","69ea8ed25e99a063f87ab35692cecc1568b5af85"
"https://github.com/opf/openproject-ce.git","4374","2","[a5e625cb4a98caf7616042bb9dd708e137e1bd15, ec7f7d1b393acdbbdeb6d45072d405226278e557]","297","4","a5e625cb4a98caf7616042bb9dd708e137e1bd15","5d0511647d63e8d1017f8b67d7e6bbefb7fe5d01","12852133baa979f4a3542f298edb0b7abe0474f5"
