"Repository","https://github.com/sachac/quantified.git"
"Precision mean (RT)","0.21711372166666665"
"Precision median (RT)","0.2086956522"
"Precision standard deviation (RT)","0.12340461831744566"
"Recall mean (RT)","0.5660041306888889"
"Recall median (RT)","0.6111111111"
"Recall standard deviation (RT)","0.15922516196169118"
"F2 mean (RT)","0.40163484619125733"
"F2 median (RT)","0.4870129869999157"
"F2 standard deviation (RT)","0.16259526657600046"
"Correlation #Test-Precision","-0.82"
"Correlation #Test-Recall","0.11"
"Task","Dates","#Devs","#Commits","Hashes","#Gherkin_Tests","#Sted_defs","#TestI","#TaskI","TestI","TaskI","Precision","Recall","Rails","#visit_call","Lost_visit_call","#Views_TestI","#Code_View_Analysis","Code_View_Analysis","Methods_Unknown_Type","Renamed_Files","Deleted_Files","NotFound_Views","#NotFound_Views","Timestamp","Has_Merge","#FP","#FN","FP","FN","#Hits","Hits","f2"
"15","[27-10-2014]","1","2","[f40c7de8e7b42593fcfb5e70a0e4910ab3bb31bb, 3afdc6a63ce74a6ff00c9b981c632d1ea4d9057f]","13","32","78","19","[app/controllers/api/v1/records_controller.rb, app/controllers/clothing_logs_controller.rb, app/controllers/goals_controller.rb, app/controllers/grocery_list_items_controller.rb, app/controllers/grocery_lists_controller.rb, app/controllers/home_controller.rb, app/controllers/library_items_controller.rb, app/controllers/record_categories_controller.rb, app/controllers/records_controller.rb, app/controllers/time_controller.rb, app/controllers/timeline_events_controller.rb, app/controllers/toronto_libraries_controller.rb, app/models/clothing_log.rb, app/models/context.rb, app/models/goal.rb, app/models/grocery_list.rb, app/models/grocery_list_item.rb, app/models/library_item.rb, app/models/time_record.rb, app/models/timeline_event.rb, app/models/toronto_library.rb, app/models/user.rb, app/views/application/_quick_record.html.haml, app/views/clothing_logs/_by_date.html.haml, app/views/clothing_logs/by_date.html.haml, app/views/goals/_explain_goal.html.haml, app/views/goals/_form.html.haml, app/views/goals/_summary.html.haml, app/views/goals/index.html.haml, app/views/goals/new.html.haml, app/views/grocery_list_items/_form.html.haml, app/views/grocery_list_items/edit.html.haml, app/views/grocery_list_items/index.html.haml, app/views/grocery_list_items/new.html.haml, app/views/grocery_list_items/show.html.haml, app/views/grocery_lists/_form.html.haml, app/views/grocery_lists/edit.html.haml, app/views/grocery_lists/index.html.haml, app/views/grocery_lists/new.html.haml, app/views/grocery_lists/show.html.haml, app/views/home/index.html.haml, app/views/library_items/current.html.haml, app/views/record_categories/_activity_summary.html.haml, app/views/record_categories/_form.html.haml, app/views/record_categories/_list.html.haml, app/views/record_categories/disambiguate.html.haml, app/views/record_categories/edit.html.haml, app/views/record_categories/index.html.haml, app/views/record_categories/new.html.haml, app/views/record_categories/show.html.haml, app/views/record_categories/tree.html.haml, app/views/records/_summary.html.haml, app/views/records/index.html.haml, app/views/time/_activity_summary.html.haml, app/views/time/_activity_summary_daily.html.haml, app/views/time/_activity_summary_monthly.html.haml, app/views/time/_activity_summary_weekly.html.haml, app/views/time/_by_day_summary.html.haml, app/views/time/_nav.html.haml, app/views/time/_start_end_form.html.erb, app/views/time/circle.html.erb, app/views/time/clock.html.erb, app/views/time/dashboard.html.haml, app/views/time/graph.html.haml, app/views/time/index.html.haml, app/views/time/index_org.html.haml, app/views/time/refresh.html.haml, app/views/time/review.html.haml, app/views/timeline_events/_form.html.haml, app/views/timeline_events/edit.html.haml, app/views/timeline_events/index.html.haml, app/views/timeline_events/new.html.haml, app/views/timeline_events/show.html.haml, app/views/toronto_libraries/_form.html.haml, app/views/toronto_libraries/edit.html.haml, app/views/toronto_libraries/index.html.haml, app/views/toronto_libraries/new.html.haml, app/views/toronto_libraries/show.html.haml]","[app/controllers/grocery_list_items_controller.rb, app/controllers/grocery_lists_controller.rb, app/helpers/application_helper.rb, app/helpers/grocery_list_items_helper.rb, app/helpers/grocery_lists_helper.rb, app/models/ability.rb, app/models/grocery_list.rb, app/models/grocery_list_item.rb, app/models/user.rb, app/views/grocery_list_items/_form.html.haml, app/views/grocery_list_items/edit.html.haml, app/views/grocery_list_items/index.html.haml, app/views/grocery_list_items/new.html.haml, app/views/grocery_list_items/show.html.haml, app/views/grocery_lists/_form.html.haml, app/views/grocery_lists/edit.html.haml, app/views/grocery_lists/index.html.haml, app/views/grocery_lists/new.html.haml, app/views/grocery_lists/show.html.haml]","0.1923076923","0.7894736842","4.0.4","19","[]","56","68","[app/controllers/api/v1/records_controller.rb, app/controllers/clothing_logs_controller.rb, app/controllers/goals_controller.rb, app/controllers/grocery_list_items_controller.rb, app/controllers/grocery_lists_controller.rb, app/controllers/home_controller.rb, app/controllers/library_items_controller.rb, app/controllers/record_categories_controller.rb, app/controllers/records_controller.rb, app/controllers/time_controller.rb, app/controllers/timeline_events_controller.rb, app/controllers/toronto_libraries_controller.rb, app/views/application/_quick_record.html.haml, app/views/clothing_logs/_by_date.html.haml, app/views/clothing_logs/by_date.html.haml, app/views/goals/_explain_goal.html.haml, app/views/goals/_form.html.haml, app/views/goals/_summary.html.haml, app/views/goals/index.html.haml, app/views/goals/new.html.haml, app/views/grocery_list_items/_form.html.haml, app/views/grocery_list_items/edit.html.haml, app/views/grocery_list_items/index.html.haml, app/views/grocery_list_items/new.html.haml, app/views/grocery_list_items/show.html.haml, app/views/grocery_lists/_form.html.haml, app/views/grocery_lists/edit.html.haml, app/views/grocery_lists/index.html.haml, app/views/grocery_lists/new.html.haml, app/views/grocery_lists/show.html.haml, app/views/home/index.html.haml, app/views/library_items/current.html.haml, app/views/record_categories/_activity_summary.html.haml, app/views/record_categories/_form.html.haml, app/views/record_categories/_list.html.haml, app/views/record_categories/disambiguate.html.haml, app/views/record_categories/edit.html.haml, app/views/record_categories/index.html.haml, app/views/record_categories/new.html.haml, app/views/record_categories/show.html.haml, app/views/record_categories/tree.html.haml, app/views/records/_summary.html.haml, app/views/records/index.html.haml, app/views/time/_activity_summary.html.haml, app/views/time/_activity_summary_daily.html.haml, app/views/time/_activity_summary_monthly.html.haml, app/views/time/_activity_summary_weekly.html.haml, app/views/time/_by_day_summary.html.haml, app/views/time/_nav.html.haml, app/views/time/_start_end_form.html.erb, app/views/time/circle.html.erb, app/views/time/clock.html.erb, app/views/time/dashboard.html.haml, app/views/time/graph.html.haml, app/views/time/index.html.haml, app/views/time/index_org.html.haml, app/views/time/refresh.html.haml, app/views/time/review.html.haml, app/views/timeline_events/_form.html.haml, app/views/timeline_events/edit.html.haml, app/views/timeline_events/index.html.haml, app/views/timeline_events/new.html.haml, app/views/timeline_events/show.html.haml, app/views/toronto_libraries/_form.html.haml, app/views/toronto_libraries/edit.html.haml, app/views/toronto_libraries/index.html.haml, app/views/toronto_libraries/new.html.haml, app/views/toronto_libraries/show.html.haml]","[fill_in, click_button, find_by_name, find_by_name, page, id, find, text, eq, create, id, find, click, be_nil, to_not, have_no_selector, pending, pending, pending, hashes, find_by, nil?, create, each, body, date, quantity, unit_price, total, grocery_list, click_link, fill_in, click_button, within, page, body, include, have_content, delete, full_name, id, category_type, record_category, secondary_subject, save]","","[]","[app/views/clothing_logs/_clothing_log_entry.html.haml, app/views/home/_current_activity.html.haml, app/views/home/_quick_record.html.haml, app/views/record_categories/_filters.html.haml, app/views/record_categories/_quick_record.html.haml, app/views/records/_quick_record.html.haml, app/views/time/_activity_summary_.html.haml, app/views/time/_filters.html.haml, app/views/time/_hierarchical_graph.html.haml, clothing_index, stuff_index]","11","9.743 seconds","false","63","4","[app/controllers/api/v1/records_controller.rb, app/controllers/clothing_logs_controller.rb, app/controllers/goals_controller.rb, app/controllers/home_controller.rb, app/controllers/library_items_controller.rb, app/controllers/record_categories_controller.rb, app/controllers/records_controller.rb, app/controllers/time_controller.rb, app/controllers/timeline_events_controller.rb, app/controllers/toronto_libraries_controller.rb, app/models/clothing_log.rb, app/models/context.rb, app/models/goal.rb, app/models/library_item.rb, app/models/time_record.rb, app/models/timeline_event.rb, app/models/toronto_library.rb, app/views/application/_quick_record.html.haml, app/views/clothing_logs/_by_date.html.haml, app/views/clothing_logs/by_date.html.haml, app/views/goals/_explain_goal.html.haml, app/views/goals/_form.html.haml, app/views/goals/_summary.html.haml, app/views/goals/index.html.haml, app/views/goals/new.html.haml, app/views/home/index.html.haml, app/views/library_items/current.html.haml, app/views/record_categories/_activity_summary.html.haml, app/views/record_categories/_form.html.haml, app/views/record_categories/_list.html.haml, app/views/record_categories/disambiguate.html.haml, app/views/record_categories/edit.html.haml, app/views/record_categories/index.html.haml, app/views/record_categories/new.html.haml, app/views/record_categories/show.html.haml, app/views/record_categories/tree.html.haml, app/views/records/_summary.html.haml, app/views/records/index.html.haml, app/views/time/_activity_summary.html.haml, app/views/time/_activity_summary_daily.html.haml, app/views/time/_activity_summary_monthly.html.haml, app/views/time/_activity_summary_weekly.html.haml, app/views/time/_by_day_summary.html.haml, app/views/time/_nav.html.haml, app/views/time/_start_end_form.html.erb, app/views/time/circle.html.erb, app/views/time/clock.html.erb, app/views/time/dashboard.html.haml, app/views/time/graph.html.haml, app/views/time/index.html.haml, app/views/time/index_org.html.haml, app/views/time/refresh.html.haml, app/views/time/review.html.haml, app/views/timeline_events/_form.html.haml, app/views/timeline_events/edit.html.haml, app/views/timeline_events/index.html.haml, app/views/timeline_events/new.html.haml, app/views/timeline_events/show.html.haml, app/views/toronto_libraries/_form.html.haml, app/views/toronto_libraries/edit.html.haml, app/views/toronto_libraries/index.html.haml, app/views/toronto_libraries/new.html.haml, app/views/toronto_libraries/show.html.haml]","[app/helpers/application_helper.rb, app/helpers/grocery_list_items_helper.rb, app/helpers/grocery_lists_helper.rb, app/models/ability.rb]","15","[app/controllers/grocery_list_items_controller.rb, app/controllers/grocery_lists_controller.rb, app/models/grocery_list.rb, app/models/grocery_list_item.rb, app/models/user.rb, app/views/grocery_list_items/_form.html.haml, app/views/grocery_list_items/edit.html.haml, app/views/grocery_list_items/index.html.haml, app/views/grocery_list_items/new.html.haml, app/views/grocery_list_items/show.html.haml, app/views/grocery_lists/_form.html.haml, app/views/grocery_lists/edit.html.haml, app/views/grocery_lists/index.html.haml, app/views/grocery_lists/new.html.haml, app/views/grocery_lists/show.html.haml]","0.4870129869999157"
"28","[15-06-2013]","1","1","[ea4a4cec86d7ca2cd154b5ffc69f9e4f0f4e52ed]","12","46","91","6","[app/controllers/api/v1/records_controller.rb, app/controllers/clothing_controller.rb, app/controllers/clothing_logs_controller.rb, app/controllers/contexts_controller.rb, app/controllers/home_controller.rb, app/controllers/library_controller.rb, app/controllers/library_items_controller.rb, app/controllers/memories_controller.rb, app/controllers/record_categories_controller.rb, app/controllers/records_controller.rb, app/controllers/time_controller.rb, app/controllers/timeline_events_controller.rb, app/models/clothing.rb, app/models/clothing_log.rb, app/models/context.rb, app/models/library_item.rb, app/models/memory.rb, app/models/timeline_event.rb, app/models/user.rb, app/views/application/_quick_record.html.haml, app/views/clothing/_clothing_thumbnails.html.erb, app/views/clothing/_form.html.haml, app/views/clothing/_nav.html.haml, app/views/clothing/analyze.html.haml, app/views/clothing/bulk.html.haml, app/views/clothing/edit.html.haml, app/views/clothing/graph.html.erb, app/views/clothing/index.html.haml, app/views/clothing/missing_info.html.haml, app/views/clothing/missing_pictures.html.haml, app/views/clothing/new.html.haml, app/views/clothing/show.html.haml, app/views/clothing_logs/_by_date.html.haml, app/views/clothing_logs/_form.html.haml, app/views/clothing_logs/by_date.html.haml, app/views/clothing_logs/edit.html.haml, app/views/clothing_logs/index.html.haml, app/views/clothing_logs/new.html.haml, app/views/clothing_logs/show.html.haml, app/views/contexts/_form.html.haml, app/views/contexts/edit.html.haml, app/views/contexts/index.html.haml, app/views/contexts/new.html.haml, app/views/contexts/show.html.haml, app/views/devise/sessions/new.html.erb, app/views/devise/shared/_links.erb, app/views/goals/_summary.html.haml, app/views/home/index.html.haml, app/views/library_items/_form.html.haml, app/views/library_items/_nav.html.haml, app/views/library_items/current.html.haml, app/views/library_items/edit.html.haml, app/views/library_items/index.html.haml, app/views/library_items/new.html.haml, app/views/library_items/show.html.haml, app/views/memories/_form.html.haml, app/views/memories/edit.html.haml, app/views/memories/index.html.haml, app/views/memories/new.html.haml, app/views/memories/show.html.haml, app/views/record_categories/_activity_summary.html.haml, app/views/record_categories/_form.html.haml, app/views/record_categories/_list.html.haml, app/views/record_categories/disambiguate.html.haml, app/views/record_categories/edit.html.haml, app/views/record_categories/index.html.haml, app/views/record_categories/new.html.haml, app/views/record_categories/show.html.haml, app/views/record_categories/tree.html.haml, app/views/records/_summary.html.haml, app/views/records/index.html.haml, app/views/time/_activity_summary.html.haml, app/views/time/_activity_summary_daily.html.haml, app/views/time/_activity_summary_monthly.html.haml, app/views/time/_activity_summary_weekly.html.haml, app/views/time/_by_day_summary.html.haml, app/views/time/_nav.html.haml, app/views/time/_start_end_form.html.erb, app/views/time/circle.html.erb, app/views/time/clock.html.erb, app/views/time/dashboard.html.haml, app/views/time/graph.html.erb, app/views/time/index.html.haml, app/views/time/index_org.html.haml, app/views/time/refresh.html.haml, app/views/time/review.html.haml, app/views/timeline_events/_form.html.haml, app/views/timeline_events/edit.html.haml, app/views/timeline_events/index.html.haml, app/views/timeline_events/new.html.haml, app/views/timeline_events/show.html.haml]","[app/controllers/application_controller.rb, app/controllers/home_controller.rb, app/models/clothing_match.rb, app/models/goal.rb, app/models/record_category.rb, app/views/clothing/show.html.haml]","0.021978022","0.3333333333","3.2.13","21","[{path=sachac_quantified/features/step_definitions/user_steps.rb, line=-1}]","72","84","[app/controllers/api/v1/records_controller.rb, app/controllers/clothing_controller.rb, app/controllers/clothing_logs_controller.rb, app/controllers/contexts_controller.rb, app/controllers/home_controller.rb, app/controllers/library_controller.rb, app/controllers/library_items_controller.rb, app/controllers/memories_controller.rb, app/controllers/record_categories_controller.rb, app/controllers/records_controller.rb, app/controllers/time_controller.rb, app/controllers/timeline_events_controller.rb, app/views/application/_quick_record.html.haml, app/views/clothing/_clothing_thumbnails.html.erb, app/views/clothing/_form.html.haml, app/views/clothing/_nav.html.haml, app/views/clothing/analyze.html.haml, app/views/clothing/bulk.html.haml, app/views/clothing/edit.html.haml, app/views/clothing/graph.html.erb, app/views/clothing/index.html.haml, app/views/clothing/missing_info.html.haml, app/views/clothing/missing_pictures.html.haml, app/views/clothing/new.html.haml, app/views/clothing/show.html.haml, app/views/clothing_logs/_by_date.html.haml, app/views/clothing_logs/_form.html.haml, app/views/clothing_logs/by_date.html.haml, app/views/clothing_logs/edit.html.haml, app/views/clothing_logs/index.html.haml, app/views/clothing_logs/new.html.haml, app/views/clothing_logs/show.html.haml, app/views/contexts/_form.html.haml, app/views/contexts/edit.html.haml, app/views/contexts/index.html.haml, app/views/contexts/new.html.haml, app/views/contexts/show.html.haml, app/views/devise/sessions/new.html.erb, app/views/devise/shared/_links.erb, app/views/goals/_summary.html.haml, app/views/home/index.html.haml, app/views/library_items/_form.html.haml, app/views/library_items/_nav.html.haml, app/views/library_items/current.html.haml, app/views/library_items/edit.html.haml, app/views/library_items/index.html.haml, app/views/library_items/new.html.haml, app/views/library_items/show.html.haml, app/views/memories/_form.html.haml, app/views/memories/edit.html.haml, app/views/memories/index.html.haml, app/views/memories/new.html.haml, app/views/memories/show.html.haml, app/views/record_categories/_activity_summary.html.haml, app/views/record_categories/_form.html.haml, app/views/record_categories/_list.html.haml, app/views/record_categories/disambiguate.html.haml, app/views/record_categories/edit.html.haml, app/views/record_categories/index.html.haml, app/views/record_categories/new.html.haml, app/views/record_categories/show.html.haml, app/views/record_categories/tree.html.haml, app/views/records/_summary.html.haml, app/views/records/index.html.haml, app/views/time/_activity_summary.html.haml, app/views/time/_activity_summary_daily.html.haml, app/views/time/_activity_summary_monthly.html.haml, app/views/time/_activity_summary_weekly.html.haml, app/views/time/_by_day_summary.html.haml, app/views/time/_nav.html.haml, app/views/time/_start_end_form.html.erb, app/views/time/circle.html.erb, app/views/time/clock.html.erb, app/views/time/dashboard.html.haml, app/views/time/graph.html.erb, app/views/time/index.html.haml, app/views/time/index_org.html.haml, app/views/time/refresh.html.haml, app/views/time/review.html.haml, app/views/timeline_events/_form.html.haml, app/views/timeline_events/edit.html.haml, app/views/timeline_events/index.html.haml, app/views/timeline_events/new.html.haml, app/views/timeline_events/show.html.haml]","[click_link, page, have_content, host!, body, include, click_link, fill_in, click_button, page, body, include, hashes, blank?, save, each, click_button, root_url, fill_in, hashes, choose, each, user, username, within, select, within, sign in, secondary_subject, full_name, id, category_type, save, btn btn-primary, record_category, save!, raw, each, id, find, have_selector, user_id, status, tag_list, date, clothing, clothing_id, raw, each_with_index]","","[app/models/time_tracker_log.rb, app/models/wp_blog_comment.rb, app/models/wp_blog_post.rb]","[app/views/clothing/_clothing_log_entry.html.haml, app/views/clothing_logs/_clothing_log_entry.html.haml, app/views/clothing_logs/_filters.html.haml, app/views/home/_current_activity.html.haml, app/views/home/_quick_record.html.haml, app/views/record_categories/_filters.html.haml, app/views/record_categories/_quick_record.html.haml, app/views/records/_quick_record.html.haml, app/views/time/_activity_summary_.html.haml, app/views/time/_filters.html.erb, app/views/time/_filters.html.haml, clothing_index, new_confirmation, new_password, new_registration, new_session, new_unlock, omniauth_authorize, stuff_index]","19","20.434 seconds","false","89","4","[app/controllers/api/v1/records_controller.rb, app/controllers/clothing_controller.rb, app/controllers/clothing_logs_controller.rb, app/controllers/contexts_controller.rb, app/controllers/library_controller.rb, app/controllers/library_items_controller.rb, app/controllers/memories_controller.rb, app/controllers/record_categories_controller.rb, app/controllers/records_controller.rb, app/controllers/time_controller.rb, app/controllers/timeline_events_controller.rb, app/models/clothing.rb, app/models/clothing_log.rb, app/models/context.rb, app/models/library_item.rb, app/models/memory.rb, app/models/timeline_event.rb, app/models/user.rb, app/views/application/_quick_record.html.haml, app/views/clothing/_clothing_thumbnails.html.erb, app/views/clothing/_form.html.haml, app/views/clothing/_nav.html.haml, app/views/clothing/analyze.html.haml, app/views/clothing/bulk.html.haml, app/views/clothing/edit.html.haml, app/views/clothing/graph.html.erb, app/views/clothing/index.html.haml, app/views/clothing/missing_info.html.haml, app/views/clothing/missing_pictures.html.haml, app/views/clothing/new.html.haml, app/views/clothing_logs/_by_date.html.haml, app/views/clothing_logs/_form.html.haml, app/views/clothing_logs/by_date.html.haml, app/views/clothing_logs/edit.html.haml, app/views/clothing_logs/index.html.haml, app/views/clothing_logs/new.html.haml, app/views/clothing_logs/show.html.haml, app/views/contexts/_form.html.haml, app/views/contexts/edit.html.haml, app/views/contexts/index.html.haml, app/views/contexts/new.html.haml, app/views/contexts/show.html.haml, app/views/devise/sessions/new.html.erb, app/views/devise/shared/_links.erb, app/views/goals/_summary.html.haml, app/views/home/index.html.haml, app/views/library_items/_form.html.haml, app/views/library_items/_nav.html.haml, app/views/library_items/current.html.haml, app/views/library_items/edit.html.haml, app/views/library_items/index.html.haml, app/views/library_items/new.html.haml, app/views/library_items/show.html.haml, app/views/memories/_form.html.haml, app/views/memories/edit.html.haml, app/views/memories/index.html.haml, app/views/memories/new.html.haml, app/views/memories/show.html.haml, app/views/record_categories/_activity_summary.html.haml, app/views/record_categories/_form.html.haml, app/views/record_categories/_list.html.haml, app/views/record_categories/disambiguate.html.haml, app/views/record_categories/edit.html.haml, app/views/record_categories/index.html.haml, app/views/record_categories/new.html.haml, app/views/record_categories/show.html.haml, app/views/record_categories/tree.html.haml, app/views/records/_summary.html.haml, app/views/records/index.html.haml, app/views/time/_activity_summary.html.haml, app/views/time/_activity_summary_daily.html.haml, app/views/time/_activity_summary_monthly.html.haml, app/views/time/_activity_summary_weekly.html.haml, app/views/time/_by_day_summary.html.haml, app/views/time/_nav.html.haml, app/views/time/_start_end_form.html.erb, app/views/time/circle.html.erb, app/views/time/clock.html.erb, app/views/time/dashboard.html.haml, app/views/time/graph.html.erb, app/views/time/index.html.haml, app/views/time/index_org.html.haml, app/views/time/refresh.html.haml, app/views/time/review.html.haml, app/views/timeline_events/_form.html.haml, app/views/timeline_events/edit.html.haml, app/views/timeline_events/index.html.haml, app/views/timeline_events/new.html.haml, app/views/timeline_events/show.html.haml]","[app/controllers/application_controller.rb, app/models/clothing_match.rb, app/models/goal.rb, app/models/record_category.rb]","2","[app/controllers/home_controller.rb, app/views/clothing/show.html.haml]","0.08695652180612476"
"13","[03-11-2014, 07-11-2014, 11-11-2014, 25-11-2014, 26-11-2014]","1","11","[396be37e55d8c2e71f3157dd6702a5194fba0773, 511d17eb9f4668d1951335d79691464238161cc2, 6a83d14160b3612f6ff94dbb023de934e3ec4654, 0dbb05c913020b0d0b9b1994fa566ecae610f63a, a7f9d0e662b5013f9228b52c2dd84b4f686382cb, 7b1b3727c70a049d2733c24d2abfee586a41f86e, 13bcb1e8e241b7d1cda3b669120e524f668e2b44, ac99a0ae50033ea684da5fc309a4d5d86d75e2fb, 80cac7566ac0a84a3500c6744768f1f1dcfce793, 2667e5f748dfca4baf5a35e79a0388a4028ddf5c, feab3582a4f72dbbe3a0c884b844a89cb69b5c93]","8","20","82","14","[app/controllers/api/v1/records_controller.rb, app/controllers/clothing_logs_controller.rb, app/controllers/goals_controller.rb, app/controllers/grocery_list_items_controller.rb, app/controllers/grocery_lists_controller.rb, app/controllers/home_controller.rb, app/controllers/library_items_controller.rb, app/controllers/record_categories_controller.rb, app/controllers/records_controller.rb, app/controllers/time_controller.rb, app/controllers/timeline_events_controller.rb, app/controllers/toronto_libraries_controller.rb, app/models/clothing_log.rb, app/models/context.rb, app/models/context_rule.rb, app/models/csa_food.rb, app/models/goal.rb, app/models/grocery_list.rb, app/models/grocery_list_item.rb, app/models/grocery_list_user.rb, app/models/library_item.rb, app/models/location_history.rb, app/models/stuff.rb, app/models/timeline_event.rb, app/models/toronto_library.rb, app/models/user.rb, app/views/application/_quick_record.html.haml, app/views/clothing_logs/_by_date.html.haml, app/views/clothing_logs/by_date.html.haml, app/views/goals/_explain_goal.html.haml, app/views/goals/_form.html.haml, app/views/goals/_summary.html.haml, app/views/goals/index.html.haml, app/views/goals/new.html.haml, app/views/grocery_list_items/_form.html.haml, app/views/grocery_list_items/edit.html.haml, app/views/grocery_list_items/index.html.haml, app/views/grocery_list_items/new.html.haml, app/views/grocery_list_items/show.html.haml, app/views/grocery_lists/_form.html.haml, app/views/grocery_lists/edit.html.haml, app/views/grocery_lists/index.html.haml, app/views/grocery_lists/new.html.haml, app/views/grocery_lists/show.html.haml, app/views/home/index.html.haml, app/views/library_items/current.html.haml, app/views/record_categories/_activity_summary.html.haml, app/views/record_categories/_form.html.haml, app/views/record_categories/_list.html.haml, app/views/record_categories/disambiguate.html.haml, app/views/record_categories/edit.html.haml, app/views/record_categories/index.html.haml, app/views/record_categories/new.html.haml, app/views/record_categories/show.html.haml, app/views/record_categories/tree.html.haml, app/views/records/_summary.html.haml, app/views/records/index.html.haml, app/views/time/_activity_summary.html.haml, app/views/time/_activity_summary_daily.html.haml, app/views/time/_activity_summary_monthly.html.haml, app/views/time/_activity_summary_weekly.html.haml, app/views/time/_by_day_summary.html.haml, app/views/time/_nav.html.haml, app/views/time/_start_end_form.html.erb, app/views/time/circle.html.erb, app/views/time/clock.html.erb, app/views/time/dashboard.html.haml, app/views/time/graph.html.haml, app/views/time/index.html.haml, app/views/time/index_org.html.haml, app/views/time/refresh.html.haml, app/views/time/review.html.haml, app/views/timeline_events/_form.html.haml, app/views/timeline_events/edit.html.haml, app/views/timeline_events/index.html.haml, app/views/timeline_events/new.html.haml, app/views/timeline_events/show.html.haml, app/views/toronto_libraries/_form.html.haml, app/views/toronto_libraries/edit.html.haml, app/views/toronto_libraries/index.html.haml, app/views/toronto_libraries/new.html.haml, app/views/toronto_libraries/show.html.haml]","[app/controllers/application_controller.rb, app/controllers/grocery_list_items_controller.rb, app/controllers/grocery_lists_controller.rb, app/controllers/record_categories_controller.rb, app/controllers/records_controller.rb, app/helpers/application_helper.rb, app/models/ability.rb, app/models/grocery_list.rb, app/models/grocery_list_user.rb, app/views/grocery_lists/_form.html.haml, app/views/grocery_lists/index.html.haml, app/views/grocery_lists/show.html.haml, app/views/record_categories/_form.html.haml, app/views/records/_form.html.haml]","0.1219512195","0.7142857143","4.1","21","[{path=sachac_quantified/features/step_definitions/kitchen_steps.rb, line=-1}]","56","68","[app/controllers/api/v1/records_controller.rb, app/controllers/clothing_logs_controller.rb, app/controllers/goals_controller.rb, app/controllers/grocery_list_items_controller.rb, app/controllers/grocery_lists_controller.rb, app/controllers/home_controller.rb, app/controllers/library_items_controller.rb, app/controllers/record_categories_controller.rb, app/controllers/records_controller.rb, app/controllers/time_controller.rb, app/controllers/timeline_events_controller.rb, app/controllers/toronto_libraries_controller.rb, app/views/application/_quick_record.html.haml, app/views/clothing_logs/_by_date.html.haml, app/views/clothing_logs/by_date.html.haml, app/views/goals/_explain_goal.html.haml, app/views/goals/_form.html.haml, app/views/goals/_summary.html.haml, app/views/goals/index.html.haml, app/views/goals/new.html.haml, app/views/grocery_list_items/_form.html.haml, app/views/grocery_list_items/edit.html.haml, app/views/grocery_list_items/index.html.haml, app/views/grocery_list_items/new.html.haml, app/views/grocery_list_items/show.html.haml, app/views/grocery_lists/_form.html.haml, app/views/grocery_lists/edit.html.haml, app/views/grocery_lists/index.html.haml, app/views/grocery_lists/new.html.haml, app/views/grocery_lists/show.html.haml, app/views/home/index.html.haml, app/views/library_items/current.html.haml, app/views/record_categories/_activity_summary.html.haml, app/views/record_categories/_form.html.haml, app/views/record_categories/_list.html.haml, app/views/record_categories/disambiguate.html.haml, app/views/record_categories/edit.html.haml, app/views/record_categories/index.html.haml, app/views/record_categories/new.html.haml, app/views/record_categories/show.html.haml, app/views/record_categories/tree.html.haml, app/views/records/_summary.html.haml, app/views/records/index.html.haml, app/views/time/_activity_summary.html.haml, app/views/time/_activity_summary_daily.html.haml, app/views/time/_activity_summary_monthly.html.haml, app/views/time/_activity_summary_weekly.html.haml, app/views/time/_by_day_summary.html.haml, app/views/time/_nav.html.haml, app/views/time/_start_end_form.html.erb, app/views/time/circle.html.erb, app/views/time/clock.html.erb, app/views/time/dashboard.html.haml, app/views/time/graph.html.haml, app/views/time/index.html.haml, app/views/time/index_org.html.haml, app/views/time/refresh.html.haml, app/views/time/review.html.haml, app/views/timeline_events/_form.html.haml, app/views/timeline_events/edit.html.haml, app/views/timeline_events/index.html.haml, app/views/timeline_events/new.html.haml, app/views/timeline_events/show.html.haml, app/views/toronto_libraries/_form.html.haml, app/views/toronto_libraries/edit.html.haml, app/views/toronto_libraries/index.html.haml, app/views/toronto_libraries/new.html.haml, app/views/toronto_libraries/show.html.haml]","[fill_in, click_button, find_by_name, page, body, each, be_truthy, include, create, find_by_name, save!, find_by_name, save!, eq, save!, hashes, each, click_link, to_not, invitation_token, be_nil, to_not, reload, email, password, within, page, body, include, create, fill_in, click_button, create, id, count, eq, page, id, find, click, count, date, quantity, unit_price, total, grocery_list, click_link, fill_in, click_button, within, body, include, have_content, delete, full_name, id, category_type, record_category, secondary_subject, save, choose, select]","","[]","[app/views/clothing_logs/_clothing_log_entry.html.haml, app/views/home/_current_activity.html.haml, app/views/home/_quick_record.html.haml, app/views/record_categories/_filters.html.haml, app/views/record_categories/_quick_record.html.haml, app/views/records/_quick_record.html.haml, app/views/time/_activity_summary_.html.haml, app/views/time/_filters.html.haml, app/views/time/_hierarchical_graph.html.haml, clothing_index, stuff_index]","11","18.754 seconds","false","72","4","[app/controllers/api/v1/records_controller.rb, app/controllers/clothing_logs_controller.rb, app/controllers/goals_controller.rb, app/controllers/home_controller.rb, app/controllers/library_items_controller.rb, app/controllers/time_controller.rb, app/controllers/timeline_events_controller.rb, app/controllers/toronto_libraries_controller.rb, app/models/clothing_log.rb, app/models/context.rb, app/models/context_rule.rb, app/models/csa_food.rb, app/models/goal.rb, app/models/grocery_list_item.rb, app/models/library_item.rb, app/models/location_history.rb, app/models/stuff.rb, app/models/timeline_event.rb, app/models/toronto_library.rb, app/models/user.rb, app/views/application/_quick_record.html.haml, app/views/clothing_logs/_by_date.html.haml, app/views/clothing_logs/by_date.html.haml, app/views/goals/_explain_goal.html.haml, app/views/goals/_form.html.haml, app/views/goals/_summary.html.haml, app/views/goals/index.html.haml, app/views/goals/new.html.haml, app/views/grocery_list_items/_form.html.haml, app/views/grocery_list_items/edit.html.haml, app/views/grocery_list_items/index.html.haml, app/views/grocery_list_items/new.html.haml, app/views/grocery_list_items/show.html.haml, app/views/grocery_lists/edit.html.haml, app/views/grocery_lists/new.html.haml, app/views/home/index.html.haml, app/views/library_items/current.html.haml, app/views/record_categories/_activity_summary.html.haml, app/views/record_categories/_list.html.haml, app/views/record_categories/disambiguate.html.haml, app/views/record_categories/edit.html.haml, app/views/record_categories/index.html.haml, app/views/record_categories/new.html.haml, app/views/record_categories/show.html.haml, app/views/record_categories/tree.html.haml, app/views/records/_summary.html.haml, app/views/records/index.html.haml, app/views/time/_activity_summary.html.haml, app/views/time/_activity_summary_daily.html.haml, app/views/time/_activity_summary_monthly.html.haml, app/views/time/_activity_summary_weekly.html.haml, app/views/time/_by_day_summary.html.haml, app/views/time/_nav.html.haml, app/views/time/_start_end_form.html.erb, app/views/time/circle.html.erb, app/views/time/clock.html.erb, app/views/time/dashboard.html.haml, app/views/time/graph.html.haml, app/views/time/index.html.haml, app/views/time/index_org.html.haml, app/views/time/refresh.html.haml, app/views/time/review.html.haml, app/views/timeline_events/_form.html.haml, app/views/timeline_events/edit.html.haml, app/views/timeline_events/index.html.haml, app/views/timeline_events/new.html.haml, app/views/timeline_events/show.html.haml, app/views/toronto_libraries/_form.html.haml, app/views/toronto_libraries/edit.html.haml, app/views/toronto_libraries/index.html.haml, app/views/toronto_libraries/new.html.haml, app/views/toronto_libraries/show.html.haml]","[app/controllers/application_controller.rb, app/helpers/application_helper.rb, app/models/ability.rb, app/views/records/_form.html.haml]","10","[app/controllers/grocery_list_items_controller.rb, app/controllers/grocery_lists_controller.rb, app/controllers/record_categories_controller.rb, app/controllers/records_controller.rb, app/models/grocery_list.rb, app/models/grocery_list_user.rb, app/views/grocery_lists/_form.html.haml, app/views/grocery_lists/index.html.haml, app/views/grocery_lists/show.html.haml, app/views/record_categories/_form.html.haml]","0.3623188405611216"
"27","[23-06-2013, 24-06-2013, 26-06-2013, 27-06-2013]","1","10","[b41a854b373e4fa07a29d348c8e421aacbd5d56d, 52944e358013afc1b68d60c471b73209ee206b00, 037f7eddff3a7b54b5b64cf8ca60e69752b79f7c, 36c1d014ad3b7b0c72091dbed3becf0ca163cc9b, bea087569d81ace6f09f625b4376ee4fd3a48b73, 29064b2e6b2a2296d6a7abc06c39e6eb38180bfa, 209276ed6a59ace2770c8ccaaacf1f25bd6a780b, 6c699f3eafba69be4f8c99b0d001f9d4c084a223, 9fd5ca22cff51971969e429b2afb6d486ce02ee0, d06c7a4a567381388f8836f7a7a2edb568d93850]","4","47","115","48","[app/controllers/api/offline/v1/offline_controller.rb, app/controllers/api/v1/records_controller.rb, app/controllers/clothing_controller.rb, app/controllers/clothing_logs_controller.rb, app/controllers/decision_logs_controller.rb, app/controllers/decisions_controller.rb, app/controllers/home_controller.rb, app/controllers/library_items_controller.rb, app/controllers/measurement_logs_controller.rb, app/controllers/measurements_controller.rb, app/controllers/record_categories_controller.rb, app/controllers/records_controller.rb, app/controllers/time_controller.rb, app/controllers/timeline_events_controller.rb, app/controllers/toronto_libraries_controller.rb, app/controllers/users_controller.rb, app/mailers/application_mailer.rb, app/models/clothing.rb, app/models/clothing_log.rb, app/models/context.rb, app/models/decision.rb, app/models/library_item.rb, app/models/measurement.rb, app/models/measurement_log.rb, app/models/tap_log_record.rb, app/models/timeline_event.rb, app/models/toronto_library.rb, app/models/user.rb, app/views/api/offline/v1/offline/track.html.haml, app/views/application/_quick_record.html.haml, app/views/clothing/analyze.html.haml, app/views/clothing/graph.html.erb, app/views/clothing_logs/_by_date.html.haml, app/views/clothing_logs/_form.html.haml, app/views/clothing_logs/by_date.html.haml, app/views/clothing_logs/edit.html.haml, app/views/clothing_logs/index.html.haml, app/views/clothing_logs/new.html.haml, app/views/clothing_logs/show.html.haml, app/views/decision_logs/_form.html.haml, app/views/decision_logs/edit.html.haml, app/views/decision_logs/index.html.haml, app/views/decision_logs/new.html.haml, app/views/decision_logs/show.html.haml, app/views/decisions/_form.html.haml, app/views/decisions/edit.html.haml, app/views/decisions/index.html.haml, app/views/decisions/new.html.haml, app/views/decisions/show.html.haml, app/views/devise/sessions/new.html.erb, app/views/devise/shared/_links.erb, app/views/goals/_summary.html.haml, app/views/home/feedback.html.haml, app/views/home/index.html.haml, app/views/home/menu.html.haml, app/views/home/mobile_index.html.haml, app/views/home/show.html.haml, app/views/home/summary.html.haml, app/views/home/thanks_for_signing_up.html.haml, app/views/library_items/_form.html.haml, app/views/library_items/current.html.haml, app/views/library_items/edit.html.haml, app/views/library_items/index.html.haml, app/views/library_items/show.html.haml, app/views/measurement_logs/_form.html.haml, app/views/measurement_logs/edit.html.haml, app/views/measurement_logs/index.html.haml, app/views/measurement_logs/new.html.haml, app/views/measurement_logs/show.html.haml, app/views/measurements/_form.html.haml, app/views/measurements/edit.html.haml, app/views/measurements/index.html.haml, app/views/measurements/new.html.haml, app/views/measurements/show.html.haml, app/views/record_categories/_activity_summary.html.haml, app/views/record_categories/_form.html.haml, app/views/record_categories/_list.html.haml, app/views/record_categories/disambiguate.html.haml, app/views/record_categories/edit.html.haml, app/views/record_categories/index.html.haml, app/views/record_categories/new.html.haml, app/views/record_categories/show.html.haml, app/views/record_categories/tree.html.haml, app/views/records/_summary.html.haml, app/views/records/index.html.haml, app/views/time/_activity_summary.html.haml, app/views/time/_activity_summary_daily.html.haml, app/views/time/_activity_summary_monthly.html.haml, app/views/time/_activity_summary_weekly.html.haml, app/views/time/_by_day_summary.html.haml, app/views/time/_nav.html.haml, app/views/time/_start_end_form.html.erb, app/views/time/circle.html.erb, app/views/time/clock.html.erb, app/views/time/dashboard.html.haml, app/views/time/graph.html.erb, app/views/time/index.html.haml, app/views/time/index_org.html.haml, app/views/time/refresh.html.haml, app/views/time/review.html.haml, app/views/timeline_events/_form.html.haml, app/views/timeline_events/edit.html.haml, app/views/timeline_events/index.html.haml, app/views/timeline_events/new.html.haml, app/views/timeline_events/show.html.haml, app/views/toronto_libraries/_form.html.haml, app/views/toronto_libraries/edit.html.haml, app/views/toronto_libraries/index.html.haml, app/views/toronto_libraries/new.html.haml, app/views/toronto_libraries/show.html.haml, app/views/users/_form.html.haml, app/views/users/edit.html.haml, app/views/users/index.html.haml, app/views/users/new.html.haml, app/views/users/show.html.haml]","[app/controllers/admin_controller.rb, app/controllers/api/offline/v1/offline_controller.rb, app/controllers/api/v1/records_controller.rb, app/controllers/api/v1/tokens_controller.rb, app/controllers/application_controller.rb, app/controllers/clothing_controller.rb, app/controllers/clothing_logs_controller.rb, app/controllers/contexts_controller.rb, app/controllers/csa_foods_controller.rb, app/controllers/decision_logs_controller.rb, app/controllers/decisions_controller.rb, app/controllers/foods_controller.rb, app/controllers/goals_controller.rb, app/controllers/home_controller.rb, app/controllers/library_items_controller.rb, app/controllers/location_histories_controller.rb, app/controllers/measurement_logs_controller.rb, app/controllers/measurements_controller.rb, app/controllers/memories_controller.rb, app/controllers/record_categories_controller.rb, app/controllers/records_controller.rb, app/controllers/registrations_controller.rb, app/controllers/services_controller.rb, app/controllers/sessions_controller.rb, app/controllers/stuff_controller.rb, app/controllers/tap_log_records_controller.rb, app/controllers/time_controller.rb, app/controllers/timeline_events_controller.rb, app/controllers/toronto_libraries_controller.rb, app/controllers/users_controller.rb, app/helpers/application_helper.rb, app/helpers/stuff_helper.rb, app/mailers/application_mailer.rb, app/models/ability.rb, app/models/clothing.rb, app/models/clothing_match.rb, app/models/csa_food.rb, app/models/measurement_log.rb, app/models/record.rb, app/models/tap_log_record.rb, app/models/toronto_library.rb, app/views/admin/index.html.haml, app/views/clothing/_nav.html.haml, app/views/clothing/analyze.html.haml, app/views/clothing/graph.html.erb, app/views/goals/index.html.haml, app/views/home/feedback.html.haml, app/views/location_histories/index.html.haml]","0.2086956522","0.5","3.2.13","7","[]","87","103","[app/controllers/api/offline/v1/offline_controller.rb, app/controllers/api/v1/records_controller.rb, app/controllers/clothing_controller.rb, app/controllers/clothing_logs_controller.rb, app/controllers/decision_logs_controller.rb, app/controllers/decisions_controller.rb, app/controllers/home_controller.rb, app/controllers/library_items_controller.rb, app/controllers/measurement_logs_controller.rb, app/controllers/measurements_controller.rb, app/controllers/record_categories_controller.rb, app/controllers/records_controller.rb, app/controllers/time_controller.rb, app/controllers/timeline_events_controller.rb, app/controllers/toronto_libraries_controller.rb, app/controllers/users_controller.rb, app/views/api/offline/v1/offline/track.html.haml, app/views/application/_quick_record.html.haml, app/views/clothing/analyze.html.haml, app/views/clothing/graph.html.erb, app/views/clothing_logs/_by_date.html.haml, app/views/clothing_logs/_form.html.haml, app/views/clothing_logs/by_date.html.haml, app/views/clothing_logs/edit.html.haml, app/views/clothing_logs/index.html.haml, app/views/clothing_logs/new.html.haml, app/views/clothing_logs/show.html.haml, app/views/decision_logs/_form.html.haml, app/views/decision_logs/edit.html.haml, app/views/decision_logs/index.html.haml, app/views/decision_logs/new.html.haml, app/views/decision_logs/show.html.haml, app/views/decisions/_form.html.haml, app/views/decisions/edit.html.haml, app/views/decisions/index.html.haml, app/views/decisions/new.html.haml, app/views/decisions/show.html.haml, app/views/devise/sessions/new.html.erb, app/views/devise/shared/_links.erb, app/views/goals/_summary.html.haml, app/views/home/feedback.html.haml, app/views/home/index.html.haml, app/views/home/menu.html.haml, app/views/home/mobile_index.html.haml, app/views/home/show.html.haml, app/views/home/summary.html.haml, app/views/home/thanks_for_signing_up.html.haml, app/views/library_items/_form.html.haml, app/views/library_items/current.html.haml, app/views/library_items/edit.html.haml, app/views/library_items/index.html.haml, app/views/library_items/show.html.haml, app/views/measurement_logs/_form.html.haml, app/views/measurement_logs/edit.html.haml, app/views/measurement_logs/index.html.haml, app/views/measurement_logs/new.html.haml, app/views/measurement_logs/show.html.haml, app/views/measurements/_form.html.haml, app/views/measurements/edit.html.haml, app/views/measurements/index.html.haml, app/views/measurements/new.html.haml, app/views/measurements/show.html.haml, app/views/record_categories/_activity_summary.html.haml, app/views/record_categories/_form.html.haml, app/views/record_categories/_list.html.haml, app/views/record_categories/disambiguate.html.haml, app/views/record_categories/edit.html.haml, app/views/record_categories/index.html.haml, app/views/record_categories/new.html.haml, app/views/record_categories/show.html.haml, app/views/record_categories/tree.html.haml, app/views/records/_summary.html.haml, app/views/records/index.html.haml, app/views/time/_activity_summary.html.haml, app/views/time/_activity_summary_daily.html.haml, app/views/time/_activity_summary_monthly.html.haml, app/views/time/_activity_summary_weekly.html.haml, app/views/time/_by_day_summary.html.haml, app/views/time/_nav.html.haml, app/views/time/_start_end_form.html.erb, app/views/time/circle.html.erb, app/views/time/clock.html.erb, app/views/time/dashboard.html.haml, app/views/time/graph.html.erb, app/views/time/index.html.haml, app/views/time/index_org.html.haml, app/views/time/refresh.html.haml, app/views/time/review.html.haml, app/views/timeline_events/_form.html.haml, app/views/timeline_events/edit.html.haml, app/views/timeline_events/index.html.haml, app/views/timeline_events/new.html.haml, app/views/timeline_events/show.html.haml, app/views/toronto_libraries/_form.html.haml, app/views/toronto_libraries/edit.html.haml, app/views/toronto_libraries/index.html.haml, app/views/toronto_libraries/new.html.haml, app/views/toronto_libraries/show.html.haml, app/views/users/_form.html.haml, app/views/users/edit.html.haml, app/views/users/index.html.haml, app/views/users/new.html.haml, app/views/users/show.html.haml]","[hashes, create, each, page, id, find, text, body, click_link, fill_in, click_button, page, body, include, have_content, fill_in, click_button, create, email, unread_emails_for, subject, select, date, clothing, clothing_id, delete, sign in, save, full_name, id, category_type, btn btn-primary, record_category, secondary_subject, reset_mailer, parse_email_count, mailbox_for, open_email, open_email, current_email, have_subject, default_part_body, include, be_delivered_from, have_header, be_multipart, html_part, text_part, current_email_attachments, to_i, content_type, each, visit_in_email, click_first_link_in_email]","","[app/controllers/days_controller.rb, app/controllers/library_controller.rb, app/controllers/locations_controller.rb, app/helpers/timeline_events_helper.rb, app/models/location.rb, app/views/days/_form.html.haml, app/views/days/edit.html.haml, app/views/days/index.html.haml, app/views/days/new.html.haml, app/views/days/show.html.haml, app/views/location_histories/_form.html.haml, app/views/location_histories/edit.html.haml, app/views/location_histories/new.html.haml, app/views/locations/_form.html.haml, app/views/locations/edit.html.haml, app/views/locations/index.html.haml, app/views/locations/new.html.haml, app/views/locations/show.html.haml]","[app/views/clothing_logs/_clothing_log_entry.html.haml, app/views/clothing_logs/_filters.html.haml, app/views/home/_current_activity.html.haml, app/views/home/_quick_record.html.haml, app/views/home/_sidebar.html.haml, app/views/measurement_logs/_measurement.html.haml, app/views/record_categories/_filters.html.haml, app/views/record_categories/_quick_record.html.haml, app/views/records/_quick_record.html.haml, app/views/time/_activity_summary_.html.haml, app/views/time/_filters.html.erb, app/views/time/_filters.html.haml, clothing_index, new_confirmation, new_password, new_registration, new_session, new_unlock, omniauth_authorize, stuff_index]","20","47.917 seconds","false","91","24","[app/models/clothing_log.rb, app/models/context.rb, app/models/decision.rb, app/models/library_item.rb, app/models/measurement.rb, app/models/timeline_event.rb, app/models/user.rb, app/views/api/offline/v1/offline/track.html.haml, app/views/application/_quick_record.html.haml, app/views/clothing_logs/_by_date.html.haml, app/views/clothing_logs/_form.html.haml, app/views/clothing_logs/by_date.html.haml, app/views/clothing_logs/edit.html.haml, app/views/clothing_logs/index.html.haml, app/views/clothing_logs/new.html.haml, app/views/clothing_logs/show.html.haml, app/views/decision_logs/_form.html.haml, app/views/decision_logs/edit.html.haml, app/views/decision_logs/index.html.haml, app/views/decision_logs/new.html.haml, app/views/decision_logs/show.html.haml, app/views/decisions/_form.html.haml, app/views/decisions/edit.html.haml, app/views/decisions/index.html.haml, app/views/decisions/new.html.haml, app/views/decisions/show.html.haml, app/views/devise/sessions/new.html.erb, app/views/devise/shared/_links.erb, app/views/goals/_summary.html.haml, app/views/home/index.html.haml, app/views/home/menu.html.haml, app/views/home/mobile_index.html.haml, app/views/home/show.html.haml, app/views/home/summary.html.haml, app/views/home/thanks_for_signing_up.html.haml, app/views/library_items/_form.html.haml, app/views/library_items/current.html.haml, app/views/library_items/edit.html.haml, app/views/library_items/index.html.haml, app/views/library_items/show.html.haml, app/views/measurement_logs/_form.html.haml, app/views/measurement_logs/edit.html.haml, app/views/measurement_logs/index.html.haml, app/views/measurement_logs/new.html.haml, app/views/measurement_logs/show.html.haml, app/views/measurements/_form.html.haml, app/views/measurements/edit.html.haml, app/views/measurements/index.html.haml, app/views/measurements/new.html.haml, app/views/measurements/show.html.haml, app/views/record_categories/_activity_summary.html.haml, app/views/record_categories/_form.html.haml, app/views/record_categories/_list.html.haml, app/views/record_categories/disambiguate.html.haml, app/views/record_categories/edit.html.haml, app/views/record_categories/index.html.haml, app/views/record_categories/new.html.haml, app/views/record_categories/show.html.haml, app/views/record_categories/tree.html.haml, app/views/records/_summary.html.haml, app/views/records/index.html.haml, app/views/time/_activity_summary.html.haml, app/views/time/_activity_summary_daily.html.haml, app/views/time/_activity_summary_monthly.html.haml, app/views/time/_activity_summary_weekly.html.haml, app/views/time/_by_day_summary.html.haml, app/views/time/_nav.html.haml, app/views/time/_start_end_form.html.erb, app/views/time/circle.html.erb, app/views/time/clock.html.erb, app/views/time/dashboard.html.haml, app/views/time/graph.html.erb, app/views/time/index.html.haml, app/views/time/index_org.html.haml, app/views/time/refresh.html.haml, app/views/time/review.html.haml, app/views/timeline_events/_form.html.haml, app/views/timeline_events/edit.html.haml, app/views/timeline_events/index.html.haml, app/views/timeline_events/new.html.haml, app/views/timeline_events/show.html.haml, app/views/toronto_libraries/_form.html.haml, app/views/toronto_libraries/edit.html.haml, app/views/toronto_libraries/index.html.haml, app/views/toronto_libraries/new.html.haml, app/views/toronto_libraries/show.html.haml, app/views/users/_form.html.haml, app/views/users/edit.html.haml, app/views/users/index.html.haml, app/views/users/new.html.haml, app/views/users/show.html.haml]","[app/controllers/admin_controller.rb, app/controllers/api/v1/tokens_controller.rb, app/controllers/application_controller.rb, app/controllers/contexts_controller.rb, app/controllers/csa_foods_controller.rb, app/controllers/foods_controller.rb, app/controllers/goals_controller.rb, app/controllers/location_histories_controller.rb, app/controllers/memories_controller.rb, app/controllers/registrations_controller.rb, app/controllers/services_controller.rb, app/controllers/sessions_controller.rb, app/controllers/stuff_controller.rb, app/controllers/tap_log_records_controller.rb, app/helpers/application_helper.rb, app/helpers/stuff_helper.rb, app/models/ability.rb, app/models/clothing_match.rb, app/models/csa_food.rb, app/models/record.rb, app/views/admin/index.html.haml, app/views/clothing/_nav.html.haml, app/views/goals/index.html.haml, app/views/location_histories/index.html.haml]","24","[app/controllers/api/offline/v1/offline_controller.rb, app/controllers/api/v1/records_controller.rb, app/controllers/clothing_controller.rb, app/controllers/clothing_logs_controller.rb, app/controllers/decision_logs_controller.rb, app/controllers/decisions_controller.rb, app/controllers/home_controller.rb, app/controllers/library_items_controller.rb, app/controllers/measurement_logs_controller.rb, app/controllers/measurements_controller.rb, app/controllers/record_categories_controller.rb, app/controllers/records_controller.rb, app/controllers/time_controller.rb, app/controllers/timeline_events_controller.rb, app/controllers/toronto_libraries_controller.rb, app/controllers/users_controller.rb, app/mailers/application_mailer.rb, app/models/clothing.rb, app/models/measurement_log.rb, app/models/tap_log_record.rb, app/models/toronto_library.rb, app/views/clothing/analyze.html.haml, app/views/clothing/graph.html.erb, app/views/home/feedback.html.haml]","0.3908794788456642"
"19","[05-05-2014, 07-05-2014]","1","2","[7411ca5a9d4bd7e6c0618c20a0219006a2f821bb, d7e310f4668f73a880a67de30bd6f4d1064eb3e3]","3","6","66","16","[app/controllers/api/v1/records_controller.rb, app/controllers/clothing_controller.rb, app/controllers/clothing_logs_controller.rb, app/controllers/goals_controller.rb, app/controllers/home_controller.rb, app/controllers/library_items_controller.rb, app/controllers/record_categories_controller.rb, app/controllers/records_controller.rb, app/controllers/time_controller.rb, app/controllers/timeline_events_controller.rb, app/controllers/toronto_libraries_controller.rb, app/models/clothing.rb, app/models/clothing_log.rb, app/models/context.rb, app/models/goal.rb, app/models/library_item.rb, app/models/timeline_event.rb, app/models/toronto_library.rb, app/models/user.rb, app/views/application/_quick_record.html.haml, app/views/clothing/analyze.html.haml, app/views/clothing_logs/_by_date.html.haml, app/views/clothing_logs/by_date.html.haml, app/views/goals/_explain_goal.html.haml, app/views/goals/_form.html.haml, app/views/goals/_summary.html.haml, app/views/goals/index.html.haml, app/views/goals/new.html.haml, app/views/home/index.html.haml, app/views/library_items/current.html.haml, app/views/record_categories/_activity_summary.html.haml, app/views/record_categories/_form.html.haml, app/views/record_categories/_list.html.haml, app/views/record_categories/disambiguate.html.haml, app/views/record_categories/edit.html.haml, app/views/record_categories/index.html.haml, app/views/record_categories/new.html.haml, app/views/record_categories/show.html.haml, app/views/record_categories/tree.html.haml, app/views/records/_summary.html.haml, app/views/records/index.html.haml, app/views/time/_activity_summary.html.haml, app/views/time/_activity_summary_daily.html.haml, app/views/time/_activity_summary_monthly.html.haml, app/views/time/_activity_summary_weekly.html.haml, app/views/time/_by_day_summary.html.haml, app/views/time/_nav.html.haml, app/views/time/_start_end_form.html.erb, app/views/time/circle.html.erb, app/views/time/clock.html.erb, app/views/time/dashboard.html.haml, app/views/time/graph.html.haml, app/views/time/index.html.haml, app/views/time/index_org.html.haml, app/views/time/refresh.html.haml, app/views/time/review.html.haml, app/views/timeline_events/_form.html.haml, app/views/timeline_events/edit.html.haml, app/views/timeline_events/index.html.haml, app/views/timeline_events/new.html.haml, app/views/timeline_events/show.html.haml, app/views/toronto_libraries/_form.html.haml, app/views/toronto_libraries/edit.html.haml, app/views/toronto_libraries/index.html.haml, app/views/toronto_libraries/new.html.haml, app/views/toronto_libraries/show.html.haml]","[app/controllers/receipt_item_types_controller.rb, app/controllers/receipt_items_controller.rb, app/controllers/record_categories_controller.rb, app/controllers/stuff_controller.rb, app/helpers/application_helper.rb, app/helpers/pagination_list_link_renderer.rb, app/models/user.rb, app/views/clothing_logs/index.html.haml, app/views/clothing_logs/matches.html.haml, app/views/library_items/index.html.haml, app/views/location_histories/index.html.haml, app/views/receipt_items/index.html.haml, app/views/record_categories/show.html.haml, app/views/records/index.html.haml, app/views/tap_log_records/index.html.haml, app/views/timeline_events/index.html.haml]","0.0757575758","0.3125","3.2.13","7","[]","47","58","[app/controllers/api/v1/records_controller.rb, app/controllers/clothing_controller.rb, app/controllers/clothing_logs_controller.rb, app/controllers/goals_controller.rb, app/controllers/home_controller.rb, app/controllers/library_items_controller.rb, app/controllers/record_categories_controller.rb, app/controllers/records_controller.rb, app/controllers/time_controller.rb, app/controllers/timeline_events_controller.rb, app/controllers/toronto_libraries_controller.rb, app/views/application/_quick_record.html.haml, app/views/clothing/analyze.html.haml, app/views/clothing_logs/_by_date.html.haml, app/views/clothing_logs/by_date.html.haml, app/views/goals/_explain_goal.html.haml, app/views/goals/_form.html.haml, app/views/goals/_summary.html.haml, app/views/goals/index.html.haml, app/views/goals/new.html.haml, app/views/home/index.html.haml, app/views/library_items/current.html.haml, app/views/record_categories/_activity_summary.html.haml, app/views/record_categories/_form.html.haml, app/views/record_categories/_list.html.haml, app/views/record_categories/disambiguate.html.haml, app/views/record_categories/edit.html.haml, app/views/record_categories/index.html.haml, app/views/record_categories/new.html.haml, app/views/record_categories/show.html.haml, app/views/record_categories/tree.html.haml, app/views/records/_summary.html.haml, app/views/records/index.html.haml, app/views/time/_activity_summary.html.haml, app/views/time/_activity_summary_daily.html.haml, app/views/time/_activity_summary_monthly.html.haml, app/views/time/_activity_summary_weekly.html.haml, app/views/time/_by_day_summary.html.haml, app/views/time/_nav.html.haml, app/views/time/_start_end_form.html.erb, app/views/time/circle.html.erb, app/views/time/clock.html.erb, app/views/time/dashboard.html.haml, app/views/time/graph.html.haml, app/views/time/index.html.haml, app/views/time/index_org.html.haml, app/views/time/refresh.html.haml, app/views/time/review.html.haml, app/views/timeline_events/_form.html.haml, app/views/timeline_events/edit.html.haml, app/views/timeline_events/index.html.haml, app/views/timeline_events/new.html.haml, app/views/timeline_events/show.html.haml, app/views/toronto_libraries/_form.html.haml, app/views/toronto_libraries/edit.html.haml, app/views/toronto_libraries/index.html.haml, app/views/toronto_libraries/new.html.haml, app/views/toronto_libraries/show.html.haml]","[hashes, create, each, page, id, find, text, page, id, find, text, click_link, fill_in, click_button, page, body, include, delete, save, full_name, id, category_type, btn btn-primary, record_category, secondary_subject]","","[]","[app/views/clothing_logs/_clothing_log_entry.html.haml, app/views/home/_current_activity.html.haml, app/views/home/_quick_record.html.haml, app/views/record_categories/_filters.html.haml, app/views/record_categories/_quick_record.html.haml, app/views/records/_quick_record.html.haml, app/views/time/_activity_summary_.html.haml, app/views/time/_filters.html.haml, app/views/time/_hierarchical_graph.html.haml, clothing_index, stuff_index]","11","5.763 seconds","false","61","11","[app/controllers/api/v1/records_controller.rb, app/controllers/clothing_controller.rb, app/controllers/clothing_logs_controller.rb, app/controllers/goals_controller.rb, app/controllers/home_controller.rb, app/controllers/library_items_controller.rb, app/controllers/records_controller.rb, app/controllers/time_controller.rb, app/controllers/timeline_events_controller.rb, app/controllers/toronto_libraries_controller.rb, app/models/clothing.rb, app/models/clothing_log.rb, app/models/context.rb, app/models/goal.rb, app/models/library_item.rb, app/models/timeline_event.rb, app/models/toronto_library.rb, app/views/application/_quick_record.html.haml, app/views/clothing/analyze.html.haml, app/views/clothing_logs/_by_date.html.haml, app/views/clothing_logs/by_date.html.haml, app/views/goals/_explain_goal.html.haml, app/views/goals/_form.html.haml, app/views/goals/_summary.html.haml, app/views/goals/index.html.haml, app/views/goals/new.html.haml, app/views/home/index.html.haml, app/views/library_items/current.html.haml, app/views/record_categories/_activity_summary.html.haml, app/views/record_categories/_form.html.haml, app/views/record_categories/_list.html.haml, app/views/record_categories/disambiguate.html.haml, app/views/record_categories/edit.html.haml, app/views/record_categories/index.html.haml, app/views/record_categories/new.html.haml, app/views/record_categories/tree.html.haml, app/views/records/_summary.html.haml, app/views/time/_activity_summary.html.haml, app/views/time/_activity_summary_daily.html.haml, app/views/time/_activity_summary_monthly.html.haml, app/views/time/_activity_summary_weekly.html.haml, app/views/time/_by_day_summary.html.haml, app/views/time/_nav.html.haml, app/views/time/_start_end_form.html.erb, app/views/time/circle.html.erb, app/views/time/clock.html.erb, app/views/time/dashboard.html.haml, app/views/time/graph.html.haml, app/views/time/index.html.haml, app/views/time/index_org.html.haml, app/views/time/refresh.html.haml, app/views/time/review.html.haml, app/views/timeline_events/_form.html.haml, app/views/timeline_events/edit.html.haml, app/views/timeline_events/new.html.haml, app/views/timeline_events/show.html.haml, app/views/toronto_libraries/_form.html.haml, app/views/toronto_libraries/edit.html.haml, app/views/toronto_libraries/index.html.haml, app/views/toronto_libraries/new.html.haml, app/views/toronto_libraries/show.html.haml]","[app/controllers/receipt_item_types_controller.rb, app/controllers/receipt_items_controller.rb, app/controllers/stuff_controller.rb, app/helpers/application_helper.rb, app/helpers/pagination_list_link_renderer.rb, app/views/clothing_logs/index.html.haml, app/views/clothing_logs/matches.html.haml, app/views/library_items/index.html.haml, app/views/location_histories/index.html.haml, app/views/receipt_items/index.html.haml, app/views/tap_log_records/index.html.haml]","5","[app/controllers/record_categories_controller.rb, app/models/user.rb, app/views/record_categories/show.html.haml, app/views/records/index.html.haml, app/views/timeline_events/index.html.haml]","0.19230769236236683"
"192","[10-11-2011, 13-11-2011]","1","2","[95502619539ece2da6c8e9ed34afe81b2102be21, b517ba6de003dbee698dd9287bc5e8892ca462c8]","1","13","33","18","[app/controllers/clothing_logs_controller.rb, app/controllers/contexts_controller.rb, app/controllers/csa_foods_controller.rb, app/controllers/home_controller.rb, app/controllers/library_controller.rb, app/controllers/library_items_controller.rb, app/models/clothing_log.rb, app/models/context.rb, app/models/csa_food.rb, app/models/library_item.rb, app/models/stuff.rb, app/models/user.rb, app/views/clothing_logs/_by_date.html.haml, app/views/clothing_logs/by_date.html.haml, app/views/contexts/_form.html.haml, app/views/contexts/edit.html.haml, app/views/contexts/index.html.haml, app/views/contexts/new.html.haml, app/views/contexts/show.html.haml, app/views/contexts/start.html.haml, app/views/csa_foods/_form.html.haml, app/views/csa_foods/edit.html.haml, app/views/csa_foods/index.html.haml, app/views/csa_foods/new.html.haml, app/views/csa_foods/show.html.haml, app/views/home/index.html.haml, app/views/library_items/_form.html.haml, app/views/library_items/current.html.haml, app/views/library_items/edit.html.haml, app/views/library_items/index.html.haml, app/views/library_items/new.html.haml, app/views/library_items/show.html.haml, app/views/partials/_clothing_log_entry.html.haml]","[app/controllers/application_controller.rb, app/controllers/contexts_controller.rb, app/helpers/application_helper.rb, app/helpers/contexts_helper.rb, app/helpers/library_helper.rb, app/models/ability.rb, app/models/context.rb, app/models/library_item.rb, app/models/user.rb, app/views/contexts/_form.html.haml, app/views/contexts/edit.html.haml, app/views/contexts/index.html.haml, app/views/contexts/new.html.haml, app/views/contexts/show.html.haml, app/views/contexts/start.html.haml, app/views/home/index.html.haml, app/views/layouts/application.html.haml, app/views/partials/_sidebar.html.haml]","0.3333333333","0.6111111111","3.0.10","4","[]","21","27","[app/controllers/clothing_logs_controller.rb, app/controllers/contexts_controller.rb, app/controllers/csa_foods_controller.rb, app/controllers/home_controller.rb, app/controllers/library_controller.rb, app/controllers/library_items_controller.rb, app/views/clothing_logs/_by_date.html.haml, app/views/clothing_logs/by_date.html.haml, app/views/contexts/_form.html.haml, app/views/contexts/edit.html.haml, app/views/contexts/index.html.haml, app/views/contexts/new.html.haml, app/views/contexts/show.html.haml, app/views/contexts/start.html.haml, app/views/csa_foods/_form.html.haml, app/views/csa_foods/edit.html.haml, app/views/csa_foods/index.html.haml, app/views/csa_foods/new.html.haml, app/views/csa_foods/show.html.haml, app/views/home/index.html.haml, app/views/library_items/_form.html.haml, app/views/library_items/current.html.haml, app/views/library_items/edit.html.haml, app/views/library_items/index.html.haml, app/views/library_items/new.html.haml, app/views/library_items/show.html.haml, app/views/partials/_clothing_log_entry.html.haml]","[raw, fill_in, click_button, hashes, page, body, id, have_selector, each, find_by_name, id, click_link, within, raw, include, Factory, host!, fill_in, click_button, page, body, include, hashes, blank?, save, each, save]","","[app/views/home/_sidebar.html.haml]","[app/views/csa_foods/_food.html.haml, complete_context, stuff_index]","3","5.514 seconds","false","22","7","[app/controllers/clothing_logs_controller.rb, app/controllers/csa_foods_controller.rb, app/controllers/home_controller.rb, app/controllers/library_controller.rb, app/controllers/library_items_controller.rb, app/models/clothing_log.rb, app/models/csa_food.rb, app/models/stuff.rb, app/views/clothing_logs/_by_date.html.haml, app/views/clothing_logs/by_date.html.haml, app/views/csa_foods/_form.html.haml, app/views/csa_foods/edit.html.haml, app/views/csa_foods/index.html.haml, app/views/csa_foods/new.html.haml, app/views/csa_foods/show.html.haml, app/views/library_items/_form.html.haml, app/views/library_items/current.html.haml, app/views/library_items/edit.html.haml, app/views/library_items/index.html.haml, app/views/library_items/new.html.haml, app/views/library_items/show.html.haml, app/views/partials/_clothing_log_entry.html.haml]","[app/controllers/application_controller.rb, app/helpers/application_helper.rb, app/helpers/contexts_helper.rb, app/helpers/library_helper.rb, app/models/ability.rb, app/views/layouts/application.html.haml, app/views/partials/_sidebar.html.haml]","11","[app/controllers/contexts_controller.rb, app/models/context.rb, app/models/library_item.rb, app/models/user.rb, app/views/contexts/_form.html.haml, app/views/contexts/edit.html.haml, app/views/contexts/index.html.haml, app/views/contexts/new.html.haml, app/views/contexts/show.html.haml, app/views/contexts/start.html.haml, app/views/home/index.html.haml]","0.5238095237865307"
"194","[10-11-2011, 13-11-2011]","1","2","[0302a13f48be059424a3c9b83b4d84c6bf585fba, 7c46101de450de4e5df56813dbdeed667c9ecdad]","1","13","33","18","[app/controllers/clothing_logs_controller.rb, app/controllers/contexts_controller.rb, app/controllers/csa_foods_controller.rb, app/controllers/home_controller.rb, app/controllers/library_controller.rb, app/controllers/library_items_controller.rb, app/models/clothing_log.rb, app/models/context.rb, app/models/csa_food.rb, app/models/library_item.rb, app/models/stuff.rb, app/models/user.rb, app/views/clothing_logs/_by_date.html.haml, app/views/clothing_logs/by_date.html.haml, app/views/contexts/_form.html.haml, app/views/contexts/edit.html.haml, app/views/contexts/index.html.haml, app/views/contexts/new.html.haml, app/views/contexts/show.html.haml, app/views/contexts/start.html.haml, app/views/csa_foods/_form.html.haml, app/views/csa_foods/edit.html.haml, app/views/csa_foods/index.html.haml, app/views/csa_foods/new.html.haml, app/views/csa_foods/show.html.haml, app/views/home/index.html.haml, app/views/library_items/_form.html.haml, app/views/library_items/current.html.haml, app/views/library_items/edit.html.haml, app/views/library_items/index.html.haml, app/views/library_items/new.html.haml, app/views/library_items/show.html.haml, app/views/partials/_clothing_log_entry.html.haml]","[app/controllers/application_controller.rb, app/controllers/contexts_controller.rb, app/helpers/application_helper.rb, app/helpers/contexts_helper.rb, app/helpers/library_helper.rb, app/models/ability.rb, app/models/context.rb, app/models/library_item.rb, app/models/user.rb, app/views/contexts/_form.html.haml, app/views/contexts/edit.html.haml, app/views/contexts/index.html.haml, app/views/contexts/new.html.haml, app/views/contexts/show.html.haml, app/views/contexts/start.html.haml, app/views/home/index.html.haml, app/views/layouts/application.html.haml, app/views/partials/_sidebar.html.haml]","0.3333333333","0.6111111111","3.0.10","4","[]","21","27","[app/controllers/clothing_logs_controller.rb, app/controllers/contexts_controller.rb, app/controllers/csa_foods_controller.rb, app/controllers/home_controller.rb, app/controllers/library_controller.rb, app/controllers/library_items_controller.rb, app/views/clothing_logs/_by_date.html.haml, app/views/clothing_logs/by_date.html.haml, app/views/contexts/_form.html.haml, app/views/contexts/edit.html.haml, app/views/contexts/index.html.haml, app/views/contexts/new.html.haml, app/views/contexts/show.html.haml, app/views/contexts/start.html.haml, app/views/csa_foods/_form.html.haml, app/views/csa_foods/edit.html.haml, app/views/csa_foods/index.html.haml, app/views/csa_foods/new.html.haml, app/views/csa_foods/show.html.haml, app/views/home/index.html.haml, app/views/library_items/_form.html.haml, app/views/library_items/current.html.haml, app/views/library_items/edit.html.haml, app/views/library_items/index.html.haml, app/views/library_items/new.html.haml, app/views/library_items/show.html.haml, app/views/partials/_clothing_log_entry.html.haml]","[raw, fill_in, click_button, hashes, page, body, id, have_selector, each, find_by_name, id, click_link, within, raw, include, Factory, host!, fill_in, click_button, page, body, include, hashes, blank?, save, each, save]","","[app/views/home/_sidebar.html.haml]","[app/views/csa_foods/_food.html.haml, complete_context, stuff_index]","3","1.977 seconds","false","22","7","[app/controllers/clothing_logs_controller.rb, app/controllers/csa_foods_controller.rb, app/controllers/home_controller.rb, app/controllers/library_controller.rb, app/controllers/library_items_controller.rb, app/models/clothing_log.rb, app/models/csa_food.rb, app/models/stuff.rb, app/views/clothing_logs/_by_date.html.haml, app/views/clothing_logs/by_date.html.haml, app/views/csa_foods/_form.html.haml, app/views/csa_foods/edit.html.haml, app/views/csa_foods/index.html.haml, app/views/csa_foods/new.html.haml, app/views/csa_foods/show.html.haml, app/views/library_items/_form.html.haml, app/views/library_items/current.html.haml, app/views/library_items/edit.html.haml, app/views/library_items/index.html.haml, app/views/library_items/new.html.haml, app/views/library_items/show.html.haml, app/views/partials/_clothing_log_entry.html.haml]","[app/controllers/application_controller.rb, app/helpers/application_helper.rb, app/helpers/contexts_helper.rb, app/helpers/library_helper.rb, app/models/ability.rb, app/views/layouts/application.html.haml, app/views/partials/_sidebar.html.haml]","11","[app/controllers/contexts_controller.rb, app/models/context.rb, app/models/library_item.rb, app/models/user.rb, app/views/contexts/_form.html.haml, app/views/contexts/edit.html.haml, app/views/contexts/index.html.haml, app/views/contexts/new.html.haml, app/views/contexts/show.html.haml, app/views/contexts/start.html.haml, app/views/home/index.html.haml]","0.5238095237865307"
"196","[10-11-2011, 13-11-2011]","1","2","[0d9eeab92783da1d09a8020bc19737ffb04c995a, 5730becd0ba01f6a994716fadcf890147e593e9d]","1","13","33","18","[app/controllers/clothing_logs_controller.rb, app/controllers/contexts_controller.rb, app/controllers/csa_foods_controller.rb, app/controllers/home_controller.rb, app/controllers/library_controller.rb, app/controllers/library_items_controller.rb, app/models/clothing_log.rb, app/models/context.rb, app/models/csa_food.rb, app/models/library_item.rb, app/models/stuff.rb, app/models/user.rb, app/views/clothing_logs/_by_date.html.haml, app/views/clothing_logs/by_date.html.haml, app/views/contexts/_form.html.haml, app/views/contexts/edit.html.haml, app/views/contexts/index.html.haml, app/views/contexts/new.html.haml, app/views/contexts/show.html.haml, app/views/contexts/start.html.haml, app/views/csa_foods/_form.html.haml, app/views/csa_foods/edit.html.haml, app/views/csa_foods/index.html.haml, app/views/csa_foods/new.html.haml, app/views/csa_foods/show.html.haml, app/views/home/index.html.haml, app/views/library_items/_form.html.haml, app/views/library_items/current.html.haml, app/views/library_items/edit.html.haml, app/views/library_items/index.html.haml, app/views/library_items/new.html.haml, app/views/library_items/show.html.haml, app/views/partials/_clothing_log_entry.html.haml]","[app/controllers/application_controller.rb, app/controllers/contexts_controller.rb, app/helpers/application_helper.rb, app/helpers/contexts_helper.rb, app/helpers/library_helper.rb, app/models/ability.rb, app/models/context.rb, app/models/library_item.rb, app/models/user.rb, app/views/contexts/_form.html.haml, app/views/contexts/edit.html.haml, app/views/contexts/index.html.haml, app/views/contexts/new.html.haml, app/views/contexts/show.html.haml, app/views/contexts/start.html.haml, app/views/home/index.html.haml, app/views/layouts/application.html.haml, app/views/partials/_sidebar.html.haml]","0.3333333333","0.6111111111","3.0.10","4","[]","21","27","[app/controllers/clothing_logs_controller.rb, app/controllers/contexts_controller.rb, app/controllers/csa_foods_controller.rb, app/controllers/home_controller.rb, app/controllers/library_controller.rb, app/controllers/library_items_controller.rb, app/views/clothing_logs/_by_date.html.haml, app/views/clothing_logs/by_date.html.haml, app/views/contexts/_form.html.haml, app/views/contexts/edit.html.haml, app/views/contexts/index.html.haml, app/views/contexts/new.html.haml, app/views/contexts/show.html.haml, app/views/contexts/start.html.haml, app/views/csa_foods/_form.html.haml, app/views/csa_foods/edit.html.haml, app/views/csa_foods/index.html.haml, app/views/csa_foods/new.html.haml, app/views/csa_foods/show.html.haml, app/views/home/index.html.haml, app/views/library_items/_form.html.haml, app/views/library_items/current.html.haml, app/views/library_items/edit.html.haml, app/views/library_items/index.html.haml, app/views/library_items/new.html.haml, app/views/library_items/show.html.haml, app/views/partials/_clothing_log_entry.html.haml]","[raw, fill_in, click_button, hashes, page, body, id, have_selector, each, find_by_name, id, click_link, within, raw, include, Factory, host!, fill_in, click_button, page, body, include, hashes, blank?, save, each, save]","","[app/views/home/_sidebar.html.haml]","[app/views/csa_foods/_food.html.haml, complete_context, stuff_index]","3","2.940 seconds","false","22","7","[app/controllers/clothing_logs_controller.rb, app/controllers/csa_foods_controller.rb, app/controllers/home_controller.rb, app/controllers/library_controller.rb, app/controllers/library_items_controller.rb, app/models/clothing_log.rb, app/models/csa_food.rb, app/models/stuff.rb, app/views/clothing_logs/_by_date.html.haml, app/views/clothing_logs/by_date.html.haml, app/views/csa_foods/_form.html.haml, app/views/csa_foods/edit.html.haml, app/views/csa_foods/index.html.haml, app/views/csa_foods/new.html.haml, app/views/csa_foods/show.html.haml, app/views/library_items/_form.html.haml, app/views/library_items/current.html.haml, app/views/library_items/edit.html.haml, app/views/library_items/index.html.haml, app/views/library_items/new.html.haml, app/views/library_items/show.html.haml, app/views/partials/_clothing_log_entry.html.haml]","[app/controllers/application_controller.rb, app/helpers/application_helper.rb, app/helpers/contexts_helper.rb, app/helpers/library_helper.rb, app/models/ability.rb, app/views/layouts/application.html.haml, app/views/partials/_sidebar.html.haml]","11","[app/controllers/contexts_controller.rb, app/models/context.rb, app/models/library_item.rb, app/models/user.rb, app/views/contexts/_form.html.haml, app/views/contexts/edit.html.haml, app/views/contexts/index.html.haml, app/views/contexts/new.html.haml, app/views/contexts/show.html.haml, app/views/contexts/start.html.haml, app/views/home/index.html.haml]","0.5238095237865307"
"198","[10-11-2011, 13-11-2011]","1","2","[5e3e3d8de45c97117104e0c22a821f25d34d3c58, dfad48c64c9fb74b8e18f3b8fb4fb8749b85fcf8]","1","13","33","18","[app/controllers/clothing_logs_controller.rb, app/controllers/contexts_controller.rb, app/controllers/csa_foods_controller.rb, app/controllers/home_controller.rb, app/controllers/library_controller.rb, app/controllers/library_items_controller.rb, app/models/clothing_log.rb, app/models/context.rb, app/models/csa_food.rb, app/models/library_item.rb, app/models/stuff.rb, app/models/user.rb, app/views/clothing_logs/_by_date.html.haml, app/views/clothing_logs/by_date.html.haml, app/views/contexts/_form.html.haml, app/views/contexts/edit.html.haml, app/views/contexts/index.html.haml, app/views/contexts/new.html.haml, app/views/contexts/show.html.haml, app/views/contexts/start.html.haml, app/views/csa_foods/_form.html.haml, app/views/csa_foods/edit.html.haml, app/views/csa_foods/index.html.haml, app/views/csa_foods/new.html.haml, app/views/csa_foods/show.html.haml, app/views/home/index.html.haml, app/views/library_items/_form.html.haml, app/views/library_items/current.html.haml, app/views/library_items/edit.html.haml, app/views/library_items/index.html.haml, app/views/library_items/new.html.haml, app/views/library_items/show.html.haml, app/views/partials/_clothing_log_entry.html.haml]","[app/controllers/application_controller.rb, app/controllers/contexts_controller.rb, app/helpers/application_helper.rb, app/helpers/contexts_helper.rb, app/helpers/library_helper.rb, app/models/ability.rb, app/models/context.rb, app/models/library_item.rb, app/models/user.rb, app/views/contexts/_form.html.haml, app/views/contexts/edit.html.haml, app/views/contexts/index.html.haml, app/views/contexts/new.html.haml, app/views/contexts/show.html.haml, app/views/contexts/start.html.haml, app/views/home/index.html.haml, app/views/layouts/application.html.haml, app/views/partials/_sidebar.html.haml]","0.3333333333","0.6111111111","3.0.10","4","[]","21","27","[app/controllers/clothing_logs_controller.rb, app/controllers/contexts_controller.rb, app/controllers/csa_foods_controller.rb, app/controllers/home_controller.rb, app/controllers/library_controller.rb, app/controllers/library_items_controller.rb, app/views/clothing_logs/_by_date.html.haml, app/views/clothing_logs/by_date.html.haml, app/views/contexts/_form.html.haml, app/views/contexts/edit.html.haml, app/views/contexts/index.html.haml, app/views/contexts/new.html.haml, app/views/contexts/show.html.haml, app/views/contexts/start.html.haml, app/views/csa_foods/_form.html.haml, app/views/csa_foods/edit.html.haml, app/views/csa_foods/index.html.haml, app/views/csa_foods/new.html.haml, app/views/csa_foods/show.html.haml, app/views/home/index.html.haml, app/views/library_items/_form.html.haml, app/views/library_items/current.html.haml, app/views/library_items/edit.html.haml, app/views/library_items/index.html.haml, app/views/library_items/new.html.haml, app/views/library_items/show.html.haml, app/views/partials/_clothing_log_entry.html.haml]","[raw, fill_in, click_button, hashes, page, body, id, have_selector, each, find_by_name, id, click_link, within, raw, include, Factory, host!, fill_in, click_button, page, body, include, hashes, blank?, save, each, save]","","[app/views/home/_sidebar.html.haml]","[app/views/csa_foods/_food.html.haml, complete_context, stuff_index]","3","3.793 seconds","false","22","7","[app/controllers/clothing_logs_controller.rb, app/controllers/csa_foods_controller.rb, app/controllers/home_controller.rb, app/controllers/library_controller.rb, app/controllers/library_items_controller.rb, app/models/clothing_log.rb, app/models/csa_food.rb, app/models/stuff.rb, app/views/clothing_logs/_by_date.html.haml, app/views/clothing_logs/by_date.html.haml, app/views/csa_foods/_form.html.haml, app/views/csa_foods/edit.html.haml, app/views/csa_foods/index.html.haml, app/views/csa_foods/new.html.haml, app/views/csa_foods/show.html.haml, app/views/library_items/_form.html.haml, app/views/library_items/current.html.haml, app/views/library_items/edit.html.haml, app/views/library_items/index.html.haml, app/views/library_items/new.html.haml, app/views/library_items/show.html.haml, app/views/partials/_clothing_log_entry.html.haml]","[app/controllers/application_controller.rb, app/helpers/application_helper.rb, app/helpers/contexts_helper.rb, app/helpers/library_helper.rb, app/models/ability.rb, app/views/layouts/application.html.haml, app/views/partials/_sidebar.html.haml]","11","[app/controllers/contexts_controller.rb, app/models/context.rb, app/models/library_item.rb, app/models/user.rb, app/views/contexts/_form.html.haml, app/views/contexts/edit.html.haml, app/views/contexts/index.html.haml, app/views/contexts/new.html.haml, app/views/contexts/show.html.haml, app/views/contexts/start.html.haml, app/views/home/index.html.haml]","0.5238095237865307"
