[path:/features/step_definitions/your_contributions_steps.rb, methods:[17, 36, 9]]
[path:/features/step_definitions/your_details_steps.rb, methods:[0, 40, 56, 108, 12, 16, 20, 24, 28, 104]]
[path:/features/step_definitions/your_results_steps.rb, methods:[17, 127, 21, 29, 33, 37, 41, 45, 57, 51, 63, 69, 77, 73, 81]]
[path:/features/support/world/language.rb, methods:[[name:language_code, step:Given ]]]
