"Repository","https://github.com/opf/openproject.git"
"Tasks with empty IReal","0"
"Tasks with no-empty IReal","9"
"Tasks with relevant AST error","5"
"Tasks with AST error of Gherkin files","0"
"Tasks with AST error of StepDef files","0"
"Tasks with AST error of production files","5"
"Tasks with AST error of unit test files","0"
"Tasks with step match error","4"
"Tasks without required gems","0"
"Tasks with changed stepdef","2"
"Tasks with changed Gherkin","9"
"Tasks with implemented Gherkin scenarios","5"
"All invalid tasks","9"
"All valid tasks (Gherkin scenario, no empty IReal, no error)","0"
"Valid tasks, but empty ITest","0"
"Valid tasks, no empty ITest, but zero precision-recall","0"
"Valid tasks, no empty ITest, no zero precision-recall","0"
"Project","Task","Date","#Days","#Commits","Commit_Message","#Devs","#Gherkin_Tests","#Impl_Gherkin_Tests","#StepDef","#Impl_StepDef","Methods_Unknown_Type","#Step_Call","Step_Match_Errors","#Step_Match_Error","AST_Errors","#AST_Errors","Gherkin_AST_Errors","#Gherkin_AST_Errors","Steps_AST_Errors","#Steps_AST_Errors","Renamed_Files","Deleted_Files","NotFound_Views","#Views","#TestI","#TaskI","TestI","TaskI","Precision","Recall","Hashes","Timestamp","Rails","Gems","#Visit_Call","Lost_visit_call","#Views_ITest","#Code_View_Analysis","Code_View_Analysis","Has_Merge","F2","#Multiple_Step_Matches","Multiple_Step_Matches","#Generic_Step_Keyword","Generic_Step_Keyword"
"openproject","2349","[29-03-2017]","1","75","[Fix specs after dev merge , Fix tests , Style confirmation dialog and custom fields , Change styling of form configuration , Some very basic confirm dialog for resetting type form configuration to defaults , Fix specs , Display custom fields in parallel + autoscrolling , Allow custom fields to be added through type , Avoid enabling new CFs by default , Fix stlye issues with type selector , Adopt specs to the ""self cleaning"" feature of the attribute groups , Fix spec: attributes must be real , Remove translation logic for group names from form-configuration form , Fix spec: Problem was that attributes must exist, otherwise they get removed , Prevent validation errors when removing costs plugin for instance , Extend ""Reset to defaults"" to reset attribute visibility, too. , Adopt explanatory text to new UI. , Fix date milestone field , Generate default group labels with Setting.default_language , Fix hidden fields in new/edit , Extract visibility into separate class for consistency , Im [TOO_LONG]","4","1","1","0","0","[click_button, click_link, fill_in, page, find, all, be_empty, has_css?, page, all, be_empty, page, set_rack_session, gsub, map_headers, hashes, nil?, save!, each_with_index]","0","","0","[[path:lib/api/v3/queries/schemas/query_schema_representer.rb, msgs:[unexpected tLCURLY]]]","1","","0","","0","","[]","","0","9","17","[app/controllers/homescreen_controller.rb, app/models/timeline.rb, app/models/type.rb, app/models/user.rb, app/views/announcements/_show.html.erb, app/views/homescreen/index.html.erb, app/views/onboarding/_starting_video_modal.html.erb, lib/api/v3/queries/sort_bys/sort_by_decorator.rb, lib/instance_finder.rb]","[app/controllers/custom_fields_controller.rb, app/controllers/types_controller.rb, app/helpers/types_helper.rb, app/models/permitted_params.rb, app/models/type.rb, app/models/type/attribute_groups.rb, app/models/type/attribute_visibility.rb, app/models/type/attributes.rb, app/services/base_type_service.rb, app/views/custom_fields/_form.html.erb, app/views/projects/form/_custom_fields.html.erb, app/views/types/form/_form_configuration.html.erb, lib/api/decorators/allowed_values_by_collection_representer.rb, lib/api/decorators/property_schema_representer.rb, lib/api/decorators/schema_representer.rb, lib/api/v3/work_packages/schema/base_work_package_schema.rb, lib/api/v3/work_packages/schema/work_package_schema_representer.rb]","0.1111111111","0.0588235294","[0fcb3712328893c05b9c662e5bf87b49e54eade0, 01e9293649e5823034b41ddcb9f51ec4356fa5d4, cc93a11a2f7acba9bdd8a44303427e89d9bcab63, 5ffe9679d6fc691a188b9d1276c8eb189fb3245e, b20a5a7618f818e0a42a9e48a0715c5d38a439e4, 8d381651c8868bab823818a687e836f5da602f2b, 1666b587dae06e75b623c4b7c47c741e9289f089, ba9c0ce58f42fa69d13f9a615e042c1febc480d2, 2666f8dd702736a22d38b8949cedbdfb998f49c5, 892e3338089c887d091c46af9b4e9a06ef692dc2, a41cc3ba78ba85611600d3c0d7c085da4bb31236, ed70ff52e99d352dc22f1eedd44169c512aaca70, b187a9b1293392fe296a2ab2cbbb550cb2fca70d, 8c5be6eda7b130c4e42f0def99bc6da2a2c12857, 7130927de9d985adb78a1876b1b3c9cd2f4a15e8, de35dfb2eb58ba2429fe5c7262819bea766f66c6, 9378d423064cd5d85f5d4fdf901d6a9494e9c621, 698bbb7938fd5cb071e10af1cad1839edab13de2, 6eaa291f8870ca39732fde562cf1cad92f4593b1, 970923c62cc2f6d78dc4d031f5a45c2160d3cc12, e62e14feb53e0a1f517be304db9966697176a2fe, ea6fed8a5f9b47e9f497eda2bc42602fee0bc213, 4d7175663d7b10e99c5d51761c8369981a88a7b8, c277ab6ac32537c9aa178605ca86c86e2aea032b, ddae544d89c548cbb854e05e20780b4cdee80dcd, 9d4063b956041d301c29c7b81d07f304538f35d4, f08b0fbbc1920e466d58591c27c50ff03ab3b100, e4f0cb66347f179f07d802a4aaf33b910568a2f4, c0dc9c724f117615e1e67166bf9c9fa430dd198d, ff3b5166ae3f44a77b76f4d48ea4f10b7ca48e96, 8220d43bbf363cffa5ac43d46c43b1e84abd43cf, ce6367ab3302dbbad2bf74abc68a18f2e5818112, 3a26695e9ba67186a3ff7129492d1c2d80241272, 5be699fab114e52b96b135877397059fe90f064e, 6d9530195123233c58e3e63617e07a27ae952a8c, 2a2523863bc4d3e86d5dd35cfe3581710ea2ad6f, 928562966a268fbfc1f000a1d6b8a07152429fd6, 564cf94d1836cb80416eb2ffb515cc11f0f40b19, 8bd56ced34485b14621e68aaf9741be3913dd21f, 6f6a804c896df29963c43eccacb38fd158dd1ecc, 00326d53fe1381abe71f56bfdda4ab333db99408, 16c20fdf22256dde49af9f71a4e35bd31c2f96a4, 59220397d8e97ad4cf377d4c04fb202cfec4cb17, 8000c27bec7a4303d294a644f6ec146db5a46af3, e7825c77554d8f70d9e767f917e0f4cbe847785e, 9152b60321f7f6cbc8badf0808c65c63342e6c95, 22d529c199693638d996e435dc4ff88994c55c19, 8df117c782e358711274020ef5f0eea88121acdd, 92301259aa9702ce42609b2042e7ab136face531, 5e692a37a52de76821e39c7a672865c6c1342559, 61091c3ccdff3246dcab29fd78bd542379003dbc, 19aba22a7cecf9737aa6c740bee208ee5d3f5685, 86c745ce645145627d1a2c44e3a1dc284e844cb1, 9575ee1aeea8b11728f031cfe7db931c1559e2b2, b6d2a03af8af506e95c73968f03c706dc423cba0, bbbb9726c14a40643131f43c3bee3a51a67f06de, da9afaa9a27f217088f320ee3d70fc407010028f, 17e5b4a9530e81d1b0578ab3f3712af12d1905cb, 92e40c432f6964b8f531d59bed8b112fac47e7b4, 673a60d18b1fb16ed27c37aec5a3b3c78bbc544e, 9f07c251d044aede10b48414c5e4290a24ba9bd8, 2aa6067c911a76e84cd32a1c0ba34075b03e1076, 8e67b5392176e5ae8119a29c028886f7a4874ade, 69eb0779cb722f3c2029e37ae47125f622bd1563, 3e648121a6378667b485f75b88054f6e2d43ff15, 234d5166bac4dd70eea8927aee2475fd46ee1912, 88dd5897ee02e971391f3eb3e4fa8534400a3d6c, 25732136adada12b743d72276bc0d19c30441e24, b8a2ead7e08eaa1160ff33baf632246b0bbc7637, 14e48a7e16336e8079572a8b7d9241a1efca0162, db5cee6559a889edc30e7b8cf57d2a8bfff20f6b, b58721a70aabf4141b4a837f3d90c53aa5436416, 9bffe6225f1f3c49e3dd1cdb06f066cee7e1b0ac, 3cf5cda7ce7bb2397d4a90881ae5a0293c4ed9d8, 0ff5eb8d3fb5bcad79472a68ff9b1fe33b4630d1]","1.312 seconds","5.0.1","[cucumber-rails, rspec-rails, simplecov, factory_girl]","1","[]","3","4","[app/controllers/homescreen_controller.rb, app/views/announcements/_show.html.erb, app/views/homescreen/index.html.erb, app/views/onboarding/_starting_video_modal.html.erb]","false","0.0649350649228369","0","","0",""
"openproject","2426","[10-03-2017]","1","1","[Merge pull request #5239 from opf/fix/style-improvements-main-navigation  Style improvements for new main navigation]","1","2","2","0","0","[within, raise, update_attribute, update_attribute, raw, rows_hash, gsub, send, class, raise, save!, to_i, times]","3","","0","[[path:lib/api/v3/queries/schemas/query_schema_representer.rb, msgs:[unexpected tLCURLY]]]","1","","0","","0","","[]","","0","33","3","[app/controllers/activities_controller.rb, app/controllers/api/experimental/projects_controller.rb, app/controllers/api/v2/pagination/projects_controller.rb, app/controllers/api/v2/projects_controller.rb, app/controllers/projects_controller.rb, app/models/activity/changeset_activity_provider.rb, app/models/activity/message_activity_provider.rb, app/models/activity/news_activity_provider.rb, app/models/activity/time_entry_activity_provider.rb, app/models/activity/wiki_content_activity_provider.rb, app/models/activity/work_package_activity_provider.rb, app/models/project.rb, app/models/user.rb, app/models/work_package.rb, app/services/authorization/user_allowed_service.rb, app/services/initialize_session_service.rb, app/services/move_work_package_service.rb, app/views/account/_auth_providers.html.erb, app/views/account/_footer.html.erb, app/views/account/_login.html.erb, app/views/account/_password_login_form.html.erb, app/views/account/_register.html.erb, app/views/account/login.html.erb, app/views/activities/index.html.erb, app/views/customizable/_field.html.erb, app/views/hooks/login/_auth_provider.html.erb, app/views/projects/index.html.erb, lib/api/root.rb, lib/api/v3/formatter/txt_charset.rb, lib/plugins/acts_as_event/lib/acts_as_event.rb, lib/plugins/acts_as_journalized/lib/redmine/acts/journalized/deprecated.rb, lib/plugins/acts_as_journalized/lib/redmine/acts/journalized/options.rb, lib/timelines_collection_proxy.rb]","[app/views/layouts/base.html.erb, lib/redmine/menu_manager/top_menu/projects_menu.rb, lib/redmine/menu_manager/top_menu_helper.rb]","0.0","0.0","[8273f3fe936ea9f7288c2eb47fab37c444f1196e]","1.741 seconds","5.0.1","[cucumber-rails, rspec-rails, simplecov, factory_girl]","2","[]","10","24","[app/controllers/activities_controller.rb, app/controllers/api/experimental/projects_controller.rb, app/controllers/api/v2/pagination/projects_controller.rb, app/controllers/api/v2/projects_controller.rb, app/controllers/projects_controller.rb, app/models/activity/changeset_activity_provider.rb, app/models/activity/message_activity_provider.rb, app/models/activity/news_activity_provider.rb, app/models/activity/time_entry_activity_provider.rb, app/models/activity/wiki_content_activity_provider.rb, app/models/activity/work_package_activity_provider.rb, app/models/work_package.rb, app/views/account/_auth_providers.html.erb, app/views/account/_footer.html.erb, app/views/account/_login.html.erb, app/views/account/_password_login_form.html.erb, app/views/account/_register.html.erb, app/views/account/login.html.erb, app/views/activities/index.html.erb, app/views/customizable/_field.html.erb, app/views/hooks/login/_auth_provider.html.erb, app/views/projects/index.html.erb, lib/plugins/acts_as_event/lib/acts_as_event.rb, lib/plugins/acts_as_journalized/lib/redmine/acts/journalized/deprecated.rb]","true","0.0","0","","0",""
"openproject","2429","[09-03-2017]","1","2","[Fix tests to match new label , Style improvements for new main navigation ]","1","2","2","0","0","[within, raise, update_attribute, update_attribute, raw, rows_hash, gsub, send, class, raise, save!, to_i, times]","3","","0","[[path:lib/api/v3/queries/schemas/query_schema_representer.rb, msgs:[unexpected tLCURLY]]]","1","","0","","0","","[]","","0","33","3","[app/controllers/activities_controller.rb, app/controllers/api/experimental/projects_controller.rb, app/controllers/api/v2/pagination/projects_controller.rb, app/controllers/api/v2/projects_controller.rb, app/controllers/projects_controller.rb, app/models/activity/changeset_activity_provider.rb, app/models/activity/message_activity_provider.rb, app/models/activity/news_activity_provider.rb, app/models/activity/time_entry_activity_provider.rb, app/models/activity/wiki_content_activity_provider.rb, app/models/activity/work_package_activity_provider.rb, app/models/project.rb, app/models/user.rb, app/models/work_package.rb, app/services/authorization/user_allowed_service.rb, app/services/initialize_session_service.rb, app/services/move_work_package_service.rb, app/views/account/_auth_providers.html.erb, app/views/account/_footer.html.erb, app/views/account/_login.html.erb, app/views/account/_password_login_form.html.erb, app/views/account/_register.html.erb, app/views/account/login.html.erb, app/views/activities/index.html.erb, app/views/customizable/_field.html.erb, app/views/hooks/login/_auth_provider.html.erb, app/views/projects/index.html.erb, lib/api/root.rb, lib/api/v3/formatter/txt_charset.rb, lib/plugins/acts_as_event/lib/acts_as_event.rb, lib/plugins/acts_as_journalized/lib/redmine/acts/journalized/deprecated.rb, lib/plugins/acts_as_journalized/lib/redmine/acts/journalized/options.rb, lib/timelines_collection_proxy.rb]","[app/views/layouts/base.html.erb, lib/redmine/menu_manager/top_menu/projects_menu.rb, lib/redmine/menu_manager/top_menu_helper.rb]","0.0","0.0","[8da1d6564e3c4d13977902b3480dcd6ffddbb1e0, adeeb6b87ab416a77c3ab854891c3193bfd51c97]","1.715 seconds","5.0.1","[cucumber-rails, rspec-rails, simplecov, factory_girl]","2","[]","10","24","[app/controllers/activities_controller.rb, app/controllers/api/experimental/projects_controller.rb, app/controllers/api/v2/pagination/projects_controller.rb, app/controllers/api/v2/projects_controller.rb, app/controllers/projects_controller.rb, app/models/activity/changeset_activity_provider.rb, app/models/activity/message_activity_provider.rb, app/models/activity/news_activity_provider.rb, app/models/activity/time_entry_activity_provider.rb, app/models/activity/wiki_content_activity_provider.rb, app/models/activity/work_package_activity_provider.rb, app/models/work_package.rb, app/views/account/_auth_providers.html.erb, app/views/account/_footer.html.erb, app/views/account/_login.html.erb, app/views/account/_password_login_form.html.erb, app/views/account/_register.html.erb, app/views/account/login.html.erb, app/views/activities/index.html.erb, app/views/customizable/_field.html.erb, app/views/hooks/login/_auth_provider.html.erb, app/views/projects/index.html.erb, lib/plugins/acts_as_event/lib/acts_as_event.rb, lib/plugins/acts_as_journalized/lib/redmine/acts/journalized/deprecated.rb]","false","0.0","0","","0",""
"openproject","2449","[06-03-2017]","1","3","[fixed (and added spec for) adding options to existing cf, Merge pull request #5225 from opf/fix/24750-styling-changes-on-WP-page  [24750] Styling changes on WP page, Styling changes on WP page ]","2","2","2","0","0","[click, page, have_content, within, raise, click_link_or_button, page, set_rack_session, hashes, nil?, save!, each_with_index, blank?, raise, raw, rows_hash, gsub, send, class, to_i, times, tap, add_permission!, ago, to_date, days, send_table_to_object, first_name, last_name, location, flatten, save, map_headers, merge, merge!]","4","","0","[[path:lib/api/v3/queries/schemas/query_schema_representer.rb, msgs:[unexpected tLCURLY]]]","1","","0","","0","","[]","[/work_packages(/.*)?/move/new?copy=]","1","65","1","[app/cells/members/row_cell.rb, app/controllers/admin_controller.rb, app/controllers/projects_controller.rb, app/controllers/sys_controller.rb, app/controllers/work_packages/moves_controller.rb, app/models/board.rb, app/models/category.rb, app/models/custom_value.rb, app/models/enumeration.rb, app/models/group.rb, app/models/member.rb, app/models/permitted_params.rb, app/models/principal.rb, app/models/project.rb, app/models/project_association.rb, app/models/queries/base_filter.rb, app/models/queries/base_order.rb, app/models/queries/work_packages/filter/custom_field_filter.rb, app/models/queries/work_packages/filter/role_filter.rb, app/models/queries/work_packages/filter/type_filter.rb, app/models/role.rb, app/models/setting.rb, app/models/status.rb, app/models/system_user.rb, app/models/timeline.rb, app/models/type.rb, app/models/user.rb, app/models/version.rb, app/models/version/project_sharing.rb, app/models/work_package.rb, app/seeders/basic_data/role_seeder.rb, app/services/authorization/user_allowed_service.rb, app/services/initialize_session_service.rb, app/services/move_work_package_service.rb, app/views/work_packages/moves/new.html.erb, lib/api/root.rb, lib/api/v3/formatter/txt_charset.rb, lib/api/v3/queries/filters/query_filter_instance_representer.rb, lib/api/v3/queries/operators/query_operator_representer.rb, lib/api/v3/queries/sort_bys/sort_by_decorator.rb, lib/api/v3/relations/relation_representer.rb, lib/api/v3/utilities/path_helper.rb, lib/instance_finder.rb, lib/open_project/a_r_object_cache.rb, lib/open_project/database.rb, lib/open_project/design.rb, lib/open_project/plugins/acts_as_op_engine.rb, lib/open_project/scm/exceptions.rb, lib/open_project/scm/manager.rb, lib/open_project/version.rb, lib/plugins/acts_as_journalized/lib/journal_formatter/proc.rb, lib/plugins/acts_as_journalized/lib/redmine/acts/journalized/options.rb, lib/plugins/acts_as_watchable/lib/acts_as_watchable.rb, lib/redmine/access_control.rb, lib/redmine/activity.rb, lib/redmine/custom_field_format.rb, lib/redmine/menu_manager.rb, lib/redmine/menu_manager/mapper.rb, lib/redmine/notifiable.rb, lib/redmine/plugin.rb, lib/redmine/search.rb, lib/redmine/version.rb, lib/redmine/wiki_formatting.rb, lib/tabular_form_builder.rb, lib/timelines_collection_proxy.rb]","[app/controllers/custom_fields_controller.rb]","0.0","0.0","[de584216e801734604fe3e20a203ff8868c2d3b3, 96c550f40eb921bac051d0ca4ee22950dabb81de, 79c25f480bc538fafad0a956c3acad3579272876]","3.065 seconds","5.0.1","[cucumber-rails, rspec-rails, simplecov, factory_girl]","2","[]","1","2","[app/controllers/work_packages/moves_controller.rb, app/views/work_packages/moves/new.html.erb]","true","0.0","0","","0",""
"openproject","2463","[23-02-2017]","1","3","[Allow overflow on inner container , Remove interactiv-table and background usages , Fix cuke after locale change ]","1","2","2","0","0","[page, set_rack_session, fill_in, page, have_content, click_link_or_button]","0","","0","[[path:lib/api/v3/queries/schemas/query_schema_representer.rb, msgs:[unexpected tLCURLY]]]","1","","0","","0","","[]","","0","14","38","[app/models/activity/changeset_activity_provider.rb, app/models/activity/message_activity_provider.rb, app/models/activity/news_activity_provider.rb, app/models/activity/time_entry_activity_provider.rb, app/models/activity/wiki_content_activity_provider.rb, app/models/activity/work_package_activity_provider.rb, app/models/role.rb, app/models/timeline.rb, app/models/user.rb, app/models/work_package.rb, app/views/activities/index.html.erb, lib/api/v3/queries/sort_bys/sort_by_decorator.rb, lib/plugins/acts_as_event/lib/acts_as_event.rb, lib/plugins/acts_as_journalized/lib/redmine/acts/journalized/deprecated.rb]","[app/views/admin/plugins.html.erb, app/views/admin/projects.html.erb, app/views/auth_sources/index.html.erb, app/views/boards/index.html.erb, app/views/boards/show.html.erb, app/views/custom_fields/_custom_options.html.erb, app/views/custom_fields/_tab.html.erb, app/views/enumerations/index.html.erb, app/views/groups/_memberships.html.erb, app/views/groups/_users.html.erb, app/views/groups/index.html.erb, app/views/help/wiki_syntax.html.erb, app/views/my/access_token.html.erb, app/views/my/blocks/_timelog.html.erb, app/views/planning_element_type_colors/index.html.erb, app/views/project_associations/index.html.erb, app/views/project_types/index.html.erb, app/views/projects/form/_activities.html.erb, app/views/projects/form/_types.html.erb, app/views/projects/settings/_boards.html.erb, app/views/projects/settings/_categories.html.erb, app/views/projects/settings/_versions.html.erb, app/views/reportings/index.html.erb, app/views/repositories/_dir_list.html.erb, app/views/repositories/_revisions.html.erb, app/views/repositories/committers.html.erb, app/views/roles/index.html.erb, app/views/roles/report.html.erb, app/views/statuses/index.html.erb, app/views/time_entries/reports/show.html.erb, app/views/timelog/_list.html.erb, app/views/types/index.html.erb, app/views/users/_memberships.html.erb, app/views/wiki/history.html.erb, app/views/work_packages/_list_simple.html.erb, app/views/work_packages/reports/_report.html.erb, app/views/workflows/_form.html.erb, app/views/workflows/index.html.erb]","0.0","0.0","[4045d3b1900d9f6ef19a0c6a5cc08016b5114b50, 8c8f4d329cad6db0e29608c5623b13e4d6935592, c348e440a2aa55b1fe8dadd48b844a84929a6320]","1.333 seconds","5.0.1","[cucumber-rails, rspec-rails, simplecov, factory_girl]","1","[]","1","10","[app/models/activity/changeset_activity_provider.rb, app/models/activity/message_activity_provider.rb, app/models/activity/news_activity_provider.rb, app/models/activity/time_entry_activity_provider.rb, app/models/activity/wiki_content_activity_provider.rb, app/models/activity/work_package_activity_provider.rb, app/models/work_package.rb, app/views/activities/index.html.erb, lib/plugins/acts_as_event/lib/acts_as_event.rb, lib/plugins/acts_as_journalized/lib/redmine/acts/journalized/deprecated.rb]","false","0.0","0","","0",""
"openproject","2568","[23-11-2016, 24-11-2016, 29-11-2016, 21-12-2016, 22-12-2016]","30","5","[Bump VERSION to 6.1.4 , Bump VERSION to 6.1.3 , Bump VERSION to 6.1.2 , Merge pull request #70 from finnlabs/fix/adapt_cuke_to_renamed_label  adapt cuke to label renamed in core, adapt cuke to label renamed in core ]","3","3","0","0","0","[]","0","[path:features/global_create_project.feature, size:2]","2","","0","","0","","0","","[]","","0","0","1","[]","[lib/open_project/global_roles/version.rb]","0.0","0.0","[620bf947cd41c1317e44f6c7c891dbb37fa8f9f2, c21fef4848d2f747a60e6af6557e7dd4778809db, a7def19b16c3324a7e3f6ce647cc8f0424a6dae9, cc370d8268d9528a5e3550ed8c90c25b56e04672, c9865c5a1af6fa93e75212fe482d24bbcdf088e8]","0.010 seconds","","[]","0","[]","0","0","[]","true","0.0","0","","0",""
"openproject","2579","[22-12-2016, 17-01-2017]","27","2","[fix cukes after renaming, speedup , Bump VERSION to 6.1.4 ]","1","2","0","0","0","[]","0","[path:features/meetings_new.feature, size:2]","2","","0","","0","","0","","[]","","0","0","1","[]","[lib/open_project/meeting/version.rb]","0.0","0.0","[52f870faf9215c811f7a145c3e53e6a9369862ef, c3367f56dcb62d8f60c5e4799e77f12b6f74a0bf]","0.015 seconds","","[]","0","[]","0","0","[]","false","0.0","0","","0",""
"openproject","2865","[04-10-2016, 06-10-2016]","3","10","[Merge pull request #69 from HDinger/fix/23995-apply-multiple-columns-at-Admin-Roles-page-2  [23995] Apply multiple columns at Admin/Roles page (2), Switch from 'trailing labels' to 'label with checkbox' , adapt cuke broken by altering the members screen , modernize scope , add permissions like it should be , replace deprecated reload , adapt spec expectations to accomodate for Parameters , remove custom permissions= method , replace rjs , bump rails to 5.0.0 ]","2","1","0","1","1","[fail, collect, raw, blank?, tr, add_permission!, each, save!, as_admin]","0","[path:features/member_roles.feature, size:1]","1","","0","","0","","0","","[]","","0","1","5","[app/models/global_role.rb]","[app/controllers/principal_roles_controller.rb, app/models/global_role.rb, app/views/roles/_permissions.html.erb, app/views/users/_available_global_roles.html.erb, lib/open_project/global_roles/patches/roles_controller_patch.rb]","1.0","0.2","[c3e1543b2b6534f8f0515efe5afc0d28b9a5d486, 484606e03168d755a517339d1b11a4120e3d5726, 702195da3d0974bd92288a6545758978d6de2842, 9c3632f5fde745ae39cd6849916ee0cab8b05d9e, ebd7ed91889cea9ad9a4286046563ddc0bccd577, 9f6ef712c0d57a18ba075c76b5946598fa8b3adc, b19f77099d33042a4ec0b43438f5392e6a5e55a9, 425d02a4c7f2c16ae2527e48154c5275dfbaca38, abfd9d82cbb1411f1f0b30a5447f212e52afda7b, 55e066b382c344cd9d3d21e1f3ee162653f9ca90]","0.011 seconds","","[]","0","[]","0","0","[]","true","0.23809523809523808","0","","0",""
"openproject","2884","[29-09-2016, 05-10-2016, 11-10-2016]","13","10","[adapt filter registration to changes in core , use ar 5.0 version of acts_as_silent_list , remove no longer necessary safeguard , force default_scope , replace find_by_[attribute] , replace *_filter by *_action , replace deprecated cucumber table call , bump rails to 5.0 , Replace after_filter with after_action , update locales from crowdin ]","3","1","0","12","12","[get_project, table, save!, id, to_i, fixed_version, eql, find_by, id, page, all, click, find, set, raw, flatten, have_field, within, rows_hash, have_selector, raise, each, have_select, blank?, id, merge, raw, each]","6","[path:features/scrum_master.feature, size:2], [path:features/step_definitions/_given_steps.rb, size:1], [path:features/step_definitions/_then_steps.rb, size:1], [path:features/step_definitions/_when_steps.rb, size:1]","5","","0","","0","","0","","[]","","0","3","10","[app/models/story.rb, lib/open_project/backlogs/version.rb, lib/open_project/backlogs/work_package_filter.rb]","[app/controllers/rb_application_controller.rb, app/controllers/rb_export_card_configurations_controller.rb, app/controllers/rb_master_backlogs_controller.rb, app/models/sprint.rb, lib/open_project/backlogs/engine.rb, lib/open_project/backlogs/patches/my_controller_patch.rb, lib/open_project/backlogs/patches/query_patch.rb, lib/open_project/backlogs/patches/versions_controller_patch.rb, lib/open_project/backlogs/patches/work_package_patch.rb, lib/open_project/backlogs/work_package_filter.rb]","0.3333333333","0.1","[ec7419000307f5bdb7d4c8db4260e0f50dcdf43d, fddd16c868b7d129870922b0c54cede8975f6ab3, e2ad20ede9da3d40df3345220c8c3806cb24c1d4, 8ce5310aa3c503fa52187cbf0044f10b1392a8de, 9a3b88f011ec2ad349996b360e26cd943dad7003, db0f82504e480dce230148678a55c0e25f661f46, daef1d9b28660a28d4715efe546ffb338cafbf61, b3ed465dc3f8ebd4afef82b32703d82cec7f149c, 92c0ad138bba3a1d1d08357809e0f7baf57c9b53, cbf77da1decb245dc3130289542c2904bcc4858d]","0.076 seconds","","[]","0","[]","0","0","[]","false","0.11627906976663062","0","","0",""
