"Repository","https://github.com/rapidftr/RapidFTR.git"
"Precision mean (RT)","0.12219387755000001"
"Precision median (RT)","0.0"
"Precision standard deviation (RT)","0.22657611567028266"
"Recall mean (RT)","0.3333333333357143"
"Recall median (RT)","0.0"
"Recall standard deviation (RT)","0.46259244432758667"
"F2 mean (RT)","0.2199660778317557"
"F2 median (RT)","0.0"
"F2 standard deviation (RT)","0.31462823399076545"
"Correlation #Test-Precision","0.63"
"Correlation #Test-Recall","0.53"
"Task","Dates","#Devs","#Commits","Hashes","#Gherkin_Tests","#Sted_defs","#TestI","#TaskI","TestI","TaskI","Precision","Recall","Rails","#visit_call","Lost_visit_call","#Views_TestI","#Code_View_Analysis","Code_View_Analysis","Methods_Unknown_Type","Renamed_Files","Deleted_Files","NotFound_Views","#NotFound_Views","Timestamp","Has_Merge","#FP","#FN","FP","FN","#Hits","Hits","f2"
"1271","[15-08-2010, 21-08-2010]","1","3","[742cab401097ad50412a35b93d86848654b2b39f, f16f09c5ca9cd2d1a2c34e66805c5dbf839743a7, 829158362012dbe8fbf060cb62d0b642d754a422]","25","4","7","6","[app/controllers/admin_controller.rb, app/controllers/children_controller.rb, app/controllers/fields_controller.rb, app/controllers/form_section_controller.rb, app/controllers/histories_controller.rb, app/controllers/sessions_controller.rb, app/controllers/users_controller.rb]","[app/controllers/admin_controller.rb, app/controllers/application_controller.rb, app/controllers/checks_authentication.rb, app/controllers/fields_controller.rb, app/controllers/form_section_controller.rb, app/controllers/users_controller.rb]","0.5714285714","0.6666666667","","14","[]","0","36","[app/controllers/admin_controller.rb, app/controllers/children_controller.rb, app/controllers/fields_controller.rb, app/controllers/form_section_controller.rb, app/controllers/histories_controller.rb, app/controllers/sessions_controller.rb, app/controllers/users_controller.rb, app/helpers/application_helper.rb, app/views/admin/index.html.erb, app/views/children/_form_section.html.erb, app/views/children/_search_results.html.erb, app/views/children/_summary_row.html.erb, app/views/children/_tabs.html.erb, app/views/children/edit.html.erb, app/views/children/index.html.erb, app/views/children/new.html.erb, app/views/children/search.html.erb, app/views/children/show.html.erb, app/views/fields/_direction_button.html.erb, app/views/fields/_suggested_field.html.erb, app/views/fields/index.html.erb, app/views/fields/new.html.erb, app/views/fields/new_select_drop_down.html.erb, app/views/fields/new_text_field.html.erb, app/views/form_section/index.html.erb, app/views/form_section/new.html.erb, app/views/histories/_history_change.html.erb, app/views/histories/_photo_history_change.html.erb, app/views/histories/show.html.erb, app/views/sessions/new.html.erb, app/views/sessions/show.html.erb, app/views/users/_edittable_user.html.erb, app/views/users/edit.html.erb, app/views/users/index.html.erb, app/views/users/new.html.erb, app/views/users/show.html.erb]","[each, hashes, gsub, reverse_merge!, to_i, response, body, Hpricot, form_section_row_for, be_nil, enabled_icon, contain, form_section_names, inner_html, collect, search, detect, form_section_rows, to_i, form_section_order, eval, suggested_fields_list, hashes, suggested_field_display_for, each, form_fields_list, form_field_for, click_button, click_link, click_link, click_link, fill_in, fill_in, choose, assert_contain, field_labeled, be_checked, checked?, current_url, select, compact, assert_equal, raise, send, cancel, rows_hash, assert_have_xpath, raw, be_disabled, response_body, have_selector, lambda, raise_error, include, click_button]","","[lib/auth_failure.rb]","[new_add_suggested_field_to_form_section, new_assign_unique_id_to_a_child, new_check_box_formsection_fields, new_formsection_fields, new_select_drop_down_formsection_fields, new_text_field_formsection_fields, new_textarea_formsection_fields]","7","10.990 seconds","false","3","2","[app/controllers/children_controller.rb, app/controllers/histories_controller.rb, app/controllers/sessions_controller.rb]","[app/controllers/application_controller.rb, app/controllers/checks_authentication.rb]","4","[app/controllers/admin_controller.rb, app/controllers/fields_controller.rb, app/controllers/form_section_controller.rb, app/controllers/users_controller.rb]","0.6451612903402705"
"1225","[25-11-2010]","1","2","[c235b4a9bb9e81fc7b54ed6d4ba2144950986419, c8b7269a4d5616f3ae68080a86f28c3ce3b7e9ed]","20","6","8","2","[app/controllers/admin_controller.rb, app/controllers/child_ids_controller.rb, app/controllers/children_controller.rb, app/controllers/fields_controller.rb, app/controllers/form_section_controller.rb, app/controllers/histories_controller.rb, app/controllers/sessions_controller.rb, app/controllers/users_controller.rb]","[app/controllers/fields_controller.rb, app/controllers/form_section_controller.rb]","0.25","1.0","2.3.5","10","[]","0","40","[app/controllers/admin_controller.rb, app/controllers/child_ids_controller.rb, app/controllers/children_controller.rb, app/controllers/fields_controller.rb, app/controllers/form_section_controller.rb, app/controllers/histories_controller.rb, app/controllers/sessions_controller.rb, app/controllers/users_controller.rb, app/helpers/application_helper.rb, app/views/admin/index.html.erb, app/views/children/_form_section.html.erb, app/views/children/_search_results.html.erb, app/views/children/_summary_row.html.erb, app/views/children/_tabs.html.erb, app/views/children/edit.html.erb, app/views/children/index.html.erb, app/views/children/new.html.erb, app/views/children/search.html.erb, app/views/children/show.html.erb, app/views/fields/_suggested_field.html.erb, app/views/fields/index.html.erb, app/views/fields/new.html.erb, app/views/fields/new_check_box.html.erb, app/views/fields/new_date_field.html.erb, app/views/fields/new_numeric_field.html.erb, app/views/fields/new_select_drop_down.html.erb, app/views/fields/new_text_field.html.erb, app/views/fields/new_textarea.html.erb, app/views/form_section/index.html.erb, app/views/form_section/new.html.erb, app/views/histories/_audio_history_change.html.erb, app/views/histories/_history_change.html.erb, app/views/histories/_photo_history_change.html.erb, app/views/histories/show.html.erb, app/views/sessions/new.html.erb, app/views/sessions/show.html.erb, app/views/users/_edittable_user.html.erb, app/views/users/edit.html.erb, app/views/users/index.html.erb, app/views/users/new.html.erb]","[each, hashes, gsub, reverse_merge!, to_i, dehumanize, response, body, Hpricot, form_section_names, inner_html, collect, contain, form_section_row_for, detect, be_nil, eval, suggested_fields_list, hashes, suggested_field_display_for, each, css, include, click_button, within, click_link, click_link, fill_in, fill_in, check, assert_contain, assert_not_contain, field_labeled, be_checked, checked?, current_url, select, compact, assert_equal, reverse_merge!, new_create_custom_fields, raise, send, url_for, rows_hash, assert_have_xpath, raw, response_body, have_selector, lambda, raise_error, content, click_button]","","[app/views/fields/_delete_button.html.erb, app/views/fields/_direction_button.html.erb]","[app/views/fields/_delete_button.html.erb, app/views/fields/_direction_button.html.erb, feature, new_add_suggested_field_to_form_section, new_assign_unique_id_to_a_child, new_check_box_formsection_fields, new_create_custom_field, new_date_field_formsection_fields, new_formsection_fields, new_numeric_field_formsection_fields, new_select_drop_down_formsection_fields, new_text_field_formsection_fields, new_textarea_formsection_fields]","13","3.633 seconds","false","6","0","[app/controllers/admin_controller.rb, app/controllers/child_ids_controller.rb, app/controllers/children_controller.rb, app/controllers/histories_controller.rb, app/controllers/sessions_controller.rb, app/controllers/users_controller.rb]","[]","2","[app/controllers/fields_controller.rb, app/controllers/form_section_controller.rb]","0.625"
"1266","[23-08-2010, 26-08-2010]","2","7","[07e44c9a6b9cc954ab50e0f7201dd2ddab9796b6, c17351ced18dec3411a91a17d8de3ae0526bde86, 104f6d86b15727a62e78da375d37f41d388cc2a3, 17a836d5a3bca2a5039c9a68e84ea3cfabdceea0, 6c468294ab3879706940927038f4ded06c9c36d6, 551d58952801baacac956b2ea99e871d45330ff3, ab1e3fd30c947f90ce4a399eeb55fdf133614f1d]","7","9","6","3","[app/controllers/child_images_controller.rb, app/controllers/children_controller.rb, app/controllers/fields_controller.rb, app/controllers/form_section_controller.rb, app/controllers/sessions_controller.rb, app/controllers/users_controller.rb]","[app/controllers/attachments_controller.rb, app/controllers/child_images_controller.rb, app/controllers/children_controller.rb]","0.3333333333","0.6666666667","","6","[{path=rapidftr_RapidFTR/features/step_definitions/basic_steps.rb, line=86}]","0","7","[app/controllers/child_images_controller.rb, app/controllers/children_controller.rb, app/views/children/_form_section.html.erb, app/views/children/_tabs.html.erb, app/views/children/edit.html.erb, app/views/children/index.html.erb, app/views/children/new.html.erb]","[fill_in, attach_file, and_return, and_return, hashes, reverse_merge!, delete, uploadable_photo, create!, each, find_child_by_name, id, response, body, Hpricot, form_section_row_for, form_section_order, inner_html, cancel, click_button, click_link, click_link, fill_in, select, select, check, uncheck, choose, choose, attach_file, contain, assert_contain, uploadable_photo, represent_inline_attachment, find_child_by_name, have_selector]","","[]","","0","0.963 seconds","false","4","1","[app/controllers/fields_controller.rb, app/controllers/form_section_controller.rb, app/controllers/sessions_controller.rb, app/controllers/users_controller.rb]","[app/controllers/attachments_controller.rb]","2","[app/controllers/child_images_controller.rb, app/controllers/children_controller.rb]","0.5555555555555556"
"1215","[04-12-2010]","1","1","[d3e84ffe68dd240d842d4423807f191f62fbe974]","4","2","9","1","[app/controllers/admin_controller.rb, app/controllers/child_ids_controller.rb, app/controllers/children_controller.rb, app/controllers/fields_controller.rb, app/controllers/form_section_controller.rb, app/controllers/histories_controller.rb, app/controllers/home_controller.rb, app/controllers/sessions_controller.rb, app/controllers/users_controller.rb]","[app/controllers/checks_authentication.rb]","0.0","0.0","2.3.5","2","[]","0","44","[app/controllers/admin_controller.rb, app/controllers/child_ids_controller.rb, app/controllers/children_controller.rb, app/controllers/fields_controller.rb, app/controllers/form_section_controller.rb, app/controllers/histories_controller.rb, app/controllers/home_controller.rb, app/controllers/sessions_controller.rb, app/controllers/users_controller.rb, app/helpers/application_helper.rb, app/views/admin/index.html.erb, app/views/children/_form_section.html.erb, app/views/children/_search_results.html.erb, app/views/children/_summary_row.html.erb, app/views/children/_tabs.html.erb, app/views/children/edit.html.erb, app/views/children/edit_photo.html.erb, app/views/children/index.html.erb, app/views/children/new.html.erb, app/views/children/search.html.erb, app/views/children/show.html.erb, app/views/fields/_basic_new_field_form.html.erb, app/views/fields/_suggested_field.html.erb, app/views/fields/confirm_toggle.html.erb, app/views/fields/new.html.erb, app/views/fields/new_check_box.html.erb, app/views/fields/new_date_field.html.erb, app/views/fields/new_numeric_field.html.erb, app/views/fields/new_select_drop_down.html.erb, app/views/fields/new_text_field.html.erb, app/views/fields/new_textarea.html.erb, app/views/form_section/index.html.erb, app/views/form_section/new.html.erb, app/views/histories/_audio_history_change.html.erb, app/views/histories/_history_change.html.erb, app/views/histories/_photo_history_change.html.erb, app/views/histories/show.html.erb, app/views/home/index.html.erb, app/views/sessions/new.html.erb, app/views/sessions/show.html.erb, app/views/users/_edittable_user.html.erb, app/views/users/edit.html.erb, app/views/users/index.html.erb, app/views/users/new.html.erb]","[header, raise, save!, response, status, contain, assert_contain, current_url, select, compact, assert_equal, reverse_merge!, new_create_custom_fields, raise, send, url_for, cookies]","","[]","[feature, new_add_suggested_field_to_form_section, new_assign_unique_id_to_a_child, new_check_box_formsection_fields, new_create_custom_field, new_date_field_formsection_fields, new_numeric_field_formsection_fields, new_select_drop_down_formsection_fields, new_text_field_formsection_fields, new_textarea_formsection_fields]","10","2.046 seconds","false","9","1","[app/controllers/admin_controller.rb, app/controllers/child_ids_controller.rb, app/controllers/children_controller.rb, app/controllers/fields_controller.rb, app/controllers/form_section_controller.rb, app/controllers/histories_controller.rb, app/controllers/home_controller.rb, app/controllers/sessions_controller.rb, app/controllers/users_controller.rb]","[app/controllers/checks_authentication.rb]","0","[]","0"
"1221","[28-11-2010, 29-11-2010]","1","2","[f8800626107675b63f6ffad5024db56576df11d1, 58de33d2545acb64130a9f1efa80dbac4c073dd5]","4","1","1","1","[app/controllers/fields_controller.rb]","[app/controllers/fields_controller.rb]","1.0","1.0","2.3.5","1","[]","0","11","[app/controllers/fields_controller.rb, app/views/fields/_basic_new_field_form.html.erb, app/views/fields/_suggested_field.html.erb, app/views/fields/confirm_toggle.html.erb, app/views/fields/new.html.erb, app/views/fields/new_check_box.html.erb, app/views/fields/new_date_field.html.erb, app/views/fields/new_numeric_field.html.erb, app/views/fields/new_select_drop_down.html.erb, app/views/fields/new_text_field.html.erb, app/views/fields/new_textarea.html.erb]","[click_button, check, gsub, dehumanize, response, body, Hpricot, form_field_for, be_nil, enabled_icon, inner_html]","","[app/views/fields/index.html.erb]","[new_check_box_formsection_fields, new_date_field_formsection_fields, new_numeric_field_formsection_fields, new_select_drop_down_formsection_fields, new_text_field_formsection_fields, new_textarea_formsection_fields]","6","0.337 seconds","false","0","0","[]","[]","1","[app/controllers/fields_controller.rb]","1.0"
"1222","[29-11-2010]","2","6","[34631c0d2f209076192b653fd1b958e09a8eda77, 9ac2b0098e2e229fe491d930b197ed3b3f01b945, 78ba89dfb084877de46838a50f344942e8956090, e4c073359fd1cf0ee4c3d08be2c0b5810949ded7, 38708dccaf81cb01ce69be09974d7ad2c65c155c, 9d732a06e3ea723329e00f9f31fe033faa110733]","4","0","5","0","[app/controllers/admin_controller.rb, app/controllers/child_media_controller.rb, app/controllers/children_controller.rb, app/controllers/form_section_controller.rb, app/controllers/users_controller.rb]","[]","0.0","0.0","2.3.5","4","[]","0","16","[app/controllers/admin_controller.rb, app/controllers/child_media_controller.rb, app/controllers/children_controller.rb, app/controllers/form_section_controller.rb, app/controllers/users_controller.rb, app/views/admin/index.html.erb, app/views/children/_form_section.html.erb, app/views/children/_tabs.html.erb, app/views/children/edit.html.erb, app/views/children/index.html.erb, app/views/children/new.html.erb, app/views/form_section/index.html.erb, app/views/users/_edittable_user.html.erb, app/views/users/edit.html.erb, app/views/users/index.html.erb, app/views/users/new.html.erb]","[response, body, Hpricot, to_html, click_button, click_link, click_link, fill_in, select, choose, attach_file, attach_file, contain, assert_contain, response, contain, assert_not_contain, assert_not_contain, url_for, find_child_by_name, have_selector]","","[]","","0","0.527 seconds","false","5","0","[app/controllers/admin_controller.rb, app/controllers/child_media_controller.rb, app/controllers/children_controller.rb, app/controllers/form_section_controller.rb, app/controllers/users_controller.rb]","[]","0","[]","0"
"1241","[03-10-2010, 05-10-2010]","2","5","[3686ed8841ce3b3c78d65e3291a6ced767c415ef, 5fc88b3e3b3de3f48e15141752927cbbdb7dd8c4, 6714ebc2835d6edeefca6a0f0f7fe63f340291ee, 7f895f4f841df2244b5b096c2a2b084bb5c722fb, 185ea961f15695a9f88f743f8f9422aa72b5a936]","4","1","8","1","[app/controllers/admin_controller.rb, app/controllers/child_ids_controller.rb, app/controllers/children_controller.rb, app/controllers/fields_controller.rb, app/controllers/form_section_controller.rb, app/controllers/histories_controller.rb, app/controllers/sessions_controller.rb, app/controllers/users_controller.rb]","[app/controllers/children_controller.rb]","0.125","1.0","2.3.5","1","[]","0","41","[app/controllers/admin_controller.rb, app/controllers/child_ids_controller.rb, app/controllers/children_controller.rb, app/controllers/fields_controller.rb, app/controllers/form_section_controller.rb, app/controllers/histories_controller.rb, app/controllers/sessions_controller.rb, app/controllers/users_controller.rb, app/helpers/application_helper.rb, app/views/admin/index.html.erb, app/views/children/_form_section.html.erb, app/views/children/_search_results.html.erb, app/views/children/_summary_row.html.erb, app/views/children/_tabs.html.erb, app/views/children/edit.html.erb, app/views/children/index.html.erb, app/views/children/new.html.erb, app/views/children/search.html.erb, app/views/children/show.html.erb, app/views/fields/_delete_button.html.erb, app/views/fields/_direction_button.html.erb, app/views/fields/_suggested_field.html.erb, app/views/fields/index.html.erb, app/views/fields/new.html.erb, app/views/fields/new_check_box.html.erb, app/views/fields/new_numeric_field.html.erb, app/views/fields/new_select_drop_down.html.erb, app/views/fields/new_text_field.html.erb, app/views/fields/new_textarea.html.erb, app/views/form_section/index.html.erb, app/views/form_section/new.html.erb, app/views/histories/_audio_history_change.html.erb, app/views/histories/_history_change.html.erb, app/views/histories/_photo_history_change.html.erb, app/views/histories/show.html.erb, app/views/sessions/new.html.erb, app/views/sessions/show.html.erb, app/views/users/_edittable_user.html.erb, app/views/users/edit.html.erb, app/views/users/index.html.erb, app/views/users/new.html.erb]","[click_button, click_link, click_link, fill_in, fill_in, response, contain, assert_contain, field_labeled, assert_match, current_url, select, compact, assert_equal, reverse_merge!, new_create_custom_fields, raise, send, response, body, Hpricot, child_name, to_plain_text, find, raise, body, Hpricot, child_name, to_plain_text, find, hashes, reverse_merge!, delete, uploadable_photo, create!, each, response_body, class, length, has_key?, be_true, each]","","[]","[feature, new_add_suggested_field_to_form_section, new_assign_unique_id_to_a_child, new_check_box_formsection_fields, new_create_custom_field, new_formsection_fields, new_numeric_field_formsection_fields, new_select_drop_down_formsection_fields, new_text_field_formsection_fields, new_textarea_formsection_fields]","10","2.174 seconds","false","7","0","[app/controllers/admin_controller.rb, app/controllers/child_ids_controller.rb, app/controllers/fields_controller.rb, app/controllers/form_section_controller.rb, app/controllers/histories_controller.rb, app/controllers/sessions_controller.rb, app/controllers/users_controller.rb]","[]","1","[app/controllers/children_controller.rb]","0.41666666666666663"
"1244","[25-09-2010]","1","12","[d043300c116a93d4f0d78299c8410616ae89b52f, 9142556775c69c89400400ffacd4420f99a732e3, 5a120bd7e8cfc620e6f675a1fec3d3af479076d3, 395ecdb06889dc29a7a058de04b44a5d65a441b9, 733b7568929c655124317b94dd8fcce7770109ad, 40c6119fa229c29b0a29ea31f9c750c0b1106a7b, b5a2aba5de805db0255fa2792792e148340d2408, 89ad82b2de4e86992e1da3d0ea52f3e11785ee98, 7b2474b9edd087d73773ff33368779acf19908ff, e47cc91fd5898c3689932a7a8f661d15907de740, 91f350448a6588d8803b36de59fb64d9b78ffd17, 06008765d7dc2d62a941697095bc95f9a33d7a18]","4","1","8","3","[app/controllers/admin_controller.rb, app/controllers/child_ids_controller.rb, app/controllers/children_controller.rb, app/controllers/fields_controller.rb, app/controllers/form_section_controller.rb, app/controllers/histories_controller.rb, app/controllers/sessions_controller.rb, app/controllers/users_controller.rb]","[app/controllers/children_controller.rb, app/controllers/fields_controller.rb, app/controllers/form_section_controller.rb]","0.375","1.0","2.3.5","4","[]","0","40","[app/controllers/admin_controller.rb, app/controllers/child_ids_controller.rb, app/controllers/children_controller.rb, app/controllers/fields_controller.rb, app/controllers/form_section_controller.rb, app/controllers/histories_controller.rb, app/controllers/sessions_controller.rb, app/controllers/users_controller.rb, app/helpers/application_helper.rb, app/views/admin/index.html.erb, app/views/children/_form_section.html.erb, app/views/children/_search_results.html.erb, app/views/children/_summary_row.html.erb, app/views/children/_tabs.html.erb, app/views/children/edit.html.erb, app/views/children/index.html.erb, app/views/children/new.html.erb, app/views/children/search.html.erb, app/views/children/show.html.erb, app/views/fields/_direction_button.html.erb, app/views/fields/_suggested_field.html.erb, app/views/fields/index.html.erb, app/views/fields/new.html.erb, app/views/fields/new_check_box.html.erb, app/views/fields/new_numeric_field.html.erb, app/views/fields/new_select_drop_down.html.erb, app/views/fields/new_text_field.html.erb, app/views/fields/new_textarea.html.erb, app/views/form_section/index.html.erb, app/views/form_section/new.html.erb, app/views/histories/_audio_history_change.html.erb, app/views/histories/_history_change.html.erb, app/views/histories/_photo_history_change.html.erb, app/views/histories/show.html.erb, app/views/sessions/new.html.erb, app/views/sessions/show.html.erb, app/views/users/_edittable_user.html.erb, app/views/users/edit.html.erb, app/views/users/index.html.erb, app/views/users/new.html.erb]","[fill_in, attach_file, each, hashes, gsub, reverse_merge!, to_i, click_button, click_link, select, choose, response, contain, assert_contain, field_labeled, be_checked, checked?, rows_hash, assert_have_xpath, each, raw, reverse_merge!, new_create_custom_fields, raise, send]","","[app/views/children/_numeric_field.erb]","[feature, new_add_suggested_field_to_form_section, new_assign_unique_id_to_a_child, new_check_box_formsection_fields, new_create_custom_field, new_formsection_fields, new_numeric_field_formsection_fields, new_select_drop_down_formsection_fields, new_text_field_formsection_fields, new_textarea_formsection_fields]","10","2.858 seconds","false","5","0","[app/controllers/admin_controller.rb, app/controllers/child_ids_controller.rb, app/controllers/histories_controller.rb, app/controllers/sessions_controller.rb, app/controllers/users_controller.rb]","[]","3","[app/controllers/children_controller.rb, app/controllers/fields_controller.rb, app/controllers/form_section_controller.rb]","0.75"
"1261","[09-09-2010]","1","1","[b47b89e3ae8bf3c05fb62c8ed07772fa2fff3933]","4","0","5","0","[app/controllers/admin_controller.rb, app/controllers/children_controller.rb, app/controllers/fields_controller.rb, app/controllers/form_section_controller.rb, app/controllers/users_controller.rb]","[]","0.0","0.0","","1","[]","0","19","[app/controllers/admin_controller.rb, app/controllers/children_controller.rb, app/controllers/fields_controller.rb, app/controllers/form_section_controller.rb, app/controllers/users_controller.rb, app/views/admin/index.html.erb, app/views/children/_form_section.html.erb, app/views/children/_tabs.html.erb, app/views/children/edit.html.erb, app/views/children/index.html.erb, app/views/children/new.html.erb, app/views/fields/_direction_button.html.erb, app/views/fields/index.html.erb, app/views/form_section/index.html.erb, app/views/users/_edittable_user.html.erb, app/views/users/edit.html.erb, app/views/users/index.html.erb, app/views/users/new.html.erb, app/views/users/show.html.erb]","[click_link, click_link, response, contain, assert_contain, cancel]","","[]","[new_formsection_fields]","1","0.689 seconds","false","5","0","[app/controllers/admin_controller.rb, app/controllers/children_controller.rb, app/controllers/fields_controller.rb, app/controllers/form_section_controller.rb, app/controllers/users_controller.rb]","[]","0","[]","0"
"1217","[04-12-2010]","1","1","[962c3af2c68f922b00c1eccf0df362fc0c6ce94f]","3","0","1","0","[app/controllers/fields_controller.rb]","[]","0.0","0.0","2.3.5","3","[]","0","11","[app/controllers/fields_controller.rb, app/views/fields/_basic_new_field_form.html.erb, app/views/fields/_suggested_field.html.erb, app/views/fields/confirm_toggle.html.erb, app/views/fields/new.html.erb, app/views/fields/new_check_box.html.erb, app/views/fields/new_date_field.html.erb, app/views/fields/new_numeric_field.html.erb, app/views/fields/new_select_drop_down.html.erb, app/views/fields/new_text_field.html.erb, app/views/fields/new_textarea.html.erb]","[click_button, click_link, fill_in, check, response, contain, assert_contain, assert_not_contain, response_body, have_selector, body, css, include]","","[]","[new_check_box_formsection_fields, new_date_field_formsection_fields, new_numeric_field_formsection_fields, new_select_drop_down_formsection_fields, new_text_field_formsection_fields, new_textarea_formsection_fields]","6","0.409 seconds","false","1","0","[app/controllers/fields_controller.rb]","[]","0","[]","0"
"1236","[06-11-2010]","1","2","[364caaab056e91b314f12910766eb42960bfed97, 9321b910649d1895574d76edd73b6dbc3d414621]","3","3","5","1","[app/controllers/admin_controller.rb, app/controllers/children_controller.rb, app/controllers/fields_controller.rb, app/controllers/form_section_controller.rb, app/controllers/users_controller.rb]","[app/controllers/children_controller.rb]","0.2","1.0","2.3.5","1","[]","0","19","[app/controllers/admin_controller.rb, app/controllers/children_controller.rb, app/controllers/fields_controller.rb, app/controllers/form_section_controller.rb, app/controllers/users_controller.rb, app/views/admin/index.html.erb, app/views/children/_form_section.html.erb, app/views/children/_tabs.html.erb, app/views/children/edit.html.erb, app/views/children/index.html.erb, app/views/children/new.html.erb, app/views/fields/_delete_button.html.erb, app/views/fields/_direction_button.html.erb, app/views/fields/index.html.erb, app/views/form_section/index.html.erb, app/views/users/_edittable_user.html.erb, app/views/users/edit.html.erb, app/views/users/index.html.erb, app/views/users/new.html.erb]","[and_return, hashes, reverse_merge!, delete, uploadable_photo, create!, each, click_link, response, contain, assert_not_contain, url_for, to_i, content_type, response_body, chomp, length, body, hashes, find, be_nil, each_key, each, headers]","","[]","[new_formsection_fields]","1","0.723 seconds","false","4","0","[app/controllers/admin_controller.rb, app/controllers/fields_controller.rb, app/controllers/form_section_controller.rb, app/controllers/users_controller.rb]","[]","1","[app/controllers/children_controller.rb]","0.5555555555555556"
"1246","[25-09-2010]","1","5","[438e4f1a7205702602f6329e4870c41a87180d39, 3460b2e4f68fb33e92615c9ee30d8ddbbf5d850e, f4b503f3a33cfd8ddb8985d92eb826ea57bb5b23, 8037b64f37390a7af3768a43277b727c91873ab7, 656408df770ecf0490824783ca9c7cecc72f31f2]","3","0","6","1","[app/controllers/admin_controller.rb, app/controllers/child_media_controller.rb, app/controllers/children_controller.rb, app/controllers/fields_controller.rb, app/controllers/form_section_controller.rb, app/controllers/users_controller.rb]","[app/controllers/fields_controller.rb]","0.1666666667","1.0","2.3.5","3","[]","0","20","[app/controllers/admin_controller.rb, app/controllers/child_media_controller.rb, app/controllers/children_controller.rb, app/controllers/fields_controller.rb, app/controllers/form_section_controller.rb, app/controllers/users_controller.rb, app/views/admin/index.html.erb, app/views/children/_form_section.html.erb, app/views/children/_tabs.html.erb, app/views/children/edit.html.erb, app/views/children/index.html.erb, app/views/children/new.html.erb, app/views/fields/_direction_button.html.erb, app/views/fields/index.html.erb, app/views/form_section/index.html.erb, app/views/users/_edittable_user.html.erb, app/views/users/edit.html.erb, app/views/users/index.html.erb, app/views/users/new.html.erb, app/views/users/show.html.erb]","[click_button, click_link, click_link, click_link, fill_in, select, choose, attach_file, attach_file, response, contain, assert_contain, cancel, body, Hpricot, form_fields_list, be_nil, form_field_for, find_child_by_name, have_selector]","","[]","[new_formsection_fields]","1","0.386 seconds","false","5","0","[app/controllers/admin_controller.rb, app/controllers/child_media_controller.rb, app/controllers/children_controller.rb, app/controllers/form_section_controller.rb, app/controllers/users_controller.rb]","[]","1","[app/controllers/fields_controller.rb]","0.50000000006"
"1224","[25-11-2010]","1","2","[59646732a0720b00229fc5cb7424d3e31215b6da, f4a9fac809caec9c0f64b2aa03c7b4e224ccc805]","2","5","5","1","[app/controllers/admin_controller.rb, app/controllers/children_controller.rb, app/controllers/fields_controller.rb, app/controllers/form_section_controller.rb, app/controllers/users_controller.rb]","[app/controllers/fields_controller.rb]","0.2","1.0","2.3.5","1","[]","0","19","[app/controllers/admin_controller.rb, app/controllers/children_controller.rb, app/controllers/fields_controller.rb, app/controllers/form_section_controller.rb, app/controllers/users_controller.rb, app/views/admin/index.html.erb, app/views/children/_form_section.html.erb, app/views/children/_tabs.html.erb, app/views/children/edit.html.erb, app/views/children/index.html.erb, app/views/children/new.html.erb, app/views/fields/_delete_button.html.erb, app/views/fields/_direction_button.html.erb, app/views/fields/index.html.erb, app/views/form_section/index.html.erb, app/views/users/_edittable_user.html.erb, app/views/users/edit.html.erb, app/views/users/index.html.erb, app/views/users/new.html.erb]","[click_button, check, url_for, response, body, Hpricot, form_field_for, be_nil, response, body, Hpricot, form_field_for, be_nil, enabled_icon, inner_html, css, include, content, collect]","","[]","[new_formsection_fields]","1","1.061 seconds","false","4","0","[app/controllers/admin_controller.rb, app/controllers/children_controller.rb, app/controllers/form_section_controller.rb, app/controllers/users_controller.rb]","[]","1","[app/controllers/fields_controller.rb]","0.5555555555555556"
"1233","[28-10-2010]","1","2","[fff477153399fe8068423ca3ae5d052b5ddb8b4c, f8ad22cbe8709ebc25182906bf4f0821e192b45a]","2","4","6","1","[app/controllers/admin_controller.rb, app/controllers/child_media_controller.rb, app/controllers/children_controller.rb, app/controllers/fields_controller.rb, app/controllers/form_section_controller.rb, app/controllers/users_controller.rb]","[app/controllers/sessions_controller.rb]","0.0","0.0","2.3.5","2","[]","0","20","[app/controllers/admin_controller.rb, app/controllers/child_media_controller.rb, app/controllers/children_controller.rb, app/controllers/fields_controller.rb, app/controllers/form_section_controller.rb, app/controllers/users_controller.rb, app/views/admin/index.html.erb, app/views/children/_form_section.html.erb, app/views/children/_tabs.html.erb, app/views/children/edit.html.erb, app/views/children/index.html.erb, app/views/children/new.html.erb, app/views/fields/_delete_button.html.erb, app/views/fields/_direction_button.html.erb, app/views/fields/index.html.erb, app/views/form_section/index.html.erb, app/views/users/_edittable_user.html.erb, app/views/users/edit.html.erb, app/views/users/index.html.erb, app/views/users/new.html.erb]","[response, body, Hpricot, suggested_fields_list, be_nil, hashes, suggested_field_display_for, inner_html, contain, each, inner_text, to_html, click_button, click_link, click_link, fill_in, select, choose, attach_file, attach_file, assert_contain, uploadable_photo, represent_inline_attachment, find_child_by_name, have_selector]","","[]","[new_formsection_fields]","1","0.614 seconds","false","6","1","[app/controllers/admin_controller.rb, app/controllers/child_media_controller.rb, app/controllers/children_controller.rb, app/controllers/fields_controller.rb, app/controllers/form_section_controller.rb, app/controllers/users_controller.rb]","[app/controllers/sessions_controller.rb]","0","[]","0"
"1251","[22-09-2010]","1","1","[2e0cacd740da1b3c29b537baf4627ec8e62d60b6]","2","2","3","2","[app/controllers/children_controller.rb, app/controllers/sessions_controller.rb, app/controllers/users_controller.rb]","[app/controllers/fields_controller.rb, app/controllers/form_section_controller.rb]","0.0","0.0","","1","[]","0","0","[]","[each, hashes, gsub, reverse_merge!, to_i, response, body, Hpricot, form_section_row_for, be_nil, enabled_icon, inner_html, click_button, check, field_with_id, be_checked, checked?]","","[]","","0","0.231 seconds","false","3","2","[app/controllers/children_controller.rb, app/controllers/sessions_controller.rb, app/controllers/users_controller.rb]","[app/controllers/fields_controller.rb, app/controllers/form_section_controller.rb]","0","[]","0"
"1265","[28-08-2010]","1","3","[fb62e500a5355d40cb1ded0b5f85399709c87de4, a188b75af903d9fb993c608105cef8432040ac3d, d7dabf8a997579462781cc3408abd25fb9c1cc57]","2","2","7","0","[app/controllers/admin_controller.rb, app/controllers/children_controller.rb, app/controllers/fields_controller.rb, app/controllers/form_section_controller.rb, app/controllers/histories_controller.rb, app/controllers/sessions_controller.rb, app/controllers/users_controller.rb]","[]","0.0","0.0","","2","[]","0","36","[app/controllers/admin_controller.rb, app/controllers/children_controller.rb, app/controllers/fields_controller.rb, app/controllers/form_section_controller.rb, app/controllers/histories_controller.rb, app/controllers/sessions_controller.rb, app/controllers/users_controller.rb, app/helpers/application_helper.rb, app/views/admin/index.html.erb, app/views/children/_form_section.html.erb, app/views/children/_search_results.html.erb, app/views/children/_summary_row.html.erb, app/views/children/_tabs.html.erb, app/views/children/edit.html.erb, app/views/children/index.html.erb, app/views/children/new.html.erb, app/views/children/search.html.erb, app/views/children/show.html.erb, app/views/fields/_direction_button.html.erb, app/views/fields/_suggested_field.html.erb, app/views/fields/index.html.erb, app/views/fields/new.html.erb, app/views/fields/new_select_drop_down.html.erb, app/views/fields/new_text_field.html.erb, app/views/form_section/index.html.erb, app/views/form_section/new.html.erb, app/views/histories/_history_change.html.erb, app/views/histories/_photo_history_change.html.erb, app/views/histories/show.html.erb, app/views/sessions/new.html.erb, app/views/sessions/show.html.erb, app/views/users/_edittable_user.html.erb, app/views/users/edit.html.erb, app/views/users/index.html.erb, app/views/users/new.html.erb, app/views/users/show.html.erb]","[each, hashes, gsub, reverse_merge!, to_i, eval, response, body, Hpricot, suggested_fields_list, be_nil, hashes, suggested_field_display_for, inner_html, contain, each, form_fields_list, form_field_for, click_button, within, click_link, assert_contain, current_url, select, compact, assert_equal, raise, send, cancel, response_body, have_selector]","","[]","[new_add_suggested_field_to_form_section, new_assign_unique_id_to_a_child, new_check_box_formsection_fields, new_formsection_fields, new_select_drop_down_formsection_fields, new_text_field_formsection_fields, new_textarea_formsection_fields]","7","6.002 seconds","false","7","0","[app/controllers/admin_controller.rb, app/controllers/children_controller.rb, app/controllers/fields_controller.rb, app/controllers/form_section_controller.rb, app/controllers/histories_controller.rb, app/controllers/sessions_controller.rb, app/controllers/users_controller.rb]","[]","0","[]","0"
"1216","[04-12-2010]","1","1","[58e19992d2f7c89c79cff5ae2510b0edb5a23949]","1","0","3","0","[app/controllers/children_controller.rb, app/controllers/sessions_controller.rb, app/controllers/users_controller.rb]","[]","0.0","0.0","2.3.5","1","[]","0","4","[app/controllers/children_controller.rb, app/views/children/_form_section.html.erb, app/views/children/_tabs.html.erb, app/views/children/new.html.erb]","[each, hashes, gsub, reverse_merge!, to_i, dehumanize, click_button, fill_in, response, contain, assert_contain]","","[app/views/children/_errors.html.erb]","","0","0.159 seconds","false","3","0","[app/controllers/children_controller.rb, app/controllers/sessions_controller.rb, app/controllers/users_controller.rb]","[]","0","[]","0"
"1219","[03-12-2010]","1","1","[b20aa825dd60c2e1be702ab8dd7c13d1dff90a46]","1","0","1","0","[app/controllers/fields_controller.rb]","[]","0.0","0.0","2.3.5","1","[]","0","11","[app/controllers/fields_controller.rb, app/views/fields/_basic_new_field_form.html.erb, app/views/fields/_suggested_field.html.erb, app/views/fields/confirm_toggle.html.erb, app/views/fields/new.html.erb, app/views/fields/new_check_box.html.erb, app/views/fields/new_date_field.html.erb, app/views/fields/new_numeric_field.html.erb, app/views/fields/new_select_drop_down.html.erb, app/views/fields/new_text_field.html.erb, app/views/fields/new_textarea.html.erb]","[response, contain, assert_contain, assert_not_contain]","","[]","[new_check_box_formsection_fields, new_date_field_formsection_fields, new_numeric_field_formsection_fields, new_select_drop_down_formsection_fields, new_text_field_formsection_fields, new_textarea_formsection_fields]","6","0.337 seconds","false","1","0","[app/controllers/fields_controller.rb]","[]","0","[]","0"
"1227","[21-11-2010]","1","6","[740f0e839793aaa0743390d754c505d82e976a97, cad0d8b095e2a5bc08e67edde1889c6d2be549ae, e721d08fda12922380c3727658c6b55aef1334fb, 8de8fb85644bdd8d82b597a3bb30282f9dbdbf60, 60673d09f8f47fa0afd420d2ba28f92f4b013f4c, a5f8e9bb50dadf2440303eb72f24e9480e9efc3e]","1","1","0","0","[]","[]","0.0","0.0","2.3.5","1","[]","0","0","[]","[hashes, reverse_merge!, delete, uploadable_photo, create!, each, click_link, response_body, write, close, path]","","[]","","0","0.102 seconds","false","0","0","[]","[]","0","[]","0"
"1229","[15-11-2010]","1","1","[92708a73d88580ede11ce79fd8ee78f6006788cb]","1","7","0","1","[]","[app/controllers/form_section_controller.rb]","0.0","0.0","2.3.5","0","[]","0","0","[]","[response, body, Hpricot, be_empty, click_link, response_body, have_selector, fill_in, inner_html, click_link]","","[]","","0","0.116 seconds","false","0","1","[]","[app/controllers/form_section_controller.rb]","0","[]","0"
"1230","[14-11-2010]","1","1","[23ef944aec703bd4a21b7823b792cc446d303f04]","1","0","0","0","[]","[]","0.0","0.0","2.3.5","1","[]","0","0","[]","[fill_in, attach_file, click_button, response, contain, assert_contain]","","[]","","0","0.147 seconds","false","0","0","[]","[]","0","[]","0"
"1234","[08-11-2010]","1","1","[41a16e6a8d7a733c09eb9d7e3b2d325b2953eaec]","1","0","8","0","[app/controllers/admin_controller.rb, app/controllers/child_ids_controller.rb, app/controllers/children_controller.rb, app/controllers/fields_controller.rb, app/controllers/form_section_controller.rb, app/controllers/histories_controller.rb, app/controllers/sessions_controller.rb, app/controllers/users_controller.rb]","[]","0.0","0.0","2.3.5","2","[]","0","43","[app/controllers/admin_controller.rb, app/controllers/child_ids_controller.rb, app/controllers/children_controller.rb, app/controllers/fields_controller.rb, app/controllers/form_section_controller.rb, app/controllers/histories_controller.rb, app/controllers/sessions_controller.rb, app/controllers/users_controller.rb, app/helpers/application_helper.rb, app/views/admin/index.html.erb, app/views/children/_form_section.html.erb, app/views/children/_search_results.html.erb, app/views/children/_summary_row.html.erb, app/views/children/_tabs.html.erb, app/views/children/edit.html.erb, app/views/children/index.html.erb, app/views/children/new.html.erb, app/views/children/search.html.erb, app/views/children/show.html.erb, app/views/fields/_delete_button.html.erb, app/views/fields/_direction_button.html.erb, app/views/fields/_edit_button.html.erb, app/views/fields/_suggested_field.html.erb, app/views/fields/index.html.erb, app/views/fields/new.html.erb, app/views/fields/new_check_box.html.erb, app/views/fields/new_date_field.html.erb, app/views/fields/new_numeric_field.html.erb, app/views/fields/new_select_drop_down.html.erb, app/views/fields/new_text_field.html.erb, app/views/fields/new_textarea.html.erb, app/views/form_section/index.html.erb, app/views/form_section/new.html.erb, app/views/histories/_audio_history_change.html.erb, app/views/histories/_history_change.html.erb, app/views/histories/_photo_history_change.html.erb, app/views/histories/show.html.erb, app/views/sessions/new.html.erb, app/views/sessions/show.html.erb, app/views/users/_edittable_user.html.erb, app/views/users/edit.html.erb, app/views/users/index.html.erb, app/views/users/new.html.erb]","[each, hashes, gsub, reverse_merge!, to_i, click_button, click_link, fill_in, response, contain, assert_contain, field_labeled, be_checked, checked?, rows_hash, assert_have_xpath, each, raw, reverse_merge!, new_create_custom_fields, raise, send]","","[]","[feature, new_add_suggested_field_to_form_section, new_assign_unique_id_to_a_child, new_check_box_formsection_fields, new_create_custom_field, new_date_field_formsection_fields, new_formsection_fields, new_numeric_field_formsection_fields, new_select_drop_down_formsection_fields, new_text_field_formsection_fields, new_textarea_formsection_fields]","11","2.611 seconds","false","8","0","[app/controllers/admin_controller.rb, app/controllers/child_ids_controller.rb, app/controllers/children_controller.rb, app/controllers/fields_controller.rb, app/controllers/form_section_controller.rb, app/controllers/histories_controller.rb, app/controllers/sessions_controller.rb, app/controllers/users_controller.rb]","[]","0","[]","0"
"1237","[28-10-2010, 01-11-2010]","1","12","[d5bf3c10edced3362c91a7dfea7bcd2b87e5d6e7, 36e0de8eecbe70a9aca0457096041ad860b7c991, 393838bdc9a186e3a09aca9e43c8046b9c111fb6, 402598154764ff1ea7878ead248bbfc8b39fdbfd, fcbdc255822d624fa4c7560dd783f4fc7fd21b90, fc72478fdd7a2973a2942b0cd31acff508f4141b, c8b9e1e622849fea83c926965736d730498d6132, 837c8695546f2bf1d9062a6390f5d9df95bdd4a6, bba4319c7b74a83c72739741d1167e63d1a8b6f1, f230bddf9705e37cf52987de2a5dcccbc43da718, 4464be49414430003a1caf95ba7b12bcf780e9f2, 9c4df9fff0ec6589d8f537adfc4cb23b75e945f7]","1","2","0","1","[]","[app/controllers/children_controller.rb]","0.0","0.0","2.3.5","1","[]","0","0","[]","[click_button, fill_in, response, body, Hpricot, inner_text]","","[]","","0","0.137 seconds","false","0","1","[]","[app/controllers/children_controller.rb]","0","[]","0"
"1243","[25-09-2010, 26-09-2010]","2","2","[398352f94c2c549e76a7ab9ee78779f13dbc641b, 0142deecc9ada1f1f14e1bfdf52ec9809353bd3c]","1","1","0","1","[]","[app/controllers/fields_controller.rb]","0.0","0.0","2.3.5","1","[]","0","0","[]","[fill_in, attach_file, hashes, gsub, reverse_merge!, eval, each, click_button, response, contain, assert_contain]","","[]","","0","0.149 seconds","false","0","1","[]","[app/controllers/fields_controller.rb]","0","[]","0"
"1247","[24-09-2010]","1","2","[156fcc15fa3987e3a967b4c57a21f1f0a2188ffd, 38e3f7ecde2a7704b3a2af20c77ad267f8e7a717]","1","0","3","1","[app/controllers/children_controller.rb, app/controllers/sessions_controller.rb, app/controllers/users_controller.rb]","[app/controllers/form_section_controller.rb]","0.0","0.0","2.3.5","1","[]","0","0","[]","[each, hashes, gsub, reverse_merge!, to_i, check, field_with_id, be_checked, checked?]","","[]","","0","0.126 seconds","false","3","1","[app/controllers/children_controller.rb, app/controllers/sessions_controller.rb, app/controllers/users_controller.rb]","[app/controllers/form_section_controller.rb]","0","[]","0"
"1256","[09-09-2010]","2","2","[6250aeed93faa0ada4b108a794ee5bd09c226efa, b476dfea2d0df9bd4ee600c53c53aa693c39f610]","1","0","5","0","[app/controllers/admin_controller.rb, app/controllers/children_controller.rb, app/controllers/fields_controller.rb, app/controllers/form_section_controller.rb, app/controllers/users_controller.rb]","[]","0.0","0.0","","1","[]","0","19","[app/controllers/admin_controller.rb, app/controllers/children_controller.rb, app/controllers/fields_controller.rb, app/controllers/form_section_controller.rb, app/controllers/users_controller.rb, app/views/admin/index.html.erb, app/views/children/_form_section.html.erb, app/views/children/_tabs.html.erb, app/views/children/edit.html.erb, app/views/children/index.html.erb, app/views/children/new.html.erb, app/views/fields/_direction_button.html.erb, app/views/fields/index.html.erb, app/views/form_section/index.html.erb, app/views/users/_edittable_user.html.erb, app/views/users/edit.html.erb, app/views/users/index.html.erb, app/views/users/new.html.erb, app/views/users/show.html.erb]","[click_button, click_link, fill_in, response, contain, assert_contain, cancel]","","[]","[new_formsection_fields]","1","0.917 seconds","false","5","0","[app/controllers/admin_controller.rb, app/controllers/children_controller.rb, app/controllers/fields_controller.rb, app/controllers/form_section_controller.rb, app/controllers/users_controller.rb]","[]","0","[]","0"
"1259","[09-09-2010]","1","2","[a99a0e787d07f39be071a17cb923f50f129748b8, 300c253fe54dced688ac8947d2e1ca304d66dbe7]","1","0","5","0","[app/controllers/admin_controller.rb, app/controllers/children_controller.rb, app/controllers/fields_controller.rb, app/controllers/form_section_controller.rb, app/controllers/users_controller.rb]","[]","0.0","0.0","","1","[]","0","19","[app/controllers/admin_controller.rb, app/controllers/children_controller.rb, app/controllers/fields_controller.rb, app/controllers/form_section_controller.rb, app/controllers/users_controller.rb, app/views/admin/index.html.erb, app/views/children/_form_section.html.erb, app/views/children/_tabs.html.erb, app/views/children/edit.html.erb, app/views/children/index.html.erb, app/views/children/new.html.erb, app/views/fields/_direction_button.html.erb, app/views/fields/index.html.erb, app/views/form_section/index.html.erb, app/views/users/_edittable_user.html.erb, app/views/users/edit.html.erb, app/views/users/index.html.erb, app/views/users/new.html.erb, app/views/users/show.html.erb]","[click_link, cancel]","","[]","[new_formsection_fields]","1","0.895 seconds","false","5","0","[app/controllers/admin_controller.rb, app/controllers/children_controller.rb, app/controllers/fields_controller.rb, app/controllers/form_section_controller.rb, app/controllers/users_controller.rb]","[]","0","[]","0"
"1262","[09-09-2010]","2","2","[300c253fe54dced688ac8947d2e1ca304d66dbe7, 2c598c71810d27af294ec8899bbc6aec1bd3130f]","1","0","5","1","[app/controllers/admin_controller.rb, app/controllers/children_controller.rb, app/controllers/fields_controller.rb, app/controllers/form_section_controller.rb, app/controllers/users_controller.rb]","[app/controllers/children_controller.rb]","0.2","1.0","","1","[]","0","19","[app/controllers/admin_controller.rb, app/controllers/children_controller.rb, app/controllers/fields_controller.rb, app/controllers/form_section_controller.rb, app/controllers/users_controller.rb, app/views/admin/index.html.erb, app/views/children/_form_section.html.erb, app/views/children/_tabs.html.erb, app/views/children/edit.html.erb, app/views/children/index.html.erb, app/views/children/new.html.erb, app/views/fields/_direction_button.html.erb, app/views/fields/index.html.erb, app/views/form_section/index.html.erb, app/views/users/_edittable_user.html.erb, app/views/users/edit.html.erb, app/views/users/index.html.erb, app/views/users/new.html.erb, app/views/users/show.html.erb]","[click_link, cancel]","","[]","[new_formsection_fields]","1","0.706 seconds","false","4","0","[app/controllers/admin_controller.rb, app/controllers/fields_controller.rb, app/controllers/form_section_controller.rb, app/controllers/users_controller.rb]","[]","1","[app/controllers/children_controller.rb]","0.5555555555555556"
