"REPO_URL","TASK_ID","#HASHES","HASHES","#PROD_FILES","#TEST_FILES","LAST"
"https://github.com/diaspora/diaspora.git","3237","9","[c86a3eb608b3ceb9c2bb6f6387f0380918398301, e69da7c5e879f9292bd1e8a3ecbad93c71392b67, ce213513ebfb36213c68e999d847ab5885cb5e1e, 0817409e9ab3ae13d7068f56079ad3f2b844dba4, 3cdb48232a0099fe5b02d6f86a3103d62660699e, 82160d234a3f403a5ca0d60bcf5f623dfe83ba24, fd55a56235d10baf2bb1320bee03adaaf9f87c15, 3f7955f978d177cbc56591cdd5f8e4706a0a4295, bfb132280a18e8a87885c0a13e245d904352d764]","7","1","c86a3eb608b3ceb9c2bb6f6387f0380918398301","71ebc90714a2d65bdef6ae1b97c26ef39b5efbc2","dc330012d685d8a6c62fc8e9e08c30d2beba29ac"
"https://github.com/diaspora/diaspora.git","3374","3","[1481056af23ed7dd70eed73a847d40fbe2d3ba2d, 3faca8380b5bac4ab9159d1777affda681ff9216, c08121e6ebc3b0ce65f931acb2d1633b75cc8702]","23","1","1481056af23ed7dd70eed73a847d40fbe2d3ba2d","4d1ce410d7c172e4f291f80a7876cf8b859e9c43","570d0cf104719813cdd167788db9ea8fa1cf2211"
"https://github.com/diaspora/diaspora.git","3381","2","[81ef7386b35f02afd8832ae53fdf0f3cd5d767f3, 8cf1b836626490aaa0c51e35b93b10e127375442]","4","1","81ef7386b35f02afd8832ae53fdf0f3cd5d767f3","f8400389deae6ec370fbee0dd97c419e260150c0","d200aaab5298c107c79d81353f417539c2a4b5e7"
"https://github.com/diaspora/diaspora.git","3639","15","[8d17b3537cdbd4a8b2e8ff5c780e579697dbe569, 611852bb74a61ce05f42cd36e70a101286cb75ec, 7e73f20c2aeebe536e5f40f2cdffbcac8a3f6a71, e792344c0e9d88a6eb774810f9e35d08c05cf519, 4223769df08e9c0933579742b90d2b343c5ccef2, d8c497177f32de1f6fa7a7e16dda7562bb8a4ef5, 6ffc03a4c92fed1d533921269ab503d2d10ab45f, fd69f0201f2c16bcd5aef212efc75ee5d61c1c04, 3e499c0f1b8a5fd97f607e7850223befb69d342c, 5f2d4ba07318866c6d95a2ad0cf69f030a0836e7, 9038d6b0ed6e05c48cb5b2af876dc6eda77c24aa, 8a93c67166bd30bcab61349b748a9c83b81a6ff6, 05c2da81e5785703dfb2609c8d914726ef205857, af938fe74fa4175ba65b27c7f9dc8d9b90bad99a, 294da214f73ccd6aa211f58a2df553cc7c4107a3]","44","1","8d17b3537cdbd4a8b2e8ff5c780e579697dbe569","68a8ecb05f46adf29c4f7900f99799d5999c457d","64e1912c37b955a2d72955e16881dc21ceb9fcaf"
