"REPO_URL","TASK_ID","#HASHES","HASHES","#PROD_FILES","#TEST_FILES","LAST"
"https://github.com/diaspora/diaspora.git","1759","1","[b257939f7ed36d24a16334ad9e2170a6d86e821d]","1","1","b257939f7ed36d24a16334ad9e2170a6d86e821d","8a7f6c9fdf6df40abb0e85669497b0bb920b33b6","2ebd1a82296a0a6947eb223610fd460ff3c4f699"
"https://github.com/diaspora/diaspora.git","1765","2","[6bb3967d33756d378a4a8e873c2c1e52d87b860d, 3990bebcf4f837a9ace2b837c2735fd6ec6ce5bf]","1","1","6bb3967d33756d378a4a8e873c2c1e52d87b860d","1a58f9cf29e78193b0960b47b22d4bf30159506d","47046013ae4a46417e6aab3efc535a62b6bf7637"
"https://github.com/diaspora/diaspora.git","1774","5","[c7283c60a177b6c60586d5f6d366de288c0b3491, 57669017bdff1c6154fee434698107ca6331179c, 3e32472dbbb501999c25ed87a702f718b97e0449, d6ff67fde2e4b48e83f3ec17714740d133c90b6a, 4a92508281c5e16c584192a22b28fdfa6c13843a]","5","1","c7283c60a177b6c60586d5f6d366de288c0b3491","33acc1f7a2f2061c4a3503d5a530079a47807f82","b487c389bcd463965db2f6c392a040ed3cf2e0e9"
"https://github.com/diaspora/diaspora.git","1776","1","[7a8269ebf37ac15ff89eb9f78ff66ceb1d2acd53]","1","6","7a8269ebf37ac15ff89eb9f78ff66ceb1d2acd53","1761fc35a746d1aa7863df403bae7c1fc6023155","3c29007c3901e5caec93fc60dd4e7d0525d3e71f"
"https://github.com/diaspora/diaspora.git","1789","1","[76b1e9b0dc4431b4a779e3321e4cb0d34e7573f1]","1","1","76b1e9b0dc4431b4a779e3321e4cb0d34e7573f1","b1cdc303673efe54ea7c1bb1e955840fabbfb519","19b9b0edb8b31b7ffd57a1c5f084fb3fbd96b0a6"
"https://github.com/diaspora/diaspora.git","1791","8","[b487c389bcd463965db2f6c392a040ed3cf2e0e9, 6bb644f058310c52234dbf1254ca007b2db69d00, 5d46baf33ecd51049187514703cff91a85bf1da8, bfa8b92c57a1213ae76db222073756b1f089d5c7, ee0d7b2e8b120f17661468b6660c98eb676db572, 099f4a61e45c1574abc98276a5cf4290f60b9a09, e232e164e4968a03081994c784815a60ed8b5f48, ce8b3c89dbc97809ebc950feaff9fe0a89bbd2ab]","4","1","b487c389bcd463965db2f6c392a040ed3cf2e0e9","3c9ce435e1b309f5c2734c92a124960923aef0b5","288e1ddd6cb1939291f3f8780ac471f9df93f43e"
"https://github.com/diaspora/diaspora.git","1793","3","[fe850e9e6edf89b4b3e1d7eba013c13a1d78e169, e0d0d0f6681259e4bead2730bdd2292cb847ebe8, abaf7f9a27a0600ceda4f1683679c5e5c87584c5]","1","1","fe850e9e6edf89b4b3e1d7eba013c13a1d78e169","f788f3426a4b3e6e442fd7784e48c6cd72b94300","0fd3bcb397c940dfec42ea30bd8be1d7890651fa"
"https://github.com/diaspora/diaspora.git","1813","3","[ff10ffe43c427ee99e05fed5605e4fff5e0d3f3e, 01299ee8e8d962d18e45d80da0693ddcbb6a30a0, 1aa8b6e9f2f6d9378e4c7ca79b088f36e312b1b2]","1","1","ff10ffe43c427ee99e05fed5605e4fff5e0d3f3e","baadb49ebf7ab33f9e07359e82dc7a77935c641d","dc8a0eb94b9394e6b93e6535d00220988b03e874"
"https://github.com/diaspora/diaspora.git","1830","3","[abce12f27422b85f4abd4c3d473afb1657147fae, af6db5c0433f4c295d0fa1b99210a6d50541273a, aabbea6ee2675cce7e0fa20b68acea7d3d89a9fb]","1","1","abce12f27422b85f4abd4c3d473afb1657147fae","575e314cc42f4f41f1f0954f047d9346366d0912","4793ee5d5af761037c41686c74bc267d516de207"
"https://github.com/diaspora/diaspora.git","1836","20","[beb32ce91f9746ec509397ba55e72ab92631b765, fde28e9bea4a6cdbd66316a3eb2c38ecd7adda54, 5ff657204abd6af1a87e31df1c325a0f3acff8bf, d3f5f34fa0db04b3785fb5497bd5350b25737702, 679d119d4d70875bc4c9a02076841016e23a3125, 0092acd492b93d2b0a1820b511ee960d1d9926b0, 42a01f3a383284ce612a54e7e7530b165c2101a7, c2be999395fa1331eff1edbdd0f6a1dc7ee8e1fd, 597ab2071569e84ef68668a3a9d2fc18cf59bd0f, dd8660b12edf70b9d3f98cc031c7735548c4e801, c1b858a87735ead15d82fb1d0290880b2765fd8a, 4587a926ad4847d63eceff948caec01b0d66e4f3, ceace527625a4bf2763ecc1648f63dd682ba0ee1, 760ff95282329cf330609ba9d1d169235bdbc108, ff173e233c2f4e797206f2705a2ee4147c61d275, bf9201c00200445edb6bf1fb015ef71f297d368a, d8dae23bc242bd1b41d9605d42f4b8b1a137b59f, ae55f5ab9d9cdff87ba5cb4a0c519a4722b2a4f4, c2e6f696266450bf0d44bf056feb8f49047fa538, 763a8938297cb8c0470d9b7afd68fc01e9ab8bd7]","7","1","beb32ce91f9746ec509397ba55e72ab92631b765","26139fc2dcd62cda7d3c20d7aaeabc97931228ff","0677459ff96d42ec3affc96f2615077dc3149836"
"https://github.com/diaspora/diaspora.git","1909","6","[8193978fd2a7e93a4208941cff2b51dc55182e4f, 452de1b8668f678bd2d9fb4a24d0962f6f2956f0, 200887ca450e009dd98d95983398e0dbb60d3748, a3477b76915c07a6f321b2c3f7480524ffe16741, 1002fe088d4337719b7bcbdbf101e10fd3352588, 948b84eca17c9c7b002e9449aa5dd5a5e3c2f3af]","4","1","8193978fd2a7e93a4208941cff2b51dc55182e4f","e13099b36e059b5dbba12bfe315c43d65d27f068","6c1a1ec6d24bb7a9f6f2be9f00c11c9185e415f9"
"https://github.com/diaspora/diaspora.git","1943","5","[e0408e6fae1fb4f8fbd409ec7e21e33875ac498c, 35937b24b782272096fdebe93f3eda31c9403d0b, 54a6ac0c6f00b753638cbaef0436228e0f85066d, 59f055bfd486a17088fa19daaf172e0626a084f6, 7b9fcc2b3d1c1a4c680e102a267633114f9c9ee8]","1","3","e0408e6fae1fb4f8fbd409ec7e21e33875ac498c","2b2e5f1739ef69c55829303a78777ab11f09cda2","03858a07f7c93dac546b37113ac715e60ab11ef6"
"https://github.com/diaspora/diaspora.git","1974","2","[b0e428b34e5f21c7c990491b67c937cee79c1142, 82a47d0ba3b6437ac336e8f559eec268380cbe32]","1","1","b0e428b34e5f21c7c990491b67c937cee79c1142","d36209ae4bbba36eb333198b58e09b42172162d5","fd748b8afb6a07ce2ee61986681d4ef59c3374c5"
"https://github.com/diaspora/diaspora.git","1976","12","[05c856170e66bfb800450530953761dcca3746a7, 6344d43432579241df9e5b111927e0b4ec38ad18, 1fb016597d43f5b25e512ab5de9be2f328d6470c, d3b70a7f3acacc07f35e79777154ab9319d1fe3a, 6bd93a11649e11a213e492845308be881767e0c1, 0596f5345d6139ee28c9bec0a22af3b624dd481d, bccee23854cf484292b092f1581798cfcd09b558, 64a20793ec21cf8fec3b557f9d3ffe7763afd595, b6bc2eacea4f017e990becc607868129ad3d6667, 994bfd4a24260fe3c8310c919d92dbcb2467c4b0, f3d983151bbea81e2a66f374cb686b0ceb359ef3, f4d7196fb52c082e6caf3f048de887a484f1bd3a]","3","1","05c856170e66bfb800450530953761dcca3746a7","fd748b8afb6a07ce2ee61986681d4ef59c3374c5","d331a14dd2e61358b77051f9f7abc6aec70002d4"
"https://github.com/diaspora/diaspora.git","1982","2","[8ca39f593646c5c84c04ccd4c893e7928f6b0e1a, 09cf60f794c10d5a22c56ed8decae6db787e2141]","4","1","8ca39f593646c5c84c04ccd4c893e7928f6b0e1a","e021fd821d72a9876c23bb78563ff34d09c761c6","a15b239c5183e3d84c3050ac12d9561b09b1d997"
"https://github.com/diaspora/diaspora.git","2027","1","[605b418d424e3384476d97f3b07c694a63e70da3]","1","1","605b418d424e3384476d97f3b07c694a63e70da3","1735a17e8300d034a70e2c5479e9bc6a993d1c85","00123c0ab245152e8138e7c693167b63f20627c7"
"https://github.com/diaspora/diaspora.git","2032","3","[1c135b61fdd9a58f51a0592d9fe84a88455641d6, fcd67ebc7705586dcb6988a375158221d7ecf030, 7d0f79c29b22e69d02e477c77e8402c4ca28f088]","3","1","1c135b61fdd9a58f51a0592d9fe84a88455641d6","cb2c972cee9b2e4fd80882385a343def5952cae3","6e16a748e7c0bd293525a589a4c0dffc31d131b3"
"https://github.com/diaspora/diaspora.git","2049","46","[9cb803831f72326200913332ce808bfcfbd63f16, 0f15c3e0b0f1503ac005b6d6198ff0383ae4096f, 73091141361bcfcc06f646242b469daa50c686ad, fb4ad72378dda31e1291e4e402d161d213d61863, c3ef944878e899c96da71d3d5912aa7bc3ad132c, c413a494d7ac3038a8942b2a5fd5b246f367162a, e55b305bca23f7658a965718c1c02811bd2e4cac, c9d0879d3d30211a6f994ef773c2de2bf6a7e1e9, 387e1889056784d6869d4676a6998f5795d8249b, a58260503fe4f8949b28800c5be36cef06264959, 193644b5c19c3cde198079c7691fabaa39c96ca5, f08a539c23a4e2498b3f860ca0ad595f32238bc2, c6da8e74ad602bc01166cf582f33910f23aedb1e, 851282cbe4ec6d6f9580cc5ca640d572a0c09bf5, 6f951ac67829913da7ffe7ecfe8c5e0d25d7b8d7, 2873cedd309967ddff4f8e6946d2ba98cce525f8, 2b3bc5a0f05e39f775a5d6046fdb7fc5f0165d6d, 0b3926d810377ba18c453209935283d233da4e5e, 6d866fa49d1c847138231407fc3e5f425b358002, 2357d9b0f14bb50efd649f4114391f855b2205c5, 152101484cb68f3154a94676eb143d341ee76eab, fe87b38bf2281e3caba4a486a4aec03a138fd376, 6d2cd31e73a3218c9b62f4062f7a6dd1bc97d2ec, d3b874b02064f2ba4f9381e137d1cdaad816311d, 2c9d84607a9015a5cf0da53ba2dc99b3b4b6c38a, 9bdc3c720760a9c66f3dc13881593c1eb08a5996, b387f89164cf9dadbe08c2a7107c462d09738a36, 164b1d716a285392c860622b2d29e146008b1200, 828cc919d0d78f17bce0cccabbee2e94b8ea8071, 43518a9447e6e6a2052540f2c1d7cde84aa9afb5, 8cea8715eb04fa3a0b364c05847dbf79824332af, adebdcbd2ad5e8322f444d7043f9ffc534c605f8, e9217931ce51fd6002c10a7514a5f0f4fb7b7afd, 87464b84d0f84597dac5e2d479e6d84a11582469, fc61df49ce0c7d60b16b28839fbd7b72f6548cd1, 5eb22471916b0b2230c80096a28ad80f489b067e, 3bce0be47c39c826d91c587dcf97cc5af9aad876, 6933eeb67574d508e49e0ac6c79d22961f4a209f, 7c9aaa0a684600bc41fa40f726fe13378d8e553c, 04abaf3523c2ecb5bd1b36df93cc3eb071bd3ade, 512347cad98035ad3f1b7174e6c039bc348f2267, c3c3d57d69a4a5704cced652eec39f2e67cd888c, 4e14dd2d010ca4d0044e1b343a756695fbf54d41, 76ad02f2a56bdf14f96baafa79f8fb395798c63c, eb2eaa8ea19f551f169de3dfce26e6dcf90c611f, d22a98cd96ea4293c166e1394f6d7cae1acf39bd]","6","1","9cb803831f72326200913332ce808bfcfbd63f16","560da5ce98ac708907249b8b4ba4f08c6d30b6cf","70fb4264870c85dd2b698614a4d1edc320eac405"
"https://github.com/diaspora/diaspora.git","2051","48","[3ff94b0312d5cc655fceac5651c7d78bf3334c0a, 87ceabc0ba4c4af8eb759290c1441acb5d30fd94, 2cbf383fbb2fdd50ee82c983608c92fde30722b6, 7346921473a44a0b990ea1c7dcf6dd2c46f75e16, b2ab11944efc7aa48b83dc4d559b9ed18dc7a213, c82e33964041a586d1d6fdb336664c588141a370, 9853197063c22c41424c90b0ee056bc5760038d9, ec096f8131c175651faa5155fc916ae97a5f13b3, 340411f17cdd1be5e3fd579e62e3c2c16bb2bd7c, 87fb922804bb3b7b0db6be3d3ac378ab72cc4393, a1907428e1758cc1cac7c995c391cdf2e3d8d1f3, e55073fdd4f6cd06ccfedced3b3be4a447d02017, 570de98365e7e6ac326e09bc3db5f9525541ae8f, 78bcb1c321c8594d508a57ea825e6b044e3df601, 8149648e5bcbbc099edbbb00fe970310cd034685, 8cca2f028b0c1de081e93d74763767e20076db83, 44f28b8220ab085588c76585c57e10521000116d, a659b4daf8049a70e0e3ecc007078e515bcf8c4c, c4ccf71dab3e7924c5e12e5c966b06832dda6fe6, 390246dde14322c8308a626e2dea47348a716bea, 311afa7dc9197617794e32327fa488cd782b9d50, 28f8db51e790fe91bcff99513fdc74e24fdaf3f7, 66e9423dc94c87ff1877f15bba10cb6531a97950, 6ac1c5bc21d83f26de8c93318ca68fc5ff0dadd4, 0dcb0f6446a16a87d7a796329e6850c13683ed1f, 931dd2621b49a8247d9c58c179aa7338756915e6, bff9d2d370c8074a00941ccc203f4ffe2fe02a87, 7fb3e8e90167eecfe0c6b7a9ed808d572b89b603, a9dd997f23fb71d53efdab055be361e89e1ef5de, 407579137621aa63a8d6dd367b9592a49908684f, 6c5dafa6e92b6955a7b3cda8cdeaa7fc56706051, fe72c59ff7e4d752e326c0245c83d70c2b2c31a4, 91ebff75dd75773e9f0a32eaa8885fb7ea3103d2, c667dac248c5c4dcb068163ac2103d609cc8e116, 84bd1fb1fc3ab42af895863bae824ae0e9972a5d, dbe3b48aee948cd1027898dfa02716c51a6ad4f9, 4be6f196cdb93c39c03315046c3d5181fb98b79b, bf110f0818acba24e983c052d69efafab2985c67, 3704170416bc1ab08990211f584c41b6ef1b0576, 6daafbd5a8f55e0f3046372a6b1e77b87b37333d, 4bd1caa7fd310f21eab8f75b10a2029af4c3c731, 43ed6dde468c89f24e4dfe6b0ebe400815a1563f, 40c04234bd5f9a7c4bec01a8839a75113c68c6cf, 044d03c12ce008db21404cff4a3570ab51fb4207, 8390756dddf8470ac2aaf5adaefa6ff3d8dfb62c, 51a6a3c8a3fd6c3ad185d69e68d118b523bc6793, d64eb529d2d79446feb913481d307cd5a8660e99, 88a17474f78f90e9fc0d60371b3dab6e883829ea]","5","2","3ff94b0312d5cc655fceac5651c7d78bf3334c0a","70fb4264870c85dd2b698614a4d1edc320eac405","cfa518674fd753189fad4b70eb888beaef11fc55"
"https://github.com/diaspora/diaspora.git","2064","22","[9791d8bfa94a6d3a8bba7675e0e539cfede10ad8, fae883df56d8fee45d0cb4882f385d2dcf7c908f, a1b4cae7b414e6903d820579b8cc731670421885, e861357463a5a5b13452d851706674ce2015bfd2, 9e50d0efb6c04cb178cd45eb59cdbc8d0e7d5ac7, 9af60d520bb280f604a6a85b61f5e390fa0d0748, 2457da83a1d8eb50965d343b0fa1cfaddb24731e, 604c1a8eb2be687151ccfd57b570580523550685, c1f2bbac884aa0f7d54983390fb61cd5b4fb247d, d20af894a4215e471fec2f45ab93da5c4841226a, 16f201fea5a252f30bf213b7c218c3525ef3775c, 83103c4761433d222006311fff44d34bd116c180, d767410e6d563778f39f0fd5f1c108b0204f3bd8, 8e22d69d8e0ed2b4b68454367a81fea1d0f522a5, d6f317af3d50e572a7856a6c223acbbed46d98fe, 20da08408f8ea574b82335a8980c87f9d64b6dc8, 400bfd19d8da51f635cb61d9938ed17e937f5879, cac2b1e10b72efe4c70a6a340512479e58a77ba5, de3e157698acc61d4c72caa46f7864d1816b41aa, a0a804e88b5976e0e6d7a6a44c959ad9261158c3, ffbc3aa2416507cb94cf2d795eaeff33ef64854c, 3bfaa3fa24c56ff725a77ab1d85e6837b6d2a3b0]","3","1","9791d8bfa94a6d3a8bba7675e0e539cfede10ad8","c4b36a179e5f1d627d24a8e0016b34eabf2ba7f4","37c3c3a860599312d10fdd67374ed5dba6b66445"
"https://github.com/diaspora/diaspora.git","2104","35","[9550082a9499411b23779f0890e0bf82ac053adb, 09f40c868420d5f1d39c21f090473104a3e2f03f, 6288eff5991087b695937863ca7e0b6823c709e3, 663abcb0aa8691a3ec6673287859b19a7e6a156d, 2bb677b34ba6279db832bcf885a0bf1433c4965b, 010e091f62c2de8580ee4e7d680a34fb60efd5b2, 775eca0026fb1ee6e06b4d1e0f876f46f61d46e8, 11eb1eb7d86a26d9d7be3e1b5e029c144af29553, 8c640b179e3050c4a2c02340ec25ccb1aefdc8b6, 93e64c43aaf2f7a815866d2e6f979d363970fecf, e0b18f5d6c45051c9ebc100e78fdcb691d257ff6, 5d5fa084e51f861041e6317b253a89e475c0c23e, 09704291e903f8817804fa5ca36011a7619ef385, 358414371e1fdb70b066d38b7c770076f4c9f88d, 7ec1ef87c2a255c99c49f1fa6dd7f4d3a53ef00b, 65f20f439c01d0b6b0db2dc95b98efaf6d5a4401, a14090965f8fe275134901477bf044fb954ce802, a0e6433f5acdd06ae948feddf31e492d829fff57, 60420f10618b2a629c71fa053c6ea61b07ed0288, 426f0278f9a065fd1f0c2ba4f4feb9b19cb7c12d, 1ec2b73d5992455a31f5fe9f128690feeb06d813, 6dce04d2f5680df735de831797f6698ba7b4c94d, 37bf5c5aeec37e5d6fcdf215308887534fae5714, 7a5841a1e19473857e232d4e4b236421490b99f8, 4c46cc4246e657a984f9f7fa79bebd0c4c474fd9, fd0065598c9c21e07be178f0c2c4e56abe84f06f, 74e9cd6ca8548f7b03442139debc4fd88dec8543, 680e7f66372ba400a199ce078de07841d36a5492, a3ecd32264cf7ada8aa3bd04acd798e6f0ff8a90, e77d7608cd864408191ad43ffc30bc65a4684dd4, 3a47590d0610c11de81fd1f7dcbb70f4eb980d12, 9fbc4b745a362fcc5f3314f0591cf624f50e0f1d, cc04f492f2dedf39d925ccda0eaf80b99665405b, bf4dabc4f49495c62f44546503a5dbf760f070e0, ab35f2bf3d83d245fa2833e5654afaeb1a33d293]","16","2","9550082a9499411b23779f0890e0bf82ac053adb","843c0d9c1ac71b6d21bf01fe65a4adcdb143d990","f5fdb8ade18d8191a94ada6c850d1299d2b6f13a"
"https://github.com/diaspora/diaspora.git","2116","16","[f213500451dcaf2732f34ee76160f37cef57ed4a, e19c84b5a32a910be41740068d996ed622ea6f90, def5b81fbf7b05f71f587978246ee5f3d3d98faa, 0883ce1dbbb2d71f7ff349e4f01952b0d3d914d6, 03409495f92379aa180e0bd95247bfe69008afcd, 9c0ed946a77d55075264dae40c94adeb762c5b40, 5c431d933f2776caecf85679093b5f89be05d3d5, 835f808e5a869cf8c5ed5d1b43e11c4bce79131a, 35a6f4f265abd03c731e0ccc3e689d95dff810fb, a2aabeb599d294e7b4f47befb9d65b3b6a03ed2d, 3c23364fbcbcb53a3d842c3a787b1dfe6f462316, 280184c85efa21935ce4b9d2a07688cc26910bc2, 2d32595db63039d139858b069a2f903e4dc75b3f, 965c30f406f5145f7d3731e04d20382ad8f908a9, bb2d474771e9d262828148b246219ebc5cbec8b1, f7a1b09639e5a76f430dce65d99a655d0ff39ed8]","12","2","f213500451dcaf2732f34ee76160f37cef57ed4a","48d2bf02b6ae7e13ce9defa504931accd60b49fc","416b577ecaf01c079c98cf8ed69068389923467c"
"https://github.com/diaspora/diaspora.git","2121","15","[491d484a2e1571d8eaf64399ddc21a613e531dec, 39c7478b4a833a0cce66a5d37c3912d2aafc97dc, d668b21cd478f1ca48a550d8dc0cd6aa96572cae, aee17798c152d23504a63cc42ca25dc4b7424ba3, 5868ff06f10e92350f93b6543cfc9c2f313a4b75, 7e7de439f8e4bf16f2edaec26d3b7c491d3f8785, e413a6e70a9633d02f83f7e7f7479278dadb2bbc, 4a564c0c0e59bbbce79845345dba97e539d77343, 852687b31c9600a95cc96c27d50112bc93702488, 11505a386c9b58403a9c2ac3726f9d15035bd0af, 319b3c4d3b1b5cdfa86f8e218030e6c3a3bcc46e, 6b97b8044ba4bd1ed940b7935b4494892c5694ed, 7bac6339878b8ed40972e4f9a7bf1001a645c3d3, 35cef7727f924be63e5a570979a05a9f58b6c9e5, d626148a83552fa81624f75b23d539f45ec6354e]","21","2","491d484a2e1571d8eaf64399ddc21a613e531dec","e0c71e13deabd2540f2cd45317752d22cbd846b5","39ee27acf030ef1547c4452cae4f8c8823a36d0b"
"https://github.com/diaspora/diaspora.git","2165","2","[b28508ecbc8188a031fece291240d876e7f1b493, 5154500239cf959d89d3afcaeaaa118dfc5fcc7e]","7","1","b28508ecbc8188a031fece291240d876e7f1b493","dc0b5db0ac2159950a5de267ca93a680d1d1bb17","2c0cfa53dceaeb276b0f15e2e27ec502792963c5"
"https://github.com/diaspora/diaspora.git","2166","58","[2c0cfa53dceaeb276b0f15e2e27ec502792963c5, 6e55d6c011819c675bfa4a79b7335fc338d9d7e0, 34b9e1c7ca14ded40c592f236359a12ee15a8315, 9769dfb303add2821c37c1040f0105477837e800, b38c49883bc81f896a117d9c32b377ba5e362404, 2fa673b140376e9162d3e87e1a0811812b78ef36, a35dfa1157a180bed56b624123994d4824971a34, 857f51b6841c59288688b8268398aee7d991d0d9, c3c20db8e8e789d75b291ed6814a29faaaaba337, 8d2376b3bf78b03977c9a5d34e07e16a87cab8f5, e78ab14fc51c3f73c2012e568e9dc1fc8ec3068a, 806487a5ffa533c05ca584ff362196e27a7ecf39, 91e77e9dce94428877f8c6961f8d092e7955a550, 71146f27dbc40563335af092aa7384e191d38352, b4923a77f0f7533ff8708ea75274ec470ac33a1e, 8f3cc6769c81a52c302e7609b6c227436348684a, 846b14fac624625afb4fcf62bb763b0a6b06f16d, 21d91f1b4ca740cf6c90c187da2db5935c7a1b95, 8f4fed8c0e87a7646e230fe74242a0b5261228a3, cd274cad0df6ac11bdd9470ab03a595eb5b51558, 7755c254fbd73b9cdb7e4ebe7a9747231bfc2bcd, 3ec7755c83ec7ea8e4384f20a6980f5af0e7f0a6, 899136d0e54183a4029e6bc97112e341807beb9a, 37981b71fed6726bdaf950856dcccea54964f5f4, b1cbd0f4a941e66220aceefce4c67d5e5aef2236, ebcde41e693751b6c669efd6681778e72451f912, 3db133a3a74838606d410c2f07fe0c3b2736c295, 3cab4d348a3dad493799d1978d13995f44e0640c, 7466808112bf98b26c270a7afa1568df80c82124, 6965d6da2485d97c3c52d52cd70ad53bf4b0d355, 5ac6188f23e6e2647dba938091c2651f041ce80f, a1fe55fcb787afeec602f149aee033b8996f492e, f4269f2d44923c98bae0b31d7f302587e8b3209f, f31418feb3fb4d906726b2c0e97c2fdbbbf78029, ca8e8ac0c27ec936c1ffa0c38161cea36b78a995, 2815885bcfb602975dc9cfae1efea8d5d7008b51, ca8f136cec46b5327800927eabff5d72c56b5829, f83b82902c7eefc2d76dea7b72ac5b9123b7063b, 3d1ac7ed55de68aca9c6e58999e968a59ddca3fe, 5a1f3675b5ad3eb1f020d085f9fff46be5fd280f, e60bd7b3e5724ace09e1c2e8d09a25a0a8ee5062, c0eeb7680b4cd83a0f2d3003abe25b2859e8b9e3, 7acbfe1b78b0c3b9fd7addf1489d319b7520e870, 30de08b340b0cf730c6a3625117f5601beb98b23, 7ec13d26ace5c7cd5f91881d16e383999c8f22a1, ead286bf9933a79f552dc9457e8b8703d439c0fc, 653e93fb11fda53910b47926f105edd3e545bb8b, 0ab8ef1d083743cd6e0eaaaeb3b6de4b34013f19, 25cf776059fdacf370a0c3b384fa0a8690f98ec1, cc0e04ea3f4d23971b0e859381eccfa08e74169c, 691bdb96cd9736aa13300aa11ed3fe715f25b0c3, a3e8ced6a1bb0f244c86440cbf9c5ca5a121996c, e0b29048f459ba6eff624be2ffbb89f05675c77f, c3c23209c312a0be0e6974ceffe741dd732d3847, c36c6e9569be12a1918f3946b7bfbc0854a66436, 1c4a689af77ccd40bd4556056756b69b5bb49c11, e3ebf05ac2a78281e286d3e253ab64f9b7235606, ff875a5b3cb0662c71a49d8e592ba17b66c19796]","16","3","2c0cfa53dceaeb276b0f15e2e27ec502792963c5","39d31d58882df031f3e77834738bfce9ae6f3860","d54ff5f34109f8453e9a4e211fb0cbee6fd34233"
"https://github.com/diaspora/diaspora.git","2172","82","[4d634cae24060652ece6321a39c629cfabb46b78, b5bb66c66dab07fdfebb2b13c97ab1955c80a861, c1463c63a433ff1c49116776f4514a4b73b17588, 90452744fc4a894bf3f5d148291905ede15cb18e, 28504f09bb5e4718156208ee1d82485d3b7ecc6c, 1e170291e5cc84133c781a3d44b854a8c7ea9e75, adcd47ab27e9f28a3700d37188bbfac1741c1a8b, 22d5222db080d15ee9ffe6229af10e3d9de0ad7d, 0e747b96a8c47b974ee6dffcbfeda0e758d82604, 738c856b10a47eb86fda8717650b565ea1fe5ac8, d7f56e556b90929d263fb5d4bbad702003e4688b, d1301dc267fd336cc64640e35ea313be920f2ecc, 5d2084869a5e5c83133def885b07a58f14791996, be363b98e5324fd173d387371a63f09e62526fa2, 7ca423b3f26798e53fd593f8428d41392702719e, fa0e92f39673b9c18b2fb3004a4ac544fc1280ab, 1e2b912bd6783f88f683f1bcc8585106e8750d11, a0e8f161f531e3500d2a0b019f405931e18ad3c8, ceb8497e49117d9af0a2eceb9ea510c5e5ea9599, 5fd0ab795181cbe25d539fc93550a6e9bc7dcd33, 4e014d8ab66f1897616313ffd3f693c33545cd39, 32d58e8a9b723d53c545423e0058fcb0e7db60b6, e7c190376502ee675ce9f7c1a0fb0aec1ed654ca, b41b7f3bd3304986a8af17e80c4976912279e735, 34cc35834535460237f91bb3fec7af5da89ab46d, c4deea3ab997336940f6fe7076c83b93e26faaf9, debdd6cb6bb7cd2802a2d945a98d6c02f79985a5, dd00d082dc1fc373eebbc65feaec8144ad6445db, a81d1133cbb102f506009ecb97af97ba4ef3576c, 10a059e8f86a626cdce576ba8249c45dd0d8765a, 6fa2a4246fd359d1ba21a9f51982e528e1ff6503, 8249847e9c67f315b2e10cf6666ccd6664f5845e, 2f7465450ed63f28a3e50fe10a36f0cf6d6db90e, 87aa1fde34becde008f4cf6f9665a6a281ef18b3, dba50ae2736027bb33124aabd8f844062042650a, 0d77ca2c94a483f6ca598afc48eaa57f81322bba, 1f8c087f68f82ded6e9070658a6d166265d29e6a, fd90ab1cecabaf12f10c7b4ce253b4c1e5bc6373, 431a04b0a85e36637d911cac380d990d2a01372a, ad42398c51d9141cfa7c5867f003c13a45cb662c, 376bc4184f5b18ba68ab5fdc4e18e89618cab0c2, 6f3fb6ee6785d3c8f747b4bd29b8c85f21987376, b139cc54796b2a0e77c96266ecc3b3e64ba6591e, 819e8b1f4867f0991aa41eba71929f2e78c53b39, ef7ffa2cbd5494283952aa43b677559b33493dbc, 8a504f2eb86dd41815d1a29875a58ea78378541e, c2695697d394853d671973d6b0e29d8ded429926, 61ab84d6e8fa1846cb97807bb0d9755d4a34639c, d89358d80b7e2ca21df98e1ab441f15d3fb369bb, 011f70a9f4419f969f54e6a867d9018e4680b9aa, f01dcb13548576ab39d0f5953d946c6bc6502ff5, 5ea66485507e2acebb2fe585a4f9e229ee1fe727, d6fd5cdb20155e1678a191c61eebc53febd07efd, a0ca983c578d1bcb77ae7222b41915377f58f90a, c9487ee12fd07c0627d068482d65c5fca1929936, b0e81af1fac615e151ad04347c163a9aeda034d1, 8ae6303a9135fb71337e1dbab78891ca20502cd0, 7bdff9e505ea8bffe42a03ca1035fcadc3097a35, 6573559faf9f34c9053ce2a5566ed5862f1b37e9, 24e37cf32b3be3b72c8c14a729e551b7f5cb616e, 2c041701ea0bedc5d9959a33de7eb2849bd02b78, a1df9fe8dbdd0bfd7250670f5ef1e4c1d6a0e957, 89938bac6e27818f020a8de62b3906e9513ea550, 36cb22ce1a46034692e9bb2af20d36247172bfa1, 10bdf52ef76f2125e89a4dd580f31ca23802e6f4, ebeff6c8e6be5d9e42ae8655a538735f82122433, 29ea9c05e3ad094ddf712852ee3776561f848fbe, 173894d9262b2fa31096b542a9625cc914e636e3, a16a8fc78441bd1b0699903bde7743fa775b8884, 083aae1a2517660bfb5a8083a4829f26381cc2ed, 2d29f93e423393985f6b17cfda2de3646cf4a976, 92b29d31dbc2fa3b91da10d45093dfa7cadf0d9c, 55cb328fe25989ecf3d5f2dd5cae7a64ce4a30f1, 56d9da6e040a48e673d1d47fac625d9fb4247067, 0222e4b2ee1abb32c0ad15b8dd86683e7669068d, 84f5561c771f80a2bd62b3c92790666814b9a2f9, d812502ee4de84ffb2681cfad1664fed5719a322, 9b7e3e8f2ded0231ed3cd4297a16652505c63f2b, 550ffec0910a519208e9ba898bf8c92abed258e0, dc01515aacbf9d79788ebe368f1878ab355c3e73, cab953848f2ff28854a0339ace23cf615822514b, 082d5c9fd40ec84cec969b844e0fbff2592512bb]","62","13","4d634cae24060652ece6321a39c629cfabb46b78","7aba1ce1f7745da1885191c2e25aa37d33f6acae","74409d64b576fe6edcc882dee3ff85f27082c71e"
"https://github.com/diaspora/diaspora.git","2174","9","[4aa86750b9f1fee4a13e485d5565a9ec9f810018, e95b0d92e4a5ffef5de919f5bdab93e65f61a665, dcac17855ed8498cdfb325437c3da172325de45d, 097a8b409d874f42fdd06b6cb5da34ec6068515d, 3caebb77434912dd21e46d1774511502a9d9d130, 1f4e255f57ba4efbf30f780d5fd039762d91de34, ab727fc846af974988db8a9c34c7319337219435, 20c79f1bb2a44eae82b4763c114688b4d23772d3, dcc2bcd233ba7864a93a648cafdf794a03904979]","11","3","4aa86750b9f1fee4a13e485d5565a9ec9f810018","4f2783487d51aaf6dfd4f2644460b27ee42b4163","bc9e4ca196da10e5d89afcca715ad3a0c17847f6"
