"REPO_URL","TASK_ID","#HASHES","HASHES","#PROD_FILES","#TEST_FILES","LAST"
"https://github.com/diaspora/diaspora.git","2183","7","[f3f2b8ca44d7508b1b997f6d1c24db61ee40faed, e24873353b8a93b44f761b2f6a2e6e108b0fe7cc, b4c526556f4526298d5a9f27e24f70933048f6c8, 54e8040bfd5b6166f112b340a471b9805a3486d1, 830751443947f665d130aa45a5581c0b0d25a018, b2e9e47b3816c9a89ea1c2ca379e63430fa8ab52, fc65d0fea235179ed8d1149d547a3a1256a69850]","16","5","f3f2b8ca44d7508b1b997f6d1c24db61ee40faed","10c575719392a8bb7d120e720b42fe3ef880003e","4263797099a8e1b15ef88de783fd58ff3865b6c4"
"https://github.com/diaspora/diaspora.git","2188","10","[3b8734536557128d337e114fbbde0ee284256223, 44e6084a2934b39e3cf34a3ed71637dae1a2415f, f3d790a4c2ecda5ee6e57b0712ce39d004446f67, 44e072c33080387de147a7121de23dad4c391f97, 427a1694db1b73a7eb59fbd5557ca3e3d71a3c4f, ecdbd1bb2679c8637689aba0068bd79e9af7753c, 5ecb3e8a507d21dcc44de563f1d3bd02920cb284, 3c7ebe3200cb16515f77b0edaf066b4630df6235, 33fb1222f140a71df77948b6fa40ed97e7715dfd, 3e4d2fe7e878ea91ad983fb245618e5cda704da0]","6","1","3b8734536557128d337e114fbbde0ee284256223","1225517c5107cf600cb7c14b32a51cc01f3ca771","b866d9356a8dd5e3cc8e4237e1d30a5a10c21c9f"
"https://github.com/diaspora/diaspora.git","2192","3","[94a7f5bb91814071f2a067a0a4133bfa57598fe4, 84eb313e2002363ee258a802e25570d1aa729c97, 8fb3ad710ff12fb36e3f953891da85acf39766ca]","13","5","94a7f5bb91814071f2a067a0a4133bfa57598fe4","a9b6426323327371f4b156dc563175a3a90a431d","6e9d5f013a75f95c0de69524c224f223ba7459c8"
"https://github.com/diaspora/diaspora.git","2210","37","[0e0d40d00e523e34131d4a680e8627f5442a1fd1, 03e3d8e993aec6a19aeef917cd0a6da04e2e6cbb, a27b17bc6895177be4b3863d642d5560d9d13615, 2d98c57cf1a342610918718f9034d52151a3e434, 3ec09930fe671c51880ec9f769deab56bbda6a00, d40746bff7c64c883e97f41505fda853cd9de1ec, 7d4a81560d1408b372bdfec303584e66494c3d57, b9ae426015997228bc5adaf8bd2684be35f9e106, 19df6e1f593da2abaeed1c7e3210ad83efcc6136, 0bb6ff99c9c5e8c508b6182ff1f1a7b603f1cb14, 1a30ef62a6461d8f20f6517bef9977696ba31d56, f250b791052f921a85c149b7c2c6e81dc6db3c02, d77374937419735abc337bebc3f7556a7d74b37f, edd8644531d48b76fba9f98692ccf95df761de6b, 8529293eeecd0583432fcbd252a6631cce28bad1, 640a0181abfce1cafdefa85b2347db03813487e0, 4cf48cae6b5809e2271afd4e307f86b4e038d90a, 410f2d436f274f8c4cb6ec9c4b4d9088c37b1691, 31bfef9dd240e7df0ac623177e1d5ee17b55a911, 67432bfaf4ac9bff51dbd3cfdb79b407bcebabd2, d8c6dc0d7975b870e65ca544e327d8402ad85a6a, 3be247f8cadcb14ec7ed7f274272a1f4e712cb60, c69df0fb292da4d986390a74efdf839f5a973d6f, 3146380365b0048a2e27085433f7d3fba11120c2, 95b7e30e009a495e15cf54d1e83e8f1ce5c0222f, ff71bc5a4458f4fb83a2bbf37076ce1d2a3aa6d7, 014d5a1724a42f9044be833882f277ca5d7bd724, e2cb572c15bee415b8340f9aa5289f61a31fa753, c100f8bfdde89ab9a6760757f003a08d2914ba83, 7cef6a8d225c6476673e7284af78b0eb72d74ac0, 46da8310f59cc87d97fe1e7f017cba2d727b7086, 8002091d67a65919c612c72fb0222e42a86b34ee, cc5334ce9a287c961f6f5b76f9246075d2bb2d6e, c43bb90794eccb563f10daff53f7c9f1195b27e6, 117acdd17f2b0c2f55eb3affa1233189149049e7, 718c4fd38c68d2226abb35f3e76113dfd8ec8334, 0da5f18ad5e6122a75169b12c375e9d187ac85da]","29","2","0e0d40d00e523e34131d4a680e8627f5442a1fd1","5ea4bc0a1b6f0cde0b9770761ac2853abaec659e","5a78796ec0146bdfd7b7c1754105111d39c1e558"
"https://github.com/diaspora/diaspora.git","2259","157","[5e65c88bd85ba6ad96ca34228ea9425fc2c7204a, 665517abfc2835879a376ca141a69fa457226c84, e0f895964707b529c6e73d81bcd1f98fafba0cc4, 232c4b7931337974279b3c8097820824d5935242, d38e75c1f5d2fd6114b5e62afaf9166db47197a3, 334a2edd70e1989082f91fd5fa8843e2ea7098ec, eb13464cb5cdf55c6754f9aa68f94e08557faa78, b5dea6377488561f889d5a19823bc4b8fede91e5, a899e71ce546afc87f23cfc32449ed8866f0cea7, 07d81e0a851367a716bad9c301f53864c227a427, ad2e6a414f612d6fa86600a7416592009a05caed, 70737ddc9d12280ff25a6a366ca2a3c16391f79a, 7020194a57052907c5bdb624021b2328df76f446, d5a4f9eb984532ecf7dada580c712b79e863ac71, 985657cbc3272be8100debe7619490d6a8ad387f, c9c7cff47900fc7618f60cfabe95dd8e596c26a8, e928cc805a93085785d949cedeb310710cb2591f, 687eb7ba0b7eadf11a4667e07479c168667a5095, 36e13893a3d186f82a1c8c3d7264205653b0da43, 72d141b0a26a8527f403c5ff838811b74339484b, 8fa6c46de25165af1ac1f98c04ece4818be2419f, daba42c857f6b7fbe2617010d144637b56c82c5d, b13e72bc004bf237f3f49dd32b02e7a20af5f174, dea21634a2944d723209f719bfd475d42be54e1a, 0fb1bf5d4be7e7d656af9202e4a4ec433d421b64, fd6e3bae62f01f7d0acf0154a936e242b6cecfcb, d2807b5202b5734e66de0e13e5e0ff6a0141fbb0, c3ea1dfc6e2d094ea04bee0ef35467dfc05e7cc5, 3db0cd3776d1fb739130e8f885d5987698966de7, 2024716c2c31c8a9bde908cc4c058bd089155026, 3f7144f21492a3ed389850e12441cde94b0b19a4, 24950bd364b8a2ac5f0d4f4773d2ede744c6ca09, ae5fb67f71841fca8648357754f2f0fed6ca9366, ff82283b3cc68ebdcaf5707e88809e9ecdbbe885, f72edbc039d7bdaf20d9d973bf28da5906a1ae38, 933299e31cbfb19278f0952e79c83a519e91bda6, a92401f157874bfc7f1182365da43ac6f632f6d5, d5e9c5eebc6dcaff84cb3f7751fe46d005c80ec5, 7ccc81b0a409551ea25a0edc2e914907717541a3, b582f454529d24931d14a7775316f5d4ea665657, 9d24b518f5383e025f59b596d8bb96fa4960525d, 5e28c8f6eca932874af1e4cb3c42b73c71309571, dbfb18e249dfe3f9952b241e8aec3713600e935c, dd85521701d4cf029fa4e1c743bf51e337f181e2, 31fac539694df058ee5405d152f462f5484eef6a, 5e88ca846a61726309e729f87cd0474674be6253, 5bbe8bfccdc1aa47919bb3c10b9600cff336dbfd, 1e20ca0cf5888d538a6b3be605038e3107fe68fb, 85b5974fa9380a0ed355b4d12e2a47d5af277289, 64a90a30ef6eeb378e81a123ea7040afe54131d9, 71bae103170975c05d309b658cc59c4347027553, f804db36b88a230e4cb23064960b617932dca3c5, 1804b19ccc32cb543bf2bbedd0eac7765a8ad13b, bc0c92ec64fc7c551b4aa33ddbb7f97d0773d78b, 33e0de94f87a62c1a35dbb3acf20543247fd8ffa, 565a0b21f79c8d4577085b04ef6cf33c86ce2f96, 42276a73c8f228922e3310febfde514455b83e9f, 3268726a9ad5b2fc5df81ab2426d4f23f00f00e8, 4fabbe93a50b7941e758d7134cc157f011728f63, 719e265b6829986bd194b245c6df9e40008c5972, 096efee9292f4a440fdd6d3fa63eb46fe3770fab, bbc7db3152c17cb3c608c8dcf759fccc041a9651, 0a4b4fb34432bc48ff4ad87024aeb7e7df1131c3, 02ca7a32f08f7dd203d1feee302cbb6fa762f606, 027bb3dee7f82fefe0c76915a68efce6f9df2784, 505adbe07b684cfe332a115b0fb8ae8dac9faa1d, 4029b26c03e9d2c21aed6760abd37e4725536772, b120faa4f93acc1fe842185bcaab923645ad698d, 1a5e493b222f9b9be6616ee2a4abdb330ef24c03, 6ad4c8e348fcf5b75ccce332085027f81fa60d25, 79208e90731af9ce50fd5c343a10f15965890ed3, fe4530f86b88c4088029db7f0093176b53d62763, 52183b8cc4f6a43c45cb4074d6465118f0ec22f2, 039df8f879f186682551bf4331d24d282d15587e, 21eba82e76ef678e97353abec57a81b8b05cf251, c95f4f30e7e8e27e664353a2f26e7a9c42c02eab, f5609f2182ae6d31d4a1df8c69519635e302ceab, 7c5e3cb4154d24175d621cada59020d3fa043d21, 31d24c60c723fb3cfafdf27d2cf55eda65bd478d, 7f51bc02ef2ffbf85fb92f0528046b33ab0ca9a2, 1b8f78e006d721cb0fb1f25d099583356df9b162, 828624f392adfb7667646e23a0567b06a81c8e2f, 734f01402a9acb6b9e30ea85e3af29d9b6a585ca, 193e5d61c5836df20be13ce25f21a7db9c9e2b14, 1ffdfa84653050621c6fa73ee88948fd599f22a9, 03aa7d9d5f7282fcd8133a1842075daf06c091d1, 67e56dce2ca721f48b12eb1c52ca1ecd964a349c, 841cc29d256c33fd063243685ae0b9e7d0ff114c, 6911ed5d7dc76b1b609a3bb9dedc7a5860d3514b, 574eb7b12ddf69faeebe36e13a9d2fcef4a7f31d, c6e41729269e8d59bb4ca7cca13836212d2cdcf3, a7627fabea3ff969f8a894995cb0376e2f6bc9ef, b94b5240a8910db5acb8aeff26ccd76eab4988b0, 6760e3868d93348660e6019529e0bb92d5b12d0e, d9d878f11f5217bdb1d1f7e977d1b6908e9b3fe2, ae6fa5bebb1f01b8ff2ad372830214c1ebb54735, cd1d25dc30a21670b207bfb0c7d02b58f6a06615, dc82316f13907997f8c939f0a384d32317aef080, 525fd3c4e46db1ac42e13fced0ceaf306ff50340, f5172fa977c0747b652b1688333088113bdb48f8, 46b156762295ea0a5e22cb01279cff6df0d310e3, ffae0f8e8514386067835846c4082946e0b23060, cec2d27204f13528dd917aa5fa1b62c36ccacc08, bc1ffd317e89777dbd8de98d1df7f9778582dc7d, 9e4e58e002ca45dcda146c5a62b88db5bdb3d3e5, 414fb8d4549e1ef06e098e411090fa4965c7ceb7, e6d4ec2dc84da0d4276c45517fd0b9ef09aa5efb, 34e3403e2e08ed9e9467d856f0a63e2c87dc852e, 8e3db3aebee171a558009801139a9227ffc1d86a, 4883c70ae2f5fcd86bbcc470ffead04353e0a52d, 52e3f1b2400f006a0de75ff746f301b25869ac62, 1d178116e9fb95773dfa123b547c671578d244b1, f62b26fc735025639f81b4bab00d05762ae04097, 1ecfa92c9edd93d12273e25c07b691df0ba2278a, 3f7d992a0bed0abcfbd92158220f1db3d39111d4, 80f797a581d078773067ae9ef2b59b4250291b15, ba9ece001416bed78e0701e97c9dd0256f182ff5, d4219799e46e35b4319b97c5527e3a6c7887e924, dca3581ae268fad2aa2f78587fd8f2682aa857f8, d504bf4591aa5d53123b1dc8e243da0173670233, 176963fdad9968449f1559fa499541998df81852, 19db5519c0b458770fa395b7ff93f3b681a796ce, aa7343d759be9c4525a36e22fd56e66f32e79457, 42ce3b277b85e94f068de9fbc2d12e99da41a2f9, 91ba6447d0f649119789b1a9b54272f2350b4c68, 2a13381773ef5fbf88613631d3e89f3623bccef9, c360e82f1165c8b29ba25eb86398c97dc0d7b8b9, a1b389c365db9d5c8922fc2531508be44b2c3650, 91c21f5d92f6bddaea3dedfe12297ea0f6e67d34, 2422bdab46041b00044f5a7534b2b7ec1f955712, f395a707ea417cf5bf7c01b293b7d5d1e6a657ad, 2dd0012d1e73963e9a6b03a9ef6a8d6e2e24f16e, a1c30ac096f824c3851afb43665db64ebb2a0fd3, 2e3b8f9d5397a57690781afcdf145a2bba502545, 0891fc683bf71f90529d0ea54f41f659253edb61, 68f25c8d4e91a7311b22a24ff6d3f70837b54c3f, 523a960d94c4be5cb13c4d04ab2d8102e9f0b878, a7eb135ad00afee59ef84aacfac484680a82fd4c, 00a800ab07367f0702be5ac43aafd43a0fda482c, 41ecf2b27df9ece36e19019d20ebb08c98c6394e, 5ee2a17d16757419d14c9c004d1348729cca08b3, fa55200e9c82e5e5dfffef13703588264c4d672c, 646981aa17fa5303092471bb6daff2467e1fad6f, cc6596262cf154349cf3b58a91f541f40d70e0cf, db387b5ed406b0d937dffe08254136b84a1cca29, cedc49bf099a1facbfdfdce249067ca24ac787ec, 683a74d859e111442206b893520ea42e971639f2, 2f948eec4fdde8ddc530b0214ab8dffa050fa74b, c0e4fa831a3f7828ff6f66aecbabe157dbb5709e, 0199949f3cc23fb32013c29f33698b8f0b835f54, 5a0f948a85d418e6e4f4c9dd2a9596f91a8b67f9, d9c2b0d4b534915bd53e619f2721abafdc9c41c8, fdea2f94ff48197d8415ba8c358f91d37ec1d9a8, 9cdfea02b0cfb4bae3b270f23122d07cba5480b9, 7cc6e3ed688e95696a3334dbed327e35ce4190df, 2f6d41ce475250e925b9cccf80df31aee156848d, 790c2e84ea93ba74e5d0c4388f75a07e2109e6bd]","50","14","5e65c88bd85ba6ad96ca34228ea9425fc2c7204a","fe193741d00bcd3f359cdf55aa508088a738a7ae","643209112bf02f887350806b48dd087c4165a7f4"
"https://github.com/diaspora/diaspora.git","2267","3","[aac97303ceae3892fc3fd3599a9e96ef94e36100, 4ae0dcec4378787dae44d4fc95937218975621a5, e9b6da605f36742051d3facdacf31daea7046084]","2","2","aac97303ceae3892fc3fd3599a9e96ef94e36100","0f42c98a7bf15328f85bd6e105bc5d382db4869e","31fda67dd3905e3a8481c446800014ea77584b72"
"https://github.com/diaspora/diaspora.git","2285","23","[8f8769aab58f82e9cd364aa0fb416dfe183fffc2, dea01600aabe9555a0adf846f16939d5ae24cdf3, c0ac664d640889e7a95ea4809553a1fe90ce3a39, 342593988b8a080ae1b77fb96ee07649efe0991e, 7bf1970dd8092a29081474a3e23b68fbcadd3038, 70dcc5beccdb02cf62c9f7dd26161b56a388043e, 90458381f50607a9fc1b5d8b4687952a631b102a, ee12f19ff6762fbb19a77a7eaadf52a6f74f4a3f, e57698bbe857fa2b824e9ac4d1215bf406ceee56, 1552b5bcc2675f94e3c01800fc1c4a27b59b407d, f800d50a2b80809f4a3a21c5ba2f74554a2a9c4f, 0bd101dca9cfc26c617878d9d8032e50d63daff3, 7667029e71b25eb9490cef22bca97c48494569be, 03ca34767a0f5382f15b2c1d8e2f3f5b703a90a5, e6ed2d397a9c0e280083934dbf2d387e8a4a226c, cd6f97fa0eadbf48d1f291c89686b6eebc540d64, 644e382cfd1b91f90c9e6eabc6a5f962f74704f5, 3035f173bd3503b15cae58510588c5a75ab31506, 05612ef7337d1dc843949e780259ad3c36ddc4be, 455e5375d82be7f5f421593795c4306ef3e86431, 2282fd35d1de17d8acdf57850aee74fbdd47c406, a5d1657fbd41f38fafd8619b142b2437f993f933, 0c00a90793eef650aade08084790cb8e69f2b1d5]","23","1","8f8769aab58f82e9cd364aa0fb416dfe183fffc2","c3c112244ec5b5e98aa6e233a75e7cae7bb81366","f4c9b548f91af5f37973c2827f22275e3b9d56d2"
"https://github.com/diaspora/diaspora.git","2287","15","[38cdfa4ab7bcbb067da74f823af5429caf7833ad, a892ea41ebd094eef1ecab329582011c32933c20, 7a474e81999e8fdae1d160b856ce754d99ab5a87, 003a17d27a2af7ab212d89cfc9145380014f2539, cea87f8cbf3c7ccd9f5fdfd4a8c443e299f388fa, 083bb8fbbf54318ce93071963b60091b97b49462, 3dc247a4e6804c78b864bc8b681dde65f83d69b6, bd0d4f9ca89404d86d087df01fec7d94a5cd4081, f99dd3683de0c4ede48f39c9bca2c916cc97e0ea, d245dc91a555ed3644346eea5def7be2deda03f2, c2b22569b02fe575ae7bc8bc054382aa8139e71f, d1044298d4bbce4b7d90dfe09c916bf72ad0b7f4, 925753e6e496ae9a09e0ef4aba31d11bde23246c, df06b04d83d4664754155b6361a52b2039f7bcba, 0d41c9c5f3b4e7a451c603385305fb17779e813f]","10","1","38cdfa4ab7bcbb067da74f823af5429caf7833ad","4a996493bd9ac61af0034c62db25114eca8d2cb3","548c22510249959b9e3c0ca29e042f15d2e178c8"
"https://github.com/diaspora/diaspora.git","2343","3","[e1253c4018564683ef027b0622ba68f4d9741784, d1d24a049c4eb1ce9d21a6260a929f6eb6f19bad, 15e7a0cc6ee9f5acbfedd76b227ec9767d69e4f6]","4","1","e1253c4018564683ef027b0622ba68f4d9741784","63ba45f0a7b0407f4922a27e221b3c18d07755bc","0f19076b4099f0981abe5736ba6071c8efbcaf2d"
"https://github.com/diaspora/diaspora.git","2371","33","[b0d6139beda23cd85904315c4091bb2b8a1d68f3, da06a950b68727fedc3613a705f5b7d18a7f423f, a46a1d91db6d3d0f3c0c255ca59fb9aa5c71395e, a01138672ea3f56baa9f14407d7693f23b22a891, 68a8c23d80a93d3737b436915b2822e2c04ae223, 0a1e649b2b4039b734bcde1901090100bb7350b4, efdf597c0daefa503be598b369431feb8662fbcf, f7afcd96b470f0d137575ff1ce0375dac58ea1ae, 3d8f971ca9d5fb3e5634e10b40fb01b4d0bd4c6e, cc5656920636afc34c7ca418faed238bf95bd98f, 0def71d74f9b172ad5ffe76c834c32b5510b15f3, e8169ee581dd8bb2c6c358a28a1476fbb9b6f11d, 29a0706123e8863596b6c7592cf870ed333bd046, 826e46ef2c805b82fd0e424b69beaeafb35c4647, c8fc9fcb761870b14a0e4a605dbc1936954194a7, 0b18e47b82859de5a8e39174d64f61641015da56, 07a4fb8e967c4bb83dc55747fe547f5532b53a75, 139cfcdd6019500eb5cfee0ffb996ef011da0cea, 5cfb5b714bf65b91b3710b6b441abe15bc5262e4, b8790707443e10790ef3c2c539571df787772d8a, 302ef968bc117e3566d559fbb1f3542289e002b1, 94ebc8b37a6312f4a0d109d498eecf74ed6ab52f, 96f74cf9308ed4d03a6b7c22f67bd2b1504013fc, 9789e25c996a18442af432efa1278d95abf53395, 03380516f1939a1cdd9b29616340f5b306091b9e, 13449312711b99a1a84646147ab023a1fd9eadb5, dd0052361638903435ccce0ecce9322960f26425, 53b27a76279dec2b1b4519b88ab83f86b22892a8, 7e738651474582417f967ae690bb868fe90f6a1f, 3b1f3f90d1acb805dbaae75d25c6e654fd445bcc, 162d3ccd10923f95acf3a485d0fa7f1b1efe3803, db3e41197839df9d49c8ea6e10b11c2a4b61c8cd, ad978f43428bd6e35a547f0505dcb943ce84119a]","16","4","b0d6139beda23cd85904315c4091bb2b8a1d68f3","4b2b2b53b6d1f2bdcd3fbafb9839aed17a7473a2","29573586c8fcb3a7c36bf775f48fc33dd6411e04"
"https://github.com/diaspora/diaspora.git","2375","47","[dc742845c94b75a5ce38bebfe445179da4b0fdcf, f204910aa4abcecb448314728caa998e0988c921, 9fba69cd5ba09403380655f6ca1f0884c3085d66, 2cbb61be7500cee154b63ecdd80b000a136c3957, 0512ade65aa4a0c462e139d67898cc4d8328d6f8, 19897df1ecd13456f1270c6c4af50016acc39c04, e71fcea7629769b00f456225e100375fc5051f0d, 03d3e885b58c1554832160c82a730df332e8ae38, a642a129ac4119ffa00878ff5502bd44296d2d70, 28e08fb6a303975a34985f7d9d22713696a9d390, 5d54fc6c28b88301e65bbb32f11ad7eec488af8f, 02199b172bbb7bfe30d212bed866a03f64d82621, 0033237b4e229f35f46a00cb5f2d53a1ed0c2e33, d5e3033308ae6977aed07e56fb1ce4b4c449d48e, 0874a632f4be04853bcfe7f9f31616460cd0f557, 90d9852e0831ba931119432104d7633fb899c2f5, 08bbce90a98603041b338d2d85a0e2cd4b7d86fb, c447415d9ff317e8d342d27cf99029724137e20d, 62e12f248cfc6a56a939fcd78858e1439b83030c, 2a62867cc4d04f518a5d95bf0f7d288e729a3b93, aec8ca5c5e307f5a9b81af1d0ddbe0380a274122, f878b22c06d89bd0f1aa358f08af4d0f5f4dc79f, fec49cc77e6ebf8a716143b99e9facec8ddae17c, e63e8299b9d98d0cc013c719313458c58d511db8, 59e495572784b8fce1c8a3b6d427915133213327, 923a73fb3a506d2ac0b422e67c6bdc0d471b00a4, 1bc637d83f6f2cf547df9a47cba856516c559691, 547d7e4f8ceb4000a7c88bba5339c1cdf8f5369b, e7584261c7e2fd9d692627b78e9f7956296cfd39, 431fa3fd046400b2ab8d9257abaec02a8b8bba6a, 1ccf965194530962f7640d4351cbc4a98a02d413, ee74948863996bd3056f9620bedd794eea709fca, c6a17cc00b10810c2b535d9a5dc521816eb2661f, 050964b7ec93a08a9124d2116f7723a681a29c23, 49b46f09cde22bd3b027c7089fde440104280ec5, bfd2d440d11677356346569ae2eb9413b8a4f019, 80216cb02484c0f338e76d1a49115d6a9c8a038c, c7838debcfbb4c4999aa7e27b673b6b26263a3d4, 511bd3ab03b2705a419d80cd3db5bd9572248887, 42d4d4f40027b78b77f9539a101ede284460421d, e087284daae9cbfdea3ccd4c7c5ee772d54772cc, 8a8f022f8b589955d29ac109c599331f64d8bad6, 2fcc7837878c339b130b16b71a20ec9832b99114, 7a2ac9e3569eea51654deda143fc1307e7a3628a, 4022ff5163d9bc1185db32fe6870965f031f1901, 51778cb22d6fcbf9b29f06aad4abce05462c36d3, 083f78835980b3f10bc30d96baada1aa77b2b685]","40","5","dc742845c94b75a5ce38bebfe445179da4b0fdcf","3ce0806cbcd539886c727d7a903a70f28905a47a","eea6a59d404b1c65b1b30c95ba3eaafbaa941fbc"
"https://github.com/diaspora/diaspora.git","2378","14","[7307960d8262075cc581477ab1f2d32e849bc99e, b92cb921c1315648db4d257f849898b5098afd14, 81fc5b28da7458673aa588d9e98424296e0556a0, cff3f6ea49371c074072a253333fe1fb5d75f8db, 06ad78f0262fca6c30354ac03b17fafcf0eb61a6, 18690f2b44fc1ab39ea99fc4e44635550b799799, 93c70f0649066ef7f90282ffab36cb84d5211899, 44c9fcf65f196259eca9d63af84d2ff05664fb75, ff10f563ce27f635fe7bf16b70f6d7d4d9e70824, 2c89a71958f9dac0f457865495653095d952ff2c, ea3c7ec439aada8c171af72e34b03ad0e093a346, 75da4e560d843dffc60cf6a3b369a3703123f7b5, b78ed1b794d8f3cfb6bca312ec9ab0d2fd0cc7bd, 178b7af9469a3284d748d37f2e31ec90360b9300]","3","7","7307960d8262075cc581477ab1f2d32e849bc99e","edd4352e496b8ed39200f8d11dfc648d51ab815d","a7124a19cfd551f997eca542dc66d6c675cec736"
"https://github.com/diaspora/diaspora.git","2382","7","[ddd152505eb45666d5cc471f3d33026b6657e053, 63f0dac922eed0684a7ab401e767dee1212133ee, 11a59b933ff1ef1fedb06ad565fbcc46618a9982, 4331e74673529afd0335cb0bca88bbd8125ce78c, 0a081b051c9ad948c1d36a01d983e02c07f12fc5, 64dc0cbdf538c73f8ec56938c57a59f4430e8c74, f18846bf929dbab55cae17e57a28063d6bd43473]","5","2","ddd152505eb45666d5cc471f3d33026b6657e053","47bc94c062c50c52f8f291ecc12244be0eedec39","7577ad4e810c9249844a1cc3d463944197beb1d2"
"https://github.com/diaspora/diaspora.git","2390","6","[8ffbf59f4100350735e8b7b09213187870469b95, b38325c016a98778efb30dd59ce0d134a362f773, e48e2fb56a2c8427fe9a875fd53e5905ed37c177, 38d685e06e0a0a2c90c5ee88cdf5adc5b548618c, b46200224e13251181554548efeffdebf7771cd3, b61246c1682fa00fc5ca4fc88e8a3abfd98c73a5]","1","2","8ffbf59f4100350735e8b7b09213187870469b95","5b40336113bffc0599d26f88e32a820dcf70daa1","718cb2c2f4d704c28da94584eb4109b8c6e2a021"
"https://github.com/diaspora/diaspora.git","2392","2","[4896d056c7fa4990501afc33373a8124255c31ad, 6e4b4bc81b9793d45cdc6bb13d93f62ca227a78f]","3","1","4896d056c7fa4990501afc33373a8124255c31ad","718cb2c2f4d704c28da94584eb4109b8c6e2a021","0be85dff2dc86c066dd76f2989528e9f44737f63"
"https://github.com/diaspora/diaspora.git","2405","34","[9d393d0b594a7d473838fe5e72bae3663366c609, a60e74f339ce0918f706db93c981cd6c56e7771d, 6849c3604ba50814a68999263a3ea5324b560001, f0b219f4743a2e624ddf16776e8ae0dfc5a6ba58, 27d9e7a8c64ea1f7725a298246a4f1a20f3f8b3a, f655b12e982cb2e50f9eaf88035d3e7cc9d0d1be, c694b4aa4e8f6c3843d5470289689f1f8d5b4105, 8cd5fef1a6b182978eda63a3e11afa8a9c8866e1, 94e61207144b3eda6c670630e4d2c65fde12bb1b, cd2647c029faeade4b272397908f235f4845b6cf, 9fd1d7db630719dcebac5892e850c2c5fa0a5842, 8acd9acb08944c92f34e264f7a744c160e1f3bf2, cfb28db00fef93c4899d9f290e2e4f364f28e2f7, 139ddd726a8f103a52e7f0096b8e470d2bee0160, 963d5c1a691fb3b78df4dab5826ca0f8e7dabcce, b334a048bf36091907e4525dca21675e5d377c62, 3561021a90ecd7ae24be7853c3c9c2d2817337b9, f3ea8f424fb79d3f0143ccde6e170965b23926be, b973b66890a3e365bebf558d92f64574885d7e0a, fa44ff693177485b5194ce03107aa462a0f95283, 496dae160730439f8e0ea81d599405b5e866d9e2, ed9328450ae3e85c7a494e6da0f4e0dff3a068a7, 76ab5b2efb7bebb50c8b3bcb916ea909e83eb29a, 86e52b0799f69a9a3c9c59eb84f7f925a88fd297, 6a5f448853e75bd9bcd04ebf56f5c4fa66d83efa, 5f324f73a00083ee67f6163fb2a8438088772b0f, 7becb0ac0ea6edd8f9303f19c3b9ca65dfb15851, df62b29f3ccc4bcc2676edece522d7d19bf73535, 7fb26c4390b316174fd0fe79de2c8177b74b2163, 288d20b6e83d0ca9f726a9f9578436416d3fd3e2, 4c9b45b9c8489cbc1c970f2e46fcf3a39135322e, 818167c565b7aa8c93f5e6cad582e57243615c6c, dcb490371196f8028c80f35b481a305b4ade9763, f472bfa661ababe84872cc5cfabe967c40463c9b]","25","9","9d393d0b594a7d473838fe5e72bae3663366c609","b7f4f81d289e027719feb579d0a601cbe44cd98e","aba29ea47917d99ffb7a31bc31bc2632352d72e4"
"https://github.com/diaspora/diaspora.git","2410","21","[6ff2bdd300c7b3f078b9ce2beac0cbd3f6497a75, e7828dcae88911d64afc64de5b5a5def33ea6003, 2ef56224be4aeb0e6444c466f138db2bb2ff04c9, 882c0c2170841eed108ba33a83cbf7c9d4b5910c, 32f1b6171981c4756a1220d962502870809eb60d, 71681d1bc7102668366f3c1802ecafa968cb2416, f6845c360f0a357c97e92e05f112d7fc102832ec, f859904c767aaf0fc7146824e2fc627227694844, 814eb7b426d71c7faf9ca224866b684a812480c9, 6b5928ca092f89d61278f4bf9f47beeb2b703d17, c8bc7349ad6a9b07e4c1bad4591f09c91b0aa1d8, 583dd20249f9c1592d230312c9d20e72679f5d96, 7994c4d43fd012e6d474512f1f3208fd4d69c50c, c0ea7054d69893701a07d275ffbd712436a78f86, 6cd9c9c2d012f06cc3b6c8321866de754a44c5df, 7d6129b7f38af1e5ac770f453320282644b99958, 5b0cae2bbdc0e5481c5bfc10bbcb420bdeea8638, dc46a3f79c20fa7ee8d226bed9bd521f787631ca, e2e2bdf69c83621ecd5fc3a7512a12d73b75cddd, 6ce1acd83bf1fb255377f59880b187cf24353c59, 43544a7beeaf90020337224b6ab5c2448b8dbf4c]","50","7","6ff2bdd300c7b3f078b9ce2beac0cbd3f6497a75","8bc67f983cd791e8799bc66b73f81769a29ca4b2","d226c32f75df1914635da97efe599f0887f94949"
"https://github.com/diaspora/diaspora.git","2414","20","[11d607d2b7684c4c7e98f18b1738ca98e8e63a94, fa58fbe272ea569b9ada773569645d09b2f227f9, b911047d7dac038a5a6c1fd5625fa41ef0c0d421, 58ca760a64d1a5fa56633ec30e6f97be37132052, 30a13674e83dd97c811b7f11656e16814fbc17a1, 75aa3f8f972d46d22afbcc87c0bee0c37b0fd299, 2185df3f520823d254338532315969083fb4e9e6, 3e2b30ec614bb0e063ccef1f8649e83abfb577d2, 513b2cb5bc727d81aa1afd13acb5e917ffbfa43b, d8d3996f753c79f2d118a832412defa6c8d4f957, 59e06584976af43e54b77c34d9a6407f38c9ffe9, fd8476fe9c82992095d19be1958765f27fb14cd1, db4150de8ddb98d408f53fbe27e7f67fe2217f93, d91ea4b9ce260e104138ecde83da96e846223256, 85e51a6dd779c324fe89943deaa130dd1f295e9e, f4bfa2276899f8d9323415650846117d22965dda, 0d0026539234b7d27a1b73737265d646fd45886a, 8c15ca2a4b63366784d89a291a43e7c09b84bf24, 8a5d76de21bc3fb0ceb597f375ede2844e01a17f, f98ff61e16a6dc97a1be3c2f1199d1416586384f]","26","1","11d607d2b7684c4c7e98f18b1738ca98e8e63a94","04b51cced8a4a0966d95d458380d37767881e4dd","43b504e6377b52aeca81443c11801679d2be5d2a"
"https://github.com/diaspora/diaspora.git","2418","14","[f9d88e122f0c171140283fcda57fed556d0ad959, f25707a58ee78310427665de06fb0995691e3572, 9672c272329d10a85a6cb56229379f73148b380d, 164b395f06739139145f35023d6c930c552894e3, 647bc585cc02a321e905c4b01901ae6b6b1fab76, 7c9eb065bae0bc03f0f3f5f26875dabb1e0c7398, 9562fb41a8cb227a83c673aa01bbc295aed9bdf8, 1ffb706946bb08da20878cc83c53a5b26649f1d7, 5f29b77b1fa54333de898f12a8b771bc05de40a4, b881d7b3dec39c3e1df577077b81c403b9e71e7c, d0fe59af697077d4c5d918836ada07f12cb270db, f5f78a977cc28933ad7f88293f18fb6d41f3f527, 00873cdc6a0d17027775b700f7db4597513470fb, c993ff2759397d91095540f336648ca36ba757f3]","8","4","f9d88e122f0c171140283fcda57fed556d0ad959","0b97a3525af268888c948f7b6c945ba378359431","be2ec463227df62a4a65af15bcb00c48c6f16c0f"
"https://github.com/diaspora/diaspora.git","2421","5","[be2ec463227df62a4a65af15bcb00c48c6f16c0f, eaa191515e52f50eeb64a0861685aed5a77d5519, 63c7634f6ae55f5cc49bbc4510a7f477f753e615, 5348c7220971e9f67956787546bec2a74cbbe037, 607013bc834b7af824ed9fd07c84c76f056aaa94]","3","1","be2ec463227df62a4a65af15bcb00c48c6f16c0f","d3a5bc1fb882aa50ac0c26a0bcf45e7b31da78bc","fd42629c0460c090ccadd399be693f14f2924cf9"
"https://github.com/diaspora/diaspora.git","2422","3","[34e90270aec266bd060f2151f76509fc36f32644, 27dcdf9a11c2c4d7d65b031d5c2ef8ffcf911213, 621075d4e15885ed1c0c797b1d9d35670003d19d]","5","1","34e90270aec266bd060f2151f76509fc36f32644","fd42629c0460c090ccadd399be693f14f2924cf9","a99d992706247893cd420e493edc8c12fbcdf3fa"
"https://github.com/diaspora/diaspora.git","2425","13","[6ac0a46120cd3f9d36f755194438a050e18f6811, 9760033fa5832cb630598d001453bf6076909615, 45491f06d5647d3b78943e3161417c0a6f21bfd8, cd2eb4292e0b6b9a5ba9ce6e14b7f9e3bf2e6fd5, 6bda512c021f3605f8c1a2477d3f5771d89805ad, aa5d5b560d7f048f2194b3e8ccb6353d06f6071e, 5c967050693bf3efda457e434f6d6660d49677a5, 772f69de2df479d13176b95388e05a8bf734a5c3, 44942036da7f0a4c32c4c537b2b26a3b4839a096, b27a8dd3304d18b0c22d93219e2828e61f4ee888, f8a968bf52ad2d8704463a2c8618063cf6255911, 6b73527379e5a7695643103d98d9e1f3987fe029, 68f15a8a34cc9611c51f1583edb470ca7048a209]","8","3","6ac0a46120cd3f9d36f755194438a050e18f6811","dfb4c9c920df26638436360f6d648048e916aa26","a6977c55a23fa56c232611e8841c1dae85c14f2d"
"https://github.com/diaspora/diaspora.git","2430","30","[e8c7b570a9c9f94375b10da257e33d4d5bd6612c, 5ae9edc72ea2a4202c6cbd4acdca0663377e77f7, 38624afd9cc24b88ee702d5fe6cdf768f737d2e6, 272ffc32d2f24b0474ed0eeabbd29003eb10115d, d2d205ee084d5fe379737370a7c0b3f0888d66a8, 42fcf3e394ccf8d89d1ed44f7a97254a77645a35, 7d662fcc928c79c1965941dfef2925e1348b8b20, f34f0ce5fbb112d473dc0f2730723c220380d00b, 64113eb8f2eca9ca1bc55e5621070c9d62f1ba4d, 2b2443b6b9eff02db612c9abe70ef9df6ba4d8ab, beb5380ada2257bd23473cdfdbfb55fd37ac1a3f, 51c7e879de1c6388e74a484ae1e12924cd11e432, 9b057bdf1669012d9976eab88deceae1f786bde9, 744ab579bde47890d864425ffd16088ff365ce63, 3b08fc8406f9b1b7fb4c6552c2fbe9ec8c60a4ab, ea357a96effb72bb271f229bb15916c5b292f0f6, 9d72247e9e06f2a146e84e11aaa46e9ba991fc75, 7acb48ff7a8c81eccb9c8b8784e8415967334c10, d972802142f7c6b2b807c75f38eecf0438deffaf, 91c9fffb81327fe8d095d6a8fd805d252eaaad72, f2f14c28949357617bf574ddba4287b064fc1d89, 6deb924c32151e6beea66cc51f36381f7124842b, 645af373580820dccb59297980327dc53b244f88, 9e3ff7338e344afbb26fe053cf6a3060f2b2d2e2, 00e561dd01e832200a85ec10f833ab274e9f5a27, ab3d220b57c48c51dd5a7f6f92ecdbc704dbf572, 8c586c4567c1e70d9629399948dac6768522c750, 78557c02e99db82bbfa6d83fa42ac6d1c15a96c1, 49bee9bf198ecdc4c209551232890b1fdbab086e, d36da2a266196a24a6f83fb5f0bffd9bfb9e5a50]","14","2","e8c7b570a9c9f94375b10da257e33d4d5bd6612c","74d00d7db4ad1c4097ed862276dc69d97e188383","f9172c87332fb34695eeb0ad4585608e27ec76b9"
"https://github.com/diaspora/diaspora.git","2431","3","[4f17dbf36ed97d1371337a81836244b79a70627c, 37c67c23cf21c8527534d1c77f54c5d8f507fc2b, 04786bc43ee6948f3f1e656eca39c687682524c1]","1","1","4f17dbf36ed97d1371337a81836244b79a70627c","e0ffd7c63e72128f4d3e30b796d7b57fdb5b07fe","6131d5d29dba3670df6ac196aa5c01ac01250437"
"https://github.com/diaspora/diaspora.git","2432","29","[f9172c87332fb34695eeb0ad4585608e27ec76b9, 675908a57d651bc7db3b74020405b8fc11f76133, a9263780ad266fe0fb8e2e49eee3ad98e83c2160, 1e1fe011e1746fe3c12436e5caca186eeb2828e3, afd1913de446a0cb111a251e68f706c2ee7ad2eb, b27b5dba1094ba3ff09b806d28e977c2568692e2, ce5c1ef0035512aee400212b68c9b59f03e67331, df86bc5799473deba6ee93b089728e0cc3254b90, 4bd1f0997d8001a9894b430fb87a668c024fd3a1, 131166841af72189f75fa17a43cad85eded3d23e, 95ad70932458bc103363b87c93dd9329cdf32c26, 049eb74ab28886dbe706295fda41289d0163009f, be00536810435e98d85bcdb48af93f99c63c7ffe, 6ffcec0885a29704e539c06426dee7475cf2e35a, a009c37d6fd8192de479518cd728ed5c9eb44a50, 720721633cc5e8c1c4f60cfca2db58cc72326242, 461cb221091f2080ea1301e7657345f9b002f87e, 494ab8b13b23dbfcfe6f234101333faf8e4cb104, faa04513808b08b79ab22dd609e323a875f53580, ff1cb665ed88dcdd90e3198611b75baa62ef0bbb, 2e96f0121e315c834ad678e2e27b467da7e4b311, f8c05851f62baeb1fa7c97e40d5ae5c5b9d0dc94, 4fb62afa2d5662f442588df2b0f244240f33c7bc, 386697f71106d9dbdc53280010f6eb341a905d6e, c98f2d166429129dbfe3c34c49ccf8ce431c85f0, 346e1f1c87653da9444f3dc1746f830ef322426d, 3e51fca9c002d41b120fa4c6a07a4d9ea32c36a5, 24be48d660a9d1498d7a109a3e6397ca3411e84c, 8187fb9ddb649b005936a228f670c205fdf4a673]","17","3","f9172c87332fb34695eeb0ad4585608e27ec76b9","e0ffd7c63e72128f4d3e30b796d7b57fdb5b07fe","70c2fda2ca1b9d9695c9220f0052a76702fb7d71"
"https://github.com/diaspora/diaspora.git","2433","6","[3a9d8f0f385e868235113423a9d4d53e79077d8a, 2cebfa54ccaf5c10bf83dff78f93b5f39c29b11e, 352be4d0c0f0c0d572039309db4c502038be4066, 41abb5790e86e909ccd026f1062a5a1f68fab22f, ed4b91249db2571319b326a022cb7574952cad35, 473642234dcc8f599e55b5a1c14faf27935cef5e]","6","1","3a9d8f0f385e868235113423a9d4d53e79077d8a","70c2fda2ca1b9d9695c9220f0052a76702fb7d71","18b1f360d889b5954d44a68f5490240bcb12defe"
"https://github.com/diaspora/diaspora.git","2487","3","[9d7b8d7f5db10bfb85201e1a9649d3d10e0f5b55, 98b71f92ab78a6f722eb6c738919a475bb3a34b4, 636f05bd3273dcdff2a272b799d1f8959c0ada4c]","2","1","9d7b8d7f5db10bfb85201e1a9649d3d10e0f5b55","00ffc996e4df023ba7097023cc36c78253f9ab54","f5fbaaadcf5d3c42167143b7598ff0c536b3706f"
