"REPO_URL","TASK_ID","#HASHES","HASHES","#PROD_FILES","#TEST_FILES","LAST"
"https://github.com/diaspora/diaspora.git","4","5","[e5ba9a1a4696f30ba4e6e51893dbdd5c1c0cccca, 4feab5219e7c9943a98512001e9080dc2937bbc3, 469983a6239da6f68d5d8160176bab25ffb38460, 6826e89a95f5ab6e3e6c0bffce0d68a1daf6594a, e04ddd0bccba2b54912af59ae27b88653f9d3ad0]","8","3","e5ba9a1a4696f30ba4e6e51893dbdd5c1c0cccca","4a22f08539369c68431a16215f11232550ea6d7f","4d02aee3759c5ae01d75bd0481cd1b4a06265432"
"https://github.com/diaspora/diaspora.git","5","2","[dc7c5ffef62a3baeeaf3bce726f156add1cd1694, 5aec9b966ca9e1b086922c2db0d06a44c8acd8a5]","24","4","dc7c5ffef62a3baeeaf3bce726f156add1cd1694","4a22f08539369c68431a16215f11232550ea6d7f","165b8f4f6e4e0a0c7a4577c1f3a9ffcb3d8a7a09"
"https://github.com/diaspora/diaspora.git","12","2","[54fd4846c0607ea1a3de07f65e9a39920cf4ba8a, ecda6eccf6b87a499960b8caf9d869b961132637]","3","1","54fd4846c0607ea1a3de07f65e9a39920cf4ba8a","d25d9f96f92261c7ae51013412239c3b06206d31","3c06bb2f4c1b2c8135a6f83359301ac0e117b93e"
"https://github.com/diaspora/diaspora.git","13","3","[3c06bb2f4c1b2c8135a6f83359301ac0e117b93e, ef137f09f2717b61970555c87c414aa367d9a1c4, 607659939d1113c2840e7b36eced7d6f0c6c637f]","2","2","3c06bb2f4c1b2c8135a6f83359301ac0e117b93e","d486fbce8cdfb70ddd30e6f0b7f8f0e07585bf1a","9d5b981809435b05b06e300a5495a71085e89882"
"https://github.com/diaspora/diaspora.git","14","1","[1da118780e3edb611c245819435c4149ba497119]","17","3","1da118780e3edb611c245819435c4149ba497119","f7103267a1100fe8931d075c4510fbdddd664c7d","ce597380e63b2b831162397acd1d3d73cd150ab1"
"https://github.com/diaspora/diaspora.git","15","1","[9d5b981809435b05b06e300a5495a71085e89882]","17","3","9d5b981809435b05b06e300a5495a71085e89882","f7103267a1100fe8931d075c4510fbdddd664c7d","3f74a759b3313a65fc00d2e9bc9368a4236ab0cb"
"https://github.com/diaspora/diaspora.git","31","2","[1edcb0013c067a5af94ad67e8c40ee03447b225d, 1925127964243c4dfea8e35bd17eaa45aedc8c6c]","3","1","1edcb0013c067a5af94ad67e8c40ee03447b225d","3ea4396ddb181c9eab4583c5bb31b7f0bc5bce82","654b52439798aa50c297e5566b4c0c1268119ea5"
"https://github.com/diaspora/diaspora.git","35","5","[efcaa860ace3a4ce444f3dbe3c63e0e65e0f1631, 3f700c3960e540fd24a332504b876c9ba4bee877, c8a1f308c6625e4a9ea10e99141a5d93940a7a0e, 6804132c1571d5e03cbc5ad6529bafbd8d28b827, 58d2ce7ba67ba4cc55b7dee6f1a4f3cad5a3b9bd]","3","1","efcaa860ace3a4ce444f3dbe3c63e0e65e0f1631","2b2852267af08b06bd2c7d8c78706d40577abcf8","a21cde4c0066f9a5338ba8fb906d979642a05333"
"https://github.com/diaspora/diaspora.git","38","7","[6185355e92f3aba30224738eb0f7b266a836bfa8, 09a8c84ae002c3b0fddddef068d35c0cef7cbe45, 5766a08b22fe8659d854acb8ea3da3dd266ce2d4, 440775f3b0cd87503ef5eceaac3c5c1df41ecfb2, 5ee85721f70abd4d32a6971905825b6617a77970, 6c2b3a7b11464710c142c2f6bee263ceff747438, 95032bae92861c9dc8b26d76125ac82c611f59d7]","9","2","6185355e92f3aba30224738eb0f7b266a836bfa8","5a0381f832f6caac8170e69a1c6faf988f6835d9","8e170ab976390def7200f8423cf5243c2d618459"
"https://github.com/diaspora/diaspora.git","54","1","[d8c1b4f4603aa39d4a6d1f9aff0b6c841c15cfde]","12","1","d8c1b4f4603aa39d4a6d1f9aff0b6c841c15cfde","2c8d75100cdded8f98c7811feb7980b7b9dcacf4","af3e2e6d5386e844497995c1b3d52684c12dba3e"
"https://github.com/diaspora/diaspora.git","79","4","[a7cc0645e08b18aed2af9b091387794637046613, 80dfdcd6afb600b400c7bccd427918658feebdf3, 6f812a5b8f20c04ba1a7aa01dcec13d2a07ac1af, 2e0b3826997221289ce64d826c7a921541d7732d]","6","1","a7cc0645e08b18aed2af9b091387794637046613","dcbdb69e22fa2260c3aeb7c886540b96326b9182","ac868c9c0621296da046f5aca2cd8ce29ac2d985"
"https://github.com/diaspora/diaspora.git","94","4","[42ceb8b3e36f88a04d18850d610abfc07ba13c31, 6a3d9ede5261c837e83f0a4f0d6f0b796bbb70c7, f5350e2df6b7d6072301cea6c0b7a1ae2e3d982c, 8680b24a2e0de4ffc80d2f551dc5516169c87417]","19","3","42ceb8b3e36f88a04d18850d610abfc07ba13c31","b7cd9d6238b7a62f0ca2e5bf940d02c491bad694","211e5cd1bc2900a337cc8fdf21fbe07702625bcc"
"https://github.com/diaspora/diaspora.git","104","6","[686310fb8e3514e5e827b272a4e44b14f5711ab7, e31ca1fd3b96e1a84927fc1f27b18ef3acf44cfc, 4aec9fbb42b06e9e7e78e4cab0675b033829c614, 01ae00451882aadaefd19941573755ef1e74fa13, 7d6623d069af2e6fe4f37d5d48c71c29683fa109, 4fa92c1823a0268dabf58c83c6e8438672e7a93c]","14","3","686310fb8e3514e5e827b272a4e44b14f5711ab7","66175f69089e5539e74b0be7ca4f2ed6a3477c91","9b83df9646156b2eccc12e388568f380612ba299"
"https://github.com/diaspora/diaspora.git","112","2","[d031375610c9dcde6a98f5c9b2f836c2edfe8f16, aadd64b0a5dec30f6d578fba907417f2c9373515]","12","1","d031375610c9dcde6a98f5c9b2f836c2edfe8f16","c7709e29f24c8d219ee09568b09ae753de9a5ca3","3bb6d6d67779e8005e52ddd3acc8571b471b9819"
"https://github.com/diaspora/diaspora.git","125","1","[d7abaaced03bccda8ef327bc278c4353730592ac]","2","1","d7abaaced03bccda8ef327bc278c4353730592ac","1903bfd3070dca97d9cca23cb47069b2cf1b2d39","03ee954c10867629c337d70bee31d31c2e8069fc"
"https://github.com/diaspora/diaspora.git","132","3","[1f3ad2fa659952ea84c70fd56cd9f2a967291690, aff4be882194463e20bfb40a26e6e1508fb7d05c, e0687e8de3f10ce44fe58ad0b39a417410fbf6e5]","22","2","1f3ad2fa659952ea84c70fd56cd9f2a967291690","a8fcbb3365de007eb75e38d88c0dd94309c6b68e","5e157dc9c3c73b47caf32ef85029ffdc7c82c6db"
"https://github.com/diaspora/diaspora.git","141","3","[0347507b2030e17889f90c810c3e224487beb9ef, d4e5d13a8fb9185be1a678fdc2e185573a7b6ee9, 497c647983c740544f6209925fa3b77fa2b76286]","3","1","0347507b2030e17889f90c810c3e224487beb9ef","13d24cc6113b6ab4a59401d742b6d761eb001b87","d150a6b2af1ecc857cd3565d332722849836ba45"
"https://github.com/diaspora/diaspora.git","142","1","[d150a6b2af1ecc857cd3565d332722849836ba45]","3","1","d150a6b2af1ecc857cd3565d332722849836ba45","e059b8ad4849922257fddefb6f909e1ef5e9cfc0","c135ace40710f3c4a9f87013496cc301e0ae1fef"
"https://github.com/diaspora/diaspora.git","155","2","[db95c94c97b77efe8a20097219ff99317a66ac6b, 783650e34c684f81c783205ac48e0ae2878309ed]","340","17","db95c94c97b77efe8a20097219ff99317a66ac6b","2ce7d59cb3081ce200e8a26ab1bc8f6f29f8a3f4","0f688b9d7317f06b22915ef4d968190f00500ae4"
"https://github.com/diaspora/diaspora.git","171","9","[ddaa6df0b4e9e5927c1dbcb8de9095d1ff110201, b77ecd482abe918ff2f65ca86e7b19a9d2dac01f, 473cc2518b599561e87cf35fa1cca30aef403759, 7457f254c1dc1cac905e311a6f5f27b0e9e09684, 9fa032e4c91710df072291a26b5344429fd69d65, 77296354852e9ee50b9a44659f68ad8ca728903f, caeaf23d4bc6b65533671c807d284781a9cf8703, 3df4749733cd7e2b225da5bee27ec50dfb96de93, b4e3f84607279438096b462b83749da9120bed03]","16","15","ddaa6df0b4e9e5927c1dbcb8de9095d1ff110201","94e904464f261816ca8480bdf7a35f6ecb8fa727","e31c5ff4dc117c6b37813c0e5521d9c319123c58"
"https://github.com/diaspora/diaspora.git","173","16","[d130697ce2578fd119bdeeabc8f4b9abc39a1db2, 02d9d350d9ea664e96059029ad6912adee19f37e, 48630b3a04707394f26a305ae2f212b44d6867bb, 666ada44f117f1a956694756b1adeed96208aa6e, 9d2763089d2796deb5a5d2388f0a92d13447761b, a358bf7b664ae25eae163641460f1c0795e3001b, 98cccda6eaa1e5c5204f301b656c422c456a95a4, 2bb7d4e0673675f65ecb9de81eccb76d7861c10d, 04035c3eb7e8f85ce5ebbf6b34fd9a4cb57b527a, 163ffdb19b134d54d446ec0a255994b9cf0f628b, cd09c75c50d6b4b344df80a5f44f3f69ef316346, 6d7ba96c4f403cef61f8ca8bbb81c09e8819d179, 634c13f967a329b3a186a14dee5c4983455e5cdf, e7cac2e4667ab6786fd67a8317c3ce78d7758ed4, 51152e140d0e5ad832555f5e157258232f0a6491, e36b59309f0f61954686878ccd32a6fa0e98e746]","14","2","d130697ce2578fd119bdeeabc8f4b9abc39a1db2","295bb15f73ba1854a56136b5cb1219717995576e","b556ad5211825cbc7fb711e6d0d3ca4e51666316"
"https://github.com/diaspora/diaspora.git","179","1","[7153df5c86a770776894a55c4c41973d043033ad]","173","12","7153df5c86a770776894a55c4c41973d043033ad","2f3ea8c397e84d01eaabec2bec79eb912b8defe8","bf47e1bc931eaa23bd98b2fb559e80a226f478d9"
"https://github.com/diaspora/diaspora.git","193","4","[b49b33675fc611b0d57606300b531d050b1335a9, cdc3084990c59c9b29ce00b71706f680673fa909, 2d06b2865fc3b97a06f0e7cb450c658f075168e0, a4d1ad160c76d79227e8bf7e33637084abd31bec]","1","1","b49b33675fc611b0d57606300b531d050b1335a9","f295da161354b097dde9f302c01d12066f4a9906","ecd4601bacd8b2e235a05ce6d713fe8cebe89562"
"https://github.com/diaspora/diaspora.git","204","52","[6b2c010ecc6f60da6ef193670e8701b3178f2a7d, c2526c6111ba0f78d8478997d1bf129e37a9352c, 62cb1f99cea3cf171057c5ca5fa794685e0ba1f0, 605e2925893fd34f24427b228c8fcbdfa1e1dd2e, 6b8c2ebe9f17fedcef7332371ffa6c62408cfc21, ec680962ee96627aac0cc9a11a14a6757d06509d, 50f1fd304fe6b9083a9a46b53af825bfff849130, 5b1be7d8dac07eb133250835bce12e36f8e4908a, ef70549832779dd901f365118a486060fcce249d, b61423750440f08f8c6a425ab2fb2692df8a7dc9, 1f272f530681d83b3ec8500656a493afe601115d, b203862ca3e748edb3a19446a8433568ea223aff, b80d324504efc2806d37c4217eaff8e9a39f057c, ff3bd1f59b037b44bc758caa71d1509795a0f537, 33e3e3a14deac5c29bbce3d84b1bf4248f79c67b, f4136d45599ee9a97031204a45cc739dbf527505, 29ab4d8242c2b7be45aeb6e83ae4f2a8d66320f6, 63e342e6c48e872cf25ecd5a1e11c7695fd8df43, d62772f9c0a37d796d0d27ae71d42407e130ddca, ca8974d4a0b0b0d7a0adae3463150b95ac65c3d6, b61536ff0654335b18d7ad261a2beb1b15682590, 77951c4657b98dd8d83aa456754de97ead0de429, 1adb4837ef5d7c5c594c2e70384d6e4e06966f53, 385ab76077ab6d9dd3adbf00b26bc743f7c4fbb7, 27f3b68f546f35a907f847970265952c66c7d0e7, 9626c77a1c77d571de31ac7d6c57146c98b2730c, 621fdda197ad66e433326682baf76473a39e33c2, 7c9590a27cfed609eb0b7b046905b4669e6738df, 2a6515fab911febca372af9d24164cbce2c1852a, 955ef43a0e8e7cad249826d5bfd83117ea0f6684, 5335ee86d61134ddc661a3b971b2658c60e85ca3, 4f5b1dd845273d2276cde530e8a7874501faa15a, d5f24021a7ccf503f6defb67750aeec4a12a0c94, 4bbc51bfb93c6e4b181f3bc216b65236ad102455, 150fea6edb73f06d96013b1538f6f71e8152b6bd, 80c241bc7a6b93279b0488ae623f93b381b2e714, b8ebb778bf03152ad27ec7bbe561e38ab318cafd, 2b911b0131a47ce5c44105256661c8506eedff4b, 8a5752dd6cffb34cff0e75e6e0e25cace12941f9, c38232193435711e7df919bc96e51ef10aceda8b, 6e4c5bae29abb73355d24f44c0219c402c137e11, e076910b74eeae20912dc662519b42932a7e50ae, b9d9a637396679d400b25f0bfebbee1d297ba623, ee9a299df6c31226c03e07b8ea2ab950d00d174b, d0b634852b440a8c3deac9734270d8577ef5a06b, eb19c327e27aefcc3afd4714f405631c49f56aeb, fe57bd88e85531b02d595a522dd12d3803483d9e, 4a9548ec1bc7c9f47324caf3a16f9323ca78dfd4, 3d7061b240d210278507bf3fdde66db0c8b60bd6, b711a8d4a1baefd9af0961e9be38bffb688f37a3, 45de17e1dec846a0073b99f91915f68ee91ce337, 922c3ab81abb47fe2656e446ae952d0f1930c765]","89","3","6b2c010ecc6f60da6ef193670e8701b3178f2a7d","dc92633dab68b376974aa9354bfdabb335be4285","53f05eff5acfae786bb79d849080524d43ba1752"
"https://github.com/diaspora/diaspora.git","209","13","[757a5fbd10da5e740b53c8cf5d46e8b2d65abf86, 39110c6b1b8741f24b830bb363531a58a36eeaa9, 8ce76882e3f1909ec542c4daaec26cdaaa927e79, 635a5c0564f33b49ca6ce562dbdc2e1425ea9b8e, 6995ca1fe3ebff453ac271d7b9d173621547b227, 9c40009ee17cc4d8303b7915963bb79c9a25d6ee, 91e0e131a5953472bea51d0a5d1bf952ffc1bb6d, 047bb607f33757968aef60cb79984e9281c42072, 0798bfbc8ca8eeb9e2c85e8d194855bf23fc9f81, b995dfd179a6ed804447f8b0edda3f674284ea95, 99570c9c079ba59d83a26dd0f01567b82eb83255, 569411acb86aedfff817adc0d95392ef328b004d, ae73294f41ded58e05fc49486135f524b869e726]","2","1","757a5fbd10da5e740b53c8cf5d46e8b2d65abf86","43bdebca741552ee9258b6f462e1eebdc049824f","9d2d20e85471ef5b13c591cc25e69bf583d8c49e"
"https://github.com/diaspora/diaspora.git","211","10","[9bcdc90cfd06248251639ee3a7dca027eea68488, 0a1b434607a42b1520cd19e6c500ba630cfc820e, d8398caf2e19999a10982ea7a2c554e8f2c26255, 7374661e2fac78b9e30c75fb39165ab65dfbee81, 1b1db3bb0ce4e186c9e2ff4ce8a335c59a518ead, 2c3f1163265c0dc19dcf83d13b485f6835c987e0, c63493b0d1a46f5482bdabf740fbd1efaf8c9134, c985af1f85b6fb38794c6ecdd245a736561588f3, fca6121c6a90b26db61aabf36b5d99d724bada9c, 7db4f825a6a7901a345e85fb0a1cda49722b922b]","21","1","9bcdc90cfd06248251639ee3a7dca027eea68488","9d2d20e85471ef5b13c591cc25e69bf583d8c49e","f83fb6f4c3a8fbbda3892a9a13c7c7fc746d99a3"
"https://github.com/diaspora/diaspora.git","231","2","[8bed8a84a336d51a7983636eab9670d85fdd1fc5, 0e8bb71449f2d8c8f8f442b778e2d3cc11d78cb5]","18","3","8bed8a84a336d51a7983636eab9670d85fdd1fc5","541dcbcd397554ca6cac10079af183ac7754fb81","e47895f3e1d3262580b2802a514d917d867a116c"
"https://github.com/diaspora/diaspora.git","235","12","[58aa59fb8e7e678c7129cbb974f6508a7da72587, 068acd93ceeab8e9cfec277db68a4f2455e57343, 0e13a316f6922eb88507fc68cfa2fc742b5e7378, ddda28102cd553b136a15654b4910bde3a9e8e96, ea9e50085df7ff6a57c5abaca2be1a855d9de59b, 07d0ed916dcaeeebfe38b5315f1d4160a449341c, 427aa8794e36c568caa5efc070864b45ab0d56e6, 2782edc780f9c737a6d5d459c51cc741ae632909, a7d97b7fd3f6f6455f8b04f4eea09b2c2d2ea623, 7bdf33e1a8cf961ad52bd5bed257ab1f35e1ae50, 5cb4c6e5df044eec6c5f49d16b1c3662671520ac, 276b640418f8cefb103d3e8003f4d264793bb35d]","17","1","58aa59fb8e7e678c7129cbb974f6508a7da72587","58609e42d70cde03c516192a3ddb8ffdee149d97","df1139234f5e43edf093f401660c8b627478d161"
"https://github.com/diaspora/diaspora.git","239","2","[7aadadce4484d2212994cfb314fdb64716dc8803, f59055860aa6d2e074136777eca1aa61aa9b1743]","6","2","7aadadce4484d2212994cfb314fdb64716dc8803","1751e21a87c1a4c7bcd5884ebac141d97a088052","0197cecaf89c93a16bd22096dfc224c98ac2d1ce"
"https://github.com/diaspora/diaspora.git","254","2","[91a9549c3d69f49f6bd8998334e83b99cf8c7d3d, 746cb8bfb8190b50a6da0b9ea03e8923be5377f5]","7","5","91a9549c3d69f49f6bd8998334e83b99cf8c7d3d","78c9cc57541cb88f558b72da6b216a39b79bb38b","3971a24d682bad183eccba98ec289712280ab59d"
