"REPO_URL","TASK_ID","#HASHES","HASHES","#PROD_FILES","#TEST_FILES","LAST"
"https://github.com/sharetribe/sharetribe.git","1322","5","[c0f786b8bfe01ee43453b7d6bab84ef39c9788e5, e31d55fe44ef2a535965547d5cad7f2fd40e72f5, d82ee4660e9b118720e86e05f6dffce604238e84, 26676a58da5b1184a29030e61d2fc533787343eb, ebfcd3b1e12fd4b52ad4360c9ade63298a2bf289]","22","9","c0f786b8bfe01ee43453b7d6bab84ef39c9788e5","934231e6dc758c5eef96c8a1d12ea3b0f18f1eab","8593a1ff0b636b6a7038e406602fc296f1c08882"
"https://github.com/sharetribe/sharetribe.git","1366","10","[6b47d47cd4be8eaba102d67813d72acb8def311c, 1a27ebfe8fad2a4393eae44f0f088ae11baa6986, 559776f2d9f7bb85cf9a0d1259f5ba4d6674ad98, 350a8fb0a30c8d32adf025601428c4a50c9f4a53, c9e1606a3efd958e26f0fae2d1072ca4cbfac514, 2dc45451ca79f93d93b1fe274d767a170b9c6147, 01490d75c7e0e33a765c433e91e6a68fe4798bdb, ed8bf86ffb1fc200847b8ba2bf3f0d963127ae8d, 4f9d2a71321834bf74d6603a69b8a70e021301c8, c53fe25b27340e90bbb6c8544b6fd4e3bef36ff6]","3","1","6b47d47cd4be8eaba102d67813d72acb8def311c","86ef04e2c0ccb8b2a9c641b3f84bbf894544b4c2","1c6e7dd697ac8bc3ffff0f5aa77d2d7f5219a60d"
"https://github.com/sharetribe/sharetribe.git","1367","2","[ca48a035d7a23676386105be6189857ccb0ecbec, 8ad1f244b3ac5efb87fb862e82c7e3f91d681c2f]","1","1","ca48a035d7a23676386105be6189857ccb0ecbec","86ef04e2c0ccb8b2a9c641b3f84bbf894544b4c2","1c6e7dd697ac8bc3ffff0f5aa77d2d7f5219a60d"
"https://github.com/sharetribe/sharetribe.git","1409","16","[819c0254da74813c56b496b56d488b062d0a41f6, 60a0fa5d5e73bd2d074eb71b92f11c79ee0588da, 249d4e8ddae89233e57b6125d49c2c2d3b285abf, ed08e52e6e6d84225acdfa231d2dfd703145f2fc, dd3d7bc1a0eaceebc398ec368eabc988ccfcdfc3, 4ebc6b44f23593d1edc487a126ff4355d1e8b328, 50931fd66c5ac745ebe508dc6779711213eb1870, e3b5741ae4e4239599c6369a5acd23977611503f, 63bab834cf210f6809ee9bfc12f9ecfbf8f19d5e, f3c70617d80d3c7594a836e2f2ce17ef6d45b91b, 24fdedb99916b0e557f71f1019e82168a6401605, bfb05d71f779f0fd5a2244017922e070dc6c4b5f, 223911e2c359079da55ca7ea2f5c2c38fac9990b, ea773039def720a946aadf31a7841507ddd3c055, dda5b25550d95cdbab735e4e4c3b25af4386a92c, 0ab9a59c419e0b7d5c5197cfd0793267e99ca8b5]","14","4","819c0254da74813c56b496b56d488b062d0a41f6","e42b3d0942c16ad743f33557977e5e006adaefc7","edc1d053e8ade657e4c977506ec874a46b340ef0"
"https://github.com/sharetribe/sharetribe.git","1431","4","[10842c700432ced6bf7769b070502625ebd28a23, 96117b4093750ce80d4625b6d7b807b0f9db921a, 97a934b2558e7b9da9ff7b90547650d729cd7f62, 7d53c721b6bcfbf0683029cebf5d4452a3b8c746]","2","2","10842c700432ced6bf7769b070502625ebd28a23","e23bb28952ed83a3446edf07444d5f5e45682380","633eef5c648e390480090f2966d5a1306fcdf25c"
"https://github.com/sharetribe/sharetribe.git","1439","6","[62bd3c2849511064b3e7ab6bf87bb944a3b61f2b, b891aebb853260f954cf42a8ee2bce4a5548b662, 4992a770b0f8419aeb993e4b393922fccf9e4456, 43fe845e8662015d7f0d0c4a89cf2fae5ee90c1b, d68eb620ce9690290715834ce54ce30219415526, d3be208be074c826b0ac9899053f18596ffe4e43]","6","1","62bd3c2849511064b3e7ab6bf87bb944a3b61f2b","46a4feefdeed3580f89eaa93b2c01d31164d8522","5ce0fc6d2e74f49d856082d05871c8724b5d4d5e"
"https://github.com/sharetribe/sharetribe.git","1468","11","[9185abb73be6a7d5df747b2897803d2ce31fba78, 879b7ac55c0018843fc984feca730427749399fb, 34c2faa651119d4ac2a6ed4ccfcd2285fd8dfb12, 43e615549e95d6ca45351cd7bded0335ad22f1c6, 507236c374374559786d354fae7a25c57337833b, 675631a5139ed1c76a6d55344ac01ad9e55c0de1, cd54e3916609d4154980aa62b8e4b36d9512238e, 14dba3dd10bb7863847fa0dc39c9b9a441fa74a5, 4176dfaf0265f30a908529c6c8a449c9f1d6670d, 302c94b58e38301c660ed3cdc2c449df0226dcea, 0234e17ac68db73654f2e62de0e1d616cccf2115]","5","1","9185abb73be6a7d5df747b2897803d2ce31fba78","322b087bb378c38aed84eaf73fffc0545819c937","8a835ad3b96ced1a0ec94558b7894d9e592307f5"
"https://github.com/sharetribe/sharetribe.git","1474","2","[66a04daef8a46f1c43df04f990f3f8ed63a44e4c, 6396aa17fd1afbf04b4d3210d8b6adb1ac267efa]","1","1","66a04daef8a46f1c43df04f990f3f8ed63a44e4c","445157a9ff004a401a687207cf73d386a1e9fb4d","c2841a8baf927c6ce63bfffd915ebd91a12d30eb"
"https://github.com/sharetribe/sharetribe.git","1535","20","[1012512f89668718246f80f7c07b8cd9aaf235e8, cae682771ad7228dbf85ffc4686fd5207f745752, d2f59fe6c3a379f48768d4ede95035fc86aa1ab1, f36a13018900ceb760b5be1725d1c67f3c1ad37d, aab2f6eaf158f4e79121bde85b59f27eb14b739c, 20d8ee3a3bd0833a557e8689c81d4acec1decb6b, eeb0eced6769516a52c7d878d111e7ec94b6a5d4, 8daabf2d2568fd499d75bf9768b6116e6f80029b, 3d0220e136a6573ef15917d5d4452c7abbae74f4, b9c0883dc7a54fe975cd55601cd5da7c8dd6df61, 4421bf47692c470b0d9bc1c48886e7e3f9dce3aa, 296d98e928bcac0edc2fbdd180550c37a8f2b238, f0f6608b933a2b73dafa0f0d0ba5cf866e2bc2ef, 8b148c8a4335b3514f81e3f8c5632047d1f57388, 91e527a84ca5b89ff00424206cbd49b762f2b1bc, c03b4f83588aa705aa3e53952ddb5b233adf0e93, 4bffe0b02400168ef286a3c977c1060d01712d46, f613a3a43d8cbe3b6b887d131ccddfbb6cdc8335, 17c2555dd8f21192cd82574d5344805aea59f799, 5821edc8d7bf261ecf9bcef1dbde94a9da3191a7]","6","3","1012512f89668718246f80f7c07b8cd9aaf235e8","e101499f13e0b3f3531ed7f6a72df608fd534c7c","f3473d8f2638912cc6825781d00914e4c2691789"
"https://github.com/sharetribe/sharetribe.git","1554","4","[ae4a059e57bf9a04ec7de49e21441777a0abcd84, 64a996a9138fc1bcf345493c34b9e90f183cf841, 79cf9947978edb6abc306c54cb7519fc120a3834, c18db1b2b57bb896172ceadd0359174b386e7cfb]","1","1","ae4a059e57bf9a04ec7de49e21441777a0abcd84","f6f1d038249f6c0f47ff389bd396f13ecc1faa76","72eb1acfcab86650066423de03dcd4118753d990"
"https://github.com/sharetribe/sharetribe.git","1566","21","[e46c89cad9cbb4b6690c2e3444d8217ab709d734, ab0aedc1d25224ee2687effe42f8cf2b0c2ce1f7, 2c16894e7281fb623b372f237af5db07bdda186f, 43302cca9500bc1555d4038c4c89cb29aad5f8dd, cce8735439d9499127ee25f89ef1a5d968e2f3f6, 377f8e1db7164acb0efb86e5432e7a733f80b1fa, e6d9142d851e2cdedc19f025f196b4b8ed9197f6, 72a908bafdd301f446444e8bbae2ec31ad764106, dc1cc4116a56547b3c739ec6036ca3b86c85505a, e488bd67e7525692a9feff2987e3810b09dda336, a6ad3b08f9c008629839f51cfe850b1d5117f0ea, a26de0fe66df791b2bdaf437ab241ae9dd4e0a3e, bdd6619d0b0b3368c1503ae981c67dba78bba310, bebd5cef2af0a2da71a445ba7f38caa63ded350f, 6862c0680ce4f99dadf539bd3bf9f2c71177755b, e3b3e0834530b3bbeae60814d64eb80246dbc8e5, b81b9addd46390fdd6b3b4242d1531678843fe56, 9c678834a9f584fe80e7ea3023222acaa6118377, 1aa9bb4f2ebce7a7f0cb62d349aa2d3d518ff102, aa101a65ac4c9e92faf737421bdb5522a94b996a, bc59f0ffd6d4de10af15d687ec592d1b346b189f]","21","3","e46c89cad9cbb4b6690c2e3444d8217ab709d734","1018e933171d4d1a1adf0089ccf109159008b331","035bf2078545b429f7f8d694bed7a5f534b07e92"
"https://github.com/sharetribe/sharetribe.git","1747","9","[ecc1d334f100631fe574084fc2452387f632a0ac, a9e52205967e6b1aee249f902edb90c8db9472de, d1c90e9df6848c7d3b709889150388503dc5c9c0, 9ed420eae951e9dbfd2248fddae9bc66f83bcd44, d52a47be21170e2e8af66ea9e312b7a3f46383bd, 0469f54e2967281e7e04d2aaed1a82282819ac2e, 94b99e73441e40325bfae8fdfd14831de52c03cf, 868f9053bb082003919ae3f674e575fc7a429c63, 2afb8352ba71bfd731c9e2796bb981ef9bed4c9f]","2","4","ecc1d334f100631fe574084fc2452387f632a0ac","113bcde9aaec47aebdc167818de1621ee8165ff2","a1738b831a7319ef11d2c8f6227d4df07150f2ad"
"https://github.com/sharetribe/sharetribe.git","1752","2","[120ac5fb884d326e6f70ae1653ecfccd66b24a41, f26b5e0629f03a79011bf571878bda8b15593783]","2","1","120ac5fb884d326e6f70ae1653ecfccd66b24a41","295f4346108a374ffb2ab58d0fa6b6b71ef492c2","978c6a9f634bd804332476767a1b542a21469a13"
"https://github.com/sharetribe/sharetribe.git","1772","2","[4e26be33aca8985a9f77137b318262b9d0e5b38f, 632471e0990824435e161f26754d1af984dfd135]","4","1","4e26be33aca8985a9f77137b318262b9d0e5b38f","ae74e1526ed83676d6d3898dcdb92e2c8bd3bbea","8fd97750dbf78892e8ca9091bf29eef97a91cc1b"
"https://github.com/sharetribe/sharetribe.git","1774","19","[dfae266779b7fecc309592d56962d5e14fb6615c, 902236343f589e155aabe878ea7aea6007b8cf2d, 229814baf0f09b350f41637dd530d2997d235cf7, 839e025c05453c799d20c12aeb32c78df33dd0ac, 1f6d1e24d4ee996b6707a7fe6a8379e335cc0840, be85be2427dcccb914d712896c9e0deee6accf6f, c74f163f9b58e555d4a8bdf592e14c4f3ecfa0ae, 28772b8b6de8d4c8ec6e72d3d7db74d0d06010cc, 4cccebff700ddf51cdb4b485966f1635fd9d02cf, f16bab05c5da88880e875a6a781c2b1bf0393906, 91afe8b369445a103b9e3db7c8635dd334e744d6, 5f1c3f19caf5ec02d781c60b0295a2a3197faeb5, 5539241d1ccc0506917458b13b20b56a02521ae4, dee793ad97a8bed4f65c6c275d04f4a8428a5d69, dc4543226231b0575e6f1d340dafc29beb726c92, c9659faaa6e0bb6452b115fe8ee347ae924c52a6, 1bf4d3ec9cda931c5dec70f9ab5d6a17efcf5c0b, 970e397f989d214c043e89a637ac37a020321012, cee79361a2a660f0877abd48bf3ae37d19b3ef68]","23","2","dfae266779b7fecc309592d56962d5e14fb6615c","be13219389d2c5d362ec38b3da07b44745c6ab25","6e65c32f8774c2a95a7db2b5dc02707a1f3ec5d6"
"https://github.com/sharetribe/sharetribe.git","1806","8","[064d5f226fcf7b4c8349f1172f978060ab47e76d, 3a704dd041a0b5ab24674dc91f54721a4551d371, 6623c2821c3ffe5e4019e18872905cb29667005a, 590eb68f4dcabaf79751daefe3a857cd7ea08ae4, 9d0bca28f0d08b22b58bdb2711c739cb389f4ba5, ac01cccf52980500347d050afd31cc2c327891e7, 8f936c3828ebeaa62d676a1e388ceedfdcaef65f, 9c4b7a017b01a386fa6f1f249b38475b1277282e]","29","4","064d5f226fcf7b4c8349f1172f978060ab47e76d","62d71ecf946dbce71c2473f463351e78754a82d6","8e0d382fbc296ee7013b24faaa8dc25b5ee9ef37"
"https://github.com/sharetribe/sharetribe.git","1832","4","[ae2d86621288ccebc0961566e64bd6793062fa13, ba63357954cc0e69251926d2dd7f5082aaf05dd2, 3fd68404362a6e1186528db213b271e3db2261a0, b7369f71284c016f0f90682ff943a495aff05b7e]","11","11","ae2d86621288ccebc0961566e64bd6793062fa13","6f60e9ad659efdf81edfb7946e5001d7e3745535","81207cca80fd21166f5c4f5c2f6ef88b494ca7c2"
"https://github.com/sharetribe/sharetribe.git","1910","27","[6185e072aea5bc9d0a9a7f499c91e6b9861cb609, f1182ec759a91305b7db6bc7f886196273b2ecff, cdca42626082d36b0c2fe210d4ba5e3dba6e1a8b, 96c0c66984fc8e9eaa603691daa6eda3d9d69aa1, 3de307439d58e09aed71a21b0b64f31a4b486f38, eb659c4dbb4cc265caf242b516ecb857f56d0c31, faa073d19b06ae9e2a800e29bc9a8b210faa366b, 2a19ec0a326556abeda823e6f5d49ddbf75b3c5c, 3402fa108542fcb1f16f992f95e0d7307ce4928a, f7709e5b7f0bb9a1ef9768bc3c2e8638995e46e8, 7e1367eda4e98ff34cde3327ef8afbe155f1b843, 5d4fcfc77fa478742729ecdfd76dafc66f5793a4, def2fe1ece1614432b5aea9345108a2d673a2f04, 9f204e876276e3c1b3ea74281bd3f51c3289273c, 733216b4e0353301b880d12a6098d06838c74f14, 15d432c9f69bb127f21410f3fa91e7595e2cd646, 37b47a280ddb952647cc27ba431083f7ab1d13ab, f3aec9b2024093f986d211dbd0a706e04875619b, 8aa46f0260feb43916d6a9cc596e88b194b85ae3, 1ae26727d8f1354aebf1fc547750dee81b137e45, 352b361b9cbace4a3443b578cd8452fd4a8b5582, d908ab691eb6133b9aa78e5dbaa36d2175a34620, 25904d5d07ea95aaa6031ebf7737fe846d3c8f18, 1df6da9150746dd23f616d562702b8e1ae606fc1, 60305edd422f55af68bfab417f3e7ca686bcf406, 7c609c223b6e1839b60361c5ee582b72d33c4a9d, 97c43a663c33062e3452ee4ddb2214cda1a45376]","12","1","6185e072aea5bc9d0a9a7f499c91e6b9861cb609","05a528a6040210726a4ca1275c41ee98653c48a1","c61a956a96d764bdc432b6499ca1483576125fb9"
"https://github.com/sharetribe/sharetribe.git","1917","3","[b976bb3a6a43be46e082bdd1daf073c5c8869519, cbe7cdbb8a0f10180b6dd14215ef14122c833f91, 6b7f5c52a9295a5552eccb230b01a0c9cfbe48c0]","2","1","b976bb3a6a43be46e082bdd1daf073c5c8869519","931b589c7df0aef6b94744cd5ba4c224f45189d7","3d045049be3b6fede39c5ea515c9120379bc8d4c"
"https://github.com/sharetribe/sharetribe.git","1923","54","[bec8b30472b116aa0c9e76e8aec23af3469e5baa, 6adce0ec8c3d7b32be9e946add08d29fc7e3e0fa, 8d23ca48754064ac76658b13e775f209923a0257, aadc7b6c951aa9c5325ed45fe52c69381d7e773d, bc1e551a77206e0c19ffe377a72d4de75088cec9, e4b15396560c9abc3f744015a8bf4e391868ae26, 62812cbb15b1538f9232e1df10e2eb7fbe6ba9b7, 127c6229787ee3ffde007433f3c82f55aeaf9eb4, 9564484afc01236aa6e666484408f6003f42c11d, 7c659055ea62d2f393ecc559a1d1da9963e86b8c, a470126f13d060cc65b39f4463d6d2309d296d14, 445dd8eaefcacc73846d66a8d75ec2c23657e63b, 410a99bc2c0481f26ed1f2e4328504dfeb5d44e7, 8f83a9a9332b4f8f46f3d1bc55f1da16246ad989, b4fbcb75712efa813d19860b97672bd51d763fc9, 7fee66085121608a4a0d4454b4320084527d8141, 74402c3f103e0580a0b16d3572874630a5b784fb, 7ddf61a38ba1a785ffd77d401553fecfcacb1659, 504420e0d834a356a200581b11aa981c0d3bc86a, 0dcbf8a3592c81e239e63e675dab8371302638f2, 0fb76ac6585353a3712bdfed01c299957109c532, 3bcbd5c472e75a6592a7ff1cb1c9290d459db722, 39ef3ea93753934e7f9cdca69d51ce47f86be3bb, 94df67e5eb5be01ecc26da94c0aaf0d52a709582, 8b1e460883bbd41fd7a1c05aa4e37b7142aae215, 0d89c1d79b9c8041773c04ce11e5401d48b445e5, 8b736b32a4ad87002e777a767fe1249d00df7ef5, 6b3b8dea7cfaec9221e45ff2103ea70fa6a4595b, c663d541823588f526e62c9f8a2e70940aaeb73d, a144938df1d8db8b8a732939e81d7b5c70f836ca, f6be92045f71dda5e5f84c55633eda316f235fcf, 9d47ad2383774487425008e6659e924537c342d0, c0beb10e9da05b9e3f9b5d4accbd7b700e44ec6c, eeffc72cfb1a2d34bb059dfccb9c1f437410f128, 57277227a56e33266848a35a195236a6850ec33e, d53fdfb7b3a35c753c1c462b18b89510b5c3dc37, 44c4fd0f6e237f242d7eb2598d02e87a4139c202, 79ead4ef0742c469f44d6fa1b9ae33f027dd3b55, 8b5991f4d6b4ce8a61a32f47f397e040707f70af, cf6287d9c4bbf309e00dc9b65a4ec58ba78b7889, 63d330c25d0b664238bb95e9ac619b8bcc4de8cd, 9a7b476da891c92cc5e8a09a88675e9dc2e892be, 7cc43edfe2b6b9b08d5267bff0db3ccf56a039a4, f30e77e86ae41d574482493374da334e4125319f, b5edbc0105830d2bed96130601b2399fc70df187, 0bfe06ad6caa98b5ce6485ed2832efd590b76ac1, 2ae7d0c55e94287dad3ba62d7bcaf8fe7d53bddb, 861789ace18d9a9e8bfa895acf0f9bff9ebbfda2, f55649bbdb9b14ae60d038b02c57144c26dd4cb3, 507db86443222112402675a0d055a8236e0e090a, 6e25fa972cab8312158e1b3072b62f43f1293f04, c2ba6ecc60f9b35a1ce4615d6304acb76d755ba7, 98e64fad67eac4f01f435168416cafe34776b651, da95311d6920f1fa300c0b34d25f5a1acaf71cd9]","29","4","bec8b30472b116aa0c9e76e8aec23af3469e5baa","f8a7ca29884f67e16c80eac02c7c61a025f070eb","a4af10af7a4d35bb6031e994ec8c9603c35e0694"
"https://github.com/sharetribe/sharetribe.git","1931","4","[cecfd4f945273ad1d3de06901876eb34267a2628, 4be299de1a00e668ff63d4b0f7e6a7ac48bb7af3, 34f06502ddbfd70ec8d4a1f131524d21500e8837, 5aae844eb6dd50424e746c6bf003c84fc9540358]","2","1","cecfd4f945273ad1d3de06901876eb34267a2628","025eeb218450d53f736b17dcb5885466ae49ca74","568eb65c23055efb443a3cd8002bff9d84e6e2c5"
"https://github.com/sharetribe/sharetribe.git","1938","20","[2053c63b976e5fcee347f2edd45ca10a34d65289, b5acac79ef0f22c0f8e5b05223e3d065c1e101ed, 4728618714bfd032854eebce501c0fb67b8f4049, eecbee3e023f6103cf0dd1d56c595e37108fc9f1, 34e472a9404d2128fb5feaf610cf0719e99cdf31, d86e32915dee80061759da01f5211dc976062648, 172d0e9098550e27749565684712272a958e5042, 92aab3f5e2a9f7fbe32bb2b1e2831d68f0382acb, 48abef599ef83a8c5e0da267185c96db80637831, 1da04d680fefbf43a0ce062b6bc1eabde68da222, 1de4fcd806c70a01d6a63c3b0dad8ace5f7d15e5, e9b010397f6f6914a9fd57eac077a8b4a6794f66, 36a2704cef7ec6e8aae591984271983d3f209e6f, a62460c95f863c9c2b9e5c1229e754eb5f2be1da, 039899a4e5d9ac6ce1bac7230b43b84d10fb8649, 0a1f34165dfc7ebcde1baf11de07975564cdd68f, 0997c5bd2073451625fff3b0aacbd38268e840f0, d8526af4780f550ef30b786130092ac2fc5ef0de, 8958ba5e0fce9429c50afc2a5118fd57a7215248, 77517e9c7fd08234b4c466e2181b723fb6e1d142]","8","2","2053c63b976e5fcee347f2edd45ca10a34d65289","329a97873d1f440435ca3b96ef93c37d3b86d46e","c700aeae963ec738873dae47bfde7ffca019f2cd"
"https://github.com/sharetribe/sharetribe.git","1940","9","[b826325b4baafa0992c980df2f499c698a4e76b5, 1868212d52564008c1d4b279a2f418e8c6bb4fba, 3793c296e9a61fbf372bd17a0dbf749379b6bf08, cfe64ade0ce056a971aeb82a7ca576756df268e0, bff13c41f0891a0d7277062e1279f06965ee58b9, dc3e3f4c863d4ed429c14c5f46066b526a0e8f49, 64a00b4f5338901e64672f8258d9b681b4a39c48, b1c318517ebc2cc797232b64ec81cbf4183eb26b, 1b6cb68cca1e0023a4692b4630d9867c525b3d5d]","5","1","b826325b4baafa0992c980df2f499c698a4e76b5","c700aeae963ec738873dae47bfde7ffca019f2cd","cd165df8b12338dd8397d2d37e66ae29236d7c18"
"https://github.com/sharetribe/sharetribe.git","1947","3","[2c5740bae51b5dd43b60027ef8534c19ebcd57e4, 7bf5f401642fbadcf5c4c2ea2d1528ef6295c232, 79cc7ef0fd340bcd98ffcd820bdf8e5f79c10bee]","1","1","2c5740bae51b5dd43b60027ef8534c19ebcd57e4","7a24f57c3587cab771748e9618636dd486a4706c","cb105726215aff1de20ea869178a47a5fa1823db"
"https://github.com/sharetribe/sharetribe.git","1948","32","[adf1fd66127cfc40b90243c379795569e24b17ae, a773632240a7c7e6973785545d518fbb633ed29f, 938027f7f4c169419a550f288236f5f033f7e406, c424e329795d8f0f62220fdf34a28a3650f9d750, 77791edb1649cc49656ae95611968676558eb0fb, 70b5a7fd7114fafa9aeaf1da79fb2f685dc88be6, 230acf9d70ef18ee18c6a731df423cd1bbd8a864, 893b947ce493bbc84e3b906f81cc8b5f0d27a004, 1ed5ef4101667e02ab5ddeb27633e9ac9f9b480b, da95e43399285e4dc87241c0bd7b1710611ad8b7, fe0048b67f3bd59eeb3a75a8a1562a323d565962, e65ae44ace49c65704c1ccdece2f9835ad397faa, 142bbe6865b1f9e71bdd1ed0011fafc6cc502547, 9646a95b360a9ef9086a334f16f608116c4ebafd, 1a8da8345fd76ce9b6a53cd60095b386c0dd8049, 8e2aded294d88c2e2fd7873076e52fe084d0ca6f, c374f01317c9ac2a25711d3fe8986f61a5318ffe, f4c975e252b9a1b83682d49350e4dc413fb57152, 64691411f841a10dc8010802e5b74104eff7bb37, c269691a237bf00e50f32fd12afa414dde6c6f7f, e9eab0196dedcf7e1d9fd257edc72a38e936dbda, 6b1a9d3cd6efcca05a26dc3499c80bd8bfca82f6, 5dc0a28c5e20778c0cb05b54e26846fe241c916a, e4712f14b99c6117bca239cdb01a3b2708a58d70, d12869720d7e995be30dfe64f4d5e8076e49b4c7, 5002b509db65c05f456a8d5460cf3fe5fe5aeaf2, 1abab32e925a8011b55dd2361469adcb38f9ebc6, f6c75d9e6149f6c591cee616340d8c5ac145c29d, b02d1733ae0f05baf7e5a1c7618bf00629d0e8f0, c52ed2e83e01009e3509b17c75dd7bdf91736edd, 95db7b4be3220062faaba28ca26f36581fdee71b, 5a4ddf68674cb0862089ed76ec5657e8a2bd7d34]","43","8","adf1fd66127cfc40b90243c379795569e24b17ae","7a24f57c3587cab771748e9618636dd486a4706c","4952279acb05c3dafa051f7831ee81b1f9b7d57a"
