"Repository","https://github.com/otwcode/otwarchive.git"
"TASK","HASH","RUBY","RAILS","COVERAGE","TESTS"
"2661","93340cacb34607cdbb047795ee74ee0d396a47f9","","3.0.4","","features/challenge_promptmeme.feature(7);features/challenge_promptmeme_springkink.feature(7);features/challenge_promptmeme_unlimited.feature(7)"
"2662","7ba3a58f1ed212d3e712a7e35b14baf60d02a089","","3.0.4","","features/admin_tasks.feature(255)"
"2664","110110499d10668f0df32667b7bd7d9787f72268","","3.0.4","","features/collection_anonymity.feature(310)"
"2666","4cb9a62ed93f12391ebdda18c14ea377c8bebf9c","","3.0.4","","features/challenge_promptmeme.feature(7)"
"2670","9c9db6edc33b4304308119ca0ca6431978b252f6","","3.0.4","","features/add_comment.feature(78)"
"2671","9b3b9ed1944dfb6eb8cf050fd29b63e9dd43e407","","3.0.4","","features/work_search.feature(9)"
"2673","448836ebb0b0eae4ad1e08413acb2632a71384a6","","3.0.4","","features/work_import.feature(147)"
"2675","b34982fa13802ef7b9c26bdbc187f7c42ad7738e","","3.0.4","","features/work_search.feature(9)"
"2678","8a12b437ac7d94fbc2b6f82e99f03ff4dbcc1766","","3.0.4","","features/authenticate_users.feature(5);features/authenticate_users.feature(68);features/authenticate_users.feature(80)"
"2686","e02a1a3ea71aaeda0a7703a7199c74a5012215c2","","3.0.4","","features/subscriptions.feature(14)"
"2688","0b87900593a6da684fdc658daf1c0cd2079f7f5b","","3.0.4","","features/challenge_promptmeme.feature(7);features/challenge_promptmeme_unlimited.feature(7)"
"2689","79045b9b4fcffde0c211e66bd1ad979d306c8207","","3.0.4","","features/subscriptions.feature(14)"
"2695","f060b28a30ed6d4d6e4565135e413b3980a82af9","","3.0.4","","features/subscriptions.feature(14)"
"2698","6e87362ed6dda9e4525d7c679378d7631fce5a6d","","3.0.4","","features/collection_anonymity.feature(7)"
"2705","35ba89eeb53630d37cb9e085d3efc873043a5039","","3.0.4","","features/chapter_edit.feature(7);features/subscriptions.feature(14);features/subscriptions.feature(35)"
"2708","945e02e9c9c497a83b71ad8c79c079141b50b2a8","","3.0.4","","features/challenge_promptmeme.feature(7);features/challenge_promptmeme_springkink.feature(7);features/challenge_promptmeme_unlimited.feature(7);features/challenge_promptmeme_posting_fills.feature(7)"
"2712","9e8ec184a3419ab4abbe40da5b8bc629710c85e1","","3.0.4","","features/skin.feature(209)"
"2713","058daaa9fb8f06b1ffb165c072938ce1812e58de","","3.0.3","","features/bookmark_create.feature(7);features/bookmark_create.feature(106)"
"2719","5e9f84cc8d7b2d2218d7b4d4ca0e75f4c7f2396b","","3.0.3","","features/work_create.feature(255);features/work_create.feature(267)"
"2728","eee06a62deab28319703ab4dca84244dc4671408","","3.0.3","","features/work_import_yt.feature(71)"
"2729","b7604837986889ddde8313c77d2427480c2ce824","","3.0.3","","features/work_import_yt.feature(7);features/work_import_yt.feature(39)"
