"REPO_URL","TASK_ID","#HASHES","HASHES","#PROD_FILES","#TEST_FILES","LAST"
"https://github.com/rapidftr/RapidFTR.git","109","2","[5ea0682ffb23fa944667f3e6261e5f01f1a11004, 1900bb5682d594bbbc8cf22ec407e0035400e0d8]","1","1","5ea0682ffb23fa944667f3e6261e5f01f1a11004","3b86e5dcebfdb53cd740ebf9f43d93528bc7823b","f5e61f1cdfabac8109af9d58015e7fe3fec6e592"
"https://github.com/rapidftr/RapidFTR.git","111","2","[f5e61f1cdfabac8109af9d58015e7fe3fec6e592, a50bae455e4531deba206bbf0a0f4a401d7901b9]","14","1","f5e61f1cdfabac8109af9d58015e7fe3fec6e592","72e0e443b6cc347596f7353e369c80e4226a587d","9025c01dbb370b799a41a0568ff2612ab6e8e006"
"https://github.com/rapidftr/RapidFTR.git","112","6","[9025c01dbb370b799a41a0568ff2612ab6e8e006, 4242114d6302ce6e275a2c35a65acb0a59858149, 84acf58099ec98070f0c627484c814a2021059d0, c0739fa98e0aad25a5f3bba69c6860022c4f3e74, 8dda13053c1669820826c674416678117e5a0ebb, 590576a186b0b57f34fc9c4660a0f2455e0fb5e4]","40","2","9025c01dbb370b799a41a0568ff2612ab6e8e006","6da0dacd848f65b766fce74985da8b9397aee4e7","4ce4716be290646fb48e080a292e37a0a10144c5"
"https://github.com/rapidftr/RapidFTR.git","113","125","[4ce4716be290646fb48e080a292e37a0a10144c5, c1559376b63728aa1f790eda862052d20e2e58b7, ec00e864a2ae95cb1b059c3f8335a5ca6f3279b5, 0d66eca71fdbe89cd00ce580d531a94a233f860d, c19285ce9cb2bea00a79f17974139b26d098b539, 59c9c56c9fe82d416c1d90de38b9769a8b535cd0, 96547c707f840422f0fab4d92ba48c3052575d38, b8a0a6963dc9534f1ad34f1a4b887eb62142e2cf, 5be896262e3e15b1418456880dc45ee7c40c34aa, e14d59828241dcf5bf983b71c0aedaf2dbfa7049, 0d63a276281ee1b2835df32ffd823af4e6b21f89, 8bc75f252bd1ee964a788b67b0f282543bd42931, 5e467269614b7844753809af422ed146c819e598, 834d7db2791ff78d026d609bc474cad1aa0b9d17, 29aa1ce42e74c11dfb5ffbe549fb60527a7265cb, 509c3bd8db558514a78535a1a4722abd5ec5b0f1, 4e961145f17bb9dcaead478c39b28b76e40eeaa4, ae6437124718fcba854745148871504cb6ba6f5d, 46cfe5500d65c485b3725b7ef4768c0ff44d8eba, 06aa537a823cc07520801c71a7898c0842e1de44, bdd6eb52588d3657116901ea2e5155d104b97294, ea61cb9cf404519ab485869da71a7072ebe4590b, c97b3222d2b733e4c29c218e6c82dd647c304df2, 44a778b8f88cb5473c59135fe5de70bc328d41c6, 8f62a0dc1b0fdc2324b4668b3773433a988b0c28, d28a870a0b41b461f282e979f0f6986fe8809ef5, eaaeeadc43934ba9f59619c9cf67ea8b1ed0016b, 34f396d9b3e2d70c89ea8c5e6c981b70a1dfc583, b8a70653d7cbb194d8c9fd355b3fd1eae9c5d456, d1399961fc00bc2ee224285d0df0f5bd27c85769, 8fa728de91e44f17feeac435fab9b99bdaac252b, adafeed4698c768912ea9015b0f208656dae3f32, cf10200a4b51421dba04726513746697d478d15e, dbcbdb2b5e5d5e61336a4fb3e37929239d7b70bf, c9a27f59e7c068638a01f90fa4ecd8785a92780b, e5ef263a8d1f5d58a7c2798efbdae9f311e0158d, 1dacd2551bd31f591fe18bd189ef262542de79be, 7272d1c2fed8fed85a86aaf7240a9663598bc4fb, 69178ed1e8e6c46486f72833e60e1b4ca08f40fe, 3b0d1bed049adce66548558999f4409a62835ea0, f77ff9f2d4af3f26e8cf99b73b9c227ec500cf30, d4757d47eef8affe2888241e25181cff75d6afa3, d38c06132c08b0ba5515c59980f5fb00f7f6d401, 2ad36d6506ae20b7c78bf19caaf8a59935406696, 5032a2a7b9ad2060041e81d0bae013297a909f0a, bf933abefd2cc8f3b412339fc8962cf30288c517, a6ed910db025beb2d48d716b93ead82b9227d21a, 18fa784c3ce5a989c3161c3dd85e9b986c195846, dc8c6df9ac84abbafff0e26f3b4712083a0c1ff4, 832aecc827de5f0d6c0408f93f486bf5e07ea4f8, 45b2135ca59310852e99321b444aa90d33a95071, 2f33f5c405f701470639df9d3fa57525fd091009, 3ef20e30552c366bd92f45ad82b2f711599931e3, 04ae8f9d0fc1e0ec72dfed8d7c680ab5365689ce, 14b3dbf0919be722846984356f1170fa656c345e, 9693870d89f7974ad0dc001ee32ee058f6b7c532, 94718a72d6ec01b3ebf07815521e7128cb7c5f7c, 49a33e968c1e07568b3cdfd78c1173888a837dd6, d196663048b9cc57eea2e3b2ae4f86159c205686, 20fcb24fd56974977ae70ca38f52f13a58e61d12, f8c8dad6dbe02f64d6afd15498cca60091033095, 51662d257b4beea20adcf4afc16fcffcd979181c, 8daedee2a2fcfc4c6b8d13217843a6769aaf22a8, 833b19c561ad7048ba4507235331a347acc503a6, 7e15d96c28a22197c558cd04d58d752a2e7d09d3, cac1cd77dbaa70a0e184e3009bc9a913d129bf23, 36efe9352fc122aa4e8958d5f7deb40e4cb0daad, ae5ecb8a281fb8e0942349334c8836e5cd48985b, a0678b25c1acf7c7ff8d2c4d613f150d4a34172c, 5bd71c5eac9f87a40c782b2aa8a4dc23cf36f13d, 34654276b94a966fafe572a13542e47c9e8b6733, 68d39e70ce83be933af26ae5f327ab70271b8f5d, ccb3eb66c6ad8c1a957fe883a680525c9d1727ff, 5533c54f6fb55f511d98b50b3bc89363c08de772, dadc2d54f83b795f80f37fa08ddb916a1a629a49, 89fbb6e877afa96d2a723d624410a7ce081fda51, 40f052a57b17dfea8d71b042b2c4005792246c02, 9d586b84c0aeccfc8358e59ec575f06bf34ff2f0, 3477fe52abfa5e5f861a6c44ace9b4c9def7e5eb, d73eb9bb51e9d3307b1731e689620d77c2dad47a, 0c42018d1b9623beb7f4617bbcdbb25fd43dcb26, 99b0a18a2e79898c209d3ec80d7dccb689421b80, b38225a0012a21f04054642df6bc30f3205e7e55, 9464c88e99fb4112268b2cb6ea1f924c4ff79394, 6729548f15edc0b77988e2ba53e4bd071b23bb0f, 1f819be85805ad288a9e8948f58c8407e0c4805d, 05bc5861a135cf6abb361982ad18323cf89e797e, 97773f87a63afded139e4908e3550de73e04081a, 09b203525645a2a83841b43d4f37196b657f864f, b0543804a41125ce79371fff22436f72d7e833c9, 35ec4cfa8dc0e90895b05327e6f4564263eb2ff2, 5e21b956ff6197de7fc8e08a6e818c378c5cc105, 817e63d4ee7de77cca0f7aa67d121cc2ea94399b, 4ddede95c17b8afe004042d126dd7a069f5808ef, f0bcc7762d811f7d1b38cffc677195994fa99f9e, dac2264acff4a7681b745d8577587974a3ec9fc7, 15fb4b8f7f6f1dbb6217b306ffd3a59a161121e6, aa23747f4df8b8ac9907ddb758c10f0beacee586, 847661bec8c0c4614ecd374f675bf4e3dedc38e8, 82357d2f701455b4706615b2ad3a720c5224c944, b228f4c5ec8cb93d1039d521e2aa52ad50f8f833, 93146589cf2f4ecde28f7ddcf867bf97d07486de, 702d9c9c89c60cef4222f8c9c8bb7ac200ad0f16, 9bed6b53be23c4a5e2580d7f46c2eec930c57acb, 0aa4cbb6f9eaa412f921ecd48f19d6bd216351d1, b340ff6c07847c4cb00bf61545734d8fd721cdb4, 5d362302a49ee83339ad5f34ee101cf157dcc3b5, b6b0e097cc2e7e4a0eab92931fc6285bce7c7aa8, 286b3ba9aedd1dbabe80d25dadc524246b8b90b0, c2a11c8ea028daf2b8bf6f3d6a64d799b70a21b2, 2d9a49b7e39627ec15ed4a253f3ebe167abe63b3, 8785eb2c75b8b623c68eca831af05704761a6865, 16954e03906676e04e70c2844e17231a1a93bd78, 4c3fd9b94b7929ad38ad603150555a526a246334, a75350a435fd9dd3347ec37afea3d9af1823f393, df47663c8947fc38c9bb57e01a80c586a07be957, d472ae60fa7786736768eeff4b438499bcde6ad9, ede425eeed47aacbe1690bb6ae18158ede634434, becdae4ccc80427a4c601107e4fac59cc5c708f7, 29a7067209f7999f7a0877cfc8f1f500c538f334, 16d61c7f752314ff0377a40a0ea8b5d3c5ce1123, 56c557994ab852ec9ffeedb14615bc5ef8fe0804, aa6608ecc8061a9b6f2268f6828ca7a0affe3775, be5e8dec1daa1adeea47e50bdc6ab5ca72d38b8c, 3ad6dc9bbf39e71a73d1d044ca8798c8e5b8c44b]","98","44","4ce4716be290646fb48e080a292e37a0a10144c5","bc8697771d999f46752c0904e2864fe74f8c491e","b798ada10de9ca6ebab83ec0a296404032fc0790"
"https://github.com/rapidftr/RapidFTR.git","974","1","[29b59732f6bdaa3b9cc4960a39f131153d65c565]","6","1","29b59732f6bdaa3b9cc4960a39f131153d65c565","45c9c6b59df52b3807566496475d72992c4aa852","3ab2efec2c4ad329882c8c0320c591dc5f78ef50"
"https://github.com/rapidftr/RapidFTR.git","985","1","[a70ba24b5d28fc7f6789076c6443e96b0758f333]","34","8","a70ba24b5d28fc7f6789076c6443e96b0758f333","24383113e26fd9be2440b504055069e3807519ca","3ca71256e54d7435a77e81cf108e147653851b0c"
"https://github.com/rapidftr/RapidFTR.git","990","1","[1798e6c535de8a23cd47a890baca27c84ff21bb9]","1","1","1798e6c535de8a23cd47a890baca27c84ff21bb9","4a2f1d759605fe514112687015e29cda98fd8c81","7d84b37f5ca3d024bd6234db454e757fc3ef15ee"
"https://github.com/rapidftr/RapidFTR.git","1003","1","[68ed8945b050d7776c2ce21d4176cbeafb815e89]","4","1","68ed8945b050d7776c2ce21d4176cbeafb815e89","e5b15acfbeeb810a09e6066ff83f2b3292b50181","9488ca6aa9a98b883141fbbe9e334c382c15e9d2"
"https://github.com/rapidftr/RapidFTR.git","1004","9","[64fff5e599c8c476e4c03804a19de6ddf41ddf5d, faa23d8b609938b7bbdb738c0cabe077927d4914, dda99ed01dd4d991ca4462340893a6cf1f83dc8d, 2062fefac0f3ca02bc345505bf248e064df671b7, d7762bf8cb612f75f8292d9e10289126f19e6d74, 56eab3a41d41ca66cad8403297982e9186679545, 3af2e3db0c6316eb3bc34565020b9aedd5639c46, 6c3aa9086a4eaf4f3b698a3aaa34f610da528704, d0827cb23c86e66c66c63f670b4d8481e8a292dd]","5","1","64fff5e599c8c476e4c03804a19de6ddf41ddf5d","e5b15acfbeeb810a09e6066ff83f2b3292b50181","98587eec69d0b1b2bdf734bec27268ba187deb77"
"https://github.com/rapidftr/RapidFTR.git","1009","2","[83d36d93a9849ed247219e4a0f80b012a293062e, 8ff9729bbb1afcb2aace7b0db305fedc08a9ac55]","2","1","83d36d93a9849ed247219e4a0f80b012a293062e","5966bd577209bff4f9355474f52b6306c7ae7154","00f8f26b31342341a2bc19fe662ab66edcf54383"
"https://github.com/rapidftr/RapidFTR.git","1010","1","[abd81abf4590076448fa96d65aba4f899bd7f117]","1","2","abd81abf4590076448fa96d65aba4f899bd7f117","4f5aada1557844ec3d77c2a30e9c5a907689f27b","76b94f5599d364edc6d8e16fee6edc3cdb98d70d"
"https://github.com/rapidftr/RapidFTR.git","1014","2","[d3bc64d82dfbc9f9f7ce42142c53bdffa65d402c, fef44aeeebe2d8587a30785c05238fbe95614c79]","6","1","d3bc64d82dfbc9f9f7ce42142c53bdffa65d402c","2df4cbcd5a27a7d9424dd2d049d5d209c1f99797","00f8f26b31342341a2bc19fe662ab66edcf54383"
"https://github.com/rapidftr/RapidFTR.git","1015","1","[be657cbf39483a39de5965741a1be87986e9d273]","4","1","be657cbf39483a39de5965741a1be87986e9d273","2df4cbcd5a27a7d9424dd2d049d5d209c1f99797","00f8f26b31342341a2bc19fe662ab66edcf54383"
"https://github.com/rapidftr/RapidFTR.git","1019","2","[067d3fded9927f371e81b0f50379b2b348501ff5, 106e711ff1ae3191cec713ccdb87872de83e2ee0]","1","1","067d3fded9927f371e81b0f50379b2b348501ff5","8296dea555d66759d3e369a08e15f51f14f65314","5ad4341d760d2ffb0a5f938ede7a92a8a440bdb9"
"https://github.com/rapidftr/RapidFTR.git","1030","3","[e02c904a0c99f83e12c69b095311cf5caa09198d, 180db01e17e4b63486193736df0b69fdf9dce4e1, 782ee35096fb88f329780caf10ff1b11f71cdd7b]","8","1","e02c904a0c99f83e12c69b095311cf5caa09198d","08926972ae532eefcd8075497ba0f30d36351a96","7ff49e39d981d11b9dfbfedd2d26bd18904f82ee"
"https://github.com/rapidftr/RapidFTR.git","1036","8","[9f10f8443901bbc0d2873a7717964666e40880e8, a11bf1cfaefa2f3681578dde67796d6893251091, c21ccef5eb8223109f45771205f93709e8397601, 4258614955c97dae23a59d80cc7b8527f6bd2711, 8c712512cca0c3d3ce80cce621f311ac99d4343d, 0dc548a55d816cdb1a430b9d85ab12a85ce11964, fdb4bfa3b5c6251fd7578b830c79db832f5ea7d6, 0f6e5f3abced30e222cb92d6af273b00e701e3d1]","4","1","9f10f8443901bbc0d2873a7717964666e40880e8","7c8ab5dfd0b028df3373db12374f0d6d64e44545","76150874d4ac1ce2bc76efd19eabce7ee86578da"
"https://github.com/rapidftr/RapidFTR.git","1039","1","[d32027070b5a27dc2670da025f94f9779ffd2546]","18","12","d32027070b5a27dc2670da025f94f9779ffd2546","76150874d4ac1ce2bc76efd19eabce7ee86578da","b0eca9a69c3d5dffa7fb4ac577d3d9b5b883b1e6"
"https://github.com/rapidftr/RapidFTR.git","1041","3","[2823a922941aa7a69c6047f00c5eb88b81bfba7c, 275410fc069cb0316c306b2e19d9459c5cde2efa, 30e15504d590f8a4846b20e31915c6d117953666]","3","1","2823a922941aa7a69c6047f00c5eb88b81bfba7c","9842fa2c5b14726903838ae489a6c10baed7ab14","42f818d6f9cc804aa8df7a7a3c9217cc14833557"
"https://github.com/rapidftr/RapidFTR.git","1046","2","[f4441ee913f3bcaf7d45db263c0cc7090596cde5, 9e4d4093ea28a6f613f2bdeabd240b7d805e19c6]","1","1","f4441ee913f3bcaf7d45db263c0cc7090596cde5","68efc41b69a5751c4110c2e50c4e700edcd7ad0f","b0eca9a69c3d5dffa7fb4ac577d3d9b5b883b1e6"
"https://github.com/rapidftr/RapidFTR.git","1051","1","[481199eac1915a6056cffa430659f5d5769db2d9]","1","1","481199eac1915a6056cffa430659f5d5769db2d9","de2f401942ef3757960ce0c7f40d205e0ea93da9","61b1e656352c82c1070ddf4fe26cc9d207943618"
"https://github.com/rapidftr/RapidFTR.git","1053","7","[95685b4d49155c3dcf062be34a5db192456ae0f4, b387832547e3a25e11ae5d20e351ab25fb6d45af, 46fa7db92d3d0666a58bd61ae080eb1d31a45082, 792b73078c69aca3ee5d69f53b867d3fb7aaea44, 727bf82eeccb545fa5333eb75a45a551d8c64a33, b49970ea8e1900fb4dbb9de320e91678511abc27, 5dcbaa84f00a5cd516c9b78854f7d4d133bc8b75]","5","1","95685b4d49155c3dcf062be34a5db192456ae0f4","4e94baf79f2e8722f8c61eeccf45c1ba6d20ef88","96ff2d64d5afe39a3743107b1d85b06b08c5b7da"
"https://github.com/rapidftr/RapidFTR.git","1054","1","[80e93a05b5413419ed414c28f843b982e4c678b3]","3","4","80e93a05b5413419ed414c28f843b982e4c678b3","18f8363632cbc6cb45e1aed01fee23c2206a3b2d","82f1f7355b2f481c81696f5eb88708ef93822e96"
"https://github.com/rapidftr/RapidFTR.git","1057","8","[77260aab257a54aabc4bdc394475a88fb0ab2e9a, c3dd3e19950bbfe848359c97db89146bacb3e552, 8526921156583eaeca3738351ff17f0cb20e52af, aebbab1c36da5d604af836a9c4786e6ebc699b78, bd963c20932786d7e226811d973a55ed5a694391, 95c7df3af92a36b0adecec340a7b98ac6ffc2711, 4a929e57656dd9236fa3bca8bd0d4dffceefda01, b5a1b7914018bce4620fcddf14c3a924f0011e8f]","3","3","77260aab257a54aabc4bdc394475a88fb0ab2e9a","e35412bf1cb1ec1dfea1d14105745993e4278c2f","82f1f7355b2f481c81696f5eb88708ef93822e96"
