"REPO_URL","TASK_ID","#HASHES","HASHES","#PROD_FILES","#TEST_FILES","LAST"
"https://github.com/rapidftr/RapidFTR.git","6","4","[91dfb189c27b4e88dab40b2eced86a56cc0d728d, 5c862a143d5fdb37aa606f55ba8cfebe4b098354, 389742508a69758e9936cbe8f5a33b940c9a15c0, 311ce186b589450153d42112361f34c156aa1597]","9","1","91dfb189c27b4e88dab40b2eced86a56cc0d728d","00ac416847b91a52387e3e1f03ec29a6be25597e","1123a5a9ebb9dd66ff2db1d6ba4f268b1330034d"
"https://github.com/rapidftr/RapidFTR.git","7","3","[25bb0f8564ad1a8619feb37a309c4a3c0d168257, 7974ce8068fa63cf2fe15134edc132d841f5bd9c, 6d188bdc2044e58164a97209d332fbe87586d3d5]","8","1","25bb0f8564ad1a8619feb37a309c4a3c0d168257","00ac416847b91a52387e3e1f03ec29a6be25597e","1123a5a9ebb9dd66ff2db1d6ba4f268b1330034d"
"https://github.com/rapidftr/RapidFTR.git","8","3","[2263fb2450b0e93c060337c0e93d98df77595c3f, 2f844ffaf3de1e95362ff5e6316db01b6a99dff9, 261b5e780d3e4b2b53121b98cd0f37e362306a70]","1","1","2263fb2450b0e93c060337c0e93d98df77595c3f","1123a5a9ebb9dd66ff2db1d6ba4f268b1330034d","600298063d12cbfae738192ea940504acce5405c"
"https://github.com/rapidftr/RapidFTR.git","21","14","[47a744758d0b607e1550abbcadb642de0df14a37, c1a64e93a57571685b42f0e0215fec42409002ed, 37d81d2a02bc0a82d8200803efe14ea60f167afd, b68b716378dd7726849e3371dd839df071dfbcd2, 3d2dec42bc36ef08ed0959be185f94100909d0e1, f693d6497eba8fbbd210dd410f6cca01396bdc31, 4af9475e54de2d5ee13e6249d3f336e30df457a4, e6350af559aeea05cf6075c0207eabfc8aa3c811, bc81bdf9a6fef2d72bba18378f1b4c7a258b1eb4, c8dd71903ba08d83003bd7fe8e835c0825b34b61, 58f23cbde90ca2dd2c0a39467db1818f9a30b3be, b14db379a33a5959d64c599f7c1a63580120a25e, ca9cc01a5d705c65165dca56f656a876418fbe05, 69650265248424b9e03702938c9e9046f83a688e]","9","3","47a744758d0b607e1550abbcadb642de0df14a37","d80b18d30157bfba0b50e7292af98bd6f9755866","06594f9d1856568d1265c456cf7992d578bda4b5"
"https://github.com/rapidftr/RapidFTR.git","30","4","[7ea8216e3af99dfdc190129dd626adc82194b1b8, 7c8f1cd0ce33d0964991f917ff9388c58afe27fc, f1739291197ffa7405613acfc2b45f375d311179, 33e36ae680a5bcd4c35438b4f2bef46a5eb8a515]","4","2","7ea8216e3af99dfdc190129dd626adc82194b1b8","12d619b16fc3ff5601c54622286f11b5283cdec2","f74c18f9074f6d5608199788ec69fec0e0d539ea"
"https://github.com/rapidftr/RapidFTR.git","36","2","[d80b23bfbbd7466dc0375e6c60cb785ca27f8429, 4f51399e6823cf3d6656310aa973cbb500708666]","3","2","d80b23bfbbd7466dc0375e6c60cb785ca27f8429","6be98d09d11be8ebb78e7649c93048ed3a5663ff","474534a07d3e66ebc01d6226c0f75723d5db04fc"
"https://github.com/rapidftr/RapidFTR.git","37","1","[474534a07d3e66ebc01d6226c0f75723d5db04fc]","7","2","474534a07d3e66ebc01d6226c0f75723d5db04fc","51a05de2a066641282fdda2718eb4756401d7db6","369a9dfad09d781f207b1d64441be35c5e038b2f"
"https://github.com/rapidftr/RapidFTR.git","49","6","[da9a55ea6611c4487833d750db730aef1fdd4943, 9af5094ba98c7da7c9e3c580ec21d38f64c32d00, 22f059ed40fe7403dd0640bea0ad3e9caa81d679, 9aa71f3fdfaa57edb063f1258c6480db3a22d874, 8b4dbdf33f18386c5cf59b07de151c035c45a412, d2f0b03ecca7241e01a1d436c607816c5e983c28]","14","2","da9a55ea6611c4487833d750db730aef1fdd4943","47376368dc82d5113bacb2a4b647227799216e2e","a445b832ce1b1549436b7cb1c44e3906be9a8b40"
"https://github.com/rapidftr/RapidFTR.git","53","3","[ddd26511b2dece96eb54ee1e6efa24a9414bc868, 18606a023d45585f1c66ecfecae9b025687adc32, f453342f16d334f760a93cbd7d573386fa979e8f]","5","1","ddd26511b2dece96eb54ee1e6efa24a9414bc868","fb31e4c690efa5ad02f3a7a24fd6e207af5d1f47","f46ffec46cc4488ae683c9b107c64da6a1cbd6fe"
"https://github.com/rapidftr/RapidFTR.git","62","1","[bf88b731cec52ec786b1d81bd7d5d1f498705fac]","10","2","bf88b731cec52ec786b1d81bd7d5d1f498705fac","fdf852315a687e628ea367edb43d2d8e5accd28b","0e8656daef4b588c595376e2fe06fc18c993b569"
"https://github.com/rapidftr/RapidFTR.git","64","10","[8800c1bc00e04504b70e5bbce9537d1af68ff3c2, f880080a59fb85c1ce3b47ccaff88099445bb4d7, 4c066338c03fa8932fd335f2d657d10fde638407, f8848000b3d90c87a7ceb7617257e4f475be011f, 9d000cd58c7f301a6dafa76da446cf4adc780dc9, 9fe8d88ba6449d81a9794f3283639b35eec40d6f, 87eaec776d69f35052240e06c1672342efaf266f, ce7b414f0b686d3bf9f0af66561ffd3bb26e76ff, 93e506ef6e4c79bba51e1e118bd2dad869c770d0, 91c5ae212ed42de7f06433df49c0939d846e95d7]","19","4","8800c1bc00e04504b70e5bbce9537d1af68ff3c2","0e8656daef4b588c595376e2fe06fc18c993b569","5045077a50f60a59562909a6bff85f96a20fecac"
"https://github.com/rapidftr/RapidFTR.git","76","2","[8d95275cf29340cda99da619779555ce05816517, 3d9a2232c4bd4f92ab779965bb6b886311e1a0ac]","5","2","8d95275cf29340cda99da619779555ce05816517","b408bb355c90ec2daf87c453fa2d3e32e63082c4","3e5c03e2c10f8f37db916fa3bfbf2079677e8719"
"https://github.com/rapidftr/RapidFTR.git","77","2","[7f3e38aab3ce502488dda1074a458d701b75fda8, 19a9796e5fc6173b09847da194da8e653c411ca8]","12","6","7f3e38aab3ce502488dda1074a458d701b75fda8","b408bb355c90ec2daf87c453fa2d3e32e63082c4","3e5c03e2c10f8f37db916fa3bfbf2079677e8719"
"https://github.com/rapidftr/RapidFTR.git","80","4","[af7d65ced62de49d7355011c64381640d187c915, 738485a0a2dfe2e712e10dff92e4fc1d745d7d67, 7b16e51fc7b87cd160249d96d0da090d4160eab8, 9cd1b6c00016dd746b43926f63fbd55f0116cb7e]","11","6","af7d65ced62de49d7355011c64381640d187c915","2e105ba83b0d559318db1e5881b7b1c2d41048f1","af2f68a09fc645b016438670dd412ce40d076167"
"https://github.com/rapidftr/RapidFTR.git","81","2","[899c80923c316a6b3f9f263018921789e8d1f0bf, 63a9bdc4e8a78af4dd482934f6d0ba39e15532a5]","10","1","899c80923c316a6b3f9f263018921789e8d1f0bf","2e105ba83b0d559318db1e5881b7b1c2d41048f1","0f64a2f9e2f886627e6f3562c7f26502bf0b025a"
"https://github.com/rapidftr/RapidFTR.git","86","5","[2cf9b459d25f308c2eca62fa9e8abbb6c5064f1c, 58ed30729617e95a40636a500879b1ddd05305f0, a3b9caa176b773aee50107dba47bc67f4c4e4603, d1a5b1418c7e22111662ad8823521533de8fcaf5, 432e45c7849c0b68b1ffe71bab5b78438226dd4e]","6","1","2cf9b459d25f308c2eca62fa9e8abbb6c5064f1c","2c9ce963ec63685580d1ca7f777641eec4a31bf4","d86edbaecf3bf922be388b569cc6806b400722a1"
"https://github.com/rapidftr/RapidFTR.git","92","1","[c8d9a81e31350641f1bf9a0a06ee59d836030660]","6","1","c8d9a81e31350641f1bf9a0a06ee59d836030660","7de882632afe3176381db770722360a04f5f6fd9","9cf0b3521b948698cac633d2441c1761a41004d9"
"https://github.com/rapidftr/RapidFTR.git","96","10","[6fb1c8f6662c36c42f424107c9461ba85f3e8dd2, c4323334a4a7cd48338091de4087707065df9ba1, 312df4d02b45bd7122b5c67f373824143b6c89f9, c9100d82b907e3f85037cb074e604a5759f80679, 261d958b4f95dac4606c062083fe2674cf3105b9, d5309ff3bf0df8e0559a0463d716591f6f142ad6, 50adb8b11edc44c49c5ebe36bd2dda13f5b6d0c2, 164d4e24f63b99b795b025387df9b5bf3c8f3fe5, 1f6e8184b83402cdac613d665860865fed8a4e48, 9e388885a27370d85c30e2f967487d074ae898ff]","6","1","6fb1c8f6662c36c42f424107c9461ba85f3e8dd2","c6926a96ebd1f84082cbda398ef20e745fc45f04","cbf65784245446705d8a36bf104dd359113df8aa"
"https://github.com/rapidftr/RapidFTR.git","97","1","[b21dad299d51749adeb3574535c5510dd872f22c]","6","5","b21dad299d51749adeb3574535c5510dd872f22c","32edb7e928ddbf24435a03b02758bab343322076","0d75c0427e9b3954d3e3a37b0d2ca110a61ad440"
"https://github.com/rapidftr/RapidFTR.git","103","14","[a97595964eca4210ae7573e9bd869ab2713e602c, 581e40562d1485cfc8971c52b80334455d4b3b90, 109c4a668b5cf632bdffab8d0ee66648f88a34ee, e15958ebc23a923c9e389c6c665600d34231aae5, 93b87236f42e4d286ebccd249f0a440bcff2083a, cf479591bcdfeeadf0db3db2878bcf57632c453e, 29b8f388beb8e30ca8055ae909216725d424b672, 9c3503a31889550d644e04507708d4db49d3f76e, 5a429d4ee1271ff2ec2e773bed60e2b71c46fb06, b6d6ad5d22b60b6406d214f19c5f4b2851bdefbf, bf40c3463743ed4618b333d190050cf46085e789, 0b1d60cbfe7f09c359852751335e738b1e4037bd, 366afa50f98429eb7fe611d3e6a1c102a66fe6be, fc2f1e82bba906703645953c5dca8fcaf426ea9b]","29","1","a97595964eca4210ae7573e9bd869ab2713e602c","e68730379ef70f4d669e422911726117ce0d60d4","544218a6d21c0bafd3869d285b4b2a6bd70d9784"
"https://github.com/rapidftr/RapidFTR.git","105","4","[b2422f48823beac9ee2be01ceadf20252c5eab9b, 84f3d15c2c478aecc964da2558ec945a13acf391, 01c5407585573745c66700ecf5eefdfa7de5a7b6, a2cbd1c2e6159ce492d6071bbd583c70fe37002f]","11","4","b2422f48823beac9ee2be01ceadf20252c5eab9b","544218a6d21c0bafd3869d285b4b2a6bd70d9784","c6f36d80cf85a631847c55da1948f74c0bc32876"
"https://github.com/rapidftr/RapidFTR.git","106","5","[78a9ed4d330bf22d21f6a25f8f198a91e8edcb69, ce270bb2d71edaec4b5fac9d2f189cd0f6691150, 65fe9ae60bf9d1a322e740ea6ea86ee2166c9235, 6a440a95fa3a323c7725e328f79b76f38cbf92af, 8c3ef8eddfaa5271dc0194ef7399ac747207859e]","4","1","78a9ed4d330bf22d21f6a25f8f198a91e8edcb69","6a13137e941f449cf5aee070ec26eea6721c3984","34585ea127d02d456d5298ec2e56b623bda4f317"
