"REPO_URL","TASK_ID","#HASHES","HASHES","#PROD_FILES","#TEST_FILES","LAST"
"https://github.com/TracksApp/tracks.git","84","6","[4ad65ea0791a15fee6a4a85c69595938def3fed7, 5173f949933ad925ec45ce5f9845ac81fb303fd3, 1dfdad96fe1bf0f47a3bbdf214f816896ad4346b, 73a69250549215a5b4ea5fafa13a904082cd9953, 836d790f9f50383a861b0127761df7cbe406f4b0, 14a4da8a71bb62e5303329b13baaef9a11c77509]","3","2","4ad65ea0791a15fee6a4a85c69595938def3fed7","018d901b4dc66bf233b3833a89d7cb5d68fda2e3","2f1d7a62b085a8a6ec3ac62859e33fe8e78de750"
"https://github.com/TracksApp/tracks.git","101","10","[42961e97014f100b4c691ddb28dcc39649fd1e0f, 357c281b9da1ad9831e969c85fb797aa901c09ef, e60c25f8a26c9c4760004573b357663863278092, 20b040b8b7e009d9a6503eebd2a57c1917999984, 9389fbef9ad4f9cdc5cb980af01a55b41f5ea655, 6a7af342b6193212cc791b0df1605634b32330b3, da7a97b9b51885c1e7dc039ee161e2085b751397, d9b78c4e1fb1ffeeca4e6e074a21475c2d013b62, fbb62fd36ef6fa00680ff73e1ffd69d180f2bdf9, 0f168b430e52ac7e02a1d8b434e97ee3e513396c]","3","1","42961e97014f100b4c691ddb28dcc39649fd1e0f","3468d1ec134ed276255b0dc58121cd8530253eb4","70e81b7782be0b62704d0ff46b02547df390204a"
"https://github.com/TracksApp/tracks.git","109","1","[336f19c4fe81b94ffa9b713318e6d003dc400ed6]","1","1","336f19c4fe81b94ffa9b713318e6d003dc400ed6","9a18705f70eafc6ac442713203e8b25d7285d61d","8a378aa2c40b5a469467a47fa3c704ae9e091ebf"
"https://github.com/TracksApp/tracks.git","136","4","[0b6bc291e0ae99bfe520fe2f6bb8a9014da7907f, ff27f769e96dbafadc4391910e5a66ecc0b2a37a, e5294f070f6e7b63b3ae9886e796ed8a0c849cfa, 2039ae05dba47515e23bbcc0988ae35a4ce956b4]","1","1","0b6bc291e0ae99bfe520fe2f6bb8a9014da7907f","2c36e22a18bd9fe2d92feac08cb717103927188e","8dd4970b0c47460ec6aa70ac1a8dd3b8b2d69d7a"
"https://github.com/TracksApp/tracks.git","141","6","[04fdf8c6201e9fed1b83496ffb63f72a44a64855, 0adad478578e4a9b3c8a0740895a873c88837227, 4ce7c6bcd4adc4d48fe1b2765945d1dd563d0db3, e7495e32b766dd9e251d083f27eb48115d41be62, 131053fc1f12c4159ac4e8b97cdcf5675e6fcfc2, 82ac4e22b0d5b362baf11286b883ab88068da41f]","2","1","04fdf8c6201e9fed1b83496ffb63f72a44a64855","ebec4f089d7212dae14f36fb525f23b6eaf5f61a","556c68c2e61ca0e504a33213435fcb6fdbeece80"
"https://github.com/TracksApp/tracks.git","148","13","[556c68c2e61ca0e504a33213435fcb6fdbeece80, aa14a8e8020c1f526af547ef822d26265e822660, 700305055f1bc1260ffd9b9fe2057fe4814b68a9, c129b8a06fe53eb06aaf3b37770b954487383500, c7c923a317dd7f1cf5f1518c7ce072ec505af025, 006c135a6450496f6dbfca99f81008e6380215b0, f3c36e6e046071c90ea6ebf8e61e727d781e4237, 502543f348e177d5b56eb9c38868a55c2925a947, eb1012f1f27490de6ddb6e71e5df36b5d0a6d02b, 12ee2ed5e35fb340234171d4fee49db1f2e0c625, 6017637abcf37e11cf5a8203182640ebe18ffb4e, 32b48df78f994c0b5018477a8bfdf808a3fcfc3b, cec2e535b289d709c66085f54b6e8cf167abf173]","4","2","556c68c2e61ca0e504a33213435fcb6fdbeece80","be18133e08677b581d8e63f19368bb6cc07cd053","9423cf4d14c80d2cda67919e0fb69945a70154bb"
"https://github.com/TracksApp/tracks.git","149","2","[1ed137afa98cba9b3a8e3c79718af1d7e4d4c370, bf8b118ebf0142a0abae7b13b1e852c349e35789]","1","1","1ed137afa98cba9b3a8e3c79718af1d7e4d4c370","55e28d90a9fb950b39df3d4b75859b936af4ff02","db62ebd0749f81ef934ce0e27a890a5404b08cb0"
"https://github.com/TracksApp/tracks.git","152","6","[319d4b00cdb75e94c8fa486c583622620d647e56, 403cc1015e379520fb2d7f0629698b053fac0677, 37485013a0e0a0b8b468598cfc53c015fbb3cec0, d08ffb3806081f849938d7c388855d3496b0e4fb, 1dc21daef27951a85cd8be79998df986b74b5043, 58fc98887e3edf0b6aa003a0e469a15045a157a7]","2","1","319d4b00cdb75e94c8fa486c583622620d647e56","82cabf8aeef641022d9003e34c4e6dc7e16dc363","db62ebd0749f81ef934ce0e27a890a5404b08cb0"
"https://github.com/TracksApp/tracks.git","155","2","[ca9a4a1f44597be602bee431b60850cd59da6596, e1ab067dbbb5ad0196b6de1ee2ef6c111df74617]","1","1","ca9a4a1f44597be602bee431b60850cd59da6596","5e8ce9f460626ad60a3d2e5d773c8f23e54c2de1","5718eac5c3b46be9e7b3f54790a92766517028fe"
"https://github.com/TracksApp/tracks.git","176","11","[3fc9173d54433ca4c7a767944edd6169ef6cda12, 38387c844d7ca3dd8bac4d4f20f34a418bef7573, 50b09811fc9f9521157f3d9408b4ba2dfbbaffc1, dbf1cb61ff4409dcf0a0eb3a1222a5d1239ef0e8, e0779a0b0738d514c893b4d2915e89bcfe8f280a, 737263d8663ac2646eaf704f53f0a2a2f66d5ef2, a1d3934bc6e0a45e81924953b8c0fa25589289ac, fd24dc83b129b66e2594dc2e7884faeef1c5f6d3, 2386e67dec6c862a3ba531eebc218e2da1f64831, d0cec167a81787c41b8c5d83b4e939005ad082f8, 7d7e47deffe6e0c628ccaa6f910750fab8040370]","4","1","3fc9173d54433ca4c7a767944edd6169ef6cda12","2820c423c79562803bf19835aba85d30bf13ce5b","782d94bdc9b96fc0686a382a021da731563761ac"
"https://github.com/TracksApp/tracks.git","207","7","[56b884055fcc2af8c07fe277e9fbd5c645e5ded7, 3a2af7caf2400110b131f3acc11a9aa9d9713271, be1a9528d502650134098510ee12d45581337f15, 7084c112631a08b248b1878dfb1a96e82280f1e1, 07de6a8358d517c053c971866a33e6b3ac929c41, 0a57a68a87b2d3e08a4191c42475fbf974a5303a, 591e20c9f17a7568113d9d6f3c960248b2a928ef]","11","6","56b884055fcc2af8c07fe277e9fbd5c645e5ded7","4a485558e221b4efa03ab36de2040e4baf3c2f4d","9c56416dcbeec1060d163b5a5610dff5f925c4cd"
"https://github.com/TracksApp/tracks.git","211","13","[671f64b419a12c1069417e0d13aa018471372b89, 049296fd33d7c7e757578e42a906aec0b229e740, 8ffacca3938cbceff3e4aca5850ce13ce2b4e1cf, 7465ecce26fe73c6629f5928d7b67c35781157fc, 08498fee4f9143940b556869b87ce13f48ee80ef, 80974fb0d5eef89d5e95f7d3ae2c0efa8c983041, 54b106d96b85c0ffdce95d8670d7a97c9c9e489f, 1234abb2667ea0a67aca8ef26f63f2d7c1f79d8b, cc21081d77c6fc34b7d9dd03f27d115796fae37a, cd689dc0e895ab672ced9c71759d037ee9e3686f, ebff4cfc0c7c5c68077f368c4659211aa1f13d2f, 0bc9b0397a144a10c99486f084519d2d9c946f22, 65859807ead1e0a8fb4eff572ee153eee80bd8dd]","19","2","671f64b419a12c1069417e0d13aa018471372b89","cb4c627153eb24397c0f616a6195683341167164","d1de2998deeefe7083d3ba11989933429161894d"
"https://github.com/TracksApp/tracks.git","219","9","[ee43ccbee6da3856b775b3daab99dbadc71ad4a8, 2596d612fa7d503d6c295b46417961ef160ac3f0, 85fc82d494cd6dae1860f30f3f7878de7a60941a, aac744e4111b638ac58f29adcaa7f350aa1cc35f, 0a9755c8a38d1291e57ebb1c4b186c92c4a1faca, ede898120c4823068bf4f6eeb8a48af6396ca6c0, 22b371ef8c63506aac1e1e42d2d28ae22d42ac37, f22dfc1f9b6c0fc025cf0dbf202ceacb671370ab, 55aa387ab919ba90319bf27ba25d4d5f2e4ed1be]","24","6","ee43ccbee6da3856b775b3daab99dbadc71ad4a8","0cd6656be276e6cd489ea1bf6bbd93704a764329","08cf7ca542d75acb80cf99942c5db2737be7c70c"
"https://github.com/TracksApp/tracks.git","266","19","[702c89e754fed0a5a333453c1486c0a1cc4ec43a, a37d10f57ac61452a796a4f51c918028882070b5, 881c83292b4df74f19dd39295add2ba678a349f6, 4e29bf69f709356e4b5d2f1ae8d5069f914232e4, e8c3ba2e284203846c2adee6fed613294784e763, 3a3a1ac22e5ba19e1cf2218ba7abc46bf4e40b05, 22e166c3703cd56b13191910f4a723d0a6952d22, 7c1cd2a144d22d157dc0f005e476caa6bc57a919, 5a24644aadeefd01f3a55d53f3296141f904e417, 6e1ad5e200364c22af31506c687796f4ac56303b, 0d854efbbb2e4559363fe1c9aeee353de636d912, 885ee7d1d16cb68d71a19e6c15eb5933722ae101, 80e47b94b09c62707b9463b6b0f59cb3929bbbc7, e03c52131421da6b6e29e4653d6f274e8eb9558d, 82bb67f518b5c5b5d244c9fa66cc6040251ab83a, 7d0c716366a0e38fc01f89b793ec886c35766e18, 9af3dee277bed75c189766b17fe64981e62329eb, f9dc8c6969e41682460c25d0225920c9b367e1b3, 48cc8740cb6e2906f533a2c7e0c78e7b6f268dc0]","15","2","702c89e754fed0a5a333453c1486c0a1cc4ec43a","66f0859e63ccf52544797ae4e9fb7138dfaf4d5b","23b92d853ad3d548cf44feb12f5809e3bf46534f"
"https://github.com/TracksApp/tracks.git","285","17","[e935066c183e1f5156d33edc29cabe5b2ca049a8, 8b13ee88abc832fd8171127bc279588374f0a160, b7ee2f79f5692fade4b724bfeef449370b1cd17b, 1bce9a670d6aa14d447b95841f6e98e73f33d53f, bc7bf459dba2e77ac929187b1c87fc2998bbbbd6, 7af2211479f80b58541fcb69936fd5ece4c5398a, 78a2bd7f49f66b40beb8552aa957a8c053a8485e, b948cc48b29f7985c521c400e86d7533a341d2bf, 2349bee53553c6111f3a30d8f3259d34bd83f27e, 80d8d2b67ab99293d5b3372ed430f568dcca5791, 61624ed45554f773811ec28d6edf1232db69942f, f74370aab51c569c46448d4dd868354854e89b4a, 4705aca8dc586243e5e7a1c80cf528de1bd87d21, 01f283bc31dc2e4d16c408ace569a7acd1cab27e, 250e1d8fccb968400eb9e76a1988ecfbf2755e1e, 27fb483485aea40f8da327f32f74542559a30efc, 99707d7a6959104c4151c8f971e15bbb69eceeba]","21","2","e935066c183e1f5156d33edc29cabe5b2ca049a8","8f5c04522e4624d541a176110ba1d877e70c36b5","1be7dab63114f9306d7368c0830ccd5394c8bf90"
"https://github.com/TracksApp/tracks.git","288","7","[f7faef3c91dc1e3e7eb08c6b1ace7e7d1dc3cb68, ff16cb30517393fe932963f2703ee409358692d6, e9277676b2a7627b1fa5ecb5710ffdd5700db1bf, c7cd46ee1d4dd9665f35fde48dedd3584775af2b, eaa4a46359fd5c889dddfc025afc036c478198df, 8ed13fc6c22b3955f1a4546697db863f9d4ef6e8, d0e72646610d589021959803529777684310b9d2]","2","2","f7faef3c91dc1e3e7eb08c6b1ace7e7d1dc3cb68","bd10e61dbd3597f99f28e1baed510eb646f20ca6","beb18ac1f4f574625774f7eae3746469cbe200d6"
"https://github.com/TracksApp/tracks.git","301","2","[b387b27f4a6f5009a2ad8c5d374261447686fc5a, 4d5a40c37677b3a2a06d7ed97caa6f6447bebef4]","1","1","b387b27f4a6f5009a2ad8c5d374261447686fc5a","98a69a523683e19d817fab99d03607d503ef1455","a7ce0733519ea44bffaaedb053bcbdfe28aff41d"
"https://github.com/TracksApp/tracks.git","326","13","[342b8ab4ef76606f7bb53d57a2378e6fe938583f, 97431324dba9bfdb41a6d982435f753fcb9d8465, db77225ff76e043d94b757bef3eeaa7f6ed605c6, ad1f3b58629610fb8d02b7ff70e9f42a3f976c34, 5d3829cfbfc0540b5713880adc640ec05d178a58, a11937788e355660af430d4d75db78a7905d1b8d, e221264e74ae2826f876ae08c0cf54ecde07f073, e5708f5ce75797465237face857aae1bbbe5d685, 8e23d1105400b67ee5f5c34fa7f5da13ae56daa2, 34e0573fc40a34e88b0ecbbf522f90b5f05b09d2, e7301608a64e7127aab92de013d8540f872ce195, 42437eadfa4b3efd253a859fb1fec94feccbe2ee, 95f0f7144140ab473cd1045276f97aa557caa82d]","3","1","342b8ab4ef76606f7bb53d57a2378e6fe938583f","50875cfa40b2dd32cfaa4878d79705a45cdc4026","0b88c72570efea336e00fa017a084c6463f2763c"
"https://github.com/TracksApp/tracks.git","328","2","[f1c40c559473762840c708ef5a1cd1b3dec42648, 55bf457740965a7032b9dbe4bbcbed6eb49cea7f]","1","1","f1c40c559473762840c708ef5a1cd1b3dec42648","0b88c72570efea336e00fa017a084c6463f2763c","5cbc0b26c8aa136252dfd948f9f3c45917b9f332"
"https://github.com/TracksApp/tracks.git","330","4","[40a7cc2d3a5e8fdbec17d5fb29d68c39b5ead1ab, 555311b681f5b6184edb009ea650d44032fb5bb7, 89ec9898a36d3599eaf7b1732fc0819d82f5ea8b, 977b57dbb29a25f53f5cbf2623aec165fa8551b3]","11","1","40a7cc2d3a5e8fdbec17d5fb29d68c39b5ead1ab","8e6699becb3962c50974c9eec7debe7e09e98431","3bf8c461f1ba51ac97679c62b87b29cf29c51353"
"https://github.com/TracksApp/tracks.git","335","10","[423926337d86a2fa77e9f33e01768b7a48fddf46, 4658ca865576e1a62d05dfcc3277695a53e085c0, cb58318858c5f3c81a672e3dfe82027f029af8d6, 539e18d87e1eb215f6463f783ea34042d78728db, c0115eacd77a99d3c49e09227866af19f425ea76, 1372bb110ea84119db1c18e38efdf3ec5fc16ee2, 52acf172705e947f2a930ae806b14285bbf4e1d6, c6e17602788a7ccd161eddd4ceb4d29ae346890c, e5b4797a8640dfbcffd7b95265abd81c2f09a6b4, 554bc210161f0162f68746b559024e86620ab311]","6","6","423926337d86a2fa77e9f33e01768b7a48fddf46","0a889177b9ca4e26630386906cb695c87afd4512","19f9cacd37309e45cd9f2bbf3d4e1cc87d7a115e"
"https://github.com/TracksApp/tracks.git","336","12","[19f9cacd37309e45cd9f2bbf3d4e1cc87d7a115e, d16fd9d3049f4dcf7b85436d51c6f67fd81626de, 7533ce6ab191d5999003bb2edd58916e27532753, 74a2b2a49fdd27e78e7748a887a4c139d0fcef28, 3116d46820208b97a8e2ce6b9d24e0e70e28318c, 6816ad7b05adbd3eee139d2b2379738c5405dae3, 2d53f0dec2bf0d33e4971444850b7fd3cd4bc218, 898dbe01c60be61da9ecb6d0528e00bcd43276ca, fed7483063c7d9534b7ba6929f4074d37593d39b, 00f3a258071f937d2294cb4c8ba8df1cf1ca6612, e0ca60f73f1725787761397ed61e973894c40833, 5535a5c9f0cdedadad0b0adaa739306536c57e73]","4","4","19f9cacd37309e45cd9f2bbf3d4e1cc87d7a115e","45654743d340c87e022bdd1ee7eae0aecf6aab03","c94d1f58b28cfb9f6554f162160ff7fd0f6699e6"
"https://github.com/TracksApp/tracks.git","337","51","[c94d1f58b28cfb9f6554f162160ff7fd0f6699e6, 7bb4a01f201d8c0435fee9443b7fdce80855ab70, e60c2c90380b800edee0248677807bbbc31bf589, 574aaa024d5311f290c587d9e6126cdb7a9b61b9, 23e04b78846b4d18f6f85ce945da10d99d95e5db, 5fdc5ae43657a3e215bfdf611a0c5967f838106a, 90d3211a4dfe269543007f5d9293cdc07973dc74, 8e0b1e4c2d1755aa45c4efad2e5f44a86d1f7955, 068c4bf60ee84e15cf9be7579ca0a47a34da5b30, 793f7786f168650780e134fc680d5bf505bf23aa, 6a9b3e28d5d42b1fb91846d6ba5eb4c800aa38b2, 70b2ee1e4f78ea7c7be585606bcd8ad510c41522, c368adaadc7986f5458c10dbb4c1246f6bb1852f, 2408ba43587a8cbbc0224871324f80adc0293301, 9f7d5f3cabf4139e4e465de353a4b41352a5067c, ea4b8e23f4d9b384f5d885929ede747f5b26fc83, db942c9457906fbb9638abf1dc98108bf5c94223, 9bc79bf80e0e8dba5752a95c0e8c356df0e466ea, 668ef4fb236d4db2234a1aabf496462d68664cbf, 75cf51927e241bc587d28b20ceabb2e2d9494677, b8484e48fe0def667189e76d9994d3d471767328, e5f30a58f8bf126437db9b8915b45b20b0e9f9e2, a1aedfb172f83b7ad76540d60f838a234e75dcb4, 3ac4c5c7d5cb4cc069acdc95db743ba6e30144c0, 1fff6824548c605429dc5b1dd123cf939374deeb, a59ede5aad7697ccb184da6a3e89246addfdfeff, 9accea5bf1a694543a3b91aa29cff335ddc0368f, b8da1326e089956c217712d07534690834cfa549, 7f43015cd30ceee5ea0e00e149ec14e68411ec79, 79673bc1abab89e52d30ee980f7ac2b96384b035, e427940a3253f975a5fe70eebbdb139627cd21a2, be71b4f58a7951460153a4c0c7a773e6faef0363, 36f007a08778b91bc6589881805ba522380dc5e8, b53fbc64dc101f8a423b2fd593de54fb8e6d9a41, e9d92438d6e3dfc0b3ac8a3cccef31669470e064, 4cca813bc76d60671c7d8b0dcdf1316c6256e953, da93b82b2b816bc5b028a517cfd4020ae52223d6, a3837cc4e355414ce16d7f3384ef8035ee37cb41, e84e899bef927197870ded7dc0b7f9b1db8b5900, f01860704945d4cc291acfefb286aaea71c5661d, 0335c2304da2197ad42886b3b90ecb0ad7863f97, 6214c9f6704ed0e239762ee32b1960deaa2b4f9f, 59556a0a4ac4b11a1796180ace24435615784817, 434bc40a7fb92878dfa7b8e4f5ca9337fa14298b, 1643a933119f3918e337336974381ee1b7542af9, 2444198674cedb9bba01fbb5dc564c529340d684, 1f67d2a603e7d4c6155deea5575d4e077d4fc907, 92fdef2b1ba1b77171572f0891e7d38c4cb0ab59, e0dae50dfa0d5bc6b8c3da3d40a44dfbe5296743, 197afc5f5b19f44e6a4ccbdeec6488680311c4ef, 0ae63015f293b16a7733d5daf27519719f49bf46]","22","9","c94d1f58b28cfb9f6554f162160ff7fd0f6699e6","10bdb8f7d8dd50d9246963d72db2f0a8df6ccdd2","222aef25b8698422a3314bd746569a60628feb9f"
