"REPO_URL","TASK_ID","#HASHES","HASHES","#PROD_FILES","#TEST_FILES","LAST","MERGE","BASE"
"https://github.com/jasnow/atlrug500.git","11","8","[34ae59067a29d4273b6c2f64060cf38a7774430d, 2586fd49163b61cdc35219d96f7f465a6166ef31, f4931ff67539ec90092b47fa6c9cf0144ed621ff, 28319abb61ec79f8469a28b0d3706cc6b4c34c84, e56984171c827a86792da3c058a107a29427f64e, 770092a9b982785b3dde45cab021f3c877c3aaa5, 206a61e788576b43a8cd391706fbd88735cb8cab, 1fd1cc9497b2c7654e734048c85dfb777b832d8a]","17","1","34ae59067a29d4273b6c2f64060cf38a7774430d","d13a29ff849070d497c1c4da46c283bc730ce5dc","da6da9a375a62ab81243f211f720b7f104b9597f"
"https://github.com/jasnow/atlrug500.git","17","3","[e5c7d04b503155bde9d3295c63b6d49cc6ad200b, 95248fad2f50d92688704c4787518fffc69724c8, 7a088fb45d3834e97cfcffdb5f8884a88655ef2d]","4","1","e5c7d04b503155bde9d3295c63b6d49cc6ad200b","cc76a6b4e2deb617bab7eb00bef54b0dac528aea","098d6e5245ad358d7cbd29abe5e75623cbec64d4"
"https://github.com/jasnow/atlrug500.git","18","20","[aa09992f76c48fd412887400abd18b1d3abd69fe, 5710c8a753f71fb8c6e206224e34999eccdba2f7, f557e41672dc30bf139d631c5b94792a0af209a8, a858456ef7eb3e16d0aa32ab1b9ef6a9fc2178d9, ee9532d46085b2b9f6adbb464f48f982806d93eb, 1f5684aa7b18cb747e8200624669be051a558215, fff3d7e2fea253fc011f4a307a5804ee85c7611b, dd156940eba70bf4828bd6892be5cc2d2cf46deb, b7e63ebbd0baf7c73001f451900e0790c310fcaa, 55c4eef7cd232702377d72862c895df39d1a81dc, 49efbeb47812a16bd2dcc3f0a44427203f68ae6a, 63ee1d27a02c680a7066d8943acf17d2402ee730, 07d928d86b737d0fcd0e9ecc7c97dfb2f2b90bfc, d16fdb006f72c9b4326249d979ee76c5f13d92e5, 510f3b838d23d4131dd04abd1e61ae262cf71cc6, 4a9465734b2020b5359649bf8e4946a80da7f03b, be007993bf585c405917c4808d8542730c852261, e061fa96b08f860a43403122029d382d1f92ff12, 3cf57502a80b7b65c920ac9f2ad96c2d0c419a6c, 815770305dd60055e93bd65439b7e6b4610efa23]","13","3","aa09992f76c48fd412887400abd18b1d3abd69fe","cc76a6b4e2deb617bab7eb00bef54b0dac528aea","098d6e5245ad358d7cbd29abe5e75623cbec64d4"
