Given /^a user with email "([^\"]*)"$/ do |email|
  user = Factory(:user, :email => email, :password => 'password',
                 :password_confirmation => 'password', :getting_started => false)
  user.aspects.create(:name => "Besties")
  user.aspects.create(:name => "Unicorns")
end
Given /^a user named "([^\"]*)" with email "([^\"]*)"$/ do |name, email|
  first, last = name.split
  username = "#{first}_#{last}" if first
  user = Factory(:user, :email => email, :password => 'password', :username => "#{first}_#{last}",
                 :password_confirmation => 'password', :getting_started => false)

  user.profile.update_attributes!(:first_name => first, :last_name => last) if first
  user.aspects.create!(:name => "Besties")
  user.aspects.create!(:name => "Unicorns")
end
Given /^a user with email "([^"]*)" is connected with "([^"]*)"$/ do |arg1, arg2|
  user1 = User.where(:email => arg1).first
  user2 = User.where(:email => arg2).first
  connect_users(user1, user1.aspects.where(:name => "Besties").first, user2, user2.aspects.where(:name => "Besties").first)
end
Then /^I should have (\d+) email delivery$/ do |n|
  ActionMailer::Base.deliveries.length.should == n.to_i
end
When /^"([^\"]+)" has posted a status message with a photo$/ do |email|
  user = User.find_for_database_authentication(:username => email)
  post = Factory(:status_message_with_photo, :text => "Look at this dog", :author => user.person)
  [post, post.photos.first].each do |p|
    user.add_to_streams(p, user.aspects)
    user.dispatch_post(p)
  end
end
Given /^"([^"]*)" has a public post with text "([^"]*)"$/ do |email, text|
  user = User.find_by_email(email)
  user.post(:status_message, :text => text, :public => true, :to => user.aspects)
end
When /^I sign in as "([^"]*)"$/ do |email|
  @me = User.find_by_email(email)
  @me.password ||= 'password'
  step 'I am signed in'
end
Given /^(?:|I )am on (.+)$/ do |page_name|
  visit path_to(page_name)
end
When /^(?:|I )go to (.+)$/ do |page_name|
  visit path_to(page_name)
end
When /^(?:|I )press "([^"]*)"(?: within "([^"]*)")?$/ do |button, selector|
  with_scope(selector) do
    silence_warnings { 
      sleep 1 if button == "Share"
      click_button(button) } # ruby 1.9 produces a warning about UTF8 from rack-util
  end
end
When /^(?:|I )fill in "([^"]*)" with "([^"]*)"(?: within "([^"]*)")?$/ do |field, value, selector|
  with_scope(selector) do
    fill_in(field, :with => value)
  end
end
Then /^(?:|I )should see "([^"]*)"(?: within "([^"]*)")?$/ do |text, selector|
  with_scope(selector) do
    if page.respond_to? :should
      page.should have_content(text)
    else
      assert page.has_content?(text)
    end
  end
end
Then /^(?:|I )should not see "([^"]*)"(?: within "([^"]*)")?$/ do |text, selector|
  with_scope(selector) do
    if page.respond_to? :should
      page.should have_no_content(text)
    else
      assert page.has_no_content?(text)
    end
  end
end
  def with_scope(locator)
    locator ? within(locator) { yield } : yield
  end
  def path_to(page_name)
    case page_name
      when /^the home(?: )?page$/
        multi_stream_path
      when /^step (\d)$/
        if $1.to_i == 1
          getting_started_path
        else
          getting_started_path(:step => $1)
        end
      when /^the tag page for "([^\"]*)"$/
        tag_path($1)
      when /^its ([\w ]+) page$/
        send("#{$1.gsub(/\W+/, '_')}_path", @it)
      when /^the ([\w ]+) page$/
        send("#{$1.gsub(/\W+/, '_')}_path")
      when /^my edit profile page$/
        edit_profile_path
      when /^my profile page$/
        person_path(@me.person)
      when /^my acceptance form page$/
        accept_user_invitation_path(:invitation_token => @me.invitation_token)
      when /^the requestors profile$/
        person_path(Request.where(:recipient_id => @me.person.id).first.sender)
      when /^"([^\"]*)"'s page$/
        person_path(User.find_by_email($1).person)
      when /^my account settings page$/
        edit_user_path
      when /^the photo page for "([^\"]*)"'s latest post$/
        photo_path(User.find_by_email($1).photos.last)
      when /^the photo page for "([^\"]*)"'s post "([^\"]*)"$/
        post_path(User.find_by_email($1).posts.find_by_text($2))
      when /^"(\/.*)"/
        $1
      else
        raise "Can't find mapping from \"#{page_name}\" to a path."
    end
  end
When /^I focus the comment field$/ do
  find("a.focus_comment_textarea").click
end
When /^(.*) in the header$/ do |action|
  within('header') do
    step action
  end
end
And /^I hover over the "([^"]+)"$/ do |element|
  page.execute_script("$(\"#{element}\").first().addClass('hover')")
end
When /^I click to delete the first comment$/ do
  page.execute_script('$(".comment").first().find(".comment_delete").click()')
end
And /^I preemptively confirm the alert$/ do
  page.evaluate_script("window.confirm = function() { return true; }")
end
When /^I wait for the ajax to finish$/ do
  wait_until(15) { evaluate_script("$.active") == 0 }
end
Then /^the notification dropdown should be visible$/ do
  find(:css, "#notification_dropdown").should be_visible
end
Given /^(?:I am signed in|I sign in)$/ do
  step %(I try to sign in)
  wait_until { page.has_content?("#{@me.first_name} #{@me.last_name}") }
end
When /^I try to sign in$/ do
  @me ||= Factory(:user_with_aspect, :getting_started => false)
  page.driver.visit(new_integration_sessions_path(:user_id => @me.id))
  step %(I press "Login")
  # To save time as compared to:
  #step %(I go to the new user session page)
  #step %(I fill in "Username" with "#{@me.username}")
  #step %(I fill in "Password" with "#{@me.password}")
  #step %(I press "Sign in")
end
When /^(?:|I )press "([^"]*)"(?: within "([^"]*)")?$/ do |button, selector|
  with_scope(selector) do
    silence_warnings { 
      sleep 1 if button == "Share"
      click_button(button) } # ruby 1.9 produces a warning about UTF8 from rack-util
  end
end
