"Repository","https://github.com/TracksApp/tracks.git"
"Precision mean (RT)","0.11111111109999999"
"Precision median (RT)","0.05555555555"
"Precision standard deviation (RT)","0.15713484024796373"
"Recall mean (RT)","0.375"
"Recall median (RT)","0.25"
"Recall standard deviation (RT)","0.47871355387816905"
"F2 mean (RT)","0.20979020978045382"
"F2 median (RT)","0.1923076922943787"
"F2 standard deviation (RT)","0.2439213232582142"
"Correlation #Test-Precision","0.27"
"Correlation #Test-Recall","0.82"
"Task","Dates","#Devs","#Commits","Hashes","#Gherkin_Tests","#Sted_defs","#TestI","#TaskI","TestI","TaskI","Precision","Recall","Rails","#visit_call","Lost_visit_call","#Views_TestI","#Code_View_Analysis","Code_View_Analysis","Methods_Unknown_Type","Renamed_Files","Deleted_Files","NotFound_Views","#NotFound_Views","Timestamp","Has_Merge","#FP","#FN","FP","FN","#Hits","Hits","f2"
"352","[03-05-2010, 05-05-2010]","1","2","[e1b52aeb13b11d0b4cb5905eee7fbf63789ecae8, 0d7980e87b6123aa040984daecbcc0e91c0c69c9]","4","4","18","2","[app/controllers/contexts_controller.rb, app/controllers/login_controller.rb, app/controllers/notes_controller.rb, app/controllers/recurring_todos_controller.rb, app/controllers/stats_controller.rb, app/controllers/todos_controller.rb, app/controllers/users_controller.rb, app/models/context.rb, app/models/project.rb, app/models/user.rb, app/views/contexts/index.html.erb, app/views/notes/index.html.erb, app/views/recurring_todos/_recurring_todo.html.erb, app/views/recurring_todos/_recurring_todo_form.erb, app/views/recurring_todos/index.html.erb, app/views/stats/index.html.erb, app/views/todos/index.html.erb, app/views/users/index.html.erb]","[app/controllers/login_controller.rb, app/controllers/users_controller.rb]","0.1111111111","1.0","","4","[]","8","14","[app/controllers/contexts_controller.rb, app/controllers/notes_controller.rb, app/controllers/recurring_todos_controller.rb, app/controllers/stats_controller.rb, app/controllers/todos_controller.rb, app/controllers/users_controller.rb, app/views/contexts/index.html.erb, app/views/notes/index.html.erb, app/views/recurring_todos/_recurring_todo.html.erb, app/views/recurring_todos/_recurring_todo_form.erb, app/views/recurring_todos/index.html.erb, app/views/stats/index.html.erb, app/views/todos/index.html.erb, app/views/users/index.html.erb]","[click_link, response, contain, assert_contain, current_url, select, compact, assert_equal, raise, selenium, click, selenium, is_visible, hashes, Factory, create_preference, each, be_nil, get_confirmation, is_element_present, wait_for, fill_in, click_button, response, contain, fill_in, click_button]","","[]","[app/views/contexts/_context.html.erb, app/views/contexts/_context_state_group.html.erb, app/views/notes/_notes.html.erb, app/views/shared/_add_new_item_form.html.erb, app/views/stats/_actions.html.erb, app/views/stats/_contexts.html.erb, app/views/stats/_projects.html.erb, app/views/stats/_tags.html.erb, app/views/stats/_totals.html.erb, app/views/todos/_completed.html.erb, login, signup]","12","2.270 seconds","false","16","0","[app/controllers/contexts_controller.rb, app/controllers/notes_controller.rb, app/controllers/recurring_todos_controller.rb, app/controllers/stats_controller.rb, app/controllers/todos_controller.rb, app/models/context.rb, app/models/project.rb, app/models/user.rb, app/views/contexts/index.html.erb, app/views/notes/index.html.erb, app/views/recurring_todos/_recurring_todo.html.erb, app/views/recurring_todos/_recurring_todo_form.erb, app/views/recurring_todos/index.html.erb, app/views/stats/index.html.erb, app/views/todos/index.html.erb, app/views/users/index.html.erb]","[]","2","[app/controllers/login_controller.rb, app/controllers/users_controller.rb]","0.3846153845887574"
"338","[11-02-2011, 12-02-2011, 13-02-2011, 14-02-2011]","3","14","[222aef25b8698422a3314bd746569a60628feb9f, c79cb5dfde3d6de7725f4f1636f59366f49c0ab1, 11626feb914019f1e920a27f6eb5ef1b654324e1, 11d40fb48b700ac16aeb11696014e725b836d142, 117d7c9e5048e0762dee7e3af642ebd09a49d545, 48d9e49482282da7904bcedf1e5cbe3c17857321, 69ab625c7027453890eb171fc275053b09c4e6e0, 24ef0ced325617e8a04530388ea21375c6904efb, e278e3d5ce39c0f8ce9a4483a683da6135c19df7, 0207b3b949770a69643669b103e1dee60fecdda9, b683c74efd002f5b71c34e9a9d8e00b0315dea97, 0d28115d18d5d10980729c2faf7e3483e97eefc6, 736224aadbb05eee6db7b69266e136fdfe06f927, 6d66406d8c0e947c1878a8fa95bf6d6e47ba665f]","1","1","3","6","[app/models/context.rb, app/models/project.rb, app/models/user.rb]","[app/controllers/contexts_controller.rb, app/controllers/preferences_controller.rb, app/controllers/todos_controller.rb, app/helpers/application_helper.rb, app/views/layouts/standard.html.erb, app/views/preferences/index.html.erb]","0.0","0.0","","2","[]","0","0","[]","[fill_in, uncheck, click_button, response, selenium, wait_for_page_to_load, contain, contexts, create!, to_i, todos, complete!, downto, response, contain, assert_contain, hashes, Factory, create_preference, each]","","[]","[login]","1","0.908 seconds","false","3","6","[app/models/context.rb, app/models/project.rb, app/models/user.rb]","[app/controllers/contexts_controller.rb, app/controllers/preferences_controller.rb, app/controllers/todos_controller.rb, app/helpers/application_helper.rb, app/views/layouts/standard.html.erb, app/views/preferences/index.html.erb]","0","[]","0.0"
"345","[06-08-2010, 11-08-2010, 12-08-2010]","1","6","[87bb15460e018245008c3924073afc071b4f712c, d66ed1282d29bf211f2d666070632062600ed3aa, 084dc26e73c50b9053e627440df94fdbd16e6567, 932be0829ba98f336fbcbef21be564201cf49028, e329e97cba596780d2557572076445fd8edb081f, 493ba616bed63341a45f758d4eb2c8207ec2d596]","1","4","6","4","[app/controllers/projects_controller.rb, app/models/context.rb, app/models/project.rb, app/models/todo.rb, app/models/user.rb, app/views/projects/show.html.erb]","[app/controllers/projects_controller.rb, app/controllers/todos_controller.rb, app/helpers/todos_helper.rb, app/models/todo.rb]","0.3333333333","0.5","","2","[]","1","2","[app/controllers/projects_controller.rb, app/views/projects/show.html.erb]","[login, be_nil, hashes, contexts, find_by_name, todos, create!, each, selenium, drag_and_drop_to_object, wait_for_element, todos, find_by_description, be_nil, click, fill_in, selenium, id, is_visible, todos, find_by_description, be_nil, pending_successors, projects, Factory, create_preference, fill_in, click_button, response, selenium, wait_for_page_to_load, contain]","","[]","[app/views/notes/_notes_summary.html.erb, app/views/projects/_project.html.erb, app/views/shared/_add_new_item_form.html.erb, app/views/shared/_empty.html.erb, app/views/todos/_completed.html.erb, app/views/todos/_deferred.html.erb, login]","7","2.000 seconds","false","4","2","[app/models/context.rb, app/models/project.rb, app/models/user.rb, app/views/projects/show.html.erb]","[app/controllers/todos_controller.rb, app/helpers/todos_helper.rb]","2","[app/controllers/projects_controller.rb, app/models/todo.rb]","0.4545454545330579"
"359","[09-03-2010, 14-03-2010, 20-03-2010, 24-03-2010, 25-03-2010]","3","15","[3146fa6bd1d7898684cc50a83d19e1c6ebe28ce4, 4f66e463bd20f7a07811b4e5ecca2df7b2b075b1, 3c82b8872043c6da79e086501deee337ebaa45a9, d8c477eb54680f85ae4a1e45585337a148263cd5, 025cfa2686fc786c00ce3e7f2e570cc6c13fefeb, 8dbf790810e8f2b91e6f20d3897d9f32fb801ef7, 238bf97a2743d912a2d59bf94fb40ee048e0e07c, 35e15d660873c4650b90ccbe14062c1db9454b8c, 8b642e6b91b1d8d9c4d8230a6253dbba4760fca0, 25f0f3dfd949ed3c90135ffdbbfbc27f6074d270, a0d12c95e9760919f2dfe9f40bc3de72fc7d68d4, b35b48f2bfa0e358943c541e5dc8d87e7f848139, a2f8327da4064cf5a74f8e5c3bd30b8390dd34e7, 2b7d5e7a89435f27190087e83daf514dc5a08050, fe978e350ed92ec67df365cebb15f10ca692ce78]","1","4","6","5","[app/controllers/projects_controller.rb, app/models/context.rb, app/models/project.rb, app/models/todo.rb, app/models/user.rb, app/views/projects/show.html.erb]","[app/controllers/todos_controller.rb, app/helpers/todos_helper.rb, app/views/integrations/index.html.erb, app/views/layouts/standard.html.erb, app/views/todos/calendar.html.erb]","0.0","0.0","","2","[]","1","2","[app/controllers/projects_controller.rb, app/views/projects/show.html.erb]","[be_nil, projects, create!, be_nil, click_link, fill_in, click_button, response, have_xpath, selenium, get_text, hashes, Factory, create_preference, each, fill_in, click_button, response, contain, selenium, get_eval, drag_and_drop_to_object, wait_for_element]","","[]","[app/views/notes/_notes_summary.html.erb, app/views/projects/_project.html.erb, app/views/shared/_add_new_item_form.html.erb, app/views/shared/_empty.html.erb, app/views/todos/_completed.html.erb, app/views/todos/_deferred.html.erb, login]","7","0.990 seconds","false","6","5","[app/controllers/projects_controller.rb, app/models/context.rb, app/models/project.rb, app/models/todo.rb, app/models/user.rb, app/views/projects/show.html.erb]","[app/controllers/todos_controller.rb, app/helpers/todos_helper.rb, app/views/integrations/index.html.erb, app/views/layouts/standard.html.erb, app/views/todos/calendar.html.erb]","0","[]","0.0"
