"REPO_URL","TASK_ID","#HASHES","HASHES","#PROD_FILES","#TEST_FILES","LAST"
"https://github.com/opf/openproject.git","2349","75","[0fcb3712328893c05b9c662e5bf87b49e54eade0, 01e9293649e5823034b41ddcb9f51ec4356fa5d4, cc93a11a2f7acba9bdd8a44303427e89d9bcab63, 5ffe9679d6fc691a188b9d1276c8eb189fb3245e, b20a5a7618f818e0a42a9e48a0715c5d38a439e4, 8d381651c8868bab823818a687e836f5da602f2b, 1666b587dae06e75b623c4b7c47c741e9289f089, ba9c0ce58f42fa69d13f9a615e042c1febc480d2, 2666f8dd702736a22d38b8949cedbdfb998f49c5, 892e3338089c887d091c46af9b4e9a06ef692dc2, a41cc3ba78ba85611600d3c0d7c085da4bb31236, ed70ff52e99d352dc22f1eedd44169c512aaca70, b187a9b1293392fe296a2ab2cbbb550cb2fca70d, 8c5be6eda7b130c4e42f0def99bc6da2a2c12857, 7130927de9d985adb78a1876b1b3c9cd2f4a15e8, de35dfb2eb58ba2429fe5c7262819bea766f66c6, 9378d423064cd5d85f5d4fdf901d6a9494e9c621, 698bbb7938fd5cb071e10af1cad1839edab13de2, 6eaa291f8870ca39732fde562cf1cad92f4593b1, 970923c62cc2f6d78dc4d031f5a45c2160d3cc12, e62e14feb53e0a1f517be304db9966697176a2fe, ea6fed8a5f9b47e9f497eda2bc42602fee0bc213, 4d7175663d7b10e99c5d51761c8369981a88a7b8, c277ab6ac32537c9aa178605ca86c86e2aea032b, ddae544d89c548cbb854e05e20780b4cdee80dcd, 9d4063b956041d301c29c7b81d07f304538f35d4, f08b0fbbc1920e466d58591c27c50ff03ab3b100, e4f0cb66347f179f07d802a4aaf33b910568a2f4, c0dc9c724f117615e1e67166bf9c9fa430dd198d, ff3b5166ae3f44a77b76f4d48ea4f10b7ca48e96, 8220d43bbf363cffa5ac43d46c43b1e84abd43cf, ce6367ab3302dbbad2bf74abc68a18f2e5818112, 3a26695e9ba67186a3ff7129492d1c2d80241272, 5be699fab114e52b96b135877397059fe90f064e, 6d9530195123233c58e3e63617e07a27ae952a8c, 2a2523863bc4d3e86d5dd35cfe3581710ea2ad6f, 928562966a268fbfc1f000a1d6b8a07152429fd6, 564cf94d1836cb80416eb2ffb515cc11f0f40b19, 8bd56ced34485b14621e68aaf9741be3913dd21f, 6f6a804c896df29963c43eccacb38fd158dd1ecc, 00326d53fe1381abe71f56bfdda4ab333db99408, 16c20fdf22256dde49af9f71a4e35bd31c2f96a4, 59220397d8e97ad4cf377d4c04fb202cfec4cb17, 8000c27bec7a4303d294a644f6ec146db5a46af3, e7825c77554d8f70d9e767f917e0f4cbe847785e, 9152b60321f7f6cbc8badf0808c65c63342e6c95, 22d529c199693638d996e435dc4ff88994c55c19, 8df117c782e358711274020ef5f0eea88121acdd, 92301259aa9702ce42609b2042e7ab136face531, 5e692a37a52de76821e39c7a672865c6c1342559, 61091c3ccdff3246dcab29fd78bd542379003dbc, 19aba22a7cecf9737aa6c740bee208ee5d3f5685, 86c745ce645145627d1a2c44e3a1dc284e844cb1, 9575ee1aeea8b11728f031cfe7db931c1559e2b2, b6d2a03af8af506e95c73968f03c706dc423cba0, bbbb9726c14a40643131f43c3bee3a51a67f06de, da9afaa9a27f217088f320ee3d70fc407010028f, 17e5b4a9530e81d1b0578ab3f3712af12d1905cb, 92e40c432f6964b8f531d59bed8b112fac47e7b4, 673a60d18b1fb16ed27c37aec5a3b3c78bbc544e, 9f07c251d044aede10b48414c5e4290a24ba9bd8, 2aa6067c911a76e84cd32a1c0ba34075b03e1076, 8e67b5392176e5ae8119a29c028886f7a4874ade, 69eb0779cb722f3c2029e37ae47125f622bd1563, 3e648121a6378667b485f75b88054f6e2d43ff15, 234d5166bac4dd70eea8927aee2475fd46ee1912, 88dd5897ee02e971391f3eb3e4fa8534400a3d6c, 25732136adada12b743d72276bc0d19c30441e24, b8a2ead7e08eaa1160ff33baf632246b0bbc7637, 14e48a7e16336e8079572a8b7d9241a1efca0162, db5cee6559a889edc30e7b8cf57d2a8bfff20f6b, b58721a70aabf4141b4a837f3d90c53aa5436416, 9bffe6225f1f3c49e3dd1cdb06f066cee7e1b0ac, 3cf5cda7ce7bb2397d4a90881ae5a0293c4ed9d8, 0ff5eb8d3fb5bcad79472a68ff9b1fe33b4630d1]","17","3","0fcb3712328893c05b9c662e5bf87b49e54eade0","b63175fa9729cc4ccb30f4eefca0a6ddce1c5d66","49c6744f50c41a1cec91b22ddbee8f359a8bffcb"
"https://github.com/opf/openproject.git","2426","1","[8273f3fe936ea9f7288c2eb47fab37c444f1196e]","3","1","8273f3fe936ea9f7288c2eb47fab37c444f1196e","1e8ee07f9b6b556a338fc424e40d1a91564ff518","5386a51713bcf7c43b7d6e13a452144aebcf1ff9"
"https://github.com/opf/openproject.git","2429","2","[8da1d6564e3c4d13977902b3480dcd6ffddbb1e0, adeeb6b87ab416a77c3ab854891c3193bfd51c97]","3","1","8da1d6564e3c4d13977902b3480dcd6ffddbb1e0","5386a51713bcf7c43b7d6e13a452144aebcf1ff9","83afbd1c3ce7f88e4b8ef85a1c3062f04b4be356"
"https://github.com/opf/openproject.git","2449","3","[de584216e801734604fe3e20a203ff8868c2d3b3, 96c550f40eb921bac051d0ca4ee22950dabb81de, 79c25f480bc538fafad0a956c3acad3579272876]","1","1","de584216e801734604fe3e20a203ff8868c2d3b3","2f092e3f0eb6f93ac777ac93465a89c5edd7c870","fe6c3e789f8a130bd6f59fbcccc076f295e85e8d"
"https://github.com/opf/openproject.git","2463","3","[4045d3b1900d9f6ef19a0c6a5cc08016b5114b50, 8c8f4d329cad6db0e29608c5623b13e4d6935592, c348e440a2aa55b1fe8dadd48b844a84929a6320]","39","1","4045d3b1900d9f6ef19a0c6a5cc08016b5114b50","2005904ad746195b251c1ecb679891b41b7049e1","549a7497a3299cfd00dae9dc10d82cf36db9275d"
"https://github.com/opf/openproject.git","2539","6","[c5f545bfd02eb0d7a6615da91cdaff698a60a772, c0837bc7c686a3f8a542ad724226333c9064f218, 1a285fc530165dde5efd4e25c4792c2f00680ddf, 6b5a4df797b88d31b5a688b3ef651191e63f1c0e, 311c11bbc572955468e9620e1592f9749bb19cd6, 0990cb219dd874efb0fa69211e59526bd5a3223f]","9","2","c5f545bfd02eb0d7a6615da91cdaff698a60a772","16a99762b1f43cb526996e822bfb923904c6278d","c388195891456df2760a0c46d2ef69b38469df37"
"https://github.com/opf/openproject.git","2568","5","[620bf947cd41c1317e44f6c7c891dbb37fa8f9f2, c21fef4848d2f747a60e6af6557e7dd4778809db, a7def19b16c3324a7e3f6ce647cc8f0424a6dae9, cc370d8268d9528a5e3550ed8c90c25b56e04672, c9865c5a1af6fa93e75212fe482d24bbcdf088e8]","1","1","620bf947cd41c1317e44f6c7c891dbb37fa8f9f2","d8a916e5bbaf74c9067c916f21bf86f09eac71a3","76a2eb7f7a673802c51e4a558cdaeb624b2a8ce2"
"https://github.com/opf/openproject.git","2579","2","[52f870faf9215c811f7a145c3e53e6a9369862ef, c3367f56dcb62d8f60c5e4799e77f12b6f74a0bf]","1","1","52f870faf9215c811f7a145c3e53e6a9369862ef","561488719ca0a1e4066a98f9dfcf34eee4cf2362","5a4a33b9f8f9139acf8bfe20953c2e732fd4c684"
"https://github.com/opf/openproject.git","2596","6","[37958a31ac40691d2b408b6382e17b0680791bda, f77564f84f6f3cbc6b2eba199b40d3a602df38ac, 75bdb94abe694815582363bf53fd2bc9a20a61e7, 45b26177f3844d6fc2f5ff714708fb3a4e93fbd8, 7cf11bb68997b886986ee06613e5fd6e8f12c4af, 12bcec86c11640532d301f3674a02f32c596a808]","1078","80","37958a31ac40691d2b408b6382e17b0680791bda","391d3ada08c6371ffad6c3e5bb76653c5ba14c35","1768b82934fac951de2bd3484c3913ba8a55d3ed"
"https://github.com/opf/openproject.git","2760","4","[cb5698592930cb8905cda43fa19a72860f3d43f7, 5bb6c9c77e030d082b258bf3eef604539ebfb4a1, 777759d65eadf3a15af0a17c6d9241666a778e4f, e5db7166f0f2e1d806f42856c042bb9f41246a79]","1","1","cb5698592930cb8905cda43fa19a72860f3d43f7","d1f8f97a08cec1c37e71cdb8c17be7708858e10c","0bd4ef48b7c5dbd7a26ccd72cab0e836f4f2ffe1"
"https://github.com/opf/openproject.git","2865","10","[c3e1543b2b6534f8f0515efe5afc0d28b9a5d486, 484606e03168d755a517339d1b11a4120e3d5726, 702195da3d0974bd92288a6545758978d6de2842, 9c3632f5fde745ae39cd6849916ee0cab8b05d9e, ebd7ed91889cea9ad9a4286046563ddc0bccd577, 9f6ef712c0d57a18ba075c76b5946598fa8b3adc, b19f77099d33042a4ec0b43438f5392e6a5e55a9, 425d02a4c7f2c16ae2527e48154c5275dfbaca38, abfd9d82cbb1411f1f0b30a5447f212e52afda7b, 55e066b382c344cd9d3d21e1f3ee162653f9ca90]","5","1","c3e1543b2b6534f8f0515efe5afc0d28b9a5d486","44ab04c4502c803ac16d75f164450fdd0e578b5f","dbd0745e09b0cf6fc93c4df640ec2ff8743852fb"
"https://github.com/opf/openproject.git","2880","11","[b18c9d4d34f630221a9ffce07c3bb61a0ce6980e, 35886e2f59ba514e24eb0cb482b0d3f090fe241f, 6cdc78679e686915374e4adb6987688bcdbb558e, 054e36852644a5204c35f503a58a759ad9948fbd, 2afefd7193b5381c20f6cc607c7ae95f2f4727cd, bf43ff0b4f3542f89b77e9ce794fe63ceaca44ed, 6e62083200db3745f8c648bfd7781a3dee037a32, 0d6329b4719528af3a6a3fde3ffaa8e00eb94f4d, 5e136707d9ac2c814a247127b69e8afb4064304c, 11d4b30d1012b8af66afb30e3d9aa4c3146d3a56, 12d0737ccb1c64429a604ddd75607a39b1b60823]","1","2","b18c9d4d34f630221a9ffce07c3bb61a0ce6980e","d499101a1a516bc2680e9744b4c2d1f51d22c270","e9246ae1f5fe622204c29cf1a190bc32a4066bb8"
"https://github.com/opf/openproject.git","2882","9","[5db362af4dcf0caf3eb97447d8299a66226ebd0d, 6c5177d8bf4bd2c4f2de4d669fb6a55d6cf5a496, bcff9779245c0051125a531bee5053c7511c64aa, b9dca3412b49dc76058f89e5f5ee84ca54c3b63e, b49245ec2c31faa0f9c39167c0e7d88510507657, c8cb4ed509ad29b5db774aea03cc0f8068fe661a, 7b4b232768e485d09ff8b14fd7a3aff58fd844d6, f7e86feb7174cbf0ee29b44f3e57117a2f5a6f0b, c3013d6272cef96c5cc3d1f4723b6c9efcdc5dcb]","31","3","5db362af4dcf0caf3eb97447d8299a66226ebd0d","e9246ae1f5fe622204c29cf1a190bc32a4066bb8","9a2c8c34e303e8882432daf84463b4fa85d1bba0"
"https://github.com/opf/openproject.git","2884","10","[ec7419000307f5bdb7d4c8db4260e0f50dcdf43d, fddd16c868b7d129870922b0c54cede8975f6ab3, e2ad20ede9da3d40df3345220c8c3806cb24c1d4, 8ce5310aa3c503fa52187cbf0044f10b1392a8de, 9a3b88f011ec2ad349996b360e26cd943dad7003, db0f82504e480dce230148678a55c0e25f661f46, daef1d9b28660a28d4715efe546ffb338cafbf61, b3ed465dc3f8ebd4afef82b32703d82cec7f149c, 92c0ad138bba3a1d1d08357809e0f7baf57c9b53, cbf77da1decb245dc3130289542c2904bcc4858d]","10","1","ec7419000307f5bdb7d4c8db4260e0f50dcdf43d","42b87fca581290c5420e4ca2b431387a54d9fd50","9b8d4c363d638f44322a75a41bfc71b991f2325a"
"https://github.com/opf/openproject.git","2903","6","[0b2ec6cfcb96ef5d0cba68183855880bfe702adc, 1795f1bf4777a6381d9547ca60aec660fc8ef486, ffe3625e40182f22c26500b0e843c7724a475841, 8f1c5d76b756586aaa74b2eb67f3f1846852b225, d8b4d8dd015336244c18e94b9593dd7c35414286, fc3f04f7c1397347ef47c59d466aaffdd2cff5a5]","7","1","0b2ec6cfcb96ef5d0cba68183855880bfe702adc","571b2098c7a13c8d63e10809be66fcc065295c3d","e57b6813d3ac3b2e23c36f20fd8c667c1855d2b8"
"https://github.com/opf/openproject.git","2912","2","[bb2d607de60d66a75124f890f2cd70bdab2916a9, def76c7927e50fbe5da4e81b43949e33463e2aeb]","5","1","bb2d607de60d66a75124f890f2cd70bdab2916a9","c517f258033c520514ea8a8b1656937b71df2e3d","9c8649e55ca256beb3e82805fd9d5a5c676f082a"
"https://github.com/opf/openproject.git","2923","35","[655638f803f46658558cc9259898313762b3defc, 4f3595cc75807d2540ad36eb43c6bd8a05524eb5, 1f59bec1f180c023d81781e64a98a429f27e8235, da7b63eeb73f69fb09c2461963a9f43bd31a0904, c08c9c0fc67e3f60918c9163c97c8ca1bd1f3946, 309e826ed7766d68f67d5713882ab03e1519741e, d5a5cac7c67ea6144fd3d20e98312e6b4cb7fb0f, 81d517db835379757dd10f8540cabcb6f5ff4706, c8b2669c2d3ad4bc1da55981a7955eb61695648d, e8dec710105778110ba1c9b911b0119c3084abed, ef7153543ecffb2a6950ab2c5cb97e7e7ca129d6, 953f8d8cc54b82031ace711791ea716c490698f2, c71f6c6cdda6e3b2142e6af6141bd41a1c718314, bc19d44a11967fefad6329f5f90c01ee7eb2b6f5, ad8b88f14fde03ae54c70f2813227adbeee6f915, 26a63b95881279e07ec87a13ad28d0fa7e9cf20c, 34d1548ee54224addb87902a3b9022d7913f0352, 888e962b167b26fe0eb0a844aeb3111fe1616db1, 6a48aaba6a38edbccf6cd37ec46d909c34786db3, ae7b0a3ca2b6be841cecced230c4397063bbb18a, b97defd2dfd97df51a25a39a815ab1616e8a94aa, e842f4abfafd3e0f580bc50e0d50e43304c22991, 93ea33ce9ae2c079d8a817723aa492f8a42995a7, b4753de00a0159ac4c18481501bb1f4becccec99, a528bd72a25cb98dbfc91a3a273d854c867b9c0e, a6d265eb7920ac63a6afcdb87f527a90df2e4c78, a22b0dfd2ba9d7a851bcb7506c46870ca1286cc9, 74d80eaab47751ec4855dd5755cd66f20c85a208, e3546e1d68aa78ef0c59ccfd390d7ad22d3a25a6, b5e9fe0515a1fe072667e704cf02d59e5aefab71, 31df201d4054b221e30c0842b09a2e857926927a, 68c3cf411c9df7e167eea34537012449ba771bb8, 461f9c32b25c5c49fccec3e7f9cf6d8728ac0595, ec2bcc04a5feafbcba7c9e1c3e59fc41020d2f68, 4fab8974ce2e2923101aced5125cbf59ef87deab]","18","8","655638f803f46658558cc9259898313762b3defc","b24f59fdca4c4ef60d482ba5a4cc054966910908","0196c2903fc48625a8465eff144db1467ecdec93"
"https://github.com/opf/openproject.git","2928","3","[c30da3e640e09a016dd5e8b564328776db7a5cab, d2d9a3ec124b99996bc07555a614c44eea3105c5, 458071df19d55e7537db2b64f37fa577cc482319]","27","2","c30da3e640e09a016dd5e8b564328776db7a5cab","8845dbb70c9b9fa65628b6f371893903d49376f2","4a046784610bbdce35d7278b6c254f496437f9bc"
"https://github.com/opf/openproject.git","2939","4","[8391a9c0d273dd6f69a7a342a3ccdf44346e832f, 18458741859c0451747f42d92a1d937f7f8ebcde, 9ff3bd8ad98300d02dcfcf76597c19e40a3d3b34, 76f0314a9a636ece9519a0dc83a24a7add173b55]","5","1","8391a9c0d273dd6f69a7a342a3ccdf44346e832f","0196c2903fc48625a8465eff144db1467ecdec93","f837412ff3ec6ac6754965aa6739944127130d7a"
"https://github.com/opf/openproject.git","3055","2","[c5ca7e7782b01fae20e395fea4933074b09351fa, 728dff126eb7a5a8827e5513e91914d9aa7bef7f]","3","1","c5ca7e7782b01fae20e395fea4933074b09351fa","dceda2be7a054159800f8701eb15222720a270ab","ecea47c661effad560afe46d9dd899a77b8f8a60"
"https://github.com/opf/openproject.git","3083","8","[36a3b722ba0d9fddc5b5f84140fb9d0c3bd476e9, a5e3f3223d1458d00b4babc6fad35ab8e7c44ae3, f0f078b20874fd94eba886378c037f41e15468e9, 3388a64c9de89e6a3c462a809cd22c71ba08c6f6, 47f7d3e14de1150429727399fbd76602d5d6b90f, 1641335acf8ef5d5fa8c92d63f7fe3de51f015ef, 77d70d6286eeb130311f4a787ecb6e6608d9b92f, b4019d166c30046297d41ed7d401b9ffc193696d]","6","1","36a3b722ba0d9fddc5b5f84140fb9d0c3bd476e9","213caff8a39e25c72d4746249223d49bb7822e20","c64cf4880c46d7140cd87bc3ae76c524b72ca421"
