"REPO_URL","TASK_ID","#HASHES","HASHES","#PROD_FILES","#TEST_FILES","LAST"
"https://github.com/opf/openproject.git","7347","1","[3e5b5dc983be7fd455437b9e79ab623f856b13a7]","33","5","3e5b5dc983be7fd455437b9e79ab623f856b13a7","3330ea3e9f6b0691cba08424d2316e03124ed8a0","3f97a8e36cb935fda7fe10a93cb2e90ea10a89ac"
"https://github.com/opf/openproject.git","7366","5","[d66bf5f9de75ac78692ad96ddd6c3574e8d20040, 771526da22f135b954a021d82f4709233d7421c7, a1955579f83ed1c8f9f925e9ff7e704b248d3c92, 034eb0c8f6833fa730daa2c08fa779d9df9a47aa, 642bdf31894f5ab5b235af15b775bce1154e8d3a]","1","1","d66bf5f9de75ac78692ad96ddd6c3574e8d20040","47236dc417fc15f58d4d071a13caa5549cd7bd81","0ff7ee2ef166bbc4e68be3a71676c216cdfe0038"
"https://github.com/opf/openproject.git","7394","14","[359597c9134c9298f9909c881c1f93f5003af4b3, f0300c07d2aa903e6002ef98fbb6c016ae1e9109, 05b47774def181e57ec2a4b58324b7dc3f9b4523, f6c7308ad295789d3d29f6ab7fa6563e73fa5a07, a070cee3d7117b1535e0ca1f1529ace8df4cc4d3, c8a15571f2a94b4d9954ced329bdb3f9820b7e3d, 5cc6e26b10c7d840a4afeeaf0d19d19bec52ece3, 0b302a3f460aa9a7872d2072229ff87c535c7e19, ffbf6d351085cbb8718a011ef5007d8af23f3238, 42c2f1f24abd8950f5baa802ec9400cd2ec3b45c, 67c0eaa0f3dd7cbe025082f2b04b140ca37e6d0c, 67ef65dc1676e0d4f46b94786d1b0591d4c2ebe5, 733c063797349fea50c5ab7f4460f3a779f03c1b, 678b0bc1871d6720d6537acbadcc7746c1b3390c]","4","1","359597c9134c9298f9909c881c1f93f5003af4b3","c3d00d3d858e396552b235e95296e21a5f2fc4de","ddc3ea2df5e40dcacd1caa04ea63dffcdcf9c706"
"https://github.com/opf/openproject.git","7401","10","[c266eb99b1d995d729eeab308d8ad315e6d9e111, f2d576a4c3cffb891555533f7e464777cb170f01, 885f500b62db325f674c0a254481538c2bb0a640, 13e8c29eedd9922e21067862ec85731431febc75, a287f51a93b2ed08c3f52360abdc4ccab9acd2eb, 60fe17db0ec6cd96b5ed3b35eeee27dae049eb0a, 124d85eaadae1639ddf3f457ab7c26d7df6b2cdc, 713d7539a109a845560cbcf742ba69efee5c4ef7, 52e671500b4983279a72d3250f14288c96bb46fd, 4b4939a9a1c8e2b5aa48e02268a26ada2e3c9a0b]","2","3","c266eb99b1d995d729eeab308d8ad315e6d9e111","e4a84833442992d4af5f2df291b125bc89794c2f","b0008c92c799a3f6b0bd3386ed7e40fa47cd0b3a"
"https://github.com/opf/openproject.git","7414","8","[e0ddaf700347d72db0964c029fefe73112fe26dc, 118ff2b756c9cbdd94571acb907cfbe531975223, e9f9ea868d2509f934374d5567eb23e7a6fbf88b, 0fa895dfed5cee9fb267bd5c4b0c739c1b89b346, 6889c6a688e2bcb1ef6f3bdea6755a4a01f2e1cb, 71b645f792fda6fcb494b2c580f302208f0fb533, b6e6306725ac6f8ef00dd83c06b457ab4de005a2, 8b8fae23dab4675f4bf3dd5ffcf5eed20fee9d1d]","3","1","e0ddaf700347d72db0964c029fefe73112fe26dc","76c744c3f47c199f95785b1f420d5733ffc5b145","97c13e88a8e7a139a921ef06953cb791e8c18256"
"https://github.com/opf/openproject.git","7418","8","[6f808ee31605d6a93027ff9715c717e40f874d55, 5b92dd75f1b7457102e6525f32b09f7e54877ee9, aa5db6fdb94c6a6ab6d78999694661dd453cc9d7, ec7d75c943040a447dd1394ee1479386c60b25ee, 046995d0c14e9e1b8ea8d064ff19ac970ea11add, dffb31a80990d29ecc5cde43f40ab02b751d7df7, afbd169571bb4fa8ab4fe71a8d793613f9c6619b, ee06793b47b6361762c48c2cd290e824d9ce85fc]","1","8","6f808ee31605d6a93027ff9715c717e40f874d55","b0008c92c799a3f6b0bd3386ed7e40fa47cd0b3a","51c190424c0e675e700996d2419a428003e74773"
"https://github.com/opf/openproject.git","7419","3","[04af707fb17120157eeabf201e280ba22faf8cd8, 6a03ae554bf2c7bd9aba5a6e10e249519d91b554, a5bdcd12f74aecc3a984477ca7b04b65c44f4c59]","1","1","04af707fb17120157eeabf201e280ba22faf8cd8","02837f5db23f558b854b7c5c3ab1ca631afa9404","d6600d9d458ef3983fb57ff891617a306a3e9543"
"https://github.com/opf/openproject.git","7442","7","[f58c099b317e3558650e983bc557e1d875f44b65, a4d5517c37ae23178247db9bd946289a030596f9, b7d5445dc3fd46bf15f5cd989fd5b9993d689102, 7a8d914949e7ae5dbfc03921e91f12aa0b5d532c, 743562e8ac351ce13434cc5cf6c6c27c276acbaa, 691f9fe80954ae89498cc3186ce2534681588fa8, a5204155b603208bd9a7cc44a2cde13f1b49dfc4]","1","1","f58c099b317e3558650e983bc557e1d875f44b65","2eb4e61fe5248d318bee2f94d7bebec97c959c03","5dca6b452d9aad71b2cdd77e0ce336a69e968d2f"
"https://github.com/opf/openproject.git","7448","14","[c81684916e49b48f6e8ad46223c65d6a71f22449, 507a3cf4262926684114549b2093178d7f8fbe88, add8b8d455794497afdd4324be6d4689d70ba574, f3fdc647a0e064f85106e74391ad1e724f679a7c, 5dca6b452d9aad71b2cdd77e0ce336a69e968d2f, 05c3a973992442fa625e538293907e9b75c895de, f5bd0c739584adc6ab6efb206f701417101c55c3, f37bb6574737b184de5a49778b9fad86d3524935, 2c48124cbbed556daa612363d86f9e979431dc2f, f02c3c4eac5c272daff6b496f921a9a5b5ce3959, fc38f8e16a7b1ca3094e3a2a18769cddcb57e26b, 1e29f9fb3aee12e04154827d3c9c54cef5c3c381, 85249e5e7c387b536bde6954cfafb796b493d161, 6b3f7c4dc8ba80972e08777226fe186c2e234a0a]","5","2","c81684916e49b48f6e8ad46223c65d6a71f22449","55a499383c7d52a711467ea73212c36be35e0d21","89b121df372a408445c76be4de235d79f01b90ce"
"https://github.com/opf/openproject.git","7452","9","[4eb6a14add97e8bece30f4bbda349c3eed764e5b, 89fea6daeb5505977474b3fc4a11468ed3144257, 933d60e9eef59e7b9f414ba3508405705dccc680, 61783ce3aed032adcedae0343bedaf07eda4fe2d, 20323fb8cd3ce8378f816bd81d07a6f611d7c9b1, eea130a1460c730fa020ad6d7606af04bc2da6c2, 4168d9ef837c185783edc8f482d1f014e005891f, 1b023d295e663e76c688e66234e5d07327749847, ceab6e45ccb3ea3a8b87fedcaaefe7df9f88e816]","2","1","4eb6a14add97e8bece30f4bbda349c3eed764e5b","2e5010ff9a93d7e36412e4463079afddb716bd00","1da5fde695111cce9a755fd4f281e98a0faeefa8"
"https://github.com/opf/openproject.git","7463","7","[b4482c823cf4d4db615cf8a3e3da3f9d79f8c309, a91a86931937521219f42ee0ced7bd57b80abc49, 4a8f18c483d03c2eefb4caa595be332db0c35e60, 8b096975fe7483a6f3c8f94936034afbc6d2b117, 2a40fc2e15795ad82344e1e149bb3b73a27f97ef, 1ea1c3cc541a1c1ff607b0755006722b1edc1456, 0d03bece2f9111cf78ae2f169abc7fd8d40259d5]","743","109","b4482c823cf4d4db615cf8a3e3da3f9d79f8c309","35c34baecc739a8ff2949a1f2225042eee6a254b","5fda6e84f0bac1643a02587f7b6a87410fa6579e"
"https://github.com/opf/openproject.git","7468","2","[7e7cfb572612789a9cbc62ce2fd84e0bb1f58e83, 5186ba385ece3bb3571df5b63aa7d22e892b771d]","2","1","7e7cfb572612789a9cbc62ce2fd84e0bb1f58e83","c4ee834456c61f8b2b18c5b1c315b512ba412c2f","a55b22968026bc9807e262627e63115feacc3063"
"https://github.com/opf/openproject.git","7470","1","[473b595fbcf76ca4c4f09eb7972fb8683d0dfab9]","2","1","473b595fbcf76ca4c4f09eb7972fb8683d0dfab9","a55b22968026bc9807e262627e63115feacc3063","5a00d12dbfe02d59c99d7d01bb7db4d08e32262b"
"https://github.com/opf/openproject.git","7528","2","[a6d820c21999d9c249772d3ada1d25c24546e7b4, 001d1f2f9229e4cb250d6be07d0d702c3e28c161]","1","1","a6d820c21999d9c249772d3ada1d25c24546e7b4","bc28906afabd7b72c75db54551b4bd6cbfb4532e","d11dd227c6828a67111a8affbc179f536ca1fe5f"
"https://github.com/opf/openproject.git","7567","6","[7286cc88bf6a5fbc4ba88cd4840ccb30408dfb8f, db3c847cf4c3db91b4454c8213e1c2a82eff905c, fbbaee1d90a5824030b2374df426f5556d47f93c, 5f6a72c40b5d784d4ca3ae398702c1ad774e2d25, 0f667ec489808c9a1945ae37f7949a31b4f17c63, f3e3014e4c2c17df029c95c0dcf0c1ab6f8c4f49]","5","1","7286cc88bf6a5fbc4ba88cd4840ccb30408dfb8f","8ac21a7ce8034baed80a9e00f7c99d4da25aa061","52eb0b2cfc0f37404ead77c457d5e23f3f18a95a"
"https://github.com/opf/openproject.git","7572","10","[6c774f59195e5479eefd8f3a6623833f5a02f058, 9eee43cc1a7be35fb5322deb44868ee948ca4c0c, 58dd3c585a5ffe4230c6add8caff5b724270c3b4, 0050cb0fa0b1322f202683f5c57fb0c31a293966, aeca7dca71bb829392ca27d3ee513b22f4c48499, 228ecd8d73d3ee4f2b87a0d7327e5305e9e49cb5, 39137273285dd237107282cbb25e5db9ee0e71e6, d156a3dde9f877cb93c6f924d24ee8f3ad609731, cabf5f5742dc34969154ecfa4da11c4281b29a29, 176ac687c0f80aa604ea100a9a72d1e9032c857e]","4","2","6c774f59195e5479eefd8f3a6623833f5a02f058","52eb0b2cfc0f37404ead77c457d5e23f3f18a95a","7b0e9c6e5af0ab83b7d1f21af8ce7ee5274abf4b"
"https://github.com/opf/openproject.git","7578","6","[512ee297ac15046c7ef7e2a41de6d10907687506, 0f1f3b62cc6757f7bc9cf10eb2a524ca70bbc9d7, c7a4b866a55a7da7a28b508ea5ef070f447831a7, fb8e8dc15d70fa0a87de02c14d519e6bbc6f9683, 4b3385c6768053013d2b93bbba4c2aa90bcabe1a, 3c46c9d4489e27750a9d478ae416c544e06ec254]","14","1","512ee297ac15046c7ef7e2a41de6d10907687506","636cfc157f7daf74e83ebf102b1fcca9da0d8d95","2873696044791362bb9e7067651886f42ab35db7"
"https://github.com/opf/openproject.git","7580","18","[f85cea341547651bd50545ff409d4bba914a574f, 1ecb3b620aa9acf3e60d343bd3b33074099c0307, ff17ca9ab9840d04e089b9ebb8fff5b0e7eb3d1c, 553a4f251c3f635b96ba2e1ef7bd56a9773046c7, 78574b57eec4f9a5fbf69e06b96e77f1cb1ad96a, 323c2305e1f94c33d4453324cc74dacbb81c3760, 8053016d8002900777eee0adb6e9a0da685b9bf4, 59d94ee672b94782d56fad3472ef0878a4b0568e, 240dbf306d7904be5f8516e6027b1c6d5967c961, f1b2f7f05bcfde22af310418f15c631ceb267f80, 77f0906639c10ec4a5556897b74a91b6060e5b2a, 916fb7fb5533535a0da663181ad15f1febbe6bd3, 4204e3052857f6e7c5358d4335b11d6857ba6563, fb92ecec8f5c1d68c80e7963aac8e94d89954b29, a3aa926a1080508b095093beda92f2f61aa28e58, 8d3fc3d511fc204d538086752ec31d16a90856f3, eba958ad2e5c57b945d424ffb4b9e9df71258ee5, b85d0d82e2345db694cca739590eedf2d6e9f7a2]","21","1","f85cea341547651bd50545ff409d4bba914a574f","2873696044791362bb9e7067651886f42ab35db7","9c8397ba92cf0a921546d76846c48a2dcd95c47a"
"https://github.com/opf/openproject.git","7615","2","[ab333acdf365b605f69ce10b02b21a3c0c3bc016, 8a45a79669d2d1ad9b9590dae37d95e763677a79]","7","3","ab333acdf365b605f69ce10b02b21a3c0c3bc016","cb7fc121891d1fc0123cd85a6e6735fcaf99f124","a7aebc09cb19ceaa02d914583298f0456c084db9"
"https://github.com/opf/openproject.git","7644","5","[a7ba411bb0f0fc05a32dfe63875f14eacd1868f4, 7d51457ff61e465d823a16343309807d41782aaa, 4d7e0c6ef5131f9f6191ceee3a0fbf0dd25be470, 890a93fcb2babfddcd4dd5832d1ad37a1fca1eb4, bcc206aa09eb1ec71c733833af748660d1e5200d]","4","1","a7ba411bb0f0fc05a32dfe63875f14eacd1868f4","3bca46a5e28ee4a7ddff973ab8d3aed2396b09d6","a2d8c266d68b3f5b9b22db9c58a272e14911203f"
"https://github.com/opf/openproject.git","7702","15","[aa1075325935490cb04fb1480414274a60e2909e, c6f81256490da9ab4ffd5b0bee155bb075efc389, 53ddbdd27383c1c528ce43725a3731467f423fad, f869a34040ff1c855650acf6492b914ff412d63b, 4f030c316cd1557f3f7e94ea48bb917e1b4cb5b5, 0ad01024308596af8a9767188a7637e3f21a9188, 4c6baed60321e7a33324ccf6469b23680b0ef34f, d9e2385d60788ef609bcd5bbde6f1b095bd2d082, 26d06438cd29a5522496a67de6c7fcb299072342, 618409996aaa2fc39c643f5d7c2855548b6d20d6, 2f1a8401babbdddcec9a72b452a8cf81912bda0a, c72b718e4cec9af26d4daca22511cc7e00ce12b4, f6de8edde908f180e96373c56b6b72ad89eaa76f, 3dc0ed3b355aa4dc9d7b70fd8dfb5d6133b7275f, 6d14296e8a26cd975af792f27b7388aa95ec16a6]","22","4","aa1075325935490cb04fb1480414274a60e2909e","54f81f7888569c79cd27778dfa18d754840198da","b4df1eb16db5e81566c4ffe2c0a1e4487d22367b"
"https://github.com/opf/openproject.git","7709","5","[7d44876fd6358e4a311cff0cbf4d4e87098c7141, a6b153e6bfe8709be7ae5f2869019430e789729c, 17bdc7a5935fc6a5324db7fc56256fd343cfcfee, 6b236cd81dc5104fcf9225c0d4893535d4047bbc, a260f882446c82cce9ff55689a21402086d4780a]","1","1","7d44876fd6358e4a311cff0cbf4d4e87098c7141","b4df1eb16db5e81566c4ffe2c0a1e4487d22367b","17b2a9abf320a89ae9aa90fab5dc99186e94f843"
"https://github.com/opf/openproject.git","7721","5","[75a60dc0f942f317970c9d938ad71fe3d8a60e2d, 3c4cf19247a1f308ed6c4fe6fa505993bc28f09c, 89fea4b2ced5cd06cf86bf39e8300ec17abb0567, 8d440bec0491baffa4a50f5dfbbfe001ca9184d0, 8f188d2e0e35f40983374fad44656f80758c81a4]","6","2","75a60dc0f942f317970c9d938ad71fe3d8a60e2d","651c24bd9af010db70b1372c728106b6d4af46ce","b5eb70728aefa663c5bdfd5f7632f3848c3114cd"
"https://github.com/opf/openproject.git","7722","1","[735935295a17d865f75648a23755cf99a20a54fd]","5","1","735935295a17d865f75648a23755cf99a20a54fd","651c24bd9af010db70b1372c728106b6d4af46ce","c3c045214a27aefa05cc50948836afd18613cb4a"
"https://github.com/opf/openproject.git","7726","11","[ee0ccd0d98a028348351f46044a29d6f985ebb3b, 6538a0f2e0412088417c7b35d06fc0a317298e5a, 396c2582f975225e361fdc865624832f0306bf5e, f004737efdb9ddf1fcea32e9995b3f12aa88ffb8, 9348b19f884fc0754ee3198c9f9cb69df4155128, b1600185360dad0d69cd08755bc9d9ccf4f0ee75, 59238c8542e08df94136cc34a72abeffb8d3b074, 5f92e299d6674e98c86545386fd9fa4da2bfc75a, 02cff6b6747bfacf50881bd4ad1b4c7f056a256e, 94128ce353512dffc1d76eebcf5b9336cd513d65, 393ddd11f772cec04382fe444f55a62982e3b6d3]","49","2","ee0ccd0d98a028348351f46044a29d6f985ebb3b","c0bfca25e3b2c53e6085db27e6aa3874d31ebe60","70a809a6fe51407708b907013b38f2c5254936a3"
