"Repository","https://github.com/opf/openproject.git"
"Precision mean (RT)","0.6111111111166667"
"Precision median (RT)","0.5833333333499999"
"Precision standard deviation (RT)","0.37515428924841243"
"Recall mean (RT)","0.3969696969666667"
"Recall median (RT)","0.35"
"Recall standard deviation (RT)","0.3542733998973716"
"F2 mean (RT)","0.3899583474019493"
"F2 median (RT)","0.36904761904761907"
"F2 standard deviation (RT)","0.2975365653313986"
"Correlation #Test-Precision","-0.27"
"Correlation #Test-Recall","-0.81"
"Task","Dates","#Devs","#Commits","Hashes","#Gherkin_Tests","#Sted_defs","#TestI","#TaskI","TestI","TaskI","Precision","Recall","Rails","#visit_call","Lost_visit_call","#Views_TestI","#Code_View_Analysis","Code_View_Analysis","Methods_Unknown_Type","Renamed_Files","Deleted_Files","NotFound_Views","#NotFound_Views","Timestamp","Has_Merge","#FP","#FN","FP","FN","#Hits","Hits","f2"
"9704","[03-09-2010]","1","3","[5e7c0ab32a245775c7ef1ed90cced018a535a885, 39f62ecb716edf525023eaabb354a9194bed3c7a, a5c69e8fb530fe459cd9822132dda3b39099a021]","8","6","3","11","[app/models/sprint.rb, app/models/story.rb, app/models/task.rb]","[app/controllers/rb_application_controller.rb, app/controllers/rb_stories_controller.rb, app/controllers/rb_updated_items_controller.rb, app/helpers/rb_common_helper.rb, app/models/story.rb, app/models/task.rb, app/views/rb_impediments/_impediment.html.erb, app/views/rb_master_backlogs/show.html.erb, app/views/rb_sprints/show.html.erb, app/views/rb_stories/_story.html.erb, app/views/rb_updated_items/show.html.erb]","0.6666666667","0.1818181818","","12","[{path=opf_openproject/features/step_definitions/_given_steps.rb, line=-1}, {path=opf_openproject/features/step_definitions/helpers.rb, line=-1}, {path=opf_openproject/features/step_definitions/_when_steps.rb, line=-1}]","0","0","[]","[permissions, save!, page, driver, response, status, enabled_modules, id, update_attributes, versions, delete_all, hashes, eval, strftime, each, issues, reload, api_key, be_nil, attributes, fill_in, click_button, attributes, id, fixed_version_id, page, driver, url_for, merge, to_i, length, raise, to_i, length, raise, url_for, merge, api_key, eval, strftime, to_f, to_i, id, name, sprint_start_date, effective_date, updated_on, each, length, higher_item, pending, page, driver, response, status, all]","","[app/controllers/rb_changes_controller.rb]","","0","0.126 seconds","false","1","9","[app/models/sprint.rb]","[app/controllers/rb_application_controller.rb, app/controllers/rb_stories_controller.rb, app/controllers/rb_updated_items_controller.rb, app/helpers/rb_common_helper.rb, app/views/rb_impediments/_impediment.html.erb, app/views/rb_master_backlogs/show.html.erb, app/views/rb_sprints/show.html.erb, app/views/rb_stories/_story.html.erb, app/views/rb_updated_items/show.html.erb]","2","[app/models/story.rb, app/models/task.rb]","0.21276595742756904"
"9709","[27-08-2010, 28-08-2010]","1","8","[5ce59bb2deff2a56ee479982bd8e9c0a3382d52b, 0e33abe1279147ba98104f068c9b644d9e99eaa3, 2c1032eda72d4e79d2287fed1c4a8446501f2360, 64ecf75a2e380996963eb9c78d5a5fd3991f718f, 51e1363f729d6ad336064f24dd9e8650fcee3e78, 5194bdb7c76c05fb341447489b26a2c250b24745, 7ae51b44af569906d24d7daab1d1e3fef2374bf9, 8de09e1091bbd5a6be873aa3779e96f6a08a3869]","5","41","3","1","[app/models/sprint.rb, app/models/story.rb, app/models/task.rb]","[app/controllers/backlogs_controller.rb]","0.0","0.0","","13","[{path=opf_openproject/features/step_definitions/_given_steps.rb, line=-1}, {path=opf_openproject/features/step_definitions/helpers.rb, line=-1}, {path=opf_openproject/features/step_definitions/_when_steps.rb, line=-1}]","0","0","[]","[permissions, save!, page, driver, response, status, id, be_nil, attributes, enabled_modules, update_attributes, versions, delete_all, hashes, each, issues, fill_in, click_button, page, all, length, to_i, have_css, id, subject, versions, find, name, position, fixed_version_id, nil?, each, driver, response, status, be_nil, attributes, strftime, each_key, be_nil, id, page, driver, url_for, all, to_i, text, nil?, project_id]","","[]","","0","0.093 seconds","false","3","1","[app/models/sprint.rb, app/models/story.rb, app/models/task.rb]","[app/controllers/backlogs_controller.rb]","0","[]","0.0"
"9711","[23-08-2010, 24-08-2010]","2","5","[056007c0de7ab8901ccbbcd092d0ded5ce91aadd, eaa9cfbd09e75605c3a62684a7c68d9369de1565, b9a6b7ab1efa5000e39137300270730e8abf0c98, 182fe92b5379798074887161b695f63ac8469af8, 1f4c69dcf0c23322def7cb6b2963bdd80f1ecc9f]","4","13","2","2","[app/models/sprint.rb, app/models/story.rb]","[app/controllers/stories_controller.rb, app/models/story.rb]","0.5","0.5","","3","[{path=opf_openproject/features/step_definitions/global_steps.rb, line=-1}, {path=opf_openproject/features/step_definitions/scrum_master_steps.rb, line=-1}, {path=opf_openproject/features/step_definitions/product_owner_steps.rb, line=-1}]","0","0","[]","[id, position, subject, each, enabled_modules, id, versions, delete_all, hashes, each, issues, page, driver, response, status, attributes, permissions, save!, be_nil, page, driver, url_for, attributes, strftime, each_key, fill_in, click_button, have_css, all, length, to_i, be_nil]","","[]","","0","0.074 seconds","false","1","1","[app/models/sprint.rb]","[app/controllers/stories_controller.rb]","1","[app/models/story.rb]","0.5"
"9689","[16-09-2010, 17-09-2010, 18-09-2010, 19-09-2010, 23-09-2010]","2","12","[2a51c840982b4fa8a1d704b06c830532907f8fd4, 2382f3d0fc044fc20a66cd0af29470f28932b8e6, b7ecbde15575ce44d74b2a783ec8de06b106aa2a, adb37cb2f80c58c7c5cb915e8284b0d9da52de4b, 521b4cf5fef71194c3f7212be6de5f9f0b22e891, 9289c5f80340c52ebcee298994c408fdc2f0213b, 7a3515524e311a8d909de769eefb29d0b0da880f, b5cfc0ca991473d8faecfe4054c36141faf22ca2, 95bb4fb809ad42a86bf2385d96740d85fe6e894c, c7c74f61f4301f044ffe95e3c20303e71c4ac116, 6a55a4d639ec4b4798e2faf20e9490e60efaf548, 2fb46e7ee2c8c050e8dfd6832423a68489401d73]","3","1","3","15","[app/models/sprint.rb, app/models/story.rb, app/models/task.rb]","[app/controllers/rb_application_controller.rb, app/helpers/rb_common_helper.rb, app/helpers/rb_master_backlogs_helper.rb, app/models/sprint.rb, app/models/story.rb, app/models/task.rb, app/views/rb_master_backlogs/_menu.html.erb, app/views/rb_stories/_story.html.erb, app/views/rb_taskboards/show.html.erb, app/views/rb_tasks/_task.html.erb, app/views/rb_tasks/index.html.erb, lib/backlogs_issue_patch.rb, lib/backlogs_project_patch.rb, lib/backlogs_query_patch.rb, lib/cards.rb]","1.0","0.2","","2","[{path=opf_openproject/features/step_definitions/_given_steps.rb, line=-1}, {path=opf_openproject/features/step_definitions/helpers.rb, line=-1}]","0","0","[]","[permissions, save!, page, driver, response, status, id, enabled_modules, update_attributes, versions, delete_all, hashes, eval, strftime, each, issues, attributes, fill_in, click_button, page, driver, url_for, page, driver, response, status, to_i]","","[]","","0","0.087 seconds","false","0","12","[]","[app/controllers/rb_application_controller.rb, app/helpers/rb_common_helper.rb, app/helpers/rb_master_backlogs_helper.rb, app/views/rb_master_backlogs/_menu.html.erb, app/views/rb_stories/_story.html.erb, app/views/rb_taskboards/show.html.erb, app/views/rb_tasks/_task.html.erb, app/views/rb_tasks/index.html.erb, lib/backlogs_issue_patch.rb, lib/backlogs_project_patch.rb, lib/backlogs_query_patch.rb, lib/cards.rb]","3","[app/models/sprint.rb, app/models/story.rb, app/models/task.rb]","0.23809523809523808"
"9713","[22-08-2010]","1","5","[cf3e2cd4eec2a63707faea0b35eeff1d0cf54bca, 21141b499c354b67fc7dd5e16e808357ce150062, 57bb8db115cc4a4a1fea9a7042f1e8407b05e95f, 1fe65be9271004d3b746c3a78283f599834bf750, dc43159680e457ce12427c76a1e5f6dd5e3c8fe3]","3","12","1","2","[app/models/story.rb]","[app/controllers/stories_controller.rb, app/models/story.rb]","1.0","0.5","","2","[{path=opf_openproject/features/step_definitions/product_owner_steps.rb, line=-1}, {path=opf_openproject/features/support/setup.rb, line=-1}]","0","0","[]","[enabled_modules, id, permissions, save!, versions, delete_all, hashes, each, issues, be_nil, id, page, driver, url_for, be_nil, be_nil, subject, length, name, id, to_i, fill_in, click_button, attributes]","","[]","","0","0.058 seconds","false","0","1","[]","[app/controllers/stories_controller.rb]","1","[app/models/story.rb]","0.5555555555555556"
"9700","[06-09-2010]","2","2","[95346025bd540bf34db6fa485ae8c12a76755407, 53402c57dfb0a6e2f919ae83b0537abe18af08eb]","1","1","2","1","[app/models/sprint.rb, app/models/story.rb]","[app/models/story.rb]","0.5","1.0","","2","[{path=opf_openproject/features/step_definitions/_given_steps.rb, line=-1}, {path=opf_openproject/features/step_definitions/helpers.rb, line=-1}]","0","0","[]","[permissions, save!, page, driver, response, status, enabled_modules, id, update_attributes, versions, delete_all, hashes, eval, strftime, each, issues, attributes, fill_in, click_button, page, all, length, to_i, have_css]","","[]","","0","0.057 seconds","false","1","0","[app/models/sprint.rb]","[]","1","[app/models/story.rb]","0.8333333333333333"
