"Repository","https://github.com/sameersharma25/time_stack.git"
"Precision mean (RT)","0.4375"
"Precision median (RT)","0.25"
"Precision standard deviation (RT)","0.49551560448255744"
"Recall mean (RT)","0.425"
"Recall median (RT)","0.2"
"Recall standard deviation (RT)","0.4949747468305833"
"F2 mean (RT)","0.4109848484848485"
"F2 median (RT)","0.2272727272727273"
"F2 standard deviation (RT)","0.470529739339376"
"Correlation #Test-Precision","0.18"
"Correlation #Test-Recall","0.18"
"Task","Dates","#Devs","#Commits","Hashes","#Gherkin_Tests","#Sted_defs","#TestI","#TaskI","TestI","TaskI","Precision","Recall","Rails","#visit_call","Lost_visit_call","#Views_TestI","#Code_View_Analysis","Code_View_Analysis","Methods_Unknown_Type","Renamed_Files","Deleted_Files","NotFound_Views","#NotFound_Views","Timestamp","Has_Merge","#FP","#FN","FP","FN","#Hits","Hits","f2"
"72","[23-02-2018, 27-02-2018, 06-03-2018, 07-03-2018]","1","9","[ac2e3c0f70e3f16d5d068da54ab8ecbc9ace279c, 68261ec2653c7274e1273c4e0fce8cb7eba66b95, d37bd6d377b900af9e8629e6771e5e2cd078549d, bb613b97fa550a548cf20a54598a0fb4eae4efec, eb956aa179171212a1a311ddae90f48798944b8a, 52989fed03352bd0f29faeb11efd625a2132bcd7, a9947b3ac9ad080304b6aef5329dd73a0968a055, 3bfbbcb7cb577d7c7599b713903174cee56b4932, ed6d57aa616926d833287fe18e324d279bb15b05]","9","37","2","2","[app/controllers/customers_controller.rb, app/controllers/weeks_controller.rb]","[app/controllers/customers_controller.rb, app/controllers/weeks_controller.rb]","1.0","1.0","5.0","21","[]","0","8","[app/controllers/customers_controller.rb, app/controllers/weeks_controller.rb, app/views/customers/index.html.slim, app/views/devise/sessions/new.html.erb, app/views/devise/shared/_links.html.erb, app/views/weeks/edit.html.slim, app/views/weeks/index.html.slim, app/views/weeks/show.html.slim]","[page, fill_in, click_button, have_content, page, click_link, have_link, click_link, have_content, click_button, click_link, fill_in, find, click, page, have_content, select, select_option, have_button, evaluate_script, sleep, class, eql, beginning_of_week, save, encrypted_password, save!, save, have_link, click_on, click_on, to_date, end_of_week, strftime]","","[]","[new_confirmation, new_password, new_session, new_unlock]","4","1.880 seconds","false","0","0","[]","[]","2","[app/controllers/customers_controller.rb, app/controllers/weeks_controller.rb]","1.0"
"125","[06-12-2016, 12-12-2016]","1","2","[9c568501d34df43cbd8349e055e4f2dcac899629, e9d6df0d8580d2363d77a67c7ea725a6789dd8f8]","9","17","4","0","[app/controllers/customers_controller.rb, app/controllers/projects_controller.rb, app/controllers/tasks_controller.rb, app/controllers/weeks_controller.rb]","[]","0.0","0.0","4.2.5","9","[]","0","11","[app/controllers/customers_controller.rb, app/controllers/projects_controller.rb, app/controllers/tasks_controller.rb, app/controllers/weeks_controller.rb, app/views/customers/index.html.slim, app/views/devise/sessions/new.html.erb, app/views/devise/shared/_links.html.erb, app/views/projects/index.html.slim, app/views/projects/show_project_reports.html.slim, app/views/tasks/index.html.slim, app/views/weeks/index.html.slim]","[page, fill_in, click_button, page, have_content, click_link, have_link, click_link, find_field, eq, find, click, sleep, encrypted_password, save!, save, have_link, click_on, click_button, have_no_link]","","[]","[new_confirmation, new_password, new_session, new_unlock, user_google_oauth2_omniauth_authorize]","5","0.486 seconds","false","4","0","[app/controllers/customers_controller.rb, app/controllers/projects_controller.rb, app/controllers/tasks_controller.rb, app/controllers/weeks_controller.rb]","[]","0","[]","0"
"129","[06-12-2016]","1","1","[b8462db8015f07ca947475500b80a84beb567c72]","6","8","2","0","[app/controllers/tasks_controller.rb, app/controllers/weeks_controller.rb]","[]","0.0","0.0","4.2.5","8","[]","0","6","[app/controllers/tasks_controller.rb, app/controllers/weeks_controller.rb, app/views/devise/sessions/new.html.erb, app/views/devise/shared/_links.html.erb, app/views/tasks/index.html.slim, app/views/weeks/index.html.slim]","[page, fill_in, click_button, encrypted_password, save!, save, page, have_link, click_link, have_content, click_link, find_field, eq, have_link, click_on, click_button]","","[]","[new_confirmation, new_password, new_session, new_unlock, user_google_oauth2_omniauth_authorize]","5","0.404 seconds","false","2","0","[app/controllers/tasks_controller.rb, app/controllers/weeks_controller.rb]","[]","0","[]","0"
"98","[19-10-2017, 24-10-2017, 02-11-2017]","1","5","[06ded3b38070d2e86b59d669fdfb8d02ffc34b98, 590f5f99d1f614f1a93e8a289b77261e5f39e074, 6d886c499b0afafee8c99b46a284dcbe28f3cb30, 1b16213946159888c3d6de65c410d7feb3216a34, f17fa1b9a84e0eab7a139920bbdd4f3af0f8b2c6]","5","17","2","1","[app/controllers/projects_controller.rb, app/controllers/weeks_controller.rb]","[app/controllers/weeks_controller.rb]","0.5","1.0","5.0","24","[]","0","7","[app/controllers/projects_controller.rb, app/controllers/weeks_controller.rb, app/views/devise/sessions/new.html.erb, app/views/devise/shared/_links.html.erb, app/views/projects/index.html.slim, app/views/weeks/edit.html.slim, app/views/weeks/index.html.slim]","[page, fill_in, click_button, click_link, beginning_of_week, save, encrypted_password, save!, save, have_link, click_on, page, have_content, click_button, have_link, click_on, find_field, find, text, have_no_link, fill_in, to_date, end_of_week, strftime, beginning_of_week, to_date, end_of_week, strftime]","","[]","[new_confirmation, new_password, new_session, new_unlock]","4","1.515 seconds","false","1","0","[app/controllers/projects_controller.rb]","[]","1","[app/controllers/weeks_controller.rb]","0.8333333333333333"
"136","[10-11-2016, 14-11-2016, 17-11-2016]","1","4","[439d978327fedb58257a7038d23bfd82b52d49b2, b9151c39c159d38aa50a20b829cc9d1dac122018, fd55eeb61ba3698c205a2ff9e22634a43c3d3fe6, 8dba0c0473e9fac8343a1cbfc177dca17c160007]","5","20","2","5","[app/controllers/projects_controller.rb, app/controllers/weeks_controller.rb]","[app/controllers/application_controller.rb, app/controllers/invitations_controller.rb, app/controllers/projects_controller.rb, app/controllers/users/omniauth_callbacks_controller.rb, app/controllers/weeks_controller.rb]","1.0","0.4","4.2.5","4","[]","0","4","[app/controllers/projects_controller.rb, app/controllers/weeks_controller.rb, app/views/projects/edit.html.slim, app/views/weeks/index.html.slim]","[page, have_link, page, click_link, have_content, click_link, fill_in, click_button, open_email, current_email, subject, eq, clear_emails, have_no_link, find, set, have_no_content]","","[]","[user_google_oauth2_omniauth_authorize]","1","0.124 seconds","false","0","3","[]","[app/controllers/application_controller.rb, app/controllers/invitations_controller.rb, app/controllers/users/omniauth_callbacks_controller.rb]","2","[app/controllers/projects_controller.rb, app/controllers/weeks_controller.rb]","0.4545454545454546"
"130","[30-11-2016, 05-12-2016]","2","3","[0a1c3abbc0ca0274792dad3f6ab534773d47d83a, 1c6cf96bf2d02e398044fac753a0685c589d47d0, c41d139c975b29a1ba9d8a9fed30699cb4093889]","3","12","1","1","[app/controllers/weeks_controller.rb]","[app/controllers/weeks_controller.rb]","1.0","1.0","4.2.5","8","[]","0","4","[app/controllers/weeks_controller.rb, app/views/devise/sessions/new.html.erb, app/views/devise/shared/_links.html.erb, app/views/weeks/index.html.slim]","[page, fill_in, click_button, page, have_link, click_link, have_content, click_link, encrypted_password, save!, save, have_no_link, have_link, click_on, click_button]","","[]","[new_confirmation, new_password, new_session, new_unlock, user_google_oauth2_omniauth_authorize]","5","0.409 seconds","false","0","0","[]","[]","1","[app/controllers/weeks_controller.rb]","1.0"
"100","[18-10-2017]","1","1","[3c00c7dd07025ccb98b2aa8834ed3a558e014d23]","2","5","2","0","[app/controllers/customers_controller.rb, app/controllers/projects_controller.rb]","[]","0.0","0.0","5.0","6","[]","0","6","[app/controllers/customers_controller.rb, app/controllers/projects_controller.rb, app/views/customers/index.html.slim, app/views/devise/sessions/new.html.erb, app/views/devise/shared/_links.html.erb, app/views/projects/index.html.slim]","[page, fill_in, click_button, page, have_content, click_link, have_link, have_selector, find, checked?, encrypted_password, save!, save]","","[]","[new_confirmation, new_password, new_session, new_unlock]","4","0.644 seconds","false","2","0","[app/controllers/customers_controller.rb, app/controllers/projects_controller.rb]","[]","0","[]","0"
"145","[20-10-2016, 21-10-2016, 24-10-2016]","1","3","[ec1ce9ed5942dcd59abd7625b531ee95f4fe953d, 564a598d445d8c67c92da525572c9febc662cffd, cf89880ee5a2e186cca7ebac2e8ca3e55808a3c5]","2","6","2","1","[app/controllers/projects_controller.rb, app/controllers/tasks_controller.rb]","[app/controllers/weeks_controller.rb]","0.0","0.0","4.2.5","2","[]","0","4","[app/controllers/projects_controller.rb, app/controllers/tasks_controller.rb, app/views/projects/index.html.slim, app/views/tasks/index.html.slim]","[page, have_content, text, click_link]","","[]","","0","0.094 seconds","false","2","1","[app/controllers/projects_controller.rb, app/controllers/tasks_controller.rb]","[app/controllers/weeks_controller.rb]","0","[]","0"
