"Repository","https://github.com/dchbx/enroll.git"
"Tasks with empty IReal","0"
"Tasks with no-empty IReal","6"
"Tasks with relevant AST error","0"
"Tasks with AST error of Gherkin files","0"
"Tasks with AST error of StepDef files","0"
"Tasks with AST error of production files","0"
"Tasks with AST error of unit test files","0"
"Tasks with step match error","6"
"Tasks without required gems","0"
"Tasks with changed stepdef","5"
"Tasks with changed Gherkin","6"
"Tasks with implemented Gherkin scenarios","1"
"All invalid tasks","6"
"All valid tasks (Gherkin scenario, no empty IReal, no error)","0"
"Valid tasks, but empty ITest","0"
"Valid tasks, no empty ITest, but zero precision-recall","0"
"Valid tasks, no empty ITest, no zero precision-recall","0"
"Project","Task","Date","#Days","#Commits","Commit_Message","#Devs","#Gherkin_Tests","#Impl_Gherkin_Tests","#StepDef","#Impl_StepDef","Methods_Unknown_Type","#Step_Call","Step_Match_Errors","#Step_Match_Error","AST_Errors","#AST_Errors","Gherkin_AST_Errors","#Gherkin_AST_Errors","Steps_AST_Errors","#Steps_AST_Errors","Renamed_Files","Deleted_Files","NotFound_Views","#Views","#TestI","#TaskI","TestI","TaskI","Precision","Recall","Hashes","Timestamp","Rails","Gems","#Visit_Call","Lost_visit_call","#Views_ITest","#Code_View_Analysis","Code_View_Analysis","Has_Merge","F2","#Multiple_Step_Matches","Multiple_Step_Matches","#Generic_Step_Keyword","Generic_Step_Keyword"
"enroll","5305","[16-08-2015]","1","3","[Refs #2233  - Fix cucumber specs , Refs #2233 : Cucumber for individual flow , Refs #2233 - Fix rspecs. ]","1","1","0","9","9","[goto, a, wait_until_present, click, button, wait_until_present, text_field, set, input, button, text_field, set, radio, fire_event, element, a, visible?, be_truthy, click, checkbox, divs, li, div, li, checkbox, wait_while_present, nil?, screenshot, execute_script]","0","[path:features/insured/individual_signup.feature, size:1]","1","","0","","0","","0","","[]","","0","8","2","[app/models/assister_role.rb, app/models/broker_agency_profile.rb, app/models/broker_role.rb, app/models/carrier_profile.rb, app/models/csr_role.rb, app/models/employer_profile.rb, app/models/forms/broker_agency_profile.rb, app/models/forms/employer_profile.rb]","[app/models/factories/enrollment_factory.rb, app/views/consumer/consumer_roles/_form.html.erb]","0.0","0.0","[32da2c29592c8dac6a71004e236921bf749bbc4c, 2e1bdc6304aa28c4dffc67f57bb86251967d1e2c, 45c770de47a756bbedb1eedd0c4bfb91789d4732]","0.532 seconds","4.2.0","[cucumber-rails, rspec-rails, factory_girl]","0","[]","0","0","[]","false","0.0","0","","0",""
"enroll","5310","[16-08-2015]","1","3","[Refs #2233 - Fix broker cucumber spec. , Refs #2233 : fix existing cucumber specs , Refs #2233 : Fix rspec tests. ]","1","3","3","3","3","[goto, element, wait_until_present, click, radio, fire_event, element, wait_until_present, visible?, be_truthy, text_field, set, div, li, checkbox, button, open_email, current_email, eq, have_subject, current_email, links_in_email, sub!, a, input, h3, h4, a, div, p, click, lis, sleep, dd, td, nil?, screenshot, execute_script, class, eval, select, divs, text_field, set, divs, li, button, gsub, goto, gsub, radio, fire_event, checkbox, lis, present?, sleep, wait_while_present, input, label, be_falsey, wait_while_present, span, as, form, to_i, exist, not_to, form, execute_script, visible?, be_truthy, set?, label, text, refresh, h3, text, checkboxes, present?, select, ul]","3","[path:features/step_definitions/integration_steps.rb, size:1]","1","","0","","0","","0","","[]","","0","19","4","[app/models/assister_role.rb, app/models/broker_agency_profile.rb, app/models/broker_agency_staff_role.rb, app/models/broker_role.rb, app/models/carrier_profile.rb, app/models/consumer_role.rb, app/models/csr_role.rb, app/models/employee_role.rb, app/models/employer_profile.rb, app/models/family_member.rb, app/models/forms/broker_agency_profile.rb, app/models/forms/employer_profile.rb, app/models/has_family_members.rb, app/models/hbx_enrollment_exemption.rb, app/models/household.rb, app/models/irs_group.rb, app/models/office_location.rb, app/models/person_relationship.rb, app/models/plan_year.rb]","[app/controllers/consumer/employee_roles_controller.rb, app/views/consumer/employee_roles/no_match.html.haml, app/views/consumer_profiles/_menu.html.erb, app/views/shared/person/_personal_information.html.erb]","0.0","0.0","[fe555dac03113d86b3858128f962f11ac7bd92a6, 1ed8196981c243f87fea9fd3f26f7d7faf8a57a8, 7cceb4c0b9b0f040a7965f50ad3818c6840ee774]","3.005 seconds","4.2.0","[cucumber-rails, rspec-rails, factory_girl]","0","[]","0","0","[]","false","0.0","1","[path:features/integration/employee_sign_up.feature, text:Employee should see the matched employee record form]","0",""
"enroll","5482","[20-07-2015, 23-07-2015]","4","2","[#1772 added employer cost estimator , Added cucumber feature for broker registratino ]","1","1","0","13","13","[goto, element, wait_until_present, click, radio, fire_event, visible?, be_truthy, text_field, set, text_field, set, div, click, li, checkboxes, each, enter_office_location, element, wait_until_present, element, wait_until_present, visible?, be_truthy, click, execute_script]","0","[path:features/brokers/create_broker_agency_profiles.feature, size:1]","1","","0","","0","","0","","[]","","0","0","2","[]","[app/views/broker_agencies/broker_roles/_new_broker_agency_form.html.erb, app/views/shared/_benefit_group_fields.html.erb]","0.0","0.0","[8e5134125492f5b5e96574ab886160b30d003025, 322c06b34e8736d569bdf2150e35bd7d5612c967]","0.325 seconds","4.2.0","[cucumber-rails, rspec-rails, factory_girl]","0","[]","0","0","[]","false","0.0","0","","0",""
"enroll","5587","[09-07-2015, 10-07-2015]","2","7","[controller specs Refs #1502 , Refs #1502 cucumber for Publish Plan modal , removed interaction click controls , Refs #1502 humanization of plan year state , Refs #1502 Adde modal partial, changed modal buttons , Refs #1502 Added warnings to plan year edit page , Refs #1502 Plan year publish warnings dailog box added ]","2","1","0","8","8","[text_field, wait_until_present, set, h3, click, text, be_truthy, div, li, h4, sleep, divs, checkboxes, button, element, wait_until_present, click, element, wait_until_present, div, ul, be_truthy, a, click, present?, text_field, set, be_truthy, binding, pry, nil?, screenshot, execute_script]","0","[path:features/employers/create_employer.feature, size:1]","1","","0","","0","","0","","[]","","0","7","5","[app/models/broker_agency_profile.rb, app/models/broker_role.rb, app/models/carrier_profile.rb, app/models/employee_role.rb, app/models/employer_profile.rb, app/models/forms/broker_agency_profile.rb, app/models/forms/employer_profile.rb]","[app/controllers/employers/plan_years_controller.rb, app/models/plan_year.rb, app/views/employers/employer_profiles/my_account/_benefits.html.erb, app/views/employers/plan_years/_form.html.erb, app/views/employers/plan_years/_publish_modal.html.erb]","0.0","0.0","[777216b97a046ce73a6339bde9e61d3e09dc93dc, f10753854a0ac9e017f6d8e9b03920660917a8f5, 8f984fba50a22765810faf7fd33e1c7edbebe195, 4f0b2fef858604c41116e93ba145d0235fd93c01, f694288c45ed6a9c88dc14b767de4de927c9d4bd, ec3d8baf91214b401ff07e7362dbd5d156cc49e9, a6770fa9a834fee1069814a43fcc9d285f6c41be]","0.338 seconds","4.2.0","[cucumber-rails, rspec-rails, factory_girl]","0","[]","0","0","[]","false","0.0","0","","0",""
"enroll","5701","[26-06-2015]","1","1","[Fix for 1451 & 1426 QLE date rules ]","1","1","0","2","2","[element, wait_until_present, visible?, be_truthy, nil?, screenshot]","0","[path:features/employers/create_employer.feature, size:1]","1","","0","","0","","0","","[]","","0","20","2","[app/controllers/consumer_profiles_controller.rb, app/models/forms/broker_agency_profile.rb, app/models/forms/employer_profile.rb, app/views/consumer_profiles/_employers_and_plans.html.erb, app/views/consumer_profiles/_home.html.erb, app/views/consumer_profiles/_home_js.html.erb, app/views/consumer_profiles/_home_menu.html.erb, app/views/consumer_profiles/_home_modal3.html.erb, app/views/consumer_profiles/_home_profile_pane.html.erb, app/views/consumer_profiles/_menu.html.erb, app/views/consumer_profiles/_qles.html.erb, app/views/consumer_profiles/home.html.erb, app/views/consumer_profiles/home_old.html.erb, app/views/people/landing_pages/_coverage_plans.html.erb, app/views/people/landing_pages/_employer.html.erb, app/views/people/landing_pages/_personal.html.erb, app/views/shared/_address_fields.html.erb, app/views/shared/_email_fields.html.erb, app/views/shared/_error_warning.html.erb, app/views/shared/_phone_fields.html.erb]","[app/controllers/consumer_profiles_controller.rb, app/views/consumer_profiles/_qles.html.erb]","0.1","1.0","[6696102b0c69f754c5edd06d5244bf694a45a7be]","0.498 seconds","4.2.0","[cucumber-rails, rspec-rails, factory_girl]","1","[]","17","18","[app/controllers/consumer_profiles_controller.rb, app/views/consumer_profiles/_employers_and_plans.html.erb, app/views/consumer_profiles/_home.html.erb, app/views/consumer_profiles/_home_js.html.erb, app/views/consumer_profiles/_home_menu.html.erb, app/views/consumer_profiles/_home_modal3.html.erb, app/views/consumer_profiles/_home_profile_pane.html.erb, app/views/consumer_profiles/_menu.html.erb, app/views/consumer_profiles/_qles.html.erb, app/views/consumer_profiles/home.html.erb, app/views/consumer_profiles/home_old.html.erb, app/views/people/landing_pages/_coverage_plans.html.erb, app/views/people/landing_pages/_employer.html.erb, app/views/people/landing_pages/_personal.html.erb, app/views/shared/_address_fields.html.erb, app/views/shared/_email_fields.html.erb, app/views/shared/_error_warning.html.erb, app/views/shared/_phone_fields.html.erb]","false","0.3571428571428572","0","","0",""
"enroll","6051","[28-05-2015]","1","1","[broker agency profile creation. ]","1","1","0","0","0","[]","0","[path:features/brokers/create_broker_agency.feature, size:1]","1","","0","","0","","0","","[app/views/broker_agencies/broker_profiles/new.html.haml]","","0","0","13","[]","[app/controllers/broker_agencies/profiles_controller.rb, app/models/broker_agency_profile.rb, app/models/employer_profile.rb, app/models/organization.rb, app/views/broker_agencies/broker_agency_profiles/show.html.erb, app/views/broker_agencies/profiles/_form.html.erb, app/views/broker_agencies/profiles/new.html.erb, app/views/broker_agencies/profiles/show.html.erb, app/views/employers/employer/_tax_fields.html.erb, app/views/employers/employer_profiles/_tax_fields.html.erb, app/views/shared/_broker_agency_profile_fields.html.erb, app/views/shared/_employer_profile_fields.html.erb, app/views/shared/organizations/_entity_name_and_type_fields.html.erb]","0.0","0.0","[ca304e992d8de05b6e5482dcd227560f6fb87bb2]","0.111 seconds","4.2.0","[cucumber-rails, rspec-rails, factory_girl]","0","[]","0","0","[]","false","0.0","0","","0",""
